App - Shortyz
Scenario - download_puzzles
Length - 10sec
Measure - EuclideanDistance
Before Version - 4.0.2_b_m
After Version - 4.0.5_b_m


"Before.Trace.ID1","Before.Trace.ID2","Difference","Runtime"
1,2,3982.58422227557,0.00100000000020373
1,3,4273.36820238203,0
1,4,4916.68300243854,0.00100000000020373
1,5,5999.30314327883,0.00100000000020373
1,6,4552.18850074969,0
1,7,4866.82999059554,0.00100000000020373
1,8,5083.9876477569,0.000999999998384737
1,9,4310.1813670579,0.00100000000020373
1,10,5219.19527210405,0
1,11,3247.31935781443,0.00100000000020373
1,12,3356.59756872444,0.00100000000020373
1,13,4834.72407960579,0.0130000000008295
1,14,5677.12058226333,0.00100000000020373
1,15,7140.51178304603,0.000999999998384737
1,16,4419.89436410693,0
1,17,4625.10785527391,0
1,18,3937.86378304401,0.00100000000020373
1,19,3623.28629178037,0.00100000000020373
1,20,3096.74719886384,0
1,21,3468.94176098643,0.00100000000020373
1,22,3027.78724530355,0.00100000000020373
1,23,3895.20540507483,0
1,24,2515.59998378937,0.00100000000020373
1,25,4589.95735505203,0.00100000000020373
1,26,5707.14918648556,0
1,27,4295.89017265115,0.00100000000020373
1,28,5882.49146006309,0.000999999998384737
1,29,3676.67987769154,0
1,30,3175.10657248854,0.00100000000020373
2,3,4283.69609579196,0.00100000000020373
2,4,6151.40749328094,0
2,5,5623.46298521508,0.00100000000020373
2,6,5678.76921700675,0.00100000000020373
2,7,4968.36597812227,0
2,8,3681.49054469372,0.00100000000020373
2,9,4007.76150547578,0.00100000000020373
2,10,5913.17817660354,0
2,11,4061.8042499384,0.00100000000020373
2,12,3758.20265300073,0.00100000000020373
2,13,5033.04899817814,0
2,14,5970.20594578138,0
2,15,6637.81589861451,0.00100000000020373
2,16,4352.62752860231,0
2,17,4062.67264069332,0
2,18,4775.73659729985,0.00100000000020373
2,19,3755.70443727726,0.00100000000020373
2,20,5025.90394593657,0
2,21,3146.15881165489,0.00100000000020373
2,22,4268.31212584274,0.00100000000020373
2,23,4269.31620797249,0
2,24,4534.92404023218,0.00100000000020373
2,25,3828.36896444377,0.00100000000020373
2,26,5671.50631791676,0
2,27,4082.13673135924,0.000999999998384737
2,28,6499.14592399608,0.00100000000020373
2,29,4536.35740563815,0.00100000000020373
2,30,4344.87358131825,0
3,4,4422.04416404346,0.00100000000020373
3,5,7455.60689846649,0.00100000000020373
3,6,2664.61578867573,0.0130000000008295
3,7,2729.65275894232,0.000999999998384737
3,8,4009.15785660349,0.00100000000020373
3,9,4112.1329216886,0
3,10,7377.60146679328,0
3,11,3192.71603219215,0.00100000000020373
3,12,2321.67612963702,0.00100000000020373
3,13,2729.10529873224,0
3,14,4288.97909374278,0.00100000000020373
3,15,5053.0514756406,0.00100000000020373
3,16,3305.50773404721,0
3,17,2738.79876643664,0.00100000000020373
3,18,2839.5363312467,0.00100000000020373
3,19,2789.78327844102,0
3,20,5096.22541577007,0.000999999998384737
3,21,3934.38048068473,0.00100000000020373
3,22,3903.48193478762,0
3,23,2254.67996163797,0.00100000000020373
3,24,3434.87282419259,0.00100000000020373
3,25,3243.70518792519,0
3,26,3113.94569397547,0.00100000000020373
3,27,3487.37557943257,0.00100000000020373
3,28,4687.56329915852,0
3,29,2951.87335154944,0
3,30,4368.05600461051,0.00100000000020373
4,5,6974.25210824215,0
4,6,3410.46522981656,0
4,7,5399.82847971392,0.000999999998384737
4,8,5882.38825298293,0.00100000000020373
4,9,4700.09162988311,0
4,10,7102.48548251249,0.00100000000020373
4,11,4212.50982913868,0.00100000000020373
4,12,4293.76634627674,0
4,13,3063.4797165399,0.00100000000020373
4,14,5054.48855356666,0.00100000000020373
4,15,5801.57161682975,0
4,16,4672.07102220782,0.00100000000020373
4,17,4671.29621052713,0.00100000000020373
4,18,4163.76914249063,0
4,19,4552.48196320513,0.00100000000020373
4,20,4568.45101385763,0.000999999998384737
4,21,5673.95403736124,0
4,22,4725.18510087093,0
4,23,3039.34831826518,0.00100000000020373
4,24,3717.32707239981,0.00100000000020373
4,25,6164.36960124578,0
4,26,5059.17857446852,0.00100000000020373
4,27,4211.95000012208,0.00100000000020373
4,28,3826.06764395757,0.0129999999990105
4,29,3433.0803832346,0.00100000000020373
4,30,3625.47752727573,0.00100000000020373
5,6,7828.81141221491,0
5,7,8647.73183742333,0
5,8,5462.09445683616,0.00100000000020373
5,9,5018.90439127534,0.00100000000020373
5,10,5083.00165860983,0
5,11,6800.2400396461,0.00100000000020373
5,12,6695.49860397577,0.00100000000020373
5,13,7019.51130832854,0
5,14,8270.47425149446,0.000999999998384737
5,15,7230.83736265917,0.00100000000020373
5,16,6211.04732504882,0
5,17,6517.03632033058,0.00100000000020373
5,18,7683.08242461156,0.00100000000020373
5,19,7421.27340231728,0
5,20,5465.68793439361,0.00100000000020373
5,21,6598.98281668647,0.00100000000020373
5,22,5887.56837012009,0
5,23,6648.35667923309,0.00100000000020373
5,24,7031.18953197536,0.00100000000020373
5,25,7317.06536879383,0
5,26,8219.71430149577,0.00100000000020373
5,27,5332.5118091576,0.000999999998384737
5,28,6453.57473756245,0
5,29,6737.33509426691,0.00100000000020373
5,30,4987.37289976982,0.00100000000020373
6,7,3067.72799631246,0
6,8,5086.35285533512,0.00100000000020373
6,9,4525.24827412084,0.00100000000020373
6,10,7304.23950995654,0
6,11,3253.14105291307,0
6,12,2994.73293159906,0.00100000000020373
6,13,2578.41677463917,0
6,14,4044.63429349292,0.00100000000020373
6,15,4982.14254543101,0.00100000000020373
6,16,3997.73056670043,0
6,17,3128.51674538967,0
6,18,2622.96856048047,0.00100000000020373
6,19,3202.97266226233,0.00100000000020373
6,20,4938.89786661992,0
6,21,4580.7740736592,0.00100000000020373
6,22,3937.97945839577,0.00100000000020373
6,23,2703.02769341561,0
6,24,3161.27944978279,0.00100000000020373
6,25,4285.69231698256,0.00100000000020373
6,26,3391.17474927028,0
6,27,3811.23298515539,0.0139999999992142
6,28,3729.63510952376,0.00100000000020373
6,29,2411.20836557029,0
6,30,4354.49399285658,0.00100000000020373
7,8,4965.48625840024,0.00100000000020373
7,9,5185.91491200012,0
7,10,8164.64525031825,0.00100000000020373
7,11,3403.04746007152,0.00100000000020373
7,12,3298.66690438785,0
7,13,3639.41501075503,0.00100000000020373
7,14,4359.31176584648,0.000999999998384737
7,15,5555.99982913021,0
7,16,3878.06801007848,0.00100000000020373
7,17,3234.22465766796,0.00100000000020373
7,18,3053.64348006935,0
7,19,2732.87065533886,0.00100000000020373
7,20,5897.7698761725,0.00100000000020373
7,21,4064.61042888451,0
7,22,4795.48537548602,0.00100000000020373
7,23,3451.20133717198,0.00100000000020373
7,24,3864.10489088869,0
7,25,3330.50672549427,0.00100000000020373
7,26,3803.10920271154,0.00100000000020373
7,27,4349.0414483575,0
7,28,5574.09522500059,0.000999999998384737
7,29,3490.79968784675,0.00100000000020373
7,30,5580.68774653954,0
8,9,3037.01474525014,0.00100000000020373
8,10,6914.8140116039,0.00100000000020373
8,11,4690.89067962756,0
8,12,4133.51084894439,0.00100000000020373
8,13,4188.53282661378,0.00100000000020373
8,14,6087.08782721568,0
8,15,4802.48524049089,0.00100000000020373
8,16,3161.64047929364,0.00100000000020373
8,17,3157.34272021905,0
8,18,5053.87684107607,0.00100000000020373
8,19,4484.80452616609,0.000999999998384737
8,20,6057.52091048003,0
8,21,4470.90751857093,0.00100000000020373
8,22,4427.0893527068,0.00100000000020373
8,23,3803.96221917399,0
8,24,5338.3463923679,0.00100000000020373
8,25,3852.85729729832,0.00100000000020373
8,26,5091.90044937378,0
8,27,3387.50895667812,0.00100000000020373
8,28,5038.95209873286,0.00100000000020373
8,29,4784.73022684509,0
8,30,5073.79071000871,0.0139999999992142
9,10,6004.86176507335,0.00100000000020373
9,11,4581.72364284433,0
9,12,3468.77560115652,0.00100000000020373
9,13,3750.2040560394,0.00100000000020373
9,14,6230.74441528753,0
9,15,5154.89537018678,0.00100000000020373
9,16,3467.59100751681,0.00100000000020373
9,17,3037.21681767618,0
9,18,4775.43366040588,0.00100000000020373
9,19,4135.89135066449,0.000999999998384737
9,20,5037.06032582983,0
9,21,4369.70145229047,0.00100000000020373
9,22,3460.82804848535,0.00100000000020373
9,23,3511.74916345962,0
9,24,4556.69237452158,0.00100000000020373
9,25,4233.31361736526,0.00100000000020373
9,26,4779.94419595965,0
9,27,3019.2366425465,0.00100000000020373
9,28,4522.88054108074,0.00100000000020373
9,29,4062.20480388018,0
9,30,3886.84163899257,0.00100000000020373
10,11,6545.55890236043,0.00100000000020373
10,12,6075.67324286657,0
10,13,7484.661875552,0.000999999998384737
10,14,8442.54633079002,0.00100000000020373
10,15,8646.23135223272,0
10,16,6829.03810949193,0.00100000000020373
10,17,7008.25764624461,0.00100000000020373
10,18,6998.83966448682,0
10,19,7193.49948586721,0.00100000000020373
10,20,3824.02061746543,0.00100000000020373
10,21,6074.49777853166,0
10,22,4517.58443197894,0.00100000000020373
10,23,6800.587383467,0.00100000000020373
10,24,6069.4365764373,0
10,25,7112.04915427869,0.000999999998384737
10,26,8181.71818900096,0.00100000000020373
10,27,5639.33100939756,0
10,28,6962.22700301731,0.00100000000020373
10,29,5823.4447514496,0.00100000000020373
10,30,4952.36688665393,0
11,12,2533.68788076781,0
11,13,3621.11023667439,0.00100000000020373
11,14,3813.59610038065,0
11,15,5626.41379526852,0
11,16,4346.02223568194,0.00100000000020373
11,17,3363.70709901948,0.00100000000020373
11,18,2312.80031894856,0.0129999999990105
11,19,2355.13646736104,0.00100000000020373
11,20,4178.71167162484,0.00100000000020373
11,21,3307.47423420767,0
11,22,4109.52428184892,0.00100000000020373
11,23,3022.10623500634,0.00100000000020373
11,24,2092.18532146635,0
11,25,4057.67219830063,0.00100000000020373
11,26,4246.78028901553,0.000999999998384737
11,27,4021.93406990668,0
11,28,5074.68541999242,0.00100000000020373
11,29,2567.1964018535,0.00100000000020373
11,30,3901.59815360456,0
12,13,3108.99316200575,0.00100000000020373
12,14,4721.94444167553,0.00100000000020373
12,15,5397.85515130943,0
12,16,3702.02086097921,0.00100000000020373
12,17,2837.37726934594,0.00100000000020373
12,18,2615.96586308326,0
12,19,2418.66148472252,0.00100000000020373
12,20,4086.46172641217,0.00100000000020373
12,21,3362.37846121972,0
12,22,3064.37983690014,0.000999999998384737
12,23,2745.79668678452,0.00100000000020373
12,24,2758.01573863638,0
12,25,3251.56837134654,0.00100000000020373
12,26,3293.33147495266,0.00100000000020373
12,27,3181.94860354551,0
12,28,4794.8142599138,0.00100000000020373
12,29,2274.11502090235,0
12,30,3711.97896484014,0
13,14,4750.06654234651,0.00100000000020373
13,15,4916.01808722164,0
13,16,2878.34153076278,0
13,17,2868.51159061428,0.00100000000020373
13,18,3543.22381895639,0.000999999998384737
13,19,3326.91386921918,0
13,20,5225.77454310561,0.00100000000020373
13,21,4707.66608574388,0.00100000000020373
13,22,4114.04093886454,0
13,23,1890.09606463363,0.00100000000020373
13,24,3808.9015690089,0.00100000000020373
13,25,4296.63972150182,0
13,26,4059.24798579325,0.00100000000020373
13,27,2915.28565014634,0.00100000000020373
13,28,4007.32643456763,0
13,29,2987.70250376634,0.00100000000020373
13,30,4107.62002361737,0.00100000000020373
14,15,4807.32215947806,0.0129999999990105
14,16,5495.19456555714,0.00100000000020373
14,17,4712.52734244506,0.00100000000020373
14,18,3602.52456407586,0.00100000000020373
14,19,3879.06690346984,0
14,20,5932.78699626392,0.00100000000020373
14,21,4546.7142911304,0
14,22,6000.43041405709,0
14,23,4541.26449858246,0.000999999998384737
14,24,4603.66742845555,0
14,25,4942.33563275658,0.00100000000020373
14,26,3950.52520259914,0.00100000000020373
14,27,5500.15557999052,0
14,28,5046.87892844074,0.00100000000020373
14,29,4293.62089344657,0.00100000000020373
14,30,5259.61873328534,0
15,16,5145.74959714442,0.00100000000020373
15,17,4263.84151343885,0.00100000000020373
15,18,5274.72686718894,0
15,19,5661.30510511024,0.00100000000020373
15,20,6945.58646592035,0.00100000000020373
15,21,6306.24051394624,0
15,22,6339.78307056173,0.000999999998384737
15,23,5213.33790654212,0.00100000000020373
15,24,6460.52826119043,0
15,25,5329.36698124308,0.00100000000020373
15,26,3934.81281649369,0.00100000000020373
15,27,5084.29399664198,0
15,28,3760.59113862934,0.00100000000020373
15,29,5282.2071134846,0.00100000000020373
15,30,6265.57989195125,0
16,17,3362.35660918801,0.00100000000020373
16,18,4529.07665028097,0.00100000000020373
16,19,3941.58620617136,0
16,20,5014.03910904958,0.00100000000020373
16,21,4226.89453054988,0.000999999998384737
16,22,3806.02636007749,0
16,23,2659.30822574653,0.00100000000020373
16,24,4467.88868872726,0.00100000000020373
16,25,3743.44494617427,0
16,26,4957.3904380275,0.00100000000020373
16,27,2313.94158647931,0.00100000000020373
16,28,4673.98891023504,0
16,29,3814.25416787822,0.00100000000020373
16,30,4124.43090435106,0.00100000000020373
17,18,3168.40230535001,0
17,19,2880.89325844096,0.00100000000020373
17,20,5400.27584533791,0.00100000000020373
17,21,3726.36408554538,0.0129999999990105
17,22,3913.40470683771,0.00100000000020373
17,23,2811.40192484017,0.00100000000020373
17,24,3993.14239158905,0
17,25,2971.31244951637,0.00100000000020373
17,26,3486.96405702314,0.00100000000020373
17,27,3313.89492420246,0
17,28,4207.32683675888,0.00100000000020373
17,29,3178.03990490297,0.000999999998384737
17,30,4508.22303153187,0
18,19,2269.45471187861,0.00100000000020373
18,20,4673.29075806548,0.00100000000020373
18,21,3665.11832121864,0
18,22,3924.42382100874,0.00100000000020373
18,23,2986.34911781117,0.00100000000020373
18,24,2481.33396456853,0
18,25,3876.43591936151,0.00100000000020373
18,26,3276.73612066143,0.00100000000020373
18,27,4436.08006718229,0
18,28,4822.66717424643,0.00100000000020373
18,29,2512.36200927321,0.000999999998384737
18,30,4358.98272120789,0
19,20,5024.37342540062,0.00100000000020373
19,21,2641.26034787661,0.00100000000020373
19,22,4000.59752722472,0
19,23,2791.43516496156,0.00100000000020373
19,24,2758.86389015288,0.00100000000020373
19,25,3186.57255764998,0
19,26,3642.05258510744,0.00100000000020373
19,27,4138.51466201382,0.00100000000020373
19,28,5425.23495012982,0
19,29,3053.98353281824,0.00100000000020373
19,30,4270.26735471265,0.00100000000020373
20,21,4709.21501935799,0
20,22,3372.32568488447,0.000999999998384737
20,23,4591.64576334333,0.00100000000020373
20,24,3455.13395495496,0
20,25,5695.03660853961,0.00100000000020373
20,26,6126.60937139063,0.00100000000020373
20,27,4181.77234631741,0
20,28,5336.57106496223,0.00100000000020373
20,29,3589.90121733985,0.00100000000020373
20,30,2802.8612578437,0
21,22,3796.79057905044,0
21,23,3885.25101336526,0.00100000000020373
21,24,3710.97112317875,0
21,25,3029.43246752438,0
21,26,4901.25955823251,0.000999999998384737
21,27,4165.55326458744,0.0290000000004511
21,28,5934.26255535729,0.00100000000020373
21,29,3719.50164448616,0.00100000000020373
21,30,4113.23344532035,0
22,23,3537.86987058892,0.00100000000020373
22,24,3432.96881279923,0.00100000000020373
22,25,4110.1901265693,0.00100000000020373
22,26,5199.04859545255,0
22,27,3098.64384026611,0.00100000000020373
22,28,4937.43225207411,0.000999999998384737
22,29,3153.11979003982,0
22,30,3414.14644599071,0.00100000000020373
23,24,2941.59397498582,0.00100000000020373
23,25,4056.8683447121,0.00100000000020373
23,26,4077.11750494617,0
23,27,2756.54836250101,0.00100000000020373
23,28,4250.24281282046,0.00100000000020373
23,29,2655.30228067821,0
23,30,3569.14088494385,0.00100000000020373
24,25,4624.61532820506,0.00100000000020373
24,26,4766.7217434658,0
24,27,4189.72514458202,0.00100000000020373
24,28,5167.20786071187,0.000999999998384737
24,29,2476.98389174156,0
24,30,3434.98678558266,0.00100000000020373
25,26,3967.10695749313,0.00100000000020373
25,27,4186.39028698518,0
25,28,5521.2708077199,0.00100000000020373
25,29,3989.16764114355,0.00100000000020373
25,30,5007.80095966452,0
26,27,4865.62102812524,0
26,28,4512.0481068845,0.00100000000020373
26,29,3955.34669631066,0
26,30,5347.0697611744,0
27,28,4192.35739839515,0.00100000000020373
27,29,3045.57278206387,0.000999999998384737
27,30,3435.4423601344,0
28,29,3920.32923657287,0.00100000000020373
28,30,4570.55242558694,0.00100000000020373
29,30,3411.47783510117,0


"After.Trace.ID","Before.Trace.ID","Difference","Runtime"
1,1,3227.58711417039,0.00100000000020373
1,2,3975.11854663254,0.00100000000020373
1,3,2649.35208790306,0
1,4,3420.35929806227,0
1,5,6404.28170969103,0.00100000000020373
1,6,2709.05131623473,0
1,7,3659.8587402622,0
1,8,4312.32911214603,0.00100000000020373
1,9,3670.26280572529,0.00100000000020373
1,10,5925.67544535264,0
1,11,2803.43406614989,0.00100000000020373
1,12,2396.43016083688,0.000999999998384737
1,13,2954.58429743786,0
1,14,3854.96804072637,0.00100000000020373
1,15,5200.20944653058,0.00100000000020373
1,16,3383.58936553947,0
1,17,3122.32992745869,0.00100000000020373
1,18,2574.65058699172,0.00100000000020373
1,19,2533.9530110724,0
1,20,3657.64291143137,0.00100000000020373
1,21,3210.03150079036,0.00100000000020373
1,22,2851.95585613298,0
1,23,2212.87813371402,0
1,24,2686.32783352848,0.00100000000020373
1,25,3671.75221885058,0
1,26,3733.52122231654,0
1,27,3115.50554104765,0.00100000000020373
1,28,4310.5060501638,0.00100000000020373
1,29,2447.26317159117,0
1,30,2908.33004442993,0.00100000000020373
2,1,5715.99449239574,0.00100000000020373
2,2,3406.35841068913,0
2,3,3985.09138044547,0.00100000000020373
2,4,6966.77976857365,0.00100000000020373
2,5,6817.71813610216,0
2,6,5597.7744857646,0.00100000000020373
2,7,4800.63958684641,0.00100000000020373
2,8,3088.47387316369,0.000999999998384737
2,9,4529.63882257634,0
2,10,7797.04977536213,0.00100000000020373
2,11,4737.12387376177,0.00100000000020373
2,12,4228.20175695854,0
2,13,4979.72058791962,0.00100000000020373
2,14,5974.01755209601,0.00100000000020373
2,15,5590.47685802956,0
2,16,4566.23106793206,0.00100000000020373
2,17,3425.45498703949,0.00100000000020373
2,18,5071.02185673294,0
2,19,4309.11680838138,0.010999999998603
2,20,6826.23402149472,0
2,21,4251.15837261705,0.00100000000020373
2,22,5457.56618745401,0.00100000000020373
2,23,4719.97067693004,0
2,24,5798.04627921196,0.00100000000020373
2,25,3101.72088149696,0.00100000000020373
2,26,4850.39662312739,0
2,27,4741.55999219266,0.00100000000020373
2,28,6407.16271331933,0.00100000000020373
2,29,5308.72053635126,0
2,30,5765.55587048096,0
3,1,4179.03546958621,0.000999999998384737
3,2,3594.81212740097,0.00100000000020373
3,3,2827.90682000483,0
3,4,5094.5720750235,0.00100000000020373
3,5,6136.89318223759,0.00100000000020373
3,6,4159.61334664516,0
3,7,3855.70463119605,0.00100000000020373
3,8,2942.02711149538,0.00100000000020373
3,9,3798.10957891408,0
3,10,6734.683338356,0.00100000000020373
3,11,3557.63172393724,0.00100000000020373
3,12,3079.7398123758,0
3,13,3369.40123378427,0
3,14,5115.66282550679,0.00100000000020373
3,15,5250.41976703323,0.00100000000020373
3,16,2339.41763237791,0
3,17,3249.58316526815,0.00100000000020373
3,18,4158.43437044788,0.00100000000020373
3,19,3616.45159963916,0
3,20,4992.80202152764,0.00100000000020373
3,21,3612.26614266924,0.00100000000020373
3,22,4040.65000134622,0
3,23,2868.11066458993,0.00100000000020373
3,24,4196.29632056282,0.00100000000020373
3,25,3379.93392128576,0
3,26,4483.16826080295,0
3,27,2644.6136111522,0.00100000000020373
3,28,5147.04164774369,0.00100000000020373
3,29,3579.08203878381,0
3,30,3981.92332017374,0.00100000000020373
4,1,3624.83322708255,0.00100000000020373
4,2,5133.66354218048,0
4,3,3605.00656196281,0.00100000000020373
4,4,4735.84701706957,0.00100000000020373
4,5,7785.93740982876,0
4,6,3238.98777073668,0
4,7,3294.50880821451,0.00100000000020373
4,8,5275.31564078133,0.000999999998384737
4,9,5462.9056391049,0
4,10,7168.02687097418,0.00100000000020373
4,11,2600.26595088961,0.00100000000020373
4,12,3849.74255140414,0
4,13,4291.66170945982,0.0120000000006257
4,14,3944.14053177957,0.00100000000020373
4,15,6047.90055640527,0.00100000000020373
4,16,4504.40330035397,0.00100000000020373
4,17,4126.14738702871,0
4,18,2811.31910964917,0.000999999998384737
4,19,3108.69062362458,0.00100000000020373
4,20,4807.87233506066,0
4,21,3912.54043978406,0.00100000000020373
4,22,4323.5912382093,0.00100000000020373
4,23,3526.64488140947,0
4,24,2755.57613197115,0.00100000000020373
4,25,4515.70598090622,0.00100000000020373
4,26,4902.44037839024,0
4,27,4753.20546316163,0.00100000000020373
4,28,5251.06150792695,0.00100000000020373
4,29,3315.65849091235,0
4,30,4816.28806118454,0.00100000000020373
5,1,4377.25690197794,0.000999999998384737
5,2,5427.45125069531,0
5,3,4068.23851307617,0
5,4,2854.07494737406,0.00100000000020373
5,5,6067.66740714311,0.00100000000020373
5,6,3538.80228488236,0
5,7,5041.51925413986,0.00100000000020373
5,8,4543.3203221505,0.00100000000020373
5,9,3372.34546770915,0
5,10,6321.47495806067,0.00100000000020373
5,11,3944.9401620356,0.00100000000020373
5,12,3680.46299119393,0
5,13,2892.36253939833,0.00100000000020373
5,14,5754.12731031516,0.000999999998384737
5,15,5433.35950659093,0
5,16,3718.53011236876,0.00100000000020373
5,17,3938.44539370299,0.00100000000020373
5,18,4284.03801242771,0
5,19,4365.42631914901,0.00100000000020373
5,20,4463.0818446345,0.00100000000020373
5,21,5234.86408570457,0.00100000000020373
5,22,3737.70531575585,0
5,23,2777.53389990329,0.00100000000020373
5,24,3584.69573507279,0.00100000000020373
5,25,5474.78500045892,0
5,26,5255.54695832776,0.00100000000020373
5,27,3172.76474000809,0.000999999998384737
5,28,3884.32291060327,0
5,29,3186.16695018541,0.00100000000020373
5,30,4000.87146104946,0.00100000000020373
6,1,4712.25026205397,0.00100000000020373
6,2,2880.08009950983,0
6,3,3729.49845061576,0.00100000000020373
6,4,5732.11027400153,0.00100000000020373
6,5,5888.85108485948,0
6,6,5181.10077695271,0.00100000000020373
6,7,4834.04534452647,0.0119999999988067
6,8,3159.55803766589,0.00100000000020373
6,9,3106.33491249808,0
6,10,6418.74052910841,0
6,11,4687.69840687921,0.00100000000020373
6,12,3531.60978283529,0.00100000000020373
6,13,4495.44966917628,0
6,14,5769.51780239648,0.00100000000020373
6,15,5491.62535369311,0.00100000000020373
6,16,3600.62552526288,0
6,17,3709.56613184923,0.00100000000020373
6,18,4894.34404720215,0.00100000000020373
6,19,4097.51575059568,0
6,20,5378.38575735915,0.000999999998384737
6,21,3966.34115615546,0.00100000000020373
6,22,4230.9986146565,0
6,23,3851.49831538364,0.00100000000020373
6,24,4967.04076268226,0.00100000000020373
6,25,3739.48166914401,0
6,26,4511.15494690127,0
6,27,3386.18297311515,0.00100000000020373
6,28,5621.40741459053,0
6,29,4517.20118449324,0
6,30,4236.84994908716,0.00100000000020373
7,1,5863.19300864607,0.00100000000020373
7,2,5379.80514422234,0
7,3,4768.24879743872,0.000999999998384737
7,4,4712.26007592332,0.00100000000020373
7,5,5467.26842203886,0
7,6,4838.12179973887,0.00100000000020373
7,7,5783.66249135537,0.00100000000020373
7,8,4057.21535428363,0
7,9,3678.80045984061,0.00100000000020373
7,10,6228.40705629743,0.00100000000020373
7,11,5622.30887269696,0
7,12,4769.83599236033,0.00100000000020373
7,13,3766.1667110346,0.00100000000020373
7,14,6685.46492952691,0
7,15,5292.11457163304,0
7,16,3223.22193533402,0.000999999998384737
7,17,4152.37756055133,0.00100000000020373
7,18,5894.9236313057,0
7,19,5676.85004773183,0.00100000000020373
7,20,5365.36948895301,0.00100000000020373
7,21,5710.02158356699,0
7,22,4539.38736830882,0.00100000000020373
7,23,3979.15690273553,0.00100000000020373
7,24,5734.3347477543,0
7,25,5130.96536870889,0
7,26,5797.21414649841,0.00100000000020373
7,27,2699.80967107946,0.00100000000020373
7,28,3937.18290370904,0
7,29,4419.52835057155,0.000999999998384737
7,30,4358.51346950811,0.00100000000020373
8,1,3760.70425716997,0.0120000000006257
8,2,4165.41205654879,0
8,3,3315.15138089756,0.00100000000020373
8,4,3830.40667718698,0.00100000000020373
8,5,6185.93274981669,0.00100000000020373
8,6,3364.14242316091,0
8,7,4027.95296698006,0.000999999998384737
8,8,4575.12059630341,0.00100000000020373
8,9,3858.92367149992,0
8,10,5275.17111703172,0.00100000000020373
8,11,3385.63460840747,0.00100000000020373
8,12,2653.31591648868,0
8,13,3257.81239330876,0.00100000000020373
8,14,4977.45078085429,0.00100000000020373
8,15,5692.56611627735,0
8,16,3238.689162701,0.00100000000020373
8,17,3781.35951979588,0.00100000000020373
8,18,3671.66702066911,0
8,19,3577.807365499,0.00100000000020373
8,20,3274.00694374611,0.000999999998384737
8,21,3809.50603456566,0
8,22,2920.86213914257,0.00100000000020373
8,23,2740.25102493975,0.00100000000020373
8,24,3133.13648195121,0
8,25,4412.34792123928,0
8,26,4598.96746720254,0.00100000000020373
8,27,2116.02563652922,0.00100000000020373
8,28,4495.78219701076,0
8,29,2244.43821276179,0.00100000000020373
8,30,3026.71401119636,0.00100000000020373
9,1,4237.47694388918,0
9,2,4768.28724197191,0.00100000000020373
9,3,3058.26945317596,0.000999999998384737
9,4,2654.68093408408,0
9,5,6487.84439047617,0.00100000000020373
9,6,2963.59185578233,0.00100000000020373
9,7,4096.88477558777,0
9,8,4112.68950189521,0.00100000000020373
9,9,3275.1017948317,0.00100000000020373
9,10,6701.49744429433,0
9,11,3251.91790108388,0.00100000000020373
9,12,2968.11568471231,0.00100000000020373
9,13,2452.50152862928,0.00100000000020373
9,14,4517.15490751594,0
9,15,4729.8861352854,0.00100000000020373
9,16,3524.82185161081,0.000999999998384737
9,17,3120.18316575266,0
9,18,3149.42343242262,0.00100000000020373
9,19,3231.02578913423,0.00100000000020373
9,20,4690.22743554656,0
9,21,4332.02209482333,0.00100000000020373
9,22,3816.09353933584,0.00100000000020373
9,23,1898.1718543738,0.00100000000020373
9,24,3247.86450073271,0
9,25,4541.89934785628,0.0120000000006257
9,26,3759.65741787558,0.000999999998384737
9,27,3260.82591290353,0.00100000000020373
9,28,3684.19913830173,0
9,29,2946.47305286981,0.00100000000020373
9,30,3781.83618072691,0.00100000000020373
10,1,3172.44148049792,0
10,2,3603.74352590339,0
10,3,4062.15728633236,0.00100000000020373
10,4,4165.08014327655,0
10,5,4560.20170533355,0
10,6,4538.25873295292,0.00100000000020373
10,7,5196.43800644819,0.00100000000020373
10,8,3399.88326116834,0
10,9,2460.73052256077,0.000999999998384737
10,10,5220.01188005186,0.00100000000020373
10,11,3943.17383898365,0
10,12,3389.11904667914,0.00100000000020373
10,13,3735.14427887715,0.00100000000020373
10,14,5814.23296641684,0
10,15,5728.27556157898,0.00100000000020373
10,16,2940.49437187557,0.00100000000020373
10,17,3762.65863600016,0
10,18,4413.47347188453,0.00100000000020373
10,19,3907.7313899188,0.00100000000020373
10,20,3694.13262139922,0
10,21,3720.13621273033,0
10,22,2948.46267677549,0.000999999998384737
10,23,3029.18523269536,0.00100000000020373
10,24,3696.36178300805,0
10,25,4381.87692043662,0.00100000000020373
10,26,5306.53432990529,0.00100000000020373
10,27,2726.90971292652,0
10,28,4862.47829106176,0.00100000000020373
10,29,3724.79269178911,0.00100000000020373
10,30,2714.31011532828,0
11,1,2668.11234709461,0.00100000000020373
11,2,3856.79190491715,0.00100000000020373
11,3,3955.70883444684,0
11,4,4711.4916331276,0.00100000000020373
11,5,6303.29558900968,0.000999999998384737
11,6,4292.70189686622,0.00100000000020373
11,7,4996.37898735663,0
11,8,5063.3419365594,0.00100000000020373
11,9,4183.01878234961,0.00100000000020373
11,10,5064.60945948952,0
11,11,3554.34912427955,0.00100000000020373
11,12,3202.89478455319,0.00100000000020373
11,13,4565.43141613401,0
11,14,5514.57063574329,0.00100000000020373
11,15,7035.71153256391,0.00100000000020373
11,16,4595.61688513841,0.00100000000020373
11,17,4266.32501013015,0
11,18,3690.77780594401,0.000999999998384737
11,19,3435.77460863364,0.0120000000006257
11,20,3708.43724878597,0.00100000000020373
11,21,2980.45493445657,0
11,22,2894.8581227029,0.00100000000020373
11,23,3563.44946516402,0.00100000000020373
11,24,2971.82979439951,0
11,25,4242.58703316923,0
11,26,5131.07259652276,0.00100000000020373
11,27,4168.65411918005,0
11,28,5697.96838440178,0
11,29,3511.70162327577,0.00100000000020373
11,30,2870.06271935031,0.00100000000020373
12,1,4441.40699437405,0
12,2,3958.39954083974,0.00100000000020373
12,3,3357.18178967361,0.00100000000020373
12,4,4757.57662350758,0
12,5,6537.22565173813,0.00100000000020373
12,6,4130.82329404319,0.00100000000020373
12,7,4146.53596843408,0
12,8,3544.34758849353,0.00100000000020373
12,9,2201.71093924439,0.00100000000020373
12,10,6759.27651320383,0
12,11,4399.93466079842,0.000999999998384737
12,12,3038.55677617688,0.00100000000020373
12,13,3386.28773241058,0
12,14,6005.40177208428,0
12,15,5626.96889753896,0.00100000000020373
12,16,3231.81942276238,0
12,17,2897.50224484221,0
12,18,4276.54312915453,0.00100000000020373
12,19,3492.20855183107,0.00100000000020373
12,20,5464.84414974894,0
12,21,4150.03572545782,0.00100000000020373
12,22,3674.64854875897,0.000999999998384737
12,23,2901.82447535407,0
12,24,4329.72549609706,0.00100000000020373
12,25,3770.78472218066,0.00100000000020373
12,26,4282.99824130189,0
12,27,3097.80267163523,0.00100000000020373
12,28,5189.61616696506,0.00100000000020373
12,29,3889.03323954555,0
12,30,4292.18547319936,0.00100000000020373
13,1,3505.11513518787,0.00100000000020373
13,2,4501.91290572078,0.00100000000020373
13,3,3050.45850606987,0
13,4,3412.39333273648,0.00100000000020373
13,5,7308.6709601097,0.000999999998384737
13,6,3095.38962613564,0
13,7,3551.60680354333,0.00100000000020373
13,8,5352.15532020025,0.00100000000020373
13,9,4371.93888979236,0
13,10,6489.858451011,0.00100000000020373
13,11,2953.33384189965,0.00100000000020373
13,12,2646.595476834,0.00100000000020373
13,13,3305.74260812737,0.011000000000422
13,14,4424.56721620754,0
13,15,6114.55271183396,0.000999999998384737
13,16,4005.21939065094,0.00100000000020373
13,17,3772.71816344589,0
13,18,2985.35009355382,0.00100000000020373
13,19,2843.79673254587,0.00100000000020373
13,20,4009.2599819747,0
13,21,3836.01346846008,0
13,22,3910.50529257044,0.00100000000020373
13,23,2732.57995681357,0.00100000000020373
13,24,2559.40870559142,0
13,25,4194.06951597368,0.00100000000020373
13,26,4046.69339983782,0.00100000000020373
13,27,3848.20772937587,0
13,28,4838.3045905976,0.000999999998384737
13,29,2411.55484780053,0.00100000000020373
13,30,3239.78059529876,0
14,1,3031.38418137166,0.00100000000020373
14,2,4237.02164899751,0.00100000000020373
14,3,4038.31579323418,0
14,4,4708.94435678114,0.00100000000020373
14,5,5865.82114029913,0.00100000000020373
14,6,3988.68377039915,0
14,7,4589.66329559017,0
14,8,4887.60170367271,0.00100000000020373
14,9,4223.49077168997,0.00100000000020373
14,10,4717.19630114678,0
14,11,3368.54014264404,0.000999999998384737
14,12,2994.09063109466,0.00100000000020373
14,13,4455.14079801055,0
14,14,4907.57075674036,0.00100000000020373
14,15,5762.4142963934,0.00100000000020373
14,16,4191.03756356787,0
14,17,4242.22025621337,0.00100000000020373
14,18,3524.71292943263,0.00100000000020373
14,19,3753.24165728503,0
14,20,2713.66799390389,0.00100000000020373
14,21,3536.39308456113,0.00100000000020373
14,22,2472.12001911956,0
14,23,3836.16016834244,0
14,24,3034.07439397678,0.000999999998384737
14,25,4301.86173590697,0.00100000000020373
14,26,4855.87879174782,0
14,27,3436.96246675752,0.00100000000020373
14,28,4921.6539842164,0.00100000000020373
14,29,3017.93838650155,0
14,30,3344.88139532542,0.00100000000020373
15,1,10428.0764230616,0.00100000000020373
15,2,8049.52078657099,0
15,3,10172.143381408,0.00100000000020373
15,4,12656.4516835868,0.00100000000020373
15,5,10226.6665884167,0
15,6,11689.4169535806,0.00100000000020373
15,7,10669.956248382,0.0119999999988067
15,8,9538.2606614007,0.00100000000020373
15,9,10387.612772734,0
15,10,10258.1583336564,0.00100000000020373
15,11,10448.468970803,0.00100000000020373
15,12,10035.1921412634,0
15,13,11576.7572679128,0.00100000000020373
15,14,10331.714973526,0.00100000000020373
15,15,10723.5325799276,0
15,16,10446.1229413608,0.00100000000020373
15,17,10147.1673163103,0.000999999998384737
15,18,10764.2271632829,0
15,19,10221.3949969528,0.00100000000020373
15,20,10517.8071465404,0.00100000000020373
15,21,8763.10602054253,0
15,22,10454.833306935,0.00100000000020373
15,23,11036.7913789488,0.00100000000020373
15,24,11146.7406827768,0
15,25,8525.55208443367,0.00100000000020373
15,26,10222.4909145125,0.00100000000020373
15,27,10285.1145551157,0
15,28,11531.9897476359,0.00100000000020373
15,29,10682.9333667405,0.00100000000020373
15,30,10100.2466971353,0
16,1,5436.67769869026,0.000999999998384737
16,2,6154.63315945704,0.00100000000020373
16,3,3705.36910241437,0
16,4,4930.75076215762,0.00100000000020373
16,5,8026.50226881356,0.00100000000020373
16,6,3040.55877528142,0
16,7,4014.56043083449,0.00100000000020373
16,8,5795.90828960409,0.00100000000020373
16,9,5700.8421182459,0
16,10,7184.82646241735,0.00100000000020373
16,11,4331.03718794736,0.00100000000020373
16,12,4073.44371292109,0
16,13,4388.67929818208,0.00100000000020373
16,14,3768.60893920382,0.000999999998384737
16,15,4495.46448559233,0
16,16,4803.19341726034,0
16,17,4239.29075661155,0.00100000000020373
16,18,3305.50755742132,0
16,19,4445.44867405109,0
16,20,4982.51807106502,0.00100000000020373
16,21,4944.90988644067,0.00100000000020373
16,22,4553.13895143953,0
16,23,4249.36805896839,0.00100000000020373
16,24,4381.78702104955,0.00100000000020373
16,25,4298.80157441192,0
16,26,3652.11558171003,0.00100000000020373
16,27,4623.44789312118,0.000999999998384737
16,28,3952.7991907273,0
16,29,3386.31621359182,0.00100000000020373
16,30,4855.09103704981,0.0120000000006257
17,1,3795.45250652845,0.00100000000020373
17,2,3166.46413270511,0
17,3,4534.27558749216,0.00100000000020373
17,4,5213.02345063915,0.00100000000020373
17,5,3750.54672599357,0
17,6,5349.55205825202,0.000999999998384737
17,7,5674.59551593761,0.00100000000020373
17,8,3157.55267176131,0
17,9,2580.41517469737,0.00100000000020373
17,10,5333.67130767545,0.00100000000020373
17,11,4340.89934869194,0
17,12,3840.11630342788,0.00100000000020373
17,13,4420.13460428206,0.00100000000020373
17,14,6067.25361740369,0
17,15,5764.10900084719,0.00100000000020373
17,16,3653.60907016538,0.00100000000020373
17,17,3817.06954414963,0
17,18,5075.04445320141,0.00100000000020373
17,19,4363.83677156404,0.000999999998384737
17,20,4417.83664056837,0
17,21,3897.31872666837,0.00100000000020373
17,22,3739.63779850568,0.00100000000020373
17,23,3955.421077565,0
17,24,4644.10381731415,0.00100000000020373
17,25,4297.13511536263,0.00100000000020373
17,26,5476.72771034877,0
17,27,3200.62315017346,0.00100000000020373
17,28,5216.41846706721,0.00100000000020373
17,29,4536.23432324717,0
17,30,3247.82528188567,0.00100000000020373
18,1,3960.51188977884,0.00100000000020373
18,2,4161.7110513626,0
18,3,4667.75726787633,0.000999999998384737
18,4,4656.13774914477,0.00100000000020373
18,5,3697.0416575319,0
18,6,4962.42184063873,0
18,7,6076.00025240303,0.00100000000020373
18,8,3575.29754772537,0.00100000000020373
18,9,2815.94597658199,0
18,10,4947.18896221752,0.00100000000020373
18,11,4273.14179116203,0.00100000000020373
18,12,3906.63906842723,0
18,13,4569.16808683175,0.00100000000020373
18,14,5794.0764378724,0.00100000000020373
18,15,5132.11136085931,0
18,16,4285.63247304213,0.000999999998384737
18,17,4134.51853070204,0.00100000000020373
18,18,4779.71770504759,0
18,19,4747.09297765109,0.00100000000020373
18,20,4030.74238801454,0.00100000000020373
18,21,4415.51729653975,0
18,22,3566.01478365694,0.00100000000020373
18,23,4057.81113839142,0.00100000000020373
18,24,4444.93998696273,0.0640000000003056
18,25,4938.47512105033,0
18,26,5200.62245458867,0.00100000000020373
18,27,3450.86348825361,0.000999999998384737
18,28,4278.84721041573,0
18,29,4132.31475583694,0.00100000000020373
18,30,2981.42438444651,0.00100000000020373
19,1,2967.80367370628,0
19,2,3441.16397076243,0.00100000000020373
19,3,5448.35339364318,0.00100000000020373
19,4,6200.96354707682,0
19,5,5277.9368506972,0.00100000000020373
19,6,6176.06831480483,0.00100000000020373
19,7,6233.24804958264,0.00100000000020373
19,8,5641.77996534331,0
19,9,5038.45706209212,0.00100000000020373
19,10,4721.37825410322,0.000999999998384737
19,11,4455.16062424202,0
19,12,4332.89771257972,0.00100000000020373
19,13,5986.6114201163,0.00100000000020373
19,14,6571.42635146939,0
19,15,7868.68181835954,0.00100000000020373
19,16,5350.58972706397,0.00100000000020373
19,17,5563.25630497945,0
19,18,5290.88008025368,0.00100000000020373
19,19,4735.66361964488,0.00100000000020373
19,20,3574.40159733016,0
19,21,3981.76401749369,0.00100000000020373
19,22,4197.58145303122,0.00100000000020373
19,23,5178.18122425431,0
19,24,4320.30140415471,0.000999999998384737
19,25,5275.08989067618,0.00100000000020373
19,26,6645.14443195008,0
19,27,4857.33842625542,0.00100000000020373
19,28,7083.17162691736,0.00100000000020373
19,29,4944.4976548166,0
19,30,3370.46265807126,0.00100000000020373
20,1,3940.64621140053,0.00100000000020373
20,2,3587.18700146727,0
20,3,3746.98135591818,0.00100000000020373
20,4,5463.25098588678,0.00100000000020373
20,5,6628.12212905832,0
20,6,4425.29929856029,0.000999999998384737
20,7,3918.0684946694,0.00100000000020373
20,8,4513.62249567001,0
20,9,5131.34511593593,0
20,10,7053.7604792002,0.00100000000020373
20,11,2803.86716763892,0.00100000000020373
20,12,3805.56212143689,0
20,13,4366.06869199655,0.00100000000020373
20,14,3632.29623954129,0.00100000000020373
20,15,5721.88384883544,0
20,16,4196.74328364697,0.00100000000020373
20,17,3925.39250307118,0.00100000000020373
20,18,3588.66068082562,0
20,19,3095.32485822494,0.000999999998384737
20,20,4902.80597487625,0.00100000000020373
20,21,3182.13197111641,0
20,22,4682.03046959074,0.00100000000020373
20,23,3876.60984820812,0.00100000000020373
20,24,3736.59448080764,0
20,25,3820.26722798485,0
20,26,4958.65807118524,0.00100000000020373
20,27,4280.33304552317,0.00100000000020373
20,28,5772.81478845769,0
20,29,3889.52416963717,0.00100000000020373
20,30,4232.88267971711,0.00100000000020373
21,1,5586.30970729005,0.000999999998384737
21,2,4889.89570412549,0
21,3,4796.03968555253,0.00100000000020373
21,4,6935.38624066765,0.00100000000020373
21,5,8076.42850019704,0
21,6,5398.73872777077,0
21,7,4416.96417374756,0.00100000000020373
21,8,5612.73951140547,0.00100000000020373
21,9,6336.98191605395,0
21,10,7745.77612490526,0.00100000000020373
21,11,4312.28760321916,0.00100000000020373
21,12,4771.21477103925,0
21,13,6060.38500194109,0.00100000000020373
21,14,3511.69613227984,0.000999999998384737
21,15,5528.25440446141,0.00100000000020373
21,16,5644.29243668552,0
21,17,5067.1615434531,0.00100000000020373
21,18,4495.19946752244,0.00100000000020373
21,19,4250.55759900202,0
21,20,6044.10450559938,0.00100000000020373
21,21,3830.86560909204,0.00100000000020373
21,22,5899.91179220217,0.00100000000020373
21,23,5475.85048071359,0
21,24,5291.35665771885,0.00399999999899592
21,25,4277.43358129299,0
21,26,4697.38860023197,0.00100000000020373
21,27,5631.65635772737,0.00100000000020373
21,28,6374.38817033018,0.00100000000020373
21,29,5041.5211616256,0
21,30,5947.40194835851,0.00100000000020373
22,1,2806.09507664378,0.00100000000020373
22,2,4006.31402919861,0
22,3,4065.61438323307,0.00100000000020373
22,4,4030.21038382994,0.00100000000020373
22,5,5520.90065656477,0
22,6,4193.45689973135,0.000999999998384737
22,7,4808.2749927326,0.00100000000020373
22,8,4345.24228223544,0
22,9,2814.60943518197,0.00100000000020373
22,10,5481.33711471036,0.00100000000020373
22,11,3843.46328523212,0
22,12,3215.1443633479,0
22,13,3548.38641988094,0.00100000000020373
22,14,5837.67325887707,0.00100000000020373
22,15,6470.10657649882,0
22,16,3308.59652313069,0.00100000000020373
22,17,3775.88871105696,0.00100000000020373
22,18,4190.4245284363,0
22,19,3453.09497393852,0.000999999998384737
22,20,3785.00900105066,0.00100000000020373
22,21,3686.65780860624,0
22,22,2850.17978542843,0.00100000000020373
22,23,2980.75660831626,0.00100000000020373
22,24,3240.7073218527,0
22,25,4394.97819910872,0.00100000000020373
22,26,5364.98364390851,0.00100000000020373
22,27,3107.39854657509,0
22,28,5201.59566951073,0
22,29,3543.74490811488,0.00100000000020373
22,30,2818.80189994438,0.00100000000020373
23,1,5962.54842136811,0
23,2,5021.22035162901,0.000999999998384737
23,3,6172.59345646814,0.00100000000020373
23,4,6765.04882892488,0
23,5,4568.81017159773,0.00100000000020373
23,6,6855.66350975871,0.00100000000020373
23,7,7076.58789748088,0
23,8,4861.2531139915,0.00100000000020373
23,9,4000.07154784154,0.00100000000020373
23,10,5733.97234842119,0.00100000000020373
23,11,6499.4409244001,0
23,12,5428.56938876581,0.00100000000020373
23,13,6108.75895297144,0.00100000000020373
23,14,7315.40405915324,0
23,15,5905.405291925,0.000999999998384737
23,16,4920.65401155093,0.00100000000020373
23,17,5521.73866403773,0
23,18,6792.17975864809,0.00100000000020373
23,19,6391.24100279708,0.00100000000020373
23,20,5419.68080744666,0.00100000000020373
23,21,5748.76125178798,0
23,22,5112.52341582746,0.00100000000020373
23,23,5895.07463573608,0.00100000000020373
23,24,6574.49704307664,0
23,25,5486.04652618932,0.00100000000020373
23,26,6446.51488138255,0.00100000000020373
23,27,4314.09204468985,0
23,28,5972.17127330865,0.000999999998384737
23,29,5862.39297940208,0.00100000000020373
23,30,4900.45275869241,0
24,1,3225.05620396694,0
24,2,3924.98865465433,0.00100000000020373
24,3,2949.09791442796,0.00100000000020373
24,4,3921.01693498917,0
24,5,6009.63721501155,0.00100000000020373
24,6,2897.63255460154,0.00100000000020373
24,7,3451.25316668546,0
24,8,4182.14161198556,0.00100000000020373
24,9,3708.75392218607,0.00100000000020373
24,10,5627.99722229498,0
24,11,2495.52651036219,0.000999999998384737
24,12,2333.11247398387,0.00100000000020373
24,13,3155.7909734619,0
24,14,4411.75845903202,0.00100000000020373
24,15,4896.54497358098,0.00100000000020373
24,16,3323.93459652734,0
24,17,2958.42603777498,0
24,18,2726.24065257841,0.00100000000020373
24,19,2925.59661803935,0.00100000000020373
24,20,3184.80543599592,0
24,21,3670.82421219412,0.00100000000020373
24,22,2896.4881104848,0.00100000000020373
24,23,2774.26568339005,0.00299999999879219
24,24,2490.71246199137,0.00100000000020373
24,25,3716.00575516117,0
24,26,4075.94485896675,0.00100000000020373
24,27,2895.39332717878,0.00100000000020373
24,28,4142.64262474207,0
24,29,2124.33148304602,0.00100000000020373
24,30,3270.17007022468,0.00100000000020373
25,1,3500.36015348861,0
25,2,4162.61029839382,0.00100000000020373
25,3,4053.25353216817,0.000999999998384737
25,4,4363.67761726876,0
25,5,5312.49313040174,0.00100000000020373
25,6,4184.54561509302,0.00100000000020373
25,7,5235.26398431882,0
25,8,3804.10717576807,0.00100000000020373
25,9,2066.75557472339,0.00100000000020373
25,10,4975.17603035152,0
25,11,4236.53132664385,0.00100000000020373
25,12,2998.82079320833,0.00100000000020373
25,13,3884.48104221958,0
25,14,6327.84068686618,0.00100000000020373
25,15,5956.31500079392,0.00100000000020373
25,16,3824.4743758099,0
25,17,3611.88159465795,0.000999999998384737
25,18,4351.32634746371,0.00100000000020373
25,19,4114.92484531281,0
25,20,4077.3779882241,0.00100000000020373
25,21,4215.59051574951,0.00100000000020373
25,22,2408.76605627127,0
25,23,3426.91969204874,0.00100000000020373
25,24,3828.22906786575,0.00100000000020373
25,25,4305.20262748286,0
25,26,4911.89217131557,0
25,27,3176.60554159552,0.00100000000020373
25,28,4627.8230256185,0.000999999998384737
25,29,3591.54681608187,0
25,30,3360.95623506132,0.00100000000020373
26,1,3758.42084818715,0.00100000000020373
26,2,3532.11147851637,0
26,3,2902.09549528739,0.00100000000020373
26,4,4670.5513708519,0.00100000000020373
26,5,6117.32405274881,0
26,6,3515.32409441417,0.00100000000020373
26,7,3746.9884209821,0.00100000000020373
26,8,3740.1067705971,0
26,9,3651.36857614686,0.00100000000020373
26,10,6241.33836407782,0.00100000000020373
26,11,2320.20866233813,0
26,12,2115.2504557781,0
26,13,3698.56003291708,0.00100000000020373
26,14,4323.00731625216,0
26,15,4628.36144029233,0
26,16,3993.22455162505,0.00100000000020373
26,17,2781.70978111133,0.00100000000020373
26,18,2866.82212104186,0
26,19,2797.76894077196,0.00100000000020373
26,20,4335.95828075415,0.00100000000020373
26,21,3408.71236308472,0
26,22,3821.92810183447,0.00100000000020373
26,23,3208.7733970074,0.00100000000020373
26,24,3258.56681589405,0
26,25,3425.39075110174,0.000999999998384737
26,26,3339.63211703212,0.00100000000020373
26,27,3477.84649319632,0
26,28,4708.77933141401,0.00100000000020373
26,29,2888.43294399783,0.00100000000020373
26,30,3708.04997838074,0
27,1,4459.69494433113,0.00100000000020373
27,2,6031.70535721525,0.00100000000020373
27,3,5037.00074686189,0
27,4,5334.29488292552,0.00100000000020373
27,5,7969.61645694894,0.00100000000020373
27,6,3986.84515820774,0
27,7,4500.09864414258,0.00100000000020373
27,8,6446.78484825752,0.000999999998384737
27,9,5832.9194907461,0
27,10,6080.54413028783,0
27,11,4053.1965461801,0.00100000000020373
27,12,4330.23972798635,0.00100000000020373
27,13,5251.21769304412,0
27,14,4967.87079115101,0.00100000000020373
27,15,6516.74948580999,0.00100000000020373
27,16,5286.83241192622,0
27,17,4949.64510571877,0.00100000000020373
27,18,3802.31742342136,0.00100000000020373
27,19,4425.36784593405,0
27,20,4243.46379133317,0.00100000000020373
27,21,4276.49546792322,0.000999999998384737
27,22,4169.07016897433,0
27,23,4829.48293152401,0.00400000000081491
27,24,3709.18091929559,0.00100000000020373
27,25,4792.21119359295,0
27,26,5554.63769363415,0.00100000000020373
27,27,4968.12952808624,0
27,28,5340.2441192818,0
27,29,3085.17990791684,0.00100000000020373
27,30,4908.51520375146,0
28,1,3164.72522572778,0
28,2,4633.75540181688,0.00100000000020373
28,3,3026.10804258471,0
28,4,3944.39605151507,0.00100000000020373
28,5,6664.35602353271,0.00100000000020373
28,6,3143.40358905066,0
28,7,3934.49380656313,0.00100000000020373
28,8,4574.42565543652,0.00100000000020373
28,9,3663.64503721231,0
28,10,6085.84598562753,0.00100000000020373
28,11,3567.83579737859,0.00100000000020373
28,12,2746.07386977896,0
28,13,2986.73177436441,0.00100000000020373
28,14,5429.79765934006,0.000999999998384737
28,15,6156.6867776854,0
28,16,2974.60030208096,0
28,17,3462.7948961421,0.00100000000020373
28,18,3407.64556736652,0.00100000000020373
28,19,3246.56502333911,0
28,20,3959.47998179963,0.00100000000020373
28,21,3816.83727487794,0.00100000000020373
28,22,2686.12686356946,0
28,23,2422.23676003798,0.00100000000020373
28,24,2878.25969176639,0.00100000000020373
28,25,3814.54190917927,0
28,26,4640.12934074086,0
28,27,3120.193544291,0.000999999998384737
28,28,4826.51658118363,0.00100000000020373
28,29,2853.94877479424,0
28,30,3158.10069932885,0.00100000000020373
29,1,3063.5473604995,0.00100000000020373
29,2,5099.3674372397,0
29,3,3790.66133094016,0.00100000000020373
29,4,3886.23054296101,0.00100000000020373
29,5,6782.00621719162,0
29,6,3376.41982988867,0.00100000000020373
29,7,4487.6960077576,0.00100000000020373
29,8,5577.39594721743,0
29,9,4795.95699201844,0.00100000000020373
29,10,5969.29913652565,0.000999999998384737
29,11,2574.64774433506,0
29,12,2924.96078845658,0.00100000000020373
29,13,4308.53338383223,0.00100000000020373
29,14,4418.97149193672,0
29,15,5810.41372655944,0
29,16,4933.30397470968,0.00100000000020373
29,17,4197.14724939791,0
29,18,2438.20458260331,0
29,19,3427.8686689906,0.00100000000020373
29,20,3301.76864287866,0.00100000000020373
29,21,4142.59473194779,0
29,22,3608.62459270399,0.00100000000020373
29,23,3603.47819588539,0.000999999998384737
29,24,2104.02310382154,0
29,25,4859.04463458076,0.00100000000020373
29,26,4331.52985434549,0.00100000000020373
29,27,4474.55921344799,0
29,28,4876.25076774232,0.00100000000020373
29,29,2759.84023435965,0.00100000000020373
29,30,3569.06302221976,0
30,1,4205.88557833884,0.00100000000020373
30,2,3957.87123772553,0.00100000000020373
30,3,3625.88999433743,0
30,4,4904.22981617945,0.00100000000020373
30,5,6843.18357471052,0.00100000000020373
30,6,4221.09589376279,0
30,7,4477.97505569962,0.000999999998384737
30,8,5113.00469485492,0.00100000000020373
30,9,4626.22137337586,0
30,10,5416.98280017762,0.00100000000020373
30,11,4083.58391721672,0.00100000000020373
30,12,3136.53386456744,0
30,13,4478.15981163665,0
30,14,4829.61898997322,0.00100000000020373
30,15,5915.31085599794,0.00100000000020373
30,16,4321.05106828346,0
30,17,4415.15526708089,0.00100000000020373
30,18,3788.77619341817,0.00100000000020373
30,19,3771.70650684329,0
30,20,3830.82669936798,0.000999999998384737
30,21,3629.00861583095,0.00100000000020373
30,22,3315.0970708871,0.00300000000061118
30,23,3766.45592108233,0.00100000000020373
30,24,3894.87234944823,0
30,25,3950.93984979655,0.00100000000020373
30,26,4291.13362931851,0.00100000000020373
30,27,3734.32795634009,0
30,28,5219.2298387253,0.00100000000020373
30,29,3351.36552950124,0.000999999998384737
30,30,3664.86895458077,0
