App - Shortyz
Scenario - download_puzzles
Length - 10sec
Measure - ARPicDistance
Before Version - 4.0.5_b_m
After Version - 4.0.7_f


"Before.Trace.ID1","Before.Trace.ID2","Difference","Runtime"
1,2,0.137907353968573,0.00300000000061118
1,3,0.0884038604720822,0.00399999999899592
1,4,0.0675310079881863,0.00400000000081491
1,5,0.10898742874301,0.00300000000061118
1,6,0.0929825182633297,0.00399999999899592
1,7,0.0478926773552867,0.00300000000061118
1,8,0.0691481663885772,0.00399999999899592
1,9,0.0593690249211144,0.00700000000142609
1,10,0.0425097414447975,0.00299999999879219
1,11,0.0546808583501747,0.00400000000081491
1,12,0.0208385646760521,0.00299999999879219
1,13,0.0312394720824392,0.00400000000081491
1,14,0.0633599135079137,0.00300000000061118
1,15,0.156298107442729,0.00299999999879219
1,16,0.0448235319296831,0.00400000000081491
1,17,0.1234809134358,0.00300000000061118
1,18,0.0527381934332398,0.00399999999899592
1,19,0.130834697772156,0.00300000000061118
1,20,0.131104611552313,0.00399999999899592
1,21,0.102153655040767,0.00300000000061118
1,22,0.0845207008511441,0.00300000000061118
1,23,0.107691433162049,0.00399999999899592
1,24,0.0828550629313834,0.00300000000061118
1,25,0.0568629548605084,0.00399999999899592
1,26,0.0309244481936597,0.00300000000061118
1,27,0.45278315134455,0.00300000000061118
1,28,0.0972021301511986,0.00299999999879219
1,29,0.122599289454299,0.00300000000061118
1,30,0.0872157270019026,0.0069999999996071
2,3,0.0764418915085605,0.00300000000061118
2,4,0.180192668694204,0.00399999999899592
2,5,0.241408703716313,0.00300000000061118
2,6,0.0622289548396949,0.00399999999899592
2,7,0.0955365540122297,0.00300000000061118
2,8,0.0968566511988967,0.00400000000081491
2,9,0.172142452750693,0.00299999999879219
2,10,0.0997617175359119,0.00300000000061118
2,11,0.161230219877267,0.00400000000081491
2,12,0.121174540152855,0.00299999999879219
2,13,0.153198835008879,0.00400000000081491
2,14,0.13587556936245,0.00299999999879219
2,15,0.0527125454651703,0.00300000000061118
2,16,0.142008413491179,0.00400000000081491
2,17,0.0513297442475744,0.00299999999879219
2,18,0.120666776635208,0.00300000000061118
2,19,0.0475315702254759,0.00400000000081491
2,20,0.0517734243756815,0.00299999999879219
2,21,0.0586122409329242,0.00300000000061118
2,22,0.0751415376119224,0.00399999999899592
2,23,0.0638491263920355,0.00300000000061118
2,24,0.0820446750948234,0.00599999999940337
2,25,0.15385133888064,0.00400000000081491
2,26,0.12964826373669,0.00300000000061118
2,27,0.570148989419217,0.00299999999879219
2,28,0.0623246668258792,0.00400000000081491
2,29,0.247202795943534,0.00299999999879219
2,30,0.0748104884585519,0.00300000000061118
3,4,0.128663821646438,0.00300000000061118
3,5,0.188581705004805,0.00299999999879219
3,6,0.0510052179137663,0.00300000000061118
3,7,0.0571643811834052,0.00399999999899592
3,8,0.0671109777697236,0.00300000000061118
3,9,0.120229525383275,0.00400000000081491
3,10,0.057070118707244,0.00299999999879219
3,11,0.11186004285822,0.00400000000081491
3,12,0.0731929003902076,0.00300000000061118
3,13,0.107789717913569,0.00399999999899592
3,14,0.107170310762921,0.00300000000061118
3,15,0.0870257809487184,0.00299999999879219
3,16,0.0784418145403871,0.00400000000081491
3,17,0.058574781865241,0.0069999999996071
3,18,0.0740948756788596,0.00300000000061118
3,19,0.0642292872242102,0.00399999999899592
3,20,0.0660643915245552,0.00300000000061118
3,21,0.0494530304759975,0.00300000000061118
3,22,0.0456536873656442,0.00399999999899592
3,23,0.0526466251647032,0.00300000000061118
3,24,0.0514531945457438,0.00400000000081491
3,25,0.103617821508182,0.00299999999879219
3,26,0.0840508793522748,0.00400000000081491
3,27,0.521610967681654,0.00299999999879219
3,28,0.0214052841801506,0.00400000000081491
3,29,0.192733810980616,0.00300000000061118
3,30,0.0530148337401647,0.00399999999899592
4,5,0.0836421118139449,0.00300000000061118
4,6,0.146430375384401,0.00399999999899592
4,7,0.107039050469621,0.00300000000061118
4,8,0.104127719728618,0.00400000000081491
4,9,0.0212897418221529,0.00299999999879219
4,10,0.0991575242554286,0.00600000000122236
4,11,0.0208854672348614,0.00300000000061118
4,12,0.0804175761523808,0.00300000000061118
4,13,0.0647457686960976,0.00399999999899592
4,14,0.0785445548226896,0.00300000000061118
4,15,0.19928660407976,0.00300000000061118
4,16,0.0664015549508857,0.00399999999899592
4,17,0.158078893173188,0.00300000000061118
4,18,0.0639031804139442,0.00300000000061118
4,19,0.166199027433725,0.00399999999899592
4,20,0.165237793554122,0.00300000000061118
4,21,0.134759262456353,0.00299999999879219
4,22,0.115217822772599,0.00400000000081491
4,23,0.138470308346276,0.00300000000061118
4,24,0.108975055648044,0.00299999999879219
4,25,0.0318075633674742,0.00400000000081491
4,26,0.0790548859068615,0.00300000000061118
4,27,0.409992646242441,0.00299999999879219
4,28,0.138381452083903,0.00300000000061118
4,29,0.07059962396665,0.00299999999879219
4,30,0.127588840664537,0.00400000000081491
5,6,0.20057529686396,0.00599999999940337
5,7,0.154639148733531,0.00300000000061118
5,8,0.162333449395867,0.00399999999899592
5,9,0.0903538169392019,0.00300000000061118
5,10,0.14946134270067,0.00300000000061118
5,11,0.0947946918162067,0.00399999999899592
5,12,0.128924717460743,0.00300000000061118
5,13,0.0939839401233458,0.00400000000081491
5,14,0.124090543385257,0.00299999999879219
5,15,0.260386561693033,0.00300000000061118
5,16,0.115767672079061,0.00399999999899592
5,17,0.226486479025047,0.00300000000061118
5,18,0.138178023061158,0.00400000000081491
5,19,0.234393334621709,0.00299999999879219
5,20,0.234412289953206,0.00300000000061118
5,21,0.204412674413578,0.00399999999899592
5,22,0.185561470683381,0.00300000000061118
5,23,0.209359321261879,0.00400000000081491
5,24,0.180861500895153,0.00299999999879219
5,25,0.110851920374076,0.0069999999996071
5,26,0.120784554017807,0.00400000000081491
5,27,0.347122691864786,0.00300000000061118
5,28,0.197486818972177,0.00399999999899592
5,29,0.0527263571549153,0.00300000000061118
5,30,0.187671940794263,0.00399999999899592
6,7,0.0470447195561908,0.00300000000061118
6,8,0.0734824162061381,0.00400000000081491
6,9,0.137987181795466,0.00399999999899592
6,10,0.0513726288554298,0.00300000000061118
6,11,0.129245205465499,0.00399999999899592
6,12,0.074456241520362,0.00300000000061118
6,13,0.113019007364766,0.00400000000081491
6,14,0.116938979340445,0.00299999999879219
6,15,0.0758575524004937,0.00300000000061118
6,16,0.105802025548877,0.00400000000081491
6,17,0.0541922849838671,0.00399999999899592
6,18,0.0898939998507938,0.00300000000061118
6,19,0.0572681779987747,0.00399999999899592
6,20,0.0594523752561614,0.00300000000061118
6,21,0.0497515483670611,0.0069999999996071
6,22,0.0538583224823083,0.00300000000061118
6,23,0.0536481837291628,0.00399999999899592
6,24,0.0610436344946849,0.00400000000081491
6,25,0.120987191902271,0.00300000000061118
6,26,0.0863222168538726,0.00399999999899592
6,27,0.53922165275851,0.00300000000061118
6,28,0.0522978255879357,0.00399999999899592
6,29,0.211336233712938,0.00300000000061118
6,30,0.0519131646928235,0.00400000000081491
7,8,0.0552203149586977,0.00399999999899592
7,9,0.098554722720809,0.00300000000061118
7,10,0.0113112289541759,0.00299999999879219
7,11,0.0902783429585945,0.00400000000081491
7,12,0.0327644547116698,0.00300000000061118
7,13,0.0674686624419181,0.00399999999899592
7,14,0.0812988207002525,0.00300000000061118
7,15,0.115273736771432,0.00300000000061118
7,16,0.0683940840079763,0.00399999999899592
7,17,0.0858543463792062,0.00599999999940337
7,18,0.0624832131591362,0.00400000000081491
7,19,0.0917842321687236,0.00400000000081491
7,20,0.0927553558549938,0.00299999999879219
7,21,0.068400367630755,0.00300000000061118
7,22,0.058571025438201,0.00299999999879219
7,23,0.075171668381429,0.00300000000061118
7,24,0.0611269998437895,0.00300000000061118
7,25,0.0863957214630022,0.00299999999879219
7,26,0.0468077594878573,0.00400000000081491
7,27,0.494888631688338,0.00300000000061118
7,28,0.0629553232028241,0.00399999999899592
7,29,0.168401327529457,0.00300000000061118
7,30,0.0557950795318028,0.00299999999879219
8,9,0.0956954626524499,0.00400000000081491
8,10,0.054445263438294,0.00399999999899592
8,11,0.087726686211183,0.00300000000061118
8,12,0.0588443719281315,0.00400000000081491
8,13,0.0849768361508093,0.0069999999996071
8,14,0.0767086545769112,0.00399999999899592
8,15,0.118027290177278,0.00300000000061118
8,16,0.074794871302268,0.00400000000081491
8,17,0.0874798427999186,0.00299999999879219
8,18,0.0586956992274632,0.00400000000081491
8,19,0.093401761553036,0.00399999999899592
8,20,0.0939419373087245,0.00300000000061118
8,21,0.0681647165593394,0.00400000000081491
8,22,0.0572172231926008,0.00399999999899592
8,23,0.0750693998360492,0.00300000000061118
8,24,0.0594655278404972,0.00399999999899592
8,25,0.0831690909066206,0.00400000000081491
8,26,0.0684458858984283,0.00300000000061118
8,27,0.494972518597404,0.00399999999899592
8,28,0.0687479769112024,0.00400000000081491
8,29,0.166341088081813,0.00299999999879219
8,30,0.0330314507233151,0.00600000000122236
9,10,0.0909527750811438,0.00399999999899592
9,11,0.0201452726103387,0.00400000000081491
9,12,0.0719157936936271,0.00299999999879219
9,13,0.0574163027290678,0.00400000000081491
9,14,0.0719762429442898,0.00300000000061118
9,15,0.190472554810508,0.00299999999879219
9,16,0.0601372660597744,0.00400000000081491
9,17,0.150061623248228,0.00299999999879219
9,18,0.056093620122947,0.00300000000061118
9,19,0.15825789078758,0.00400000000081491
9,20,0.157379403419197,0.00299999999879219
9,21,0.12695322413495,0.00300000000061118
9,22,0.106650335446602,0.00300000000061118
9,23,0.130745619350794,0.00299999999879219
9,24,0.100921824961818,0.00300000000061118
9,25,0.0268610809615635,0.00399999999899592
9,26,0.0774670663169551,0.00300000000061118
9,27,0.421367868293054,0.00400000000081491
9,28,0.130184541423571,0.00299999999879219
9,29,0.0781422597007031,0.0069999999996071
9,30,0.119305894765192,0.00300000000061118
10,11,0.0824015946199598,0.00400000000081491
10,12,0.0267567679216843,0.00299999999879219
10,13,0.0632031407945717,0.00400000000081491
10,14,0.0787498336714102,0.00300000000061118
10,15,0.117758762395385,0.00299999999879219
10,16,0.063647150414887,0.00400000000081491
10,17,0.08580411281038,0.00299999999879219
10,18,0.0542654079572518,0.00400000000081491
10,19,0.0925034943485355,0.00300000000061118
10,20,0.0934501229823104,0.00399999999899592
10,21,0.067742750929796,0.00300000000061118
10,22,0.0549357718486831,0.00300000000061118
10,23,0.073376041544748,0.00300000000061118
10,24,0.0559538006906804,0.00300000000061118
10,25,0.0777007159616891,0.00399999999899592
10,26,0.0423301197833563,0.00300000000061118
10,27,0.489539742056738,0.00400000000081491
10,28,0.0650959089060556,0.00599999999940337
10,29,0.161302393682572,0.00399999999899592
10,30,0.0570323351951521,0.00400000000081491
11,12,0.0661748275905139,0.00300000000061118
11,13,0.0524375543141699,0.00399999999899592
11,14,0.0631193112302134,0.00300000000061118
11,15,0.181640423375266,0.00300000000061118
11,16,0.0556983078047001,0.00399999999899592
11,17,0.14090437434116,0.00300000000061118
11,18,0.0480871649374812,0.00399999999899592
11,19,0.148996704411238,0.00300000000061118
11,20,0.148408068925293,0.00300000000061118
11,21,0.117648690741188,0.00399999999899592
11,22,0.0982789534036695,0.00300000000061118
11,23,0.121949981238568,0.00300000000061118
11,24,0.0919003029818379,0.00399999999899592
11,25,0.0207000272693736,0.00300000000061118
11,26,0.0673363022458881,0.00399999999899592
11,27,0.423829024078807,0.00300000000061118
11,28,0.120609642787506,0.0069999999996071
11,29,0.0873508879612445,0.00300000000061118
11,30,0.110857306317146,0.00399999999899592
12,13,0.0486694470172826,0.00300000000061118
12,14,0.0684180103736499,0.00400000000081491
12,15,0.138364569421651,0.00299999999879219
12,16,0.0492526362463736,0.00300000000061118
12,17,0.106147274239524,0.00399999999899592
12,18,0.0470716930707925,0.00300000000061118
12,19,0.113281107478923,0.00400000000081491
12,20,0.113579763564899,0.00299999999879219
12,21,0.0853513407736628,0.00300000000061118
12,22,0.0682179955597244,0.00400000000081491
12,23,0.0905932024201358,0.00299999999879219
12,24,0.068151162932632,0.00400000000081491
12,25,0.0630377437533848,0.00299999999879219
12,26,0.0293162626534322,0.00300000000061118
12,27,0.472461141432936,0.00300000000061118
12,28,0.0820410649196774,0.00599999999940337
12,29,0.140209431065781,0.00400000000081491
12,30,0.0720476896684974,0.00399999999899592
13,14,0.0572461422038473,0.00300000000061118
13,15,0.177042436202844,0.00299999999879219
13,16,0.0579352038768835,0.00400000000081491
13,17,0.142166397949088,0.00300000000061118
13,18,0.0681229501644553,0.00299999999879219
13,19,0.149356451599857,0.00400000000081491
13,20,0.149537812795751,0.00300000000061118
13,21,0.120144349331831,0.00399999999899592
13,22,0.103888210643012,0.00300000000061118
13,23,0.126551700266835,0.00299999999879219
13,24,0.0998418203486107,0.00400000000081491
13,25,0.0612787253226627,0.00300000000061118
13,26,0.0539561929573758,0.00399999999899592
13,27,0.43357406979177,0.00300000000061118
13,28,0.114429561021121,0.00399999999899592
13,29,0.111242196847489,0.00600000000122236
13,30,0.106124416412972,0.00399999999899592
14,15,0.167212872588723,0.00300000000061118
14,16,0.0704777648828769,0.00300000000061118
14,17,0.136040559261925,0.00299999999879219
14,18,0.0679290769276989,0.00300000000061118
14,19,0.142350589556599,0.00299999999879219
14,20,0.142874424287472,0.00400000000081491
14,21,0.112146944869665,0.00300000000061118
14,22,0.0974051934560906,0.00299999999879219
14,23,0.120596871231075,0.00400000000081491
14,24,0.0940135892859905,0.00300000000061118
14,25,0.0713324899436654,0.00299999999879219
14,26,0.0712911966267147,0.00300000000061118
14,27,0.448983052878666,0.00299999999879219
14,28,0.105047099078482,0.00400000000081491
14,29,0.13017055427847,0.00300000000061118
14,30,0.102719631518213,0.00399999999899592
15,16,0.158972577125223,0.00300000000061118
15,17,0.0569097731492705,0.0429999999996653
15,18,0.139023564113118,0.00300000000061118
15,19,0.0535375263298702,0.00299999999879219
15,20,0.0603662651878729,0.00300000000061118
15,21,0.0784142836957526,0.00300000000061118
15,22,0.0902481665871736,0.00299999999879219
15,23,0.0759032034819936,0.00300000000061118
15,24,0.0990238096182783,0.00300000000061118
15,25,0.1724383996142,0.00299999999879219
15,26,0.146961965198257,0.00300000000061118
15,27,0.590178408577509,0.00300000000061118
15,28,0.0815027008163325,0.00399999999899592
15,29,0.264209988853601,0.00300000000061118
15,30,0.0911982971175669,0.00299999999879219
16,17,0.125944919449322,0.00400000000081491
16,18,0.0548880460029873,0.00300000000061118
16,19,0.133288642570265,0.00299999999879219
16,20,0.133373937367026,0.00300000000061118
16,21,0.104816524386342,0.00300000000061118
16,22,0.0873395265592367,0.00399999999899592
16,23,0.109970602524916,0.00300000000061118
16,24,0.0860155352855948,0.00399999999899592
16,25,0.0575000515307659,0.00600000000122236
16,26,0.0519696618759987,0.00399999999899592
16,27,0.451000325848647,0.00300000000061118
16,28,0.0878486623516667,0.00399999999899592
16,29,0.121015240813567,0.00300000000061118
16,30,0.0924744191171744,0.00400000000081491
17,18,0.0959670529581903,0.00299999999879219
17,19,0.00916231878075307,0.00300000000061118
17,20,0.0131338048720388,0.00300000000061118
17,21,0.0278330582164505,0.00299999999879219
17,22,0.0451242295107058,0.00300000000061118
17,23,0.0226772916574614,0.00399999999899592
17,24,0.0514175434659884,0.00300000000061118
17,25,0.128802451322428,0.00300000000061118
17,26,0.118106540345436,0.00399999999899592
17,27,0.55729288801981,0.00300000000061118
17,28,0.0593041932479034,0.00300000000061118
17,29,0.22599599450621,0.00300000000061118
17,30,0.0614033593621963,0.00300000000061118
18,19,0.103996826415029,0.00399999999899592
18,20,0.102994437464879,0.00300000000061118
18,21,0.0722678772635607,0.00599999999940337
18,22,0.0518413575238822,0.00400000000081491
18,23,0.0757926524796398,0.00300000000061118
18,24,0.0462811591270502,0.00299999999879219
18,25,0.0348462983127795,0.00400000000081491
18,26,0.0592654307526469,0.00299999999879219
18,27,0.471484911065283,0.00300000000061118
18,28,0.0835208399111963,0.00300000000061118
18,29,0.132554674096267,0.00299999999879219
18,30,0.073157344377098,0.00400000000081491
19,20,0.00828808019623486,0.00300000000061118
19,21,0.0337243780699941,0.00299999999879219
19,22,0.0530346567076031,0.00300000000061118
19,23,0.0298748552076927,0.00299999999879219
19,24,0.0594726249810011,0.00300000000061118
19,25,0.136982630030425,0.00400000000081491
19,26,0.124970161630344,0.00299999999879219
19,27,0.565216784678286,0.00300000000061118
19,28,0.0631083015154437,0.00400000000081491
19,29,0.234367953216028,0.00299999999879219
19,30,0.0662852248358841,0.00400000000081491
20,21,0.0320833605563257,0.00599999999940337
20,22,0.05269429327947,0.00300000000061118
20,23,0.028229875955376,0.00399999999899592
20,24,0.0588218781319474,0.00300000000061118
20,25,0.135779791228359,0.00300000000061118
20,26,0.125828601935723,0.00399999999899592
20,27,0.565660732704633,0.00300000000061118
20,28,0.0655913392757211,0.00399999999899592
20,29,0.233736882486531,0.00300000000061118
20,30,0.0671855778043597,0.00400000000081491
21,22,0.0236200796809316,0.00299999999879219
21,23,0.0128047177425499,0.00400000000081491
21,24,0.0299827024747058,0.00299999999879219
21,25,0.105627354139105,0.00400000000081491
21,26,0.0981385388400052,0.00300000000061118
21,27,0.536846789600182,0.00399999999899592
21,28,0.050639051470653,0.00300000000061118
21,29,0.203672315610894,0.00300000000061118
21,30,0.0486034611346288,0.00300000000061118
22,23,0.0260741229429437,0.00400000000081491
22,24,0.0122541963457993,0.00599999999940337
22,25,0.0858383015662677,0.00400000000081491
22,26,0.0825989092112765,0.00299999999879219
22,27,0.519281897524106,0.00300000000061118
22,28,0.0520409466485743,0.00399999999899592
22,29,0.183390784506675,0.00300000000061118
22,30,0.0464548544851647,0.00400000000081491
23,24,0.0314706816200076,0.00299999999879219
23,25,0.10866160155698,0.00300000000061118
23,26,0.103711105414191,0.00400000000081491
23,27,0.541353259343536,0.00299999999879219
23,28,0.0566898548962588,0.00300000000061118
23,29,0.207116435624968,0.00399999999899592
23,30,0.0541738667932615,0.00300000000061118
24,25,0.0788833623760612,0.00400000000081491
24,26,0.082470662695267,0.00299999999879219
24,27,0.512545846392129,0.00300000000061118
24,28,0.0584186121916056,0.00400000000081491
24,29,0.177383809242508,0.00299999999879219
24,30,0.0525902774948633,0.00400000000081491
25,26,0.0695359583721977,0.00399999999899592
25,27,0.439931755799429,0.00600000000122236
25,28,0.114019602116142,0.00399999999899592
25,29,0.0998166663541759,0.00300000000061118
25,30,0.102993932561528,0.00399999999899592
26,27,0.4592190593458,0.00300000000061118
26,28,0.0910481423013434,0.00400000000081491
26,29,0.136601440187261,0.00299999999879219
26,30,0.0827645555211004,0.00300000000061118
27,28,0.528731670109184,0.00399999999899592
27,29,0.347905413467353,0.00300000000061118
27,30,0.521407823958581,0.00400000000081491
28,29,0.202929364637574,0.00299999999879219
28,30,0.0550057309943025,0.00400000000081491
29,30,0.19228433157066,0.00399999999899592


"After.Trace.ID","Before.Trace.ID","Difference","Runtime"
1,1,0.0260165147923352,0.00300000000061118
1,2,0.11657333647302,0.00299999999879219
1,3,0.0691682495975522,0.00300000000061118
1,4,0.0865034403973938,0.00399999999899592
1,5,0.134067082594658,0.00300000000061118
1,6,0.069248897651182,0.00400000000081491
1,7,0.0274295565805385,0.00299999999879219
1,8,0.0567973104426365,0.00400000000081491
1,9,0.0778346451444535,0.00300000000061118
1,10,0.0232457069129898,0.00399999999899592
1,11,0.0720992527494359,0.00300000000061118
1,12,0.00858430950390985,0.0069999999996071
1,13,0.053909749662969,0.00300000000061118
1,14,0.0721616770754216,0.00299999999879219
1,15,0.133026567502218,0.00300000000061118
1,16,0.0513878727024175,0.00300000000061118
1,17,0.102427007457356,0.00399999999899592
1,18,0.0506448221279595,0.00300000000061118
1,19,0.109328108215507,0.00299999999879219
1,20,0.109769470530186,0.00300000000061118
1,21,0.0823712455716695,0.00300000000061118
1,22,0.0663197402632442,0.00399999999899592
1,23,0.0879419890974888,0.00300000000061118
1,24,0.0675926575755953,0.00300000000061118
1,25,0.06897474135231,0.00300000000061118
1,26,0.0303938402417435,0.00300000000061118
1,27,0.477431163154272,0.00399999999899592
1,28,0.0778180158277996,0.00300000000061118
1,29,0.146076825451227,0.00300000000061118
1,30,0.0678388165966883,0.00300000000061118
2,1,0.160359957561891,0.00599999999940337
2,2,0.284752975470597,0.00400000000081491
2,3,0.23038071748166,0.00300000000061118
2,4,0.108151577390718,0.00399999999899592
2,5,0.0691819948741698,0.00300000000061118
2,6,0.249147496763791,0.00300000000061118
2,7,0.20576483235475,0.00399999999899592
2,8,0.204209540886292,0.00400000000081491
2,9,0.118331970932692,0.00299999999879219
2,10,0.198784246497934,0.00400000000081491
2,11,0.125086609012496,0.00300000000061118
2,12,0.178615905679608,0.00299999999879219
2,13,0.146649214948988,0.00300000000061118
2,14,0.166223673523768,0.00299999999879219
2,15,0.302298234350205,0.00400000000081491
2,16,0.158264393897854,0.00300000000061118
2,17,0.263693078634028,0.00299999999879219
2,18,0.171418930156557,0.00400000000081491
2,19,0.272031204763099,0.00300000000061118
2,20,0.271405043451402,0.00399999999899592
2,21,0.241666793279228,0.00599999999940337
2,22,0.22206562684447,0.00400000000081491
2,23,0.245076003488018,0.00300000000061118
2,24,0.215571182525431,0.00299999999879219
2,25,0.138029920707322,0.00300000000061118
2,26,0.172106065295293,0.00300000000061118
2,27,0.30778563864247,0.00399999999899592
2,28,0.240499162213225,0.00300000000061118
2,29,0.0420286227950236,0.00299999999879219
2,30,0.230046022532001,0.00300000000061118
3,1,0.10379054399003,0.00300000000061118
3,2,0.0525397520608879,0.00300000000061118
3,3,0.054294236557569,0.00300000000061118
3,4,0.154546386105096,0.00399999999899592
3,5,0.209923639623747,0.00300000000061118
3,6,0.015701241400982,0.00400000000081491
3,7,0.0573520181922021,0.00299999999879219
3,8,0.0797727344791887,0.00400000000081491
3,9,0.146946922052508,0.00299999999879219
3,10,0.0615943839429602,0.00700000000142609
3,11,0.13690417822307,0.00299999999879219
3,12,0.0861200799427037,0.00400000000081491
3,13,0.122205500920445,0.00300000000061118
3,14,0.124045136587131,0.00299999999879219
3,15,0.068555194446273,0.00400000000081491
3,16,0.114863406153986,0.00299999999879219
3,17,0.0477577200900152,0.00300000000061118
3,18,0.0975049685371324,0.00400000000081491
3,19,0.0493827620758545,0.00299999999879219
3,20,0.0522278263290557,0.00400000000081491
3,21,0.0481146611756011,0.00300000000061118
3,22,0.0576711334974118,0.00300000000061118
3,23,0.0520418247458341,0.00300000000061118
3,24,0.0643932085571625,0.00399999999899592
3,25,0.128839898362609,0.00300000000061118
3,26,0.0956269392880908,0.00400000000081491
3,27,0.545375356137032,0.00299999999879219
3,28,0.0528584619755399,0.00300000000061118
3,29,0.220339140275189,0.0069999999996071
3,30,0.055314398381316,0.00300000000061118
4,1,0.744714685123748,0.00399999999899592
4,2,0.869517524595104,0.00300000000061118
4,3,0.815416502059484,0.00400000000081491
4,4,0.707852396532846,0.00299999999879219
4,5,0.638425673052383,0.00400000000081491
4,6,0.83201226292377,0.00299999999879219
4,7,0.78683820454512,0.00300000000061118
4,8,0.790388656639456,0.00400000000081491
4,9,0.716541614309783,0.00299999999879219
4,10,0.782641482773292,0.00400000000081491
4,11,0.72265216609369,0.00299999999879219
4,12,0.764877394021788,0.00400000000081491
4,13,0.727313034714566,0.00300000000061118
4,14,0.751414216456292,0.00299999999879219
4,15,0.885441176926297,0.00300000000061118
4,16,0.743680348478125,0.00300000000061118
4,17,0.853781147652535,0.00399999999899592
4,18,0.769076253851849,0.00599999999940337
4,19,0.861658426175369,0.00300000000061118
4,20,0.861691190626386,0.00400000000081491
4,21,0.834059376736858,0.00299999999879219
4,22,0.816518474743827,0.00400000000081491
4,23,0.838452900146922,0.00300000000061118
4,24,0.811082780945188,0.00299999999879219
4,25,0.737564741688391,0.00400000000081491
4,26,0.753837718746352,0.00299999999879219
4,27,0.331879987167856,0.00400000000081491
4,28,0.824828822648422,0.00300000000061118
4,29,0.641996667025869,0.00299999999879219
4,30,0.815271521494781,0.00400000000081491
5,1,0.556701064065984,0.00300000000061118
5,2,0.678441833575276,0.00299999999879219
5,3,0.626491370640999,0.00400000000081491
5,4,0.514389060301892,0.00299999999879219
5,5,0.450058638297882,0.00300000000061118
5,6,0.644783882014894,0.00300000000061118
5,7,0.599415856106547,0.00599999999940337
5,8,0.599960230838905,0.00400000000081491
5,9,0.523628235668589,0.00299999999879219
5,10,0.594643594515952,0.00300000000061118
5,11,0.529054515711933,0.00399999999899592
5,12,0.576957852435195,0.00300000000061118
5,13,0.537612606242558,0.00300000000061118
5,14,0.55747290045196,0.00399999999899592
5,15,0.697625681079958,0.00300000000061118
5,16,0.554522050623109,0.00300000000061118
5,17,0.662841177551696,0.00299999999879219
5,18,0.576389112613744,0.00300000000061118
5,19,0.67073349924071,0.00400000000081491
5,20,0.67052257959024,0.00299999999879219
5,21,0.642156868755871,0.00300000000061118
5,22,0.62476186105331,0.00300000000061118
5,23,0.646717587636343,0.00300000000061118
5,24,0.618444368747979,0.00300000000061118
5,25,0.544030427433951,0.00299999999879219
5,26,0.566603074129679,0.00400000000081491
5,27,0.140731430544903,0.00300000000061118
5,28,0.635042385616603,0.00599999999940337
5,29,0.448922894755552,0.00300000000061118
5,30,0.625954534525549,0.00399999999899592
6,1,0.0560742298869362,0.00300000000061118
6,2,0.110503505417075,0.00299999999879219
6,3,0.0506841582786897,0.00400000000081491
6,4,0.0922045227569523,0.00300000000061118
6,5,0.146801638957975,0.00399999999899592
6,6,0.0813600979015634,0.00300000000061118
6,7,0.053313140613018,0.00399999999899592
6,8,0.0582375768312568,0.00400000000081491
6,9,0.0821204208050672,0.00300000000061118
6,10,0.0514120052846823,0.00399999999899592
6,11,0.0761718406864599,0.00300000000061118
6,12,0.049374287648292,0.00399999999899592
6,13,0.0713203480171942,0.00400000000081491
6,14,0.0685418752338953,0.00400000000081491
6,15,0.129814364136933,0.00599999999940337
6,16,0.0360202204192438,0.00399999999899592
6,17,0.0995075951115411,0.00300000000061118
6,18,0.0538255312835347,0.00400000000081491
6,19,0.106116773381652,0.00299999999879219
6,20,0.106723315103762,0.00400000000081491
6,21,0.0795335998433689,0.00299999999879219
6,22,0.0648983596251115,0.00400000000081491
6,23,0.0859836786607995,0.00300000000061118
6,24,0.0660704511231882,0.00399999999899592
6,25,0.0734889433852992,0.00300000000061118
6,26,0.0609984194830312,0.00299999999879219
6,27,0.481540275458932,0.00400000000081491
6,28,0.056148363243676,0.00300000000061118
6,29,0.151490439764982,0.00399999999899592
6,30,0.0700099151563795,0.00400000000081491
7,1,0.111329322597003,0.00299999999879219
7,2,0.229910743724581,0.00900000000001455
7,3,0.1837853817169,0.00400000000081491
7,4,0.0787017091496684,0.00300000000061118
7,5,0.0532494042300469,0.00399999999899592
7,6,0.199670040278564,0.00300000000061118
7,7,0.155320417348408,0.00300000000061118
7,8,0.152717301466444,0.00300000000061118
7,9,0.0821530489092696,0.00300000000061118
7,10,0.150174370124728,0.00299999999879219
7,11,0.0864636691622252,0.00300000000061118
7,12,0.129429243557618,0.00400000000081491
7,13,0.095573330380318,0.00299999999879219
7,14,0.100062765733512,0.00300000000061118
7,15,0.252001541832459,0.00300000000061118
7,16,0.112582147775073,0.00399999999899592
7,17,0.220005968025482,0.00300000000061118
7,18,0.129913250435831,0.00299999999879219
7,19,0.227829971232589,0.00400000000081491
7,20,0.228202223209668,0.00300000000061118
7,21,0.196884412422979,0.00299999999879219
7,22,0.177396796231837,0.00400000000081491
7,23,0.202657945730871,0.00299999999879219
7,24,0.172572655653737,0.00600000000122236
7,25,0.104439627144259,0.00399999999899592
7,26,0.123732044503894,0.00300000000061118
7,27,0.356967694969053,0.00300000000061118
7,28,0.188938419783308,0.00399999999899592
7,29,0.0558735472410655,0.00300000000061118
7,30,0.181975138580596,0.00300000000061118
8,1,0.107454951429358,0.00300000000061118
8,2,0.223338037804434,0.00300000000061118
8,3,0.179333670516233,0.00299999999879219
8,4,0.0783179360532692,0.00400000000081491
8,5,0.0625669735603553,0.00300000000061118
8,6,0.194334633171623,0.00299999999879219
8,7,0.150441443642316,0.00400000000081491
8,8,0.147192568870366,0.00300000000061118
8,9,0.0796092992954958,0.00399999999899592
8,10,0.145646517518922,0.00300000000061118
8,11,0.0841604419958491,0.00299999999879219
8,12,0.124825866135836,0.00400000000081491
8,13,0.0909304721270244,0.00300000000061118
8,14,0.0907922502872333,0.00299999999879219
8,15,0.24719836780902,0.00600000000122236
8,16,0.109621879384001,0.00299999999879219
8,17,0.214972043920003,0.00300000000061118
8,18,0.125303394656895,0.00300000000061118
8,19,0.222601858631558,0.00300000000061118
8,20,0.222828540734519,0.00300000000061118
8,21,0.191272553818156,0.00299999999879219
8,22,0.172086606566501,0.00400000000081491
8,23,0.197417827275048,0.00300000000061118
8,24,0.167309375965603,0.00299999999879219
8,25,0.101396539128171,0.00300000000061118
8,26,0.121166494169882,0.00299999999879219
8,27,0.367775606114273,0.00300000000061118
8,28,0.18352693867969,0.00300000000061118
8,29,0.0648970731907243,0.00299999999879219
8,30,0.176952688210197,0.00400000000081491
9,1,0.257351875910747,0.00300000000061118
9,2,0.383645707011858,0.00299999999879219
9,3,0.330705864910152,0.00300000000061118
9,4,0.216227787734996,0.00299999999879219
9,5,0.153985154140805,0.00300000000061118
9,6,0.348314744947798,0.0069999999996071
9,7,0.30242326148126,0.00300000000061118
9,8,0.301235922225672,0.00300000000061118
9,9,0.224659517938943,0.00399999999899592
9,10,0.2980455988932,0.00300000000061118
9,11,0.232237740546151,0.00300000000061118
9,12,0.276671601715467,0.00299999999879219
9,13,0.243099580926836,0.00400000000081491
9,14,0.260088369704008,0.00299999999879219
9,15,0.402954527235828,0.00300000000061118
9,16,0.254571097791546,0.00300000000061118
9,17,0.368548988524902,0.00299999999879219
9,18,0.277611691079403,0.00300000000061118
9,19,0.376315171733077,0.00300000000061118
9,20,0.37561839522269,0.00399999999899592
9,21,0.345576412933184,0.00300000000061118
9,22,0.327178580998345,0.00300000000061118
9,23,0.350806473196258,0.00399999999899592
9,24,0.322606007913794,0.00300000000061118
9,25,0.24706747597361,0.00299999999879219
9,26,0.267351725328245,0.00400000000081491
9,27,0.229231818719018,0.00300000000061118
9,28,0.338906148175138,0.00599999999940337
9,29,0.15225624056573,0.00400000000081491
9,30,0.328643006466797,0.00299999999879219
10,1,0.0657858337127858,0.00300000000061118
10,2,0.103450676075248,0.00399999999899592
10,3,0.0823602853554497,0.00300000000061118
10,4,0.094620293638001,0.00300000000061118
10,5,0.147987800083139,0.00299999999879219
10,6,0.0898418099099377,0.00300000000061118
10,7,0.062394892304729,0.00399999999899592
10,8,0.0593372580362035,0.00300000000061118
10,9,0.0881272829805278,0.00400000000081491
10,10,0.0610365290845338,0.00299999999879219
10,11,0.0756112744649793,0.00300000000061118
10,12,0.0624164029165983,0.00400000000081491
10,13,0.068182508144221,0.00299999999879219
10,14,0.0341724743932919,0.00300000000061118
10,15,0.13648597644657,0.00300000000061118
10,16,0.0727962379564487,0.00399999999899592
10,17,0.106525993459881,0.00300000000061118
10,18,0.06112737369364,0.00599999999940337
10,19,0.112318025037314,0.00400000000081491
10,20,0.11354053715364,0.00299999999879219
10,21,0.0844618964043383,0.00300000000061118
10,22,0.0731936254125977,0.00400000000081491
10,23,0.0936466959795978,0.00299999999879219
10,24,0.0708764131110632,0.00300000000061118
10,25,0.0783981778643517,0.00399999999899592
10,26,0.0660915008848017,0.00300000000061118
10,27,0.473728569363237,0.00300000000061118
10,28,0.0773751831371913,0.00399999999899592
10,29,0.15472691763746,0.00300000000061118
10,30,0.0781503126509215,0.00400000000081491
11,1,0.0554043004601122,0.00299999999879219
11,2,0.120140152699171,0.00300000000061118
11,3,0.074343512183677,0.00399999999899592
11,4,0.0683846578032158,0.00300000000061118
11,5,0.142528187312805,0.00400000000081491
11,6,0.0891887179835592,0.00299999999879219
11,7,0.0636917609818652,0.00300000000061118
11,8,0.058867219489203,0.00599999999940337
11,9,0.0594932301282469,0.00400000000081491
11,10,0.0562189086495141,0.00299999999879219
11,11,0.0540308753392674,0.00300000000061118
11,12,0.0479140273596649,0.00400000000081491
11,13,0.0725967686815162,0.00299999999879219
11,14,0.0706550320738067,0.00300000000061118
11,15,0.138109321103275,0.00399999999899592
11,16,0.0573792497167489,0.00300000000061118
11,17,0.0951817298090505,0.00300000000061118
11,18,0.0101874787112144,0.00399999999899592
11,19,0.102978464833975,0.00300000000061118
11,20,0.101556292807965,0.00300000000061118
11,21,0.0709794412682914,0.00299999999879219
11,22,0.0505444052764352,0.00400000000081491
11,23,0.0744354260516704,0.00299999999879219
11,24,0.0462459038489803,0.00300000000061118
11,25,0.0397490164527311,0.00300000000061118
11,26,0.06247911473629,0.00299999999879219
11,27,0.477396696513453,0.00400000000081491
11,28,0.0836199411525461,0.00599999999940337
11,29,0.136289810265759,0.00400000000081491
11,30,0.0726872992139862,0.00299999999879219
12,1,0.150509791036298,0.00300000000061118
12,2,0.268115562512995,0.00300000000061118
12,3,0.221972492033182,0.00299999999879219
12,4,0.1122133961368,0.00400000000081491
12,5,0.0612955144581891,0.00300000000061118
12,6,0.238327047160469,0.00299999999879219
12,7,0.1928814794688,0.00400000000081491
12,8,0.191726583264555,0.00299999999879219
12,9,0.120870845816014,0.00400000000081491
12,10,0.188335945120264,0.00300000000061118
12,11,0.122748041919115,0.00299999999879219
12,12,0.169989223846679,0.00400000000081491
12,13,0.131200125349987,0.00299999999879219
12,14,0.142179718020841,0.00300000000061118
12,15,0.292521126417023,0.00300000000061118
12,16,0.150194797954617,0.00399999999899592
12,17,0.257942285573467,0.00300000000061118
12,18,0.169601204790512,0.00599999999940337
12,19,0.265511309404713,0.00300000000061118
12,20,0.265497900446844,0.00300000000061118
12,21,0.234813454237502,0.00299999999879219
12,22,0.217391595599721,0.00400000000081491
12,23,0.241063456928647,0.00299999999879219
12,24,0.211869084053394,0.00300000000061118
12,25,0.141275709964991,0.00400000000081491
12,26,0.16042155111124,0.00299999999879219
12,27,0.310229214844168,0.00300000000061118
12,28,0.227365305056804,0.00400000000081491
12,29,0.0690802318052596,0.00299999999879219
12,30,0.219790269603751,0.00300000000061118
13,1,0.0584051581302383,0.00399999999899592
13,2,0.111181255713201,0.00300000000061118
13,3,0.0694632431823171,0.00400000000081491
13,4,0.0763265177302342,0.00299999999879219
13,5,0.149402437769617,0.00300000000061118
13,6,0.0826073553881567,0.00400000000081491
13,7,0.0594736200149607,0.00299999999879219
13,8,0.0543485844668269,0.0069999999996071
13,9,0.0679536608178807,0.00300000000061118
13,10,0.0532708281378111,0.00400000000081491
13,11,0.0610518448571666,0.00299999999879219
13,12,0.048773202111664,0.00300000000061118
13,13,0.0749585905163438,0.00400000000081491
13,14,0.0692552827967795,0.00299999999879219
13,15,0.132338761885018,0.00300000000061118
13,16,0.0608748984895927,0.00399999999899592
13,17,0.0883996508865722,0.00300000000061118
13,18,0.0167926041876139,0.00300000000061118
13,19,0.0957336388026242,0.00399999999899592
13,20,0.0940232574133402,0.00300000000061118
13,21,0.0627883245760629,0.00300000000061118
13,22,0.0442515775892228,0.00300000000061118
13,23,0.067589101209242,0.00300000000061118
13,24,0.0403740338506418,0.00299999999879219
13,25,0.0481040165082754,0.00300000000061118
13,26,0.0636171275825629,0.00300000000061118
13,27,0.484329361236597,0.0069999999996071
13,28,0.0768475971003442,0.00300000000061118
13,29,0.144930479210764,0.00399999999899592
13,30,0.066493195077838,0.00300000000061118
14,1,0.133034303647305,0.00299999999879219
14,2,0.254380426555067,0.00400000000081491
14,3,0.206377116200225,0.00300000000061118
14,4,0.0972782914785489,0.00299999999879219
14,5,0.0531708868824251,0.00400000000081491
14,6,0.222916657390605,0.00300000000061118
14,7,0.177916606914401,0.00299999999879219
14,8,0.175842292747043,0.00400000000081491
14,9,0.101032048375491,0.00299999999879219
14,10,0.172729572918977,0.00300000000061118
14,11,0.107296747574452,0.00300000000061118
14,12,0.151963136482499,0.00299999999879219
14,13,0.116030927989799,0.00300000000061118
14,14,0.12518684485718,0.00300000000061118
14,15,0.275593397730925,0.00299999999879219
14,16,0.133746388632049,0.00600000000122236
14,17,0.243086299889915,0.00399999999899592
14,18,0.152366251627811,0.00300000000061118
14,19,0.251045084887041,0.00299999999879219
14,20,0.251323972424591,0.00300000000061118
14,21,0.220252404385943,0.00300000000061118
14,22,0.200617637031957,0.00299999999879219
14,23,0.225733057079999,0.00300000000061118
14,24,0.195541001979631,0.00399999999899592
14,25,0.124648034059186,0.00400000000081491
14,26,0.146676489011444,0.00300000000061118
14,27,0.334266436621301,0.00299999999879219
14,28,0.212434926930286,0.00400000000081491
14,29,0.0527501468530755,0.00300000000061118
14,30,0.204901421797347,0.00399999999899592
15,1,0.347045052448631,0.00300000000061118
15,2,0.473169385805981,0.00299999999879219
15,3,0.419009379746192,0.00400000000081491
15,4,0.305367247612155,0.00300000000061118
15,5,0.241318126146128,0.00399999999899592
15,6,0.437590966738553,0.00600000000122236
15,7,0.392736875587793,0.00299999999879219
15,8,0.392072383517196,0.00400000000081491
15,9,0.313010447061451,0.00299999999879219
15,10,0.386882819703317,0.00300000000061118
15,11,0.320391176952517,0.00300000000061118
15,12,0.366451799137602,0.00299999999879219
15,13,0.331399769361907,0.00300000000061118
15,14,0.348707444722755,0.00300000000061118
15,15,0.487721477526673,0.00299999999879219
15,16,0.345301414281853,0.00300000000061118
15,17,0.456703327139247,0.00300000000061118
15,18,0.366751821381236,0.00299999999879219
15,19,0.465210517879142,0.00300000000061118
15,20,0.46568164380988,0.00400000000081491
15,21,0.436205856028986,0.00299999999879219
15,22,0.41582113371828,0.00300000000061118
15,23,0.439806476939791,0.00300000000061118
15,24,0.410155689768641,0.00299999999879219
15,25,0.335105446144156,0.00400000000081491
15,26,0.357476935140547,0.00299999999879219
15,27,0.150040513543055,0.00600000000122236
15,28,0.42807972007672,0.00299999999879219
15,29,0.236549835668633,0.00400000000081491
15,30,0.419416600883572,0.00299999999879219
16,1,1.16097746880573,0.00300000000061118
16,2,1.2714540567465,0.00400000000081491
16,3,1.22326592106107,0.00299999999879219
16,4,1.1187862572643,0.00300000000061118
16,5,1.05857438782818,0.00300000000061118
16,6,1.24098924926169,0.00399999999899592
16,7,1.19956986107571,0.00300000000061118
16,8,1.20097738728081,0.00300000000061118
16,9,1.13227374287697,0.00300000000061118
16,10,1.194409283698,0.00300000000061118
16,11,1.1330705086539,0.00299999999879219
16,12,1.17978104815466,0.00300000000061118
16,13,1.14410132684731,0.00300000000061118
16,14,1.16279931620735,0.00299999999879219
16,15,1.28745026145785,0.00300000000061118
16,16,1.15770552716192,0.00400000000081491
16,17,1.25665817564377,0.00599999999940337
16,18,1.17863497127603,0.00300000000061118
16,19,1.26414082995453,0.00300000000061118
16,20,1.26468114550701,0.00300000000061118
16,21,1.23905418238755,0.00299999999879219
16,22,1.22346258110513,0.00400000000081491
16,23,1.24265835151699,0.00300000000061118
16,24,1.21686401617911,0.00299999999879219
16,25,1.14799085362327,0.00400000000081491
16,26,1.16298502324333,0.00300000000061118
16,27,0.723199790914349,0.00299999999879219
16,28,1.23133165449459,0.00400000000081491
16,29,1.06013871451689,0.00299999999879219
16,30,1.22386008155597,0.00300000000061118
17,1,0.0473825271039257,0.00300000000061118
17,2,0.145402639888611,0.00299999999879219
17,3,0.0962284830810597,0.00400000000081491
17,4,0.0406589023661629,0.00300000000061118
17,5,0.113706467542675,0.00399999999899592
17,6,0.112764896234744,0.0069999999996071
17,7,0.0772080299357576,0.00300000000061118
17,8,0.0730337924210563,0.00399999999899592
17,9,0.0295099137561144,0.00300000000061118
17,10,0.069393186939682,0.00400000000081491
17,11,0.0270631373620405,0.00299999999879219
17,12,0.0521160007562293,0.00400000000081491
17,13,0.0564360646418902,0.00300000000061118
17,14,0.0600892905166387,0.00299999999879219
17,15,0.164100483780736,0.00400000000081491
17,16,0.0494391020488915,0.00299999999879219
17,17,0.123869175932304,0.00400000000081491
17,18,0.0289594926981314,0.00300000000061118
17,19,0.131909054194713,0.00299999999879219
17,20,0.131050706261967,0.00300000000061118
17,21,0.100108308442699,0.00300000000061118
17,22,0.0793876256582358,0.00399999999899592
17,23,0.104097442518945,0.00300000000061118
17,24,0.0743562559871623,0.0069999999996071
17,25,0.0193951115975936,0.00300000000061118
17,26,0.0616388066269088,0.00399999999899592
17,27,0.447908167208617,0.00300000000061118
17,28,0.105276494034232,0.00300000000061118
17,29,0.106153488155023,0.00300000000061118
17,30,0.0948442929237798,0.00300000000061118
18,1,0.0154641107739685,0.00399999999899592
18,2,0.129822579386198,0.00300000000061118
18,3,0.0831917892624326,0.00400000000081491
18,4,0.0777389271075274,0.00299999999879219
18,5,0.120404142634619,0.00400000000081491
18,6,0.0852102021316506,0.00299999999879219
18,7,0.0421265065248922,0.00300000000061118
18,8,0.06416331325998,0.00300000000061118
18,9,0.0679275378498203,0.00399999999899592
18,10,0.037984368590528,0.00300000000061118
18,11,0.0641716944606173,0.0069999999996071
18,12,0.0146237767513956,0.00300000000061118
18,13,0.0408973468821078,0.00399999999899592
18,14,0.061625487994997,0.00300000000061118
18,15,0.148220768799368,0.00300000000061118
18,16,0.0486610056091108,0.00399999999899592
18,17,0.117831102994733,0.00300000000061118
18,18,0.0534949494304721,0.00399999999899592
18,19,0.124890836890096,0.00300000000061118
18,20,0.125310552150183,0.00400000000081491
18,21,0.0966404686247744,0.00299999999879219
18,22,0.0791519832098059,0.00300000000061118
18,23,0.102419108374464,0.00299999999879219
18,24,0.0788621850431892,0.00300000000061118
18,25,0.0641783923774268,0.00400000000081491
18,26,0.0334249722515394,0.00299999999879219
18,27,0.464773791283344,0.00400000000081491
18,28,0.0905739993097313,0.00599999999940337
18,29,0.133386600388797,0.00400000000081491
18,30,0.0815040452158815,0.00299999999879219
19,1,0.572120940652788,0.00400000000081491
19,2,0.697141491360325,0.00300000000061118
19,3,0.642392676317623,0.00399999999899592
19,4,0.529483895858715,0.00300000000061118
19,5,0.464833333526899,0.00300000000061118
19,6,0.661238467181755,0.00399999999899592
19,7,0.616158667953979,0.00300000000061118
19,8,0.616443323063795,0.00399999999899592
19,9,0.538824545473648,0.00300000000061118
19,10,0.610952175352606,0.00400000000081491
19,11,0.545207167773508,0.00299999999879219
19,12,0.591942472512336,0.00300000000061118
19,13,0.555706771892267,0.00299999999879219
19,14,0.576161657628064,0.00300000000061118
19,15,0.71254789916573,0.00300000000061118
19,16,0.569357259763382,0.0069999999996071
19,17,0.679599748683295,0.00399999999899592
19,18,0.591941504515607,0.00300000000061118
19,19,0.687785489027872,0.00300000000061118
19,20,0.687758214388064,0.00399999999899592
19,21,0.65935326929129,0.00300000000061118
19,22,0.640728585348819,0.00300000000061118
19,23,0.663196490340647,0.00399999999899592
19,24,0.634901201332805,0.00300000000061118
19,25,0.559608356097669,0.00300000000061118
19,26,0.581092538657595,0.00399999999899592
19,27,0.163353270816518,0.00300000000061118
19,28,0.651946985642404,0.00299999999879219
19,29,0.462225370942621,0.00300000000061118
19,30,0.642401247945187,0.00400000000081491
20,1,0.0513345636782135,0.00299999999879219
20,2,0.18456955333559,0.00400000000081491
20,3,0.131651369233859,0.00300000000061118
20,4,0.0655384186473156,0.0069999999996071
20,5,0.071247124586366,0.00299999999879219
20,6,0.140511891390564,0.00400000000081491
20,7,0.0954166610721963,0.00300000000061118
20,8,0.108846694275893,0.00399999999899592
20,9,0.0559305801770602,0.00300000000061118
20,10,0.0908873522345363,0.00399999999899592
20,11,0.06330585506408,0.00300000000061118
20,12,0.0704506275109481,0.00300000000061118
20,13,0.0422997763331163,0.00399999999899592
20,14,0.0845232431206767,0.00300000000061118
20,15,0.201209661727787,0.00300000000061118
20,16,0.0690559146542017,0.00299999999879219
20,17,0.169078159147763,0.00300000000061118
20,18,0.0888860979835388,0.00399999999899592
20,19,0.176817421845742,0.00300000000061118
20,20,0.176988412648144,0.0069999999996071
20,21,0.148238237150476,0.00300000000061118
20,22,0.129270884594302,0.00299999999879219
20,23,0.153132347978306,0.00300000000061118
20,24,0.126317217491855,0.00400000000081491
20,25,0.0732109394262067,0.00299999999879219
20,26,0.0756809739654669,0.00400000000081491
20,27,0.414816254528243,0.00300000000061118
20,28,0.141456798343248,0.00399999999899592
20,29,0.0887820858769471,0.00300000000061118
20,30,0.131156200240155,0.00399999999899592
21,1,0.0612265318061252,0.00300000000061118
21,2,0.161102484499271,0.00400000000081491
21,3,0.122412543284018,0.00299999999879219
21,4,0.0576315805636554,0.00400000000081491
21,5,0.0944433058429276,0.00299999999879219
21,6,0.135685283933627,0.00300000000061118
21,7,0.0946046378235072,0.00300000000061118
21,8,0.0909374075130551,0.00399999999899592
21,9,0.0565208315665935,0.00300000000061118
21,10,0.0905018682960514,0.00399999999899592
21,11,0.0487350060566035,0.00600000000122236
21,12,0.0734841972696333,0.00399999999899592
21,13,0.0535150207436939,0.00300000000061118
21,14,0.0344856679205855,0.00300000000061118
21,15,0.18744956169952,0.00299999999879219
21,16,0.0650062762685996,0.00400000000081491
21,17,0.155784888476811,0.00300000000061118
21,18,0.0739758450527106,0.00299999999879219
21,19,0.162854140873324,0.00400000000081491
21,20,0.16331417368022,0.00299999999879219
21,21,0.131858383082242,0.00300000000061118
21,22,0.114578104775124,0.00400000000081491
21,23,0.13919476109528,0.00299999999879219
21,24,0.110943143971433,0.00300000000061118
21,25,0.0643024154960189,0.00300000000061118
21,26,0.0680525641375488,0.00300000000061118
21,27,0.420228083847034,0.00300000000061118
21,28,0.124148361190401,0.00299999999879219
21,29,0.101266642023857,0.00300000000061118
21,30,0.11899424922912,0.00300000000061118
22,1,0.239947621509462,0.00399999999899592
22,2,0.367532993906523,0.00600000000122236
22,3,0.3140890715361,0.00299999999879219
22,4,0.199284423372352,0.00300000000061118
22,5,0.138561601533574,0.00299999999879219
22,6,0.331559727590918,0.00300000000061118
22,7,0.286070273847948,0.00400000000081491
22,8,0.284191273209927,0.00299999999879219
22,9,0.207172940749287,0.00300000000061118
22,10,0.281425307129489,0.00300000000061118
22,11,0.215740816678908,0.00299999999879219
22,12,0.258656852100735,0.00300000000061118
22,13,0.227663309544932,0.00300000000061118
22,14,0.242780358753544,0.00299999999879219
22,15,0.385468854504257,0.00300000000061118
22,16,0.237163477398438,0.00299999999879219
22,17,0.352340346481037,0.00300000000061118
22,18,0.260082553862649,0.00300000000061118
22,19,0.360232107998223,0.00299999999879219
22,20,0.359650811511804,0.00300000000061118
22,21,0.329246648084403,0.00300000000061118
22,22,0.309904346770129,0.00299999999879219
22,23,0.334173898708954,0.00400000000081491
22,24,0.305695194523178,0.00599999999940337
22,25,0.230086111140429,0.00300000000061118
22,26,0.249770532112906,0.00399999999899592
22,27,0.251392000779021,0.00300000000061118
22,28,0.32233815504045,0.00300000000061118
22,29,0.135027246206342,0.00299999999879219
22,30,0.312128961742232,0.00400000000081491
23,1,0.24454161909834,0.00300000000061118
23,2,0.372868125167072,0.00299999999879219
23,3,0.319046135684316,0.00400000000081491
23,4,0.204170080497657,0.00299999999879219
23,5,0.142803756230846,0.00300000000061118
23,6,0.336684741292746,0.00300000000061118
23,7,0.291123210342718,0.00399999999899592
23,8,0.289257975957829,0.00300000000061118
23,9,0.210795924844995,0.00300000000061118
23,10,0.286277288854001,0.00399999999899592
23,11,0.220266570523723,0.00300000000061118
23,12,0.263418579160771,0.00300000000061118
23,13,0.231546644596741,0.00299999999879219
23,14,0.246903725729501,0.00300000000061118
23,15,0.390201097027485,0.00299999999879219
23,16,0.242248660503843,0.00600000000122236
23,17,0.357386175123885,0.00399999999899592
23,18,0.264778243313509,0.00300000000061118
23,19,0.365428514822914,0.00300000000061118
23,20,0.364983977865092,0.00299999999879219
23,21,0.334547205979952,0.00300000000061118
23,22,0.314686539939443,0.00400000000081491
23,23,0.339250807975802,0.00299999999879219
23,24,0.310301614814192,0.00300000000061118
23,25,0.23446402506184,0.00300000000061118
23,26,0.255940370294673,0.00399999999899592
23,27,0.248809822843868,0.00300000000061118
23,28,0.3274913589675,0.00299999999879219
23,29,0.137648845064971,0.00300000000061118
23,30,0.317450511877882,0.00400000000081491
24,1,0.748969570630235,0.00299999999879219
24,2,0.867630584170638,0.00300000000061118
24,3,0.816432885803544,0.00400000000081491
24,4,0.706807590582258,0.00299999999879219
24,5,0.643159926649713,0.00300000000061118
24,6,0.834883792050491,0.00399999999899592
24,7,0.790568092250691,0.00600000000122236
24,8,0.791663573877824,0.00399999999899592
24,9,0.716479288426802,0.00300000000061118
24,10,0.785438840038047,0.00399999999899592
24,11,0.7208656760764,0.00300000000061118
24,12,0.769111477208044,0.00300000000061118
24,13,0.729395998385591,0.00399999999899592
24,14,0.749609656409721,0.00300000000061118
24,15,0.885292136625388,0.00300000000061118
24,16,0.746946411847974,0.00399999999899592
24,17,0.851834515847476,0.00300000000061118
24,18,0.768116693201829,0.00300000000061118
24,19,0.859799190668375,0.00399999999899592
24,20,0.860038925531571,0.00300000000061118
24,21,0.83261988759321,0.00299999999879219
24,22,0.815373238599178,0.00300000000061118
24,23,0.836620776937705,0.00400000000081491
24,24,0.808571102627806,0.00299999999879219
24,25,0.735816143155703,0.00300000000061118
24,26,0.757918538045822,0.00300000000061118
24,27,0.309829334551044,0.00399999999899592
24,28,0.825109308089048,0.00600000000122236
24,29,0.642157670363409,0.00299999999879219
24,30,0.816803141467976,0.00400000000081491
25,1,0.266762957581153,0.00299999999879219
25,2,0.392877239920348,0.00300000000061118
25,3,0.338798618108542,0.00300000000061118
25,4,0.228095052217583,0.00399999999899592
25,5,0.167295615338452,0.00300000000061118
25,6,0.35717700367404,0.00300000000061118
25,7,0.312666563545866,0.00299999999879219
25,8,0.311721529571346,0.00400000000081491
25,9,0.231913864445626,0.00300000000061118
25,10,0.30684055381648,0.00399999999899592
25,11,0.241765519983561,0.00300000000061118
25,12,0.285915056050665,0.00299999999879219
25,13,0.251251269574573,0.00400000000081491
25,14,0.268438190357256,0.00300000000061118
25,15,0.406910141493067,0.00299999999879219
25,16,0.266066384279869,0.00300000000061118
25,17,0.376309650942038,0.00300000000061118
25,18,0.286499571287176,0.00399999999899592
25,19,0.384865498818155,0.00300000000061118
25,20,0.385353439820838,0.00599999999940337
25,21,0.355862716334375,0.00300000000061118
25,22,0.334832970748111,0.00399999999899592
25,23,0.359417437954615,0.00300000000061118
25,24,0.329494611220876,0.00300000000061118
25,25,0.255844796999548,0.00299999999879219
25,26,0.281178306612824,0.00300000000061118
25,27,0.233007474873922,0.00300000000061118
25,28,0.34795912190511,0.00399999999899592
25,29,0.159324475118139,0.00300000000061118
25,30,0.339296372464417,0.00399999999899592
26,1,0.240421998651857,0.00300000000061118
26,2,0.36811831791404,0.00300000000061118
26,3,0.314332451361297,0.00399999999899592
26,4,0.2016980527269,0.00300000000061118
26,5,0.140698532581797,0.00300000000061118
26,6,0.332231021692624,0.00399999999899592
26,7,0.286620622935548,0.00300000000061118
26,8,0.285283440288311,0.00399999999899592
26,9,0.205320179860286,0.00300000000061118
26,10,0.281671775382613,0.00400000000081491
26,11,0.216139469588821,0.00599999999940337
26,12,0.259818726963458,0.00300000000061118
26,13,0.224965309309268,0.00299999999879219
26,14,0.242139088499174,0.00300000000061118
26,15,0.385225103908292,0.00300000000061118
26,16,0.239287801737235,0.00399999999899592
26,17,0.352236595917935,0.00300000000061118
26,18,0.260780241477082,0.00299999999879219
26,19,0.360419492080831,0.00400000000081491
26,20,0.36015734740455,0.00300000000061118
26,21,0.33009516248363,0.00299999999879219
26,22,0.310013717386857,0.00400000000081491
26,23,0.334623398655951,0.00299999999879219
26,24,0.305190421117527,0.00300000000061118
26,25,0.230193417268326,0.00300000000061118
26,26,0.255704948677707,0.00299999999879219
26,27,0.255075915364348,0.00300000000061118
26,28,0.323060174470233,0.00300000000061118
26,29,0.133543686655125,0.00299999999879219
26,30,0.313336596376915,0.00300000000061118
27,1,0.0678713384355791,0.00299999999879219
27,2,0.17618249009866,0.00600000000122236
27,3,0.12265802549888,0.00299999999879219
27,4,0.0266059830223055,0.00400000000081491
27,5,0.0946449925436169,0.00300000000061118
27,6,0.14084393081067,0.00399999999899592
27,7,0.102848980791222,0.00300000000061118
27,8,0.100928567476907,0.00399999999899592
27,9,0.0310687980433261,0.00300000000061118
27,10,0.0958404423917226,0.00400000000081491
27,11,0.0333527404351696,0.00299999999879219
27,12,0.0789088136009185,0.00400000000081491
27,13,0.0702743395319038,0.00299999999879219
27,14,0.0896223602743435,0.00300000000061118
27,15,0.193865225090851,0.00400000000081491
27,16,0.064833375554172,0.00299999999879219
27,17,0.150761305076663,0.00300000000061118
27,18,0.0614669897117297,0.00400000000081491
27,19,0.158592152487203,0.00299999999879219
27,20,0.156892073047467,0.00400000000081491
27,21,0.127742886164554,0.00599999999940337
27,22,0.109784062569574,0.00300000000061118
27,23,0.131412590879696,0.00299999999879219
27,24,0.104575498839025,0.00300000000061118
27,25,0.0348864848683087,0.00399999999899592
27,26,0.0795685714877961,0.00300000000061118
27,27,0.420850862326901,0.00300000000061118
27,28,0.134030547901682,0.00399999999899592
27,29,0.0826564854855693,0.00400000000081491
27,30,0.121104520379822,0.00300000000061118
28,1,0.221275516243427,0.00299999999879219
28,2,0.34939429587109,0.00300000000061118
28,3,0.295538894654445,0.00299999999879219
28,4,0.181389482051667,0.00300000000061118
28,5,0.121677776337236,0.00400000000081491
28,6,0.313141811409659,0.00299999999879219
28,7,0.267989990842987,0.00300000000061118
28,8,0.265945276933386,0.00400000000081491
28,9,0.18804027662414,0.00299999999879219
28,10,0.262980160240706,0.00300000000061118
28,11,0.197460078225867,0.0069999999996071
28,12,0.239791774031907,0.00300000000061118
28,13,0.209618296342333,0.00299999999879219
28,14,0.224282781634297,0.00400000000081491
28,15,0.365900202087808,0.00300000000061118
28,16,0.218910865184403,0.00299999999879219
28,17,0.33388319305073,0.00300000000061118
28,18,0.241357332437254,0.00300000000061118
28,19,0.341964269367568,0.00299999999879219
28,20,0.341657910522769,0.00300000000061118
28,21,0.311208092635955,0.00399999999899592
28,22,0.291036430927243,0.00300000000061118
28,23,0.315767591521022,0.00300000000061118
28,24,0.286871510018369,0.00399999999899592
28,25,0.211638962205243,0.00300000000061118
28,26,0.232032140786296,0.00300000000061118
28,27,0.268221320788744,0.00399999999899592
28,28,0.30399636613678,0.00300000000061118
28,29,0.116102530548687,0.00300000000061118
28,30,0.294082280859247,0.00399999999899592
29,1,0.291215249589026,0.0069999999996071
29,2,0.41820249021641,0.00300000000061118
29,3,0.364862452325465,0.00300000000061118
29,4,0.249548900050717,0.00300000000061118
29,5,0.185912371903161,0.00300000000061118
29,6,0.382678583301852,0.00399999999899592
29,7,0.336668664300383,0.00300000000061118
29,8,0.335549075828008,0.00300000000061118
29,9,0.257772436070054,0.00399999999899592
29,10,0.332065811484909,0.00300000000061118
29,11,0.265581350021259,0.00300000000061118
29,12,0.310726839669834,0.00299999999879219
29,13,0.276166231885968,0.00300000000061118
29,14,0.293295584844769,0.00299999999879219
29,15,0.437051905079941,0.00300000000061118
29,16,0.288654236633419,0.00300000000061118
29,17,0.402845326079755,0.00299999999879219
29,18,0.311509126631619,0.00300000000061118
29,19,0.410752475586034,0.00300000000061118
29,20,0.410179341011659,0.00299999999879219
29,21,0.380122432956388,0.00700000000142609
29,22,0.361360913720649,0.00299999999879219
29,23,0.38510673461144,0.00300000000061118
29,24,0.356488800485452,0.00300000000061118
29,25,0.280336927521417,0.00399999999899592
29,26,0.301660188264132,0.00300000000061118
29,27,0.199761459408064,0.00299999999879219
29,28,0.373235228181055,0.00300000000061118
29,29,0.183303856770463,0.00400000000081491
29,30,0.363160807016891,0.00299999999879219
30,1,0.0497625356611143,0.00300000000061118
30,2,0.130302639440668,0.00300000000061118
30,3,0.0881467878029132,0.00299999999879219
30,4,0.0537580883188761,0.00400000000081491
30,5,0.125644561393023,0.00299999999879219
30,6,0.102186203163758,0.00300000000061118
30,7,0.0690680319433641,0.00400000000081491
30,8,0.0637171669271611,0.00299999999879219
30,9,0.0485103468099111,0.0069999999996071
30,10,0.0623822202503647,0.00300000000061118
30,11,0.038172521415028,0.00400000000081491
30,12,0.0496654176742868,0.00299999999879219
30,13,0.0590828974860911,0.00400000000081491
30,14,0.0501463852776737,0.00300000000061118
30,15,0.154384420026593,0.00299999999879219
30,16,0.0526120749760824,0.00300000000061118
30,17,0.11313648420645,0.00299999999879219
30,18,0.0241078904436061,0.00300000000061118
30,19,0.120510498478954,0.00400000000081491
30,20,0.119438134361963,0.00299999999879219
30,21,0.0875591775628406,0.00400000000081491
30,22,0.0693575334609947,0.00300000000061118
30,23,0.0932461256614583,0.00399999999899592
30,24,0.0642513047525745,0.00300000000061118
30,25,0.0324454148699091,0.00299999999879219
30,26,0.0563123590971622,0.00400000000081491
30,27,0.458048595430741,0.00300000000061118
30,28,0.0938161538491817,0.00400000000081491
30,29,0.12202038548329,0.00300000000061118
30,30,0.0848864225336311,0.00300000000061118
