"Before.Trace.ID1","Before.Trace.ID2","Difference","Runtime"
1,2,151.081001882544,0.0360000000000582
1,3,1044.97585375576,0.0270000000018626
1,4,1465.36674054647,0.0400000000008731
1,5,3175.83508490337,0.011000000002241
1,6,2788.82147167873,0.0239999999976135
1,7,501.728171983544,0.0300000000024738
1,8,10.9995383904477,0.0200000000004366
1,9,5701.47657612238,0.0210000000006403
1,10,8.14435344022912,0.021999999997206
1,11,883.143418552056,0.00800000000162981
1,12,17.2888970021548,0.0159999999996217
1,13,95.705526735386,0.0289999999986321
1,14,101.745547335015,0.00900000000183354
1,15,569.512387374094,0.0139999999992142
1,16,29.3332051883013,0.0129999999990105
1,17,109.913292190069,0.011000000002241
1,18,1243.50972798855,0.0289999999986321
1,19,40.4060718927346,0.0180000000000291
1,20,3329.8501760695,0.0270000000018626
1,21,52.4337530430319,0.0189999999965949
1,22,267.161032846463,0.0450000000018917
1,23,419.044595827891,0.0230000000010477
1,24,1070.23201578336,0.0499999999992724
1,25,484.042331276939,0.0200000000004366
1,26,50.6198083325271,0.0400000000008731
1,27,40.8136518182198,0.0209999999970023
1,28,558.570002902014,0.0180000000000291
1,29,59.6060697684478,0.022000000000844
1,30,293.171001550981,0.0299999999988358
2,3,89.3488560665515,0.0360000000000582
2,4,1524.92024947677,0.0480000000025029
2,5,2507.54502978221,0.0129999999990105
2,6,10.8835468093869,0.0210000000006403
2,7,193.443926263416,0.0319999999992433
2,8,2114.34574016011,0.0169999999998254
2,9,16.0945133963646,0.0129999999990105
2,10,2233.24831374065,0.0280000000020664
2,11,460.753683828361,0.010999999998603
2,12,211.425834045996,0.0169999999998254
2,13,249.462461023787,0.0349999999998545
2,14,165.054678790601,0.00900000000183354
2,15,615.526501374394,0.0139999999992142
2,16,3.51671310383287,0.0119999999988067
2,17,44.4280817920873,0.0159999999996217
2,18,1314.48471458768,0.0310000000026776
2,19,359.158941469395,0.0200000000004366
2,20,2653.64525108286,0.0259999999980209
2,21,20.7079709762793,0.0250000000014552
2,22,110.968284675519,0.0319999999992433
2,23,11.7909601209854,0.022000000000844
2,24,1171.61829361179,0.0380000000004657
2,25,207.915144718007,0.0189999999965949
2,26,1800.96592092726,0.0370000000002619
2,27,143.237561106888,0.022000000000844
2,28,3.4120353416025,0.0159999999996217
2,29,21.7816544712976,0.0200000000004366
2,30,182.94117014709,0.032999999999447
3,4,2822.28031088314,0.0309999999990396
3,5,1665.19768219463,0.0120000000024447
3,6,3324.96980760436,0.0230000000010477
3,7,798.249353362491,0.0249999999978172
3,8,10.7102542130659,0.0159999999996217
3,9,4274.91699032081,0.0180000000000291
3,10,2452.32091184284,0.0250000000014552
3,11,162.448358013629,0.00999999999839929
3,12,38.3091586604503,0.0159999999996217
3,13,496.119730877327,0.0180000000000291
3,14,889.109770613599,0.0149999999994179
3,15,721.722507300727,0.0130000000026484
3,16,92.5302212357491,0.0149999999994179
3,17,139.815764624008,0.0139999999992142
3,18,1120.09411542853,0.0280000000020664
3,19,38.7039607353309,0.0209999999970023
3,20,1049.27141372657,0.022000000000844
3,21,562.047335740787,0.0230000000010477
3,22,308.715055101401,0.0299999999988358
3,23,1034.40831271489,0.0169999999998254
3,24,2060.21254873502,0.0240000000012515
3,25,275.345354937276,0.0180000000000291
3,26,1060.27085171837,0.0289999999986321
3,27,8.10583526646393,0.0169999999998254
3,28,192.003299866626,0.022000000000844
3,29,46.6527884670194,0.0210000000006403
3,30,491.909249039429,0.0279999999984284
4,5,4.95296488660761,0.0149999999994179
4,6,444.44967349931,0.0300000000024738
4,7,1077.76799127763,0.0319999999992433
4,8,104.398198229797,0.0230000000010477
4,9,273.735444519555,0.0289999999986321
4,10,681.940182517961,0.0250000000014552
4,11,682.173468817069,0.00599999999758438
4,12,1764.91682129556,0.0180000000000291
4,13,240.309552714151,0.0380000000004657
4,14,1103.29723287746,0.0139999999992142
4,15,1855.14126287153,0.0149999999994179
4,16,765.723910220749,0.0120000000024447
4,17,1146.52979470286,0.0159999999996217
4,18,4407.18261662192,0.0299999999988358
4,19,1656.94635710676,0.0169999999998254
4,20,460.450710716429,0.0270000000018626
4,21,1398.53756251456,0.0229999999974098
4,22,2137.8889081999,0.0300000000024738
4,23,50.8403719351731,0.0229999999974098
4,24,1181.97076363499,0.0400000000008731
4,25,7573.99968077134,0.0200000000004366
4,26,545.931973441875,0.0360000000000582
4,27,5509.96980619116,0.0250000000014552
4,28,5042.61052092036,0.0149999999994179
4,29,5083.29464019851,0.0200000000004366
4,30,1915.52363704616,0.0389999999970314
5,6,27.9660760034283,0.0150000000030559
5,7,1200.19405699762,0.00999999999839929
5,8,716.818006543128,0.0139999999992142
5,9,14.3510541265148,0.0149999999994179
5,10,345.688061319862,0.0160000000032596
5,11,3174.69484090418,0.00999999999839929
5,12,8874.98716477147,0.0139999999992142
5,13,3377.56308453799,0.010999999998603
5,14,7911.37818706575,0.00600000000122236
5,15,6770.39085075494,0.00700000000142609
5,16,2640.43885261918,0.0139999999992142
5,17,3634.3921360766,0.0139999999992142
5,18,2108.39712695267,0.0100000000020373
5,19,1035.08827899267,0.0159999999996217
5,20,265.023590409745,0.0169999999998254
5,21,252.668814353334,0.0139999999992142
5,22,1991.66445570857,0.00899999999819556
5,23,72.0418456978253,0.011000000002241
5,24,27.0052991468548,0.0129999999990105
5,25,2469.95288599055,0.011000000002241
5,26,20.9329512002799,0.0129999999990105
5,27,1801.56491195993,0.00799999999799184
5,28,2709.41347914086,0.0120000000024447
5,29,1423.36634600376,0.00799999999799184
5,30,452.297931859218,0.011000000002241
6,7,1474.89727338991,0.021999999997206
6,8,73.7056314244756,0.0300000000024738
6,9,233.483024189411,0.0339999999996508
6,10,564.900257173663,0.0390000000006694
6,11,330.381563560912,0.00999999999839929
6,12,166.516402637771,0.0299999999988358
6,13,40.0710455807279,0.022000000000844
6,14,289.372354577038,0.0129999999990105
6,15,362.481875104866,0.0180000000000291
6,16,607.033451165699,0.0140000000028522
6,17,177.378942482099,0.0239999999976135
6,18,4212.95208725925,0.0210000000006403
6,19,1233.70974851208,0.0279999999984284
6,20,283.539943388428,0.0500000000029104
6,21,582.882605955987,0.0370000000002619
6,22,1466.45124407137,0.021999999997206
6,23,332.498091260385,0.0169999999998254
6,24,1024.44855871932,0.0270000000018626
6,25,20.4907536535633,0.0200000000004366
6,26,76.6045265033706,0.0279999999984284
6,27,667.62212011449,0.0200000000004366
6,28,2766.28802976556,0.0119999999988067
6,29,450.719221957027,0.0159999999996217
6,30,216.630443313995,0.0260000000016589
7,8,36.4769210878846,0.0210000000006403
7,9,7.14846740714573,0.0200000000004366
7,10,81.6754060602514,0.0200000000004366
7,11,76.7616989836487,0.00899999999819556
7,12,14.8716066021241,0.0139999999992142
7,13,121.227670314789,0.0250000000014552
7,14,1047.67659958971,0.0139999999992142
7,15,345.133277588274,0.0139999999992142
7,16,312.198350321708,0.0140000000028522
7,17,317.105054519677,0.0139999999992142
7,18,999.254407556771,0.0259999999980209
7,19,871.285082085808,0.0200000000004366
7,20,199.735710267739,0.022000000000844
7,21,1589.38754617017,0.0200000000004366
7,22,961.252331868586,0.0240000000012515
7,23,108.730298887779,0.0239999999976135
7,24,480.283730452148,0.0309999999990396
7,25,1946.39683906304,0.0150000000030559
7,26,1032.2916493175,0.0239999999976135
7,27,37.0052811228309,0.0190000000002328
7,28,229.424509300322,0.0129999999990105
7,29,57.2709113752686,0.0160000000032596
7,30,621.65689407906,0.0339999999996508
8,9,52.5854769723961,0.0259999999980209
8,10,120.151926411695,0.0309999999990396
8,11,12.0789215783335,0.0130000000026484
8,12,62.557491381214,0.0180000000000291
8,13,434.828262808967,0.022000000000844
8,14,310.706264908278,0.0129999999990105
8,15,17.5150125675575,0.00999999999839929
8,16,69.8460399262741,0.0139999999992142
8,17,33.7316864778408,0.0130000000026484
8,18,3389.40546751935,0.0139999999992142
8,19,1131.19216970485,0.0240000000012515
8,20,272.566784672169,0.0309999999990396
8,21,479.533670813919,0.0190000000002328
8,22,812.181717523857,0.0149999999994179
8,23,181.17009865462,0.0139999999992142
8,24,5.49956959815546,0.0260000000016589
8,25,1344.21973131564,0.0119999999988067
8,26,26.2158765582812,0.0230000000010477
8,27,172.100093023906,0.0129999999990105
8,28,171.090808617871,0.00999999999839929
8,29,16.7081808668089,0.011000000002241
8,30,440.951048205257,0.0190000000002328
9,10,1556.69270232276,0.0289999999986321
9,11,4388.64545349217,0.0100000000020373
9,12,3158.87426693761,0.0239999999976135
9,13,4551.18847946648,0.0169999999998254
9,14,93.957570045338,0.0159999999996217
9,15,4463.05114138806,0.0260000000016589
9,16,1108.23028284698,0.0210000000006403
9,17,19.4908290857069,0.0169999999998254
9,18,5615.88480809644,0.0200000000004366
9,19,3535.83000677368,0.0249999999978172
9,20,88.9876132142846,0.032999999999447
9,21,187.207311680397,0.0230000000010477
9,22,3034.22759660937,0.0200000000004366
9,23,19.4123469203328,0.0180000000000291
9,24,92.6646461157714,0.0269999999982247
9,25,3028.6645568404,0.0160000000032596
9,26,233.743895815668,0.0259999999980209
9,27,11.0892331367047,0.0169999999998254
9,28,1953.91165938446,0.0129999999990105
9,29,5.05743109398111,0.0130000000026484
9,30,1687.4670260384,0.0249999999978172
10,11,998.864768499816,0.0100000000020373
10,12,389.541105946456,0.0169999999998254
10,13,648.353979385918,0.0249999999978172
10,14,314.465153470168,0.0169999999998254
10,15,334.855864554114,0.0169999999998254
10,16,140.421507355205,0.0150000000030559
10,17,152.055692822787,0.0180000000000291
10,18,703.501350186743,0.0180000000000291
10,19,1422.1336019234,0.0259999999980209
10,20,158.406924207992,0.0370000000002619
10,21,1758.7461233055,0.0270000000018626
10,22,338.880690086451,0.0269999999982247
10,23,61.9697329334895,0.0159999999996217
10,24,345.280519878147,0.032999999999447
10,25,826.619221658278,0.0130000000026484
10,26,58.3401015051753,0.0299999999988358
10,27,998.680029559953,0.0169999999998254
10,28,3.22547612686592,0.0139999999992142
10,29,1192.93135031074,0.0149999999994179
10,30,174.374428052881,0.0260000000016589
11,12,33.9619333253591,0.010999999998603
11,13,5.38938053735411,0.0100000000020373
11,14,99.6039072826362,0.00899999999819556
11,15,566.421146388102,0.0119999999988067
11,16,0.359355084382446,0.0130000000026484
11,17,15.5224216223878,0.00999999999839929
11,18,15.3651590682601,0.0120000000024447
11,19,6.036531550282,0.00999999999839929
11,20,325.671574252719,0.010999999998603
11,21,1068.77739815879,0.011000000002241
11,22,1404.9531302085,0.0119999999988067
11,23,2215.02187717238,0.00800000000162981
11,24,297.344749565655,0.00899999999819556
11,25,443.994188722464,0.00800000000162981
11,26,187.055256983104,0.0129999999990105
11,27,997.345060597445,0.00899999999819556
11,28,1172.20491527002,0.00800000000162981
11,29,166.457653946297,0.00700000000142609
11,30,313.101300817693,0.00899999999819556
12,13,120.508327947377,0.0159999999996217
12,14,67.7884677503793,0.0149999999994179
12,15,15.6890656215413,0.022000000000844
12,16,1049.98653798006,0.0159999999996217
12,17,51.9163739098508,0.0190000000002328
12,18,28.6227856342391,0.0139999999992142
12,19,63.4303099985489,0.0180000000000291
12,20,268.202896630759,0.0349999999998545
12,21,898.644025431202,0.0240000000012515
12,22,219.097982451004,0.0119999999988067
12,23,15.8428727688106,0.0100000000020373
12,24,861.108209427141,0.0169999999998254
12,25,40.4218899653146,0.00999999999839929
12,26,16.5637406458443,0.0180000000000291
12,27,318.257813691992,0.011000000002241
12,28,244.973318415579,0.00999999999839929
12,29,385.155028320178,0.00999999999839929
12,30,975.249842926097,0.0160000000032596
13,14,369.80873684399,0.010999999998603
13,15,71.472378810029,0.010999999998603
13,16,10.0387086214734,0.011000000002241
13,17,52.6977644028461,0.0159999999996217
13,18,1594.93547660619,0.0180000000000291
13,19,350.824629732985,0.0190000000002328
13,20,35.9957183479401,0.0239999999976135
13,21,1219.45694119063,0.0169999999998254
13,22,44.7359265180275,0.0250000000014552
13,23,345.345713997921,0.0180000000000291
13,24,130.487127659194,0.032999999999447
13,25,226.369978471674,0.0169999999998254
13,26,258.883943450118,0.0339999999996508
13,27,18.0364713928445,0.0139999999992142
13,28,3.37971051896621,0.011000000002241
13,29,224.320105843131,0.0119999999988067
13,30,236.725359715139,0.0349999999998545
14,15,83.8013744487999,0.0139999999992142
14,16,1991.34656924892,0.0190000000002328
14,17,100.237942469365,0.0200000000004366
14,18,28.7542123686644,0.0120000000024447
14,19,117.184495589074,0.0130000000026484
14,20,253.801688066367,0.0210000000006403
14,21,3529.14306952485,0.0129999999990105
14,22,98.6958867351164,0.0119999999988067
14,23,129.558332081585,0.00600000000122236
14,24,866.193468834131,0.0129999999990105
14,25,725.906403182678,0.00900000000183354
14,26,726.914274170977,0.0149999999994179
14,27,44.9992393266691,0.00799999999799184
14,28,2013.29366303779,0.00900000000183354
14,29,1678.42860202158,0.00899999999819556
14,30,121.347874270882,0.0169999999998254
15,16,1571.99720967329,0.0169999999998254
15,17,17.7938575621429,0.0210000000006403
15,18,8.40601225920565,0.011000000002241
15,19,58.0231701911422,0.0139999999992142
15,20,7.23432718464079,0.0149999999994179
15,21,2060.25568176159,0.0200000000004366
15,22,1639.52578241133,0.0119999999988067
15,23,3387.15596590732,0.00800000000162981
15,24,3735.81983602165,0.0129999999990105
15,25,534.05010008512,0.00600000000122236
15,26,1490.19184330499,0.0149999999994179
15,27,1791.14936697968,0.00999999999839929
15,28,1493.25358186818,0.00700000000142609
15,29,1596.15171727991,0.0119999999988067
15,30,1300.30793921374,0.0139999999992142
16,17,2710.97027663232,0.0120000000024447
16,18,1226.95148655729,0.0119999999988067
16,19,49.0526435067315,0.0129999999990105
16,20,348.924363238697,0.0169999999998254
16,21,43.8244838615557,0.0159999999996217
16,22,136.116862668853,0.00800000000162981
16,23,131.649970267599,0.00799999999799184
16,24,589.492255995618,0.0140000000028522
16,25,0.0858279225298762,0.00599999999758438
16,26,252.911680587123,0.0120000000024447
16,27,211.584176066758,0.00899999999819556
16,28,71.3440406804951,0.00500000000101863
16,29,217.295533705466,0.00899999999819556
16,30,219.36124114511,0.0149999999994179
17,18,236.297573921988,0.0120000000024447
17,19,74.9577777189173,0.0149999999994179
17,20,107.103727347324,0.0190000000002328
17,21,1807.7430038472,0.0210000000006403
17,22,390.527264858858,0.0129999999990105
17,23,1389.83407214327,0.0139999999992142
17,24,1812.24471799651,0.0149999999994179
17,25,74.9630249721723,0.0100000000020373
17,26,613.574253407151,0.022000000000844
17,27,4.83199047212456,0.0129999999990105
17,28,9.97036301401966,0.00899999999819556
17,29,604.780261641513,0.011000000002241
17,30,587.640301200983,0.0139999999992142
18,19,799.756247454935,0.0169999999998254
18,20,3737.78195828081,0.0230000000010477
18,21,7525.76222439171,0.0149999999994179
18,22,833.115742305277,0.0210000000006403
18,23,1447.45303532941,0.0200000000004366
18,24,2978.55345415287,0.0209999999970023
18,25,421.868486641612,0.0180000000000291
18,26,2782.72973915759,0.0210000000006403
18,27,260.906283767929,0.0230000000010477
18,28,446.665247702332,0.022000000000844
18,29,329.815031316687,0.0169999999998254
18,30,3975.85368272855,0.0259999999980209
19,20,313.235746231455,0.022000000000844
19,21,1216.12123521911,0.0230000000010477
19,22,247.816614777221,0.021999999997206
19,23,28.7419975755708,0.011000000002241
19,24,1953.83201692867,0.0200000000004366
19,25,356.120116799987,0.0129999999990105
19,26,1014.50798024318,0.0210000000006403
19,27,1.53109111686199,0.0129999999990105
19,28,87.672772124279,0.0139999999992142
19,29,25.5209260350269,0.0169999999998254
19,30,185.865275776361,0.022000000000844
20,21,545.946820548487,0.0360000000000582
20,22,843.826227360307,0.0200000000004366
20,23,8.10853208917971,0.0169999999998254
20,24,50.7845064282669,0.0319999999992433
20,25,2838.85450053359,0.0159999999996217
20,26,37.4083926689697,0.0319999999992433
20,27,221.689151957364,0.0190000000002328
20,28,2073.33335701496,0.0120000000024447
20,29,318.325671886518,0.0159999999996217
20,30,20.3476744083317,0.022000000000844
21,22,130.216532655764,0.0199999999967986
21,23,13.500053084838,0.0140000000028522
21,24,882.720136916917,0.0229999999974098
21,25,6.17477230718141,0.011000000002241
21,26,1100.68569358848,0.0210000000006403
21,27,250.135360978949,0.0190000000002328
21,28,2521.21685309596,0.010999999998603
21,29,9.25925435493858,0.022000000000844
21,30,796.503670943515,0.0249999999978172
22,23,37.0924935592884,0.0210000000006403
22,24,1166.90328995895,0.0450000000018917
22,25,504.733495385535,0.0190000000002328
22,26,37.78802275763,0.0339999999996508
22,27,33.583691724982,0.0309999999990396
22,28,125.205298860381,0.0210000000006403
22,29,21.7951364450367,0.0249999999978172
22,30,115.0279063218,0.0360000000000582
23,24,25.1753029726585,0.0210000000006403
23,25,1937.50339512526,0.0309999999990396
23,26,14.0607650698517,0.0190000000002328
23,27,886.227147508443,0.0390000000006694
23,28,510.316824264271,0.0240000000012515
23,29,772.504154631683,0.0319999999992433
23,30,418.823115482151,0.0180000000000291
24,25,2081.05112203831,0.0200000000004366
24,26,1309.05383815457,0.0389999999970314
24,27,245.406300563433,0.022000000000844
24,28,1103.84525814222,0.0149999999994179
24,29,488.672194577786,0.0230000000010477
24,30,940.418798710823,0.0309999999990396
25,26,4190.49996735515,0.0159999999996217
25,27,159.193367885473,0.0340000000032887
25,28,83.986539983985,0.0249999999978172
25,29,131.99823982438,0.0380000000004657
25,30,2213.97215846682,0.0180000000000291
26,27,5.28555671204903,0.0200000000004366
26,28,3754.60400340581,0.0139999999992142
26,29,2474.50644097667,0.0149999999994179
26,30,871.321754820454,0.0370000000002619
27,28,289.898360917686,0.0210000000006403
27,29,43.7436144468502,0.0449999999982538
27,30,5.42576263399814,0.0180000000000291
28,29,48.1013551836117,0.0260000000016589
28,30,1615.04567797409,0.0159999999996217
29,30,251.450194805656,0.0169999999998254


"After.Trace.ID","Before.Trace.ID","Difference","Runtime"
1,1,1045.12161451339,0.0149999999994179
1,2,3.75570972355134,0.0159999999996217
1,3,4.1200429577433,0.0149999999994179
1,4,3327.57015078635,0.0169999999998254
1,5,2848.36665729953,0.00900000000183354
1,6,2526.65937845967,0.0139999999992142
1,7,906.934224734151,0.0149999999994179
1,8,658.194269309236,0.010999999998603
1,9,6444.72889292582,0.0140000000028522
1,10,1305.93956146345,0.0149999999994179
1,11,62.8445027586282,0.00699999999778811
1,12,5.52292058271895,0.0100000000020373
1,13,310.19516306721,0.00799999999799184
1,14,415.730992814102,0.00700000000142609
1,15,147.714772613175,0.00800000000162981
1,16,256.840929483668,0.00699999999778811
1,17,6.32366158482915,0.0100000000020373
1,18,500.38945678475,0.0149999999994179
1,19,91.5469555481072,0.0119999999988067
1,20,218.365984053239,0.0129999999990105
1,21,2144.16118221386,0.0149999999994179
1,22,712.577698714829,0.0169999999998254
1,23,1812.68810546884,0.022000000000844
1,24,2768.11479254372,0.0190000000002328
1,25,133.824829046015,0.0210000000006403
1,26,2.96921611139082,0.0119999999988067
1,27,16.4454243805045,0.0200000000004366
1,28,430.153061109627,0.0339999999996508
1,29,5.97821799592831,0.0230000000010477
1,30,1632.92455461732,0.0169999999998254
2,1,8.93121254407743,0.0149999999994179
2,2,32.9269746396557,0.0139999999992142
2,3,21.0748508466512,0.0130000000026484
2,4,3751.38391969895,0.0119999999988067
2,5,4165.15493793915,0.00700000000142609
2,6,3941.48794812045,0.0169999999998254
2,7,231.465203519469,0.010999999998603
2,8,1805.90996870913,0.00900000000183354
2,9,2810.74255118955,0.010999999998603
2,10,1424.70118191513,0.0149999999994179
2,11,1297.6730938654,0.00900000000183354
2,12,77.8265998301415,0.0119999999988067
2,13,9.27846200687462,0.00799999999799184
2,14,670.690893658495,0.00800000000162981
2,15,8.02167441630929,0.00700000000142609
2,16,84.2134866630898,0.00599999999758438
2,17,153.044290927591,0.00600000000122236
2,18,888.813996972779,0.0169999999998254
2,19,83.2982467218735,0.010999999998603
2,20,3472.22921051635,0.0150000000030559
2,21,4337.3122569988,0.0129999999990105
2,22,820.600855364648,0.0200000000004366
2,23,3680.10071664822,0.0239999999976135
2,24,584.259675890125,0.0159999999996217
2,25,12.5195155861268,0.0260000000016589
2,26,2244.82500927703,0.0129999999990105
2,27,1012.6563238228,0.0190000000002328
2,28,150.520866482966,0.0250000000014552
2,29,12.294368049743,0.0180000000000291
2,30,478.545783996169,0.0139999999992142
3,1,372.26474394464,0.0180000000000291
3,2,772.654094838828,0.022000000000844
3,3,209.482457785643,0.0180000000000291
3,4,3207.32099937838,0.0210000000006403
3,5,751.403738596827,0.00900000000183354
3,6,1420.2645806745,0.0180000000000291
3,7,10.6981796224879,0.0230000000010477
3,8,53.7194901966672,0.0119999999988067
3,9,2465.2999388462,0.0169999999998254
3,10,419.429359400371,0.0169999999998254
3,11,2085.22576419895,0.010999999998603
3,12,32.9025255551771,0.011000000002241
3,13,18.2060729045918,0.0119999999988067
3,14,114.272176571456,0.0119999999988067
3,15,2026.11971061603,0.011000000002241
3,16,293.548016510027,0.00999999999839929
3,17,2192.28100810177,0.0139999999992142
3,18,2032.96912033201,0.0230000000010477
3,19,565.263408126665,0.0200000000004366
3,20,7.28572075963639,0.0210000000006403
3,21,326.28245972933,0.0180000000000291
3,22,367.466769714825,0.0289999999986321
3,23,1773.31312933518,0.0260000000016589
3,24,29.4920076425761,0.0239999999976135
3,25,155.772275398266,0.0290000000022701
3,26,2511.1464685421,0.0200000000004366
3,27,562.593643347033,0.0390000000006694
3,28,31.6415790888211,0.0180000000000291
3,29,151.355521971534,0.0269999999982247
3,30,309.407026060583,0.0260000000016589
4,1,410.126819764176,0.0249999999978172
4,2,156.237624796057,0.0240000000012515
4,3,326.332079134163,0.0279999999984284
4,4,1810.8180031718,0.0230000000010477
4,5,308.731219494767,0.00999999999839929
4,6,130.21250737988,0.0270000000018626
4,7,224.526134604055,0.0319999999992433
4,8,672.428633248408,0.0180000000000291
4,9,326.174011716742,0.0280000000020664
4,10,104.739532079855,0.0269999999982247
4,11,186.394065124686,0.010999999998603
4,12,1196.80898433525,0.0140000000028522
4,13,138.139863051496,0.0289999999986321
4,14,718.341640154708,0.0129999999990105
4,15,972.385384368379,0.0139999999992142
4,16,241.503505173837,0.0140000000028522
4,17,36.667681989659,0.0159999999996217
4,18,2472.89371031035,0.0210000000006403
4,19,5.11228750370441,0.0199999999967986
4,20,51.3798238884414,0.0230000000010477
4,21,91.9274511731299,0.0250000000014552
4,22,171.768307745672,0.0299999999988358
4,23,777.321595814089,0.0119999999988067
4,24,882.353014489231,0.0310000000026776
4,25,43.494664511395,0.0139999999992142
4,26,48.2113300552056,0.0279999999984284
4,27,66.6332763765345,0.0210000000006403
4,28,2.32395009898818,0.0119999999988067
4,29,3.89634805478571,0.0169999999998254
4,30,44.6660069924932,0.0370000000002619
5,1,446.068538582092,0.0250000000014552
5,2,306.96177775899,0.0210000000006403
5,3,1109.78950031164,0.0200000000004366
5,4,1626.93493151637,0.0289999999986321
5,5,1790.03423404207,0.0119999999988067
5,6,2676.24139463598,0.022000000000844
5,7,180.59678838772,0.0299999999988358
5,8,382.563654058356,0.0200000000004366
5,9,2782.6560427862,0.0210000000006403
5,10,9.87748078008326,0.0210000000006403
5,11,53.99146668114,0.00999999999839929
5,12,92.4899002062526,0.0130000000026484
5,13,26.6550686661045,0.0200000000004366
5,14,137.875458460339,0.0129999999990105
5,15,7.81471485163331,0.0200000000004366
5,16,23.9121274821355,0.0159999999996217
5,17,505.970702851439,0.0159999999996217
5,18,747.689940127129,0.0279999999984284
5,19,102.23189400402,0.0140000000028522
5,20,1345.31349900204,0.0209999999970023
5,21,120.47310465344,0.0190000000002328
5,22,558.126224161413,0.0190000000002328
5,23,2079.26222619562,0.0250000000014552
5,24,806.350306545432,0.022000000000844
5,25,4.89474329707128,0.0209999999970023
5,26,1043.43011091461,0.0210000000006403
5,27,11.3233800749512,0.0420000000012806
5,28,2.8112933723995,0.0129999999990105
5,29,13.9942632674874,0.0200000000004366
5,30,384.311724321315,0.0180000000000291
6,1,276.111033366023,0.0230000000010477
6,2,32.4976512491416,0.0239999999976135
6,3,172.546067945465,0.0230000000010477
6,4,2883.62899318096,0.0270000000018626
6,5,889.690443194097,0.00899999999819556
6,6,852.666653305589,0.0139999999992142
6,7,67.4234733219442,0.0210000000006403
6,8,5.51080703995196,0.0120000000024447
6,9,3190.65922750801,0.0169999999998254
6,10,552.340183373756,0.0169999999998254
6,11,2730.00155409072,0.0139999999992142
6,12,34.2011186591444,0.0149999999994179
6,13,599.600101952045,0.0119999999988067
6,14,6.1921596057543,0.00900000000183354
6,15,1537.80583581266,0.0119999999988067
6,16,828.739690357755,0.0119999999988067
6,17,42.4919761613609,0.0120000000024447
6,18,374.78920671161,0.022000000000844
6,19,285.677491075461,0.0149999999994179
6,20,140.435807696852,0.0139999999992142
6,21,1940.79427400521,0.0230000000010477
6,22,871.674055124015,0.0269999999982247
6,23,2186.53868322956,0.0139999999992142
6,24,1234.40458524562,0.0240000000012515
6,25,1737.47755844825,0.0159999999996217
6,26,2427.55528672323,0.0240000000012515
6,27,410.104058675692,0.0190000000002328
6,28,785.548334709851,0.0200000000004366
6,29,1250.6778323961,0.021999999997206
6,30,32.4729534792526,0.022000000000844
7,1,1006.77326348529,0.0159999999996217
7,2,568.910312588211,0.0270000000018626
7,3,201.013275893541,0.0289999999986321
7,4,3662.82941909162,0.0240000000012515
7,5,1825.1019262074,0.010999999998603
7,6,55.9762438477068,0.0210000000006403
7,7,186.454665924091,0.0169999999998254
7,8,314.549837541772,0.0129999999990105
7,9,2588.65984494699,0.0169999999998254
7,10,1166.64259837108,0.0190000000002328
7,11,1256.30779709324,0.00900000000183354
7,12,71.0024801430032,0.0149999999994179
7,13,205.994811426888,0.0119999999988067
7,14,2.87232456703308,0.011000000002241
7,15,148.076148481142,0.0129999999990105
7,16,323.855489126903,0.00799999999799184
7,17,355.946576372202,0.0140000000028522
7,18,554.309428856253,0.021999999997206
7,19,6.65248516389473,0.0169999999998254
7,20,2097.04260405708,0.022000000000844
7,21,2489.18149050754,0.0210000000006403
7,22,1425.01246567221,0.0180000000000291
7,23,2086.0431528487,0.0119999999988067
7,24,2185.72041536139,0.0180000000000291
7,25,261.602858222754,0.0159999999996217
7,26,2171.87207243392,0.0200000000004366
7,27,82.0499015129368,0.0149999999994179
7,28,25.0080810287334,0.0180000000000291
7,29,2665.94732877141,0.0250000000014552
7,30,169.303404740431,0.022000000000844
8,1,177.28221499504,0.0299999999988358
8,2,134.572525219722,0.0169999999998254
8,3,56.5632158110692,0.022000000000844
8,4,4476.99191344333,0.0180000000000291
8,5,582.946389018895,0.00999999999839929
8,6,1627.35519448943,0.0169999999998254
8,7,2.22283368822924,0.0140000000028522
8,8,80.902300328182,0.010999999998603
8,9,2541.4994439359,0.0159999999996217
8,10,13.300685764645,0.0190000000002328
8,11,33.7011921976837,0.0119999999988067
8,12,3.35728122022776,0.0120000000024447
8,13,20.6850949353439,0.0119999999988067
8,14,2829.71335043854,0.00700000000142609
8,15,713.406618288409,0.00899999999819556
8,16,595.650577056594,0.0100000000020373
8,17,111.484348036068,0.00999999999839929
8,18,271.432029261411,0.0159999999996217
8,19,6.89152953792786,0.0149999999994179
8,20,12.3183988695662,0.011000000002241
8,21,5.2770581759136,0.0180000000000291
8,22,246.222569813202,0.0249999999978172
8,23,2668.19383961325,0.0190000000002328
8,24,980.522742300653,0.0230000000010477
8,25,1011.59066686131,0.0190000000002328
8,26,1871.88150344627,0.0239999999976135
8,27,639.471558729242,0.022000000000844
8,28,1501.23540948652,0.0250000000014552
8,29,659.526006226098,0.0309999999990396
8,30,29.0773017979042,0.0190000000002328
9,1,510.704479345689,0.0149999999994179
9,2,72.0344863448441,0.022000000000844
9,3,246.351982215419,0.022000000000844
9,4,8415.39919769471,0.021999999997206
9,5,4159.34388623595,0.00600000000122236
9,6,5287.97061133737,0.0129999999990105
9,7,5.17663358565543,0.0120000000024447
9,8,3538.44733858867,0.00799999999799184
9,9,4624.85200506315,0.0100000000020373
9,10,910.898814522237,0.0129999999990105
9,11,870.490204958869,0.010999999998603
9,12,0.480945372311744,0.0129999999990105
9,13,385.864382088178,0.0100000000020373
9,14,433.69062836831,0.00999999999839929
9,15,1.66796945053648,0.011000000002241
9,16,4.46062911419189,0.00899999999819556
9,17,125.908156444124,0.0149999999994179
9,18,45.3026705241525,0.022000000000844
9,19,802.329937730718,0.011000000002241
9,20,2356.57514353255,0.0169999999998254
9,21,2074.05752659276,0.0129999999990105
9,22,1441.6912163141,0.0149999999994179
9,23,2900.56953077461,0.0119999999988067
9,24,4038.00994619181,0.0150000000030559
9,25,2241.386108431,0.0139999999992142
9,26,4683.34912580136,0.0180000000000291
9,27,1141.98261801404,0.0159999999996217
9,28,18.3961608985502,0.0180000000000291
9,29,1525.81308514167,0.0180000000000291
9,30,3.1327011634153,0.0149999999994179
10,1,1191.44351400592,0.0230000000010477
10,2,687.706515089211,0.0229999999974098
10,3,196.207692944444,0.0270000000018626
10,4,2163.40321518078,0.0259999999980209
10,5,2837.09456447868,0.0100000000020373
10,6,3377.49358545184,0.0259999999980209
10,7,1355.3832103809,0.0230000000010477
10,8,118.987075567424,0.0129999999990105
10,9,3656.94952354067,0.0200000000004366
10,10,13.4302846068879,0.0240000000012515
10,11,4.23807906381797,0.0119999999988067
10,12,66.4079164486778,0.0200000000004366
10,13,37.4587638055978,0.0159999999996217
10,14,27.6229278222871,0.011000000002241
10,15,2.62825453915342,0.010999999998603
10,16,5.29134481047112,0.0139999999992142
10,17,95.2045336100719,0.0139999999992142
10,18,1137.81818829854,0.0250000000014552
10,19,39.182258643778,0.0210000000006403
10,20,342.693783370013,0.0239999999976135
10,21,2028.22306204749,0.0280000000020664
10,22,242.633129603374,0.0239999999976135
10,23,112.749401820075,0.0160000000032596
10,24,1133.91270658011,0.0229999999974098
10,25,221.755330785307,0.0159999999996217
10,26,1695.03219676593,0.0270000000018626
10,27,37.682591149677,0.0190000000002328
10,28,45.553360640244,0.0149999999994179
10,29,5.86464598733847,0.0190000000002328
10,30,737.856291733724,0.0230000000010477
11,1,595.005246856193,0.0159999999996217
11,2,378.359408764649,0.0190000000002328
11,3,77.4597149365506,0.021999999997206
11,4,4314.95266394031,0.0290000000022701
11,5,788.456721833813,0.00599999999758438
11,6,2526.56475766058,0.0190000000002328
11,7,416.857708901101,0.0120000000024447
11,8,1922.8013496055,0.0119999999988067
11,9,4171.34684451747,0.010999999998603
11,10,1043.75091798925,0.0140000000028522
11,11,4.38206398542996,0.00799999999799184
11,12,74.1772185079286,0.011000000002241
11,13,2344.65992237391,0.0119999999988067
11,14,1101.76013701142,0.0119999999988067
11,15,1.29533081682988,0.010999999998603
11,16,10.6514863948723,0.00900000000183354
11,17,1937.78059307296,0.010999999998603
11,18,821.111709279922,0.0190000000002328
11,19,884.523026279194,0.011000000002241
11,20,2256.6270686422,0.0119999999988067
11,21,3368.16047998723,0.0149999999994179
11,22,1253.15998631072,0.0159999999996217
11,23,7098.21315896172,0.0129999999990105
11,24,4407.07181560043,0.0160000000032596
11,25,1545.65520825422,0.0140000000028522
11,26,1250.26639528284,0.0190000000002328
11,27,782.264337565336,0.0149999999994179
11,28,2543.54104143629,0.00899999999819556
11,29,3892.34009975505,0.0169999999998254
11,30,1588.01656550741,0.0200000000004366
12,1,1054.38669227967,0.022000000000844
12,2,82.583535384624,0.0180000000000291
12,3,89.1823624502756,0.0200000000004366
12,4,2586.47702788449,0.0169999999998254
12,5,3369.48887854141,0.00699999999778811
12,6,1418.36098860451,0.0180000000000291
12,7,219.459274791899,0.0169999999998254
12,8,2417.13589826528,0.011000000002241
12,9,2527.15327087099,0.0200000000004366
12,10,53.0604405434462,0.0149999999994179
12,11,780.831002124018,0.00899999999819556
12,12,218.515204551248,0.0190000000002328
12,13,640.038358708808,0.011000000002241
12,14,1734.66116761087,0.0119999999988067
12,15,7.14689636676253,0.00900000000183354
12,16,42.3382546885996,0.00999999999839929
12,17,6.47589834690732,0.0139999999992142
12,18,393.101156776488,0.0230000000010477
12,19,4.08924404579925,0.00999999999839929
12,20,42.6195102792173,0.0149999999994179
12,21,508.296329685353,0.0170000000034634
12,22,733.470388865468,0.0159999999996217
12,23,2430.38442917381,0.0139999999992142
12,24,1055.89138032005,0.0210000000006403
12,25,1667.0149522684,0.010999999998603
12,26,2781.40821936253,0.0149999999994179
12,27,1586.11975434161,0.0139999999992142
12,28,1731.39324929536,0.0140000000028522
12,29,1668.72477843244,0.0169999999998254
12,30,59.2231829171509,0.0180000000000291
13,1,969.163485828795,0.0149999999994179
13,2,755.917078003843,0.0180000000000291
13,3,347.265122152371,0.0190000000002328
13,4,2348.55403275509,0.010999999998603
13,5,90.7164569932406,0.0100000000020373
13,6,367.113359326189,0.0169999999998254
13,7,332.627358880941,0.0149999999994179
13,8,2059.90182948053,0.0119999999988067
13,9,1114.5605461835,0.0180000000000291
13,10,121.939474973972,0.0200000000004366
13,11,0.14055202506869,0.00800000000162981
13,12,418.665579409747,0.0129999999990105
13,13,725.267807266683,0.0129999999990105
13,14,31.2595855185376,0.0129999999990105
13,15,39.664480188158,0.011000000002241
13,16,81.7894635236026,0.0139999999992142
13,17,336.816242311248,0.0129999999990105
13,18,20.0736261193119,0.0120000000024447
13,19,86.7838671899694,0.0149999999994179
13,20,150.292017877921,0.0159999999996217
13,21,287.238065803218,0.0149999999994179
13,22,1427.18736731037,0.0149999999994179
13,23,3481.01985551253,0.011000000002241
13,24,1475.64081030164,0.0159999999996217
13,25,2239.72666850586,0.0139999999992142
13,26,1043.15754471831,0.0159999999996217
13,27,1696.01477701253,0.010999999998603
13,28,3523.61222404451,0.0130000000026484
13,29,2542.79804445397,0.0119999999988067
13,30,409.614947001315,0.0159999999996217
14,1,1.61963082986292,0.0119999999988067
14,2,1.45985562374631,0.0130000000026484
14,3,2056.62886926539,0.010999999998603
14,4,5687.15864669916,0.0159999999996217
14,5,2190.48443369091,0.011000000002241
14,6,785.519577040896,0.010999999998603
14,7,1499.63338915671,0.0129999999990105
14,8,197.542465937893,0.0159999999996217
14,9,1875.99562307161,0.0169999999998254
14,10,3226.21927052191,0.0149999999994179
14,11,47.1538873193337,0.0140000000028522
14,12,0.948681290373406,0.00999999999839929
14,13,2.91622144372676,0.0100000000020373
14,14,1550.76038434069,0.0129999999990105
14,15,14.2815146366149,0.010999999998603
14,16,589.65287671832,0.0120000000024447
14,17,3.20243471204123,0.0119999999988067
14,18,12.8043675319693,0.0119999999988067
14,19,922.273195222027,0.0130000000026484
14,20,2344.28579782899,0.0129999999990105
14,21,2706.4222839204,0.0159999999996217
14,22,2292.98754998496,0.010999999998603
14,23,282.401940119136,0.00900000000183354
14,24,5138.51011250708,0.0129999999990105
14,25,973.872405588787,0.00800000000162981
14,26,4300.64447535327,0.010999999998603
14,27,5.2420338043743,0.00999999999839929
14,28,786.703619279841,0.0100000000020373
14,29,2130.12873578557,0.00799999999799184
14,30,3597.62565715739,0.0169999999998254
15,1,7.10487228476697,0.022000000000844
15,2,59.2361983109706,0.0260000000016589
15,3,2.52359635486197,0.0210000000006403
15,4,5918.3263483005,0.0229999999974098
15,5,2802.41510070299,0.00900000000183354
15,6,0.981228108716006,0.0149999999994179
15,7,27.121469669761,0.0200000000004366
15,8,817.528037737505,0.0129999999990105
15,9,4264.65501896061,0.0139999999992142
15,10,1591.48076521117,0.0200000000004366
15,11,22.6201819551366,0.011000000002241
15,12,32.0380970524466,0.0139999999992142
15,13,12.4559540232287,0.0169999999998254
15,14,187.760726135725,0.00999999999839929
15,15,601.165316830675,0.0120000000024447
15,16,1741.93824527261,0.0119999999988067
15,17,9.99044868989026,0.0139999999992142
15,18,8.37976079494401,0.0190000000002328
15,19,2338.67161976129,0.0149999999994179
15,20,5124.24121571346,0.0169999999998254
15,21,4.06894313704317,0.0159999999996217
15,22,684.34846294283,0.0380000000004657
15,23,2447.25421360116,0.0200000000004366
15,24,2629.01962617587,0.0339999999996508
15,25,418.850484297706,0.0200000000004366
15,26,4427.26111948611,0.0200000000004366
15,27,46.4378342100321,0.0250000000014552
15,28,232.936158691146,0.0269999999982247
15,29,1211.88450930947,0.0250000000014552
15,30,1666.48310048517,0.0209999999970023
16,1,36.6397856550338,0.0240000000012515
16,2,187.992375817104,0.0260000000016589
16,3,278.12386039182,0.0259999999980209
16,4,2398.21236808995,0.0250000000014552
16,5,2282.32908875056,0.010999999998603
16,6,1675.40082595016,0.0299999999988358
16,7,115.223918452138,0.0250000000014552
16,8,805.650159704543,0.0250000000014552
16,9,3675.18760360436,0.021999999997206
16,10,1500.01534588666,0.0410000000010768
16,11,841.606724600312,0.0119999999988067
16,12,104.312958850419,0.0250000000014552
16,13,113.006765056694,0.0260000000016589
16,14,102.144554624131,0.0139999999992142
16,15,766.400660574212,0.0149999999994179
16,16,172.142133655859,0.0129999999990105
16,17,211.412729299365,0.0210000000006403
16,18,1889.92749923823,0.0230000000010477
16,19,12.5403095639568,0.0190000000002328
16,20,2187.43859891165,0.0279999999984284
16,21,35.2245798200815,0.0210000000006403
16,22,127.497543728829,0.0259999999980209
16,23,67.9676672981726,0.0170000000034634
16,24,2020.13635173282,0.0249999999978172
16,25,10.4844242571674,0.0139999999992142
16,26,1583.17470315419,0.0300000000024738
16,27,245.151212431163,0.0180000000000291
16,28,12.9672799806081,0.0139999999992142
16,29,20.7821788899791,0.0180000000000291
16,30,619.437787498612,0.0319999999992433
17,1,2133.11271303021,0.022000000000844
17,2,1873.16521526113,0.0249999999978172
17,3,450.853342838007,0.0300000000024738
17,4,4409.24702495277,0.0319999999992433
17,5,7712.4519578098,0.0149999999994179
17,6,5767.5021237314,0.022000000000844
17,7,914.008789328487,0.0230000000010477
17,8,2178.75604356867,0.0199999999967986
17,9,2225.23075231154,0.0180000000000291
17,10,4244.99342225494,0.0210000000006403
17,11,1124.96436256458,0.00800000000162981
17,12,356.831106963471,0.0159999999996217
17,13,831.068683823752,0.0159999999996217
17,14,3.85709769235318,0.00999999999839929
17,15,1.55948217304862,0.0150000000030559
17,16,2040.14106122753,0.0119999999988067
17,17,10.3946238039836,0.0119999999988067
17,18,22.0258845242004,0.0180000000000291
17,19,581.30789243084,0.0129999999990105
17,20,5683.50300642562,0.0200000000004366
17,21,4664.19617035245,0.0190000000002328
17,22,1646.26890737157,0.0210000000006403
17,23,1336.11468229625,0.0149999999994179
17,24,4355.7578560968,0.0210000000006403
17,25,1.3518169211347,0.0139999999992142
17,26,5470.54646858749,0.0230000000010477
17,27,344.800517629588,0.0169999999998254
17,28,843.336551203873,0.0149999999994179
17,29,589.520642402809,0.0169999999998254
17,30,2718.76945762962,0.0260000000016589
18,1,96.4848984332775,0.0249999999978172
18,2,746.254730989612,0.022000000000844
18,3,316.771197966224,0.0250000000014552
18,4,3177.54704746617,0.0239999999976135
18,5,1736.47269322919,0.0130000000026484
18,6,9.545770169892,0.021999999997206
18,7,480.604358384426,0.0210000000006403
18,8,42.7997176708208,0.0159999999996217
18,9,36.2370208581351,0.022000000000844
18,10,880.342361338771,0.0240000000012515
18,11,250.013639354051,0.00899999999819556
18,12,194.715259834345,0.0169999999998254
18,13,289.459546946562,0.0200000000004366
18,14,5.27724156715707,0.00800000000162981
18,15,783.005289401919,0.0129999999990105
18,16,9.18078941854044,0.0180000000000291
18,17,857.859979548216,0.0149999999994179
18,18,1246.8755385309,0.0180000000000291
18,19,14.9207537561239,0.0149999999994179
18,20,981.453141834701,0.0240000000012515
18,21,23.980755202409,0.0200000000004366
18,22,648.962106618198,0.0230000000010477
18,23,32.3192334433355,0.0159999999996217
18,24,1965.01781441976,0.021999999997206
18,25,5.85657058411059,0.0150000000030559
18,26,3002.92121388219,0.0309999999990396
18,27,647.625394232176,0.0169999999998254
18,28,299.857253028388,0.0180000000000291
18,29,1194.76976029566,0.0149999999994179
18,30,1386.65040917553,0.0319999999992433
19,1,3.27863678311542,0.0180000000000291
19,2,49.6654090748292,0.0190000000002328
19,3,4.39268904606466,0.0159999999996217
19,4,674.781316045261,0.0169999999998254
19,5,2291.67130805104,0.0130000000026484
19,6,1181.85212590693,0.0229999999974098
19,7,13.392239456683,0.0200000000004366
19,8,526.513498153512,0.0200000000004366
19,9,1120.11029044877,0.0250000000014552
19,10,192.154760147474,0.0249999999978172
19,11,536.605734698874,0.011000000002241
19,12,904.97390342722,0.0190000000002328
19,13,1935.66966115975,0.0180000000000291
19,14,1133.91721401505,0.0180000000000291
19,15,768.580138343803,0.0239999999976135
19,16,75.0141694795575,0.0180000000000291
19,17,2.10603496928769,0.0130000000026484
19,18,4013.42384522768,0.0149999999994179
19,19,227.152107409945,0.021999999997206
19,20,1054.9980549712,0.0260000000016589
19,21,1084.49604350212,0.0250000000014552
19,22,199.525625917189,0.0199999999967986
19,23,828.864551482692,0.0130000000026484
19,24,1117.84931082897,0.0180000000000291
19,25,1045.41576510742,0.0149999999994179
19,26,944.645216697968,0.0180000000000291
19,27,150.878923969537,0.0149999999994179
19,28,22.8035101179191,0.0159999999996217
19,29,249.872099190928,0.0169999999998254
19,30,625.404015132213,0.0250000000014552
20,1,258.241493949682,0.0190000000002328
20,2,126.404685474248,0.0200000000004366
20,3,387.027999019431,0.0259999999980209
20,4,1443.85194357234,0.022000000000844
20,5,4341.91892871735,0.0169999999998254
20,6,957.938678473024,0.0299999999988358
20,7,125.164821328433,0.0190000000002328
20,8,296.937540897956,0.0240000000012515
20,9,151.230316737881,0.0229999999974098
20,10,769.652183174482,0.0290000000022701
20,11,89.9184069544775,0.0129999999990105
20,12,177.242173628562,0.0200000000004366
20,13,28.5336492782688,0.0180000000000291
20,14,108.190872435821,0.0159999999996217
20,15,96.8596828416067,0.0139999999992142
20,16,32.6822319446792,0.0169999999998254
20,17,18.0655419963632,0.0140000000028522
20,18,1510.90930703717,0.0129999999990105
20,19,80.3805620192029,0.0319999999992433
20,20,418.235973260976,0.0299999999988358
20,21,1106.89730851207,0.0190000000002328
20,22,36.2368396430432,0.0190000000002328
20,23,121.651840047303,0.0149999999994179
20,24,619.840316660397,0.0270000000018626
20,25,373.691274896021,0.0149999999994179
20,26,345.73256413123,0.022000000000844
20,27,40.5968532794592,0.0180000000000291
20,28,148.792864696851,0.00999999999839929
20,29,123.470365706,0.0180000000000291
20,30,9.61751914115709,0.0250000000014552
21,1,780.677988723409,0.0190000000002328
21,2,45.0587161776806,0.0200000000004366
21,3,95.3727636124771,0.0279999999984284
21,4,2005.35771644306,0.0210000000006403
21,5,0.493842533609085,0.0119999999988067
21,6,3472.50452409952,0.0270000000018626
21,7,668.825392427715,0.0239999999976135
21,8,1525.31819852091,0.0190000000002328
21,9,3523.21147275976,0.0240000000012515
21,10,47.4807065205196,0.0249999999978172
21,11,197.535405407737,0.011000000002241
21,12,80.2793106090069,0.0159999999996217
21,13,179.880872439888,0.0210000000006403
21,14,5.60701735845666,0.0119999999988067
21,15,751.14005671837,0.0139999999992142
21,16,19.1699645669401,0.0130000000026484
21,17,342.129668777349,0.0139999999992142
21,18,1599.54485896871,0.0190000000002328
21,19,556.302503115443,0.0259999999980209
21,20,1917.34212273475,0.0230000000010477
21,21,2295.25168197258,0.0200000000004366
21,22,682.321082852677,0.0230000000010477
21,23,1176.31504632029,0.0119999999988067
21,24,2097.57903397919,0.0240000000012515
21,25,0.529149384154759,0.0149999999994179
21,26,2354.35842219021,0.0229999999974098
21,27,217.975268460233,0.0160000000032596
21,28,432.504800856214,0.0209999999970023
21,29,11.0387879919989,0.0200000000004366
21,30,151.05737748446,0.0270000000018626
22,1,22.7363612025456,0.0319999999992433
22,2,27.6600000863156,0.0240000000012515
22,3,286.923844302764,0.0209999999970023
22,4,3422.44789661441,0.0250000000014552
22,5,1458.21420008619,0.0119999999988067
22,6,3339.58380290855,0.0190000000002328
22,7,8.97231181979278,0.0230000000010477
22,8,510.206791128959,0.0139999999992142
22,9,6497.2614030563,0.0169999999998254
22,10,350.681741004823,0.0200000000004366
22,11,453.666909548088,0.011000000002241
22,12,77.2779510896832,0.0129999999990105
22,13,672.009878237427,0.0159999999996217
22,14,1.16142456752294,0.00899999999819556
22,15,1743.58653050562,0.0130000000026484
22,16,104.640055535582,0.010999999998603
22,17,228.974400933467,0.0129999999990105
22,18,1000.62604557144,0.0230000000010477
22,19,27.72023336797,0.0240000000012515
22,20,670.820114343903,0.0190000000002328
22,21,60.3340175137201,0.0159999999996217
22,22,266.378134460644,0.0299999999988358
22,23,1234.14868627027,0.0430000000014843
22,24,2188.86521685216,0.0269999999982247
22,25,92.9902251945055,0.0260000000016589
22,26,3117.47863477464,0.0229999999974098
22,27,26.7683620094759,0.0370000000002619
22,28,295.254586675878,0.0210000000006403
22,29,30.3328301483104,0.0280000000020664
22,30,32.7820585061527,0.0239999999976135
23,1,159.229374011229,0.032999999999447
23,2,370.187358979673,0.0270000000018626
23,3,328.588545531079,0.0289999999986321
23,4,2722.01367916697,0.0280000000020664
23,5,7277.19997643726,0.00999999999839929
23,6,1871.59941740683,0.0270000000018626
23,7,536.113852666115,0.0260000000016589
23,8,2331.42753638641,0.0169999999998254
23,9,4739.01400608706,0.0210000000006403
23,10,53.0939399407479,0.0309999999990396
23,11,1041.23865618856,0.0119999999988067
23,12,69.9879496206654,0.0160000000032596
23,13,175.062442704867,0.0239999999976135
23,14,4.2545571729623,0.0139999999992142
23,15,224.880733803491,0.0120000000024447
23,16,155.850780666562,0.0119999999988067
23,17,173.828463568607,0.0139999999992142
23,18,1892.14084821547,0.0260000000016589
23,19,76.3063536926763,0.0249999999978172
23,20,3021.31291472217,0.0250000000014552
23,21,40.0978668855816,0.0250000000014552
23,22,155.821517498477,0.0429999999978463
23,23,612.443671025436,0.0210000000006403
23,24,1517.97675294122,0.0309999999990396
23,25,930.697569268091,0.0210000000006403
23,26,1371.08076717072,0.0319999999992433
23,27,24.6187620605839,0.0260000000016589
23,28,46.4827352060309,0.0149999999994179
23,29,23.5048860609864,0.0270000000018626
23,30,43.3443662149074,0.0379999999968277
24,1,81.4589790577874,0.0510000000031141
24,2,223.58693222289,0.0309999999990396
24,3,427.013067765127,0.0180000000000291
24,4,1549.31340752476,0.0360000000000582
24,5,4689.09688543115,0.0119999999988067
24,6,76.2581023347287,0.0210000000006403
24,7,620.736690529098,0.0279999999984284
24,8,2276.45330027815,0.0260000000016589
24,9,4835.46768570077,0.0240000000012515
24,10,95.5959897789922,0.0239999999976135
24,11,695.722785251025,0.00800000000162981
24,12,5.15578463935527,0.0139999999992142
24,13,158.916033620342,0.0269999999982247
24,14,64.232660953437,0.0120000000024447
24,15,16.4693536701767,0.010999999998603
24,16,9.1217776034033,0.0119999999988067
24,17,111.302875580683,0.0120000000024447
24,18,1528.3006813821,0.0269999999982247
24,19,202.088193511152,0.0169999999998254
24,20,13.7141721861631,0.0280000000020664
24,21,80.6329628827435,0.0169999999998254
24,22,186.174033412281,0.0509999999994761
24,23,19.0112636127016,0.022000000000844
24,24,269.056332061644,0.0619999999980791
24,25,189.908739636591,0.022000000000844
24,26,102.383671053943,0.032999999999447
24,27,95.9133480273724,0.0240000000012515
24,28,641.448696341586,0.0149999999994179
24,29,23.9462764416525,0.0190000000002328
24,30,400.252584219338,0.0269999999982247
25,1,371.767711498743,0.033000000003085
25,2,302.521347194242,0.0279999999984284
25,3,386.143659679964,0.0289999999986321
25,4,2071.68045352244,0.0320000000028813
25,5,637.390375603283,0.00899999999819556
25,6,1663.50841982556,0.0250000000014552
25,7,331.511503877679,0.0229999999974098
25,8,50.3860820808359,0.0180000000000291
25,9,2540.92524036889,0.0200000000004366
25,10,51.0567237354914,0.0300000000024738
25,11,71.7552601569107,0.00699999999778811
25,12,423.706294169285,0.0169999999998254
25,13,106.992553203013,0.0260000000016589
25,14,365.840001058158,0.00899999999819556
25,15,1471.42733801635,0.0129999999990105
25,16,9.68052014364034,0.0120000000024447
25,17,361.433380800381,0.0129999999990105
25,18,1784.33847574699,0.0210000000006403
25,19,147.607101015365,0.0210000000006403
25,20,1037.78986221022,0.0229999999974098
25,21,171.016390947777,0.0250000000014552
25,22,57.2711267195047,0.0390000000006694
25,23,511.362949274153,0.0180000000000291
25,24,1559.12045993755,0.0380000000004657
25,25,9.46570455293673,0.0180000000000291
25,26,23.8011738700569,0.0299999999988358
25,27,7.26950003121888,0.0200000000004366
25,28,651.541649158375,0.0159999999996217
25,29,31.575617857348,0.0200000000004366
25,30,127.347729670819,0.0360000000000582
26,1,623.540005658229,0.0269999999982247
26,2,214.365536051317,0.0310000000026776
26,3,743.64011550933,0.032999999999447
26,4,2380.4592637108,0.0370000000002619
26,5,2467.31477350702,0.010999999998603
26,6,658.24393260817,0.0250000000014552
26,7,254.253798157753,0.0269999999982247
26,8,127.05243917088,0.0169999999998254
26,9,2513.43566442822,0.0200000000004366
26,10,732.735175892471,0.0240000000012515
26,11,55.6217409101859,0.00999999999839929
26,12,238.124980355504,0.0180000000000291
26,13,8.03622437989447,0.0200000000004366
26,14,675.365888283231,0.010999999998603
26,15,1814.66404093321,0.0130000000026484
26,16,14.7974971956224,0.0119999999988067
26,17,520.793263626328,0.0149999999994179
26,18,42.5473028286272,0.022000000000844
26,19,4.65091617101996,0.0190000000002328
26,20,873.696188502258,0.0200000000004366
26,21,497.971050457992,0.0190000000002328
26,22,309.114509631835,0.0289999999986321
26,23,15.5988698876762,0.0190000000002328
26,24,1503.66859576663,0.0299999999988358
26,25,184.161097271889,0.0200000000004366
26,26,2030.11296185609,0.0240000000012515
26,27,4.7521066147709,0.0180000000000291
26,28,549.126446315095,0.0180000000000291
26,29,71.7326276088998,0.0210000000006403
26,30,214.381562120383,0.0339999999996508
27,1,94.2471549026289,0.0209999999970023
27,2,1573.19510117198,0.0200000000004366
27,3,21.3714697303221,0.0280000000020664
27,4,1392.07887172212,0.0269999999982247
27,5,1371.77391708274,0.0100000000020373
27,6,64.2832362152277,0.0299999999988358
27,7,510.822282276953,0.0240000000012515
27,8,313.09876034402,0.0190000000002328
27,9,1970.16999266722,0.0239999999976135
27,10,123.090748936603,0.0270000000018626
27,11,440.793094476174,0.00999999999839929
27,12,298.773930659961,0.0210000000006403
27,13,64.1490575022749,0.0200000000004366
27,14,573.301984699514,0.010999999998603
27,15,3392.45249927212,0.0210000000006403
27,16,3.10394810055112,0.0119999999988067
27,17,1414.96741156492,0.0230000000010477
27,18,2095.32040181878,0.0180000000000291
27,19,682.792226647425,0.0260000000016589
27,20,2273.76834339892,0.0269999999982247
27,21,14.0046682250157,0.032999999999447
27,22,118.447207532957,0.022000000000844
27,23,39.7436674519388,0.0169999999998254
27,24,1467.89437191905,0.0240000000012515
27,25,248.830742998331,0.0169999999998254
27,26,853.053463242889,0.0289999999986321
27,27,31.0026001014623,0.022000000000844
27,28,25.9759889013189,0.0180000000000291
27,29,42.3799117194644,0.0259999999980209
27,30,431.355866774542,0.0320000000028813
28,1,1176.19191196044,0.0180000000000291
28,2,870.061338245003,0.0169999999998254
28,3,194.233835810321,0.0169999999998254
28,4,308.347814291881,0.0200000000004366
28,5,730.676398147345,0.0149999999994179
28,6,291.342741131113,0.0289999999986321
28,7,7.7713336264911,0.0200000000004366
28,8,480.497318120491,0.0169999999998254
28,9,1022.26541543335,0.0299999999988358
28,10,345.330471403357,0.0270000000018626
28,11,140.676544006329,0.0139999999992142
28,12,1864.09307403355,0.0180000000000291
28,13,36.7430296283464,0.0169999999998254
28,14,50.4118846850533,0.0159999999996217
28,15,913.942133929583,0.0210000000006403
28,16,133.852873480986,0.0279999999984284
28,17,1636.99337113072,0.022000000000844
28,18,2387.30590189119,0.0149999999994179
28,19,42.4058397693383,0.0230000000010477
28,20,277.422976413035,0.022000000000844
28,21,81.2232380764321,0.0259999999980209
28,22,251.26277930638,0.0169999999998254
28,23,152.388718761244,0.0160000000032596
28,24,345.568292690875,0.0199999999967986
28,25,983.955735235466,0.0120000000024447
28,26,98.3076612427042,0.0200000000004366
28,27,144.314572736017,0.0199999999967986
28,28,163.638337577934,0.0130000000026484
28,29,31.4214700157743,0.0149999999994179
28,30,3.11206709706543,0.0200000000004366
29,1,943.870906541155,0.0319999999992433
29,2,826.909294521972,0.0279999999984284
29,3,624.37397395281,0.0270000000018626
29,4,1959.61747335581,0.0319999999992433
29,5,2017.17661783618,0.0129999999990105
29,6,18.3696058613661,0.0290000000022701
29,7,17.1005505888956,0.0370000000002619
29,8,50.5667153975611,0.0169999999998254
29,9,2650.78278961843,0.0209999999970023
29,10,29.370033638646,0.0300000000024738
29,11,104.639450097127,0.00999999999839929
29,12,708.741793656459,0.0120000000024447
29,13,55.4021884111657,0.0229999999974098
29,14,456.843660966781,0.0100000000020373
29,15,1668.65998093551,0.0139999999992142
29,16,9.3480792362257,0.0129999999990105
29,17,5.87966248942918,0.0129999999990105
29,18,1392.11323927957,0.0240000000012515
29,19,310.070310486319,0.0159999999996217
29,20,22.6916538077018,0.022000000000844
29,21,2933.83845890953,0.022000000000844
29,22,434.925864426617,0.0279999999984284
29,23,104.000189033944,0.0260000000016589
29,24,1226.79546757927,0.0269999999982247
29,25,2.65064112440973,0.0159999999996217
29,26,1684.65047931736,0.0360000000000582
29,27,17.8516284826153,0.0250000000014552
29,28,1157.38028344286,0.0139999999992142
29,29,29.3212362976717,0.0210000000006403
29,30,622.524337786432,0.0309999999990396
30,1,351.981417116897,0.032999999999447
30,2,516.701633069665,0.022000000000844
30,3,766.141167852036,0.0230000000010477
30,4,1500.78517303782,0.0249999999978172
30,5,337.528099166999,0.011000000002241
30,6,504.700777612247,0.0200000000004366
30,7,449.899829348269,0.0210000000006403
30,8,242.860704682388,0.0169999999998254
30,9,2047.05336696335,0.0199999999967986
30,10,30.7527883472158,0.0230000000010477
30,11,165.18291380385,0.011000000002241
30,12,867.817101799392,0.0149999999994179
30,13,52.7662945434403,0.0169999999998254
30,14,966.144392845394,0.00799999999799184
30,15,2542.6326880783,0.0149999999994179
30,16,881.436878517129,0.0160000000032596
30,17,1303.46852841853,0.0149999999994179
30,18,252.828730801793,0.0180000000000291
30,19,72.9473628872661,0.0190000000002328
30,20,26.8115750509739,0.0190000000002328
30,21,740.930080752926,0.0200000000004366
30,22,797.300782977747,0.0280000000020664
30,23,612.313113087292,0.0229999999974098
30,24,708.976969428933,0.0310000000026776
30,25,1131.77654549352,0.0180000000000291
30,26,41.095734147339,0.0229999999974098
30,27,1114.60830916048,0.022000000000844
30,28,179.68794903404,0.0169999999998254
30,29,634.609811121705,0.0200000000004366
30,30,199.416625809591,0.0250000000014552
