App - ConnectBot
Scenario - connect_ssh
Level - 0sec
Measure - TWED
Test Statistic - Mann-Whitney U Test
Effect Size Measure - Simple Difference:Kerby
Alpha Level - 0.05


"Before.Version","After.Version","Diff","Direction","P.Value","Simple.Diff","Within.Diffs.Mean","Within.Diffs.SD","Between.Diffs.Mean","Between.Diffs.SD","Runtime"
"1.8.3_b","1.8.6_b",FALSE,NA,1,-0.155,55065.039,1492.495,55143.657,688.979,104.549
"1.8.6_b","1.8.6_f_m",FALSE,NA,1,-0.848,55004.066,594.714,54296.21,273.914,104.368
"1.8.6_f_m","1.9.0a2_f",FALSE,NA,0,0.185,52342.813,2066.791,52995.284,1076.842,104.194
