App - Shortyz
Scenario - download_puzzles
Level - 1sec
Measure - MinJumpCost
Test Statistic - Mann-Whitney U Test
Effect Size Measure - Simple Difference:Kerby
Alpha Level - 0.05


"Before.Version","After.Version","Diff","Direction","P.Value","Simple.Diff","Within.Diffs.Mean","Within.Diffs.SD","Between.Diffs.Mean","Between.Diffs.SD","Runtime"
"4.0.0_b","4.0.2_b_m",FALSE,NA,0.052,0.055,10146.773,20949.965,10533.949,19678.462,41.459
"4.0.2_b_m","4.0.5_b_m",FALSE,NA,0.145,0.036,8960.294,18201.58,10172.278,22820.514,46.906
"4.0.5_b_m","4.0.7_f",FALSE,NA,0,0.284,6677.02,13413.592,12260.161,19018.929,43.355
