"Before.Trace.ID1","Before.Trace.ID2","Difference","Runtime"
1,2,1.1182295913737,0.0149999999994179
1,3,83478.067450729,0.0149999999994179
1,4,237593.133986361,0.036999999996624
1,5,110075.534343436,0.021999999997206
1,6,2256253.19934664,0.00600000000849832
1,7,492901.145721437,0.00400000000081491
1,8,10415.3623130054,0.0119999999878928
1,9,19026.4311211014,0.0420000000012806
1,10,8964.4130290239,0.0130000000062864
1,11,7914.96357659547,0.00999999999476131
1,12,10332.3288668181,0.00900000000547152
1,13,9679.93685053574,0.0089999999909196
1,14,9.22089839645892,0.0120000000024447
1,15,1567.9855887101,0.0170000000071013
1,16,1023.43926197662,0.0119999999878928
1,17,131834.869284907,0.00800000000162981
1,18,239573.990569593,0.00999999999476131
1,19,458.665074399469,0.0139999999955762
1,20,2040.54770816213,0.0149999999994179
1,21,22556.5230975085,0.033000000010361
1,22,776.653289653147,0.0140000000101281
1,23,1307687.49840279,0.0049999999901047
1,24,71954.3710866528,0.0179999999963911
1,25,581055.956758944,0.0110000000131549
1,26,17023.233043222,0.0190000000002328
1,27,58231.404469271,0.010999999998603
1,28,92317.5486965083,0.0139999999955762
1,29,111101.798779083,0.0120000000024447
1,30,238616.896832472,0.0149999999994179
2,3,162018.243549972,0.0230000000010477
2,4,479368.522922407,0.0100000000093132
2,5,161663.679339447,0.0160000000032596
2,6,19462.1063398193,0.0059999999939464
2,7,158907.174374568,0.00500000000465661
2,8,12882.9959165862,0.0159999999887077
2,9,2345.96818143047,0.0190000000002328
2,10,4646.60509742008,0.0190000000002328
2,11,12613.8814584788,0.0220000000117579
2,12,12162.3011810151,0.0230000000010477
2,13,3612.5859811687,0.0149999999994179
2,14,1686.38494350655,0.0230000000010477
2,15,9892.9624837545,0.0209999999933643
2,16,11282.6572280244,0.0230000000010477
2,17,69543.0882180003,0.0230000000010477
2,18,370720.977437951,0.0230000000010477
2,19,2814.37639093334,0.0289999999949941
2,20,9112.88506637202,0.0280000000057044
2,21,1043.36093635781,0.0120000000024447
2,22,7976.47528273244,0.0249999999941792
2,23,613129.183641372,0.00400000000081491
2,24,147837.053209748,0.0149999999994179
2,25,642263.47827567,0.0159999999887077
2,26,37969.4526591424,0.0120000000024447
2,27,31371.0439657418,0.00900000000547152
2,28,4334.84625762418,0.0190000000002328
2,29,91300.6066608755,0.00999999999476131
2,30,425326.797252383,0.0139999999955762
3,4,47051.4591987994,0.0140000000101281
3,5,348.145033888462,0.0149999999994179
3,6,45934.5740472735,0.00400000000081491
3,7,927945.798400678,0.0059999999939464
3,8,153413.543491241,0.0270000000018626
3,9,153329.780172121,0.0149999999994179
3,10,134385.493248599,0.0280000000057044
3,11,180672.735263014,0.0289999999949941
3,12,306174.933022867,0.047999999995227
3,13,208825.407330331,0.0320000000065193
3,14,235851.759675912,0.0570000000006985
3,15,157926.054045985,0.0579999999899883
3,16,166547.767976528,0.0380000000004657
3,17,1645.94765797044,0.0100000000093132
3,18,11714.6713080988,0.0650000000023283
3,19,207066.681733008,0.0419999999867287
3,20,201487.372410429,0.0400000000081491
3,21,85227.8382418666,0.0129999999917345
3,22,189901.147139911,0.0270000000018626
3,23,673308.28512658,0.00500000000465661
3,24,69694.502292443,0.0149999999994179
3,25,28.9966491954054,0.0139999999955762
3,26,56821.5745929855,0.0139999999955762
3,27,27599.8412747972,0.00900000000547152
3,28,56790.0596507038,0.010999999998603
3,29,39825.0895322559,0.00999999999476131
3,30,27195.7030633322,0.018000000010943
4,5,1961.22511478569,0.0160000000032596
4,6,1037701.65705588,0.010999999998603
4,7,6400574.469195,0.00699999999778811
4,8,1107147.3077821,0.0140000000101281
4,9,154402.662056495,0.0500000000029104
4,10,185181.475888863,0.00999999999476131
4,11,1315837.33523127,0.00999999999476131
4,12,679088.511543858,0.0140000000101281
4,13,484882.192522568,0.00800000000162981
4,14,244717.272021752,0.0119999999878928
4,15,387975.448771213,0.0120000000024447
4,16,224830.738892432,0.0100000000093132
4,17,34775.2957289922,0.0179999999963911
4,18,83.9930738356329,0.0160000000032596
4,19,353623.893203566,0.00999999999476131
4,20,197794.622078905,0.00999999999476131
4,21,375266.788655417,0.0570000000006985
4,22,244526.972732315,0.0100000000093132
4,23,15173222.7463808,0.0059999999939464
4,24,173477.767902301,0.0120000000024447
4,25,146950.331020214,0.0149999999994179
4,26,49206.6920681451,0.0399999999935972
4,27,162565.46646603,0.018000000010943
4,28,57247.7352741382,0.00800000000162981
4,29,128393.77927494,0.010999999998603
4,30,256628.918050105,0.018000000010943
5,6,198948.376591005,0.00999999999476131
5,7,526189.374131179,0.00500000000465661
5,8,215279.467419518,0.0119999999878928
5,9,223167.877758062,0.0170000000071013
5,10,111990.585508873,0.010999999998603
5,11,218214.127928456,0.0259999999980209
5,12,181589.506009643,0.0169999999925494
5,13,191763.575536132,0.0170000000071013
5,14,142191.868800676,0.0129999999917345
5,15,186889.417360165,0.0120000000024447
5,16,128548.222040692,0.0259999999980209
5,17,201284.140507101,0.0170000000071013
5,18,5472.78026920953,0.0120000000024447
5,19,145298.625878188,0.0159999999887077
5,20,153962.854575511,0.021999999997206
5,21,153573.832559709,0.0200000000040745
5,22,216282.571913643,0.0230000000010477
5,23,1671104.65591681,0.00400000000081491
5,24,96845.5841113001,0.010999999998603
5,25,39518.1866605374,0.010999999998603
5,26,104114.779040503,0.0170000000071013
5,27,62689.4426732391,0.0129999999917345
5,28,97127.6362320433,0.0149999999994179
5,29,118926.931361193,0.0120000000024447
5,30,24064.0302695549,0.021999999997206
6,7,364261.939073266,0.00500000000465661
6,8,56751.848778538,0.00400000000081491
6,9,1837556.0958577,0.010999999998603
6,10,6858159.60496042,0.00699999999778811
6,11,1068306.0817072,0.00500000000465661
6,12,27577.5073769117,0.00400000000081491
6,13,13686.8257788084,0.00699999999778811
6,14,80933.7572305465,0.00699999999778811
6,15,14336.8868144553,0.00500000000465661
6,16,37165.9747710834,0.00699999999778811
6,17,3996.73880154556,0.00400000000081491
6,18,1016778.13502517,0.0100000000093132
6,19,58913.002649406,0.0059999999939464
6,20,31176.9256303016,0.00699999999778811
6,21,3695828.13800296,0.00699999999778811
6,22,2999.02993475874,0.00600000000849832
6,23,62757.4683496974,0.00400000000081491
6,24,21290.3290869711,0.00700000001234002
6,25,2583698.65676943,0.00699999999778811
6,26,21669.3957409841,0.0049999999901047
6,27,16163.8192802363,0.00500000000465661
6,28,14742.1998270908,0.0059999999939464
6,29,2702662.9507385,0.00500000000465661
6,30,460901.441198255,0.00500000000465661
7,8,50487.0242322427,0.0059999999939464
7,9,574780.752785664,0.00500000000465661
7,10,2542767.37263442,0.00699999999778811
7,11,465405.2327617,0.0059999999939464
7,12,146708.513498177,0.00400000000081491
7,13,137417.403297544,0.00500000000465661
7,14,815817.945312605,0.00500000000465661
7,15,74896.2198329419,0.0059999999939464
7,16,145002.617063026,0.00500000000465661
7,17,267824.547839081,0.0049999999901047
7,18,3001897.81573807,0.00600000000849832
7,19,712661.33096346,0.0059999999939464
7,20,155267.013999119,0.00600000000849832
7,21,479566.501162575,0.0049999999901047
7,22,284855.144675088,0.0059999999939464
7,23,107057.343123503,0.00700000001234002
7,24,763959.398520631,0.0059999999939464
7,25,2719251.19271722,0.0059999999939464
7,26,152699.342997968,0.00600000000849832
7,27,197075.011910706,0.00400000000081491
7,28,157305.316830369,0.00400000000081491
7,29,758078.86949895,0.00500000000465661
7,30,1383373.93122322,0.0059999999939464
8,9,6730.15557563799,0.0160000000032596
8,10,12831.9594670195,0.0420000000012806
8,11,9020.99291784057,0.0179999999963911
8,12,5482.85382739822,0.0350000000034925
8,13,8509.02016725017,0.0170000000071013
8,14,5039.16890336771,0.0209999999933643
8,15,6493.76197605926,0.0270000000018626
8,16,12035.6936554838,0.0179999999963911
8,17,69278.7837822404,0.00600000000849832
8,18,298100.964470313,0.0319999999919673
8,19,23017.4087601655,0.0230000000010477
8,20,26629.896094512,0.0240000000048894
8,21,6082.43388758603,0.010999999998603
8,22,15266.1649156259,0.0249999999941792
8,23,519642.260095914,0.00300000001152512
8,24,46265.5222669353,0.010999999998603
8,25,852144.503892392,0.0169999999925494
8,26,14289.2032589941,0.00900000000547152
8,27,848.372308110567,0.0059999999939464
8,28,6055.53526195243,0.00800000000162981
8,29,74083.1922852309,0.0160000000032596
8,30,403590.691267543,0.0199999999895226
9,10,11585.8870988685,0.0130000000062864
9,11,6037.87079029287,0.0169999999925494
9,12,6707.35800755979,0.018000000010943
9,13,5176.76159142065,0.0129999999917345
9,14,2734.71953849044,0.010999999998603
9,15,4187.97169017554,0.0160000000032596
9,16,311.272237158729,0.0190000000002328
9,17,51579.9020938606,0.0139999999955762
9,18,321748.25963524,0.0130000000062864
9,19,2741.90205249721,0.0139999999955762
9,20,154.356749840408,0.0210000000079162
9,21,453.92738503355,0.0549999999930151
9,22,3686.06281399206,0.0179999999963911
9,23,679602.384450755,0.00699999999778811
9,24,96215.161588013,0.0100000000093132
9,25,684975.696607222,0.010999999998603
9,26,28370.7506603558,0.0289999999949941
9,27,21284.7150494697,0.0139999999955762
9,28,102434.392349865,0.0100000000093132
9,29,91852.9773688494,0.00999999999476131
9,30,486485.345085908,0.0139999999955762
10,11,2353.31574503118,0.0220000000117579
10,12,12612.5251408836,0.032999999995809
10,13,2498.35423255579,0.0160000000032596
10,14,17741.0646527187,0.0260000000125729
10,15,889.331009880421,0.0299999999988358
10,16,30394.7372674755,0.0309999999881256
10,17,14552.9824442918,0.0100000000093132
10,18,145384.739765543,0.0239999999903375
10,19,2440.24943028848,0.0170000000071013
10,20,19902.2159601421,0.0320000000065193
10,21,81.7183224233447,0.00999999999476131
10,22,3481.3615504566,0.0190000000002328
10,23,10180007.1938436,0.00500000000465661
10,24,13726.9862564375,0.0129999999917345
10,25,524895.381081044,0.0120000000024447
10,26,5352.10354480666,0.0120000000024447
10,27,4257.81547820689,0.0059999999939464
10,28,3272.787283855,0.0140000000101281
10,29,3072.45259220875,0.0089999999909196
10,30,375009.111474453,0.0179999999963911
11,12,15802.0102493404,0.0200000000040745
11,13,1024.51686267438,0.0489999999990687
11,14,1087.36093114696,0.0359999999927823
11,15,13768.1474353159,0.0220000000117579
11,16,6966.19383823319,0.0600000000122236
11,17,35762.0475710692,0.00699999999778811
11,18,628221.030180864,0.0410000000119908
11,19,361.343998299579,0.0339999999996508
11,20,13515.4499033275,0.0529999999998836
11,21,5281.08182240924,0.010999999998603
11,22,4778.50292236846,0.0469999999913853
11,23,3065455.05366022,0.00600000000849832
11,24,57310.2723319011,0.0129999999917345
11,25,729251.126069105,0.0140000000101281
11,26,7704.19679785643,0.0079999999870779
11,27,10679.8614910352,0.00800000000162981
11,28,14589.1854452861,0.00900000000547152
11,29,51273.6406707125,0.0160000000032596
11,30,2060424.61633722,0.0209999999933643
12,13,39033.5213305402,0.021999999997206
12,14,24541.5067647132,0.0339999999996508
12,15,7097.64881277195,0.0580000000045402
12,16,9448.07860615752,0.0230000000010477
12,17,51726.0442627635,0.00900000000547152
12,18,419016.96254538,0.0429999999905704
12,19,22831.9599153625,0.0380000000004657
12,20,10232.9228975589,0.0299999999988358
12,21,520.051424220989,0.010999999998603
12,22,15908.0700420193,0.0250000000087311
12,23,543706.221685457,0.0059999999939464
12,24,33515.1871257539,0.010999999998603
12,25,644880.079355325,0.010999999998603
12,26,13280.4989375029,0.00900000000547152
12,27,7800.43326728961,0.0059999999939464
12,28,8742.43571224493,0.00699999999778811
12,29,35391.615776937,0.0130000000062864
12,30,1342947.40371566,0.0139999999955762
13,14,13857.3409393567,0.0359999999927823
13,15,38455.9498241048,0.0230000000010477
13,16,394.962057339408,0.0610000000015134
13,17,75433.8976347817,0.00699999999778811
13,18,443966.954294771,0.0380000000004657
13,19,17969.3330218717,0.0360000000073342
13,20,4480.61931623953,0.0430000000051223
13,21,2911.50872308045,0.0079999999870779
13,22,582.242266689005,0.033000000010361
13,23,540577.00693737,0.0029999999969732
13,24,33621.3282628316,0.0130000000062864
13,25,647331.464877653,0.0139999999955762
13,26,17298.789359412,0.0129999999917345
13,27,1982.19265484014,0.00800000000162981
13,28,6177.38217176407,0.0100000000093132
13,29,34757.9362905157,0.0119999999878928
13,30,443308.26185954,0.0170000000071013
14,15,28194.0084628564,0.0430000000051223
14,16,121.030239291371,0.036999999996624
14,17,59447.8014051304,0.00699999999778811
14,18,239072.972745965,0.0540000000037253
14,19,7577.09954832663,0.0579999999899883
14,20,3655.86306024565,0.0420000000012806
14,21,359.956619973223,0.010999999998603
14,22,1084.21525783672,0.0280000000057044
14,23,4529655.11585307,0.00500000000465661
14,24,12454.343330646,0.0139999999955762
14,25,623366.781065253,0.010999999998603
14,26,22730.966079851,0.00900000000547152
14,27,8896.53875187348,0.00999999999476131
14,28,10108.0273860857,0.00900000000547152
14,29,25760.4420792136,0.0129999999917345
14,30,476591.240674576,0.0170000000071013
15,16,9263.01820424367,0.0270000000018626
15,17,100459.980440228,0.00800000000162981
15,18,180707.124661356,0.0519999999960419
15,19,19958.9472679263,0.0399999999935972
15,20,12764.0390831119,0.0299999999988358
15,21,3402.81824352764,0.0100000000093132
15,22,15434.1448436547,0.0239999999903375
15,23,248987.526327842,0.00500000000465661
15,24,28835.9956130383,0.0120000000024447
15,25,729397.378686287,0.0120000000024447
15,26,16390.8186951167,0.0129999999917345
15,27,957.84286697713,0.00800000000162981
15,28,6062.73890110527,0.0100000000093132
15,29,29710.0420206283,0.0129999999917345
15,30,350920.65414884,0.0170000000071013
16,17,29521.4944838017,0.00800000000162981
16,18,183157.164768607,0.047999999995227
16,19,97.7824456852799,0.0339999999996508
16,20,12150.0566637506,0.0500000000029104
16,21,4105.10561529011,0.00999999999476131
16,22,10404.1274411294,0.0449999999982538
16,23,516827.74041017,0.0029999999969732
16,24,12053.4371147479,0.0160000000032596
16,25,646516.99195288,0.0120000000024447
16,26,4336.75781843703,0.010999999998603
16,27,2324.41126367137,0.00999999999476131
16,28,9629.32826330291,0.0100000000093132
16,29,30255.6372969259,0.0169999999925494
16,30,434586.524376108,0.0160000000032596
17,18,352458.654457517,0.0120000000024447
17,19,59174.8537607576,0.00999999999476131
17,20,53884.6730889235,0.00900000000547152
17,21,47128.5189813736,0.0160000000032596
17,22,53134.048854924,0.00999999999476131
17,23,542674.545039332,0.00400000000081491
17,24,36002.0825510717,0.010999999998603
17,25,257920.081517229,0.0130000000062864
17,26,38119.7054817165,0.0129999999917345
17,27,19859.5421512829,0.0210000000079162
17,28,4325.11950469983,0.00900000000547152
17,29,9454.66716352482,0.010999999998603
17,30,464353.634451002,0.0130000000062864
18,19,226634.81214403,0.0410000000119908
18,20,184901.685311513,0.0389999999897555
18,21,304286.815056262,0.0100000000093132
18,22,212109.276738504,0.0259999999980209
18,23,5506460.35222471,0.0059999999939464
18,24,118328.600240667,0.0130000000062864
18,25,7541.87630074158,0.0129999999917345
18,26,37795.432500729,0.010999999998603
18,27,233262.999823174,0.00800000000162981
18,28,52179.3353026655,0.0100000000093132
18,29,91842.9124304443,0.0110000000131549
18,30,47652.8000702787,0.0139999999955762
19,20,941.069193496773,0.0540000000037253
19,21,926.875277660866,0.0089999999909196
19,22,975.595155526134,0.032999999995809
19,23,2076567.80485369,0.00600000000849832
19,24,15503.4317904044,0.0119999999878928
19,25,92763.6177117707,0.0120000000024447
19,26,23945.3896322604,0.00900000000547152
19,27,4687.08765786557,0.00800000000162981
19,28,6574.91124404311,0.0089999999909196
19,29,27222.825910281,0.0130000000062864
19,30,451829.268207046,0.0179999999963911
20,21,2926.40231313208,0.010999999998603
20,22,6024.15707068745,0.047999999995227
20,23,252886.067146354,0.00400000000081491
20,24,26880.1507712571,0.0149999999994179
20,25,640064.032351638,0.0120000000024447
20,26,12639.3972344578,0.00800000000162981
20,27,140.64526546242,0.00800000000162981
20,28,1740.46929984285,0.00900000000547152
20,29,24123.5767141083,0.0149999999994179
20,30,391934.098595016,0.0179999999963911
21,22,1370.77372799677,0.010999999998603
21,23,2358197.5778279,0.00699999999778811
21,24,55922.5939617038,0.0170000000071013
21,25,526502.185353014,0.0139999999955762
21,26,23025.4129211703,0.0430000000051223
21,27,21340.5129087355,0.0139999999955762
21,28,66310.3809333826,0.00999999999476131
21,29,66892.475390252,0.0130000000062864
21,30,296133.613731954,0.0129999999917345
22,23,488502.36972972,0.00400000000081491
22,24,19971.8549116451,0.0280000000057044
22,25,569358.479231605,0.0190000000002328
22,26,17754.1443407194,0.00999999999476131
22,27,6605.08619062623,0.00900000000547152
22,28,16116.6579888703,0.010999999998603
22,29,30955.8924399333,0.0179999999963911
22,30,468603.865317162,0.033000000010361
23,24,778727.529100448,0.0049999999901047
23,25,2512891.79712984,0.00400000000081491
23,26,326569.100978203,0.00500000000465661
23,27,352048.505262553,0.00400000000081491
23,28,982090.231871341,0.00500000000465661
23,29,1392646.85788692,0.00399999998626299
23,30,3732099.72943386,0.00600000000849832
24,25,327706.295530435,0.036999999996624
24,26,24647.2142733844,0.0160000000032596
24,27,5550.77647911452,0.010999999998603
24,28,107.638089724246,0.0170000000071013
24,29,13179.0607446115,0.0389999999897555
24,30,267365.936032223,0.0250000000087311
25,26,346002.597003717,0.0139999999955762
25,27,268394.152294096,0.0120000000024447
25,28,277243.170931268,0.0239999999903375
25,29,190833.926202382,0.0310000000026776
25,30,81739.8320501724,0.0320000000065193
26,27,2542.38966460353,0.0199999999895226
26,28,55477.2660653141,0.0149999999994179
26,29,61599.4263371905,0.0120000000024447
26,30,210624.423781849,0.0190000000002328
27,28,14884.4169614836,0.0200000000040745
27,29,13898.8057569953,0.0120000000024447
27,30,146300.620521085,0.010999999998603
28,29,10985.370950826,0.0190000000002328
28,30,342421.41962957,0.0149999999994179
29,30,145733.52349095,0.0249999999941792


"After.Trace.ID","Before.Trace.ID","Difference","Runtime"
1,1,38600.9187859856,0.010999999998603
1,2,91504.9158761368,0.0120000000024447
1,3,106595.269114827,0.0160000000032596
1,4,147805.971621612,0.010999999998603
1,5,132565.914074658,0.0120000000024447
1,6,7205.79254000887,0.0059999999939464
1,7,226087.300798869,0.00500000000465661
1,8,3504.67677169852,0.0149999999994179
1,9,40557.4455284547,0.0120000000024447
1,10,1782.2441204797,0.0229999999864958
1,11,1966.71135161141,0.0170000000071013
1,12,4210.41886335936,0.0139999999955762
1,13,789.215952727099,0.0149999999994179
1,14,2928.59935986822,0.0120000000024447
1,15,163.821929930009,0.0130000000062864
1,16,2291.64476265513,0.0160000000032596
1,17,233.069163070627,0.010999999998603
1,18,156107.572968051,0.0159999999887077
1,19,5669.46365728813,0.0140000000101281
1,20,287.600792262819,0.0179999999963911
1,21,21354.5000764418,0.0139999999955762
1,22,2641.22559980669,0.0249999999941792
1,23,341453.195398482,0.00400000000081491
1,24,5647.342728659,0.0400000000081491
1,25,434736.968588599,0.0259999999980209
1,26,15367.317852845,0.0139999999955762
1,27,1846.77508956099,0.00999999999476131
1,28,4173.59104310786,0.0130000000062864
1,29,1687.13382237394,0.0430000000051223
1,30,287424.344621694,0.0339999999996508
2,1,50683.2058508093,0.0169999999925494
2,2,126241.916327696,0.0190000000002328
2,3,69373.0852525834,0.0160000000032596
2,4,114438.322052029,0.00800000000162981
2,5,86348.6275078795,0.0120000000024447
2,6,733.970685252834,0.0049999999901047
2,7,728316.631613791,0.00600000000849832
2,8,88619.4584649794,0.0169999999925494
2,9,75211.9385232392,0.00900000000547152
2,10,3353.14398715252,0.0169999999925494
2,11,59905.7165778733,0.0230000000010477
2,12,36654.8966287932,0.0140000000101281
2,13,33223.6572623603,0.0149999999994179
2,14,10263.3827353871,0.0179999999963911
2,15,27252.4131539736,0.0160000000032596
2,16,16099.4008044886,0.0149999999994179
2,17,340.039436444787,0.00999999999476131
2,18,143099.294019335,0.0209999999933643
2,19,26713.8399947219,0.0139999999955762
2,20,45229.5568628862,0.0250000000087311
2,21,30720.4023715649,0.0209999999933643
2,22,26395.2958618838,0.0320000000065193
2,23,1398242.48050028,0.0059999999939464
2,24,7674.44162979927,0.033000000010361
2,25,203967.000789911,0.0279999999911524
2,26,11818.6445400941,0.0170000000071013
2,27,10482.0473543886,0.00999999999476131
2,28,2358.79595138039,0.0170000000071013
2,29,2321.25921361413,0.0339999999996508
2,30,266096.366018923,0.0469999999913853
3,1,101360.435628454,0.0190000000002328
3,2,3103.23545300758,0.0130000000062864
3,3,60466.5888950089,0.0120000000024447
3,4,413329.38254435,0.0190000000002328
3,5,55466.0595552021,0.0139999999955762
3,6,19673.2572349327,0.010999999998603
3,7,167157.065886371,0.00400000000081491
3,8,14000.9417209866,0.00800000000162981
3,9,49832.5727297217,0.0119999999878928
3,10,2346.94770847756,0.0100000000093132
3,11,18122.7902396091,0.0120000000024447
3,12,15505.3719873441,0.00999999999476131
3,13,12846.5421248668,0.00999999999476131
3,14,10246.5686120063,0.0100000000093132
3,15,11856.6651434334,0.0089999999909196
3,16,13960.4809898234,0.0100000000093132
3,17,301229.540192276,0.0149999999994179
3,18,51979.9353887341,0.010999999998603
3,19,16373.4472172757,0.00999999999476131
3,20,4492.90865483469,0.010999999998603
3,21,119002.870283573,0.0130000000062864
3,22,13400.3712635758,0.0089999999909196
3,23,821262.39115603,0.00500000000465661
3,24,29.4048568831518,0.0259999999980209
3,25,259676.26804472,0.032999999995809
3,26,117631.507378365,0.0140000000101281
3,27,240831.637192208,0.0209999999933643
3,28,32517.9135170356,0.0359999999927823
3,29,13330.1062320943,0.0280000000057044
3,30,581955.645408368,0.0200000000040745
4,1,30515.8814649097,0.0249999999941792
4,2,32945.8458554444,0.0160000000032596
4,3,87528.0585111448,0.0209999999933643
4,4,9606.13004195153,0.0120000000024447
4,5,157818.468137563,0.0280000000057044
4,6,1779.77379083025,0.0059999999939464
4,7,113972.911199041,0.0029999999969732
4,8,14155.9157494157,0.0140000000101281
4,9,142068.599479726,0.0130000000062864
4,10,62.7880697828278,0.0129999999917345
4,11,12.6783101846093,0.0260000000125729
4,12,5859.31651364697,0.0149999999994179
4,13,5690.68514739736,0.021999999997206
4,14,3152.49320647204,0.0179999999963911
4,15,40.7522199503017,0.0139999999955762
4,16,60.3233016617352,0.0280000000057044
4,17,81651.6785017594,0.0139999999955762
4,18,88176.3407047199,0.0160000000032596
4,19,5421.54978995277,0.0149999999994179
4,20,2925.98789877468,0.0249999999941792
4,21,2471.57140257116,0.0210000000079162
4,22,21103.1788207819,0.0429999999905704
4,23,737774.279101265,0.00400000000081491
4,24,67449.3002587882,0.018000000010943
4,25,547225.613832002,0.0149999999994179
4,26,278061.674370805,0.0169999999925494
4,27,24348.3771133895,0.00699999999778811
4,28,13779.9446885988,0.00900000000547152
4,29,80993.7459762418,0.0139999999955762
4,30,326609.260885848,0.0240000000048894
5,1,11335.0849133922,0.0139999999955762
5,2,14977.6021969449,0.021999999997206
5,3,149862.26002771,0.0460000000020955
5,4,389905.951930227,0.0120000000024447
5,5,194655.619647447,0.0190000000002328
5,6,40573.3015876282,0.00699999999778811
5,7,1123475.4596614,0.0059999999939464
5,8,10781.9098190078,0.018000000010943
5,9,8263.28823729361,0.0139999999955762
5,10,2416.45494011284,0.0279999999911524
5,11,20771.1138052778,0.0460000000020955
5,12,5839.03317673128,0.0339999999996508
5,13,8699.80391856467,0.0370000000111759
5,14,1232.63611740826,0.069999999992433
5,15,2624.78087310956,0.0320000000065193
5,16,12685.384159409,0.0529999999998836
5,17,60198.9824375603,0.00699999999778811
5,18,930500.583137802,0.0409999999974389
5,19,1809.70389150969,0.0430000000051223
5,20,21379.6197526559,0.0439999999944121
5,21,2334.24184769539,0.0179999999963911
5,22,18935.8219790524,0.0380000000004657
5,23,2161766.3371427,0.00600000000849832
5,24,28103.4073953696,0.0119999999878928
5,25,603539.94346409,0.0110000000131549
5,26,11572.9285682518,0.0119999999878928
5,27,2094.3663192366,0.00900000000547152
5,28,6954.64024719972,0.00900000000547152
5,29,29691.8888688973,0.0129999999917345
5,30,1747990.92838115,0.0200000000040745
6,1,35260.4889911448,0.0179999999963911
6,2,37278.2563429997,0.0299999999988358
6,3,180733.763026379,0.0149999999994179
6,4,608608.4055866,0.0170000000071013
6,5,157189.535812905,0.0230000000010477
6,6,1045836.99943569,0.00699999999778811
6,7,789615.024807247,0.00500000000465661
6,8,19116.3401098062,0.0149999999994179
6,9,140362.662603955,0.0210000000079162
6,10,28781.1404855322,0.0149999999994179
6,11,33197.2829163866,0.0380000000004657
6,12,37175.9695685827,0.0169999999925494
6,13,14893.5805585058,0.0259999999980209
6,14,9113.25654434356,0.0210000000079162
6,15,23014.5537205248,0.0159999999887077
6,16,20532.8633386203,0.0350000000034925
6,17,276641.601406469,0.0149999999994179
6,18,306911.39656547,0.0190000000002328
6,19,15849.3489596132,0.0270000000018626
6,20,10085.1724539009,0.0239999999903375
6,21,201880.49312461,0.0149999999994179
6,22,23084.0505170853,0.036999999996624
6,23,3120450.04607099,0.00800000000162981
6,24,165715.160505102,0.0130000000062864
6,25,650216.676798224,0.010999999998603
6,26,15162.7573681082,0.0120000000024447
6,27,95280.6392266751,0.0089999999909196
6,28,46.7688623785157,0.0130000000062864
6,29,96300.2121636897,0.0130000000062864
6,30,475344.875733196,0.0139999999955762
7,1,312.25850686556,0.0190000000002328
7,2,38421.9797054152,0.0270000000018626
7,3,128120.391508914,0.0429999999905704
7,4,175559.059245012,0.0140000000101281
7,5,75431.0107031717,0.0139999999955762
7,6,9712.76350561288,0.0059999999939464
7,7,490064.560499695,0.00500000000465661
7,8,38658.3364917206,0.0230000000010477
7,9,28738.7094272297,0.010999999998603
7,10,30428.1656248511,0.0339999999996508
7,11,22348.0675313142,0.0439999999944121
7,12,6705.26980303069,0.0350000000034925
7,13,15691.3793794246,0.0399999999935972
7,14,3216.30611493655,0.0480000000097789
7,15,5682.38848891777,0.0339999999996508
7,16,17253.3017446824,0.0439999999944121
7,17,456.294825230082,0.00800000000162981
7,18,111869.772924097,0.0390000000043074
7,19,9689.38914004096,0.0489999999990687
7,20,10412.2521235981,0.0629999999946449
7,21,988.219716007873,0.0179999999963911
7,22,44694.4258731341,0.0299999999988358
7,23,684979.429431385,0.00500000000465661
7,24,31.4766801223212,0.0129999999917345
7,25,434457.066656811,0.0120000000024447
7,26,25.7240677589956,0.00999999999476131
7,27,6589.58446892412,0.0100000000093132
7,28,4728.63640040682,0.010999999998603
7,29,1773.86247102864,0.0139999999955762
7,30,359913.816090071,0.0249999999941792
8,1,34697.5661282785,0.0170000000071013
8,2,125534.651875383,0.0230000000010477
8,3,37405.5271703157,0.0429999999905704
8,4,5851.14257509785,0.0200000000040745
8,5,2905.00426392288,0.0170000000071013
8,6,54047.4557140458,0.0120000000024447
8,7,569401.287631189,0.00400000000081491
8,8,108932.237132472,0.0259999999980209
8,9,131608.589665069,0.0130000000062864
8,10,120145.02636262,0.0249999999941792
8,11,709839.941845873,0.047999999995227
8,12,161599.971549556,0.0290000000095461
8,13,4527.0078216621,0.0519999999960419
8,14,182433.663920547,0.0449999999982538
8,15,717126.974759083,0.0299999999988358
8,16,125923.812238926,0.0420000000012806
8,17,2563.00247983737,0.010999999998603
8,18,2391.28206298429,0.0540000000037253
8,19,216048.403767749,0.0559999999968568
8,20,87239.1234868314,0.0760000000009313
8,21,52685.5882114661,0.0169999999925494
8,22,142650.22584945,0.0370000000111759
8,23,2108119.04028243,0.0049999999901047
8,24,33971.8551802397,0.018000000010943
8,25,30713.4031599729,0.0139999999955762
8,26,12.6607823251008,0.010999999998603
8,27,8175.18290273325,0.00999999999476131
8,28,28695.0487013714,0.010999999998603
8,29,15651.8388519506,0.0200000000040745
8,30,96497.9405515909,0.021999999997206
9,1,8575.74663182224,0.0160000000032596
9,2,26072.7744986128,0.0209999999933643
9,3,134867.644559506,0.021999999997206
9,4,491591.72549031,0.0120000000024447
9,5,249989.89657533,0.0299999999988358
9,6,2198181.96714867,0.00700000001234002
9,7,743595.314960641,0.0049999999901047
9,8,18666.4818092872,0.0299999999988358
9,9,11683.728976188,0.0149999999994179
9,10,12173.187884935,0.0280000000057044
9,11,2140.94630353964,0.0449999999982538
9,12,968.259402845317,0.0230000000010477
9,13,841.310460321925,0.0280000000057044
9,14,63.7329707586583,0.0250000000087311
9,15,538.401882286305,0.0230000000010477
9,16,999.242723032935,0.0420000000012806
9,17,58950.3010893268,0.010999999998603
9,18,407236.200982708,0.0230000000010477
9,19,80.639244644723,0.0269999999873107
9,20,88.7016056254594,0.0310000000026776
9,21,870.732170133212,0.0130000000062864
9,22,7918.45859008271,0.0539999999891734
9,23,986105.324201678,0.00600000000849832
9,24,44715.1893384249,0.0200000000040745
9,25,539627.329853171,0.0160000000032596
9,26,18633.1959783094,0.0130000000062864
9,27,2998.29532860857,0.0089999999909196
9,28,11003.828053747,0.010999999998603
9,29,27272.4805393687,0.0190000000002328
9,30,398860.108560891,0.0339999999996508
10,1,7151.08253009098,0.0140000000101281
10,2,39202.2964736852,0.0239999999903375
10,3,177014.2893098,0.0280000000057044
10,4,668287.100620257,0.0139999999955762
10,5,139492.312971838,0.0160000000032596
10,6,999.299404035631,0.0059999999939464
10,7,989948.022826428,0.00500000000465661
10,8,15348.6196759732,0.0280000000057044
10,9,2314.34218358332,0.0159999999887077
10,10,22367.6064976879,0.0360000000073342
10,11,10090.5093588536,0.0380000000004657
10,12,17568.2584553906,0.021999999997206
10,13,3562.21939904679,0.0350000000034925
10,14,609.586650512874,0.0270000000018626
10,15,15998.8796262146,0.0230000000010477
10,16,8820.04016459738,0.0409999999974389
10,17,48024.0705786077,0.0089999999909196
10,18,190162.776404742,0.0250000000087311
10,19,827.974922139499,0.0460000000020955
10,20,6089.63928543873,0.0629999999946449
10,21,663.20288552642,0.00900000000547152
10,22,13398.6843455836,0.0399999999935972
10,23,7659218.97164978,0.00600000000849832
10,24,145344.164842265,0.0139999999955762
10,25,722525.133074243,0.0120000000024447
10,26,19404.7887922971,0.010999999998603
10,27,132318.06090903,0.00800000000162981
10,28,23483.8299887552,0.0149999999994179
10,29,109353.361012417,0.0120000000024447
10,30,506191.064528185,0.0229999999864958
11,1,25.1969874191192,0.0149999999994179
11,2,34279.0543135319,0.0140000000101281
11,3,141355.255495548,0.021999999997206
11,4,221568.305330399,0.0120000000024447
11,5,223558.803369429,0.0169999999925494
11,6,647360.888923795,0.00800000000162981
11,7,67079.5887082423,0.00500000000465661
11,8,11692.1273493016,0.021999999997206
11,9,12530.1399656643,0.010999999998603
11,10,39580.8054548524,0.0310000000026776
11,11,4729.55966891886,0.0399999999935972
11,12,575.594183781627,0.0230000000010477
11,13,2885.0775833325,0.0270000000018626
11,14,60.4524680523219,0.0240000000048894
11,15,637.463441212865,0.0240000000048894
11,16,56.3604191715375,0.0339999999996508
11,17,25731.0213738897,0.0129999999917345
11,18,168462.753652456,0.0280000000057044
11,19,831.877430635806,0.0199999999895226
11,20,338.23849390723,0.0390000000043074
11,21,5827.35413903687,0.0120000000024447
11,22,34703.0128261855,0.0270000000018626
11,23,377722.261740658,0.00400000000081491
11,24,4336.1532685466,0.0139999999955762
11,25,774334.357111482,0.0179999999963911
11,26,23088.556781026,0.0120000000024447
11,27,10979.2314240702,0.010999999998603
11,28,11198.9692289765,0.00999999999476131
11,29,60626.5047168392,0.0160000000032596
11,30,403665.986684072,0.0360000000073342
12,1,10525.9724300275,0.0139999999955762
12,2,16160.7498821019,0.0179999999963911
12,3,181802.772714306,0.0270000000018626
12,4,919164.234384589,0.010999999998603
12,5,206698.081265734,0.0120000000024447
12,6,2486564.12242829,0.00699999999778811
12,7,44704.7221066766,0.00500000000465661
12,8,16594.4005217734,0.0160000000032596
12,9,5761.30143592352,0.0149999999994179
12,10,5928.34181535975,0.021999999997206
12,11,6592.51694003223,0.0549999999930151
12,12,15399.5921215079,0.0190000000002328
12,13,4016.99536833383,0.0420000000012806
12,14,2868.01886657147,0.0290000000095461
12,15,12713.7723570068,0.0249999999941792
12,16,10610.3216559854,0.0560000000114087
12,17,1775.15467528338,0.00800000000162981
12,18,477094.557558895,0.032999999995809
12,19,2613.75622554987,0.032999999995809
12,20,13612.6885206476,0.0470000000059372
12,21,302.697920509859,0.0089999999909196
12,22,6364.39112027338,0.0390000000043074
12,23,495800.655128989,0.00500000000465661
12,24,51068.0452850734,0.0169999999925494
12,25,785278.843336355,0.0139999999955762
12,26,4145.91124831031,0.00699999999778811
12,27,20162.0201077919,0.00900000000547152
12,28,5391.53890029043,0.00699999999778811
12,29,70585.3286478411,0.010999999998603
12,30,1906279.78697629,0.0239999999903375
13,1,237121.6276457,0.018000000010943
13,2,338026.694802194,0.0169999999925494
13,3,103917.822643551,0.0149999999994179
13,4,174.051041709198,0.0280000000057044
13,5,48814.8514470138,0.0179999999963911
13,6,159258.426551597,0.0059999999939464
13,7,3057997.28450566,0.00500000000465661
13,8,135183.779448185,0.0179999999963911
13,9,283179.520468984,0.032999999995809
13,10,133676.736537353,0.0130000000062864
13,11,671108.799411829,0.0169999999925494
13,12,353977.390403385,0.0140000000101281
13,13,406911.608096317,0.010999999998603
13,14,198911.783661191,0.0120000000024447
13,15,331872.56009489,0.0199999999895226
13,16,134679.03346281,0.0160000000032596
13,17,52861.8754569961,0.0280000000057044
13,18,17642.3488817407,0.0139999999955762
13,19,161855.804600165,0.0130000000062864
13,20,395841.158695946,0.0190000000002328
13,21,261136.550022214,0.0259999999980209
13,22,213391.544685746,0.0179999999963911
13,23,8410499.49270372,0.0059999999939464
13,24,170507.402238251,0.0150000000139698
13,25,203029.268798851,0.0119999999878928
13,26,97964.5339408192,0.0200000000040745
13,27,166601.459589731,0.0120000000024447
13,28,93489.918938633,0.0129999999917345
13,29,102332.261527164,0.0130000000062864
13,30,328870.123318741,0.0130000000062864
14,1,48584.8525857284,0.0210000000079162
14,2,110754.511736413,0.0169999999925494
14,3,2836.93895358513,0.0250000000087311
14,4,73523.8937854774,0.00999999999476131
14,5,14562.1455979027,0.0230000000010477
14,6,153137.309812963,0.00699999999778811
14,7,418343.354758216,0.00500000000465661
14,8,124606.520259209,0.0230000000010477
14,9,139114.119662152,0.0149999999994179
14,10,86031.8062104389,0.0169999999925494
14,11,147543.675473022,0.0230000000010477
14,12,129414.123397431,0.0200000000040745
14,13,125887.478698642,0.0240000000048894
14,14,124087.242477257,0.0179999999963911
14,15,115811.988505988,0.0190000000002328
14,16,94675.0476164524,0.0289999999949941
14,17,40612.3131136393,0.00800000000162981
14,18,1075.87728482164,0.0190000000002328
14,19,110911.86155441,0.0239999999903375
14,20,99232.0524785301,0.0230000000010477
14,21,68777.3075463292,0.010999999998603
14,22,208410.537335475,0.0280000000057044
14,23,1312319.59317334,0.00400000000081491
14,24,58481.3814669455,0.0210000000079162
14,25,46291.1359959895,0.0240000000048894
14,26,40626.8213730148,0.0139999999955762
14,27,10759.8241987963,0.00800000000162981
14,28,29103.1808487874,0.0100000000093132
14,29,20624.953093371,0.0159999999887077
14,30,116246.170146487,0.0220000000117579
15,1,2399.67089145311,0.0159999999887077
15,2,19920.7533535195,0.0280000000057044
15,3,126271.400241171,0.0489999999990687
15,4,253752.144178612,0.00999999999476131
15,5,149746.072278605,0.0110000000131549
15,6,1483.63895581398,0.00399999998626299
15,7,151492.310358768,0.00500000000465661
15,8,29514.2386616354,0.0339999999996508
15,9,12611.4548769485,0.0149999999994179
15,10,6985.5733265739,0.0249999999941792
15,11,24325.4093518614,0.0430000000051223
15,12,665.816377759656,0.0350000000034925
15,13,7140.94597201649,0.0399999999935972
15,14,1205.4381598884,0.0559999999968568
15,15,2829.68200426983,0.0360000000073342
15,16,14048.465845302,0.0529999999998836
15,17,23423.7535472479,0.00800000000162981
15,18,166268.376812441,0.0540000000037253
15,19,3672.46024540194,0.0459999999875436
15,20,7762.95261470128,0.0650000000023283
15,21,2227.05465519283,0.010999999998603
15,22,21013.7292245871,0.0280000000057044
15,23,253771.897951681,0.00400000000081491
15,24,8447.92812651072,0.0179999999963911
15,25,608557.764999723,0.0130000000062864
15,26,9191.89459631329,0.010999999998603
15,27,72.2029632888359,0.010999999998603
15,28,3677.97602821625,0.00999999999476131
15,29,25144.3954692505,0.0149999999994179
15,30,409514.783967928,0.0230000000010477
16,1,138261.562394999,0.0140000000101281
16,2,167253.21699347,0.0190000000002328
16,3,22093.0037416836,0.0559999999968568
16,4,31812.5436115091,0.0150000000139698
16,5,5395.66286632635,0.0229999999864958
16,6,4199.59769515719,0.00800000000162981
16,7,849184.322806343,0.00500000000465661
16,8,153712.969913875,0.0240000000048894
16,9,189687.657728347,0.0149999999994179
16,10,151596.835119165,0.033000000010361
16,11,176675.79691021,0.05899999999383
16,12,203474.50173361,0.0299999999988358
16,13,237444.364979849,0.0540000000037253
16,14,234097.085317404,0.0359999999927823
16,15,184051.843678461,0.0270000000018626
16,16,168695.500743987,0.077000000004773
16,17,68691.5043917852,0.010999999998603
16,18,360.219188383974,0.0469999999913853
16,19,196334.009658874,0.033000000010361
16,20,160070.251921645,0.0519999999960419
16,21,89794.9233718767,0.0130000000062864
16,22,186217.59876138,0.0429999999905704
16,23,2759395.3963131,0.0029999999969732
16,24,74034.8634931822,0.0160000000032596
16,25,843.334991297183,0.0160000000032596
16,26,64934.2195987206,0.0120000000024447
16,27,32896.0712969939,0.0079999999870779
16,28,58314.4176537804,0.0110000000131549
16,29,43302.9673873617,0.0179999999963911
16,30,68217.7866092222,0.021999999997206
17,1,159617.375110963,0.0120000000024447
17,2,116379.281431324,0.00999999999476131
17,3,4306.33886782726,0.0100000000093132
17,4,66063.0821938034,0.0149999999994179
17,5,1594.93142530722,0.0239999999903375
17,6,140458.239841187,0.00699999999778811
17,7,493296.244969017,0.00500000000465661
17,8,158054.974190131,0.00800000000162981
17,9,122558.179143291,0.0160000000032596
17,10,124424.434623567,0.00800000000162981
17,11,175010.480403959,0.0089999999909196
17,12,208659.459259792,0.00699999999778811
17,13,109023.799119231,0.00800000000162981
17,14,154259.367571236,0.00699999999778811
17,15,196159.107923537,0.00900000000547152
17,16,167139.317178178,0.00900000000547152
17,17,48113.2209749356,0.0239999999903375
17,18,2196.11938266224,0.00800000000162981
17,19,121473.850365441,0.00900000000547152
17,20,191781.057067462,0.00699999999778811
17,21,241493.290883591,0.0170000000071013
17,22,158186.792845842,0.0089999999909196
17,23,1258204.65684834,0.0029999999969732
17,24,34249.0298038135,0.00900000000547152
17,25,20253.5698183494,0.00999999999476131
17,26,103912.042350556,0.0140000000101281
17,27,136635.586152087,0.00999999999476131
17,28,35586.3317479675,0.0120000000024447
17,29,56604.1615294654,0.0089999999909196
17,30,19228.4943682298,0.0110000000131549
18,1,2281.02355329821,0.00999999999476131
18,2,3545.53577351461,0.0209999999933643
18,3,217733.442040484,0.0240000000048894
18,4,386715.342967095,0.010999999998603
18,5,132923.805511392,0.0149999999994179
18,6,1587.16711504172,0.00400000000081491
18,7,178513.041784366,0.00500000000465661
18,8,11915.9501430332,0.021999999997206
18,9,20.8586573751271,0.0149999999994179
18,10,8.10767323992136,0.0190000000002328
18,11,19853.7837817027,0.0449999999982538
18,12,35424.590220556,0.0179999999963911
18,13,3561.35807948044,0.0489999999990687
18,14,15678.1636495279,0.032999999995809
18,15,33961.2272968491,0.0200000000040745
18,16,23815.1741010822,0.0380000000004657
18,17,15810.3136487206,0.010999999998603
18,18,346972.353658762,0.0250000000087311
18,19,14503.6599400415,0.0319999999919673
18,20,14542.8431285333,0.0470000000059372
18,21,36.5431803794315,0.00999999999476131
18,22,5773.88547685062,0.044000000008964
18,23,292388.712706365,0.0029999999969732
18,24,6385.36023127442,0.0139999999955762
18,25,523384.580184872,0.0130000000062864
18,26,22456.1372300778,0.00999999999476131
18,27,21423.0084784212,0.0059999999939464
18,28,451.353471121211,0.0100000000093132
18,29,10498.6144035203,0.0129999999917345
18,30,323315.429244691,0.0220000000117579
19,1,5198.55987301508,0.0139999999955762
19,2,24706.5085125469,0.0169999999925494
19,3,106509.697140326,0.0380000000004657
19,4,241958.718535294,0.010999999998603
19,5,179979.076863245,0.018000000010943
19,6,162830.202856744,0.0059999999939464
19,7,155670.560258174,0.0049999999901047
19,8,43991.3897371864,0.0270000000018626
19,9,8286.08040837015,0.0170000000071013
19,10,6500.16106453722,0.0240000000048894
19,11,18338.2551301358,0.0469999999913853
19,12,3272.14320822248,0.032999999995809
19,13,5004.53868139724,0.0570000000006985
19,14,423.636310416692,0.0460000000020955
19,15,2197.23288823979,0.0290000000095461
19,16,6493.50667597758,0.0639999999984866
19,17,27878.2395421009,0.010999999998603
19,18,242774.278462013,0.0399999999935972
19,19,1211.36629205073,0.032999999995809
19,20,14397.2590658205,0.0410000000119908
19,21,41.3866855407775,0.0139999999955762
19,22,21073.629541739,0.0420000000012806
19,23,256975.001785782,0.00400000000081491
19,24,11914.813294062,0.0129999999917345
19,25,614622.269524543,0.010999999998603
19,26,7284.12390070576,0.0100000000093132
19,27,22287.3722849501,0.0089999999909196
19,28,5405.83617600246,0.00900000000547152
19,29,17953.0413314566,0.0120000000024447
19,30,518505.233647375,0.0200000000040745
20,1,6947.08956598957,0.0159999999887077
20,2,24113.1909802986,0.0250000000087311
20,3,141177.832037181,0.0409999999974389
20,4,486056.239011339,0.0120000000024447
20,5,214096.487987465,0.0169999999925494
20,6,1678.97885044982,0.00500000000465661
20,7,449953.036765105,0.0049999999901047
20,8,11402.575057485,0.0250000000087311
20,9,14570.0871249766,0.010999999998603
20,10,6665.98093628924,0.0289999999949941
20,11,16762.2370122968,0.0460000000020955
20,12,170.927242690476,0.036999999996624
20,13,8223.12878411656,0.0350000000034925
20,14,429.256680991719,0.0510000000067521
20,15,524.117266011697,0.0380000000004657
20,16,13952.5717783733,0.0399999999935972
20,17,24302.139671556,0.00800000000162981
20,18,391553.07912205,0.0399999999935972
20,19,1709.61023933599,0.0580000000045402
20,20,3724.54633670309,0.0629999999946449
20,21,2363.93291690076,0.0120000000024447
20,22,25265.6973429554,0.0290000000095461
20,23,2120941.84328253,0.00699999999778811
20,24,40415.5841897319,0.0129999999917345
20,25,644984.86665976,0.0120000000024447
20,26,2399.95540669635,0.0120000000024447
20,27,14924.8224012759,0.00900000000547152
20,28,10955.7167463378,0.00999999999476131
20,29,39064.6885789389,0.0120000000024447
20,30,411568.456807292,0.0200000000040745
21,1,13982.1747971792,0.010999999998603
21,2,17407.9873797112,0.021999999997206
21,3,131864.713747582,0.0610000000015134
21,4,1169876.57282953,0.0120000000024447
21,5,220462.057656733,0.0119999999878928
21,6,875907.233085529,0.00400000000081491
21,7,434534.351250571,0.00600000000849832
21,8,12572.8188727748,0.0409999999974389
21,9,13217.2489813082,0.0179999999963911
21,10,13872.2113772724,0.0390000000043074
21,11,20644.9928456262,0.0469999999913853
21,12,1957.98051439249,0.0470000000059372
21,13,17923.2497744258,0.0350000000034925
21,14,7475.0789583168,0.0429999999905704
21,15,3336.86680527231,0.0529999999998836
21,16,15363.4685752108,0.0420000000012806
21,17,33189.1709291879,0.00699999999778811
21,18,836668.985766149,0.0710000000108266
21,19,9440.06528649708,0.0339999999996508
21,20,14749.8158944097,0.0489999999990687
21,21,3140.56470330961,0.0119999999878928
21,22,16120.8532487428,0.0240000000048894
21,23,970680.604585465,0.00500000000465661
21,24,48275.8652221845,0.0129999999917345
21,25,807720.860835475,0.0149999999994179
21,26,12867.7851476835,0.00900000000547152
21,27,3171.88860666793,0.010999999998603
21,28,14718.2093685007,0.00800000000162981
21,29,43230.9542790738,0.0139999999955762
21,30,1921610.29978054,0.018000000010943
22,1,10426.500084241,0.0149999999994179
22,2,5770.67450509719,0.0159999999887077
22,3,268935.131061544,0.0200000000040745
22,4,161408.095305861,0.010999999998603
22,5,91006.7235962811,0.0149999999994179
22,6,1561.12400601761,0.00900000000547152
22,7,404835.711862728,0.00500000000465661
22,8,35341.6372445627,0.0169999999925494
22,9,19.1566410023556,0.0120000000024447
22,10,27569.2592781271,0.0240000000048894
22,11,20165.3605895713,0.0229999999864958
22,12,33691.5850138107,0.0200000000040745
22,13,4326.90343475183,0.0409999999974389
22,14,7888.49539521345,0.0200000000040745
22,15,31802.2219207191,0.0179999999963911
22,16,31581.6506264626,0.0240000000048894
22,17,147.415791920623,0.00800000000162981
22,18,231067.55824237,0.0149999999994179
22,19,13781.6898541083,0.0209999999933643
22,20,24210.4674619628,0.0200000000040745
22,21,6674.14045450302,0.00999999999476131
22,22,6666.61002823902,0.0500000000029104
22,23,3301081.94100848,0.00500000000465661
22,24,464.187461124301,0.0130000000062864
22,25,477034.597935866,0.0129999999917345
22,26,14051.0997479614,0.00800000000162981
22,27,8203.85364863665,0.00800000000162981
22,28,1906.64502360723,0.00800000000162981
22,29,4685.60662418998,0.0149999999994179
22,30,365588.62420213,0.0200000000040745
23,1,10816.7267694633,0.0129999999917345
23,2,52452.9001251625,0.0210000000079162
23,3,86372.2787760846,0.0289999999949941
23,4,11263.7528985448,0.0139999999955762
23,5,175008.592766543,0.0299999999988358
23,6,16928.4676613754,0.00699999999778811
23,7,77101.7987968438,0.00500000000465661
23,8,19030.9461753156,0.0350000000034925
23,9,35686.4278343981,0.00999999999476131
23,10,6027.12034660084,0.0400000000081491
23,11,10464.6382441893,0.0389999999897555
23,12,47.1867712298244,0.0280000000057044
23,13,456.12273306905,0.0399999999935972
23,14,91.4692972202366,0.0380000000004657
23,15,103.201082191003,0.021999999997206
23,16,4099.42946034047,0.0460000000020955
23,17,45266.2176889231,0.0130000000062864
23,18,93159.6359790386,0.0249999999941792
23,19,1724.30291044292,0.0270000000018626
23,20,1171.7558807359,0.0360000000073342
23,21,6164.48389454125,0.0189999999856809
23,22,22940.957731329,0.0490000000136206
23,23,235911.318877474,0.0029999999969732
23,24,25.4566809490928,0.0199999999895226
23,25,143300.788396059,0.018000000010943
23,26,47191.8265100437,0.0149999999994179
23,27,25.9403210474609,0.0120000000024447
23,28,1999.29677644162,0.0089999999909196
23,29,38455.1780656155,0.0140000000101281
23,30,1645736.00208939,0.0419999999867287
24,1,10879.0396190852,0.0130000000062864
24,2,16918.3108919462,0.0200000000040745
24,3,171211.470074452,0.044000000008964
24,4,584849.09490306,0.00999999999476131
24,5,228592.109894047,0.0130000000062864
24,6,5392.55426484495,0.00399999998626299
24,7,620074.14358204,0.00500000000465661
24,8,3606.13591198284,0.0380000000004657
24,9,17610.7375034805,0.0149999999994179
24,10,13157.5679498312,0.0280000000057044
24,11,10246.4185445985,0.0289999999949941
24,12,8784.88371032145,0.0590000000083819
24,13,26825.657271984,0.021999999997206
24,14,17006.9239583079,0.0370000000111759
24,15,8007.00969697943,0.0629999999946449
24,16,9815.52083059941,0.0289999999949941
24,17,50011.9558435621,0.010999999998603
24,18,540569.74408747,0.0400000000081491
24,19,21896.913264249,0.0439999999944121
24,20,14582.6611148032,0.0299999999988358
24,21,11231.5456394611,0.0120000000024447
24,22,12199.4847273966,0.0230000000010477
24,23,4251628.89367438,0.00600000000849832
24,24,62298.9942862936,0.0130000000062864
24,25,739618.475044649,0.010999999998603
24,26,2888.71634995656,0.010999999998603
24,27,9315.08624624078,0.0059999999939464
24,28,11287.0883678266,0.0100000000093132
24,29,59187.4591070835,0.0120000000024447
24,30,431821.246461942,0.0129999999917345
25,1,11689.354528784,0.0140000000101281
25,2,1276.01398116822,0.0149999999994179
25,3,150381.423786852,0.0399999999935972
25,4,1071631.3945318,0.010999999998603
25,5,233514.079256342,0.0130000000062864
25,6,809707.287094134,0.0059999999939464
25,7,228129.298448842,0.00600000000849832
25,8,330.537746110068,0.0339999999996508
25,9,13640.4541065904,0.0119999999878928
25,10,17471.7033920496,0.0339999999996508
25,11,26427.3893412615,0.0190000000002328
25,12,2435.73774955771,0.0390000000043074
25,13,15920.6501447023,0.0179999999963911
25,14,6761.44363066226,0.0420000000012806
25,15,3270.15231599286,0.0470000000059372
25,16,25189.4402270103,0.0190000000002328
25,17,61351.9968081892,0.00999999999476131
25,18,608313.77535331,0.0270000000018626
25,19,8.66612201378987,0.0210000000079162
25,20,443.30375525305,0.0190000000002328
25,21,11413.248803748,0.0119999999878928
25,22,25595.9062229437,0.0250000000087311
25,23,1079982.72752513,0.00699999999778811
25,24,93220.3575788477,0.0139999999955762
25,25,609720.252784776,0.0130000000062864
25,26,6645.29533316306,0.00999999999476131
25,27,6437.30817731898,0.00699999999778811
25,28,20117.017935668,0.00800000000162981
25,29,75789.5843533936,0.0139999999955762
25,30,2122641.41190245,0.0160000000032596
26,1,19328.2404478864,0.0179999999963911
26,2,42132.8350596371,0.0200000000040745
26,3,224155.845924307,0.00900000000547152
26,4,390243.398700636,0.0299999999988358
26,5,134865.359053486,0.0169999999925494
26,6,2773.1782663064,0.00800000000162981
26,7,636417.478448203,0.00500000000465661
26,8,17473.6042870468,0.00800000000162981
26,9,17301.8517120365,0.0249999999941792
26,10,986.481215502859,0.00900000000547152
26,11,7073.93732419653,0.010999999998603
26,12,34946.2524670335,0.00800000000162981
26,13,5670.83702600997,0.010999999998603
26,14,11912.9095041947,0.0089999999909196
26,15,36834.2837477119,0.0100000000093132
26,16,6921.62492125733,0.00800000000162981
26,17,3968.16309788752,0.018000000010943
26,18,362023.650146394,0.0129999999917345
26,19,15288.9989517795,0.0130000000062864
26,20,2914.11386360216,0.0129999999917345
26,21,9987.17314558939,0.0280000000057044
26,22,8216.78022480286,0.0139999999955762
26,23,4038062.96669815,0.00600000000849832
26,24,25105.1671074582,0.010999999998603
26,25,609964.988364145,0.0089999999909196
26,26,32721.7118050507,0.0320000000065193
26,27,24726.4258665335,0.0160000000032596
26,28,472.641756641598,0.00999999999476131
26,29,61722.0671068492,0.00999999999476131
26,30,348918.518433917,0.0130000000062864
27,1,76788.3538964118,0.0200000000040745
27,2,95928.3204486855,0.021999999997206
27,3,11401.7173638151,0.0190000000002328
27,4,54299.8109048811,0.0190000000002328
27,5,37625.1828652693,0.0179999999963911
27,6,145345.940789168,0.0059999999939464
27,7,843755.78774426,0.00500000000465661
27,8,102773.455930491,0.0100000000093132
27,9,147016.421845258,0.0129999999917345
27,10,96712.4956250872,0.0130000000062864
27,11,145875.541809715,0.010999999998603
27,12,135157.122168112,0.0160000000032596
27,13,191911.726552333,0.010999999998603
27,14,226964.505099757,0.0119999999878928
27,15,125764.464502704,0.0140000000101281
27,16,122396.040772438,0.0120000000024447
27,17,162016.847186832,0.0249999999941792
27,18,67.1533843570726,0.0130000000062864
27,19,138769.684972055,0.010999999998603
27,20,137150.986029752,0.0129999999917345
27,21,150714.820497358,0.0230000000010477
27,22,226547.231146614,0.0130000000062864
27,23,1330592.05515406,0.0029999999969732
27,24,96763.9558050508,0.0169999999925494
27,25,119196.936787116,0.0160000000032596
27,26,16.1863862680711,0.0160000000032596
27,27,23622.5718416756,0.010999999998603
27,28,63929.7389947987,0.0169999999925494
27,29,107057.697470815,0.0149999999994179
27,30,245932.517455441,0.018000000010943
28,1,85514.754151625,0.0209999999933643
28,2,260352.490370175,0.0190000000002328
28,3,4367.40772232531,0.0190000000002328
28,4,36128.6846412805,0.0249999999941792
28,5,32919.739767394,0.0210000000079162
28,6,596418.569861912,0.00500000000465661
28,7,804475.309039716,0.00500000000465661
28,8,338919.026247095,0.010999999998603
28,9,186361.911876414,0.0130000000062864
28,10,142113.951359552,0.0159999999887077
28,11,270901.319830498,0.0120000000024447
28,12,244701.87289499,0.0120000000024447
28,13,300553.177972726,0.010999999998603
28,14,196311.020023651,0.0120000000024447
28,15,229880.99201988,0.0139999999955762
28,16,260723.312066115,0.0130000000062864
28,17,26990.7402688156,0.0190000000002328
28,18,696.14630948523,0.0129999999917345
28,19,209044.805241446,0.0120000000024447
28,20,254582.127358944,0.010999999998603
28,21,106136.497422684,0.0200000000040745
28,22,205850.07268162,0.0170000000071013
28,23,2214614.95534217,0.00400000000081491
28,24,125970.849015842,0.0190000000002328
28,25,114603.200644535,0.0179999999963911
28,26,208.199653987207,0.0190000000002328
28,27,46737.2957503146,0.0120000000024447
28,28,97812.3218384302,0.0179999999963911
28,29,171799.304512692,0.0120000000024447
28,30,276006.621387215,0.0169999999925494
29,1,25316.1162616805,0.0240000000048894
29,2,29797.5386938567,0.032999999995809
29,3,31103.6219706984,0.0160000000032596
29,4,113186.380147072,0.0249999999941792
29,5,37320.2508005797,0.0270000000018626
29,6,14672.6944978884,0.00600000000849832
29,7,188685.321200255,0.0059999999939464
29,8,3711.83905876,0.0149999999994179
29,9,74261.0236128577,0.0130000000062864
29,10,10776.5398332116,0.010999999998603
29,11,3564.26631667051,0.0190000000002328
29,12,5021.28550107822,0.0169999999925494
29,13,2027.99352101505,0.0149999999994179
29,14,5658.23753035548,0.0160000000032596
29,15,2080.08396301991,0.0160000000032596
29,16,11748.0545644411,0.0200000000040745
29,17,147104.802170745,0.0239999999903375
29,18,70261.5614205711,0.0140000000101281
29,19,6877.31260559134,0.0169999999925494
29,20,7596.29094853988,0.0179999999963911
29,21,32217.4336147165,0.0140000000101281
29,22,21743.9663865538,0.0199999999895226
29,23,735176.161046442,0.00300000001152512
29,24,45759.387835703,0.0190000000002328
29,25,140434.390311701,0.0200000000040745
29,26,20321.948169327,0.0240000000048894
29,27,9601.0367182419,0.0119999999878928
29,28,2809.63485906458,0.0240000000048894
29,29,69672.1545891174,0.0169999999925494
29,30,220838.249968172,0.0240000000048894
30,1,21279.9314661295,0.010999999998603
30,2,5424.75631522795,0.0160000000032596
30,3,73.0607930505408,0.0289999999949941
30,4,521771.762725322,0.0100000000093132
30,5,212076.04460422,0.0089999999909196
30,6,550717.317634894,0.00500000000465661
30,7,46066.4069182226,0.0059999999939464
30,8,22.6349887628816,0.0230000000010477
30,9,1077.66977889845,0.0200000000040745
30,10,2061.74015071167,0.0230000000010477
30,11,4689.21897993584,0.0270000000018626
30,12,11640.8201813463,0.0459999999875436
30,13,26919.430913793,0.018000000010943
30,14,11402.9552591296,0.0289999999949941
30,15,15619.7370431847,0.0339999999996508
30,16,1360.04681178824,0.0289999999949941
30,17,59197.2987223868,0.00800000000162981
30,18,3077.95626899289,0.0289999999949941
30,19,10130.21615337,0.0360000000073342
30,20,1745.91162811257,0.0350000000034925
30,21,13323.7253277404,0.010999999998603
30,22,3579.78715309538,0.0209999999933643
30,23,399660.173287032,0.0029999999969732
30,24,73586.2366282084,0.0120000000024447
30,25,823501.74810755,0.010999999998603
30,26,3.88985429939746,0.00900000000547152
30,27,4684.24382246777,0.00800000000162981
30,28,13221.5951070958,0.0089999999909196
30,29,85094.6651084524,0.0100000000093132
30,30,1963388.75917851,0.0139999999955762
