App - ConnectBot
Scenario - connect_ssh
Length - 1sec
Measure - DTWDistance
Before Version - 1.8.3_b
After Version - 1.8.6_b


"Before.Trace.ID1","Before.Trace.ID2","Difference","Runtime"
1,2,34581.6542501823,0.489999999999782
1,3,44387.1432557563,0.380999999999403
1,4,56487.5297691847,0.409999999999854
1,5,27168.6373467281,0.429000000000087
1,6,234772.558386024,0.361000000000786
1,7,34909.0977275845,0.349999999998545
1,8,47053.7517968498,0.405000000000655
1,9,44000.7443766273,0.3700000000008
1,10,21458.8667624018,0.397999999999229
1,11,22397.9874810029,0.351000000000568
1,12,142469.735196025,0.360999999998967
1,13,26789.2819014084,0.399000000001251
1,14,27602.3795755071,0.35399999999936
1,15,20541.3624401651,0.402000000000044
1,16,22032.5654771756,0.398999999999432
1,17,34873.0036858922,0.397000000000844
1,18,48288.5968526195,0.399999999999636
1,19,51768.6527236708,0.398999999999432
1,20,45471.735355463,0.391999999999825
1,21,32640.0071066292,0.398000000001048
1,22,41692.4399887569,0.402000000000044
1,23,25481.0288783133,0.399999999999636
1,24,41413.0004520654,0.40599999999904
1,25,23913.376099313,0.399000000001251
1,26,19916.74880401,0.388999999999214
1,27,24039.4096377003,0.406000000000859
1,28,55257.9206717082,0.38799999999901
1,29,136940.971288191,0.389999999999418
1,30,118197.394354406,0.425000000001091
2,3,21583.9802893279,0.397999999999229
2,4,14062.353976659,0.398000000001048
2,5,15652.7666438144,0.377999999998792
2,6,90703.4483154886,0.36200000000099
2,7,67124.1752753634,0.415999999999258
2,8,11115.4665176022,0.341000000000349
2,9,13664.643822494,0.363999999999578
2,10,21504.1568663852,0.317000000000917
2,11,39884.7373713262,0.346999999999753
2,12,31537.4154845394,0.341999999998734
2,13,46350.3509598777,0.373999999999796
2,14,28549.6187717289,0.356999999999971
2,15,24691.9992353471,0.405000000000655
2,16,29912.7696314906,0.402000000000044
2,17,96922.3163931006,0.402000000000044
2,18,23848.2809964744,0.358000000000175
2,19,133872.162613415,0.421000000000276
2,20,21506.3411746127,0.390999999999622
2,21,9148.7067756178,0.395000000000437
2,22,19274.0955377351,0.378999999998996
2,23,16967.9736824171,0.353000000000975
2,24,15235.9496346748,0.364999999999782
2,25,31519.4052831525,0.373999999999796
2,26,20736.5737858479,0.373999999999796
2,27,13773.5547734097,0.412000000000262
2,28,26668.9722937967,0.382999999999811
2,29,33870.3182868532,0.358000000000175
2,30,39521.7084548105,0.386999999998807
3,4,28630.6162711034,0.378000000000611
3,5,23312.4772070863,0.3700000000008
3,6,147916.167669998,0.384000000000015
3,7,66010.8810348316,0.415999999999258
3,8,23994.8996569695,0.408999999999651
3,9,28560.7506546559,0.416000000001077
3,10,32463.1546962509,0.421000000000276
3,11,35414.5989430832,0.418999999999869
3,12,51961.8057631329,0.429000000000087
3,13,40024.7532576472,0.423999999999069
3,14,33713.0779599632,0.425999999999476
3,15,31713.9486252033,0.412000000000262
3,16,34600.7845139361,0.451000000000931
3,17,87537.7058576272,0.343999999999141
3,18,19513.1920272783,0.335000000000946
3,19,127407.294234992,0.345999999999549
3,20,39570.5185307225,0.358000000000175
3,21,21788.8390607817,0.333999999998923
3,22,12425.5925475606,0.34900000000016
3,23,28366.3865995487,0.409999999999854
3,24,22928.5291207192,0.371000000001004
3,25,35770.6353233646,0.369999999998981
3,26,31566.6108055768,0.375
3,27,25179.6430427897,0.373999999999796
3,28,36532.1586811238,0.372000000001208
3,29,51914.0698286965,0.3799999999992
3,30,57684.8833643236,0.377000000000407
4,5,29817.1708767306,0.416999999999462
4,6,64141.44871492,0.416000000001077
4,7,123378.804913124,0.416999999999462
4,8,8305.02435710424,0.398999999999432
4,9,11946.1620376051,0.387000000000626
4,10,64761.643601367,0.409999999999854
4,11,93635.5744592518,0.402000000000044
4,12,19616.926771205,0.380999999999403
4,13,96510.0061085716,0.406000000000859
4,14,55118.9359095999,0.373999999999796
4,15,62984.520217314,0.369000000000597
4,16,45391.9587941804,0.409999999999854
4,17,158318.491300723,0.402000000000044
4,18,32615.0339335595,0.411000000000058
4,19,184012.468567122,0.350999999998749
4,20,24043.5074991573,0.369000000000597
4,21,13370.3722162618,0.403000000000247
4,22,25378.5185304304,0.372999999999593
4,23,31477.7981013599,0.388999999999214
4,24,26896.215810337,0.393000000000029
4,25,79398.9113464357,0.391000000001441
4,26,48825.4395761305,0.394000000000233
4,27,25317.114893033,0.398999999999432
4,28,27842.6290587079,0.387000000000626
4,29,19919.0125570902,0.408999999999651
4,30,18018.5061432685,0.385999999998603
5,6,191712.958634749,0.40900000000147
5,7,38489.9037033369,0.40599999999904
5,8,21354.8228355587,0.402000000000044
5,9,27824.3553365094,0.362999999999374
5,10,16180.5249331532,0.384000000000015
5,11,18692.5394378042,0.387000000000626
5,12,92122.8090889072,0.398999999999432
5,13,23718.5360441094,0.389000000001033
5,14,21071.9711962427,0.413000000000466
5,15,17253.2036606203,0.348999999998341
5,16,21143.7605925764,0.426000000001295
5,17,39993.2910612176,0.430000000000291
5,18,24207.3216757649,0.388000000000829
5,19,81457.9556703053,0.389999999999418
5,20,37565.2918465986,0.378000000000611
5,21,15934.0243270726,0.376000000000204
5,22,15653.8214238474,0.385000000000218
5,23,7964.03420155943,0.409999999999854
5,24,18093.4143989209,0.420000000000073
5,25,19546.1256018621,0.407999999999447
5,26,11926.1855585105,0.415000000000873
5,27,7560.17158121261,0.404999999998836
5,28,34112.6925543601,0.424000000000888
5,29,90603.606282243,0.427999999999884
5,30,71039.7235317793,0.423999999999069
6,7,311921.352599908,0.423000000000684
6,8,101224.985939585,0.417999999999665
6,9,62890.3738869104,0.420000000000073
6,10,255442.152310682,0.423000000000684
6,11,278881.245556212,0.424999999999272
6,12,38222.3248831435,0.415999999999258
6,13,286146.217235605,0.427000000001499
6,14,227731.781028857,0.429999999998472
6,15,249405.627144382,0.418999999999869
6,16,190989.396147967,0.415000000000873
6,17,353981.734021616,0.40599999999904
6,18,168717.1292802,0.39600000000064
6,19,383086.939219976,0.424999999999272
6,20,76356.4870669446,0.405000000000655
6,21,106258.569174113,0.409999999999854
6,22,151234.840338546,0.411000000000058
6,23,193859.299139389,0.40599999999904
6,24,105844.871529809,0.365999999999985
6,25,266956.791276463,0.358000000000175
6,26,226018.637569297,0.412000000000262
6,27,194144.974154534,0.412000000000262
6,28,172924.228071538,0.40099999999984
6,29,27065.6477080957,0.346999999999753
6,30,82480.2022339165,0.365999999999985
7,8,88982.6093557033,0.365999999999985
7,9,115911.310763465,0.451000000000931
7,10,24102.3708258063,0.357999999998356
7,11,21061.6119007215,0.402000000000044
7,12,211713.875824777,0.407000000001062
7,13,27129.8207208718,0.403000000000247
7,14,41632.1812427018,0.412000000000262
7,15,25625.7104808515,0.398999999999432
7,16,40060.5154860957,0.40599999999904
7,17,21784.5406940089,0.402000000000044
7,18,68561.0608179359,0.40099999999984
7,19,36213.7537733427,0.394000000000233
7,20,102526.973604438,0.388000000000829
7,21,61371.6470331072,0.398999999999432
7,22,77152.9352824335,0.367000000000189
7,23,30940.8378247539,0.360999999998967
7,24,56467.124026068,0.399000000001251
7,25,23481.5310898275,0.393000000000029
7,26,19501.2867194588,0.362999999999374
7,27,36959.495823996,0.352000000000771
7,28,69097.8180608705,0.316999999999098
7,29,208827.841053181,0.359000000000378
7,30,186664.859286189,0.352999999999156
8,9,14305.8520283588,0.358000000000175
8,10,33431.5730335205,0.459000000000742
8,11,58966.5294245532,0.384000000000015
8,12,26855.5323033142,0.384000000000015
8,13,61458.5771548219,0.399999999999636
8,14,37829.1028889589,0.414000000000669
8,15,30764.1588202394,0.419000000001688
8,16,38894.1583762886,0.411999999998443
8,17,120561.105970322,0.418999999999869
8,18,24752.4418595933,0.44800000000032
8,19,151289.514026434,0.351000000000568
8,20,28528.6226752522,0.394000000000233
8,21,6613.93596665332,0.334999999999127
8,22,19126.0966399061,0.337999999999738
8,23,24072.6508447401,0.342000000000553
8,24,13647.6959039867,0.363999999999578
8,25,45121.1890386935,0.411000000000058
8,26,30657.5149429708,0.375
8,27,18371.7695833402,0.395000000000437
8,28,25420.2534532863,0.382999999999811
8,29,27424.5172172532,0.373999999999796
8,30,28684.1449866302,0.405000000000655
9,10,62120.4721831254,0.397999999999229
9,11,91222.0507887695,0.384000000000015
9,12,21836.9854351788,0.376000000000204
9,13,97587.5341126098,0.384000000000015
9,14,49993.139556351,0.414000000000669
9,15,61083.2012109655,0.346999999999753
9,16,40832.8003677125,0.343000000000757
9,17,157056.418447109,0.343000000000757
9,18,37611.2908382482,0.347999999999956
9,19,187655.218013018,0.343999999999141
9,20,27447.2124978412,0.339000000001761
9,21,12639.9304004201,0.373999999999796
9,22,22461.6284943601,0.371999999999389
9,23,30536.1087960336,0.372999999999593
9,24,27650.0574526957,0.373999999999796
9,25,78937.3399147559,0.380000000001019
9,26,46918.6691892415,0.378999999998996
9,27,25144.3585320923,0.380000000001019
9,28,32316.705750331,0.382999999999811
9,29,27385.6194985307,0.3799999999992
9,30,32618.203897315,0.380000000001019
10,11,7421.29808238751,0.369999999998981
10,12,150837.563330488,0.379000000000815
10,13,10817.7657367767,0.372999999999593
10,14,20933.5938077139,0.382999999999811
10,15,7417.0850987165,0.362999999999374
10,16,24063.8324062049,0.381000000001222
10,17,15337.7660841733,0.376000000000204
10,18,35811.9865626752,0.3799999999992
10,19,31708.6887554495,0.378999999998996
10,20,51870.8400203031,0.382000000001426
10,21,23286.0563159207,0.376999999998588
10,22,34291.078210705,0.382000000001426
10,23,9464.47336136426,0.373999999999796
10,24,27064.0887710154,0.338999999999942
10,25,6936.05601126377,0.340000000000146
10,26,7893.27738770785,0.3799999999992
10,27,14162.5974000673,0.377000000000407
10,28,35140.6280893862,0.373999999999796
10,29,151300.860906552,0.353000000000975
10,30,125295.850202677,0.382000000001426
11,12,178583.719479026,0.376000000000204
11,13,4933.28679920353,0.330999999998312
11,14,23519.1194553629,0.378000000000611
11,15,8875.81880193468,0.342000000000553
11,16,26108.4041174373,0.375
11,17,14444.893171402,0.382999999999811
11,18,37177.8103229712,0.378999999998996
11,19,22722.9174956482,0.380000000001019
11,20,74793.3504898441,0.377000000000407
11,21,33091.1293754858,0.373999999999796
11,22,47611.6383628468,0.381999999999607
11,23,13071.0064145563,0.375
11,24,28539.1506762162,0.376000000000204
11,25,6700.12908534799,0.370999999999185
11,26,9455.33553711978,0.373000000001412
11,27,16563.8102346981,0.336999999999534
11,28,37620.9048912955,0.346999999999753
11,29,176811.911439218,0.387000000000626
11,30,153173.189477189,0.386999999998807
12,13,185474.845997154,0.353000000000975
12,14,130605.135797388,0.354999999999563
12,15,151618.161023172,0.3799999999992
12,16,98642.6152583432,0.34900000000016
12,17,242868.319879452,0.412000000000262
12,18,69315.5583255819,0.385000000000218
12,19,274545.65601709,0.347999999999956
12,20,49994.6071924782,0.380000000001019
12,21,32693.7711765909,0.375999999998385
12,22,61337.0217690087,0.376000000000204
12,23,92192.8796057451,0.379000000000815
12,24,38760.4454488832,0.377000000000407
12,25,165352.936890473,0.380999999999403
12,26,127158.390046197,0.3799999999992
12,27,96785.6669982808,0.380000000001019
12,28,70797.4660656908,0.388999999999214
12,29,13999.6088107275,0.372000000001208
12,30,30123.0596473806,0.381999999999607
13,14,30700.649642032,0.386000000000422
13,15,9333.77521272056,0.371999999999389
13,16,30578.7205490503,0.382999999999811
13,17,16551.3797951115,0.373999999999796
13,18,41539.5245678214,0.343000000000757
13,19,20264.1075467198,0.338999999999942
13,20,79236.1690727236,0.34400000000096
13,21,37618.0594657299,0.372999999999593
13,22,53809.4683931329,0.385000000000218
13,23,17140.2033597423,0.372999999999593
13,24,32771.1954780297,0.373999999999796
13,25,6370.78227061119,0.347999999999956
13,26,12190.1403188294,0.380000000001019
13,27,19475.0925561227,0.371999999999389
13,28,38447.6329364086,0.346999999999753
13,29,182136.160443936,0.34400000000096
13,30,153980.717221541,0.384000000000015
14,15,21072.7696618625,0.378999999998996
14,16,15442.1799544868,0.377000000000407
14,17,26713.9346818246,0.380000000001019
14,18,19315.6609112163,0.376999999998588
14,19,65374.3500264501,0.385000000000218
14,20,48948.0571269813,0.380000000001019
14,21,30083.5908299694,0.376999999998588
14,22,32382.2790488369,0.379000000000815
14,23,22680.4857589791,0.3799999999992
14,24,20444.9575427379,0.378000000000611
14,25,24716.0653851818,0.385000000000218
14,26,21372.1751704709,0.380999999999403
14,27,26588.6339511922,0.378000000000611
14,28,51730.9712906815,0.380999999999403
14,29,130369.505531167,0.352000000000771
14,30,116162.413749817,0.38799999999901
15,16,20566.5475446075,0.345999999999549
15,17,18760.1636408165,0.374000000001615
15,18,33205.0074277565,0.377999999998792
15,19,28377.7313573262,0.376000000000204
15,20,44198.0678221468,0.382999999999811
15,21,21271.7203432795,0.377000000000407
15,22,31445.6313542185,0.372999999999593
15,23,14016.3065689112,0.377000000000407
15,24,24411.1719745291,0.377000000000407
15,25,6630.93648090923,0.372999999999593
15,26,9273.42644656802,0.378999999998996
15,27,15687.7487451929,0.373000000001412
15,28,37767.5550276832,0.384999999998399
15,29,148325.218057548,0.382999999999811
15,30,124776.925364218,0.348000000001775
16,17,32437.7940888791,0.343999999999141
16,18,27399.2719923468,0.385000000000218
16,19,67148.0403956298,0.377000000000407
16,20,41187.2054296636,0.357999999998356
16,21,29092.8326217476,0.346999999999753
16,22,25295.0692655905,0.381000000001222
16,23,25200.0497340696,0.342999999998938
16,24,25067.9684445779,0.376000000000204
16,25,24317.1731851126,0.354000000001179
16,26,22630.9648024426,0.411000000000058
16,27,24902.9989478349,0.3799999999992
16,28,51598.1689947679,0.354999999999563
16,29,95298.7029700287,0.381999999999607
16,30,83649.1721260757,0.386000000000422
17,18,82183.5717456375,0.385000000000218
17,19,17622.0980541391,0.379000000000815
17,20,140304.482817716,0.382999999999811
17,21,93106.6738519346,0.34900000000016
17,22,107336.277682089,0.378999999998996
17,23,23714.3236203573,0.377000000000407
17,24,69838.570225958,0.3799999999992
17,25,14645.3754312362,0.340000000000146
17,26,17873.846391646,0.356999999999971
17,27,44742.9275140958,0.372000000001208
17,28,92931.2798897295,0.350999999998749
17,29,245724.506815998,0.380000000001019
17,30,221699.683607904,0.346999999999753
18,19,125003.376709899,0.382999999999811
18,20,42222.7195242549,0.346999999999753
18,21,23604.4741014316,0.375
18,22,19244.0807329636,0.372999999999593
18,23,27665.4417267028,0.386000000000422
18,24,18928.0665138896,0.3799999999992
18,25,37335.7037117557,0.386000000000422
18,26,32200.2328546806,0.381999999999607
18,27,27791.8608266966,0.395000000000437
18,28,39357.1805967879,0.377000000000407
18,29,64816.8064652065,0.385000000000218
18,30,61785.0829466994,0.381000000001222
19,20,175359.505370883,0.389999999999418
19,21,127062.25111035,0.382999999999811
19,22,145496.381492707,0.381999999999607
19,23,55177.7960268722,0.378000000000611
19,24,114341.876861297,0.388000000000829
19,25,21571.5340399014,0.375999999998385
19,26,34218.9395669469,0.378000000000611
19,27,79723.0198341603,0.381999999999607
19,28,116046.772903093,0.386000000000422
19,29,273849.67467859,0.388999999999214
19,30,236883.704907948,0.384000000000015
20,21,26095.4826544288,0.338999999999942
20,22,31600.3873985582,0.34900000000016
20,23,43820.6623728917,0.385000000000218
20,24,23596.4253962256,0.375
20,25,63871.4918368659,0.391999999999825
20,26,48766.5327610526,0.381000000001222
20,27,37450.6523333909,0.356999999999971
20,28,53514.346439079,0.345999999999549
20,29,46803.5977414836,0.343999999999141
20,30,55390.1923705484,0.350000000000364
21,22,17127.5252442125,0.368000000000393
21,23,18476.4058941981,0.342999999998938
21,24,11480.1123834918,0.346999999999753
21,25,27475.2778027655,0.341000000000349
21,26,19196.1517908359,0.310999999999694
21,27,12896.095306545,0.356000000001586
21,28,23180.4363070989,0.382999999999811
21,29,31190.8512614115,0.349999999998545
21,30,37456.953997257,0.380000000001019
22,23,23585.3409827221,0.375
22,24,20424.1657094557,0.346999999999753
22,25,41680.1824294039,0.375
22,26,31002.7152575508,0.370999999999185
22,27,24090.2787208715,0.379000000000815
22,28,32825.0406859326,0.372999999999593
22,29,56072.8809711194,0.376000000000204
22,30,48756.1421076826,0.379000000000815
23,24,22516.1255041274,0.373999999999796
23,25,12981.7318769018,0.368999999998778
23,26,7934.24063086535,0.381000000001222
23,27,8237.51126636959,0.373999999999796
23,28,30966.1687251558,0.38799999999901
23,29,92074.2961334627,0.384000000000015
23,30,67707.2429110787,0.388999999999214
24,25,29680.1803758223,0.381000000001222
24,26,24999.136575258,0.375
24,27,21047.3815898954,0.3799999999992
24,28,36860.4650838088,0.380000000001019
24,29,40023.8914900048,0.377999999998792
24,30,50309.8812506044,0.34900000000016
25,26,8503.57615738824,0.375
25,27,16336.3440869623,0.379000000000815
25,28,39097.475747518,0.377999999998792
25,29,164246.906045369,0.376000000000204
25,30,138961.589513143,0.353000000000975
26,27,9446.4670747623,0.377999999998792
26,28,31995.56990517,0.384000000000015
26,29,124357.102596711,0.385000000000218
26,30,100357.940467432,0.386000000000422
27,28,25974.233413525,0.382999999999811
27,29,94006.7010706945,0.380000000001019
27,30,69341.1891323357,0.376999999998588
28,29,65323.1394867131,0.38300000000163
28,30,25001.835747815,0.368999999998778
29,30,27921.2885365733,0.375


"After.Trace.ID","Before.Trace.ID","Difference","Runtime"
1,1,245580.533337454,0.351000000000568
1,2,88065.5977424055,0.352999999999156
1,3,147904.727385373,0.386000000000422
1,4,48586.2334817017,0.378999999998996
1,5,192036.705060706,0.385000000000218
1,6,38386.8452510429,0.377000000000407
1,7,318233.502698437,0.382999999999811
1,8,90807.3948107733,0.345999999999549
1,9,57209.6786388883,0.384000000000015
1,10,251583.104051145,0.389000000001033
1,11,274981.027656587,0.388999999999214
1,12,30073.7991219211,0.395000000000437
1,13,277110.425189484,0.347999999999956
1,14,239061.332846484,0.351999999998952
1,15,248303.889617131,0.377000000000407
1,16,200461.789972281,0.352000000000771
1,17,353205.114560153,0.349999999998545
1,18,168024.99897904,0.381000000001222
1,19,368268.502028177,0.345999999999549
1,20,75626.644947214,0.352000000000771
1,21,100781.395874717,0.376999999998588
1,22,153813.161125418,0.384000000000015
1,23,188476.359465813,0.384000000000015
1,24,108636.654884853,0.379000000000815
1,25,262333.078805273,0.377000000000407
1,26,220727.419574558,0.377999999998792
1,27,187659.511573736,0.376000000000204
1,28,144673.474073456,0.380000000001019
1,29,27801.0665253102,0.406999999999243
1,30,48286.1292304638,0.343999999999141
2,1,386203.187031588,0.374000000001615
2,2,223345.51417777,0.356999999999971
2,3,285718.552356503,0.355999999999767
2,4,164250.158791003,0.354999999999563
2,5,331428.030958507,0.371999999999389
2,6,83227.2079765654,0.393000000000029
2,7,453449.297806913,0.386000000000422
2,8,213034.786092193,0.394000000000233
2,9,167633.393448155,0.389999999999418
2,10,389914.028061199,0.394000000000233
2,11,412179.554150656,0.390999999999622
2,12,116165.567316082,0.389000000001033
2,13,412666.987941375,0.394000000000233
2,14,376534.453078672,0.389999999999418
2,15,388130.585484638,0.396999999999025
2,16,349368.975768494,0.399000000001251
2,17,495178.060109321,0.38799999999901
2,18,300580.8867513,0.402000000000044
2,19,503080.78920406,0.391999999999825
2,20,208001.867027549,0.400000000001455
2,21,230829.604545582,0.38799999999901
2,22,284522.757391666,0.39600000000064
2,23,325235.443724759,0.389999999999418
2,24,235293.910887754,0.387000000000626
2,25,399946.452703262,0.358000000000175
2,26,357481.456418702,0.396999999999025
2,27,322271.929955033,0.389999999999418
2,28,257770.036244294,0.390000000001237
2,29,82544.0518337953,0.384000000000015
2,30,149229.042452631,0.344999999999345
3,1,315016.781823615,0.364999999999782
3,2,154646.810603384,0.363000000001193
3,3,215740.810885021,0.391999999999825
3,4,103863.827359912,0.359999999998763
3,5,261798.577525433,0.385000000000218
3,6,54393.3950637416,0.388000000000829
3,7,386662.915563297,0.361999999999171
3,8,150893.187807844,0.350000000000364
3,9,98953.9247491804,0.388000000000829
3,10,323767.461042174,0.355000000001382
3,11,342186.996002923,0.38799999999901
3,12,70041.9292494577,0.385000000000218
3,13,343811.635404442,0.356999999999971
3,14,309961.601968929,0.360000000000582
3,15,315978.531200278,0.38799999999901
3,16,275956.662088935,0.390000000001237
3,17,430982.972150424,0.356999999999971
3,18,238423.881615313,0.355999999999767
3,19,435659.052624844,0.350999999998749
3,20,141067.876091656,0.387000000000626
3,21,163525.199112102,0.387000000000626
3,22,216617.650416025,0.359000000000378
3,23,257933.374514313,0.356999999999971
3,24,172288.123638412,0.382000000001426
3,25,330536.503633488,0.359999999998763
3,26,289279.367718269,0.390000000001237
3,27,253601.942368915,0.352999999999156
3,28,192152.189700079,0.382999999999811
3,29,50720.495951522,0.353000000000975
3,30,88829.4057881074,0.380999999999403
4,1,493468.425162448,0.363999999999578
4,2,332887.570157338,0.388000000000829
4,3,398310.915757899,0.389999999999418
4,4,266835.794196558,0.364999999999782
4,5,443153.844799516,0.359000000000378
4,6,151480.444668647,0.386000000000422
4,7,557722.60297288,0.385999999998603
4,8,319870.59902818,0.395000000000437
4,9,271813.333697768,0.389999999999418
4,10,500829.941705889,0.364000000001397
4,11,521524.177071255,0.424999999999272
4,12,217278.099286527,0.398999999999432
4,13,526433.687145229,0.389000000001033
4,14,484774.415148014,0.397999999999229
4,15,502315.192413957,0.391999999999825
4,16,452352.517904727,0.388000000000829
4,17,609866.171166012,0.38799999999901
4,18,406520.319650547,0.355999999999767
4,19,616314.921020797,0.355000000001382
4,20,315237.744168761,0.393000000000029
4,21,337502.373834091,0.390999999999622
4,22,390350.740578643,0.395000000000437
4,23,433977.923338887,0.391999999999825
4,24,341440.204881629,0.388999999999214
4,25,511357.877341319,0.398000000001048
4,26,465718.218476858,0.399999999999636
4,27,431078.677696868,0.395000000000437
4,28,372055.633246991,0.390999999999622
4,29,176896.298236432,0.429000000000087
4,30,250678.906336592,0.381999999999607
5,1,327967.740519791,0.412000000000262
5,2,168911.63025537,0.368000000000393
5,3,232452.988863314,0.373000000001412
5,4,117786.023276032,0.35399999999936
5,5,278654.187319453,0.386000000000422
5,6,70404.1544380783,0.381999999999607
5,7,396652.742559987,0.387000000000626
5,8,165909.642902198,0.381999999999607
5,9,115530.11562321,0.34900000000016
5,10,335537.649287498,0.349999999998545
5,11,359170.917506529,0.393000000000029
5,12,79792.2036161612,0.386000000000422
5,13,359268.367718223,0.385000000000218
5,14,325099.010617641,0.356999999999971
5,15,332554.467472917,0.399999999999636
5,16,288596.281018155,0.361000000000786
5,17,442616.156389289,0.404000000000451
5,18,252493.913912991,0.388999999999214
5,19,447116.300742308,0.398999999999432
5,20,156214.210462402,0.394000000000233
5,21,180632.938366298,0.39600000000064
5,22,233359.631513104,0.408999999999651
5,23,272122.65572323,0.40599999999904
5,24,189484.86472087,0.400000000001455
5,25,344286.100245996,0.404999999998836
5,26,304433.580254686,0.404000000000451
5,27,267978.70827509,0.39600000000064
5,28,207523.422733699,0.397999999999229
5,29,64240.5682690037,0.399999999999636
5,30,103879.67050163,0.389999999999418
6,1,497306.540133319,0.356999999999971
6,2,339674.008347868,0.372000000001208
6,3,404884.847805558,0.373999999999796
6,4,271460.283142863,0.377000000000407
6,5,449943.684208222,0.358999999998559
6,6,155631.873116246,0.407000000001062
6,7,565846.381186805,0.408999999999651
6,8,324655.812846393,0.363999999999578
6,9,277397.411739849,0.363999999999578
6,10,509122.47747522,0.399000000001251
6,11,528749.24005224,0.413000000000466
6,12,223679.122223095,0.394999999998618
6,13,533110.590238205,0.388000000000829
6,14,493150.674819443,0.381999999999607
6,15,506983.527522062,0.417999999999665
6,16,459901.033718908,0.409999999999854
6,17,619705.011541881,0.414000000000669
6,18,414797.590829929,0.41399999999885
6,19,623820.44580811,0.412000000000262
6,20,317722.420265672,0.416000000001077
6,21,343000.263948038,0.414999999999054
6,22,395960.398926686,0.412000000000262
6,23,441535.376389539,0.414000000000669
6,24,347893.824143938,0.41399999999885
6,25,517675.232164426,0.398000000001048
6,26,472997.944777298,0.411999999998443
6,27,437547.531377588,0.40900000000147
6,28,378139.016256863,0.398999999999432
6,29,181031.261008293,0.388999999999214
6,30,253663.903037149,0.399999999999636
7,1,82397.7585992917,0.403000000000247
7,2,43425.4592119377,0.399999999999636
7,3,61904.9815075728,0.405000000000655
7,4,29181.1193245212,0.352000000000771
7,5,59307.7995047699,0.361999999999171
7,6,101028.050946859,0.427999999999884
7,7,136719.910901542,0.39600000000064
7,8,35007.503223648,0.352999999999156
7,9,39959.1609685731,0.380000000001019
7,10,77865.4156585333,0.432999999999083
7,11,107126.761742328,0.39600000000064
7,12,52306.9072803804,0.391999999999825
7,13,108086.086391987,0.382999999999811
7,14,82644.7410221666,0.389999999999418
7,15,79331.2535005188,0.382999999999811
7,16,83804.6417094857,0.406000000000859
7,17,173925.237754355,0.407999999999447
7,18,65538.7526151336,0.405000000000655
7,19,190538.425083107,0.363999999999578
7,20,59406.7471941396,0.351000000000568
7,21,38658.0352161857,0.358999999998559
7,22,53225.6038889669,0.394000000000233
7,23,56425.6099462057,0.412000000000262
7,24,54944.8240268406,0.404000000000451
7,25,95815.1481139197,0.399999999999636
7,26,67480.0657274546,0.403000000000247
7,27,50869.4646254174,0.40099999999984
7,28,18571.9372428044,0.359000000000378
7,29,50107.4010253813,0.358000000000175
7,30,17902.0702454425,0.385999999998603
8,1,28815.1241577175,0.398000000001048
8,2,12887.2719409864,0.38799999999901
8,3,23991.7172923761,0.378000000000611
8,4,21930.1946646133,0.396999999999025
8,5,9315.95207253861,0.351000000000568
8,6,192842.739533443,0.382999999999811
8,7,36766.9700682264,0.354999999999563
8,8,15112.9661833642,0.373999999999796
8,9,24564.4691736203,0.400000000001455
8,10,12521.5006837783,0.372999999999593
8,11,15389.4893359643,0.403000000000247
8,12,91803.5524444694,0.403999999998632
8,13,17175.7312370047,0.403000000000247
8,14,26174.0381993583,0.405000000000655
8,15,13931.1101210201,0.40599999999904
8,16,23714.0251451907,0.40900000000147
8,17,39062.1031911185,0.406999999999243
8,18,25328.1646922919,0.406000000000859
8,19,72721.0208549574,0.407999999999447
8,20,36475.4880411128,0.388999999999214
8,21,11341.2913986421,0.384000000000015
8,22,23506.4978486722,0.386000000000422
8,23,6842.74857547881,0.388000000000829
8,24,19024.3882102361,0.394999999998618
8,25,14493.2055884128,0.391999999999825
8,26,8884.02277870193,0.389000000001033
8,27,5730.53198442954,0.376000000000204
8,28,22375.6428581606,0.397999999999229
8,29,90542.212045464,0.367000000000189
8,30,60338.6897027979,0.362999999999374
9,1,25755.7935625075,0.381000000001222
9,2,20279.5363805786,0.389999999999418
9,3,29655.3346092515,0.378000000000611
9,4,30801.7374599386,0.347999999999956
9,5,18225.4835567356,0.403999999998632
9,6,214009.808834909,0.350000000000364
9,7,40354.5834507508,0.355999999999767
9,8,18779.2515993913,0.394000000000233
9,9,36242.3592558317,0.362999999999374
9,10,14292.0324345793,0.359000000000378
9,11,16889.6167611957,0.388000000000829
9,12,115658.54618993,0.34900000000016
9,13,16860.3976668418,0.384000000000015
9,14,27801.6772803423,0.350999999998749
9,15,14181.82989368,0.394000000000233
9,16,30406.8053569907,0.405000000000655
9,17,37035.6643542018,0.404000000000451
9,18,30586.8302417455,0.404999999998836
9,19,65362.7628352607,0.406000000000859
9,20,41913.7982694498,0.403999999998632
9,21,17202.0355298715,0.407000000001062
9,22,30199.082554976,0.405000000000655
9,23,14312.0345024851,0.404999999998836
9,24,23614.1773665858,0.404000000000451
9,25,15484.6836877403,0.40599999999904
9,26,14022.9752319128,0.401000000001659
9,27,10927.5681148195,0.405000000000655
9,28,24793.0623046798,0.439000000000306
9,29,113140.03631576,0.34900000000016
9,30,80143.4306517468,0.372999999999593
10,1,33833.2831677015,0.343000000000757
10,2,64750.4196840026,0.349999999998545
10,3,57855.0267395525,0.356999999999971
10,4,117476.393315238,0.346000000001368
10,5,37249.8213010028,0.385999999998603
10,6,321840.061817569,0.387000000000626
10,7,28377.3938817045,0.375
10,8,82828.2949354474,0.380999999999403
10,9,117659.313784139,0.381000000001222
10,10,19242.7060339469,0.372999999999593
10,11,12447.5535280886,0.375
10,12,214269.832430722,0.385000000000218
10,13,12274.6750579414,0.385000000000218
10,14,42728.7849610889,0.390999999999622
10,15,18020.8778278328,0.399999999999636
10,16,38749.6207563646,0.395000000000437
10,17,20697.161311329,0.381999999999607
10,18,59986.528324824,0.404000000000451
10,19,15304.5298319201,0.391999999999825
10,20,100338.462953929,0.399999999999636
10,21,56907.0720551419,0.398999999999432
10,22,76287.1750634647,0.360000000000582
10,23,27668.4948309665,0.358000000000175
10,24,51284.898183324,0.393999999998414
10,25,13249.680564952,0.391000000001441
10,26,21493.1044335488,0.375
10,27,29881.8557033366,0.351999999998952
10,28,43570.6698895633,0.397000000000844
10,29,211149.750083794,0.367000000000189
10,30,168331.348014514,0.398999999999432
11,1,32875.0553054553,0.399999999999636
11,2,29750.6391923144,0.398000000001048
11,3,41708.0624257974,0.397999999999229
11,4,63719.4847047306,0.397000000000844
11,5,27310.4051153981,0.398999999999432
11,6,261894.776795167,0.40599999999904
11,7,35922.792349236,0.399000000001251
11,8,38311.032427706,0.404999999998836
11,9,63690.9085660956,0.394000000000233
11,10,15583.441012622,0.373999999999796
11,11,20197.2360900427,0.398999999999432
11,12,158496.954056548,0.402000000000044
11,13,20093.1460231736,0.393000000000029
11,14,37846.730295433,0.398000000001048
11,15,17939.8112657737,0.390999999999622
11,16,33043.3341586166,0.394000000000233
11,17,35755.409277321,0.384000000000015
11,18,44787.7017062299,0.396999999999025
11,19,54129.0784501483,0.39600000000064
11,20,57916.5109260712,0.399999999999636
11,21,26449.6603888792,0.391999999999825
11,22,44784.3944016105,0.397000000000844
11,23,19291.8166067718,0.395000000000437
11,24,40561.5716749502,0.397999999999229
11,25,15927.2350794071,0.347999999999956
11,26,16776.1639028423,0.347999999999956
11,27,17201.966759326,0.385000000000218
11,28,23043.2487510515,0.39600000000064
11,29,153965.922728358,0.376999999998588
11,30,109591.072395694,0.427999999999884
12,1,300826.213046894,0.395000000000437
12,2,138073.604999025,0.40099999999984
12,3,198986.11790951,0.394000000000233
12,4,92538.2502194608,0.388000000000829
12,5,243318.843231713,0.409999999999854
12,6,65092.2955721191,0.397999999999229
12,7,364836.390815907,0.395000000000437
12,8,138777.777502009,0.367000000000189
12,9,94183.1553941788,0.360999999998967
12,10,302539.184308542,0.397000000000844
12,11,325748.469887776,0.384000000000015
12,12,55612.7263035455,0.399999999999636
12,13,329315.584277407,0.39600000000064
12,14,284672.796270476,0.408999999999651
12,15,302278.698365493,0.405000000000655
12,16,254668.253020363,0.359999999998763
12,17,403324.418365995,0.354000000001179
12,18,213798.866062101,0.342999999998938
12,19,417323.972960794,0.354999999999563
12,20,133148.068139141,0.354000000001179
12,21,151240.518986117,0.402999999998428
12,22,201039.022634192,0.403000000000247
12,23,239232.618711656,0.406000000000859
12,24,154000.976294946,0.403000000000247
12,25,313772.037861365,0.403999999998632
12,26,271564.405019225,0.364999999999782
12,27,239326.143759302,0.355000000001382
12,28,185839.221383254,0.394999999998618
12,29,55302.0812316009,0.365000000001601
12,30,88148.2843783051,0.368999999998778
13,1,203909.436187014,0.402000000000044
13,2,61866.8140230595,0.379000000000815
13,3,108606.476782271,0.389999999999418
13,4,33753.1221114804,0.354999999999563
13,5,152707.784273601,0.411000000000058
13,6,57025.1801301161,0.364999999999782
13,7,274392.241068194,0.451000000000931
13,8,51932.2125156319,0.391999999999825
13,9,48293.3378715955,0.39600000000064
13,10,210740.816327887,0.402999999998428
13,11,235975.273974158,0.437000000001717
13,12,30037.3099200257,0.403999999998632
13,13,235211.866352993,0.389000000001033
13,14,197328.641907623,0.412000000000262
13,15,208276.099818762,0.411999999998443
13,16,162669.084386269,0.395000000000437
13,17,310328.062555603,0.393000000000029
13,18,124447.193170492,0.397000000000844
13,19,321457.532698036,0.399999999999636
13,20,73960.0255183939,0.40099999999984
13,21,63086.5905088629,0.40099999999984
13,22,113329.924774772,0.39600000000064
13,23,149292.529558489,0.386999999998807
13,24,76307.5690745508,0.399999999999636
13,25,221177.870662299,0.399000000001251
13,26,181508.298297293,0.404000000000451
13,27,148052.207315896,0.40099999999984
13,28,90400.0621763673,0.396999999999025
13,29,27566.2841172444,0.398999999999432
13,30,15918.0467400582,0.389000000001033
14,1,313975.320754465,0.369000000000597
14,2,152461.30682432,0.381000000001222
14,3,213386.895525938,0.373999999999796
14,4,104870.250089785,0.354999999999563
14,5,259273.743898012,0.398999999999432
14,6,45124.2730230899,0.399000000001251
14,7,380293.179347473,0.411000000000058
14,8,151651.757686324,0.399999999999636
14,9,104153.08375149,0.404000000000451
14,10,321365.723892067,0.385999999998603
14,11,345501.091190897,0.355000000001382
14,12,56563.6021590681,0.369999999998981
14,13,348176.239355352,0.368000000000393
14,14,291169.044087759,0.388999999999214
14,15,316559.29194412,0.427999999999884
14,16,258218.060461797,0.398000000001048
14,17,418906.678054192,0.397999999999229
14,18,222793.798591863,0.394000000000233
14,19,434574.941611473,0.354999999999563
14,20,142981.570708533,0.406000000000859
14,21,166495.549993906,0.411000000000058
14,22,213982.506131777,0.402999999998428
14,23,257478.762504451,0.397000000000844
14,24,163354.303845053,0.388000000000829
14,25,328752.6228312,0.406999999999243
14,26,289324.109057879,0.411000000000058
14,27,255658.641810119,0.372999999999593
14,28,210632.085928835,0.390000000001237
14,29,43842.1973280027,0.391999999999825
14,30,104384.732093474,0.358000000000175
15,1,314792.32777901,0.367999999998574
15,2,154557.229281787,0.387000000000626
15,3,216223.723104452,0.413000000000466
15,4,103631.055358738,0.40599999999904
15,5,261053.626201289,0.406000000000859
15,6,67418.2494887274,0.403000000000247
15,7,383333.987682809,0.40599999999904
15,8,150733.101905849,0.368000000000393
15,9,100667.158145394,0.361999999999171
15,10,319670.87114693,0.375
15,11,341784.715580226,0.364999999999782
15,12,67597.7807967362,0.390000000001237
15,13,343113.955767299,0.382999999999811
15,14,308692.593973043,0.393000000000029
15,15,316981.031695149,0.398999999999432
15,16,278277.745409585,0.414000000000669
15,17,424649.394436259,0.406999999999243
15,18,235809.313345494,0.403999999998632
15,19,432576.459507935,0.36200000000099
15,20,143398.454545294,0.372999999999593
15,21,164225.076927717,0.376000000000204
15,22,217262.730073917,0.373999999999796
15,23,256005.612852116,0.378000000000611
15,24,172111.082516926,0.402999999998428
15,25,330038.656034533,0.407000000002881
15,26,287943.049693709,0.367999999998574
15,27,253547.418258967,0.365000000001601
15,28,187077.457497777,0.389999999999418
15,29,58082.367341202,0.409999999999854
15,30,87018.5871911894,0.389999999999418
16,1,252983.589508975,0.404999999998836
16,2,108603.344792528,0.351000000002387
16,3,163395.936997387,0.377999999996973
16,4,70800.1762467738,0.375
16,5,208316.225991464,0.380000000001019
16,6,29784.4246641402,0.371999999999389
16,7,335891.605320212,0.378000000000611
16,8,114677.300963818,0.379000000000815
16,9,62250.6532768971,0.376000000000204
16,10,276260.998620287,0.377000000000407
16,11,296879.686846128,0.380999999997584
16,12,33441.7005898603,0.375
16,13,303640.577321086,0.38300000000163
16,14,240574.840481483,0.400999999998021
16,15,268212.629693306,0.397000000000844
16,16,204799.076228249,0.395000000000437
16,17,378074.037325312,0.402999999998428
16,18,174489.949873361,0.399000000001251
16,19,398563.268710638,0.398000000001048
16,20,83277.0247092779,0.383999999998196
16,21,122005.271070828,0.401000000001659
16,22,162251.736889354,0.360999999997148
16,23,211104.708668192,0.36200000000099
16,24,116416.931193335,0.390999999999622
16,25,286365.792919491,0.400000000001455
16,26,244700.301939955,0.358000000000175
16,27,212312.333207629,0.379000000000815
16,28,182277.603608694,0.421999999998661
16,29,27284.6104035944,0.397000000000844
16,30,83732.6367804507,0.41899999999805
17,1,267592.885311348,0.370000000002619
17,2,104808.466029841,0.401999999998225
17,3,166250.81888541,0.404999999998836
17,4,62446.3860005876,0.405000000002474
17,5,210028.419823754,0.399999999997817
17,6,63772.5703278307,0.397000000000844
17,7,330838.02302657,0.404999999998836
17,8,105652.141470026,0.399000000001251
17,9,75225.5718831141,0.398000000001048
17,10,267140.644402309,0.40599999999904
17,11,291115.329056026,0.401999999998225
17,12,47437.5948419021,0.394000000000233
17,13,293170.924584095,0.401000000001659
17,14,257242.453211747,0.406999999999243
17,15,266971.151685078,0.397000000000844
17,16,227173.871197701,0.411000000000058
17,17,369349.947958271,0.406999999999243
17,18,184398.885766664,0.398000000001048
17,19,380857.973260935,0.402999999998428
17,20,102733.259477445,0.40400000000227
17,21,117632.52835757,0.400999999998021
17,22,170001.479693228,0.388999999999214
17,23,205278.46137333,0.407000000002881
17,24,124272.092146834,0.404999999998836
17,25,279588.849161882,0.371999999999389
17,26,237536.882359669,0.397000000000844
17,27,204778.746035977,0.397000000000844
17,28,140432.185723378,0.360999999997148
17,29,46852.5235558558,0.359000000000378
17,30,47565.816060806,0.398000000001048
18,1,354259.651403002,0.41899999999805
18,2,194622.508249925,0.365000000001601
18,3,255780.717697663,0.366000000001804
18,4,138732.833135036,0.395999999997002
18,5,301795.925159123,0.422000000002299
18,6,71069.3588433147,0.351999999998952
18,7,423483.793848127,0.401999999998225
18,8,186832.946348927,0.407000000002881
18,9,137593.693596131,0.401999999998225
18,10,361194.992763765,0.415000000000873
18,11,382475.896644753,0.364999999997963
18,12,95199.0508637637,0.411000000000058
18,13,383574.33756996,0.377000000000407
18,14,348411.750923267,0.395000000000437
18,15,356829.938503052,0.363000000001193
18,16,317703.54408702,0.326000000000931
18,17,468115.679670584,0.36699999999837
18,18,273636.171802822,0.386999999998807
18,19,474821.588403624,0.373000000003231
18,20,179422.946253361,0.361999999997352
18,21,201949.693039208,0.350000000002183
18,22,254675.799495314,0.42699999999968
18,23,297071.894303336,0.386999999998807
18,24,208908.847145452,0.349000000001979
18,25,370790.2879763,0.356999999999971
18,26,328672.023910376,0.38799999999901
18,27,293185.344321378,0.391999999999825
18,28,228305.60120106,0.383999999998196
18,29,66967.1538294226,0.38300000000163
18,30,121773.145880077,0.383999999998196
19,1,350705.575395358,0.395000000000437
19,2,179286.362510242,0.387000000002445
19,3,237278.082440681,0.389999999999418
19,4,119862.181609647,0.383999999998196
19,5,283500.706722539,0.387000000002445
19,6,63939.0370312024,0.381999999997788
19,7,420968.018542774,0.38799999999901
19,8,168070.626859894,0.387000000002445
19,9,121385.790860549,0.388999999999214
19,10,352906.690029231,0.388999999999214
19,11,368053.705058911,0.351999999998952
19,12,79001.8928088922,0.350000000002183
19,13,365995.574485703,0.356999999999971
19,14,326688.817305122,0.352999999999156
19,15,338371.150194702,0.356999999999971
19,16,292722.802905503,0.358000000000175
19,17,457543.201654954,0.352999999999156
19,18,247824.047349242,0.351000000002387
19,19,456215.699749336,0.352999999999156
19,20,158652.266224771,0.386999999998807
19,21,184976.811424755,0.385000000002037
19,22,234581.088112562,0.382999999997992
19,23,282633.193579769,0.354999999999563
19,24,188240.505775393,0.387000000002445
19,25,352574.687656674,0.385999999998603
19,26,313735.338280285,0.350999999998749
19,27,276458.060452621,0.355999999999767
19,28,213245.201724361,0.35200000000259
19,29,58955.1533639107,0.386999999998807
19,30,104152.652433619,0.377000000000407
20,1,308049.475698949,0.35399999999936
20,2,152802.803127839,0.35399999999936
20,3,215226.705962539,0.359000000000378
20,4,103120.250258489,0.352999999999156
20,5,260461.713521768,0.350000000002183
20,6,65573.8890522723,0.352999999999156
20,7,388596.789914982,0.355999999999767
20,8,149740.921167162,0.356999999999971
20,9,110452.593172772,0.400000000001455
20,10,317423.589954875,0.35899999999674
20,11,339464.822923424,0.350000000002183
20,12,80704.1768669844,0.347999999998137
20,13,339493.99932623,0.348000000001775
20,14,316573.975870111,0.352999999999156
20,15,314837.339961397,0.354999999999563
20,16,285558.769292178,0.351000000002387
20,17,425220.094815408,0.355999999999767
20,18,245125.910595458,0.351999999998952
20,19,428660.602356152,0.351999999998952
20,20,134416.399863778,0.350000000002183
20,21,162864.594967928,0.349999999998545
20,22,219266.585442245,0.349999999998545
20,23,253648.528861214,0.350000000002183
20,24,175101.844863142,0.346999999997934
20,25,328036.751366198,0.354999999999563
20,26,286045.327223576,0.355999999999767
20,27,251333.165390583,0.313000000001921
20,28,182906.956726867,0.351999999998952
20,29,70892.3412501238,0.345000000001164
20,30,85264.3762570023,0.308000000000902
21,1,341170.794163541,0.351999999998952
21,2,183650.756097562,0.352999999999156
21,3,246137.657219742,0.360000000000582
21,4,130533.408845875,0.385999999998603
21,5,291327.487179337,0.363000000001193
21,6,60131.4730392672,0.424999999999272
21,7,408694.949989322,0.361000000000786
21,8,179844.497476089,0.398000000001048
21,9,127173.920615696,0.398999999997613
21,10,349828.43892713,0.394000000000233
21,11,372524.203565511,0.391999999999825
21,12,84774.1063390107,0.385000000002037
21,13,374396.863293688,0.388999999999214
21,14,336227.729572103,0.356999999999971
21,15,347869.030663611,0.359000000000378
21,16,301086.350943714,0.355999999999767
21,17,456057.568636861,0.352999999999156
21,18,262798.055691044,0.355999999999767
21,19,462089.434582251,0.38799999999901
21,20,170219.037748101,0.385000000002037
21,21,192673.645309111,0.384999999998399
21,22,244928.929316038,0.391999999999825
21,23,285176.841951854,0.352999999999156
21,24,200494.325964371,0.351000000002387
21,25,359435.104209699,0.393000000000029
21,26,317110.398988788,0.38799999999901
21,27,282678.490579907,0.391999999999825
21,28,221810.138360904,0.386999999998807
21,29,55099.4576275296,0.381000000001222
21,30,116773.76354705,0.384000000001834
22,1,416701.83363925,0.404999999998836
22,2,255839.499479512,0.364000000001397
22,3,319752.780442943,0.39600000000064
22,4,193648.617080758,0.388000000002648
22,5,367753.139251302,0.39799999999741
22,6,87843.8646017931,0.370000000002619
22,7,485309.348084597,0.356999999999971
22,8,244019.007023559,0.356999999999971
22,9,198124.407590031,0.415999999997439
22,10,424828.33812739,0.35200000000259
22,11,447412.463332217,0.359999999996944
22,12,147378.419670765,0.384000000001834
22,13,446994.32178138,0.388999999999214
22,14,411622.458962129,0.38799999999901
22,15,420532.297524296,0.388000000002648
22,16,375463.8432912,0.395000000000437
22,17,534409.328261235,0.393000000000029
22,18,336450.800270119,0.389999999999418
22,19,536986.917235827,0.389999999999418
22,20,235814.86880739,0.388999999999214
22,21,263220.552703636,0.385999999998603
22,22,316123.467777915,0.388000000002648
22,23,359887.06635634,0.395000000000437
22,24,270004.291180955,0.389999999999418
22,25,432260.155231123,0.390999999999622
22,26,392258.215657207,0.393000000000029
22,27,354341.647007777,0.389999999999418
22,28,293345.1170018,0.384999999998399
22,29,108202.253868808,0.391999999999825
22,30,177165.96648612,0.379000000000815
23,1,390732.581477683,0.393000000000029
23,2,231113.71638077,0.388999999999214
23,3,292584.941027028,0.389000000002852
23,4,169782.007342713,0.389999999999418
23,5,341569.208897664,0.352999999999156
23,6,77015.316516661,0.383999999998196
23,7,462412.043766515,0.358000000000175
23,8,219521.067748036,0.386000000002241
23,9,172688.229341084,0.422999999998865
23,10,400532.905744932,0.351999999998952
23,11,422160.608849724,0.387000000002445
23,12,124159.082485555,0.384999999998399
23,13,420750.750456341,0.351999999998952
23,14,385558.785446615,0.359000000000378
23,15,393176.720714128,0.387000000002445
23,16,348110.803838965,0.393999999996595
23,17,509811.351723169,0.389000000002852
23,18,307672.886458192,0.393000000000029
23,19,512350.961180827,0.38799999999901
23,20,208320.257702719,0.391999999999825
23,21,237992.691618924,0.385999999998603
23,22,290116.343244029,0.389999999999418
23,23,335108.835148747,0.386000000002241
23,24,244525.034286528,0.391999999999825
23,25,407324.019967111,0.389999999999418
23,26,367907.48824825,0.388999999999214
23,27,329328.527810196,0.390999999999622
23,28,270717.752496957,0.38300000000163
23,29,85125.1948867149,0.389999999999418
23,30,156429.792804739,0.381000000001222
24,1,236494.66159136,0.394000000000233
24,2,84601.8115953403,0.38799999999901
24,3,145158.207290724,0.371999999999389
24,4,56003.2150155776,0.350000000002183
24,5,188981.275527895,0.35399999999936
24,6,71180.2759434513,0.414999999997235
24,7,308590.198018209,0.355000000003201
24,8,86027.8765750843,0.381999999997788
24,9,69264.2065396434,0.381000000001222
24,10,242777.837427457,0.393000000000029
24,11,268350.204654372,0.386999999998807
24,12,50188.9879088967,0.380000000001019
24,13,270002.055931919,0.391999999999825
24,14,240504.604334857,0.388999999999214
24,15,244633.579932822,0.390999999999622
24,16,208768.918770415,0.389999999999418
24,17,346655.242753644,0.350000000002183
24,18,171119.20068068,0.381999999997788
24,19,356281.434790579,0.359000000000378
24,20,96364.3644791557,0.387000000002445
24,21,96407.9641635762,0.385999999998603
24,22,150943.391487681,0.386999999998807
24,23,182356.091260669,0.35200000000259
24,24,109835.5874363,0.348999999998341
24,25,256884.849079269,0.390999999999622
24,26,215047.450263215,0.390999999999622
24,27,182333.884236747,0.385000000002037
24,28,115716.062761237,0.380999999997584
24,29,46207.2609389613,0.381000000001222
24,30,33237.5243541206,0.381000000001222
25,1,313604.611383295,0.395000000000437
25,2,154386.062017714,0.385999999998603
25,3,215933.365789224,0.385999999998603
25,4,102440.979878131,0.36200000000099
25,5,262982.330006082,0.382000000001426
25,6,52390.9219121559,0.348999999998341
25,7,385018.782718892,0.391999999999825
25,8,149726.25718081,0.384999999998399
25,9,100044.793197343,0.390000000003056
25,10,320935.997670204,0.394000000000233
25,11,343675.022941024,0.400999999998021
25,12,66630.9053540119,0.383999999998196
25,13,344014.408036736,0.390000000003056
25,14,308888.8319009,0.389999999999418
25,15,317068.747724404,0.390999999999622
25,16,273932.832850396,0.391999999999825
25,17,428234.770272366,0.394000000000233
25,18,236884.894159576,0.385999999998603
25,19,432640.525805683,0.388999999999214
25,20,140448.165268647,0.390000000003056
25,21,164699.869787769,0.351999999998952
25,22,216834.453348187,0.352999999999156
25,23,257268.08007904,0.395000000000437
25,24,172596.067777418,0.391999999999825
25,25,329720.616815624,0.395000000000437
25,26,290038.125781128,0.36200000000099
25,27,253969.903534826,0.39799999999741
25,28,190649.560584495,0.372000000003027
25,29,55069.6317365161,0.415999999997439
25,30,87113.7690482805,0.413000000000466
26,1,251647.591826302,0.359000000000378
26,2,93219.0975221753,0.381000000001222
26,3,153319.539765416,0.401999999998225
26,4,54948.9044899434,0.384000000001834
26,5,197066.956858072,0.398999999997613
26,6,60798.4127029398,0.38300000000163
26,7,317223.266631709,0.401999999998225
26,8,94372.0592275215,0.38300000000163
26,9,67674.8512696628,0.384999999998399
26,10,255715.283326184,0.397000000000844
26,11,279303.501601531,0.386999999998807
26,12,42134.1733480578,0.382000000001426
26,13,280876.943540323,0.388999999999214
26,14,243332.112617796,0.38799999999901
26,15,252507.422151349,0.349000000001979
26,16,211279.152642478,0.361000000000786
26,17,357019.232554137,0.393000000000029
26,18,172545.451908103,0.39600000000064
26,19,368814.220657837,0.387000000002445
26,20,93299.779741187,0.390999999999622
26,21,104654.904037466,0.391999999999825
26,22,156571.69205415,0.390999999999622
26,23,193465.146514565,0.390999999999622
26,24,111961.85286016,0.391999999999825
26,25,267298.057180136,0.391999999999825
26,26,225228.723994691,0.388000000002648
26,27,192508.713858845,0.361999999997352
26,28,126997.685634644,0.351000000002387
26,29,40648.7600130471,0.403999999998632
26,30,34832.6824032128,0.347000000001572
27,1,387992.475314586,0.359999999996944
27,2,227471.901463293,0.351000000002387
27,3,289056.898747562,0.402999999998428
27,4,169911.77795763,0.389999999999418
27,5,336235.654570117,0.390999999999622
27,6,65827.5293985069,0.393000000000029
27,7,455997.458555287,0.390000000003056
27,8,219108.672400637,0.385000000002037
27,9,171561.199667398,0.390999999999622
27,10,395099.636519157,0.399000000001251
27,11,417245.405056374,0.385999999998603
27,12,119591.489060834,0.389999999999418
27,13,419639.081849021,0.400000000001455
27,14,381117.075044935,0.401999999998225
27,15,393498.356552075,0.395000000000437
27,16,346208.8467951,0.390999999999622
27,17,501655.23936641,0.388000000002648
27,18,304796.079665302,0.390999999999622
27,19,513799.121965489,0.395000000000437
27,20,210502.545585506,0.351000000002387
27,21,235557.518529201,0.363000000001193
27,22,289225.562749646,0.393999999996595
27,23,329842.987717857,0.38300000000163
27,24,240035.396242105,0.400000000001455
27,25,405391.75798314,0.38799999999901
27,26,362914.999339803,0.364999999997963
27,27,327442.850305695,0.420000000001892
27,28,286345.409137736,0.383999999998196
27,29,83943.1398616023,0.38300000000163
27,30,173819.575574464,0.365000000001601
28,1,284169.508755362,0.403999999998632
28,2,124283.776368602,0.401999999998225
28,3,184053.813284134,0.385000000002037
28,4,74446.4623487717,0.39600000000064
28,5,229333.353164303,0.386999999998807
28,6,63224.074766251,0.384999999998399
28,7,351233.761591661,0.400000000001455
28,8,121172.301562628,0.384999999998399
28,9,83772.3658898791,0.384000000001834
28,10,288772.748239803,0.38799999999901
28,11,311405.910307802,0.389999999999418
28,12,54198.7554885565,0.384000000001834
28,13,311435.941742811,0.349999999998545
28,14,276029.106263993,0.351000000002387
28,15,283327.399042166,0.351999999998952
28,16,243398.978798845,0.371999999999389
28,17,392174.385927559,0.39600000000064
28,18,202622.209463637,0.388999999999214
28,19,399610.576974637,0.350000000002183
28,20,111899.959522667,0.354999999999563
28,21,133765.050907123,0.388999999999214
28,22,185526.549190079,0.390999999999622
28,23,225058.720491682,0.389999999999418
28,24,141144.040431395,0.38799999999901
28,25,299064.056501146,0.386000000002241
28,26,256784.791556545,0.393000000000029
28,27,223224.669181725,0.390999999999622
28,28,156354.074089017,0.379000000000815
28,29,50297.2394007051,0.355999999999767
28,30,55916.3569296248,0.344999999997526
29,1,451453.605861784,0.359000000000378
29,2,295386.949451617,0.418000000001484
29,3,358037.470388685,0.354999999999563
29,4,235403.747952702,0.382999999997992
29,5,404587.526693761,0.387000000002445
29,6,117615.291819055,0.383999999998196
29,7,522504.420875622,0.440000000002328
29,8,285460.114105082,0.381999999997788
29,9,239159.437556281,0.390999999999622
29,10,463164.061146312,0.387000000002445
29,11,485119.486765936,0.385999999998603
29,12,180269.5740933,0.382000000001426
29,13,488947.01682173,0.384999999998399
29,14,439569.983776348,0.397000000000844
29,15,463872.425309655,0.386999999998807
29,16,406738.511454924,0.386000000002241
29,17,567634.647699811,0.354999999999563
29,18,364860.28433135,0.38799999999901
29,19,581662.667873525,0.388999999999214
29,20,274599.333733106,0.384000000001834
29,21,303786.433401462,0.385999999998603
29,22,353706.519301902,0.391999999999825
29,23,396292.121303222,0.348999999998341
29,24,303979.114989043,0.350000000002183
29,25,473438.084556919,0.391999999999825
29,26,430689.685585065,0.382000000001426
29,27,394726.311839692,0.35399999999936
29,28,356657.525738007,0.350999999998749
29,29,143868.543757234,0.348999999998341
29,30,236033.451638176,0.351000000002387
30,1,65035.0846844527,0.354999999999563
30,2,49596.8603927687,0.341000000000349
30,3,66850.6563203445,0.378000000000611
30,4,62270.1406022516,0.346999999997934
30,5,51352.7549772383,0.381000000001222
30,6,212063.628606531,0.381999999997788
30,7,67688.0094381483,0.385000000002037
30,8,50836.344951187,0.385999999998603
30,9,69099.1023757494,0.38300000000163
30,10,42076.8815784035,0.380000000001019
30,11,47527.3368840247,0.38799999999901
30,12,125926.733322997,0.383999999998196
30,13,48498.1567689942,0.384000000001834
30,14,70375.2467007566,0.383999999998196
30,15,51115.3640151286,0.382000000001426
30,16,75489.6935882123,0.385999999998603
30,17,71558.1773391003,0.385000000002037
30,18,69846.716315235,0.383999999998196
30,19,94277.6221705508,0.388999999999214
30,20,81302.9311520915,0.386000000002241
30,21,47705.7090160465,0.34599999999773
30,22,65471.1571399845,0.34400000000096
30,23,41898.3830608712,0.386999999998807
30,24,60739.9205520198,0.380000000001019
30,25,47605.6091557792,0.354999999999563
30,26,41126.5263454628,0.349999999998545
30,27,41146.8691098533,0.382000000001426
30,28,19039.5485579375,0.34400000000096
30,29,122197.725037835,0.349999999998545
30,30,74279.4649041908,0.411000000000058
