"Before.Version","After.Version","Diff","Direction","P.Value","Simple.Diff","Within.Diffs.Mean","Within.Diffs.SD","Between.Diffs.Mean","Between.Diffs.SD","Runtime"
"v1","v2",FALSE,NA,1,-0.112,6106.674,17200.064,3224.038,12432.257,8.443
"v2","v3",FALSE,NA,0.025,0.066,1209.179,2761.348,1830.393,4616.907,8.106
"v3","v4",FALSE,NA,0,0.111,1117.354,2934.658,1643.447,3765.555,8.57
