"Before.Version","After.Version","Diff","Direction","P.Value","Simple.Diff","Within.Diffs.Mean","Within.Diffs.SD","Between.Diffs.Mean","Between.Diffs.SD","Runtime"
"v1","v2",FALSE,NA,0,0.667,5174.101,2592.359,10303.778,4463.884,0.927
"v2","v3",TRUE,"NEGATIVE",0,1,6790.096,4678.788,44629.797,5343.861,0.901
"v3","v4",FALSE,NA,0,0.173,2149.899,591.225,2424.881,807.614,0.933
