STARTED
Sleeping for 0 sec, 0 nsec


Line Numbers = 1071

1. Sleeping for 0 sec, 60999 nsec
3. Sleeping for 0 sec, 30001 nsec
5. Sleeping for 0 sec, 31000 nsec
6. Sleeping for 0 sec, 10987000 nsec
7. Sleeping for 0 sec, 30000 nsec
10. Sleeping for 0 sec, 120312000 nsec
11. Sleeping for 0 sec, 30000 nsec
12. Sleeping for 6 sec, 79311738 nsec
13. Sleeping for 0 sec, 61001 nsec
15. Sleeping for 0 sec, 31000 nsec
18. Sleeping for 0 sec, 11689000 nsec
19. Sleeping for 0 sec, 30000 nsec
21. Sleeping for 0 sec, 28018000 nsec
23. Sleeping for 3 sec, 498276491 nsec
24. Sleeping for 0 sec, 31000 nsec
28. Sleeping for 0 sec, 30000 nsec
29. Sleeping for 0 sec, 10102999 nsec
31. Sleeping for 0 sec, 40104001 nsec
32. Sleeping for 0 sec, 30000 nsec
33. Sleeping for 5 sec, 141608087 nsec
34. Sleeping for 0 sec, 60999 nsec
36. Sleeping for 0 sec, 30001 nsec
38. Sleeping for 0 sec, 31000 nsec
39. Sleeping for 0 sec, 9736000 nsec
40. Sleeping for 0 sec, 61000 nsec
42. Sleeping for 0 sec, 70685000 nsec
43. Sleeping for 0 sec, 31000 nsec
44. Sleeping for 1 sec, 198240863 nsec
45. Sleeping for 0 sec, 30999 nsec
48. Sleeping for 0 sec, 30001 nsec
49. Sleeping for 0 sec, 10103000 nsec
50. Sleeping for 0 sec, 30000 nsec
53. Sleeping for 0 sec, 80910000 nsec
54. Sleeping for 0 sec, 30000 nsec
55. Sleeping for 1 sec, 438838963 nsec
56. Sleeping for 0 sec, 31000 nsec
58. Sleeping for 0 sec, 10132000 nsec
59. Sleeping for 0 sec, 31000 nsec
62. Sleeping for 0 sec, 50359000 nsec
63. Sleeping for 0 sec, 30000 nsec
64. Sleeping for 0 sec, 776475016 nsec
65. Sleeping for 0 sec, 31001 nsec
67. Sleeping for 0 sec, 30000 nsec
69. Sleeping for 0 sec, 10103000 nsec
73. Sleeping for 0 sec, 50419000 nsec
74. Sleeping for 0 sec, 30999 nsec
75. Sleeping for 1 sec, 475196025 nsec
76. Sleeping for 0 sec, 30999 nsec
78. Sleeping for 0 sec, 31001 nsec
80. Sleeping for 0 sec, 10071000 nsec
82. Sleeping for 0 sec, 31000 nsec
83. Sleeping for 0 sec, 30551000 nsec
84. Sleeping for 0 sec, 30000 nsec
86. Sleeping for 0 sec, 10133000 nsec
88. Sleeping for 0 sec, 30000 nsec
90. Sleeping for 0 sec, 9645000 nsec
92. Sleeping for 0 sec, 561811922 nsec
93. Sleeping for 0 sec, 30000 nsec
96. Sleeping for 0 sec, 31000 nsec
98. Sleeping for 0 sec, 10102000 nsec
99. Sleeping for 0 sec, 30999 nsec
101. Sleeping for 0 sec, 40744001 nsec
102. Sleeping for 0 sec, 31000 nsec
104. Sleeping for 0 sec, 9858000 nsec
106. Sleeping for 1 sec, 425567860 nsec
107. Sleeping for 0 sec, 30000 nsec
108. Sleeping for 0 sec, 30999 nsec
111. Sleeping for 0 sec, 10072000 nsec
112. Sleeping for 0 sec, 30001 nsec
115. Sleeping for 0 sec, 70776999 nsec
116. Sleeping for 0 sec, 30001 nsec
117. Sleeping for 1 sec, 297722389 nsec
118. Sleeping for 0 sec, 30999 nsec
122. Sleeping for 0 sec, 10071001 nsec
123. Sleeping for 0 sec, 31000 nsec
126. Sleeping for 0 sec, 60522000 nsec
127. Sleeping for 0 sec, 29999 nsec
128. Sleeping for 1 sec, 393011924 nsec
129. Sleeping for 0 sec, 31001 nsec
133. Sleeping for 0 sec, 30000 nsec
134. Sleeping for 0 sec, 10072000 nsec
135. Sleeping for 0 sec, 30000 nsec
137. Sleeping for 0 sec, 29971000 nsec
139. Sleeping for 5 sec, 891149391 nsec
140. Sleeping for 0 sec, 31000 nsec
141. Sleeping for 0 sec, 30000 nsec
143. Sleeping for 0 sec, 31000 nsec
144. Sleeping for 0 sec, 9827000 nsec
146. Sleeping for 0 sec, 31000 nsec
148. Sleeping for 0 sec, 60552000 nsec
149. Sleeping for 0 sec, 31000 nsec
150. Sleeping for 1 sec, 332818679 nsec
151. Sleeping for 0 sec, 30000 nsec
155. Sleeping for 0 sec, 31000 nsec
156. Sleeping for 0 sec, 10102000 nsec
157. Sleeping for 0 sec, 30000 nsec
160. Sleeping for 0 sec, 9523000 nsec
162. Sleeping for 2 sec, 472421187 nsec
163. Sleeping for 0 sec, 31000 nsec
166. Sleeping for 0 sec, 29999 nsec
167. Sleeping for 0 sec, 10835000 nsec
168. Sleeping for 0 sec, 31001 nsec
172. Sleeping for 0 sec, 19319000 nsec
173. Sleeping for 0 sec, 30999 nsec
174. Sleeping for 3 sec, 664365933 nsec
175. Sleeping for 0 sec, 31000 nsec
176. Sleeping for 0 sec, 30000 nsec
178. Sleeping for 0 sec, 30999 nsec
179. Sleeping for 0 sec, 9644001 nsec
180. Sleeping for 0 sec, 31000 nsec
183. Sleeping for 0 sec, 20325999 nsec
184. Sleeping for 0 sec, 31001 nsec
185. Sleeping for 0 sec, 10163000 nsec
186. Sleeping for 0 sec, 30999 nsec
187. Sleeping for 0 sec, 10193001 nsec
190. Sleeping for 0 sec, 19747000 nsec
191. Sleeping for 0 sec, 30999 nsec
192. Sleeping for 1 sec, 215690342 nsec
193. Sleeping for 0 sec, 31000 nsec
198. Sleeping for 0 sec, 10132000 nsec
201. Sleeping for 0 sec, 31000 nsec
202. Sleeping for 0 sec, 29939999 nsec
203. Sleeping for 0 sec, 31001 nsec
204. Sleeping for 1 sec, 257360843 nsec
205. Sleeping for 0 sec, 61000 nsec
206. Sleeping for 0 sec, 30999 nsec
209. Sleeping for 0 sec, 30001 nsec
210. Sleeping for 0 sec, 10011000 nsec
211. Sleeping for 0 sec, 31000 nsec
213. Sleeping for 0 sec, 20051000 nsec
214. Sleeping for 0 sec, 31000 nsec
215. Sleeping for 1 sec, 185380855 nsec
216. Sleeping for 0 sec, 29999 nsec
217. Sleeping for 0 sec, 31001 nsec
220. Sleeping for 0 sec, 10102000 nsec
224. Sleeping for 0 sec, 40226000 nsec
225. Sleeping for 0 sec, 29999 nsec
226. Sleeping for 1 sec, 369194494 nsec
227. Sleeping for 0 sec, 31001 nsec
231. Sleeping for 0 sec, 30000 nsec
232. Sleeping for 0 sec, 9767000 nsec
233. Sleeping for 0 sec, 30000 nsec
235. Sleeping for 0 sec, 29971000 nsec
236. Sleeping for 0 sec, 31000 nsec
237. Sleeping for 1 sec, 209890952 nsec
238. Sleeping for 0 sec, 31001 nsec
241. Sleeping for 0 sec, 30000 nsec
242. Sleeping for 0 sec, 10103000 nsec
244. Sleeping for 0 sec, 30000 nsec
246. Sleeping for 0 sec, 50328000 nsec
247. Sleeping for 0 sec, 31000 nsec
248. Sleeping for 1 sec, 336987834 nsec
249. Sleeping for 0 sec, 31000 nsec
250. Sleeping for 0 sec, 30000 nsec
253. Sleeping for 0 sec, 10163999 nsec
254. Sleeping for 0 sec, 30001 nsec
257. Sleeping for 0 sec, 51000000 nsec
258. Sleeping for 0 sec, 30000 nsec
260. Sleeping for 0 sec, 19654999 nsec
261. Sleeping for 0 sec, 31001 nsec
262. Sleeping for 1 sec, 115639748 nsec
263. Sleeping for 0 sec, 31000 nsec
264. Sleeping for 0 sec, 30000 nsec
268. Sleeping for 0 sec, 10101999 nsec
269. Sleeping for 0 sec, 31001 nsec
272. Sleeping for 0 sec, 40836000 nsec
273. Sleeping for 0 sec, 31000 nsec
274. Sleeping for 0 sec, 30000 nsec
275. Sleeping for 0 sec, 9980000 nsec
277. Sleeping for 0 sec, 31000 nsec
279. Sleeping for 0 sec, 9553000 nsec
280. Sleeping for 0 sec, 30000 nsec
281. Sleeping for 0 sec, 759784883 nsec
282. Sleeping for 0 sec, 31000 nsec
287. Sleeping for 0 sec, 10133000 nsec
290. Sleeping for 0 sec, 50358000 nsec
291. Sleeping for 0 sec, 31000 nsec
292. Sleeping for 1 sec, 325230054 nsec
293. Sleeping for 0 sec, 31000 nsec
295. Sleeping for 0 sec, 30000 nsec
296. Sleeping for 0 sec, 10102999 nsec
297. Sleeping for 0 sec, 30001 nsec
299. Sleeping for 0 sec, 29940999 nsec
301. Sleeping for 1 sec, 817914570 nsec
302. Sleeping for 0 sec, 30000 nsec
304. Sleeping for 0 sec, 30999 nsec
305. Sleeping for 0 sec, 10102000 nsec
308. Sleeping for 0 sec, 19747001 nsec
309. Sleeping for 0 sec, 30000 nsec
310. Sleeping for 4 sec, 46360304 nsec
311. Sleeping for 0 sec, 60999 nsec
313. Sleeping for 0 sec, 31001 nsec
315. Sleeping for 0 sec, 30000 nsec
316. Sleeping for 0 sec, 9645000 nsec
318. Sleeping for 0 sec, 29999 nsec
319. Sleeping for 0 sec, 50573001 nsec
320. Sleeping for 0 sec, 30000 nsec
321. Sleeping for 1 sec, 128949574 nsec
322. Sleeping for 0 sec, 30000 nsec
327. Sleeping for 0 sec, 10133000 nsec
330. Sleeping for 0 sec, 40470000 nsec
332. Sleeping for 0 sec, 650720626 nsec
333. Sleeping for 0 sec, 31000 nsec
337. Sleeping for 0 sec, 10132000 nsec
338. Sleeping for 0 sec, 30999 nsec
341. Sleeping for 0 sec, 50359001 nsec
342. Sleeping for 0 sec, 29999 nsec
343. Sleeping for 1 sec, 179689905 nsec
344. Sleeping for 0 sec, 30001 nsec
346. Sleeping for 0 sec, 31000 nsec
349. Sleeping for 0 sec, 10071000 nsec
350. Sleeping for 0 sec, 30999 nsec
352. Sleeping for 0 sec, 40195001 nsec
353. Sleeping for 0 sec, 30999 nsec
354. Sleeping for 1 sec, 38957721 nsec
355. Sleeping for 0 sec, 29999 nsec
357. Sleeping for 0 sec, 31001 nsec
359. Sleeping for 0 sec, 10102000 nsec
360. Sleeping for 0 sec, 31000 nsec
364. Sleeping for 0 sec, 60857000 nsec
365. Sleeping for 0 sec, 31000 nsec
366. Sleeping for 0 sec, 419510062 nsec
367. Sleeping for 0 sec, 30001 nsec
368. Sleeping for 0 sec, 31000 nsec
371. Sleeping for 0 sec, 10133000 nsec
372. Sleeping for 0 sec, 30000 nsec
374. Sleeping for 0 sec, 9492000 nsec
376. Sleeping for 1 sec, 836747 nsec
377. Sleeping for 0 sec, 61001 nsec
378. Sleeping for 0 sec, 30000 nsec
379. Sleeping for 0 sec, 31000 nsec
382. Sleeping for 0 sec, 19624000 nsec
384. Sleeping for 1 sec, 254057529 nsec
385. Sleeping for 0 sec, 30000 nsec
387. Sleeping for 0 sec, 31001 nsec
390. Sleeping for 0 sec, 10071000 nsec
391. Sleeping for 0 sec, 31000 nsec
392. Sleeping for 0 sec, 30459000 nsec
393. Sleeping for 0 sec, 30999 nsec
394. Sleeping for 3 sec, 978495702 nsec
395. Sleeping for 0 sec, 30000 nsec
396. Sleeping for 0 sec, 31000 nsec
399. Sleeping for 0 sec, 29999 nsec
400. Sleeping for 0 sec, 10347001 nsec
401. Sleeping for 0 sec, 30000 nsec
402. Sleeping for 0 sec, 31000 nsec
403. Sleeping for 0 sec, 29269000 nsec
404. Sleeping for 0 sec, 29999 nsec
405. Sleeping for 1 sec, 174432931 nsec
406. Sleeping for 0 sec, 29999 nsec
411. Sleeping for 0 sec, 10133001 nsec
414. Sleeping for 0 sec, 29999 nsec
415. Sleeping for 0 sec, 50298000 nsec
417. Sleeping for 1 sec, 54336393 nsec
418. Sleeping for 0 sec, 31000 nsec
420. Sleeping for 0 sec, 30000 nsec
423. Sleeping for 0 sec, 10102000 nsec
426. Sleeping for 0 sec, 19778000 nsec
427. Sleeping for 0 sec, 30000 nsec
428. Sleeping for 0 sec, 836134322 nsec
429. Sleeping for 0 sec, 31000 nsec
433. Sleeping for 0 sec, 29999 nsec
434. Sleeping for 0 sec, 10072000 nsec
435. Sleeping for 0 sec, 30001 nsec
437. Sleeping for 0 sec, 30033000 nsec
438. Sleeping for 0 sec, 30000 nsec
439. Sleeping for 0 sec, 688054844 nsec
440. Sleeping for 0 sec, 31000 nsec
445. Sleeping for 0 sec, 10102000 nsec
447. Sleeping for 0 sec, 30000 nsec
448. Sleeping for 0 sec, 60918999 nsec
450. Sleeping for 1 sec, 245612866 nsec
451. Sleeping for 0 sec, 30001 nsec
454. Sleeping for 0 sec, 31000 nsec
455. Sleeping for 0 sec, 10101999 nsec
456. Sleeping for 0 sec, 31001 nsec
457. Sleeping for 0 sec, 30611999 nsec
458. Sleeping for 0 sec, 30000 nsec
459. Sleeping for 0 sec, 19625000 nsec
461. Sleeping for 2 sec, 681631505 nsec
462. Sleeping for 0 sec, 31001 nsec
465. Sleeping for 0 sec, 30000 nsec
467. Sleeping for 0 sec, 10133000 nsec
470. Sleeping for 0 sec, 30999 nsec
471. Sleeping for 0 sec, 40134000 nsec
473. Sleeping for 1 sec, 63246560 nsec
474. Sleeping for 0 sec, 30999 nsec
477. Sleeping for 0 sec, 30001 nsec
478. Sleeping for 0 sec, 10072000 nsec
479. Sleeping for 0 sec, 31000 nsec
481. Sleeping for 0 sec, 20113000 nsec
482. Sleeping for 0 sec, 30000 nsec
483. Sleeping for 1 sec, 589630523 nsec
484. Sleeping for 0 sec, 31000 nsec
486. Sleeping for 0 sec, 30000 nsec
488. Sleeping for 0 sec, 9523000 nsec
490. Sleeping for 1 sec, 360338877 nsec
491. Sleeping for 0 sec, 30001 nsec
492. Sleeping for 0 sec, 31000 nsec
496. Sleeping for 0 sec, 10101999 nsec
498. Sleeping for 0 sec, 31001 nsec
499. Sleeping for 0 sec, 40134000 nsec
501. Sleeping for 2 sec, 723112306 nsec
502. Sleeping for 0 sec, 31001 nsec
505. Sleeping for 0 sec, 30000 nsec
507. Sleeping for 0 sec, 10041000 nsec
508. Sleeping for 0 sec, 31000 nsec
510. Sleeping for 0 sec, 60583000 nsec
511. Sleeping for 0 sec, 30000 nsec
512. Sleeping for 1 sec, 354391965 nsec
513. Sleeping for 0 sec, 31001 nsec
517. Sleeping for 0 sec, 30000 nsec
518. Sleeping for 0 sec, 10103000 nsec
519. Sleeping for 0 sec, 30000 nsec
520. Sleeping for 0 sec, 40134000 nsec
521. Sleeping for 0 sec, 30999 nsec
522. Sleeping for 1 sec, 485694136 nsec
523. Sleeping for 0 sec, 30001 nsec
526. Sleeping for 0 sec, 31000 nsec
528. Sleeping for 0 sec, 10101999 nsec
529. Sleeping for 0 sec, 31001 nsec
530. Sleeping for 0 sec, 40134000 nsec
531. Sleeping for 0 sec, 30000 nsec
532. Sleeping for 1 sec, 8312504 nsec
533. Sleeping for 0 sec, 30000 nsec
538. Sleeping for 0 sec, 10102001 nsec
541. Sleeping for 0 sec, 40226000 nsec
542. Sleeping for 0 sec, 30999 nsec
543. Sleeping for 5 sec, 261924898 nsec
544. Sleeping for 0 sec, 31001 nsec
545. Sleeping for 0 sec, 30000 nsec
548. Sleeping for 0 sec, 31000 nsec
549. Sleeping for 0 sec, 10255000 nsec
550. Sleeping for 0 sec, 30000 nsec
552. Sleeping for 0 sec, 29971000 nsec
553. Sleeping for 0 sec, 30999 nsec
554. Sleeping for 0 sec, 30245000 nsec
555. Sleeping for 0 sec, 31001 nsec
556. Sleeping for 1 sec, 638680313 nsec
557. Sleeping for 0 sec, 31000 nsec
561. Sleeping for 0 sec, 10132999 nsec
564. Sleeping for 0 sec, 30245000 nsec
565. Sleeping for 0 sec, 31001 nsec
566. Sleeping for 2 sec, 157841368 nsec
567. Sleeping for 0 sec, 31000 nsec
572. Sleeping for 0 sec, 10101999 nsec
573. Sleeping for 0 sec, 30000 nsec
575. Sleeping for 0 sec, 40135001 nsec
576. Sleeping for 0 sec, 30000 nsec
577. Sleeping for 3 sec, 223281719 nsec
578. Sleeping for 0 sec, 61001 nsec
580. Sleeping for 0 sec, 31000 nsec
582. Sleeping for 0 sec, 9736000 nsec
583. Sleeping for 0 sec, 30000 nsec
586. Sleeping for 0 sec, 10163000 nsec
588. Sleeping for 0 sec, 31000 nsec
589. Sleeping for 0 sec, 10224000 nsec
591. Sleeping for 0 sec, 30999 nsec
592. Sleeping for 0 sec, 10072000 nsec
593. Sleeping for 0 sec, 30001 nsec
596. Sleeping for 0 sec, 10377000 nsec
597. Sleeping for 0 sec, 31000 nsec
599. Sleeping for 0 sec, 9339000 nsec
600. Sleeping for 0 sec, 30000 nsec
601. Sleeping for 4 sec, 138032681 nsec
602. Sleeping for 0 sec, 61000 nsec
604. Sleeping for 0 sec, 31000 nsec
607. Sleeping for 0 sec, 9950000 nsec
608. Sleeping for 0 sec, 30000 nsec
610. Sleeping for 0 sec, 29727000 nsec
611. Sleeping for 0 sec, 29999 nsec
612. Sleeping for 3 sec, 77320884 nsec
613. Sleeping for 0 sec, 30000 nsec
615. Sleeping for 0 sec, 31001 nsec
618. Sleeping for 0 sec, 10102000 nsec
620. Sleeping for 0 sec, 29999 nsec
621. Sleeping for 0 sec, 40104001 nsec
623. Sleeping for 1 sec, 935781242 nsec
624. Sleeping for 0 sec, 30000 nsec
628. Sleeping for 0 sec, 30490000 nsec
629. Sleeping for 0 sec, 29999 nsec
630. Sleeping for 3 sec, 410503295 nsec
631. Sleeping for 0 sec, 61000 nsec
634. Sleeping for 0 sec, 30000 nsec
636. Sleeping for 0 sec, 9797000 nsec
637. Sleeping for 0 sec, 31000 nsec
639. Sleeping for 0 sec, 29999 nsec
640. Sleeping for 0 sec, 30429001 nsec
641. Sleeping for 0 sec, 31000 nsec
642. Sleeping for 0 sec, 30153999 nsec
643. Sleeping for 0 sec, 30000 nsec
644. Sleeping for 0 sec, 855459767 nsec
645. Sleeping for 0 sec, 31000 nsec
650. Sleeping for 0 sec, 10102000 nsec
651. Sleeping for 0 sec, 30000 nsec
653. Sleeping for 0 sec, 50327999 nsec
655. Sleeping for 1 sec, 87518981 nsec
656. Sleeping for 0 sec, 31001 nsec
658. Sleeping for 0 sec, 30000 nsec
661. Sleeping for 0 sec, 10072000 nsec
662. Sleeping for 0 sec, 29999 nsec
664. Sleeping for 0 sec, 9584001 nsec
665. Sleeping for 0 sec, 30000 nsec
666. Sleeping for 0 sec, 733974210 nsec
667. Sleeping for 0 sec, 29999 nsec
669. Sleeping for 0 sec, 31001 nsec
672. Sleeping for 0 sec, 10071000 nsec
673. Sleeping for 0 sec, 31000 nsec
676. Sleeping for 0 sec, 50389000 nsec
677. Sleeping for 0 sec, 31000 nsec
678. Sleeping for 1 sec, 273957517 nsec
679. Sleeping for 0 sec, 31000 nsec
683. Sleeping for 0 sec, 30000 nsec
684. Sleeping for 0 sec, 10102000 nsec
685. Sleeping for 0 sec, 31000 nsec
687. Sleeping for 0 sec, 29971000 nsec
688. Sleeping for 0 sec, 30000 nsec
689. Sleeping for 0 sec, 887039389 nsec
690. Sleeping for 0 sec, 30000 nsec
691. Sleeping for 0 sec, 30999 nsec
694. Sleeping for 0 sec, 10102001 nsec
695. Sleeping for 0 sec, 31000 nsec
698. Sleeping for 0 sec, 60522000 nsec
699. Sleeping for 0 sec, 30000 nsec
700. Sleeping for 1 sec, 207740749 nsec
701. Sleeping for 0 sec, 31001 nsec
702. Sleeping for 0 sec, 30000 nsec
705. Sleeping for 0 sec, 10072000 nsec
706. Sleeping for 0 sec, 29999 nsec
708. Sleeping for 0 sec, 40196001 nsec
709. Sleeping for 0 sec, 29999 nsec
710. Sleeping for 1 sec, 152141945 nsec
711. Sleeping for 0 sec, 30000 nsec
716. Sleeping for 0 sec, 10133001 nsec
719. Sleeping for 0 sec, 29999 nsec
720. Sleeping for 0 sec, 60827001 nsec
721. Sleeping for 0 sec, 31000 nsec
722. Sleeping for 4 sec, 751482587 nsec
723. Sleeping for 0 sec, 31001 nsec
724. Sleeping for 0 sec, 30000 nsec
726. Sleeping for 0 sec, 31000 nsec
728. Sleeping for 0 sec, 9858000 nsec
730. Sleeping for 0 sec, 30000 nsec
731. Sleeping for 0 sec, 19533000 nsec
733. Sleeping for 3 sec, 582077310 nsec
734. Sleeping for 0 sec, 31000 nsec
738. Sleeping for 0 sec, 30000 nsec
739. Sleeping for 0 sec, 60431000 nsec
740. Sleeping for 0 sec, 30000 nsec
741. Sleeping for 1 sec, 16465100 nsec
742. Sleeping for 0 sec, 30001 nsec
746. Sleeping for 0 sec, 31000 nsec
747. Sleeping for 0 sec, 10072000 nsec
748. Sleeping for 0 sec, 29999 nsec
750. Sleeping for 0 sec, 9584001 nsec
751. Sleeping for 0 sec, 30000 nsec
752. Sleeping for 12 sec, 330057746 nsec
753. Sleeping for 0 sec, 30000 nsec
754. Sleeping for 0 sec, 31000 nsec
756. Sleeping for 0 sec, 30000 nsec
758. Sleeping for 0 sec, 10041000 nsec
759. Sleeping for 0 sec, 31000 nsec
760. Sleeping for 0 sec, 30000 nsec
761. Sleeping for 0 sec, 29971000 nsec
762. Sleeping for 0 sec, 31000 nsec
763. Sleeping for 1 sec, 390850935 nsec
764. Sleeping for 0 sec, 30000 nsec
767. Sleeping for 0 sec, 31000 nsec
768. Sleeping for 0 sec, 10102000 nsec
771. Sleeping for 0 sec, 30398000 nsec
772. Sleeping for 0 sec, 31000 nsec
773. Sleeping for 0 sec, 577441305 nsec
774. Sleeping for 0 sec, 30000 nsec
778. Sleeping for 0 sec, 31000 nsec
779. Sleeping for 0 sec, 19655000 nsec
781. Sleeping for 1 sec, 635542252 nsec
782. Sleeping for 0 sec, 31000 nsec
785. Sleeping for 0 sec, 30000 nsec
787. Sleeping for 0 sec, 10072000 nsec
789. Sleeping for 0 sec, 31000 nsec
790. Sleeping for 0 sec, 19777000 nsec
791. Sleeping for 0 sec, 30000 nsec
792. Sleeping for 2 sec, 618809984 nsec
793. Sleeping for 0 sec, 31000 nsec
794. Sleeping for 0 sec, 30000 nsec
797. Sleeping for 0 sec, 10103000 nsec
799. Sleeping for 0 sec, 30000 nsec
801. Sleeping for 0 sec, 40775000 nsec
802. Sleeping for 0 sec, 31000 nsec
804. Sleeping for 0 sec, 10072000 nsec
805. Sleeping for 0 sec, 30000 nsec
807. Sleeping for 0 sec, 10164000 nsec
809. Sleeping for 0 sec, 30000 nsec
810. Sleeping for 0 sec, 9492000 nsec
811. Sleeping for 0 sec, 30000 nsec
812. Sleeping for 1 sec, 245764807 nsec
813. Sleeping for 0 sec, 61000 nsec
814. Sleeping for 0 sec, 31000 nsec
816. Sleeping for 0 sec, 30000 nsec
817. Sleeping for 0 sec, 10041000 nsec
818. Sleeping for 0 sec, 31000 nsec
821. Sleeping for 0 sec, 50450000 nsec
822. Sleeping for 0 sec, 31000 nsec
823. Sleeping for 1 sec, 404857049 nsec
824. Sleeping for 0 sec, 30000 nsec
827. Sleeping for 0 sec, 10133000 nsec
830. Sleeping for 0 sec, 31000 nsec
831. Sleeping for 0 sec, 29910000 nsec
833. Sleeping for 0 sec, 788474572 nsec
834. Sleeping for 0 sec, 31000 nsec
835. Sleeping for 0 sec, 30000 nsec
839. Sleeping for 0 sec, 10102000 nsec
842. Sleeping for 0 sec, 31000 nsec
843. Sleeping for 0 sec, 20326000 nsec
844. Sleeping for 0 sec, 31000 nsec
845. Sleeping for 0 sec, 10133000 nsec
846. Sleeping for 0 sec, 30000 nsec
848. Sleeping for 0 sec, 10255000 nsec
849. Sleeping for 0 sec, 31000 nsec
850. Sleeping for 0 sec, 30000 nsec
851. Sleeping for 0 sec, 19991000 nsec
852. Sleeping for 0 sec, 31000 nsec
853. Sleeping for 1 sec, 512479290 nsec
854. Sleeping for 0 sec, 30000 nsec
855. Sleeping for 0 sec, 31000 nsec
859. Sleeping for 0 sec, 10072000 nsec
863. Sleeping for 0 sec, 50389000 nsec
864. Sleeping for 0 sec, 30000 nsec
865. Sleeping for 0 sec, 990463949 nsec
866. Sleeping for 0 sec, 31000 nsec
870. Sleeping for 0 sec, 30000 nsec
871. Sleeping for 0 sec, 10072000 nsec
872. Sleeping for 0 sec, 30000 nsec
874. Sleeping for 0 sec, 50390000 nsec
876. Sleeping for 1 sec, 396910256 nsec
877. Sleeping for 0 sec, 30000 nsec
879. Sleeping for 0 sec, 31000 nsec
882. Sleeping for 0 sec, 10133000 nsec
886. Sleeping for 0 sec, 70715000 nsec
887. Sleeping for 0 sec, 31000 nsec
888. Sleeping for 1 sec, 201617642 nsec
889. Sleeping for 0 sec, 31000 nsec
891. Sleeping for 0 sec, 30000 nsec
894. Sleeping for 0 sec, 10103000 nsec
895. Sleeping for 0 sec, 30000 nsec
898. Sleeping for 0 sec, 50328000 nsec
899. Sleeping for 0 sec, 31000 nsec
900. Sleeping for 3 sec, 418292927 nsec
901. Sleeping for 0 sec, 31000 nsec
902. Sleeping for 0 sec, 30000 nsec
905. Sleeping for 0 sec, 31000 nsec
906. Sleeping for 0 sec, 9644000 nsec
907. Sleeping for 0 sec, 31000 nsec
909. Sleeping for 0 sec, 30551000 nsec
910. Sleeping for 0 sec, 30000 nsec
912. Sleeping for 0 sec, 10102000 nsec
913. Sleeping for 0 sec, 31000 nsec
915. Sleeping for 0 sec, 10224000 nsec
916. Sleeping for 0 sec, 31000 nsec
917. Sleeping for 0 sec, 10102000 nsec
918. Sleeping for 0 sec, 31000 nsec
919. Sleeping for 0 sec, 10163000 nsec
921. Sleeping for 0 sec, 29971000 nsec
923. Sleeping for 1 sec, 277373164 nsec
924. Sleeping for 0 sec, 31000 nsec
925. Sleeping for 0 sec, 30000 nsec
928. Sleeping for 0 sec, 10072000 nsec
929. Sleeping for 0 sec, 31000 nsec
932. Sleeping for 0 sec, 60888000 nsec
933. Sleeping for 0 sec, 30000 nsec
934. Sleeping for 0 sec, 943250168 nsec
935. Sleeping for 0 sec, 31000 nsec
939. Sleeping for 0 sec, 30000 nsec
940. Sleeping for 0 sec, 10103000 nsec
943. Sleeping for 0 sec, 50664000 nsec
944. Sleeping for 0 sec, 30000 nsec
945. Sleeping for 1 sec, 473372290 nsec
946. Sleeping for 0 sec, 30000 nsec
951. Sleeping for 0 sec, 10133000 nsec
955. Sleeping for 0 sec, 19777000 nsec
956. Sleeping for 0 sec, 31000 nsec
957. Sleeping for 3 sec, 371132826 nsec
958. Sleeping for 0 sec, 30000 nsec
963. Sleeping for 0 sec, 10072000 nsec
966. Sleeping for 0 sec, 31000 nsec
967. Sleeping for 0 sec, 40195000 nsec
968. Sleeping for 0 sec, 30000 nsec
969. Sleeping for 4 sec, 286875451 nsec
970. Sleeping for 0 sec, 61000 nsec
972. Sleeping for 0 sec, 30000 nsec
973. Sleeping for 0 sec, 9675000 nsec
974. Sleeping for 0 sec, 31000 nsec
976. Sleeping for 0 sec, 70715000 nsec
977. Sleeping for 0 sec, 31000 nsec
978. Sleeping for 4 sec, 400136752 nsec
980. Sleeping for 0 sec, 31000 nsec
984. Sleeping for 0 sec, 10224000 nsec
985. Sleeping for 0 sec, 31000 nsec
986. Sleeping for 0 sec, 80818000 nsec
987. Sleeping for 0 sec, 30000 nsec
988. Sleeping for 1 sec, 380209387 nsec
990. Sleeping for 0 sec, 30000 nsec
994. Sleeping for 0 sec, 10133000 nsec
995. Sleeping for 0 sec, 30000 nsec
997. Sleeping for 0 sec, 40745000 nsec
998. Sleeping for 0 sec, 31000 nsec
1000. Sleeping for 0 sec, 30489000 nsec
1001. Sleeping for 0 sec, 31000 nsec
1002. Sleeping for 0 sec, 50359000 nsec
1003. Sleeping for 0 sec, 30000 nsec
1004. Sleeping for 3 sec, 802992114 nsec
1005. Sleeping for 0 sec, 61000 nsec
1007. Sleeping for 0 sec, 30000 nsec
1009. Sleeping for 0 sec, 9706000 nsec
1011. Sleeping for 0 sec, 30000 nsec
1012. Sleeping for 0 sec, 30490000 nsec
1014. Sleeping for 0 sec, 31000 nsec
1015. Sleeping for 0 sec, 9888000 nsec
1016. Sleeping for 0 sec, 31000 nsec
1017. Sleeping for 2 sec, 300963626 nsec
1018. Sleeping for 0 sec, 61000 nsec
1019. Sleeping for 0 sec, 61000 nsec
1022. Sleeping for 0 sec, 9980000 nsec
1023. Sleeping for 0 sec, 31000 nsec
1026. Sleeping for 0 sec, 40745000 nsec
1027. Sleeping for 0 sec, 30000 nsec
1029. Sleeping for 0 sec, 10194000 nsec
1032. Sleeping for 0 sec, 30000 nsec
1033. Sleeping for 0 sec, 10194000 nsec
1036. Sleeping for 0 sec, 31000 nsec
1037. Sleeping for 0 sec, 10102000 nsec
1038. Sleeping for 0 sec, 31000 nsec
1040. Sleeping for 0 sec, 10163000 nsec
1042. Sleeping for 0 sec, 30000 nsec
1044. Sleeping for 0 sec, 10164000 nsec
1047. Sleeping for 0 sec, 10193000 nsec
1051. Sleeping for 0 sec, 10194000 nsec
1052. Sleeping for 0 sec, 31000 nsec
1054. Sleeping for 0 sec, 10255000 nsec
1056. Sleeping for 0 sec, 30000 nsec
1057. Sleeping for 0 sec, 10102000 nsec
1061. Sleeping for 0 sec, 10042000 nsec
1062. Sleeping for 0 sec, 30000 nsec
1064. Sleeping for 0 sec, 31000 nsec
1065. Sleeping for 0 sec, 10224000 nsec
1069. Sleeping for 0 sec, 9553000 nsec
1070. Sleeping for 0 sec, 30000 nsec
