App - ConnectBot
Scenario - ssh_shell
Level - 1sec
Measure - MinJumpCost
Test Statistic - Mann-Whitney U Test
Effect Size Measure - Simple Difference:Kerby
Alpha Level - 0.05


"Before.Version","After.Version","Diff","Direction","P.Value","Simple.Diff","Within.Diffs.Mean","Within.Diffs.SD","Between.Diffs.Mean","Between.Diffs.SD","Runtime"
"1.8.3","1.8.4",FALSE,NA,0,0.342,1477.089,2103.149,12515.525,21555.507,110.452
"1.8.4","1.8.5",FALSE,NA,1,-0.151,21912.605,30086.6,16314.352,30337.141,107.009
"1.8.5","1.8.6",FALSE,NA,0.261,0.022,1847.745,2717.817,1810.733,2390.877,130.611
