"Before.Trace.ID1","Before.Trace.ID2","Difference","Runtime"
1,2,0.615847223425487,0.0019999999931315
1,3,0.631165017855533,0.00100000000384171
1,4,0.634914068806251,0.0769999999902211
1,5,0.341741055666728,0.00200000000768341
1,6,0.516211651262815,0.0019999999931315
1,7,0.495967741132226,0.00200000000768341
1,8,0.60540922971401,0.0019999999931315
1,9,0.712578831953788,0.00200000000768341
1,10,0.210160989698772,0.0019999999931315
1,11,0.58264848850337,0.00100000000384171
1,12,0.67608509113975,0.0019999999931315
1,13,0.608630254023299,0.00200000000768341
1,14,0.689355105449237,0.0019999999931315
1,15,0.710630505913734,0.00200000000768341
1,16,0.37716116829526,0.0019999999931315
1,17,0.675621257588398,0.00100000000384171
1,18,0.168433787746519,0.0019999999931315
1,19,0.185781711162184,0.00200000000768341
1,20,0.743771394792534,0.0019999999931315
1,21,0.111734025251216,0.00200000000768341
1,22,0.683035364925893,0.0019999999931315
1,23,0.579136787705815,0.00100000000384171
1,24,0.66330094049976,0.0019999999931315
1,25,0.638897785484709,0.00200000000768341
1,26,0.72614736719635,0.0019999999931315
1,27,0.885132395999284,0.00200000000768341
1,28,0.436138905840245,0.0019999999931315
1,29,0.270923454583814,0.00200000000768341
1,30,0.479704904165654,0.0019999999931315
2,3,0.0229881669591176,0.00200000000768341
2,4,0.0577638805162005,0.0019999999931315
2,5,0.293340444469277,0.00100000000384171
2,6,0.11830438445084,0.0019999999931315
2,7,0.163361070174559,0.00200000000768341
2,8,0.01424412754444,0.0019999999931315
2,9,0.114911516444105,0.00200000000768341
2,10,0.418523747597874,0.0019999999931315
2,11,0.0678928377801062,0.00200000000768341
2,12,0.0634801985200596,0.0019999999931315
2,13,0.0539454217991097,0.00200000000768341
2,14,0.0770433029787584,0.0019999999931315
2,15,0.113037635685999,0.00200000000768341
2,16,0.258176675203647,0.00099999998928979
2,17,0.0646097451519871,0.00100000000384171
2,18,0.772530616761901,0.0019999999931315
2,19,0.435645041843169,0.00200000000768341
2,20,0.144966869200301,0.0019999999931315
2,21,0.610689613119052,0.00200000000768341
2,22,0.077202323064434,0.0019999999931315
2,23,0.0477503907026023,0.00200000000768341
2,24,0.0740456362465309,0.0019999999931315
2,25,0.0572840757805818,0.00200000000768341
2,26,0.127836331796145,0.0019999999931315
2,27,1.35736510699491,0.00200000000768341
2,28,0.194797966265609,0.0019999999931315
2,29,0.356831088433166,0.00200000000768341
2,30,0.17903164731616,0.0019999999931315
3,4,0.0514546568145584,0.0019999999931315
3,5,0.305787813985486,0.00200000000768341
3,6,0.129271254989589,0.0019999999931315
3,7,0.170335931891049,0.00200000000768341
3,8,0.027260854487264,0.0019999999931315
3,9,0.095716268538734,0.00100000000384171
3,10,0.434486743272193,0.00200000000768341
3,11,0.0721684203742958,0.0019999999931315
3,12,0.0511453777892123,0.0019999999931315
3,13,0.0532481296272317,0.00200000000768341
3,14,0.0607438845285864,0.0019999999931315
3,15,0.101657095938832,0.00200000000768341
3,16,0.270051932947187,0.0019999999931315
3,17,0.049342024901976,0.00200000000768341
3,18,0.78726607658848,0.00100000000384171
3,19,0.451398465563548,0.00100000000384171
3,20,0.126745478524957,0.00200000000768341
3,21,0.624967337850211,0.0019999999931315
3,22,0.0653119134518634,0.0019999999931315
3,23,0.059151863323624,0.00200000000768341
3,24,0.0622212364886487,0.0019999999931315
3,25,0.0483296725523802,0.00200000000768341
3,26,0.109466448826994,0.0019999999931315
3,27,1.3730588043955,0.00200000000768341
3,28,0.208221666412202,0.0019999999931315
3,29,0.371996507862324,0.00200000000768341
3,30,0.187389103806224,0.0019999999931315
4,5,0.314555789411386,0.00200000000768341
4,6,0.137837517381147,0.0019999999931315
4,7,0.185055947999729,0.00100000000384171
4,8,0.0610798107284706,0.0019999999931315
4,9,0.0943746132867995,0.00200000000768341
4,10,0.439981890570318,0.00099999998928979
4,11,0.0829682174044998,0.00100000000384171
4,12,0.0676647680305746,0.0019999999931315
4,13,0.0633542078096147,0.00200000000768341
4,14,0.0753070196797966,0.0019999999931315
4,15,0.0952482877702344,0.00200000000768341
4,16,0.279548819188418,0.0019999999931315
4,17,0.062823079302044,0.00200000000768341
4,18,0.789811914262768,0.0019999999931315
4,19,0.456152612308704,0.00200000000768341
4,20,0.122874893236921,0.00099999998928979
4,21,0.629236738637247,0.00999999999476131
4,22,0.0705711152719868,0.00200000000768341
4,23,0.0866339133663971,0.0019999999931315
4,24,0.0605485301942665,0.00100000000384171
4,25,0.0524196015919293,0.00200000000768341
4,26,0.106739691896598,0.0019999999931315
4,27,1.37857669349906,0.0029999999969732
4,28,0.215453479151185,0.00200000000768341
4,29,0.378543597132705,0.0019999999931315
4,30,0.20166400718383,0.00200000000768341
5,6,0.191065454599819,0.00099999998928979
5,7,0.159674976387197,0.00200000000768341
5,8,0.28187238020398,0.0019999999931315
5,9,0.388014377805367,0.00200000000768341
5,10,0.148346853679824,0.0019999999931315
5,11,0.256375519635426,0.00100000000384171
5,12,0.354855040754341,0.00200000000768341
5,13,0.283749688593432,0.0019999999931315
5,14,0.366010296954851,0.0019999999931315
5,15,0.391291821792627,0.00200000000768341
5,16,0.0443471879237076,0.00100000000384171
5,17,0.353350689302555,0.00100000000384171
5,18,0.503037937075706,0.00200000000768341
5,19,0.165616067907036,0.0019999999931315
5,20,0.421252203912218,0.00200000000768341
5,21,0.350677626265653,0.0019999999931315
5,22,0.365242910642225,0.00100000000384171
5,23,0.250639396427234,0.00100000000384171
5,24,0.341907122144759,0.00200000000768341
5,25,0.315611854557854,0.0019999999931315
5,26,0.402895184227019,0.00200000000768341
5,27,1.14969339499261,0.0019999999931315
5,28,0.112675617972436,0.00200000000768341
5,29,0.092341109431596,0.0019999999931315
5,30,0.14387340825955,0.00200000000768341
6,7,0.092172458098185,0.00099999998928979
6,8,0.10865524168334,0.00100000000384171
6,9,0.210932347002377,0.0019999999931315
6,10,0.319578693532389,0.00200000000768341
6,11,0.0683151782628535,0.0019999999931315
6,12,0.175773475099794,0.00200000000768341
6,13,0.0976203280442297,0.0019999999931315
6,14,0.18784522678683,0.00200000000768341
6,15,0.213007024481968,0.00099999998928979
6,16,0.159014928970138,0.00100000000384171
6,17,0.174459912920003,0.0019999999931315
6,18,0.674011313957588,0.00200000000768341
6,19,0.336631312154993,0.0019999999931315
6,20,0.243421176254984,0.00200000000768341
6,21,0.514626735826268,0.0019999999931315
6,22,0.185407357021273,0.00200000000768341
6,23,0.0811383444741681,0.0019999999931315
6,24,0.154243489622187,0.00100000000384171
6,25,0.128647463448658,0.0019999999931315
6,26,0.225567237285186,0.00200000000768341
6,27,1.2921747011022,0.0029999999969732
6,28,0.0999597244069854,0.00100000000384171
6,29,0.259165344140872,0.00100000000384171
6,30,0.101558393398837,0.00200000000768341
7,8,0.151266177716436,0.0019999999931315
7,9,0.245195615505445,0.00200000000768341
7,10,0.298994836214244,0.0019999999931315
7,11,0.127778535137097,0.00200000000768341
7,12,0.221342034365882,0.00099999998928979
7,13,0.14937640130866,0.00200000000768341
7,14,0.227042579427187,0.0019999999931315
7,15,0.256317878990974,0.00200000000768341
7,16,0.119356518497934,0.0019999999931315
7,17,0.218194023613129,0.00200000000768341
7,18,0.655324832114381,0.00099999998928979
7,19,0.317629831884079,0.00200000000768341
7,20,0.278334845694591,0.0019999999931315
7,21,0.492723624002247,0.00200000000768341
7,22,0.233276156316065,0.0019999999931315
7,23,0.119761673167357,0.00200000000768341
7,24,0.207674327967986,0.0019999999931315
7,25,0.181438902633119,0.00100000000384171
7,26,0.259685751014692,0.0019999999931315
7,27,1.26690089941776,0.00300000001152512
7,28,0.107849898774989,0.0019999999931315
7,29,0.230942282434295,0.00100000000384171
7,30,0.0201499751913749,0.0019999999931315
8,9,0.121013668587138,0.00200000000768341
8,10,0.408711397311259,0.0019999999931315
8,11,0.0613317742595863,0.00200000000768341
8,12,0.0739303137221267,0.0019999999931315
8,13,0.0516131052339762,0.00200000000768341
8,14,0.0858433750849343,0.00099999998928979
8,15,0.123104453807297,0.00100000000384171
8,16,0.246354427518186,0.0019999999931315
8,17,0.0738378271920655,0.00200000000768341
8,18,0.76182973502518,0.0019999999931315
8,19,0.425591817445029,0.00200000000768341
8,20,0.152037487936624,0.0019999999931315
8,21,0.599831464784584,0.00200000000768341
8,22,0.086863185468894,0.0019999999931315
8,23,0.0377350912606628,0.00100000000384171
8,24,0.0808533145291608,0.00099999998928979
8,25,0.0613564959741098,0.0100000000093132
8,26,0.134526647250829,0.0019999999931315
8,27,1.3488635617815,0.00200000000768341
8,28,0.184897188923916,0.0019999999931315
8,29,0.346419762301142,0.00200000000768341
8,30,0.167290342292952,0.0019999999931315
9,10,0.518033583859534,0.00200000000768341
9,11,0.146346195967656,0.0019999999931315
9,12,0.0705245855907024,0.00200000000768341
9,13,0.118540079745992,0.00099999998928979
9,14,0.0536492200935402,0.00200000000768341
9,15,0.0539444339045972,0.0019999999931315
9,16,0.350888574441763,0.00200000000768341
9,17,0.0600138497269702,0.0019999999931315
9,18,0.866330323106874,0.00100000000384171
9,19,0.534143617215305,0.0019999999931315
9,20,0.0340300340429527,0.00200000000768341
9,21,0.701939325512865,0.0019999999931315
9,22,0.0615822288459134,0.00200000000768341
9,23,0.151573348900363,0.0019999999931315
9,24,0.0737355984641311,0.00100000000384171
9,25,0.0900133972842071,0.0019999999931315
9,26,0.0164701238670526,0.00200000000768341
9,27,1.44204127078309,0.0019999999931315
9,28,0.290790057988727,0.00100000000384171
9,29,0.454243209438382,0.0019999999931315
9,30,0.263753447147149,0.00200000000768341
10,11,0.385851860507229,0.0019999999931315
10,12,0.480543287422328,0.00200000000768341
10,13,0.411865438270206,0.00099999998928979
10,14,0.493912498123779,0.00200000000768341
10,15,0.513317762034217,0.0019999999931315
10,16,0.183156665302162,0.00200000000768341
10,17,0.480138579602625,0.0019999999931315
10,18,0.377665126294487,0.00100000000384171
10,19,0.0298679238372404,0.00200000000768341
10,20,0.550239893649886,0.0019999999931315
10,21,0.239062358021206,0.00200000000768341
10,22,0.489318284177539,0.0019999999931315
10,23,0.380329573919154,0.00100000000384171
10,24,0.468142732221344,0.00100000000384171
10,25,0.442744103699632,0.00200000000768341
10,26,0.532005059877842,0.0019999999931315
10,27,1.03600921722516,0.00200000000768341
10,28,0.235691476983026,0.0019999999931315
10,29,0.074574973669877,0.00200000000768341
10,30,0.28173486321863,0.0019999999931315
11,12,0.11556392702632,0.00200000000768341
11,13,0.0308491943198969,0.0019999999931315
11,14,0.12520768690535,0.00100000000384171
11,15,0.151348167149501,0.00100000000384171
11,16,0.22136372479946,0.00200000000768341
11,17,0.113186312975939,0.0019999999931315
11,18,0.739561505544882,0.00200000000768341
11,19,0.402964005862493,0.0019999999931315
11,20,0.178238556958661,0.00200000000768341
11,21,0.577780366857246,0.0019999999931315
11,22,0.124753730819474,0.00100000000384171
11,23,0.0508770291072865,0.0019999999931315
11,24,0.0879734548376584,0.00200000000768341
11,25,0.0620960905143467,0.0019999999931315
11,26,0.160594150170974,0.00200000000768341
11,27,1.34477639755302,0.0019999999931315
11,28,0.162190723806095,0.00200000000768341
11,29,0.323578223382496,0.0019999999931315
11,30,0.143382413201847,0.00200000000768341
12,13,0.0913272404119156,0.0019999999931315
12,14,0.0223683259661835,0.0019999999931315
12,15,0.0700540803069615,0.00200000000768341
12,16,0.319813130076596,0.00100000000384171
12,17,0.0131068771616625,0.00100000000384171
12,18,0.830953431228375,0.00200000000768341
12,19,0.497051715189528,0.0019999999931315
12,20,0.0930841820549852,0.00200000000768341
12,21,0.66905692572247,0.0019999999931315
12,22,0.0230281512457356,0.00200000000768341
12,23,0.10792551277115,0.0019999999931315
12,24,0.0585222835340273,0.0019999999931315
12,25,0.0671813039274961,0.00200000000768341
12,26,0.0798758379425691,0.00100000000384171
12,27,1.4077948617293,0.0029999999969732
12,28,0.25475726635975,0.0019999999931315
12,29,0.419307216597346,0.00200000000768341
12,30,0.238343882084347,0.0019999999931315
13,14,0.0989795948939809,0.00100000000384171
13,15,0.123637273125177,0.00200000000768341
13,16,0.24749522982364,0.0019999999931315
13,17,0.0879830034767427,0.0019999999931315
13,18,0.765116092006108,0.00200000000768341
13,19,0.428850689564108,0.0019999999931315
13,20,0.149722482514717,0.00100000000384171
13,21,0.601999824934317,0.00100000000384171
13,22,0.0987755248604708,0.0019999999931315
13,23,0.0595330893809217,0.00200000000768341
13,24,0.0602274264067001,0.0019999999931315
13,25,0.034076850166129,0.0019999999931315
13,26,0.132037317857377,0.00200000000768341
13,27,1.36196889262845,0.00999999999476131
13,28,0.188715319058272,0.00200000000768341
13,29,0.348709561157113,0.0019999999931315
13,30,0.165818604659847,0.00100000000384171
14,15,0.065535642091375,0.00099999998928979
14,16,0.329726339739431,0.00200000000768341
14,17,0.0190427149613671,0.0019999999931315
14,18,0.844032169559873,0.00200000000768341
14,19,0.510410088001428,0.0019999999931315
14,20,0.0756263398973801,0.00200000000768341
14,21,0.68085860806217,0.0019999999931315
14,22,0.0281587293370967,0.00100000000384171
14,23,0.119041416077904,0.00100000000384171
14,24,0.0620404626248655,0.0019999999931315
14,25,0.0736891855378412,0.0019999999931315
14,26,0.0621725855592229,0.00200000000768341
14,27,1.41850017820462,0.0029999999969732
14,28,0.268055256701585,0.00100000000384171
14,29,0.431137956212425,0.0019999999931315
14,30,0.244728546630275,0.00200000000768341
15,16,0.355924853343378,0.0019999999931315
15,17,0.063661707754846,0.00200000000768341
15,18,0.86616257414598,0.00099999998928979
15,19,0.530297193270598,0.00200000000768341
15,20,0.0640940522839516,0.0019999999931315
15,21,0.703237162076765,0.00200000000768341
15,22,0.0594661465717271,0.0019999999931315
15,23,0.154822978055829,0.00100000000384171
15,24,0.0774786468116784,0.00100000000384171
15,25,0.0937454559831217,0.0019999999931315
15,26,0.0554238084610591,0.00200000000768341
15,27,1.43762726667842,0.0019999999931315
15,28,0.287593725505676,0.0019999999931315
15,29,0.452615175782218,0.00200000000768341
15,30,0.272956948703862,0.0019999999931315
16,17,0.317937375786668,0.00200000000768341
16,18,0.537437291599004,0.00100000000384171
16,19,0.200234071287293,0.0019999999931315
16,20,0.383933434311002,0.00200000000768341
16,21,0.37945238500796,0.0019999999931315
16,22,0.329968706458289,0.00200000000768341
16,23,0.215557824440067,0.0019999999931315
16,24,0.306291301273831,0.0019999999931315
16,25,0.279911056938626,0.00100000000384171
16,26,0.365438417536618,0.00200000000768341
16,27,1.17092956149877,0.0029999999969732
16,28,0.0939481253873479,0.0019999999931315
16,29,0.11704281502604,0.00100000000384171
16,30,0.103660965133601,0.00200000000768341
17,18,0.830388613784781,0.0019999999931315
17,19,0.496553763788856,0.00200000000768341
17,20,0.0852039457084807,0.0019999999931315
17,21,0.668102671273114,0.0019999999931315
17,22,0.0215631613683212,0.00200000000768341
17,23,0.107956574034733,0.0019999999931315
17,24,0.0536685703058279,0.00200000000768341
17,25,0.0625252651921471,0.00100000000384171
17,26,0.070745100759486,0.0019999999931315
17,27,1.40833647975576,0.0029999999969732
17,28,0.253332623910013,0.00200000000768341
17,29,0.418436684203062,0.0019999999931315
17,30,0.235584440267903,0.00100000000384171
18,19,0.351916725927057,0.00099999998928979
18,20,0.896519384428684,0.00200000000768341
18,21,0.194341095760096,0.0019999999931315
18,22,0.836545951246028,0.00200000000768341
18,23,0.737318783704373,0.00100000000384171
18,24,0.818056952605689,0.00100000000384171
18,25,0.79455991961214,0.00200000000768341
18,26,0.879492635824859,0.0019999999931315
18,27,0.785056925937625,0.0019999999931315
18,28,0.59702463620533,0.00200000000768341
18,29,0.43520216491475,0.0019999999931315
18,30,0.64001321366929,0.00200000000768341
19,20,0.566003431107001,0.00100000000384171
19,21,0.213353323100235,0.0019999999931315
19,22,0.505049271673965,0.00200000000768341
19,23,0.39825438582066,0.0019999999931315
19,24,0.484485165394754,0.00200000000768341
19,25,0.459429628185653,0.0019999999931315
19,26,0.547970929797844,0.00100000000384171
19,27,1.01640026019288,0.00200000000768341
19,28,0.254121218781737,0.0019999999931315
19,29,0.0916139339213091,0.00100000000384171
19,30,0.301029572924992,0.00100000000384171
20,21,0.731746168783088,0.0019999999931315
20,22,0.0805588576172947,0.00200000000768341
20,23,0.18397040939852,0.0019999999931315
20,24,0.0993409043544847,0.0019999999931315
20,25,0.119619552025411,0.00200000000768341
20,26,0.0189581836258902,0.00100000000384171
20,27,1.4659597883543,0.00200000000768341
20,28,0.323888450859716,0.0019999999931315
20,29,0.486388355863081,0.00200000000768341
20,30,0.296926372575309,0.00100000000384171
21,22,0.674307280335532,0.0019999999931315
21,23,0.576087426658062,0.00200000000768341
21,24,0.655123666590663,0.0019999999931315
21,25,0.631689337663492,0.00999999999476131
21,26,0.71463328300008,0.00200000000768341
21,27,0.889909166257952,0.0029999999969732
21,28,0.443445527255446,0.00200000000768341
21,29,0.281360575252291,0.0019999999931315
21,30,0.477930052036913,0.0019999999931315
22,23,0.122743581248882,0.00200000000768341
22,24,0.0567969828164058,0.00100000000384171
22,25,0.0710798153131872,0.0019999999931315
22,26,0.0686145738028387,0.00200000000768341
22,27,1.41074513617135,0.0029999999969732
22,28,0.264859049771497,0.0019999999931315
22,29,0.428058101274383,0.00100000000384171
22,30,0.250478635311019,0.00200000000768341
23,24,0.107190792950527,0.0019999999931315
23,25,0.0831705497900497,0.0019999999931315
23,26,0.165991156686405,0.00200000000768341
23,27,1.33310611136203,0.0019999999931315
23,28,0.155886854486578,0.00200000000768341
23,29,0.318006639705174,0.0019999999931315
23,30,0.13488880545371,0.00200000000768341
24,25,0.0269696929592835,0.0019999999931315
24,26,0.0844265952594941,0.00200000000768341
24,27,1.40679345131871,0.0019999999931315
24,28,0.243297903879351,0.00200000000768341
24,29,0.406146493516262,0.0019999999931315
24,30,0.224792748036314,0.00200000000768341
25,26,0.10285603753991,0.00099999998928979
25,27,1.38703943186736,0.00300000001152512
25,28,0.217529373158251,0.0019999999931315
25,29,0.380477640557068,0.00200000000768341
25,30,0.198331049385266,0.00099999998928979
26,27,1.45117268073551,0.0029999999969732
26,28,0.305860374496481,0.00200000000768341
26,29,0.467967092319454,0.00100000000384171
26,30,0.278188631297567,0.00100000000384171
27,28,1.22580988495561,0.0029999999969732
27,29,1.0756595882356,0.00200000000768341
27,30,1.25334120313426,0.0029999999969732
28,29,0.18225839236129,0.00200000000768341
28,30,0.101466832458054,0.00099999998928979
29,30,0.213703978244716,0.00200000000768341


"After.Trace.ID","Before.Trace.ID","Difference","Runtime"
1,1,0.597008887106728,0.0019999999931315
1,2,0.0638730280857956,0.00200000000768341
1,3,0.0626511865020759,0.0019999999931315
1,4,0.0704509062221964,0.00200000000768341
1,5,0.273181829809117,0.0019999999931315
1,6,0.0864299968157098,0.00100000000384171
1,7,0.145122988032721,0.0019999999931315
1,8,0.0580960626369004,0.00200000000768341
1,9,0.12902777298375,0.0019999999931315
1,10,0.403032005546433,0.00200000000768341
1,11,0.0254486559196815,0.0019999999931315
1,12,0.101500649319805,0.00200000000768341
1,13,0.025795952648808,0.0019999999931315
1,14,0.11022945142147,0.00200000000768341
1,15,0.138071006266241,0.00099999998928979
1,16,0.238154677811418,0.00200000000768341
1,17,0.0980839136283999,0.0019999999931315
1,18,0.751961466193658,0.00200000000768341
1,19,0.41901069796088,0.0019999999931315
1,20,0.160175001301641,0.00200000000768341
1,21,0.590100016503006,0.0019999999931315
1,22,0.107981820391246,0.00100000000384171
1,23,0.0615359196822958,0.00099999998928979
1,24,0.0714937674590628,0.00200000000768341
1,25,0.0477201125447897,0.0019999999931315
1,26,0.143120862474168,0.00200000000768341
1,27,1.35487916438079,0.0029999999969732
1,28,0.179038978388385,0.00100000000384171
1,29,0.340753672194902,0.0019999999931315
1,30,0.161902324569019,0.00200000000768341
2,1,0.552946364182238,0.0019999999931315
2,2,0.0883101730401302,0.00200000000768341
2,3,0.101020755437276,0.0019999999931315
2,4,0.110306580545065,0.00200000000768341
2,5,0.229394127390165,0.00099999998928979
2,6,0.0487498449693314,0.00100000000384171
2,7,0.112210277434536,0.0019999999931315
2,8,0.082484407419971,0.00200000000768341
2,9,0.180751779354223,0.0019999999931315
2,10,0.352637335826061,0.00200000000768341
2,11,0.0437603417253409,0.0019999999931315
2,12,0.144791478776248,0.00200000000768341
2,13,0.0655591353784824,0.00099999998928979
2,14,0.156670665257844,0.00100000000384171
2,15,0.17690200227592,0.0019999999931315
2,16,0.195354389376529,0.00200000000768341
2,17,0.143948630270618,0.0019999999931315
2,18,0.712312693005193,0.00200000000768341
2,19,0.371105111151693,0.0019999999931315
2,20,0.212457329972504,0.00100000000384171
2,21,0.551074110163136,0.0089999999909196
2,22,0.154850850370962,0.00200000000768341
2,23,0.0603794432948501,0.0019999999931315
2,24,0.121606709889574,0.00200000000768341
2,25,0.0961166660564233,0.00099999998928979
2,26,0.194442628507524,0.00100000000384171
2,27,1.31797475040643,0.0029999999969732
2,28,0.134330212179128,0.00200000000768341
2,29,0.291419972719485,0.00099999998928979
2,30,0.123236453957405,0.00100000000384171
3,1,0.610412134993489,0.0019999999931315
3,2,0.0225336818615182,0.00200000000768341
3,3,0.0282124123971825,0.0019999999931315
3,4,0.0674129594162704,0.00200000000768341
3,5,0.283519173734698,0.0019999999931315
3,6,0.110304450915214,0.00200000000768341
3,7,0.148953926589855,0.00099999998928979
3,8,0.0174453936567601,0.00100000000384171
3,9,0.122408378587394,0.0019999999931315
3,10,0.412715337252803,0.00200000000768341
3,11,0.0612836688642768,0.0019999999931315
3,12,0.0755184068094088,0.00200000000768341
3,13,0.0529718983657816,0.0019999999931315
3,14,0.0859482416571422,0.00200000000768341
3,15,0.127457407696721,0.00099999998928979
3,16,0.247955882310521,0.00100000000384171
3,17,0.0760551982319063,0.0019999999931315
3,18,0.767542585901134,0.00200000000768341
3,19,0.430192608301783,0.0019999999931315
3,20,0.153669824375538,0.00200000000768341
3,21,0.605645218073796,0.0019999999931315
3,22,0.0915951606560462,0.00200000000768341
3,23,0.0337642214730283,0.0019999999931315
3,24,0.0831002252652926,0.00100000000384171
3,25,0.0637182594746187,0.0019999999931315
3,26,0.136222175438254,0.00200000000768341
3,27,1.35657101545169,0.0029999999969732
3,28,0.188157605826389,0.00200000000768341
3,29,0.350133750249777,0.00099999998928979
3,30,0.165216161294439,0.00100000000384171
4,1,0.324763739339808,0.0019999999931315
4,2,0.912489309782071,0.00200000000768341
4,3,0.927806240587137,0.0019999999931315
4,4,0.928801024741644,0.00200000000768341
4,5,0.655846434793072,0.00099999998928979
4,6,0.81886131379121,0.00100000000384171
4,7,0.801455034244929,0.0019999999931315
4,8,0.902231523478474,0.00200000000768341
4,9,1.00403235376385,0.0019999999931315
4,10,0.527696921405902,0.00100000000384171
4,11,0.881987814949812,0.00099999998928979
4,12,0.969529220628678,0.00200000000768341
4,13,0.905532542135901,0.0019999999931315
4,14,0.982279704339534,0.00200000000768341
4,15,1.00262610929216,0.00100000000384171
4,16,0.686401450528938,0.00100000000384171
4,17,0.969079935817356,0.00200000000768341
4,18,0.171616978308566,0.0019999999931315
4,19,0.501726380931738,0.00200000000768341
4,20,1.03256774297734,0.00099999998928979
4,21,0.32542166989486,0.00200000000768341
4,22,0.97331171205466,0.0019999999931315
4,23,0.880445555769639,0.00200000000768341
4,24,0.956485924271155,0.0019999999931315
4,25,0.934116801953805,0.00100000000384171
4,26,1.01603213377266,0.00099999998928979
4,27,0.673968174220986,0.00300000001152512
4,28,0.746360206988054,0.00099999998928979
4,29,0.581121730708742,0.00200000000768341
4,30,0.786525997265459,0.0019999999931315
5,1,0.754060126904321,0.00200000000768341
5,2,0.158040325948857,0.0019999999931315
5,3,0.141262575272925,0.00100000000384171
5,4,0.134240734619256,0.0019999999931315
5,5,0.433424721558805,0.00200000000768341
5,6,0.254178302963268,0.0019999999931315
5,7,0.299116389093868,0.00200000000768341
5,8,0.166224887297591,0.00100000000384171
5,9,0.0654513972516536,0.0019999999931315
5,10,0.560811607638354,0.00200000000768341
5,11,0.191778911028378,0.0019999999931315
5,12,0.102420356405205,0.00100000000384171
5,13,0.166335438279471,0.00100000000384171
5,14,0.0932887060927978,0.00200000000768341
5,15,0.0697049863711048,0.0019999999931315
5,16,0.399312230636389,0.00200000000768341
5,17,0.0964315807551535,0.00099999998928979
5,18,0.906444867194477,0.00200000000768341
5,19,0.576477491812036,0.0019999999931315
5,20,0.0519885304283389,0.00200000000768341
5,21,0.745335104888515,0.0019999999931315
5,22,0.0899806768105313,0.00100000000384171
5,23,0.197813241274639,0.0019999999931315
5,24,0.112843032161688,0.00200000000768341
5,25,0.133932465394242,0.0019999999931315
5,26,0.0606229513734337,0.00200000000768341
5,27,1.48231054604551,0.0019999999931315
5,28,0.330446856871587,0.00200000000768341
5,29,0.500867360418393,0.0089999999909196
5,30,0.317332512296704,0.00200000000768341
6,1,0.738993907940939,0.0019999999931315
6,2,0.141695840798063,0.00200000000768341
6,3,0.123404343675219,0.0019999999931315
6,4,0.119546891221684,0.00100000000384171
6,5,0.416855201141373,0.00200000000768341
6,6,0.239499057358037,0.0019999999931315
6,7,0.274067748891681,0.0019999999931315
6,8,0.148443907768619,0.00200000000768341
6,9,0.0306990013140333,0.0019999999931315
6,10,0.545833982391215,0.00100000000384171
6,11,0.174563084497351,0.00200000000768341
6,12,0.0910308658889159,0.0019999999931315
6,13,0.146057667109493,0.00200000000768341
6,14,0.0734336519674302,0.0019999999931315
6,15,0.0639705657683119,0.0019999999931315
6,16,0.37941287172462,0.00100000000384171
6,17,0.0827629674358122,0.00200000000768341
6,18,0.891544543650743,0.0019999999931315
6,19,0.561466012923446,0.00200000000768341
6,20,0.00590056240369261,0.0019999999931315
6,21,0.726667437782301,0.00100000000384171
6,22,0.0781724490219516,0.00099999998928979
6,23,0.18046585302631,0.00200000000768341
6,24,0.0965072402838565,0.0019999999931315
6,25,0.116331221209238,0.00200000000768341
6,26,0.0155136230495284,0.0019999999931315
6,27,1.46107767521323,0.00200000000768341
6,28,0.319975876883403,0.0019999999931315
6,29,0.481815681613785,0.00200000000768341
6,30,0.292696949024429,0.0019999999931315
7,1,0.344924705819164,0.00100000000384171
7,2,0.302723482119596,0.0019999999931315
7,3,0.314012240189194,0.00200000000768341
7,4,0.323547467649627,0.0019999999931315
7,5,0.0284820834239824,0.00200000000768341
7,6,0.199679542377752,0.0019999999931315
7,7,0.16732881644824,0.00100000000384171
7,8,0.291043111009152,0.00099999998928979
7,9,0.395734075925535,0.00200000000768341
7,10,0.1580993266561,0.0019999999931315
7,11,0.264549433323879,0.00200000000768341
7,12,0.363200053411026,0.0019999999931315
7,13,0.292762508703942,0.00200000000768341
7,14,0.374166164442966,0.0019999999931315
7,15,0.400771478369896,0.00100000000384171
7,16,0.0624844665805979,0.0019999999931315
7,17,0.361581676504507,0.00200000000768341
7,18,0.504791790914747,0.0019999999931315
7,19,0.174740987890243,0.00200000000768341
7,20,0.429226112954004,0.00100000000384171
7,21,0.356599191839659,0.0019999999931315
7,22,0.374303978388867,0.00200000000768341
7,23,0.2588206485396,0.0019999999931315
7,24,0.350549719022862,0.0019999999931315
7,25,0.324281747168491,0.00200000000768341
7,26,0.411032570232341,0.0019999999931315
7,27,1.15898053564628,0.00200000000768341
7,28,0.12200095766466,0.0019999999931315
7,29,0.111136310608146,0.00200000000768341
7,30,0.152324071050805,0.0019999999931315
8,1,0.680746932785873,0.00200000000768341
8,2,0.0883937580289209,0.0019999999931315
8,3,0.0750151141788946,0.00100000000384171
8,4,0.0478769759626943,0.00099999998928979
8,5,0.361077834932494,0.00100000000384171
8,6,0.181432908913683,0.0019999999931315
8,7,0.227221361284276,0.00200000000768341
8,8,0.0955730812273971,0.0019999999931315
8,9,0.058913626939107,0.00200000000768341
8,10,0.486656050259016,0.0019999999931315
8,11,0.120101750306459,0.00200000000768341
8,12,0.0560070729154697,0.0019999999931315
8,13,0.0941474139274558,0.00200000000768341
8,14,0.0542769245027913,0.0019999999931315
8,15,0.0625527206249429,0.00100000000384171
8,16,0.32552726183921,0.00099999998928979
8,17,0.0488682455531885,0.00200000000768341
8,18,0.834546100775173,0.0019999999931315
8,19,0.502548361016534,0.00200000000768341
8,20,0.0804566701996872,0.0019999999931315
8,21,0.673079366072432,0.00200000000768341
8,22,0.048198341350406,0.0019999999931315
8,23,0.126583263785799,0.00200000000768341
8,24,0.0543294142669723,0.0019999999931315
8,25,0.0671834839196285,0.00200000000768341
8,26,0.0673805629784868,0.0019999999931315
8,27,1.4161742508774,0.00200000000768341
8,28,0.261498158095465,0.0019999999931315
8,29,0.424908645063686,0.00200000000768341
8,30,0.244641700102148,0.0019999999931315
9,1,0.185486216716002,0.0019999999931315
9,2,0.448653452080243,0.00100000000384171
9,3,0.463720125619436,0.00100000000384171
9,4,0.469705201861683,0.0019999999931315
9,5,0.16773755884328,0.00200000000768341
9,6,0.346837410071647,0.0089999999909196
9,7,0.32540549466809,0.00100000000384171
9,8,0.438410386206339,0.0019999999931315
9,9,0.547589214946866,0.00200000000768341
9,10,0.0475731428093194,0.0019999999931315
9,11,0.414275371013525,0.00200000000768341
9,12,0.510263274115254,0.00099999998928979
9,13,0.441527166851143,0.00200000000768341
9,14,0.523672187897591,0.0019999999931315
9,15,0.544814103826527,0.00200000000768341
9,16,0.207571514113435,0.0019999999931315
9,17,0.509761868113843,0.00100000000384171
9,18,0.351682991576396,0.0019999999931315
9,19,0.0452515999585399,0.00200000000768341
9,20,0.580217543617383,0.0019999999931315
9,21,0.224756526039559,0.00200000000768341
9,22,0.5195858040891,0.00100000000384171
9,23,0.408962436556398,0.00100000000384171
9,24,0.497987379648244,0.00200000000768341
9,25,0.472434890851871,0.0019999999931315
9,26,0.562068832767866,0.0019999999931315
9,27,1.02916198119112,0.00200000000768341
9,28,0.261144592341802,0.0019999999931315
9,29,0.110639675756713,0.00200000000768341
9,30,0.308372106513659,0.00100000000384171
10,1,0.674393184723405,0.0019999999931315
10,2,0.0603633313901841,0.00200000000768341
10,3,0.0445282322051958,0.0019999999931315
10,4,0.0661975452911741,0.00200000000768341
10,5,0.348541356328422,0.0019999999931315
10,6,0.170532813179072,0.0019999999931315
10,7,0.210975280814787,0.00200000000768341
10,8,0.0699532146179446,0.00100000000384171
10,9,0.0680897441469989,0.00100000000384171
10,10,0.476815256548049,0.00200000000768341
10,11,0.109366893125356,0.0019999999931315
10,12,0.0218623238998663,0.00200000000768341
10,13,0.0856972796123923,0.0019999999931315
10,14,0.0264147842835695,0.00200000000768341
10,15,0.0715111800540946,0.0019999999931315
10,16,0.313277446442086,0.0019999999931315
10,17,0.020406083311797,0.00200000000768341
10,18,0.830629976654681,0.00100000000384171
10,19,0.494129028279986,0.0019999999931315
10,20,0.0945849232912363,0.00200000000768341
10,21,0.668531507312891,0.0019999999931315
10,22,0.0405030218146393,0.00200000000768341
10,23,0.100191020293616,0.0019999999931315
10,24,0.0592473972754936,0.0019999999931315
10,25,0.0636437202107146,0.00200000000768341
10,26,0.0797819347816302,0.0019999999931315
10,27,1.4108758012837,0.00200000000768341
10,28,0.248704708149638,0.0019999999931315
10,29,0.415112904706957,0.00200000000768341
10,30,0.228150374078795,0.0019999999931315
11,1,0.667983314954742,0.00200000000768341
11,2,0.0593568624352459,0.0019999999931315
11,3,0.0456819219092631,0.00100000000384171
11,4,0.0590940329618215,0.00099999998928979
11,5,0.347222595812805,0.00100000000384171
11,6,0.168076273593764,0.0019999999931315
11,7,0.214976456236526,0.00200000000768341
11,8,0.0684913742059977,0.0019999999931315
11,9,0.0680134768020586,0.00200000000768341
11,10,0.473247117734145,0.0019999999931315
11,11,0.108217141842765,0.00200000000768341
11,12,0.0143925425475182,0.0019999999931315
11,13,0.0841986721544626,0.00100000000384171
11,14,0.0283207011092638,0.00099999998928979
11,15,0.069657540977229,0.00200000000768341
11,16,0.312295180136056,0.0019999999931315
11,17,0.010949090194759,0.00200000000768341
11,18,0.822343336163637,0.0019999999931315
11,19,0.489373247008972,0.00200000000768341
11,20,0.0930945633148344,0.0019999999931315
11,21,0.660579763952583,0.00200000000768341
11,22,0.0217829714719583,0.00100000000384171
11,23,0.103300076937834,0.00100000000384171
11,24,0.0525578570338924,0.0019999999931315
11,25,0.0596891335746025,0.00200000000768341
11,26,0.0788876387200897,0.0019999999931315
11,27,1.40162312941957,0.00300000001152512
11,28,0.246822609116099,0.00099999998928979
11,29,0.412080403687958,0.00100000000384171
11,30,0.232202731290819,0.0019999999931315
12,1,0.602801229453194,0.00200000000768341
12,2,0.0570043284194451,0.0019999999931315
12,3,0.0589646976424046,0.00200000000768341
12,4,0.0632939297927949,0.0019999999931315
12,5,0.282583978344688,0.00200000000768341
12,6,0.0962850979110953,0.00099999998928979
12,7,0.154482761997943,0.00200000000768341
12,8,0.0545287625658006,0.0019999999931315
12,9,0.122490518538718,0.00200000000768341
12,10,0.408084011861946,0.0019999999931315
12,11,0.0355737763938488,0.00200000000768341
12,12,0.0936790811151902,0.0019999999931315
12,13,0.0185240592076299,0.00900000000547152
12,14,0.10287127762339,0.0019999999931315
12,15,0.125683686428878,0.00200000000768341
12,16,0.246723856069021,0.0019999999931315
12,17,0.0906355800415306,0.00200000000768341
12,18,0.758037183225339,0.00099999998928979
12,19,0.424182552784235,0.00100000000384171
12,20,0.152506376720874,0.0019999999931315
12,21,0.595101053307213,0.00200000000768341
12,22,0.0980248433568009,0.0019999999931315
12,23,0.0661502078617595,0.00200000000768341
12,24,0.0614218483137354,0.0019999999931315
12,25,0.0378074155556072,0.00200000000768341
12,26,0.135301664135204,0.00099999998928979
12,27,1.35387802140326,0.00300000001152512
12,28,0.187299283276499,0.0019999999931315
12,29,0.345446296691968,0.00200000000768341
12,30,0.170493064506481,0.00099999998928979
13,1,0.690258175692826,0.00200000000768341
13,2,0.078681654571889,0.0019999999931315
13,3,0.0621016474850838,0.00200000000768341
13,4,0.0736829433205847,0.0019999999931315
13,5,0.366759333165476,0.00200000000768341
13,6,0.188533389427415,0.0019999999931315
13,7,0.228308403674309,0.00100000000384171
13,8,0.0875376485546413,0.00099999998928979
13,9,0.0482581307747801,0.00200000000768341
13,10,0.494521768230976,0.0019999999931315
13,11,0.125873182023731,0.00200000000768341
13,12,0.023969332360289,0.0019999999931315
13,13,0.0995215818614047,0.00200000000768341
13,14,0.00947338305486821,0.0019999999931315
13,15,0.0579330010369899,0.00100000000384171
13,16,0.330734755926075,0.00099999998928979
13,17,0.0168844179454176,0.00200000000768341
13,18,0.845059630494321,0.0019999999931315
13,19,0.511067697674694,0.00200000000768341
13,20,0.0714262130948436,0.0019999999931315
13,21,0.682104235516588,0.00200000000768341
13,22,0.0265769455169563,0.0019999999931315
13,23,0.120795764909499,0.00200000000768341
13,24,0.0608333371252302,0.0019999999931315
13,25,0.0729774125598884,0.00100000000384171
13,26,0.0575846088540267,0.00099999998928979
13,27,1.4203179243815,0.00300000001152512
13,28,0.267617192277839,0.0019999999931315
13,29,0.432115448812388,0.00200000000768341
13,30,0.245998467503895,0.0019999999931315
14,1,0.0607423429378559,0.00100000000384171
14,2,0.635059942108858,0.0019999999931315
14,3,0.649374744568941,0.00200000000768341
14,4,0.652416063220516,0.0019999999931315
14,5,0.36418012569636,0.00200000000768341
14,6,0.535376913038477,0.00099999998928979
14,7,0.517978871500951,0.00200000000768341
14,8,0.624201449186397,0.0019999999931315
14,9,0.72898409000179,0.00200000000768341
14,10,0.245569594519789,0.0019999999931315
14,11,0.601416210999383,0.00100000000384171
14,12,0.693576566172338,0.00200000000768341
14,13,0.627554507830704,0.0019999999931315
14,14,0.706735157581618,0.0019999999931315
14,15,0.729339217816123,0.00200000000768341
14,16,0.399744414136587,0.00100000000384171
14,17,0.692862620613714,0.0019999999931315
14,18,0.141896808736458,0.00200000000768341
14,19,0.218719459386193,0.0019999999931315
14,20,0.759698154802127,0.00100000000384171
14,21,0.114535656079981,0.0019999999931315
14,22,0.699727574382304,0.00200000000768341
14,23,0.599049050737911,0.0019999999931315
14,24,0.680803233892927,0.00200000000768341
14,25,0.657001349068306,0.0019999999931315
14,26,0.742571364888417,0.00100000000384171
14,27,0.880512526454995,0.0029999999969732
14,28,0.457221914820062,0.00200000000768341
14,29,0.302085385887068,0.00099999998928979
14,30,0.503021358875304,0.00200000000768341
15,1,0.60634436367796,0.0019999999931315
15,2,0.0596570133294365,0.00200000000768341
15,3,0.0598473721164185,0.0019999999931315
15,4,0.0725865111308014,0.00200000000768341
15,5,0.279271259240278,0.00099999998928979
15,6,0.0932589562977734,0.00100000000384171
15,7,0.143263269744423,0.0019999999931315
15,8,0.0570241627999483,0.00200000000768341
15,9,0.126781479144858,0.0019999999931315
15,10,0.408363709511825,0.00200000000768341
15,11,0.0266642441098478,0.0019999999931315
15,12,0.0991305463961661,0.00100000000384171
15,13,0.0144325912798271,0.00099999998928979
15,14,0.106530428201113,0.00200000000768341
15,15,0.132008185262006,0.0019999999931315
15,16,0.243147712879267,0.00200000000768341
15,17,0.0964356309374427,0.0019999999931315
15,18,0.76373099215144,0.00200000000768341
15,19,0.425980717062233,0.00100000000384171
15,20,0.158098191179945,0.00999999999476131
15,21,0.600799242313178,0.0019999999931315
15,22,0.108661777885842,0.00200000000768341
15,23,0.0570362228384389,0.0019999999931315
15,24,0.0688282725010956,0.00200000000768341
15,25,0.0434579088613647,0.0019999999931315
15,26,0.140422717326212,0.00100000000384171
15,27,1.36309585439534,0.0029999999969732
15,28,0.185323757185742,0.00200000000768341
15,29,0.345194335228084,0.0019999999931315
15,30,0.159388068256468,0.00100000000384171
16,1,0.559379117087053,0.0019999999931315
16,2,1.10101443702135,0.00200000000768341
16,3,1.11969136089525,0.0019999999931315
16,4,1.11826979322291,0.00200000000768341
16,5,0.871803505266872,0.0019999999931315
16,6,1.0159401104287,0.00200000000768341
16,7,1.00962099833202,0.00099999998928979
16,8,1.09356908084893,0.00200000000768341
16,9,1.19562291152862,0.0019999999931315
16,10,0.729313700534166,0.00200000000768341
16,11,1.07578855733477,0.0019999999931315
16,12,1.15657665984336,0.00200000000768341
16,13,1.09656842334412,0.0019999999931315
16,14,1.17133631234165,0.00100000000384171
16,15,1.18240666728264,0.00200000000768341
16,16,0.899912454319075,0.0019999999931315
16,17,1.15755166200025,0.0019999999931315
16,18,0.453098264884512,0.00200000000768341
16,19,0.708900105843758,0.0019999999931315
16,20,1.22222113682057,0.00100000000384171
16,21,0.571014585881817,0.00200000000768341
16,22,1.15923007903833,0.0019999999931315
16,23,1.07448410518373,0.00200000000768341
16,24,1.14369765820613,0.0019999999931315
16,25,1.1230547551989,0.00200000000768341
16,26,1.20609118406968,0.0019999999931315
16,27,0.62473594922668,0.0019999999931315
16,28,0.946192440089559,0.00200000000768341
16,29,0.78577855555716,0.0019999999931315
16,30,0.993845320999937,0.00200000000768341
17,1,0.556247424851026,0.0019999999931315
17,2,0.0860903000137703,0.00200000000768341
17,3,0.0952496245374064,0.00100000000384171
17,4,0.10270538953604,0.00100000000384171
17,5,0.234913156163097,0.0019999999931315
17,6,0.046792802623903,0.00200000000768341
17,7,0.117930152775528,0.0019999999931315
17,8,0.0783590443427853,0.00200000000768341
17,9,0.171997890481348,0.0019999999931315
17,10,0.360969160059693,0.00200000000768341
17,11,0.030292410918187,0.00100000000384171
17,12,0.138449472909032,0.0019999999931315
17,13,0.0555469693724105,0.00200000000768341
17,14,0.149501550006684,0.0019999999931315
17,15,0.174785783066901,0.0019999999931315
17,16,0.200306644919274,0.00200000000768341
17,17,0.136975820177418,0.0019999999931315
17,18,0.712648787467011,0.00100000000384171
17,19,0.37745236318125,0.00100000000384171
17,20,0.203205990142898,0.0019999999931315
17,21,0.551000112035403,0.00200000000768341
17,22,0.146241970564008,0.0019999999931315
17,23,0.0626676816487021,0.00200000000768341
17,24,0.111276891391608,0.0019999999931315
17,25,0.0865420952603595,0.0019999999931315
17,26,0.185658538535791,0.00200000000768341
17,27,1.32010572369873,0.0019999999931315
17,28,0.143701917271481,0.00200000000768341
17,29,0.29890481583572,0.0019999999931315
17,30,0.131355470243465,0.00200000000768341
18,1,0.687318504244378,0.00100000000384171
18,2,0.0795911867518136,0.00100000000384171
18,3,0.0658476452551227,0.00200000000768341
18,4,0.0746139289470421,0.0019999999931315
18,5,0.368040441026628,0.0019999999931315
18,6,0.188958975308291,0.00200000000768341
18,7,0.234516539195711,0.0019999999931315
18,8,0.088720701719313,0.00200000000768341
18,9,0.059688796079284,0.0019999999931315
18,10,0.493704017420515,0.00200000000768341
18,11,0.12803636020983,0.00100000000384171
18,12,0.0207532268207012,0.00100000000384171
18,13,0.102543521209525,0.0019999999931315
18,14,0.0211043406177045,0.00200000000768341
18,15,0.0645946366635226,0.0019999999931315
18,16,0.332658603025161,0.00200000000768341
18,17,0.0199800271749483,0.0019999999931315
18,18,0.840757699088494,0.00200000000768341
18,19,0.509466767521408,0.00100000000384171
18,20,0.0783229614276432,0.00100000000384171
18,21,0.678521667869599,0.00200000000768341
18,22,0.0114742118872239,0.0019999999931315
18,23,0.124030867965483,0.0019999999931315
18,24,0.0616383455688951,0.00200000000768341
18,25,0.0755674099112632,0.0019999999931315
18,26,0.0668512304956048,0.00200000000768341
18,27,1.41500943262328,0.0019999999931315
18,28,0.268566885685247,0.00200000000768341
18,29,0.432126035069016,0.0019999999931315
18,30,0.25200862804413,0.00200000000768341
19,1,0.386932602950929,0.0019999999931315
19,2,0.241815511889655,0.00100000000384171
19,3,0.254134237736686,0.0019999999931315
19,4,0.262670210259268,0.00200000000768341
19,5,0.0590344019373731,0.0019999999931315
19,6,0.143579587639745,0.00200000000768341
19,7,0.111038263295071,0.0019999999931315
19,8,0.230076119495579,0.00100000000384171
19,9,0.334883071666423,0.00099999998928979
19,10,0.192411331813046,0.00200000000768341
19,11,0.205957697881589,0.0019999999931315
19,12,0.303348534017751,0.00200000000768341
19,13,0.231617012302331,0.0019999999931315
19,14,0.313636724143206,0.00100000000384171
19,15,0.338936314538459,0.00100000000384171
19,16,0.0217700815316355,0.0019999999931315
19,17,0.301457278511548,0.0019999999931315
19,18,0.546599499756796,0.00200000000768341
19,19,0.208684196540185,0.00100000000384171
19,20,0.367678444184186,0.0019999999931315
19,21,0.387438302645748,0.00200000000768341
19,22,0.312745869851242,0.0019999999931315
19,23,0.200663083525366,0.00200000000768341
19,24,0.289795708372384,0.0019999999931315
19,25,0.263639648966211,0.00200000000768341
19,26,0.349258788244902,0.00099999998928979
19,27,1.17604963230689,0.0029999999969732
19,28,0.0803661064249218,0.00200000000768341
19,29,0.125972940043366,0.00100000000384171
19,30,0.0971089849891758,0.00100000000384171
20,1,0.648224818240922,0.00200000000768341
20,2,0.063614896567359,0.0019999999931315
20,3,0.0537432713679976,0.00200000000768341
20,4,0.0537376673961572,0.0019999999931315
20,5,0.326381964728316,0.00200000000768341
20,6,0.138703201064815,0.0019999999931315
20,7,0.194054631168751,0.00100000000384171
20,8,0.0692628981964732,0.0019999999931315
20,9,0.0841976809829214,0.00200000000768341
20,10,0.452713976926888,0.0019999999931315
20,11,0.0730674524156904,0.00200000000768341
20,12,0.0620465255069617,0.0019999999931315
20,13,0.0464104534623177,0.00200000000768341
20,14,0.0689406063679346,0.0019999999931315
20,15,0.0862664269568275,0.00100000000384171
20,16,0.291199236606394,0.0019999999931315
20,17,0.0574733946528875,0.00200000000768341
20,18,0.803355761999712,0.0019999999931315
20,19,0.469153759453272,0.00200000000768341
20,20,0.112167696341389,0.0019999999931315
20,21,0.640919653886302,0.00200000000768341
20,22,0.0634522476643972,0.0019999999931315
20,23,0.0935667800987683,0.00100000000384171
20,24,0.016269882447832,0.0019999999931315
20,25,0.0132598444191496,0.00200000000768341
20,26,0.0963629038129131,0.0019999999931315
20,27,1.39508439896864,0.0029999999969732
20,28,0.227199017650282,0.00100000000384171
20,29,0.391111334433037,0.00200000000768341
20,30,0.210943678822655,0.0019999999931315
21,1,0.104031507404053,0.00200000000768341
21,2,0.581623891125226,0.0019999999931315
21,3,0.595457900200155,0.00200000000768341
21,4,0.60058807501235,0.0019999999931315
21,5,0.307421674589832,0.00100000000384171
21,6,0.487815106767212,0.00100000000384171
21,7,0.452343372121244,0.00200000000768341
21,8,0.57025592907735,0.0019999999931315
21,9,0.673304558004781,0.00200000000768341
21,10,0.195605789731776,0.0019999999931315
21,11,0.55148860426633,0.00200000000768341
21,12,0.641839377651694,0.0019999999931315
21,13,0.575874831135027,0.00100000000384171
21,14,0.65271219939878,0.0019999999931315
21,15,0.675280894496062,0.00200000000768341
21,16,0.337771621642703,0.0019999999931315
21,17,0.640334895928682,0.00200000000768341
21,18,0.227712324448094,0.0019999999931315
21,19,0.173662918727795,0.00200000000768341
21,20,0.704327689790999,0.00099999998928979
21,21,0.123834878401978,0.00200000000768341
21,22,0.64885761291435,0.0019999999931315
21,23,0.544443961954687,0.00200000000768341
21,24,0.63153212336595,0.0019999999931315
21,25,0.606590933309206,0.00200000000768341
21,26,0.686601136749885,0.0019999999931315
21,27,0.894825481755536,0.00200000000768341
21,28,0.407246165506833,0.0019999999931315
21,29,0.238372329780352,0.00200000000768341
21,30,0.436266930708928,0.0019999999931315
22,1,0.668237005407588,0.00200000000768341
22,2,0.059960437506295,0.0019999999931315
22,3,0.0429259402780947,0.00100000000384171
22,4,0.0600859550240842,0.00100000000384171
22,5,0.345961306868884,0.0100000000093132
22,6,0.167228059039427,0.0019999999931315
22,7,0.21035601091698,0.00200000000768341
22,8,0.0673972895461284,0.0019999999931315
22,9,0.0640733930182575,0.00100000000384171
22,10,0.473938990214046,0.00100000000384171
22,11,0.106031678806729,0.00200000000768341
22,12,0.0203045311601225,0.0019999999931315
22,13,0.0813928411947349,0.00200000000768341
22,14,0.0237387920334501,0.0019999999931315
22,15,0.0757753712380674,0.00200000000768341
22,16,0.310169335946377,0.0019999999931315
22,17,0.0148006946665067,0.0019999999931315
22,18,0.822363588342264,0.00100000000384171
22,19,0.48996531812354,0.00200000000768341
22,20,0.0903971839310276,0.0019999999931315
22,21,0.659813374836249,0.00200000000768341
22,22,0.0280809923780697,0.0019999999931315
22,23,0.10150360992582,0.00200000000768341
22,24,0.05169181794663,0.0019999999931315
22,25,0.0581650482630373,0.00200000000768341
22,26,0.0754500469819713,0.00099999998928979
22,27,1.40178235895024,0.0019999999931315
22,28,0.248033493905752,0.00200000000768341
22,29,0.411571519589202,0.0019999999931315
22,30,0.228074535947261,0.00200000000768341
23,1,0.180535492100978,0.00100000000384171
23,2,0.440931181751737,0.0019999999931315
23,3,0.456902626535102,0.00200000000768341
23,4,0.461357314053966,0.0019999999931315
23,5,0.174422936004264,0.00200000000768341
23,6,0.342900855755007,0.00099999998928979
23,7,0.324121196887985,0.00100000000384171
23,8,0.430975051626952,0.0019999999931315
23,9,0.539315995851109,0.00200000000768341
23,10,0.0379025859580923,0.0019999999931315
23,11,0.408777856402206,0.00100000000384171
23,12,0.502268602692432,0.00099999998928979
23,13,0.43424164582129,0.00200000000768341
23,14,0.515593389577348,0.0019999999931315
23,15,0.535082958271527,0.00200000000768341
23,16,0.207418130685511,0.0019999999931315
23,17,0.501803582983198,0.00100000000384171
23,18,0.346261768396875,0.00099999998928979
23,19,0.0132466125429543,0.00200000000768341
23,20,0.570941054417453,0.0019999999931315
23,21,0.206566840386197,0.00200000000768341
23,22,0.509945500473167,0.0019999999931315
23,23,0.404173575584978,0.00100000000384171
23,24,0.489641257164757,0.00100000000384171
23,25,0.464739385125164,0.0019999999931315
23,26,0.55293892545196,0.0019999999931315
23,27,1.00753420286621,0.00200000000768341
23,28,0.26156322365491,0.0019999999931315
23,29,0.0962327228212226,0.00200000000768341
23,30,0.307552998715186,0.0019999999931315
24,1,0.415375452882797,0.00200000000768341
24,2,0.217299953398176,0.0019999999931315
24,3,0.230644119795562,0.00100000000384171
24,4,0.239342803219693,0.00200000000768341
24,5,0.0915335238928157,0.0019999999931315
24,6,0.10784182316149,0.0019999999931315
24,7,0.104205356670915,0.00200000000768341
24,8,0.206910665496541,0.0019999999931315
24,9,0.314676125364773,0.00200000000768341
24,10,0.21738634179079,0.00100000000384171
24,11,0.174283825045752,0.00100000000384171
24,12,0.278807928374473,0.00200000000768341
24,13,0.202459368647288,0.0019999999931315
24,14,0.290780566999514,0.00200000000768341
24,15,0.316034533701641,0.0019999999931315
24,16,0.067241427218091,0.0019999999931315
24,17,0.278059613927554,0.00200000000768341
24,18,0.576099769548371,0.00100000000384171
24,19,0.235605719837888,0.0019999999931315
24,20,0.347578232983364,0.00200000000768341
24,21,0.419195583225123,0.0019999999931315
24,22,0.289206226074939,0.00200000000768341
24,23,0.175213080007988,0.0019999999931315
24,24,0.260839443410212,0.0019999999931315
24,25,0.234908848030981,0.00200000000768341
24,26,0.3292440387231,0.00100000000384171
24,27,1.21067703512287,0.0029999999969732
24,28,0.0659722925100885,0.0019999999931315
24,29,0.157184201058073,0.00200000000768341
24,30,0.0927482473457809,0.00100000000384171
25,1,0.53125690852413,0.0019999999931315
25,2,0.110830990689085,0.00200000000768341
25,3,0.119386548848058,0.0019999999931315
25,4,0.128967539442446,0.0019999999931315
25,5,0.207700153843992,0.00200000000768341
25,6,0.0362170031993722,0.0019999999931315
25,7,0.090217998884143,0.00100000000384171
25,8,0.100473521515161,0.00100000000384171
25,9,0.196655284740594,0.0019999999931315
25,10,0.337288995017893,0.00200000000768341
25,11,0.0578085581064409,0.0019999999931315
25,12,0.166068811188104,0.00900000000547152
25,13,0.0832716788301441,0.00100000000384171
25,14,0.175244295515678,0.00200000000768341
25,15,0.204252276742776,0.0019999999931315
25,16,0.171252438892999,0.00200000000768341
25,17,0.164212090205478,0.0019999999931315
25,18,0.687525497009149,0.0019999999931315
25,19,0.353512075738788,0.00200000000768341
25,20,0.228372872890602,0.0019999999931315
25,21,0.524935964415569,0.00200000000768341
25,22,0.174586358659881,0.00100000000384171
25,23,0.0771617516710836,0.00100000000384171
25,24,0.141169843109845,0.00200000000768341
25,25,0.11613349705843,0.0019999999931315
25,26,0.210469440102325,0.00200000000768341
25,27,1.2985031988781,0.0019999999931315
25,28,0.127711219488085,0.0019999999931315
25,29,0.272845322532116,0.00200000000768341
25,30,0.102958856721213,0.0019999999931315
26,1,0.689393336127061,0.00200000000768341
26,2,0.102851769896156,0.0019999999931315
26,3,0.0865923718321378,0.00200000000768341
26,4,0.0811020173311027,0.0019999999931315
26,5,0.365836440232501,0.00200000000768341
26,6,0.189655857407089,0.0019999999931315
26,7,0.227751777473204,0.00200000000768341
26,8,0.108383619525343,0.0019999999931315
26,9,0.0502194888236989,0.00200000000768341
26,10,0.494253797959805,0.0019999999931315
26,11,0.128261586343541,0.00200000000768341
26,12,0.0737383142943,0.0019999999931315
26,13,0.102977340975738,0.00200000000768341
26,14,0.0662509597698552,0.0019999999931315
26,15,0.0636683965309096,0.00100000000384171
26,16,0.329926837805314,0.00099999998928979
26,17,0.063738761466304,0.00100000000384171
26,18,0.84383153885824,0.00100000000384171
26,19,0.510615275859663,0.00200000000768341
26,20,0.0732768127839855,0.0019999999931315
26,21,0.677964611276505,0.00200000000768341
26,22,0.068369226394374,0.00100000000384171
26,23,0.135745696025033,0.0019999999931315
26,24,0.067420831326209,0.00200000000768341
26,25,0.0778493912536118,0.0019999999931315
26,26,0.0598818421502577,0.00200000000768341
26,27,1.4292140447716,0.0019999999931315
26,28,0.26719986777769,0.00200000000768341
26,29,0.4318638108284,0.0019999999931315
26,30,0.245597465425784,0.00200000000768341
27,1,0.622317450279778,0.0019999999931315
27,2,0.0204315076440808,0.00200000000768341
27,3,0.0135977796426836,0.0019999999931315
27,4,0.0573042587095596,0.0019999999931315
27,5,0.297826226237357,0.00200000000768341
27,6,0.124302256814635,0.00100000000384171
27,7,0.162998165008061,0.00100000000384171
27,8,0.0195978620394085,0.00200000000768341
27,9,0.105455997385688,0.0019999999931315
27,10,0.426438690185232,0.00200000000768341
27,11,0.071193722763859,0.0019999999931315
27,12,0.0597847337920535,0.00200000000768341
27,13,0.0555195087419004,0.0019999999931315
27,14,0.0690682378275013,0.0019999999931315
27,15,0.11292550463219,0.00200000000768341
27,16,0.261740804013712,0.00100000000384171
27,17,0.059066916455921,0.0019999999931315
27,18,0.778082707104147,0.00200000000768341
27,19,0.443100921991442,0.0019999999931315
27,20,0.136076593330704,0.00200000000768341
27,21,0.615587919465079,0.0019999999931315
27,22,0.0735811086818088,0.0019999999931315
27,23,0.0523638247453266,0.00200000000768341
27,24,0.0722383837638164,0.0019999999931315
27,25,0.0569420918556654,0.00200000000768341
27,26,0.118828100698313,0.00100000000384171
27,27,1.36281524121851,0.0029999999969732
27,28,0.202344245243632,0.0019999999931315
27,29,0.36345646814342,0.00200000000768341
27,30,0.179959133128313,0.0019999999931315
28,1,0.660800892341061,0.00100000000384171
28,2,0.0680177319514049,0.0019999999931315
28,3,0.053618212397662,0.00200000000768341
28,4,0.0558735985719655,0.0019999999931315
28,5,0.336506060648608,0.00200000000768341
28,6,0.150594239661001,0.0019999999931315
28,7,0.199429111795036,0.00200000000768341
28,8,0.0741429561682275,0.0019999999931315
28,9,0.0688844899875335,0.00100000000384171
28,10,0.464576894098497,0.00200000000768341
28,11,0.0836931682747316,0.0019999999931315
28,12,0.0557555950674918,0.0019999999931315
28,13,0.0556453801200921,0.00200000000768341
28,14,0.0577739522469163,0.0019999999931315
28,15,0.0758827591895252,0.00200000000768341
28,16,0.300617490158586,0.00100000000384171
28,17,0.049111915486521,0.0019999999931315
28,18,0.816244626993319,0.00200000000768341
28,19,0.481295532276682,0.00999999999476131
28,20,0.0977852866158346,0.0019999999931315
28,21,0.653156647544085,0.00200000000768341
28,22,0.0574108482387382,0.00100000000384171
28,23,0.0997535913308517,0.0019999999931315
28,24,0.0148834334838034,0.00200000000768341
28,25,0.023088036873166,0.0019999999931315
28,26,0.081475460360432,0.0019999999931315
28,27,1.40556620532432,0.00200000000768341
28,28,0.237898889327048,0.00099999998928979
28,29,0.402161667335402,0.00200000000768341
28,30,0.216843361105067,0.0019999999931315
29,1,0.433093634900677,0.00200000000768341
29,2,0.203076888455931,0.0019999999931315
29,3,0.215232959326977,0.00100000000384171
29,4,0.225729213018097,0.00100000000384171
29,5,0.102597461341141,0.0019999999931315
29,6,0.112056074691698,0.0019999999931315
29,7,0.0678524453732871,0.00200000000768341
29,8,0.191770710071513,0.0019999999931315
29,9,0.295604800324753,0.00100000000384171
29,10,0.233492059174652,0.00200000000768341
29,11,0.168334572616624,0.0019999999931315
29,12,0.265200265144821,0.00200000000768341
29,13,0.192460394811389,0.0019999999931315
29,14,0.274458786178581,0.00200000000768341
29,15,0.299060348953265,0.00099999998928979
29,16,0.0620572878901502,0.00200000000768341
29,17,0.263174403797587,0.0019999999931315
29,18,0.594230422757464,0.00200000000768341
29,19,0.252335890351353,0.0019999999931315
29,20,0.328605050261086,0.00100000000384171
29,21,0.432979287668678,0.0019999999931315
29,22,0.275669991331504,0.00200000000768341
29,23,0.161070299486877,0.0019999999931315
29,24,0.251665773490221,0.00200000000768341
29,25,0.225076852007449,0.0019999999931315
29,26,0.309842889814016,0.00200000000768341
29,27,1.211640103443,0.0019999999931315
29,28,0.0729082156183073,0.00200000000768341
29,29,0.165730385762157,0.0019999999931315
29,30,0.0528922794199537,0.00200000000768341
30,1,0.588380289861909,0.00099999998928979
30,2,0.0661110275191867,0.00200000000768341
30,3,0.0721322817032002,0.0019999999931315
30,4,0.0791857406273559,0.00200000000768341
30,5,0.26538323225523,0.0019999999931315
30,6,0.0751663240251042,0.00200000000768341
30,7,0.144065371099652,0.0019999999931315
30,8,0.0628530848983027,0.00200000000768341
30,9,0.144707924805318,0.0019999999931315
30,10,0.391488468262008,0.00100000000384171
30,11,0.0204318930478156,0.0019999999931315
30,12,0.110063271139599,0.00200000000768341
30,13,0.0334334991272942,0.0019999999931315
30,14,0.12221639656941,0.00200000000768341
30,15,0.144140561968738,0.0019999999931315
30,16,0.232095799751906,0.00200000000768341
30,17,0.108563686577822,0.0019999999931315
30,18,0.745227560397355,0.00100000000384171
30,19,0.408581101104786,0.0019999999931315
30,20,0.175604407147356,0.00200000000768341
30,21,0.584640427427388,0.0019999999931315
30,22,0.118420955324056,0.00200000000768341
30,23,0.0584276181112427,0.0019999999931315
30,24,0.0812834977276337,0.00200000000768341
30,25,0.0570709416207909,0.0019999999931315
30,26,0.158594732233615,0.00100000000384171
30,27,1.35051086375052,0.0029999999969732
30,28,0.167072179166542,0.00200000000768341
30,29,0.331245497776634,0.0019999999931315
30,30,0.158645070129286,0.00100000000384171
