App - SimpleCalendar
Scenario - make_events
Level - 0sec
Measure - EDRDistance
Test Statistic - Mann-Whitney U Test
Effect Size Measure - Simple Difference:Kerby
Alpha Level - 0.05


"Before.Version","After.Version","Diff","Direction","P.Value","Simple.Diff","Within.Diffs.Mean","Within.Diffs.SD","Between.Diffs.Mean","Between.Diffs.SD","Runtime"
"5379244","b2fe795",FALSE,NA,0.93,-0.05,1726.202,10.01,1725.367,10.111,354.133
"8003feb","5379244",FALSE,NA,0,0.324,1726.814,9.281,1732.259,10.544,354.037
"b2fe795","fd2ec79",FALSE,NA,0,0.153,1724.076,9.443,1726.511,9.087,354.363
