App - Financius
Scenario - write_transactions
Level - 0sec
Measure - DTWDistance
Test Statistic - Mann-Whitney U Test
Effect Size Measure - Simple Difference:Kerby
Alpha Level - 0.05


"Before.Version","After.Version","Diff","Direction","P.Value","Simple.Diff","Within.Diffs.Mean","Within.Diffs.SD","Between.Diffs.Mean","Between.Diffs.SD","Runtime"
"0.12.1","0.13.0",FALSE,NA,0,0.204,20672.558,12473.981,24232.081,12454.689,482.907
"0.13.0","0.14.0",FALSE,NA,0.991,-0.08,22356.539,10723.007,20615.143,9449.131,482.359
"0.14.0","0.15.0",TRUE,"POSITIVE",0,0.977,18587.958,8093.931,68218.569,34127.837,484.792
