App - ConnectBot
Scenario - connect_ssh
Length - 5sec
Measure - FourierDistance
Before Version - 1.8.6_b
After Version - 1.8.6_f_m


"Before.Trace.ID1","Before.Trace.ID2","Difference","Runtime"
1,2,303453.858265676,0
1,3,336927.737737191,0
1,4,295096.972884952,0.00100000000020373
1,5,263280.96956253,0
1,6,227300.360780683,0.00100000000020373
1,7,204515.153362406,0
1,8,162166.294996538,0
1,9,493854.491881276,0.00100000000020373
1,10,255279.619109921,0
1,11,241746.748826851,0
1,12,103937.364982463,0.00100000000020373
1,13,162391.836454266,0
1,14,304960.3384434,0
1,15,217424.457689277,0
1,16,223958.633061582,0
1,17,301695.359258243,0.00100000000020373
1,18,286677.378340462,0
1,19,355283.744857086,0
1,20,163458.893284147,0.00100000000020373
1,21,110377.89863897,0
1,22,182194.265550652,0
1,23,172274.374087065,0.00100000000020373
1,24,338957.981453099,0
1,25,247282.570785642,0.00100000000020373
1,26,378508.99333401,0
1,27,449267.082758416,0
1,28,220210.951520484,0.00100000000020373
1,29,228634.225491207,0
1,30,225293.498348588,0
2,3,67096.6233489388,0.00100000000020373
2,4,80136.2189725966,0
2,5,139886.868339082,0.000999999996565748
2,6,359337.449313906,0
2,7,220290.47413086,0
2,8,198918.996340492,0.00100000000020373
2,9,219188.594916982,0
2,10,133508.17282696,0
2,11,103512.073730003,0.00100000000020373
2,12,301780.978591578,0
2,13,383513.553865132,0
2,14,151470.939397508,0.00100000000020373
2,15,251996.008873156,0
2,16,140227.554423183,0.00100000000020373
2,17,150227.029782692,0
2,18,65037.2209765798,0
2,19,132872.685869332,0.00100000000020373
2,20,393118.909989144,0
2,21,246822.439717397,0
2,22,315934.291960474,0.00100000000020373
2,23,220189.788120303,0
2,24,113672.225094245,0.00100000000020373
2,25,266524.971060423,0
2,26,156231.459839423,0
2,27,194665.328839536,0
2,28,129632.298680491,0
2,29,428688.347138368,0.00100000000020373
2,30,103008.129928084,0
3,4,105790.698880554,0
3,5,152011.023361002,0
3,6,370805.712674086,0
3,7,229078.145314163,0.00100000000020373
3,8,234607.103793064,0
3,9,191338.078084693,0
3,10,126324.326629029,0.00100000000020373
3,11,134039.117570033,0
3,12,326812.22393211,0.00100000000020373
3,13,409507.854698495,0
3,14,134194.856119574,0
3,15,267207.707699166,0.00100000000020373
3,16,163087.578029953,0
3,17,137916.510615327,0
3,18,90333.4325670556,0.00100000000020373
3,19,110015.616000978,0
3,20,426525.323059024,0.00100000000020373
3,21,275767.459378786,0
3,22,347015.364787546,0
3,23,230403.195072707,0.00100000000020373
3,24,94963.2076432769,0
3,25,277303.491687335,0
3,26,138430.240512405,0.000999999996565748
3,27,145093.37727306,0
3,28,159269.845101515,0
3,29,455184.722085257,0.00100000000020373
3,30,129221.147779819,0
4,5,138777.949788989,0.00100000000020373
4,6,351960.334621388,0
4,7,216474.905682357,0
4,8,194463.746430207,0.00100000000020373
4,9,247599.451325642,0
4,10,145513.922554936,0
4,11,81671.3938591335,0.00100000000020373
4,12,297771.355425984,0
4,13,364482.641386788,0
4,14,151589.400487257,0
4,15,261709.602473091,0
4,16,147767.4527232,0.00100000000020373
4,17,162394.594958009,0
4,18,94624.3404265755,0
4,19,143598.093286391,0.00100000000020373
4,20,388927.548266742,0
4,21,241847.665840272,0
4,22,310203.749234627,0
4,23,225110.393080562,0
4,24,114624.425719043,0.00100000000020373
4,25,277294.870810367,0
4,26,154842.16024814,0
4,27,214360.366601608,0.00100000000020373
4,28,98917.8504973352,0
4,29,424833.186679375,0
4,30,95801.3073015686,0.00100000000020373
5,6,356946.419150041,0
5,7,233902.803594123,0.00100000000020373
5,8,222756.480828779,0
5,9,332445.325275311,0
5,10,147041.018654497,0.00100000000020373
5,11,123354.416780614,0
5,12,268961.409123241,0
5,13,363069.105312905,0.00100000000020373
5,14,179057.79865133,0
5,15,292628.082886557,0
5,16,181308.366717709,0
5,17,90718.1526198188,0
5,18,166225.015631893,0.00100000000020373
5,19,120030.739272103,0
5,20,384418.786953658,0
5,21,239808.95732403,0.00100000000020373
5,22,335697.575973051,0
5,23,218163.533298764,0.000999999996565748
5,24,133103.15806959,0
5,25,308054.282274229,0
5,26,146460.500425689,0.00100000000020373
5,27,263746.535981478,0
5,28,110523.376136591,0
5,29,428569.139719207,0.00100000000020373
5,30,108282.84408919,0
6,7,176617.570678598,0
6,8,208050.613750999,0
6,9,474621.559102223,0
6,10,275789.319265259,0.00100000000020373
6,11,296953.111347259,0
6,12,168443.053526678,0
6,13,133353.065741578,0.00100000000020373
6,14,291477.388567871,0
6,15,151198.015714483,0
6,16,250683.642385223,0
6,17,359273.02498711,0
6,18,314755.558713696,0.00100000000020373
6,19,405581.82130225,0
6,20,187246.107551279,0
6,21,174219.810140764,0.00100000000020373
6,22,154188.59174829,0
6,23,175517.216356004,0
6,24,366252.745920783,0.00100000000020373
6,25,142636.68623263,0
6,26,424932.766016709,0.00100000000020373
6,27,425781.258854176,0
6,28,294415.975736217,0
6,29,148627.500304844,0.00100000000020373
6,30,297400.20640441,0
7,8,132784.42675983,0
7,9,342310.247332036,0.00300000000061118
7,10,134312.12813597,0
7,11,181177.579956633,0.00100000000020373
7,12,176842.935871963,0
7,13,223927.725468827,0.00100000000020373
7,14,163389.808528899,0
7,15,124558.859372693,0
7,16,118701.732312425,0.000999999996565748
7,17,235979.173157421,0
7,18,182837.379471592,0
7,19,262047.114786942,0.00100000000020373
7,20,262239.470326598,0
7,21,123633.309779714,0.00100000000020373
7,22,195253.822018382,0
7,23,93487.0688963468,0
7,24,232755.872223311,0.00100000000020373
7,25,122058.706935676,0
7,26,295552.865157309,0
7,27,292189.407249229,0.00100000000020373
7,28,171332.500489076,0
7,29,272113.395478687,0.00100000000020373
7,30,155756.347235218,0
8,9,362968.240214876,0.00100000000020373
8,10,174084.659570465,0
8,11,145903.356762553,0
8,12,163770.434610206,0.00100000000020373
8,13,206323.701277347,0
8,14,210784.178614269,0
8,15,129055.397269051,0
8,16,128307.09016173,0
8,17,256030.639506178,0.00100000000020373
8,18,162640.404369382,0
8,19,281553.79317066,0
8,20,208755.60210377,0.00100000000020373
8,21,93259.3314466137,0
8,22,144746.09115725,0
8,23,124872.923763297,0
8,24,250933.083974234,0
8,25,156521.165033044,0.00100000000020373
8,26,304436.798630632,0
8,27,333943.340485336,0
8,28,146301.124775791,0.00100000000020373
8,29,248117.587498808,0
8,30,145664.206851292,0.00100000000020373
9,10,275337.888101836,0
9,11,290291.339322828,0
9,12,475679.330465358,0.00100000000020373
9,13,536689.247855795,0
9,14,248906.638162134,0
9,15,364494.249661244,0.00100000000020373
9,16,287142.329553241,0
9,17,304905.952819725,0
9,18,220275.98486779,0.00100000000020373
9,19,249045.387986869,0
9,20,551927.971867725,0.000999999996565748
9,21,414870.680973835,0
9,22,453118.796775513,0
9,23,367228.92631158,0.00100000000020373
9,24,231056.532488419,0
9,25,356694.058775426,0
9,26,259560.038552351,0.00100000000020373
9,27,129868.563567526,0
9,28,320927.901411731,0
9,29,563863.986659862,0
9,30,293819.663226811,0
10,11,117956.780200277,0.00100000000020373
10,12,227478.487121947,0
10,13,320099.10791211,0
10,14,76228.342441461,0.00100000000020373
10,15,191542.036773118,0
10,16,109610.870067998,0
10,17,126348.135187693,0
10,18,112858.014927189,0
10,19,165749.346401216,0.00100000000020373
10,20,347618.459540665,0
10,21,184650.646192357,0
10,22,273029.57040264,0.00100000000020373
10,23,131283.107808725,0
10,24,126979.09124109,0
10,25,203870.81753815,0.00100000000020373
10,26,199251.755850725,0
10,27,211528.38551203,0.00100000000020373
10,28,125356.195454126,0
10,29,368891.92724948,0
10,30,93923.3688609598,0.00100000000020373
11,12,233479.168535781,0
11,13,310591.185038892,0
11,14,132602.984108442,0.00100000000020373
11,15,216618.654114285,0
11,16,124110.162780301,0.00100000000020373
11,17,150329.459306607,0
11,18,89904.8725967068,0
11,19,171644.563760623,0.00100000000020373
11,20,333168.578957655,0
11,21,183078.501067457,0
11,22,257465.361482764,0.00100000000020373
11,23,173073.757690181,0
11,24,128031.605895366,0
11,25,236797.044923391,0
11,26,179292.865593722,0
11,27,245173.337083789,0.000999999996565748
11,28,64217.4655805805,0
11,29,369140.728178899,0
11,30,75716.2593263458,0.00100000000020373
12,13,147101.633838282,0
12,14,265252.963174982,0
12,15,174793.581293755,0.00100000000020373
12,16,216103.689791257,0
12,17,284452.947076758,0
12,18,274208.830714303,0
12,19,351542.097628174,0
12,20,173237.166692396,0.00100000000020373
12,21,90736.6246858665,0
12,22,164677.557575828,0
12,23,136614.982526372,0.00100000000020373
12,24,318026.969653376,0
12,25,206754.679152554,0
12,26,369237.268333014,0.00100000000020373
12,27,423267.150533289,0
12,28,221189.28407874,0.00100000000020373
12,29,204938.723751226,0
12,30,229206.355150252,0
13,14,347900.227835113,0.00100000000020373
13,15,209930.455802654,0
13,16,277944.862806476,0
13,17,388965.124045093,0.00100000000020373
13,18,349223.82131826,0
13,19,435484.439871593,0
13,20,111518.714875234,0.00100000000020373
13,21,163577.685993194,0
13,22,140345.545112351,0.00100000000020373
13,23,215998.762558273,0
13,24,404260.463721729,0
13,25,222370.61875359,0.00100000000020373
13,26,453726.041851885,0
13,27,493223.047409202,0
13,28,294997.498013283,0.00100000000020373
13,29,118777.182412538,0
13,30,308192.277219794,0
14,15,220327.04510807,0
14,16,142185.296083393,0
14,17,142260.42829022,0.00100000000020373
14,18,125914.427511979,0
14,19,168076.483297217,0
14,20,386599.05853812,0.00100000000020373
14,21,225824.189444102,0
14,22,301020.406141553,0
14,23,178411.897771999,0.00100000000020373
14,24,102919.828343256,0
14,25,223841.195155765,0.000999999996565748
14,26,182767.638162892,0
14,27,177279.618672599,0
14,28,147704.437012156,0
14,29,398468.290701009,0
14,30,135639.708729179,0.00100000000020373
15,16,165517.480880448,0
15,17,293984.106095501,0
15,18,205179.960597557,0
15,19,329986.120843848,0
15,20,217121.370042539,0.00100000000020373
15,21,131040.840535474,0
15,22,137795.061732258,0
15,23,110004.405135008,0.00100000000020373
15,24,290315.617877539,0
15,25,73924.5725242675,0.00100000000020373
15,26,353569.416211534,0
15,27,337441.920849272,0
15,28,230150.671900913,0
15,29,218794.968491358,0
15,30,215493.727995991,0.00100000000020373
16,17,188792.127702141,0
16,18,118638.992662659,0
16,19,206104.855127751,0.00300000000061118
16,20,297266.93357056,0.00100000000020373
16,21,157796.618051343,0
16,22,216059.553897393,0
16,23,132316.068860964,0.00100000000020373
16,24,174617.05378291,0
16,25,162977.180017767,0
16,26,241435.05248644,0.00100000000020373
16,27,256757.329103721,0
16,28,124200.18623424,0.00100000000020373
16,29,318955.456255939,0
16,30,95931.2418956296,0
17,18,172780.995808195,0.00100000000020373
17,19,110625.663859296,0
17,20,418296.537593668,0
17,21,264076.225432929,0.000999999996565748
17,22,357992.29320303,0
17,23,223587.214412215,0.00100000000020373
17,24,99030.1484487751,0
17,25,305079.777862782,0
17,26,126258.798841618,0.00100000000020373
17,27,224644.123863355,0
17,28,151418.360756126,0
17,29,449472.465978086,0.00100000000020373
17,30,138048.146417081,0
18,19,167835.865057471,0
18,20,360057.687678475,0.00100000000020373
18,21,213112.104971578,0
18,22,275684.39546644,0.00100000000020373
18,23,183539.811086283,0
18,24,129426.127033182,0
18,25,219730.402440747,0.00100000000020373
18,26,189014.999698268,0
18,27,194251.448613991,0
18,28,125407.009168455,0.00100000000020373
18,29,388662.224812931,0
18,30,103666.153194337,0.00100000000020373
19,20,462367.511187818,0
19,21,311389.182503862,0
19,22,396410.867898543,0.00100000000020373
19,23,272217.30873174,0
19,24,91697.1360560765,0
19,25,331405.609453179,0.00100000000020373
19,26,83953.4554506195,0
19,27,171707.550097557,0.00100000000020373
19,28,170956.404950621,0
19,29,494683.144879256,0
19,30,154468.420405061,0.00100000000020373
20,21,179016.362720283,0
20,22,126747.634882572,0
20,23,235403.353330092,0.00100000000020373
20,24,437252.974272088,0
20,25,236218.229861294,0
20,26,485518.634660208,0
20,27,522175.747136064,0
20,28,324863.048058136,0.00100000000020373
20,29,98499.930676034,0
20,30,330234.935848367,0
21,22,133286.187724058,0.00100000000020373
21,23,96759.1037223714,0
21,24,278962.741005626,0
21,25,162810.083877028,0.00100000000020373
21,26,334796.472723926,0
21,27,373360.09717151,0
21,28,173333.822477001,0
21,29,215741.372263374,0
21,30,175003.24461345,0.00100000000020373
22,23,176457.460760704,0
22,24,357321.138910824,0
22,25,152418.725041765,0.00100000000020373
22,26,416898.361290617,0
22,27,433338.773626571,0
22,28,262083.821014056,0
22,29,139168.140657764,0
22,30,263985.959983086,0.00100000000020373
23,24,240873.966954174,0
23,25,134640.07531129,0
23,26,302797.089517162,0.00100000000020373
23,27,318083.641706221,0
23,28,174811.450380484,0
23,29,253836.023408103,0
23,30,160049.485857252,0
24,25,294806.770680325,0.00100000000020373
24,26,96771.2084078831,0
24,27,159005.429662924,0
24,28,142122.912464573,0.00100000000020373
24,29,461047.661502174,0
24,30,135336.7816304,0
25,26,360443.258276733,0.00100000000020373
25,27,328999.38691097,0
25,28,246641.732379074,0.00100000000020373
25,29,221857.864849287,0
25,30,230194.277160737,0
26,27,184797.175521075,0.00100000000020373
26,28,189816.913237648,0
26,29,518749.577335988,0
26,30,188163.33623683,0.00100000000020373
27,28,267882.957960159,0
27,29,533766.186843165,0
27,30,244905.948149148,0
28,29,362667.819029615,0
28,30,59929.5311949573,0.00100000000020373
29,30,367582.26566881,0


"After.Trace.ID","Before.Trace.ID","Difference","Runtime"
1,1,1831795.42228451,0
1,2,1591871.17131823,0.00100000000020373
1,3,1550393.3804185,0
1,4,1611412.36353736,0.00100000000020373
1,5,1683389.33393327,0
1,6,1721652.2138177,0
1,7,1638655.12992839,0.00100000000020373
1,8,1700113.77985132,0
1,9,1377954.28841954,0.00100000000020373
1,10,1603276.68474425,0
1,11,1650791.58183837,0
1,12,1792411.93166698,0.00100000000020373
1,13,1826022.38724657,0
1,14,1564064.92823457,0
1,15,1649931.5040062,0.00100000000020373
1,16,1628261.23378515,0
1,17,1634944.03232283,0.00100000000020373
1,18,1582819.05035586,0
1,19,1579552.22844879,0
1,20,1850131.86376726,0.00100000000020373
1,21,1738954.03981476,0
1,22,1747817.09282712,0.00100000000020373
1,23,1675676.34114911,0
1,24,1571238.39294232,0
1,25,1623298.34168732,0.00100000000020373
1,26,1585805.06139606,0
1,27,1426480.26823424,0
1,28,1677245.02812568,0.00100000000020373
1,29,1822180.38461923,0
1,30,1650358.61461982,0
2,1,1846718.39974682,0
2,2,1613640.54159178,0.00100000000020373
2,3,1572082.50957067,0
2,4,1634011.86033871,0
2,5,1705377.94883427,0
2,6,1732547.2047259,0
2,7,1653031.04515331,0.00100000000020373
2,8,1715956.65601322,0
2,9,1401983.5567794,0
2,10,1620611.62919567,0.00100000000020373
2,11,1672062.29676708,0
2,12,1806222.05507332,0.00100000000020373
2,13,1837680.16525387,0
2,14,1583703.11707542,0
2,15,1661878.21961949,0.00100000000020373
2,16,1644980.77423484,0
2,17,1657409.23766387,0.00100000000020373
2,18,1602750.30815734,0
2,19,1603695.84499627,0
2,20,1860363.18320161,0
2,21,1753005.80076016,0
2,22,1759470.98341276,0.00100000000020373
2,23,1688899.0272338,0
2,24,1594736.49720837,0
2,25,1634772.50680781,0.00100000000020373
2,26,1614204.92378,0
2,27,1450264.96697976,0
2,28,1697588.57605906,0
2,29,1829433.53326405,0
2,30,1669712.20179783,0.00100000000020373
3,1,1837716.16377267,0
3,2,1602591.00417181,0
3,3,1561519.39538953,0.00100000000020373
3,4,1621702.93655279,0
3,5,1694735.75076655,0
3,6,1722503.70553844,0
3,7,1643487.43742026,0
3,8,1705767.82515452,0.00100000000020373
3,9,1389257.55066948,0
3,10,1611378.16523392,0
3,11,1659878.13150233,0.00100000000020373
3,12,1797067.50167984,0
3,13,1827714.82327315,0.00100000000020373
3,14,1572176.20557189,0
3,15,1653368.78126454,0
3,16,1635067.26156511,0.00100000000020373
3,17,1646332.6661888,0
3,18,1591736.40983335,0
3,19,1591896.56675325,0.00100000000020373
3,20,1851986.97315391,0
3,21,1743829.18557644,0
3,22,1749746.3775495,0
3,23,1681022.59129497,0
3,24,1582034.08733453,0.00100000000020373
3,25,1625649.79063231,0
3,26,1599344.29917365,0
3,27,1437560.46244767,0.00100000000020373
3,28,1686002.1606799,0
3,29,1821365.10589218,0
3,30,1659333.54044929,0
4,1,1826063.6785809,0
4,2,1587713.4052892,0.00100000000020373
4,3,1547485.45745851,0
4,4,1610019.94951018,0.00100000000020373
4,5,1682897.44838259,0
4,6,1716248.58969553,0
4,7,1634948.9160506,0
4,8,1694356.86173332,0
4,9,1374623.38846542,0.00100000000020373
4,10,1598686.69185131,0
4,11,1647694.80032385,0
4,12,1784763.8607877,0
4,13,1821219.69890333,0
4,14,1561084.14053692,0
4,15,1640600.37285268,0
4,16,1623809.35666398,0.00100000000020373
4,17,1633464.24564055,0
4,18,1577729.50980335,0
4,19,1581800.42554686,0.00100000000020373
4,20,1841883.07858758,0
4,21,1732002.55132528,0
4,22,1739133.52567332,0.00100000000020373
4,23,1668967.68238914,0
4,24,1570560.57216128,0.00100000000020373
4,25,1615894.50887629,0
4,26,1588993.63720136,0
4,27,1427238.99547963,0.000999999996565748
4,28,1675672.93827135,0
4,29,1813116.8844995,0
4,30,1647774.64959248,0.00100000000020373
5,1,1861876.84120599,0
5,2,1627694.69442737,0
5,3,1586767.03065723,0
5,4,1649144.08001748,0
5,5,1721544.60192983,0.00100000000020373
5,6,1748689.51000073,0
5,7,1670107.89367117,0
5,8,1730208.77178004,0.00100000000020373
5,9,1415538.57820642,0
5,10,1636310.84618756,0
5,11,1686439.68663124,0.00100000000020373
5,12,1821193.66775628,0
5,13,1854172.63574946,0
5,14,1599665.99045959,0
5,15,1675488.95849031,0
5,16,1660975.91045023,0.00100000000020373
5,17,1673561.30678466,0
5,18,1616268.18469776,0
5,19,1621119.28691809,0.00100000000020373
5,20,1874342.30163068,0
5,21,1767742.75368713,0
5,22,1772944.42375681,0.00100000000020373
5,23,1703476.90215041,0
5,24,1610819.99688273,0
5,25,1649899.68153519,0
5,26,1630295.18344021,0
5,27,1466736.42548366,0.00100000000020373
5,28,1713844.22738943,0
5,29,1844162.23749044,0
5,30,1685845.88220573,0.00100000000020373
6,1,1833216.1522694,0
6,2,1598611.22899126,0
6,3,1557669.4319495,0.00100000000020373
6,4,1618281.43114935,0
6,5,1691156.31231504,0.00100000000020373
6,6,1721641.57281952,0
6,7,1639549.18810176,0
6,8,1702294.77052739,0.00100000000020373
6,9,1386261.21254884,0
6,10,1606959.18377132,0
6,11,1657378.42278778,0.00100000000020373
6,12,1793499.83617257,0
6,13,1825442.5194544,0
6,14,1569658.4213804,0.00100000000020373
6,15,1649714.80840042,0
6,16,1631101.06717762,0.000999999996565748
6,17,1643468.03947911,0
6,18,1588218.44240317,0
6,19,1589069.75348229,0.00100000000020373
6,20,1848758.37697665,0
6,21,1739562.59174659,0.00100000000020373
6,22,1747281.52564538,0
6,23,1676517.7776058,0
6,24,1579920.41532758,0.00100000000020373
6,25,1623231.2024709,0
6,26,1598814.82984867,0.00100000000020373
6,27,1435970.19579684,0
6,28,1682670.0399014,0
6,29,1818995.2828238,0.00100000000020373
6,30,1654999.98345317,0
7,1,1800962.96993507,0
7,2,1561496.93246568,0
7,3,1520031.59328829,0
7,4,1582483.94587797,0.00100000000020373
7,5,1653293.19957083,0
7,6,1692735.61750208,0
7,7,1608411.80331488,0.00100000000020373
7,8,1670145.49825655,0
7,9,1348255.15822349,0.00100000000020373
7,10,1572914.5041858,0
7,11,1621829.30728161,0
7,12,1762269.79497539,0.00100000000020373
7,13,1796868.18039011,0
7,14,1535352.99831165,0
7,15,1619229.88224132,0.00100000000020373
7,16,1597646.58429307,0
7,17,1605211.72972173,0
7,18,1552753.6019097,0.00100000000020373
7,19,1549557.96385685,0
7,20,1819389.65437687,0.00100000000020373
7,21,1708389.41175915,0
7,22,1717780.48443795,0
7,23,1644779.06720735,0.00100000000020373
7,24,1542537.53329033,0
7,25,1592638.36240141,0
7,26,1557631.6522912,0.00100000000020373
7,27,1397122.17149841,0
7,28,1648084.34094939,0
7,29,1791859.27081563,0
7,30,1620132.51398988,0
8,1,1860199.8804831,0.00100000000020373
8,2,1624813.54145588,0
8,3,1583869.61387873,0
8,4,1645497.68129117,0.000999999996565748
8,5,1718302.04837705,0
8,6,1747108.18499636,0
8,7,1667117.58191871,0.00100000000020373
8,8,1728308.21356614,0
8,9,1411916.22805195,0
8,10,1634178.34806522,0
8,11,1683749.01707167,0
8,12,1819740.18388866,0.00100000000020373
8,13,1852130.27661911,0
8,14,1596551.68698001,0
8,15,1674729.82506694,0.00100000000020373
8,16,1658726.68737957,0
8,17,1670178.93810458,0
8,18,1614131.40713382,0.00100000000020373
8,19,1616212.93467219,0
8,20,1874218.91021981,0.00100000000020373
8,21,1766453.38427584,0
8,22,1773095.5999541,0
8,23,1703180.14030699,0.00100000000020373
8,24,1606865.82128143,0
8,25,1648763.51245053,0
8,26,1624469.46205143,0.00100000000020373
8,27,1461721.1426727,0
8,28,1710338.72871921,0
8,29,1844546.58203716,0.00100000000020373
8,30,1682757.25384454,0
9,1,1850873.26882496,0.00100000000020373
9,2,1615206.03880146,0
9,3,1574910.97316484,0
9,4,1634224.09364003,0.00100000000020373
9,5,1709701.93179511,0
9,6,1737506.90408589,0
9,7,1657465.20401192,0
9,8,1717859.34764386,0
9,9,1402062.79722027,0.00100000000020373
9,10,1624824.86988759,0
9,11,1673025.12916426,0
9,12,1809937.8748928,0.00100000000020373
9,13,1841124.93538927,0
9,14,1586262.22767845,0
9,15,1665087.99265209,0.00100000000020373
9,16,1648800.92248022,0
9,17,1661969.14435674,0.00100000000020373
9,18,1604071.92755078,0
9,19,1608128.21156841,0.00100000000020373
9,20,1864590.31873103,0
9,21,1756095.04041196,0
9,22,1762162.6601553,0.00100000000020373
9,23,1694308.98779628,0
9,24,1596791.77136539,0.00100000000020373
9,25,1639612.34462604,0
9,26,1615703.62138925,0
9,27,1453168.46959134,0.00100000000020373
9,28,1699268.70377715,0
9,29,1834406.92059714,0.00100000000020373
9,30,1672663.75834573,0
10,1,1832864.94029945,0
10,2,1596556.16987093,0.00100000000020373
10,3,1555998.17326676,0
10,4,1617869.65982425,0
10,5,1690663.62226893,0
10,6,1720370.2180579,0
10,7,1640340.32959633,0.00100000000020373
10,8,1700730.89764082,0
10,9,1383816.06052589,0
10,10,1606199.51527828,0
10,11,1655608.21689878,0
10,12,1791673.14494722,0.00100000000020373
10,13,1825241.54275246,0
10,14,1568465.48021599,0
10,15,1647047.4025371,0.00100000000020373
10,16,1630451.05343855,0
10,17,1642278.34887089,0.00100000000020373
10,18,1585827.36114332,0
10,19,1589166.37029646,0
10,20,1846684.32265189,0.00100000000020373
10,21,1738364.1881507,0
10,22,1744624.27052412,0
10,23,1675350.63523333,0.00100000000020373
10,24,1578662.91053133,0
10,25,1621142.75671799,0.00100000000020373
10,26,1597415.54440663,0
10,27,1434769.9355628,0
10,28,1682460.9945194,0.00100000000020373
10,29,1816727.10495916,0
10,30,1654995.47857927,0.000999999996565748
11,1,1862238.513135,0
11,2,1627711.37469446,0
11,3,1586865.4366161,0.00100000000020373
11,4,1649933.89222347,0
11,5,1721301.47048298,0
11,6,1748239.91728298,0
11,7,1669901.88724484,0
11,8,1730724.1541838,0.00100000000020373
11,9,1415697.18961374,0
11,10,1636164.89282324,0
11,11,1686894.98355027,0.00100000000020373
11,12,1820943.79494258,0
11,13,1854125.87337584,0.00100000000020373
11,14,1599476.2181344,0
11,15,1675745.65247103,0
11,16,1660242.29188008,0.00100000000020373
11,17,1672632.47857116,0
11,18,1616842.74054101,0
11,19,1620276.42129048,0
11,20,1874738.56910865,0
11,21,1768017.75360257,0.00100000000020373
11,22,1773150.99024584,0
11,23,1704221.10615441,0
11,24,1610161.67782438,0.00100000000020373
11,25,1648980.62146779,0
11,26,1629974.98398423,0
11,27,1465993.48351788,0
11,28,1713755.96618936,0
11,29,1843723.3159274,0.00100000000020373
11,30,1685599.33008966,0
12,1,1845126.3836718,0
12,2,1609059.77702861,0.00100000000020373
12,3,1568375.1179737,0
12,4,1629842.9381614,0
12,5,1702700.60629012,0
12,6,1730308.64865812,0
12,7,1651884.76654582,0.00100000000020373
12,8,1712032.06685228,0
12,9,1395701.6992421,0
12,10,1618820.85417616,0.00100000000020373
12,11,1667012.4477453,0
12,12,1803858.77532614,0
12,13,1836084.70649715,0
12,14,1580088.72543118,0
12,15,1659038.37464643,0.00100000000020373
12,16,1643122.0847058,0
12,17,1654316.38388785,0
12,18,1597939.80766674,0.000999999996565748
12,19,1600709.86814311,0
12,20,1858362.32219272,0.00100000000020373
12,21,1750674.41483769,0
12,22,1756566.42043976,0
12,23,1688127.39984066,0.00100000000020373
12,24,1590366.63876314,0
12,25,1632286.36305726,0
12,26,1607672.41143346,0.00100000000020373
12,27,1445140.61045894,0
12,28,1694255.41642113,0.00100000000020373
12,29,1828332.51921538,0
12,30,1667261.82010433,0
13,1,1843026.13365315,0.00100000000020373
13,2,1608251.38752281,0
13,3,1567810.03712582,0
13,4,1628529.67267047,0.00100000000020373
13,5,1702364.35361876,0
13,6,1727853.35367861,0.00100000000020373
13,7,1649606.1721649,0
13,8,1710402.54839351,0
13,9,1395149.6271549,0.00100000000020373
13,10,1617435.77303992,0
13,11,1666298.40497968,0
13,12,1801804.23905854,0
13,13,1832778.87005465,0
13,14,1578974.23167256,0.00100000000020373
13,15,1656758.07480256,0
13,16,1640280.0952631,0
13,17,1654198.00325282,0.00100000000020373
13,18,1597026.32771564,0
13,19,1600499.20215936,0
13,20,1855349.44667718,0.00100000000020373
13,21,1748374.1670941,0
13,22,1753262.91366539,0
13,23,1685786.01117455,0
13,24,1589644.02474694,0
13,25,1629726.82002707,0.00100000000020373
13,26,1608767.63488047,0
13,27,1445880.94824215,0
13,28,1692670.61560718,0.00100000000020373
13,29,1824106.73284691,0
13,30,1665839.09641214,0
14,1,1857692.58229825,0.00100000000020373
14,2,1621943.88024454,0
14,3,1580454.20690829,0.00100000000020373
14,4,1642860.35301042,0
14,5,1714176.69696362,0
14,6,1745413.75490637,0.000999999996565748
14,7,1664394.38692993,0
14,8,1726770.62451296,0
14,9,1409748.06543902,0.00100000000020373
14,10,1630423.59446506,0
14,11,1681048.4353126,0
14,12,1817066.91566655,0.00100000000020373
14,13,1850786.44221364,0
14,14,1592999.89900995,0.00100000000020373
14,15,1673334.05227959,0
14,16,1655909.26454355,0
14,17,1665472.93542288,0.00100000000020373
14,18,1611628.25265005,0
14,19,1611856.28689327,0
14,20,1873452.91459149,0.00100000000020373
14,21,1763941.47888823,0.00300000000061118
14,22,1772267.00349161,0.00100000000020373
14,23,1700238.20426812,0
14,24,1602914.95566778,0.00100000000020373
14,25,1647111.9946243,0
14,26,1620625.7922135,0
14,27,1457991.92561759,0
14,28,1707173.2221993,0
14,29,1843604.40847849,0.00100000000020373
14,30,1679401.57430612,0
15,1,1858674.50518591,0.00100000000020373
15,2,1621837.6274226,0
15,3,1581349.46883821,0
15,4,1640830.85585443,0.00100000000020373
15,5,1715046.36738894,0
15,6,1744410.83404265,0.00100000000020373
15,7,1664732.61801071,0
15,8,1725855.13914636,0
15,9,1408183.56494762,0.00100000000020373
15,10,1631658.27024238,0
15,11,1679319.95708393,0
15,12,1817662.73273943,0
15,13,1848835.25542255,0
15,14,1592039.64732315,0.00100000000020373
15,15,1673992.51473841,0
15,16,1655089.2429539,0
15,17,1666548.93320934,0.00100000000020373
15,18,1611256.00104602,0
15,19,1612293.11645811,0
15,20,1873148.17101747,0
15,21,1764068.45145596,0
15,22,1769958.51408242,0.00100000000020373
15,23,1702303.85142788,0
15,24,1601366.60207232,0
15,25,1646805.60866021,0.00100000000020373
15,26,1619068.70835507,0
15,27,1457782.41929912,0
15,28,1705536.14182739,0.00100000000020373
15,29,1842570.4504991,0
15,30,1679213.16752558,0.00100000000020373
16,1,1847807.05323058,0
16,2,1610509.94057356,0
16,3,1569701.09908711,0.00100000000020373
16,4,1631792.71439401,0
16,5,1704327.38873004,0.00100000000020373
16,6,1737326.3407511,0
16,7,1655620.91273543,0
16,8,1716098.16349115,0.00100000000020373
16,9,1398279.19067105,0
16,10,1620400.46084626,0
16,11,1670245.3782323,0.00100000000020373
16,12,1807110.04687299,0
16,13,1841612.83038267,0.00100000000020373
16,14,1583219.27563848,0
16,15,1662881.69027386,0
16,16,1645453.38958918,0.00100000000020373
16,17,1656169.41574015,0
16,18,1600325.65795647,0
16,19,1602767.4807036,0
16,20,1863123.5609791,0
16,21,1753615.78121376,0.00100000000020373
16,22,1761302.11241126,0
16,23,1690385.7620792,0
16,24,1592919.80710362,0.00100000000020373
16,25,1637680.20545068,0
16,26,1611628.59048697,0
16,27,1449084.30608219,0.00100000000020373
16,28,1696737.63043574,0
16,29,1833739.52945057,0.000999999996565748
16,30,1669016.04831301,0
17,1,1860920.83717663,0
17,2,1621958.37298446,0.00100000000020373
17,3,1580131.81567883,0
17,4,1642407.2864803,0
17,5,1712757.7729209,0.00100000000020373
17,6,1751362.36238856,0
17,7,1667650.17586671,0
17,8,1730676.18859906,0
17,9,1408991.02185535,0
17,10,1632161.8732448,0.00100000000020373
17,11,1681932.50464425,0
17,12,1821674.03246031,0
17,13,1856254.59098543,0.00100000000020373
17,14,1594102.81238333,0
17,15,1679580.38001899,0
17,16,1657655.23731965,0
17,17,1663538.55211183,0
17,18,1613432.00303205,0.00100000000020373
17,19,1608728.93864299,0
17,20,1880228.73637043,0
17,21,1768627.60906019,0.00100000000020373
17,22,1778708.88479956,0
17,23,1704677.22857527,0
17,24,1601456.64303268,0.00100000000020373
17,25,1652668.07420602,0
17,26,1616401.8453797,0.00100000000020373
17,27,1456407.3033165,0
17,28,1707712.50801379,0
17,29,1851858.08431282,0.00100000000020373
17,30,1679904.09192627,0
18,1,1864963.02942982,0
18,2,1628537.48273104,0.00100000000020373
18,3,1588143.6826051,0
18,4,1649311.59447731,0
18,5,1722709.06865588,0
18,6,1751540.19391112,0
18,7,1671762.16007888,0.00100000000020373
18,8,1732489.49916251,0
18,9,1415466.04382102,0
18,10,1638415.65168081,0.00100000000020373
18,11,1687501.80991039,0
18,12,1823884.54351964,0
18,13,1856375.85812682,0
18,14,1600348.20725767,0
18,15,1679151.78011804,0.00100000000020373
18,16,1662342.43009031,0
18,17,1674196.42331127,0
18,18,1617996.37603314,0.000999999996565748
18,19,1620677.20831463,0
18,20,1878745.22302089,0
18,21,1770544.19137873,0.00100000000020373
18,22,1776814.83407272,0
18,23,1707995.79890414,0.00100000000020373
18,24,1610229.58884577,0
18,25,1652907.01411482,0
18,26,1628636.06093262,0.00100000000020373
18,27,1466129.71455834,0
18,28,1713969.04259897,0
18,29,1848401.42058335,0.00100000000020373
18,30,1686724.27271958,0
19,1,1813796.47792702,0
19,2,1579470.46082971,0
19,3,1539025.77157473,0
19,4,1601360.86801289,0.00100000000020373
19,5,1674107.24591638,0
19,6,1700265.2772282,0
19,7,1621683.4748348,0.00100000000020373
19,8,1681930.6759206,0
19,9,1367448.31757957,0
19,10,1588330.68815289,0
19,11,1638685.30960686,0
19,12,1772382.62585092,0.00100000000020373
19,13,1805035.38376068,0
19,14,1551440.41764109,0.00100000000020373
19,15,1626784.64636996,0
19,16,1611455.27263864,0
19,17,1626012.36116285,0
19,18,1568513.99788362,0
19,19,1573355.52599954,0.00100000000020373
19,20,1825749.24862797,0
19,21,1719376.88447869,0
19,22,1724012.1289382,0.00100000000020373
19,23,1656099.59826655,0
19,24,1562694.56080518,0.00100000000020373
19,25,1600652.48018087,0
19,26,1583244.21109848,0.00399999999717693
19,27,1419071.45761173,0
19,28,1665406.56676857,0
19,29,1794867.91200224,0
19,30,1637494.87443645,0
20,1,1870935.35317947,0.00100000000020373
20,2,1633440.64825758,0
20,3,1591571.04426606,0
20,4,1654412.12170899,0.00100000000020373
20,5,1724655.37105671,0
20,6,1761451.20973789,0
20,7,1678988.47157904,0
20,8,1741494.05509299,0
20,9,1420620.40516514,0.00100000000020373
20,10,1643057.22192156,0
20,11,1693182.36746538,0
20,12,1831541.15425767,0.00100000000020373
20,13,1866723.1826092,0
20,14,1605724.13653246,0
20,15,1688712.74109049,0.00100000000020373
20,16,1668467.08926802,0
20,17,1675511.80927839,0.00100000000020373
20,18,1624281.12115919,0
20,19,1621994.10006342,0
20,20,1889024.95447181,0.00100000000020373
20,21,1778580.78679973,0
20,22,1787134.86517541,0
20,23,1713368.03607273,0.00100000000020373
20,24,1613981.28028326,0
20,25,1662428.30171482,0.00100000000020373
20,26,1630034.79528683,0
20,27,1469919.45311079,0
20,28,1720166.5874527,0.00100000000020373
20,29,1860509.15881833,0
20,30,1691947.44019113,0
21,1,1894953.61588226,0.00100000000020373
21,2,1655420.67105148,0
21,3,1614414.12048875,0
21,4,1675059.32600891,0
21,5,1747097.30383982,0
21,6,1781967.200957,0.00100000000020373
21,7,1701024.30819941,0
21,8,1761455.2295672,0
21,9,1442603.97572587,0.00100000000020373
21,10,1666263.76646772,0
21,11,1713768.78019043,0
21,12,1854337.6180764,0.00100000000020373
21,13,1886481.65686169,0
21,14,1627117.08278103,0.000999999996565748
21,15,1711168.27516203,0
21,16,1690889.08641056,0
21,17,1699491.20431284,0.00100000000020373
21,18,1645637.03100279,0
21,19,1643652.73735796,0
21,20,1910235.62744354,0.00100000000020373
21,21,1800492.50900314,0
21,22,1807896.28906032,0
21,23,1738253.9225811,0.00100000000020373
21,24,1634789.93869997,0
21,25,1683776.76292241,0.00100000000020373
21,26,1651212.46981642,0
21,27,1490175.32899656,0
21,28,1739577.14100349,0.00100000000020373
21,29,1880360.66970039,0
21,30,1713318.24137431,0
22,1,1846201.40599391,0.00100000000020373
22,2,1604365.78372638,0
22,3,1563676.2677501,0
22,4,1625856.50641564,0
22,5,1698097.84202154,0
22,6,1739504.84223608,0.00100000000020373
22,7,1654839.81965888,0
22,8,1714090.8940279,0
22,9,1390699.07929044,0.00100000000020373
22,10,1617945.93372938,0
22,11,1665856.92190473,0
22,12,1807393.96613803,0.00100000000020373
22,13,1842833.92403327,0
22,14,1580559.64849429,0.00100000000020373
22,15,1663416.45289006,0
22,16,1642627.21432181,0
22,17,1650324.41832902,0.00100000000020373
22,18,1596060.66137582,0
22,19,1594705.12958209,0.00100000000020373
22,20,1863911.39283121,0
22,21,1753445.03866278,0
22,22,1761886.62011679,0.00100000000020373
22,23,1690190.35757133,0
22,24,1587107.69898475,0.00100000000020373
22,25,1638285.93067192,0
22,26,1602140.13666879,0
22,27,1442435.67814358,0.00100000000020373
22,28,1692746.13993788,0
22,29,1836998.05509958,0
22,30,1664820.06477658,0.00100000000020373
23,1,1898294.11765038,0
23,2,1663558.21986763,0.000999999996565748
23,3,1623568.76198172,0
23,4,1684504.27312951,0
23,5,1758534.31582765,0.00100000000020373
23,6,1780808.22184032,0
23,7,1705815.24216171,0
23,8,1764502.11005222,0.00100000000020373
23,9,1451069.4106469,0
23,10,1672423.48262208,0.00100000000020373
23,11,1720464.33429732,0
23,12,1854779.68157783,0
23,13,1886732.264601,0.00100000000020373
23,14,1633497.21557432,0
23,15,1709295.46092987,0
23,16,1696322.84204635,0
23,17,1710106.62916699,0
23,18,1651235.50111562,0.00100000000020373
23,19,1658459.16207822,0
23,20,1908078.4353761,0.00100000000020373
23,21,1802149.12415091,0
23,22,1805203.57759983,0
23,23,1739820.90059114,0.00100000000020373
23,24,1645237.71615901,0
23,25,1683253.0954356,0.00100000000020373
23,26,1665906.17406403,0
23,27,1502453.20392178,0
23,28,1748383.3060252,0.00100000000020373
23,29,1875876.35100779,0
23,30,1722041.161792,0
24,1,1874283.03910047,0
24,2,1638402.53265736,0
24,3,1597605.71885372,0.00100000000020373
24,4,1657328.88715521,0
24,5,1730942.53816124,0
24,6,1761106.98427874,0.00100000000020373
24,7,1680374.61561005,0
24,8,1742670.95527347,0
24,9,1424934.82166776,0.00100000000020373
24,10,1647762.51157754,0
24,11,1696616.13910841,0
24,12,1834373.45203507,0
24,13,1865104.0208897,0
24,14,1609077.59073952,0.00100000000020373
24,15,1690743.99080841,0
24,16,1670617.59819016,0
24,17,1682759.26249449,0.00100000000020373
24,18,1628269.35430875,0
24,19,1627988.52757925,0
24,20,1889426.47631697,0.000999999996565748
24,21,1780668.24634511,0
24,22,1786903.08854015,0
24,23,1717871.54158587,0
24,24,1618300.45688305,0
24,25,1663263.93899121,0.00100000000020373
24,26,1636119.66337071,0
24,27,1474908.88762124,0
24,28,1722231.17227272,0.00100000000020373
24,29,1858974.13849499,0
24,30,1695226.18491333,0.00400000000081491
25,1,1829324.75239929,0
25,2,1593018.96951912,0
25,3,1552242.24488068,0.00100000000020373
25,4,1613572.47174241,0
25,5,1686124.91785791,0.00100000000020373
25,6,1716785.26920552,0
25,7,1636022.2436608,0
25,8,1697798.73279285,0.00100000000020373
25,9,1379734.76465321,0
25,10,1602600.43423002,0
25,11,1651950.17434685,0.00100000000020373
25,12,1788771.22182523,0
25,13,1821276.03512668,0.00100000000020373
25,14,1564219.94880863,0
25,15,1644958.25200338,0
25,16,1625903.06260701,0.00100000000020373
25,17,1637643.38143167,0
25,18,1582947.16217077,0
25,19,1583526.1029117,0.00100000000020373
25,20,1844204.94273927,0
25,21,1735466.84558094,0.00100000000020373
25,22,1742031.73235312,0
25,23,1672573.78728437,0
25,24,1573826.86607483,0.00100000000020373
25,25,1617988.43396499,0
25,26,1591892.63977514,0
25,27,1429969.94316488,0.000999999996565748
25,28,1678035.48125888,0
25,29,1814171.17675368,0.00100000000020373
25,30,1650701.55462976,0
26,1,1884746.70331297,0
26,2,1647145.2887204,0.00100000000020373
26,3,1607100.22608674,0
26,4,1667161.37196924,0
26,5,1741363.76516181,0.00100000000020373
26,6,1771653.93546084,0
26,7,1691844.67197408,0
26,8,1751888.02424137,0
26,9,1433276.8637007,0
26,10,1657985.11496049,0.00100000000020373
26,11,1705597.58237272,0
26,12,1844014.48107022,0
26,13,1875973.93215205,0.00100000000020373
26,14,1619030.45173619,0
26,15,1699630.33511689,0
26,16,1680867.5391211,0.00100000000020373
26,17,1693037.01204742,0
26,18,1636836.41744405,0
26,19,1639124.3965105,0
26,20,1898640.82557167,0
26,21,1790275.3492029,0.00100000000020373
26,22,1795321.23975549,0
26,23,1728151.22961222,0
26,24,1628182.83723657,0.00100000000020373
26,25,1672829.17465305,0
26,26,1646298.06267596,0
26,27,1485065.20339801,0.00100000000020373
26,28,1732451.06412141,0
26,29,1868379.71091688,0.00100000000020373
26,30,1705553.18179842,0
27,1,1879157.85832421,0
27,2,1643354.05362691,0.00100000000020373
27,3,1602214.52899847,0
27,4,1661476.22730992,0
27,5,1735434.83980523,0.00100000000020373
27,6,1765503.95935436,0
27,7,1684787.26713188,0
27,8,1747420.64735532,0
27,9,1430317.84678581,0
27,10,1652186.41619253,0.00100000000020373
27,11,1701005.49999651,0
27,12,1838879.61046774,0
27,13,1869251.18394883,0.00100000000020373
27,14,1613084.17011201,0
27,15,1695669.2928609,0
27,16,1675632.4360607,0.000999999996565748
27,17,1687419.76582684,0
27,18,1633059.46220375,0.00100000000020373
27,19,1632473.11901037,0
27,20,1894549.49179122,0
27,21,1785215.05036551,0.00100000000020373
27,22,1792094.27316637,0
27,23,1722569.14578788,0
27,24,1622528.94538087,0
27,25,1668514.19222494,0
27,26,1640620.28161149,0.00100000000020373
27,27,1479288.19519991,0
27,28,1726104.4424652,0.00100000000020373
27,29,1863761.56468081,0
27,30,1699700.94494202,0
28,1,1852964.97871744,0.00100000000020373
28,2,1618398.41983485,0
28,3,1576591.18118396,0.00100000000020373
28,4,1639086.71986648,0
28,5,1710280.9044877,0
28,6,1740251.5927544,0.00100000000020373
28,7,1659912.17653514,0
28,8,1722549.03571117,0
28,9,1406579.19049384,0.00100000000020373
28,10,1625820.81791899,0
28,11,1677097.80711575,0.00100000000020373
28,12,1812106.53043076,0
28,13,1845519.68439237,0
28,14,1588820.51545579,0.00100000000020373
28,15,1668135.89072015,0
28,16,1651783.33730372,0
28,17,1661536.25657964,0
28,18,1607844.32985054,0
28,19,1608745.97681737,0.00100000000020373
28,20,1868181.20826239,0
28,21,1759179.61665465,0
28,22,1766885.65546748,0.00100000000020373
28,23,1694920.62407999,0
28,24,1599416.52094434,0
28,25,1642268.91728744,0.00100000000020373
28,26,1617959.6631186,0
28,27,1454928.20581242,0.00100000000020373
28,28,1703347.8066388,0
28,29,1838119.12561076,0
28,30,1675405.77862476,0.00100000000020373
29,1,1877839.41994142,0
29,2,1639785.71071355,0
29,3,1599045.58599588,0.000999999996565748
29,4,1659409.92929772,0
29,5,1733146.73794101,0
29,6,1766174.20869394,0
29,7,1684705.11824077,0
29,8,1745056.76654982,0.00100000000020373
29,9,1426384.6689385,0
29,10,1650644.43950012,0
29,11,1698515.16744385,0.00100000000020373
29,12,1837686.17340316,0
29,13,1870115.51060061,0
29,14,1612131.48224523,0.00100000000020373
29,15,1693503.1391648,0
29,16,1675181.66298077,0.00100000000020373
29,17,1685422.84636568,0
29,18,1629617.77576466,0
29,19,1630369.07601005,0.00100000000020373
29,20,1893112.37982966,0
29,21,1783752.41874405,0
29,22,1790815.2453971,0.00100000000020373
29,23,1721159.45476266,0
29,24,1620859.89333803,0
29,25,1667596.09450755,0
29,26,1637600.41540576,0
29,27,1476690.39062453,0.00100000000020373
29,28,1724920.36503778,0
29,29,1863848.13776135,0
29,30,1698174.90156781,0.00100000000020373
30,1,1850629.14602743,0
30,2,1619671.63663865,0
30,3,1578691.60699273,0.00100000000020373
30,4,1641225.01919805,0.00100000000020373
30,5,1713072.51254913,0
30,6,1734865.3408381,0
30,7,1657743.17010782,0.00100000000020373
30,8,1719662.64087238,0
30,9,1408462.04641977,0
30,10,1625960.02739763,0
30,11,1677929.23160814,0
30,12,1809246.88490617,0.000999999996565748
30,13,1840602.15732914,0
30,14,1589543.69989141,0
30,15,1663662.55789969,0.00100000000020373
30,16,1649545.5117359,0
30,17,1664792.60594573,0
30,18,1607921.23222256,0
30,19,1612738.76667893,0
30,20,1861701.86200833,0.00100000000020373
30,21,1756327.42995105,0
30,22,1760783.38123295,0
30,23,1692530.87924617,0.00100000000020373
30,24,1602326.44476417,0
30,25,1636675.92471024,0
30,26,1623746.78214649,0.00100000000020373
30,27,1458325.80270232,0
30,28,1704090.45290884,0.00100000000020373
30,29,1829673.7662291,0
30,30,1675813.92927021,0
