App - Financius
Scenario - write_transactions
Length - 0sec
Measure - MinJumpCost
Before Version - 0.12.1
After Version - 0.13.0


"Before.Trace.ID1","Before.Trace.ID2","Difference","Runtime"
1,2,924.207483174845,0.0409999999974389
1,3,297.071564894221,0.0420000000012806
1,4,1782.58414764864,0.0410000000119908
1,5,2.107865355189,0.0389999999897555
1,6,2819.51465391785,0.0350000000034925
1,7,633.959687452173,0.0270000000018626
1,8,81.7245190770539,0.0230000000010477
1,9,70.8772932223487,0.0409999999974389
1,10,169.575065792045,0.0289999999949941
1,11,13530.1212153712,0.0510000000067521
1,12,34.0573051775552,0.0420000000012806
1,13,4555.51024048043,0.0399999999935972
1,14,11394.8006732789,0.0359999999927823
1,15,533.942552319055,0.036999999996624
1,16,320.046987912304,0.0360000000073342
1,17,207.137116121542,0.0259999999980209
1,18,5372.76813205843,0.0399999999935972
1,19,729.732124578726,0.0350000000034925
1,20,2067.63659560967,0.0320000000065193
1,21,663.430284341447,0.0500000000029104
1,22,1.53887069104473,0.0310000000026776
1,23,2.89941792010762,0.0460000000020955
1,24,0.248725871473872,0.0279999999911524
1,25,136.219254388334,0.0139999999955762
1,26,134.04832555578,0.0270000000018626
1,27,208.531359913412,0.0380000000004657
1,28,107.307688172103,0.0350000000034925
1,29,66.6408346473246,0.036999999996624
1,30,25.3517031093846,0.0360000000073342
2,3,111.023472421348,0.0590000000083819
2,4,2.51531685426929,0.0380000000004657
2,5,502.529508964207,0.0430000000051223
2,6,108.828897699815,0.0279999999911524
2,7,1912.49096626447,0.0350000000034925
2,8,0.00560262689923186,0.0230000000010477
2,9,0.336409720729201,0.0270000000018626
2,10,4576.15608085028,0.0289999999949941
2,11,51305.7267765629,0.036999999996624
2,12,9372.82579134255,0.0380000000004657
2,13,5851.12486867672,0.0169999999925494
2,14,0.51195210578112,0.0390000000043074
2,15,5114.99143586908,0.0280000000057044
2,16,529.401931475777,0.032999999995809
2,17,7107.80410758253,0.0299999999988358
2,18,10460.3277319877,0.0280000000057044
2,19,9672.86926574688,0.0259999999980209
2,20,9290.00922923246,0.0279999999911524
2,21,9866.91061061827,0.0320000000065193
2,22,3928.64163831698,0.0299999999988358
2,23,2169.07711690323,0.0430000000051223
2,24,7834.33157390142,0.0199999999895226
2,25,297.459892778557,0.0280000000057044
2,26,7542.31949536432,0.036999999996624
2,27,4722.76791381144,0.032999999995809
2,28,253.913631148258,0.0129999999917345
2,29,5861.38790671646,0.0320000000065193
2,30,1258.08657241871,0.0350000000034925
3,4,2842.52392431367,0.0549999999930151
3,5,67.169330732943,0.0259999999980209
3,6,1111.98225603114,0.0310000000026776
3,7,67.5366558026439,0.0460000000020955
3,8,97.5201198614147,0.0339999999996508
3,9,0.437509373739568,0.0169999999925494
3,10,11.6889210791458,0.0280000000057044
3,11,11529.6390486846,0.0610000000015134
3,12,2972.67632317091,0.0309999999881256
3,13,1448.11086898011,0.0220000000117579
3,14,2.7057475038397,0.0389999999897555
3,15,24.2167423337015,0.0320000000065193
3,16,407.058094317543,0.0629999999946449
3,17,733.596151634926,0.0270000000018626
3,18,0.624823232124185,0.0130000000062864
3,19,1185.9562981222,0.0280000000057044
3,20,3031.34658034436,0.0270000000018626
3,21,60.4276730227375,0.0309999999881256
3,22,2909.17448496575,0.0390000000043074
3,23,151.734662684749,0.036999999996624
3,24,1440.62303801206,0.0280000000057044
3,25,14.6630277741474,0.0259999999980209
3,26,4441.41424413833,0.0279999999911524
3,27,20.1235990766696,0.0210000000079162
3,28,2.24068331306706,0.0279999999911524
3,29,1248.55603904067,0.0300000000133878
3,30,180.506422919667,0.0259999999980209
4,5,3811.41760228516,0.0399999999935972
4,6,22.1348596158624,0.0420000000012806
4,7,9413.99093134125,0.0320000000065193
4,8,1254.18971500394,0.0259999999980209
4,9,1065.24256439627,0.0380000000004657
4,10,3591.34657001269,0.036999999996624
4,11,1149.34108069295,0.0439999999944121
4,12,4.80016364524747,0.0409999999974389
4,13,352.069966851346,0.0290000000095461
4,14,467.53766170611,0.0599999999976717
4,15,3808.08498562488,0.0280000000057044
4,16,761.050054631747,0.0380000000004657
4,17,370.15775428727,0.0199999999895226
4,18,1297.43990500353,0.0320000000065193
4,19,14.7824129555768,0.0200000000040745
4,20,864.5220350428,0.0249999999941792
4,21,213.531134157791,0.036999999996624
4,22,27.928591904169,0.0400000000081491
4,23,1411.13654819955,0.0449999999982538
4,24,657.635830809308,0.0259999999980209
4,25,3.32580264918889,0.0289999999949941
4,26,612.506561101618,0.033000000010361
4,27,1264.18151614911,0.0210000000079162
4,28,2783.31921994022,0.0279999999911524
4,29,1379.40282471355,0.0240000000048894
4,30,1076.76869000434,0.0310000000026776
5,6,21.1322776752981,0.0310000000026776
5,7,280.590769359681,0.0299999999988358
5,8,1140.01032407728,0.0309999999881256
5,9,33.2346945275504,0.0350000000034925
5,10,9.0698885895052,0.0240000000048894
5,11,20265.1708581259,0.0309999999881256
5,12,77.4789417583004,0.044000000008964
5,13,144.388645272417,0.0259999999980209
5,14,164.508911794391,0.021999999997206
5,15,342.634058915806,0.0350000000034925
5,16,70.6927371957958,0.0339999999996508
5,17,14.2265605936351,0.0359999999927823
5,18,0.498519902060552,0.0300000000133878
5,19,377.548253284843,0.0309999999881256
5,20,969.37883844965,0.0470000000059372
5,21,354.267075362685,0.0359999999927823
5,22,8.99450210851798,0.0320000000065193
5,23,38.1389364369392,0.0339999999996508
5,24,362.741855208368,0.036999999996624
5,25,24.3701591092796,0.021999999997206
5,26,9.93801382782269,0.0400000000081491
5,27,149.079535991065,0.0299999999988358
5,28,33.8260408222208,0.0270000000018626
5,29,14.451878297305,0.0350000000034925
5,30,590.07201106294,0.0320000000065193
6,7,161.716388834722,0.0279999999911524
6,8,3171.91471818145,0.0339999999996508
6,9,839.131691895392,0.0339999999996508
6,10,5.62211907918971,0.0270000000018626
6,11,124.683033195642,0.0250000000087311
6,12,295.881212556575,0.0489999999990687
6,13,128.451151025551,0.0279999999911524
6,14,2370.38324816024,0.0299999999988358
6,15,121.389078494497,0.0320000000065193
6,16,8.06295965299659,0.032999999995809
6,17,110.200817469091,0.0319999999919673
6,18,0.531302265203513,0.0190000000002328
6,19,1.65611890637499,0.0279999999911524
6,20,795.608174884798,0.0200000000040745
6,21,0.00267305942051633,0.0259999999980209
6,22,1034.20422797535,0.0310000000026776
6,23,75.261953844845,0.0299999999988358
6,24,211.75977286133,0.0380000000004657
6,25,52.0668289817215,0.0179999999963911
6,26,10.9660983976357,0.0339999999996508
6,27,67.2729336977338,0.0430000000051223
6,28,580.784691498446,0.0299999999988358
6,29,16.3905726445504,0.0339999999996508
6,30,0.15627404373251,0.0169999999925494
7,8,619.842719350976,0.0320000000065193
7,9,10.0602036026087,0.0339999999996508
7,10,552.609029505429,0.0249999999941792
7,11,3001.71192793838,0.0390000000043074
7,12,776.022969058083,0.0390000000043074
7,13,17.8836656376376,0.0279999999911524
7,14,2185.43473165236,0.0339999999996508
7,15,9.98064021947156,0.0299999999988358
7,16,35.643294487817,0.0320000000065193
7,17,46.9590358742485,0.0310000000026776
7,18,25.1245288949825,0.0389999999897555
7,19,955.452922013797,0.0299999999988358
7,20,565.23975900176,0.0280000000057044
7,21,11.4132767849946,0.0319999999919673
7,22,444.353486100251,0.0230000000010477
7,23,70.0087702356462,0.0380000000004657
7,24,1331.33670336364,0.0320000000065193
7,25,8.91636950847465,0.032999999995809
7,26,255.203282596512,0.0449999999982538
7,27,9.14873186961691,0.0270000000018626
7,28,147.254794082099,0.0299999999988358
7,29,11.493218417108,0.0270000000018626
7,30,1151.13057210964,0.0580000000045402
8,9,54.9249170724968,0.0339999999996508
8,10,5547.87766785015,0.0310000000026776
8,11,7357.73680945049,0.036999999996624
8,12,10216.0589137274,0.0310000000026776
8,13,7.17251450678185,0.0230000000010477
8,14,11554.2585405316,0.0269999999873107
8,15,2092.50576438909,0.0250000000087311
8,16,49.2500616495624,0.0629999999946449
8,17,2008.95688541631,0.0200000000040745
8,18,523.876782286093,0.0280000000057044
8,19,55.3013334190827,0.0319999999919673
8,20,1522.65111917459,0.0270000000018626
8,21,30.0308076406838,0.021999999997206
8,22,473.590854173273,0.0289999999949941
8,23,65.7619394017919,0.0280000000057044
8,24,6754.19682404038,0.0240000000048894
8,25,190.071241621954,0.0250000000087311
8,26,2243.97474317434,0.0299999999988358
8,27,2081.31559755119,0.0270000000018626
8,28,34.3068901821596,0.0299999999988358
8,29,5583.66598648294,0.0309999999881256
8,30,0.302651162444384,0.0290000000095461
9,10,896.514126564107,0.0399999999935972
9,11,83.2866166203577,0.0149999999994179
9,12,5512.48489784042,0.0249999999941792
9,13,3406.26672278534,0.0270000000018626
9,14,5329.46413547561,0.032999999995809
9,15,967.93740131763,0.0390000000043074
9,16,79.2358279315859,0.021999999997206
9,17,2991.02148642141,0.0420000000012806
9,18,3953.98454613008,0.0319999999919673
9,19,3606.94173418063,0.033000000010361
9,20,2898.65316117219,0.0170000000071013
9,21,13.0438139929402,0.021999999997206
9,22,1770.8278902909,0.0380000000004657
9,23,27.9400725104731,0.0380000000004657
9,24,2972.66017324414,0.0299999999988358
9,25,338.664190967052,0.0259999999980209
9,26,2192.54881590522,0.0240000000048894
9,27,1827.7831916555,0.0320000000065193
9,28,3.1222941770239,0.0279999999911524
9,29,337.449551114026,0.0299999999988358
9,30,4.84811436402334,0.055000000007567
10,11,227.270095265323,0.0449999999982538
10,12,476.490882784965,0.0249999999941792
10,13,3.95023885048462,0.0290000000095461
10,14,1163.46201378922,0.0430000000051223
10,15,9.48525557421987,0.0280000000057044
10,16,568.984271143868,0.0239999999903375
10,17,9.51095246763466,0.0250000000087311
10,18,4.12544874603573,0.0309999999881256
10,19,4.93299260187213,0.0339999999996508
10,20,203.761697264332,0.0339999999996508
10,21,53.8438619213222,0.0420000000012806
10,22,1.68573356206215,0.0260000000125729
10,23,669.030084075026,0.0489999999990687
10,24,189.522905981611,0.0339999999996508
10,25,39.6630365133799,0.0230000000010477
10,26,8.59615232963434,0.0289999999949941
10,27,28.670308369584,0.0299999999988358
10,28,1149.19667911483,0.0239999999903375
10,29,214.448164974817,0.0360000000073342
10,30,206.823308247853,0.0519999999960419
11,12,16769.0366523304,0.036999999996624
11,13,11741.6876060611,0.0390000000043074
11,14,14832.6372389525,0.0409999999974389
11,15,5.05260946032316,0.0289999999949941
11,16,3386.44078301494,0.0250000000087311
11,17,15.1449292209791,0.032999999995809
11,18,22588.0852376023,0.0320000000065193
11,19,548.278246011322,0.0339999999996508
11,20,13617.9562509325,0.0399999999935972
11,21,11.9231554858175,0.0280000000057044
11,22,21129.9832478296,0.0489999999990687
11,23,31726.9627819342,0.0539999999891734
11,24,21812.3995735073,0.0410000000119908
11,25,18274.1553731286,0.0339999999996508
11,26,566.268589417486,0.0449999999982538
11,27,0.0214605144646283,0.0169999999925494
11,28,1.39899754731338,0.0230000000010477
11,29,19979.0363959231,0.0360000000073342
11,30,15904.9588263898,0.036999999996624
12,13,938.790431029796,0.0310000000026776
12,14,27.60717416708,0.0319999999919673
12,15,15.4557784738173,0.0280000000057044
12,16,227.905328380533,0.0240000000048894
12,17,34.9738094179916,0.0319999999919673
12,18,385.54538456977,0.047999999995227
12,19,21.2979195497924,0.018000000010943
12,20,412.4614691792,0.0259999999980209
12,21,3.77421856128407,0.0259999999980209
12,22,12.4134888782964,0.0549999999930151
12,23,1579.92475696435,0.032999999995809
12,24,29.9037722418531,0.0360000000073342
12,25,697.132427478653,0.0270000000018626
12,26,23.4230025018157,0.0319999999919673
12,27,25.3817448714478,0.0320000000065193
12,28,174.036075494009,0.021999999997206
12,29,287.6190731755,0.0270000000018626
12,30,3474.75250612141,0.033000000010361
13,14,121.181778461806,0.0380000000004657
13,15,77.5316029579041,0.0289999999949941
13,16,471.894523336009,0.0259999999980209
13,17,145.494875907786,0.0320000000065193
13,18,13.3069582907857,0.036999999996624
13,19,45.1313845564502,0.021999999997206
13,20,5.71859224641113,0.0280000000057044
13,21,9.11515630041947,0.021999999997206
13,22,19.844993345193,0.0339999999996508
13,23,833.665433684437,0.0320000000065193
13,24,78.9940860403278,0.032999999995809
13,25,4.85419880982073,0.0279999999911524
13,26,330.137943104749,0.0339999999996508
13,27,1.38573603223595,0.0340000000142027
13,28,1060.09421856794,0.021999999997206
13,29,7.1237511388947,0.0429999999905704
13,30,205.330120261761,0.0289999999949941
14,15,4911.17778866914,0.033000000010361
14,16,4971.27437257624,0.0349999999889405
14,17,2821.58164627691,0.0450000000128057
14,18,3085.45701234255,0.0509999999922002
14,19,1290.64355440504,0.0390000000043074
14,20,8.00171562405803,0.0399999999935972
14,21,215.576717904172,0.0320000000065193
14,22,1197.08430080211,0.0399999999935972
14,23,8216.70878618347,0.0869999999995343
14,24,4012.05996489219,0.0429999999905704
14,25,1419.2990052731,0.0190000000002328
14,26,98.2918486382203,0.0409999999974389
14,27,0.995324791318003,0.0320000000065193
14,28,1714.64846341346,0.033000000010361
14,29,3546.39350748091,0.0309999999881256
14,30,11161.7396175968,0.0380000000004657
15,16,0.736124439676038,0.032999999995809
15,17,5.86067612014284,0.0339999999996508
15,18,20.3504454875712,0.0339999999996508
15,19,7.2908870773992,0.0260000000125729
15,20,667.164939083126,0.0190000000002328
15,21,11.6445031138415,0.0289999999949941
15,22,0.0279950602921564,0.021999999997206
15,23,65.6214054304352,0.044000000008964
15,24,0.585504708093882,0.0209999999933643
15,25,612.216752722597,0.0239999999903375
15,26,10.228467850862,0.033000000010361
15,27,31.6991396748196,0.0339999999996508
15,28,536.667446503803,0.0239999999903375
15,29,135.109571650094,0.0259999999980209
15,30,14.3659971600466,0.0300000000133878
16,17,1635.65806719702,0.0289999999949941
16,18,36.5045838746688,0.0280000000057044
16,19,699.520979850882,0.0309999999881256
16,20,1260.30341968781,0.0220000000117579
16,21,67.3983314417955,0.0229999999864958
16,22,151.708558579991,0.0260000000125729
16,23,19.3166201967713,0.0270000000018626
16,24,5.08985584893418,0.0259999999980209
16,25,109.691164581094,0.0310000000026776
16,26,2.34148743738978,0.0259999999980209
16,27,642.751511436407,0.0259999999980209
16,28,27.1891511018245,0.0290000000095461
16,29,160.465901202482,0.0249999999941792
16,30,1.96873235831146,0.0299999999988358
17,18,4.32549218455636,0.0359999999927823
17,19,247.799491870475,0.0230000000010477
17,20,0.36250978313763,0.0160000000032596
17,21,2.88659893716089,0.0280000000057044
17,22,16.8575739943531,0.0429999999905704
17,23,61.5160417757739,0.0720000000001164
17,24,29.8219277433512,0.0320000000065193
17,25,3.75497870441278,0.0209999999933643
17,26,958.024418576692,0.0270000000018626
17,27,323.449482136106,0.0279999999911524
17,28,117.371798771953,0.0230000000010477
17,29,462.666777750107,0.0320000000065193
17,30,921.412220579001,0.0259999999980209
18,19,57.0777031633581,0.0299999999988358
18,20,112.873786280365,0.0339999999996508
18,21,8.50742062288545,0.0320000000065193
18,22,7.7765501976597,0.0499999999883585
18,23,614.223664366351,0.0409999999974389
18,24,5.26566044789298,0.0450000000128057
18,25,77.3002712416778,0.0359999999927823
18,26,283.691884854563,0.0299999999988358
18,27,26.3378910859635,0.0320000000065193
18,28,13.1964738784903,0.0199999999895226
18,29,419.515413627764,0.0310000000026776
18,30,1.55910362692401,0.0299999999988358
19,20,39.8924213941386,0.036999999996624
19,21,6.87174496591323,0.0260000000125729
19,22,1.0553346217603,0.0279999999911524
19,23,886.19093029222,0.0339999999996508
19,24,14.7954285100288,0.0339999999996508
19,25,883.72067476949,0.0280000000057044
19,26,8.24302836256332,0.0279999999911524
19,27,13.4417144139783,0.0430000000051223
19,28,120.179385360691,0.0240000000048894
19,29,321.081097169174,0.0319999999919673
19,30,2752.20452675751,0.0270000000018626
20,21,26.7960648256717,0.0240000000048894
20,22,120.826318675259,0.0299999999988358
20,23,2092.43386018269,0.0310000000026776
20,24,959.008833417738,0.0320000000065193
20,25,1134.9035638504,0.0289999999949941
20,26,3.76740246031418,0.0270000000018626
20,27,6.60329049836642,0.0230000000010477
20,28,5399.49766337036,0.021999999997206
20,29,1078.82131610442,0.0349999999889405
20,30,4401.27056194151,0.0290000000095461
21,22,17.4739921284057,0.0319999999919673
21,23,741.434116060587,0.0320000000065193
21,24,5.59194790804723,0.0299999999988358
21,25,2044.01714713519,0.0339999999996508
21,26,759.121625544467,0.0310000000026776
21,27,963.955819439208,0.0339999999996508
21,28,1024.24047364741,0.021999999997206
21,29,1.01839963194522,0.0259999999980209
21,30,560.70351582398,0.0310000000026776
22,23,1076.35196892563,0.0420000000012806
22,24,0.463578059295953,0.0629999999946449
22,25,231.160565638236,0.0289999999949941
22,26,9.80171027259584,0.0310000000026776
22,27,724.113516244076,0.0360000000073342
22,28,1.30664786087854,0.0239999999903375
22,29,194.849251659364,0.0350000000034925
22,30,0.22467599060561,0.0240000000048894
23,24,1.95541089855665,0.0299999999988358
23,25,30.6115445719492,0.0299999999988358
23,26,62.9819143768511,0.0380000000004657
23,27,22.8647086869855,0.0390000000043074
23,28,17.8118777048614,0.0209999999933643
23,29,4.5700493138725,0.0399999999935972
23,30,447.787489734278,0.0470000000059372
24,25,1253.33635919275,0.0320000000065193
24,26,8.59523881158809,0.0279999999911524
24,27,8.8995649914125,0.0299999999988358
24,28,8.70424041823711,0.0280000000057044
24,29,6.1220909300035,0.0299999999988358
24,30,4390.23651406491,0.036999999996624
25,26,231.233490609598,0.0279999999911524
25,27,102.025697658146,0.0320000000065193
25,28,118.699502972687,0.021999999997206
25,29,2083.88299559087,0.0240000000048894
25,30,52.1881593061405,0.021999999997206
26,27,21.0533315423456,0.0280000000057044
26,28,28.026507890496,0.0270000000018626
26,29,756.472268303814,0.0309999999881256
26,30,1606.3210366751,0.0220000000117579
27,28,173.183390703012,0.036999999996624
27,29,10.2553116400437,0.05899999999383
27,30,128.872833467419,0.033000000010361
28,29,1334.35742005893,0.021999999997206
28,30,0.676130217645829,0.0390000000043074
29,30,152.72036432054,0.0250000000087311


"After.Trace.ID","Before.Trace.ID","Difference","Runtime"
1,1,631.989288171404,0.0359999999927823
1,2,11564.4448058659,0.0339999999996508
1,3,4808.52492799395,0.032999999995809
1,4,12.9833143329281,0.0310000000026776
1,5,538.516332270621,0.0339999999996508
1,6,260.25720330194,0.0230000000010477
1,7,106.495795752285,0.0380000000004657
1,8,6410.80073002945,0.0299999999988358
1,9,5006.66137130352,0.0280000000057044
1,10,0.673648238274722,0.0209999999933643
1,11,6.5246307131862,0.0310000000026776
1,12,81.715943022026,0.0320000000065193
1,13,2.00979674374245,0.0299999999988358
1,14,1.59510353490177,0.0270000000018626
1,15,2329.60743985293,0.0309999999881256
1,16,847.821914960528,0.0250000000087311
1,17,33.7054681555395,0.0349999999889405
1,18,698.440943645458,0.0390000000043074
1,19,4.01078893654474,0.032999999995809
1,20,918.956062121074,0.0290000000095461
1,21,4.51492260625591,0.0289999999949941
1,22,78.0775590008586,0.036999999996624
1,23,66.6130620208885,0.0380000000004657
1,24,6.70596169598327,0.0310000000026776
1,25,75.2677674318088,0.0349999999889405
1,26,1.67692518803303,0.0280000000057044
1,27,2541.0147239152,0.0289999999949941
1,28,760.156760657881,0.0240000000048894
1,29,2187.72092760499,0.0400000000081491
1,30,1185.10923832266,0.05899999999383
2,1,1643.55240218394,0.032999999995809
2,2,8156.28674776722,0.0289999999949941
2,3,6936.53591354143,0.0310000000026776
2,4,191.537824372103,0.0390000000043074
2,5,942.191592128023,0.0289999999949941
2,6,1632.14735396702,0.0360000000073342
2,7,12.7626919893451,0.0299999999988358
2,8,312.809176812337,0.0249999999941792
2,9,436.89423348368,0.0460000000020955
2,10,162.43879971836,0.0299999999988358
2,11,59.1538734814809,0.0249999999941792
2,12,32.8750398385851,0.0289999999949941
2,13,312.82409354125,0.0230000000010477
2,14,5.23650877948678,0.0380000000004657
2,15,1592.73118440366,0.032999999995809
2,16,728.441934064697,0.0280000000057044
2,17,29.6519785377118,0.0299999999988358
2,18,0.985217995007471,0.0280000000057044
2,19,11.8555961548553,0.021999999997206
2,20,447.735638178959,0.0319999999919673
2,21,113.421409072741,0.0280000000057044
2,22,78.9786540575136,0.0299999999988358
2,23,56.9134748298125,0.0320000000065193
2,24,16.0288418080106,0.0259999999980209
2,25,1132.30206478567,0.0299999999988358
2,26,1074.29192514903,0.0299999999988358
2,27,1247.31398151707,0.032999999995809
2,28,634.558607194332,0.0279999999911524
2,29,98.0195888910872,0.0339999999996508
2,30,404.900978787001,0.088000000003376
3,1,13264.223448445,0.0390000000043074
3,2,24923.6231121146,0.0319999999919673
3,3,6497.94491516026,0.0490000000136206
3,4,1.23094078756193,0.0299999999988358
3,5,14046.5364926168,0.036999999996624
3,6,12267.0175575364,0.0439999999944121
3,7,27922.7874615721,0.0449999999982538
3,8,34463.9054851163,0.0259999999980209
3,9,11.959271897369,0.0250000000087311
3,10,10873.7229860437,0.036999999996624
3,11,14330.9681746744,0.0519999999960419
3,12,0.701097802380144,0.0390000000043074
3,13,3.83854648415044,0.0359999999927823
3,14,521.246946836715,0.0470000000059372
3,15,12859.3440251752,0.0350000000034925
3,16,32498.0282254304,0.0349999999889405
3,17,73.0573050328035,0.0280000000057044
3,18,1442.60755275109,0.0380000000004657
3,19,54.1810516010223,0.0289999999949941
3,20,6.84831959238192,0.0339999999996508
3,21,4786.54029501527,0.0360000000073342
3,22,1001.19778460762,0.0620000000053551
3,23,2014.7555534638,0.0439999999944121
3,24,120.057598672214,0.0570000000006985
3,25,11899.8047714387,0.0310000000026776
3,26,4457.80192768671,0.0299999999988358
3,27,4.64060983602141,0.0259999999980209
3,28,750.150332527083,0.0240000000048894
3,29,35.0151589151899,0.0269999999873107
3,30,12955.1134435463,0.0430000000051223
4,1,4245.14796106375,0.0279999999911524
4,2,3387.53495315412,0.0690000000031432
4,3,2163.13827402883,0.0679999999993015
4,4,78.440077620065,0.0639999999984866
4,5,1228.17097868475,0.0320000000065193
4,6,11.8158251739823,0.0240000000048894
4,7,71.3737629358538,0.0339999999996508
4,8,21.4999456865684,0.0299999999988358
4,9,137.536052073032,0.0290000000095461
4,10,84.942066673149,0.0289999999949941
4,11,2788.21143979473,0.0679999999993015
4,12,818.081470847837,0.0299999999988358
4,13,847.891048981789,0.021999999997206
4,14,2420.75467230478,0.032999999995809
4,15,33.6042652461185,0.0300000000133878
4,16,451.883677198317,0.0289999999949941
4,17,88.3046453767223,0.0359999999927823
4,18,0.494856590925299,0.0230000000010477
4,19,2.48483560415338,0.0280000000057044
4,20,1170.23081231294,0.036999999996624
4,21,835.217905601109,0.0279999999911524
4,22,7.75509622509566,0.0320000000065193
4,23,0.248860904548536,0.032999999995809
4,24,6.83167302951039,0.0360000000073342
4,25,939.703376868729,0.032999999995809
4,26,1719.17400862417,0.0209999999933643
4,27,175.5544893798,0.0290000000095461
4,28,1462.19180306442,0.0259999999980209
4,29,2.31821378551587,0.0319999999919673
4,30,0.802458226434549,0.0310000000026776
5,1,13.3825047827994,0.0200000000040745
5,2,506.806963619419,0.0259999999980209
5,3,44.1094445312266,0.0240000000048894
5,4,1583.81383115227,0.0209999999933643
5,5,112.574381851392,0.0310000000026776
5,6,18.3794254755347,0.0280000000057044
5,7,118.664597027616,0.0279999999911524
5,8,759.963899153971,0.0230000000010477
5,9,58.584383615009,0.0139999999955762
5,10,9.47591117703016,0.0380000000004657
5,11,4.05658758314057,0.018000000010943
5,12,47.9526246975743,0.0299999999988358
5,13,6.3645775003733,0.0279999999911524
5,14,343.79817617199,0.0460000000020955
5,15,7.2189166336893,0.0299999999988358
5,16,122.139437182371,0.0270000000018626
5,17,0.645395377788403,0.0190000000002328
5,18,4.80478792836302,0.0289999999949941
5,19,494.371103886673,0.0259999999980209
5,20,4.78885544366623,0.0280000000057044
5,21,1295.47843255455,0.032999999995809
5,22,0.882949857106108,0.0299999999988358
5,23,454.479647156674,0.0200000000040745
5,24,2.36489516577076,0.0259999999980209
5,25,3135.15864981029,0.0339999999996508
5,26,7.90559728588763,0.0289999999949941
5,27,782.54969955508,0.0299999999988358
5,28,543.937534025618,0.0200000000040745
5,29,73.2334316919546,0.0240000000048894
5,30,13.3054122770491,0.021999999997206
6,1,147.235832511487,0.0299999999988358
6,2,3150.48818872701,0.0289999999949941
6,3,610.870729277346,0.0250000000087311
6,4,2385.39130299979,0.0199999999895226
6,5,69.673943640625,0.0280000000057044
6,6,4932.64731047979,0.0339999999996508
6,7,84.9721676798892,0.0409999999974389
6,8,1946.15320811969,0.0310000000026776
6,9,0.10253050003699,0.0170000000071013
6,10,393.763369595168,0.0299999999988358
6,11,6.10234257351984,0.0230000000010477
6,12,1518.0798794786,0.0339999999996508
6,13,1151.78621054842,0.0319999999919673
6,14,0.254944635322749,0.0310000000026776
6,15,333.942429970427,0.0280000000057044
6,16,68.8233821429413,0.0319999999919673
6,17,16.2889013362754,0.0200000000040745
6,18,607.681311711136,0.0259999999980209
6,19,757.464853165343,0.0259999999980209
6,20,474.421985663565,0.0320000000065193
6,21,355.969184609884,0.0299999999988358
6,22,2.67575434104961,0.033000000010361
6,23,557.276895601707,0.0389999999897555
6,24,736.932308733198,0.0299999999988358
6,25,30.4175954604476,0.0320000000065193
6,26,59.4503148097214,0.0319999999919673
6,27,99.4234445702983,0.0250000000087311
6,28,26.0274042929498,0.0270000000018626
6,29,204.278797532177,0.0319999999919673
6,30,0.322283484120276,0.0230000000010477
7,1,424.006061777139,0.0400000000081491
7,2,9392.89979488889,0.0399999999935972
7,3,2686.89751257149,0.0380000000004657
7,4,1066.08995800559,0.0380000000004657
7,5,142.699157896761,0.0359999999927823
7,6,37.592870972377,0.0360000000073342
7,7,58.361311462057,0.0240000000048894
7,8,2249.49808726525,0.0259999999980209
7,9,4960.42925689706,0.0350000000034925
7,10,766.076143227338,0.0380000000004657
7,11,26961.6145505811,0.0380000000004657
7,12,6.12291621623313,0.0360000000073342
7,13,321.379236885087,0.0429999999905704
7,14,4692.50781348286,0.0400000000081491
7,15,0.242862916074304,0.0230000000010477
7,16,885.658815475153,0.0259999999980209
7,17,12.1230983807481,0.0359999999927823
7,18,63.3300480221887,0.0690000000031432
7,19,228.775893565389,0.044000000008964
7,20,50.3366988126537,0.032999999995809
7,21,5.47938059803493,0.0249999999941792
7,22,230.25838948991,0.0570000000006985
7,23,1086.30181546216,0.06600000000617
7,24,38.526696527622,0.047999999995227
7,25,38.2575249272651,0.0380000000004657
7,26,74.0032528392005,0.0359999999927823
7,27,0.115504338854328,0.021999999997206
7,28,65.8589980127178,0.0220000000117579
7,29,823.672218010962,0.0299999999988358
7,30,4897.18152675379,0.0460000000020955
8,1,42.3211823278266,0.0269999999873107
8,2,1607.1801046929,0.0450000000128057
8,3,1057.67388764608,0.0389999999897555
8,4,602.318591050554,0.0320000000065193
8,5,255.259621032801,0.036999999996624
8,6,82.3709913101874,0.0299999999988358
8,7,338.130421259147,0.0240000000048894
8,8,8.16048078906852,0.021999999997206
8,9,1.61038859288265,0.0270000000018626
8,10,24.1919100859654,0.0210000000079162
8,11,30734.9476782134,0.0339999999996508
8,12,14.0778719492076,0.0249999999941792
8,13,17.994411498513,0.0249999999941792
8,14,577.017134396736,0.0690000000031432
8,15,42.7997914502992,0.0319999999919673
8,16,1113.65611146148,0.0210000000079162
8,17,92.8641730061253,0.0240000000048894
8,18,3.31872740877862,0.0619999999908032
8,19,1132.50846521635,0.0280000000057044
8,20,20.9968706908872,0.0319999999919673
8,21,12.3591371207923,0.0270000000018626
8,22,321.644789123458,0.0299999999988358
8,23,14.9577409466073,0.0380000000004657
8,24,27.5860686315691,0.0259999999980209
8,25,1706.90869165925,0.0280000000057044
8,26,127.538770476251,0.0240000000048894
8,27,7.48291143201036,0.0230000000010477
8,28,2732.79189574537,0.0380000000004657
8,29,987.848058459144,0.0310000000026776
8,30,8.03641675852295,0.0339999999996508
9,1,9.9328296613436,0.0259999999980209
9,2,22.3679853911106,0.0149999999994179
9,3,18.8161132707986,0.0200000000040745
9,4,203.679703698549,0.0259999999980209
9,5,176.327886689543,0.044000000008964
9,6,112.268995280329,0.0299999999988358
9,7,47.6827616682263,0.0249999999941792
9,8,295.814553650025,0.0310000000026776
9,9,48.1378885233581,0.0380000000004657
9,10,21.7149873315981,0.0279999999911524
9,11,692.03528967123,0.0420000000012806
9,12,252.993652372457,0.0280000000057044
9,13,1018.43374900783,0.0299999999988358
9,14,5604.64091181019,0.0259999999980209
9,15,1287.81227848129,0.036999999996624
9,16,36.1012912894633,0.0230000000010477
9,17,680.530748636525,0.0299999999988358
9,18,4782.52934265007,0.0280000000057044
9,19,97.46807241746,0.0279999999911524
9,20,4.46794719876965,0.0320000000065193
9,21,853.720200470576,0.0240000000048894
9,22,628.134587575935,0.0380000000004657
9,23,27.6476771721723,0.0239999999903375
9,24,1937.24708029875,0.0270000000018626
9,25,106.116502909203,0.0360000000073342
9,26,10.2454701417561,0.0339999999996508
9,27,13.2323875499324,0.032999999995809
9,28,54.80350759486,0.0310000000026776
9,29,221.587228881826,0.0290000000095461
9,30,1.81990728313548,0.0409999999974389
10,1,272.513749743183,0.0359999999927823
10,2,8233.53065868615,0.0270000000018626
10,3,4247.54679038548,0.0240000000048894
10,4,0.54045294050128,0.0129999999917345
10,5,12.0824189296696,0.0259999999980209
10,6,283.462062336944,0.0220000000117579
10,7,391.496500665982,0.0170000000071013
10,8,46.7143299481747,0.0299999999988358
10,9,5031.79037737554,0.0240000000048894
10,10,36.2181517026282,0.032999999995809
10,11,2.52218443104923,0.0409999999974389
10,12,0.78442392607789,0.0190000000002328
10,13,1.27119923818597,0.021999999997206
10,14,704.468464377917,0.0270000000018626
10,15,3.61695631948493,0.0240000000048894
10,16,143.94640320999,0.0279999999911524
10,17,0.948335052170458,0.0289999999949941
10,18,0.692690250775751,0.0210000000079162
10,19,272.848746184883,0.021999999997206
10,20,277.197992369876,0.0270000000018626
10,21,3.83604129833821,0.0240000000048894
10,22,66.5536601652066,0.0529999999998836
10,23,1360.50070829594,0.0399999999935972
10,24,151.022678601591,0.0280000000057044
10,25,1908.53167914921,0.0339999999996508
10,26,2.7855322735425,0.0170000000071013
10,27,48.0048354678876,0.0239999999903375
10,28,185.180606673923,0.0250000000087311
10,29,1407.40714766724,0.0259999999980209
10,30,2587.81873672075,0.0239999999903375
11,1,0.477025818590208,0.0259999999980209
11,2,15509.6824200898,0.033000000010361
11,3,0.0165433969149867,0.0179999999963911
11,4,2081.55839123325,0.0470000000059372
11,5,1384.88572471363,0.0259999999980209
11,6,139.694929719826,0.0210000000079162
11,7,110.50721835915,0.0280000000057044
11,8,2828.71204478931,0.0269999999873107
11,9,3424.11698768525,0.0280000000057044
11,10,116.192844319166,0.0449999999982538
11,11,18677.8650122376,0.0460000000020955
11,12,37.4421879591763,0.0359999999927823
11,13,179.283289403325,0.0280000000057044
11,14,3428.67989915549,0.0509999999922002
11,15,2.52604086665116,0.0220000000117579
11,16,745.835729329272,0.0279999999911524
11,17,15.7268168546621,0.047999999995227
11,18,3.01357053941749,0.0560000000114087
11,19,59.4656010059643,0.0259999999980209
11,20,452.387383087597,0.0239999999903375
11,21,0.272738219152312,0.0270000000018626
11,22,384.980275562922,0.044000000008964
11,23,405.61854979959,0.0509999999922002
11,24,81.9977259016909,0.0420000000012806
11,25,13.9339371848689,0.0270000000018626
11,26,274.446717151978,0.0489999999990687
11,27,127.328842468061,0.047999999995227
11,28,955.316898891949,0.0320000000065193
11,29,69.0479320173893,0.0389999999897555
11,30,0.443909921103727,0.0210000000079162
12,1,1.20356180924216,0.0420000000012806
12,2,5701.90902492152,0.021999999997206
12,3,4804.15254799137,0.0299999999988358
12,4,195.850385374956,0.0259999999980209
12,5,15.5350790840766,0.0290000000095461
12,6,20.511903906008,0.0229999999864958
12,7,446.883992277323,0.0240000000048894
12,8,403.220457584531,0.0250000000087311
12,9,1911.50772254868,0.0170000000071013
12,10,21.1941618174484,0.032999999995809
12,11,7451.35017862095,0.0289999999949941
12,12,1312.07532281899,0.0380000000004657
12,13,347.534311103431,0.0310000000026776
12,14,1478.30092972071,0.0179999999963911
12,15,13.790881326996,0.0319999999919673
12,16,920.808520881045,0.0420000000012806
12,17,528.281751400704,0.0280000000057044
12,18,0.620959524380041,0.0209999999933643
12,19,27.7719069375298,0.0600000000122236
12,20,15.8583473763586,0.0299999999988358
12,21,82.9068629357358,0.0500000000029104
12,22,105.682312397049,0.0399999999935972
12,23,859.573652988053,0.0289999999949941
12,24,98.293573873166,0.0280000000057044
12,25,68.8756748777686,0.021999999997206
12,26,18.9171831804689,0.0449999999982538
12,27,13.18497724605,0.0310000000026776
12,28,6245.49935624293,0.0529999999998836
12,29,187.798870165226,0.0270000000018626
12,30,3199.79053190146,0.0390000000043074
13,1,46.5571624083343,0.0159999999887077
13,2,1599.69742463705,0.0160000000032596
13,3,27.9215521093358,0.0230000000010477
13,4,235.751103410069,0.0259999999980209
13,5,269.939273817474,0.0299999999988358
13,6,1.10894411368128,0.0220000000117579
13,7,11.1993235118385,0.0399999999935972
13,8,3043.82500002587,0.0249999999941792
13,9,213.670646226827,0.0170000000071013
13,10,32.2226969843748,0.0439999999944121
13,11,24.4959327656291,0.0190000000002328
13,12,46.103446008285,0.0280000000057044
13,13,14.7301036299583,0.0259999999980209
13,14,3612.97467410467,0.0310000000026776
13,15,95.0661038214811,0.0239999999903375
13,16,285.380480311386,0.021999999997206
13,17,28.2863671718273,0.0200000000040745
13,18,132.597493764952,0.0299999999988358
13,19,12.7989662578478,0.0280000000057044
13,20,54.6994329793821,0.0239999999903375
13,21,21.3265402359279,0.0280000000057044
13,22,6.83228829534583,0.021999999997206
13,23,799.86937859119,0.0170000000071013
13,24,0.051717833781826,0.0170000000071013
13,25,30.4235140698619,0.0259999999980209
13,26,40.6876039165099,0.0200000000040745
13,27,10.6638471822118,0.0350000000034925
13,28,656.441146564043,0.0249999999941792
13,29,159.460696527859,0.0380000000004657
13,30,212.969485496523,0.0209999999933643
14,1,1950.10616037441,0.0220000000117579
14,2,8862.31271047275,0.032999999995809
14,3,2118.4792921969,0.0430000000051223
14,4,2230.81445911309,0.033000000010361
14,5,704.223271358053,0.0349999999889405
14,6,1191.0796483722,0.0360000000073342
14,7,1399.03788369295,0.0299999999988358
14,8,1492.26284488407,0.036999999996624
14,9,6604.77337650718,0.0280000000057044
14,10,43.9081556761969,0.0199999999895226
14,11,137.028827944677,0.0449999999982538
14,12,240.387790136466,0.0280000000057044
14,13,131.843030047129,0.0409999999974389
14,14,4.78869455125492,0.0209999999933643
14,15,92.9134649770418,0.0409999999974389
14,16,386.57007367662,0.0350000000034925
14,17,1036.97579545838,0.0339999999996508
14,18,1596.5017096218,0.0270000000018626
14,19,237.546695500573,0.0469999999913853
14,20,4.02245217970232,0.0290000000095461
14,21,16.9061712380556,0.0359999999927823
14,22,602.647926640715,0.0200000000040745
14,23,2132.93274919764,0.0350000000034925
14,24,28.6723874604241,0.0339999999996508
14,25,756.592458034979,0.0459999999875436
14,26,164.074098843788,0.0339999999996508
14,27,236.536070739348,0.0250000000087311
14,28,207.170008485009,0.0230000000010477
14,29,1.67921868903091,0.036999999996624
14,30,2711.63176676009,0.0249999999941792
15,1,622.366858669233,0.0390000000043074
15,2,10864.325409431,0.0470000000059372
15,3,5637.55500652393,0.0289999999949941
15,4,31.3440748794272,0.0280000000057044
15,5,1124.94457872554,0.0270000000018626
15,6,1098.5738808474,0.0379999999859137
15,7,2034.9950799922,0.033000000010361
15,8,977.042020309213,0.0239999999903375
15,9,3128.89965486322,0.0350000000034925
15,10,12.4030160426342,0.0249999999941792
15,11,4326.65327877605,0.0290000000095461
15,12,648.47546469627,0.0499999999883585
15,13,49.2745017960452,0.033000000010361
15,14,1241.47264315292,0.0380000000004657
15,15,18.9617868056305,0.021999999997206
15,16,0.14365375832705,0.0199999999895226
15,17,1.72648157539636,0.0270000000018626
15,18,10.6356501442918,0.0299999999988358
15,19,703.997388753919,0.0270000000018626
15,20,17.6577266791876,0.0310000000026776
15,21,548.374916475249,0.0249999999941792
15,22,120.946242169685,0.0409999999974389
15,23,54.9172517890548,0.0510000000067521
15,24,7.20502648282831,0.0349999999889405
15,25,10.4444684602875,0.0290000000095461
15,26,9.62479443468056,0.0339999999996508
15,27,692.739003749381,0.0259999999980209
15,28,47.9995988848138,0.0279999999911524
15,29,119.587928946459,0.0310000000026776
15,30,2128.27410273528,0.0370000000111759
16,1,11393.4325768577,0.0380000000004657
16,2,16239.8153885269,0.0419999999867287
16,3,3051.75548798195,0.0420000000012806
16,4,1.13634416250497,0.0400000000081491
16,5,1.57292693868856,0.0350000000034925
16,6,245.265957166658,0.0179999999963911
16,7,27.0474473282249,0.0239999999903375
16,8,3304.91640148938,0.0250000000087311
16,9,2.07791234262565,0.0359999999927823
16,10,86.0087659923856,0.0339999999996508
16,11,12118.7113850678,0.0610000000015134
16,12,8.0992497370524,0.0290000000095461
16,13,145.771697632533,0.036999999996624
16,14,624.884799104769,0.0439999999944121
16,15,3.06845076676336,0.0559999999968568
16,16,260.558833928435,0.0339999999996508
16,17,354.924477607334,0.0360000000073342
16,18,9.16930714866085,0.0399999999935972
16,19,13.9636997017185,0.0840000000025611
16,20,176.699566733443,0.033000000010361
16,21,900.331451075275,0.0290000000095461
16,22,6.20627225966402,0.0319999999919673
16,23,754.033991930621,0.0720000000001164
16,24,9.12728665162861,0.0420000000012806
16,25,35.6041312279228,0.0299999999988358
16,26,5.05129826538319,0.0519999999960419
16,27,86.5444945533622,0.0270000000018626
16,28,6.09403429880323,0.0230000000010477
16,29,0.0577226236476389,0.0179999999963911
16,30,3977.28237495403,0.0519999999960419
17,1,350.489054398466,0.0149999999994179
17,2,590.348002383885,0.018000000010943
17,3,3.43438513249572,0.0179999999963911
17,4,19943.4891491669,0.0270000000018626
17,5,40.8801161580662,0.0420000000012806
17,6,538.807126085551,0.0230000000010477
17,7,215.983735879444,0.0230000000010477
17,8,367.559030130696,0.0190000000002328
17,9,1.16999299148158,0.010999999998603
17,10,2333.34139860088,0.0220000000117579
17,11,13623.4634159427,0.0289999999949941
17,12,7196.16306248381,0.0200000000040745
17,13,38.6954086839546,0.0259999999980209
17,14,2502.1335440443,0.0249999999941792
17,15,2004.64125818659,0.0210000000079162
17,16,93.2507489994473,0.0280000000057044
17,17,12096.4006646881,0.0280000000057044
17,18,5373.7759557237,0.021999999997206
17,19,12761.5452297543,0.0230000000010477
17,20,4904.43041369767,0.021999999997206
17,21,7663.09627352859,0.0280000000057044
17,22,11033.7623515955,0.0279999999911524
17,23,158.327422183407,0.0139999999955762
17,24,5358.78673516337,0.0220000000117579
17,25,144.103601735603,0.0209999999933643
17,26,7532.96016275517,0.0190000000002328
17,27,55.0597496397274,0.0270000000018626
17,28,179.752335635808,0.0200000000040745
17,29,999.835733688173,0.0209999999933643
17,30,0.0325851538459842,0.0130000000062864
18,1,1018.57432755746,0.0359999999927823
18,2,10805.8895177293,0.0430000000051223
18,3,3.841654778429,0.036999999996624
18,4,717.279061288013,0.0409999999974389
18,5,492.477408694835,0.0240000000048894
18,6,533.426819029652,0.032999999995809
18,7,174.87453353161,0.021999999997206
18,8,2647.03796963135,0.0280000000057044
18,9,0.311723659574583,0.0239999999903375
18,10,25.0714908372758,0.0220000000117579
18,11,2.26776597251917,0.0310000000026776
18,12,166.609351096128,0.0280000000057044
18,13,39.4071509415833,0.0249999999941792
18,14,0.649273073572247,0.0289999999949941
18,15,113.076054740153,0.0270000000018626
18,16,127.746877790827,0.0270000000018626
18,17,0.350885709660065,0.0230000000010477
18,18,1106.14726710485,0.0319999999919673
18,19,486.989301059248,0.033000000010361
18,20,47.1801035942478,0.0279999999911524
18,21,2081.3443202115,0.0230000000010477
18,22,114.693903360518,0.0289999999949941
18,23,14.0215628023261,0.0480000000097789
18,24,1956.53232728672,0.0289999999949941
18,25,492.962179004979,0.0249999999941792
18,26,7.37046502928972,0.0259999999980209
18,27,1037.94516674408,0.0270000000018626
18,28,67.9497549339421,0.0280000000057044
18,29,658.974791704295,0.0290000000095461
18,30,10.8741531947763,0.0339999999996508
19,1,3.9549118648194,0.0359999999927823
19,2,536.57400359836,0.0299999999988358
19,3,3.91264780121557,0.0260000000125729
19,4,679.73815419735,0.032999999995809
19,5,54.7478955298093,0.0310000000026776
19,6,0.590493128831406,0.0239999999903375
19,7,2181.73836180701,0.0280000000057044
19,8,35.5089904310774,0.0319999999919673
19,9,192.533072221839,0.0280000000057044
19,10,4.23332098941652,0.0279999999911524
19,11,1752.2982326305,0.0250000000087311
19,12,693.703036488201,0.0299999999988358
19,13,5.4569565529175,0.0270000000018626
19,14,5600.80019394808,0.0259999999980209
19,15,2.0620285042816,0.032999999995809
19,16,5.92902304255288,0.0310000000026776
19,17,1.73618926460243,0.0289999999949941
19,18,461.555457074361,0.0450000000128057
19,19,13.987615012047,0.0230000000010477
19,20,1536.09908322987,0.0280000000057044
19,21,66.772136900494,0.0230000000010477
19,22,679.345394153795,0.0299999999988358
19,23,0.237020827442526,0.021999999997206
19,24,70.320429492895,0.0280000000057044
19,25,556.937837221361,0.0269999999873107
19,26,11.9581195668115,0.0210000000079162
19,27,9.67761257986786,0.0309999999881256
19,28,314.238854278684,0.0310000000026776
19,29,60.4156184680231,0.021999999997206
19,30,33.3082246838017,0.0360000000073342
20,1,887.403414712637,0.036999999996624
20,2,26504.8478760564,0.0359999999927823
20,3,10163.5442821919,0.055000000007567
20,4,5440.09196830398,0.047999999995227
20,5,24.0459872089967,0.0360000000073342
20,6,1.37284719330019,0.0239999999903375
20,7,3.17214404634973,0.0420000000012806
20,8,637.058371757261,0.0350000000034925
20,9,5.40837879731028,0.0339999999996508
20,10,3602.31525621707,0.0559999999968568
20,11,593.703224460114,0.0409999999974389
20,12,590.263800794158,0.0529999999998836
20,13,158.827150014359,0.0400000000081491
20,14,2268.57170765233,0.0650000000023283
20,15,1521.92435684207,0.069999999992433
20,16,7038.33155481246,0.0310000000026776
20,17,1236.23847548229,0.047999999995227
20,18,126.30862421789,0.0849999999918509
20,19,24.1603924758091,0.0380000000004657
20,20,1462.41174525462,0.0280000000057044
20,21,311.109700758063,0.0829999999987194
20,22,508.418770954735,0.0510000000067521
20,23,8936.88713201546,0.0659999999916181
20,24,376.679908429648,0.0670000000100117
20,25,0.033058444310349,0.0259999999980209
20,26,1.27745857945543,0.0319999999919673
20,27,66.479649144914,0.0230000000010477
20,28,0.198536879624048,0.0320000000065193
20,29,10849.50843984,0.0209999999933643
20,30,15707.1048582019,0.0339999999996508
21,1,5.45729104412376,0.0339999999996508
21,2,5406.93810101849,0.0470000000059372
21,3,27.5533182476199,0.0229999999864958
21,4,3.93027856448185,0.0300000000133878
21,5,19.8898871029457,0.0389999999897555
21,6,1115.48574917181,0.0320000000065193
21,7,545.248911832611,0.0299999999988358
21,8,972.057739910681,0.0239999999903375
21,9,5.94280544582273,0.0339999999996508
21,10,21.5884272428731,0.0390000000043074
21,11,13294.6691189517,0.0390000000043074
21,12,418.818091842389,0.0380000000004657
21,13,57.1448146535146,0.0299999999988358
21,14,1595.80855654217,0.0289999999949941
21,15,17.0915568379717,0.0339999999996508
21,16,133.007345541195,0.032999999995809
21,17,753.248882169078,0.0480000000097789
21,18,5.90187531210723,0.0339999999996508
21,19,163.889951077378,0.0299999999988358
21,20,46.6968044537588,0.0310000000026776
21,21,178.765564870328,0.0280000000057044
21,22,0.110076561416694,0.032999999995809
21,23,560.781887122829,0.036999999996624
21,24,0.221021041264931,0.018000000010943
21,25,1236.2119516275,0.036999999996624
21,26,15.5528160686417,0.0289999999949941
21,27,16.9466237469707,0.0390000000043074
21,28,68.9387238471847,0.0249999999941792
21,29,245.378032856144,0.032999999995809
21,30,76.018816358131,0.0930000000080327
22,1,6035.96768639541,0.0399999999935972
22,2,2270.24002305608,0.0599999999976717
22,3,2107.42625918636,0.0299999999988358
22,4,147.87134536824,0.0320000000065193
22,5,1319.46990407662,0.032999999995809
22,6,493.425491934924,0.0280000000057044
22,7,3.87627117878479,0.0259999999980209
22,8,362.636134451211,0.0230000000010477
22,9,40.3478651134219,0.0349999999889405
22,10,27.0594414519052,0.0320000000065193
22,11,10.6956389463795,0.0310000000026776
22,12,134.821932812232,0.0319999999919673
22,13,0.37858946862794,0.0290000000095461
22,14,1563.8108891641,0.0420000000012806
22,15,519.202764200905,0.0290000000095461
22,16,0.262627381532942,0.0230000000010477
22,17,6.67872598060785,0.0279999999911524
22,18,1.69025243762941,0.0320000000065193
22,19,20.646592672783,0.0169999999925494
22,20,107.675050418389,0.0280000000057044
22,21,490.716102266143,0.0259999999980209
22,22,1.13765714762534,0.0259999999980209
22,23,48.5448802587336,0.0409999999974389
22,24,8.19029162287564,0.0280000000057044
22,25,3191.62646310148,0.0259999999980209
22,26,7.94239944685992,0.0280000000057044
22,27,6.98924246971543,0.0319999999919673
22,28,377.371672120275,0.0299999999988358
22,29,26.5085523813312,0.0280000000057044
22,30,213.518027402326,0.0460000000020955
23,1,1071.3788490789,0.0389999999897555
23,2,6649.61139283314,0.0290000000095461
23,3,46.1414904763645,0.0339999999996508
23,4,285.908502797962,0.032999999995809
23,5,13.8167225308731,0.0310000000026776
23,6,2.01661991326073,0.0209999999933643
23,7,471.892733649195,0.0270000000018626
23,8,1507.37290697257,0.0320000000065193
23,9,1349.59915104476,0.0299999999988358
23,10,56.8019578376074,0.0359999999927823
23,11,1.44127372729633,0.0230000000010477
23,12,195.631382022615,0.0380000000004657
23,13,5.76883787507789,0.0239999999903375
23,14,2094.3859902927,0.0400000000081491
23,15,17.848162297065,0.0289999999949941
23,16,4.69758159055249,0.0339999999996508
23,17,24.7073612447329,0.032999999995809
23,18,151.937187481719,0.0540000000037253
23,19,24.6254331295703,0.0270000000018626
23,20,2.87264896980005,0.0200000000040745
23,21,15.9817663872054,0.0209999999933643
23,22,0.378571339607596,0.021999999997206
23,23,146.189565488587,0.0430000000051223
23,24,8.26233540924459,0.0299999999988358
23,25,1271.50958756747,0.0240000000048894
23,26,442.227771196196,0.0359999999927823
23,27,19.8612598637403,0.0260000000125729
23,28,14.5018917136747,0.0199999999895226
23,29,95.3397884855638,0.0280000000057044
23,30,181.05255943874,0.0380000000004657
24,1,57.7809261608102,0.0299999999988358
24,2,724.527353909786,0.0279999999911524
24,3,20.0093137133834,0.0240000000048894
24,4,5258.28715404497,0.0299999999988358
24,5,21.5518420927167,0.0289999999949941
24,6,15.6891081784231,0.033000000010361
24,7,253.066919821518,0.0299999999988358
24,8,963.540181037643,0.0299999999988358
24,9,2.3663840622833,0.0290000000095461
24,10,1601.18447730475,0.0299999999988358
24,11,61.8760306130577,0.0319999999919673
24,12,5178.17129441971,0.0270000000018626
24,13,293.875053997747,0.0289999999949941
24,14,86.1874305458424,0.0170000000071013
24,15,1060.00183743459,0.0289999999949941
24,16,21.8411301295119,0.0240000000048894
24,17,236.628932356662,0.0240000000048894
24,18,383.345101660029,0.0590000000083819
24,19,8304.54884457007,0.0299999999988358
24,20,577.330187817063,0.0239999999903375
24,21,15.462612098136,0.021999999997206
24,22,449.56854621396,0.0290000000095461
24,23,231.124830751807,0.0149999999994179
24,24,164.547636500232,0.0289999999949941
24,25,545.955884702283,0.0259999999980209
24,26,12.0181208181529,0.0270000000018626
24,27,31.9590222011029,0.0259999999980209
24,28,809.371362477481,0.0449999999982538
24,29,448.877854756853,0.0280000000057044
24,30,5.95093650586538,0.0149999999994179
25,1,643.404613846748,0.0359999999927823
25,2,8228.97189573983,0.0310000000026776
25,3,228.10429487214,0.0259999999980209
25,4,0.259499573206632,0.0240000000048894
25,5,6.50575537025002,0.0359999999927823
25,6,621.338978161787,0.0400000000081491
25,7,717.417409904387,0.0259999999980209
25,8,3048.19633728275,0.0270000000018626
25,9,3621.46367780027,0.0209999999933643
25,10,3.71143090583532,0.0280000000057044
25,11,2323.1211373675,0.0409999999974389
25,12,27.2275207447252,0.0359999999927823
25,13,49.7615384581044,0.0320000000065193
25,14,0.499612214241473,0.0319999999919673
25,15,45.9983189630981,0.0190000000002328
25,16,541.94410523416,0.0240000000048894
25,17,31.3843762911926,0.0270000000018626
25,18,341.139431835604,0.0319999999919673
25,19,102.596833207285,0.0200000000040745
25,20,1.59585918536958,0.0389999999897555
25,21,70.9969715776752,0.0260000000125729
25,22,210.801007899966,0.0449999999982538
25,23,1515.15245108673,0.0360000000073342
25,24,12.2647805405435,0.0319999999919673
25,25,57.3606298824906,0.0339999999996508
25,26,4.2280573521962,0.033000000010361
25,27,1.90101065775843,0.0339999999996508
25,28,905.374478503018,0.0259999999980209
25,29,309.91483883524,0.0280000000057044
25,30,2411.67309564485,0.021999999997206
26,1,971.222491975873,0.0209999999933643
26,2,5.48329286496095,0.0160000000032596
26,3,9.37590053331929,0.0120000000024447
26,4,10.0780232253674,0.0359999999927823
26,5,0.210319846992371,0.0240000000048894
26,6,136.407816881103,0.0209999999933643
26,7,305.982426945243,0.018000000010943
26,8,6.36896896162585,0.021999999997206
26,9,19.2022859228162,0.0139999999955762
26,10,1.97580217318351,0.0230000000010477
26,11,20.003328115878,0.0139999999955762
26,12,0.305569070225745,0.0170000000071013
26,13,0.0251177201418925,0.0249999999941792
26,14,252.917686960034,0.0259999999980209
26,15,262.766499884657,0.0210000000079162
26,16,96.991070281905,0.0169999999925494
26,17,53.6115966544287,0.0259999999980209
26,18,0.246507156522056,0.0249999999941792
26,19,21.6236525985222,0.0200000000040745
26,20,17.5386234697625,0.0390000000043074
26,21,4.41301353677103,0.0190000000002328
26,22,3.13816360730836,0.0259999999980209
26,23,0.54501953154849,0.0110000000131549
26,24,0.210839068563825,0.0179999999963911
26,25,106.556478461687,0.0209999999933643
26,26,1.49365343572663,0.0259999999980209
26,27,9.88604355735603,0.0200000000040745
26,28,12.9631365199179,0.0170000000071013
26,29,4.82919093690922,0.0190000000002328
26,30,2.77234049857028,0.0120000000024447
27,1,13533.6113160552,0.0259999999980209
27,2,54113.7414968428,0.0259999999980209
27,3,72681.0052344291,0.0350000000034925
27,4,36196.755268477,0.036999999996624
27,5,21695.3554998217,0.0230000000010477
27,6,0.194349829375077,0.0200000000040745
27,7,41652.8331092458,0.0429999999905704
27,8,14708.1741984837,0.0380000000004657
27,9,39407.9351419361,0.0320000000065193
27,10,26032.7666003365,0.0310000000026776
27,11,0.0677676291829976,0.0359999999927823
27,12,21110.6084366175,0.0240000000048894
27,13,15040.9751622184,0.0249999999941792
27,14,18799.8098742018,0.0200000000040745
27,15,23713.0031513544,0.0299999999988358
27,16,41187.966934391,0.0259999999980209
27,17,23986.5700884166,0.0270000000018626
27,18,27834.1568611193,0.0240000000048894
27,19,19796.1808160516,0.0249999999941792
27,20,22860.7333576376,0.0270000000018626
27,21,26959.99309497,0.0360000000073342
27,22,33678.2292952189,0.0270000000018626
27,23,43983.9083937359,0.0359999999927823
27,24,25152.6776741357,0.0299999999988358
27,25,19015.8017033161,0.0280000000057044
27,26,22501.0776160493,0.0299999999988358
27,27,22928.0134532176,0.0190000000002328
27,28,18794.3963013581,0.0249999999941792
27,29,23614.5049401353,0.0179999999963911
27,30,55064.6242940643,0.0380000000004657
28,1,3127.56399355571,0.036999999996624
28,2,9130.93464611977,0.0360000000073342
28,3,4335.01930726146,0.0289999999949941
28,4,1292.12855773087,0.0420000000012806
28,5,99.5541185308434,0.0350000000034925
28,6,53.6118229166525,0.0299999999988358
28,7,48.3208952514297,0.0339999999996508
28,8,15.2705727931737,0.0240000000048894
28,9,0.818321687460937,0.0339999999996508
28,10,208.087410019235,0.0249999999941792
28,11,10909.2069634112,0.0299999999988358
28,12,538.072306672998,0.0299999999988358
28,13,457.984792395485,0.033000000010361
28,14,521.888945498651,0.0410000000119908
28,15,0.812382464696622,0.0259999999980209
28,16,31.0785666947579,0.0319999999919673
28,17,77.9266701209887,0.0289999999949941
28,18,255.965154571934,0.0240000000048894
28,19,10.3025211007466,0.0279999999911524
28,20,17.7299737050806,0.0410000000119908
28,21,7.77091256527369,0.0269999999873107
28,22,3.30794775365458,0.0320000000065193
28,23,34.9644529932384,0.0460000000020955
28,24,889.955379480481,0.0379999999859137
28,25,11.2021591913325,0.0200000000040745
28,26,343.559183982815,0.0320000000065193
28,27,0.824675967164724,0.0259999999980209
28,28,505.002660512777,0.0209999999933643
28,29,44.8458191058933,0.0500000000029104
28,30,155.597221978493,0.0510000000067521
29,1,527.202000777374,0.0489999999990687
29,2,13584.6612332468,0.0729999999894062
29,3,9024.31640894521,0.0430000000051223
29,4,1.13229182310966,0.0299999999988358
29,5,1053.40092300984,0.0280000000057044
29,6,6.55104649428088,0.0359999999927823
29,7,6057.86017638922,0.0290000000095461
29,8,4436.53365567707,0.0200000000040745
29,9,2952.32232147469,0.0380000000004657
29,10,204.44880277949,0.0540000000037253
29,11,1.73171115540693,0.0249999999941792
29,12,0.0151836830224246,0.0259999999980209
29,13,460.697265579036,0.0250000000087311
29,14,3.57929684710892,0.0420000000012806
29,15,8.81600690352177,0.0270000000018626
29,16,707.777067233884,0.0309999999881256
29,17,89.3214047789714,0.0270000000018626
29,18,124.274456817808,0.0210000000079162
29,19,3.89550325825429,0.0279999999911524
29,20,20.5819502977912,0.0310000000026776
29,21,0.142725957463696,0.0289999999949941
29,22,606.167487725074,0.044000000008964
29,23,351.419762798067,0.0449999999982538
29,24,34.6045109330595,0.0389999999897555
29,25,646.501335161014,0.033000000010361
29,26,68.3723888326162,0.0190000000002328
29,27,0.00144326561223436,0.0319999999919673
29,28,402.122539934743,0.0270000000018626
29,29,153.920446370096,0.0439999999944121
29,30,2285.47496408635,0.0259999999980209
30,1,91.9938472305762,0.0250000000087311
30,2,13094.0808334648,0.0460000000020955
30,3,10270.0483962337,0.0319999999919673
30,4,1055.09514510664,0.0360000000073342
30,5,3985.40047432554,0.0259999999980209
30,6,839.532585290197,0.0259999999980209
30,7,7000.16851470536,0.0259999999980209
30,8,3910.80674879712,0.0280000000057044
30,9,3997.31206531315,0.0439999999944121
30,10,5.27170935632177,0.0470000000059372
30,11,67.584531291154,0.0420000000012806
30,12,265.591859488957,0.0269999999873107
30,13,2823.63868848283,0.0300000000133878
30,14,37.680128539357,0.0309999999881256
30,15,0.64997533082416,0.0259999999980209
30,16,1472.97570453705,0.0370000000111759
30,17,3037.79558877383,0.0519999999960419
30,18,759.886708123551,0.0409999999974389
30,19,0.415856623933288,0.0310000000026776
30,20,1174.63220510101,0.0460000000020955
30,21,203.672432333414,0.0249999999941792
30,22,14.7909683593079,0.0509999999922002
30,23,2234.07769339791,0.0620000000053551
30,24,19.0500446566218,0.0310000000026776
30,25,1892.10538081837,0.036999999996624
30,26,4.06762332376211,0.0190000000002328
30,27,6105.13518845698,0.0319999999919673
30,28,1006.63501858054,0.0270000000018626
30,29,4177.12706204216,0.0310000000026776
30,30,5386.7228167599,0.0500000000029104
