"Before.Trace.ID1","Before.Trace.ID2","Difference","Runtime"
1,2,9379.07288834351,0.00700000001234002
1,3,1327.2016066213,0.00999999999476131
1,4,24.8871655968009,0.00800000000162981
1,5,1746.58917561205,0.0149999999994179
1,6,611.92100754099,0.0059999999939464
1,7,31.2670612677241,0.00500000000465661
1,8,7599.66660852115,0.00800000000162981
1,9,2330.23618954401,0.0059999999939464
1,10,2647.55519680452,0.0059999999939464
1,11,425.227776084975,0.00800000000162981
1,12,4886.94303730289,0.00400000000081491
1,13,195.025573843671,0.00699999999778811
1,14,179.753718872202,0.00600000000849832
1,15,120.025642787193,0.0049999999901047
1,16,128.041818984917,0.0110000000131549
1,17,3051.89043702521,0.0049999999901047
1,18,1053.79352017076,0.00600000000849832
1,19,3.77072474249272,0.0029999999969732
1,20,11053.9867441061,0.00500000000465661
1,21,0.00328213500372844,0.00399999998626299
1,22,188.587545537948,0.00500000000465661
1,23,297.307341544094,0.00699999999778811
1,24,82.0289286285714,0.00600000000849832
1,25,4941.57789927703,0.00699999999778811
1,26,1798.73975703868,0.00800000000162981
1,27,1297.02987953548,0.0059999999939464
1,28,2813.5301496975,0.00800000000162981
1,29,4012.66084840074,0.0059999999939464
1,30,1514.24166004541,0.00500000000465661
2,3,109.163020204649,0.00500000000465661
2,4,157.28132049878,0.00400000000081491
2,5,2237.12117801424,0.00800000000162981
2,6,438.024507138718,0.0049999999901047
2,7,124.607770124149,0.00699999999778811
2,8,0.0226056355149888,0.00500000000465661
2,9,91.8320139894939,0.00400000000081491
2,10,217.140040472169,0.00999999999476131
2,11,1463.63939455452,0.00600000000849832
2,12,288.136210623817,0.00400000000081491
2,13,2.38837105691507,0.00500000000465661
2,14,147.707688144003,0.0119999999878928
2,15,156.618121958777,0.00500000000465661
2,16,2531.87014840075,0.0059999999939464
2,17,87.2229661935684,0.00700000001234002
2,18,265.984171249734,0.00699999999778811
2,19,3137.71407058049,0.0049999999901047
2,20,58.1306277646718,0.00600000000849832
2,21,77.9265697836723,0.00699999999778811
2,22,4618.7548735007,0.00699999999778811
2,23,5787.21897458416,0.00699999999778811
2,24,958.404597361307,0.00800000000162981
2,25,53.6468461330441,0.00500000000465661
2,26,517.580083408909,0.00500000000465661
2,27,1342.2744635339,0.00400000000081491
2,28,583.759358470953,0.00600000000849832
2,29,46.0434164667995,0.00800000000162981
2,30,768.403284222686,0.00699999999778811
3,4,315.661577429682,0.00699999999778811
3,5,1573.32313450735,0.00699999999778811
3,6,216.492288080389,0.00500000000465661
3,7,208.92491497567,0.00400000000081491
3,8,144.199295586478,0.0059999999939464
3,9,905.403200237532,0.00500000000465661
3,10,1166.6983811222,0.0059999999939464
3,11,623.937179533516,0.00699999999778811
3,12,70.1958183531805,0.00400000000081491
3,13,53.3378500461087,0.00400000000081491
3,14,1073.59632122259,0.00500000000465661
3,15,425.652906920528,0.0059999999939464
3,16,69.162470625533,0.00800000000162981
3,17,92.4792176035072,0.0059999999939464
3,18,1.54835448959165,0.00500000000465661
3,19,94.6950981484904,0.0059999999939464
3,20,222.095050167295,0.00600000000849832
3,21,36.817949050065,0.00800000000162981
3,22,3644.54528717669,0.00699999999778811
3,23,40.673540101062,0.0059999999939464
3,24,734.820470454132,0.00699999999778811
3,25,0.195642678405752,0.00500000000465661
3,26,3634.30689288115,0.00500000000465661
3,27,347.728128547253,0.0059999999939464
3,28,23.4441687791631,0.00800000000162981
3,29,129.200540339824,0.00400000000081491
3,30,14.8770923458784,0.0059999999939464
4,5,1761.7225645569,0.00800000000162981
4,6,0.00257557525849918,0.0029999999969732
4,7,744.679401564125,0.00699999999778811
4,8,56.1204861009674,0.00600000000849832
4,9,23.0753571510096,0.00500000000465661
4,10,805.376965099522,0.0049999999901047
4,11,792.814219569715,0.00600000000849832
4,12,26.8849676227948,0.0049999999901047
4,13,157.212104920787,0.00600000000849832
4,14,899.785653753284,0.0120000000024447
4,15,292.65777366657,0.00699999999778811
4,16,130.463333858026,0.0049999999901047
4,17,1.36255428914085,0.00700000001234002
4,18,436.443650874038,0.0059999999939464
4,19,99.0215870219164,0.0059999999939464
4,20,4.28972338604773,0.00600000000849832
4,21,41.0236822388157,0.0049999999901047
4,22,4287.83628295783,0.00800000000162981
4,23,442.299017056741,0.00700000001234002
4,24,342.806759207423,0.00699999999778811
4,25,127.821036223807,0.00699999999778811
4,26,1018.16686586456,0.00400000000081491
4,27,723.459820841103,0.00400000000081491
4,28,39.3056734751908,0.00500000000465661
4,29,249.841035996113,0.00600000000849832
4,30,78.2920763493298,0.0049999999901047
5,6,554.740277257547,0.00500000000465661
5,7,1325.43171496936,0.00699999999778811
5,8,1.1074182219696,0.00800000000162981
5,9,3656.07199422707,0.00699999999778811
5,10,4092.3755356772,0.00800000000162981
5,11,59.6661163647409,0.00500000000465661
5,12,1902.87199262444,0.0049999999901047
5,13,4779.02346603421,0.0059999999939464
5,14,1895.11526778141,0.00500000000465661
5,15,877.918589570771,0.00500000000465661
5,16,1889.91399981335,0.0059999999939464
5,17,2771.8748333913,0.00600000000849832
5,18,481.967249353251,0.0049999999901047
5,19,823.779705698422,0.00500000000465661
5,20,5762.7145340693,0.0059999999939464
5,21,433.939727565158,0.00400000000081491
5,22,593.611493822063,0.00500000000465661
5,23,248.446760832119,0.0059999999939464
5,24,427.326276827072,0.00500000000465661
5,25,592.709188030798,0.00500000000465661
5,26,4442.66525055753,0.0059999999939464
5,27,5485.44710653426,0.00600000000849832
5,28,3038.54949247068,0.00699999999778811
5,29,2461.15303412431,0.00699999999778811
5,30,60.1016618292341,0.0059999999939464
6,7,492.490077934999,0.00500000000465661
6,8,1715.4105364838,0.00500000000465661
6,9,5023.00159337874,0.00699999999778811
6,10,3856.80868742131,0.00500000000465661
6,11,153.38421396754,0.0079999999870779
6,12,0.0865275311551632,0.00500000000465661
6,13,529.365231368716,0.00600000000849832
6,14,1190.5643294022,0.0059999999939464
6,15,1433.12942453076,0.00800000000162981
6,16,97.009989961177,0.0059999999939464
6,17,428.02934114415,0.00500000000465661
6,18,120.042622729982,0.00699999999778811
6,19,36.6265394437775,0.00600000000849832
6,20,181.042124250425,0.0049999999901047
6,21,2.96924863432971,0.00400000000081491
6,22,702.530161559617,0.00500000000465661
6,23,28.4793508288363,0.0059999999939464
6,24,0.120161612112284,0.00400000000081491
6,25,79.2422127642157,0.00699999999778811
6,26,3955.26412990098,0.00600000000849832
6,27,1088.52531907723,0.0059999999939464
6,28,769.629138806043,0.00600000000849832
6,29,810.728700666668,0.00699999999778811
6,30,18.945558333084,0.00699999999778811
7,8,841.115790034991,0.00400000000081491
7,9,184.690897514085,0.0059999999939464
7,10,287.111206098804,0.00800000000162981
7,11,2546.29565978443,0.00500000000465661
7,12,291.540170831925,0.00400000000081491
7,13,63.4561686773459,0.00699999999778811
7,14,157.611620082812,0.00800000000162981
7,15,11.9624909159966,0.0049999999901047
7,16,1.72718185842917,0.00500000000465661
7,17,48.3751466017607,0.00699999999778811
7,18,634.980965555207,0.00400000000081491
7,19,778.363889850409,0.0059999999939464
7,20,246.677573581382,0.00400000000081491
7,21,688.662636809712,0.00600000000849832
7,22,1508.71309973874,0.0049999999901047
7,23,329.297874029814,0.00800000000162981
7,24,192.667681454772,0.00600000000849832
7,25,35.5912531925382,0.00699999999778811
7,26,17.04728545325,0.00400000000081491
7,27,101.803821436112,0.00500000000465661
7,28,4.98365123069152,0.00399999998626299
7,29,0.0142432459775577,0.00500000000465661
7,30,625.738298886785,0.0059999999939464
8,9,8.61667010007604,0.00699999999778811
8,10,373.164081345894,0.00800000000162981
8,11,598.881924675201,0.00500000000465661
8,12,2078.72180039277,0.00699999999778811
8,13,266.042168746324,0.00699999999778811
8,14,89.1112777735228,0.00500000000465661
8,15,442.394827315915,0.0049999999901047
8,16,91.734272555733,0.00500000000465661
8,17,0.713564436387049,0.00500000000465661
8,18,481.368491572518,0.0049999999901047
8,19,2.38667595331703,0.00400000000081491
8,20,51.9667861965443,0.00600000000849832
8,21,1030.17131334762,0.00699999999778811
8,22,9678.164048309,0.00900000000547152
8,23,603.835994552993,0.00699999999778811
8,24,119.041347703538,0.0049999999901047
8,25,3169.23750168438,0.00900000000547152
8,26,1128.82831331946,0.00500000000465661
8,27,127.332865931804,0.0059999999939464
8,28,85.9900094993849,0.00400000000081491
8,29,410.614484739244,0.00699999999778811
8,30,23.0124755441612,0.00699999999778811
9,10,639.460466901004,0.00400000000081491
9,11,1.0162738862912,0.00699999999778811
9,12,4.59204011338206,0.00500000000465661
9,13,387.918489504912,0.00400000000081491
9,14,442.20558711147,0.00700000001234002
9,15,238.358818672616,0.0049999999901047
9,16,471.694887998747,0.00400000000081491
9,17,18.0588872437177,0.00500000000465661
9,18,849.637485383802,0.0059999999939464
9,19,0.034167986030683,0.00400000000081491
9,20,491.374203242779,0.0059999999939464
9,21,2845.22868313279,0.00699999999778811
9,22,21174.1530713351,0.00500000000465661
9,23,231.736350260848,0.00600000000849832
9,24,546.91078591404,0.0059999999939464
9,25,96.8200111711145,0.00500000000465661
9,26,9.16157665718342e-05,0.00400000000081491
9,27,571.812544896858,0.0049999999901047
9,28,219.025402199217,0.00500000000465661
9,29,46.5310549416379,0.00400000000081491
9,30,0.0613336416525094,0.00400000000081491
10,11,3150.55405457448,0.0059999999939464
10,12,409.351814473708,0.00500000000465661
10,13,275.979081376098,0.00500000000465661
10,14,430.624767137607,0.0049999999901047
10,15,41.066381100314,0.00500000000465661
10,16,2574.74206972871,0.00800000000162981
10,17,5.32709559050945,0.0059999999939464
10,18,1521.11019760092,0.00800000000162981
10,19,1.25801792842206,0.00400000000081491
10,20,1.35359373867535,0.0059999999939464
10,21,1321.30399032135,0.00699999999778811
10,22,31316.0647512289,0.00700000001234002
10,23,1642.73777815718,0.0059999999939464
10,24,1607.60606302946,0.0059999999939464
10,25,178.410170525759,0.00800000000162981
10,26,198.317299666638,0.00600000000849832
10,27,244.452057055723,0.0059999999939464
10,28,354.118537134305,0.00900000000547152
10,29,66.9038091184927,0.0049999999901047
10,30,86.6181697231617,0.00600000000849832
11,12,192.284050756035,0.00400000000081491
11,13,2786.02395006263,0.00800000000162981
11,14,4346.70983717205,0.0049999999901047
11,15,830.280560714976,0.00700000001234002
11,16,2.94308770290811,0.00399999998626299
11,17,1329.25686277008,0.00500000000465661
11,18,189.487931912296,0.00600000000849832
11,19,10.8266340978589,0.00500000000465661
11,20,641.172066710863,0.00400000000081491
11,21,321.005226192814,0.00699999999778811
11,22,1254.66421147974,0.00699999999778811
11,23,41.4220161349473,0.00699999999778811
11,24,0.842361506860536,0.00700000001234002
11,25,6845.19067896584,0.0049999999901047
11,26,6210.35612889389,0.00699999999778811
11,27,3105.54501910696,0.00400000000081491
11,28,732.776252445716,0.0100000000093132
11,29,248.252983270559,0.0049999999901047
11,30,953.781365214082,0.00600000000849832
12,13,168.787266735579,0.00400000000081491
12,14,789.465855900431,0.0059999999939464
12,15,179.279388109732,0.00699999999778811
12,16,71.3529459436891,0.00500000000465661
12,17,232.05423126128,0.00699999999778811
12,18,125.882535218038,0.00500000000465661
12,19,5.21982084495862,0.00400000000081491
12,20,223.397770154233,0.00600000000849832
12,21,16.3755640230394,0.0059999999939464
12,22,7072.04744132278,0.00400000000081491
12,23,1.56507022493939,0.00500000000465661
12,24,791.67757034426,0.0059999999939464
12,25,683.452350939308,0.00500000000465661
12,26,237.835724728991,0.0139999999955762
12,27,1.92058145635196,0.00500000000465661
12,28,606.46588498928,0.0049999999901047
12,29,449.456064149485,0.00500000000465661
12,30,15.0626444109425,0.00400000000081491
13,14,24.0579623161848,0.00699999999778811
13,15,19.9724077917784,0.00500000000465661
13,16,709.718871539861,0.0059999999939464
13,17,315.463947361341,0.00600000000849832
13,18,0.646365056418339,0.0049999999901047
13,19,254.779695226411,0.00400000000081491
13,20,173.471135504948,0.0029999999969732
13,21,1352.89080238997,0.00400000000081491
13,22,1614.52527316384,0.00500000000465661
13,23,901.166066022241,0.0049999999901047
13,24,736.335901389987,0.00699999999778811
13,25,251.545873609737,0.00600000000849832
13,26,252.265170306749,0.00500000000465661
13,27,8.0674132663951,0.0049999999901047
13,28,28.0259279781161,0.00400000000081491
13,29,41.6182985575248,0.00600000000849832
13,30,89.8890629875167,0.00400000000081491
14,15,477.333016550343,0.0059999999939464
14,16,0.0289302843870276,0.00500000000465661
14,17,566.592575064734,0.0100000000093132
14,18,1897.39456790814,0.00400000000081491
14,19,0.00133142590047871,0.0059999999939464
14,20,11.1548959883257,0.00600000000849832
14,21,1884.05429934343,0.00699999999778811
14,22,3181.06369807011,0.00699999999778811
14,23,399.259920773375,0.00699999999778811
14,24,3423.35991996169,0.00500000000465661
14,25,58.5295999869082,0.00699999999778811
14,26,0.0725778738247266,0.00400000000081491
14,27,185.500570757556,0.00699999999778811
14,28,1.78194604585553,0.00500000000465661
14,29,36.6550491897878,0.0089999999909196
14,30,258.647633281735,0.00600000000849832
15,16,259.536138551231,0.00800000000162981
15,17,208.683794121628,0.00699999999778811
15,18,350.208961240688,0.00699999999778811
15,19,13.5156615297682,0.0059999999939464
15,20,602.566762467675,0.00600000000849832
15,21,2156.66389638209,0.00500000000465661
15,22,3383.01836112849,0.0059999999939464
15,23,755.507344221863,0.00800000000162981
15,24,434.563261259773,0.00600000000849832
15,25,150.595762893492,0.00699999999778811
15,26,21.3482348705876,0.00800000000162981
15,27,9.28232330273954,0.00400000000081491
15,28,173.533767498083,0.0059999999939464
15,29,216.652257636015,0.00400000000081491
15,30,10.5703669015073,0.00500000000465661
16,17,0.0338266401730993,0.0049999999901047
16,18,11.6007642444234,0.00700000001234002
16,19,29.8527339268438,0.0049999999901047
16,20,74.7672253702876,0.00400000000081491
16,21,530.095840137096,0.00500000000465661
16,22,278.331391023883,0.0059999999939464
16,23,18.6381035203394,0.00500000000465661
16,24,68.2090379209908,0.0059999999939464
16,25,1880.61230229063,0.00700000001234002
16,26,1221.79519186092,0.0059999999939464
16,27,1437.40180477374,0.00699999999778811
16,28,0.00670741752139457,0.00500000000465661
16,29,823.443815995764,0.00500000000465661
16,30,570.90895956023,0.00699999999778811
17,18,264.726386718356,0.0049999999901047
17,19,424.318539286178,0.00700000001234002
17,20,34.7194047210336,0.00399999998626299
17,21,86.1145905536088,0.00500000000465661
17,22,6649.50492037737,0.00699999999778811
17,23,1933.27992479523,0.00600000000849832
17,24,771.114948125423,0.00800000000162981
17,25,1837.25729300399,0.0059999999939464
17,26,1487.12567767156,0.0059999999939464
17,27,437.030416282193,0.00700000001234002
17,28,71.8468333611642,0.00699999999778811
17,29,7.79191469944959,0.00800000000162981
17,30,25.2860118571525,0.0089999999909196
18,19,368.074022831448,0.00900000000547152
18,20,543.969762007617,0.0059999999939464
18,21,430.747115363013,0.00500000000465661
18,22,4068.35507144118,0.0059999999939464
18,23,332.4200114622,0.00600000000849832
18,24,0.0360795764124465,0.0059999999939464
18,25,7680.90608756791,0.00900000000547152
18,26,2484.21381624056,0.00699999999778811
18,27,438.287710656317,0.0059999999939464
18,28,113.204220750701,0.00500000000465661
18,29,386.826802185286,0.00900000000547152
18,30,1.89151463597023,0.00699999999778811
19,20,0.742559169498164,0.0059999999939464
19,21,426.808369589713,0.00500000000465661
19,22,550.242924734906,0.0059999999939464
19,23,33.3053721927015,0.00600000000849832
19,24,299.750387338404,0.0059999999939464
19,25,2183.846901527,0.00500000000465661
19,26,144.942151158986,0.00400000000081491
19,27,2346.05811789456,0.0049999999901047
19,28,201.987477157884,0.00500000000465661
19,29,118.072653670402,0.0059999999939464
19,30,88.544370444172,0.00500000000465661
20,21,121.839924235362,0.00500000000465661
20,22,15499.745655147,0.00800000000162981
20,23,139.935137214148,0.00400000000081491
20,24,290.258253476914,0.00800000000162981
20,25,63.8813305916523,0.00500000000465661
20,26,1896.49775111521,0.00400000000081491
20,27,1104.99379544159,0.0049999999901047
20,28,1.48669700722992,0.00400000000081491
20,29,260.546487209812,0.00700000001234002
20,30,54.7494490348072,0.00399999998626299
21,22,0.0335012773027293,0.00600000000849832
21,23,0.0246508001754971,0.00500000000465661
21,24,45.987499441634,0.0059999999939464
21,25,4030.23120471531,0.0059999999939464
21,26,4896.36704408833,0.00400000000081491
21,27,2427.62657200211,0.00600000000849832
21,28,74.6348752557566,0.0059999999939464
21,29,1451.55310129934,0.00600000000849832
21,30,835.515415475788,0.0059999999939464
22,23,237.282508487424,0.00400000000081491
22,24,956.22743143755,0.00500000000465661
22,25,24730.7335623189,0.0089999999909196
22,26,8226.95616914552,0.00400000000081491
22,27,5746.14207071568,0.0100000000093132
22,28,5334.74171235823,0.0059999999939464
22,29,8325.72695659832,0.00699999999778811
22,30,103.591978104101,0.00400000000081491
23,24,0.395281580601048,0.00600000000849832
23,25,7455.10885936149,0.0089999999909196
23,26,3534.66855034815,0.0059999999939464
23,27,1808.0077058603,0.00500000000465661
23,28,884.203740527192,0.00800000000162981
23,29,1036.89974813521,0.00800000000162981
23,30,1028.7279345606,0.00700000001234002
24,25,1321.46436514067,0.00699999999778811
24,26,1982.59221027363,0.0049999999901047
24,27,1174.35829473318,0.00500000000465661
24,28,709.468590280404,0.00699999999778811
24,29,272.483409906226,0.00699999999778811
24,30,784.749360101682,0.00500000000465661
25,26,90.841640585267,0.00500000000465661
25,27,1.42043747432856,0.0029999999969732
25,28,3781.28547620813,0.00700000001234002
25,29,228.364424608173,0.0059999999939464
25,30,1212.38556757237,0.00800000000162981
26,27,602.901744893289,0.00699999999778811
26,28,0.279521788902436,0.00400000000081491
26,29,0.0151919068442755,0.00699999999778811
26,30,572.370320131871,0.0059999999939464
27,28,418.298083874365,0.00500000000465661
27,29,86.524297815853,0.00800000000162981
27,30,0.31193990652374,0.00500000000465661
28,29,276.581904297668,0.0049999999901047
28,30,5.38182068518097,0.00600000000849832
29,30,35.9082675941606,0.0049999999901047


"After.Trace.ID","Before.Trace.ID","Difference","Runtime"
1,1,258.203574252213,0.00699999999778811
1,2,18.9659559820486,0.00699999999778811
1,3,7.6801487639606,0.00600000000849832
1,4,5.48449384815308,0.00500000000465661
1,5,133.212104360833,0.0059999999939464
1,6,44.961898561455,0.0059999999939464
1,7,2.97107301086475e-05,0.00400000000081491
1,8,70.4916660917025,0.00600000000849832
1,9,362.215886626384,0.00400000000081491
1,10,0.103197855175706,0.0049999999901047
1,11,444.054988927651,0.00800000000162981
1,12,141.01344106418,0.00400000000081491
1,13,399.273856012794,0.00500000000465661
1,14,616.480838548481,0.00699999999778811
1,15,0.000971299401467844,0.00400000000081491
1,16,184.119340033139,0.0059999999939464
1,17,183.996088303946,0.00600000000849832
1,18,258.687829587425,0.0059999999939464
1,19,0.00430778835883691,0.0029999999969732
1,20,686.857342430256,0.00600000000849832
1,21,1337.93637090468,0.00699999999778811
1,22,413.223182506778,0.00699999999778811
1,23,48.3362111470777,0.00800000000162981
1,24,299.262448984818,0.0059999999939464
1,25,51.8606048652317,0.00600000000849832
1,26,0.0811403912359659,0.0059999999939464
1,27,574.323949450553,0.00699999999778811
1,28,359.711556941907,0.00500000000465661
1,29,241.858726261346,0.00400000000081491
1,30,0.98895601901736,0.0059999999939464
2,1,2175.74984999336,0.00600000000849832
2,2,78.7298068543384,0.00800000000162981
2,3,821.401601446496,0.0059999999939464
2,4,1055.21656581594,0.00500000000465661
2,5,1103.68960791329,0.0059999999939464
2,6,3671.31591275975,0.00699999999778811
2,7,656.415848636397,0.00600000000849832
2,8,283.307566651785,0.00500000000465661
2,9,497.374868193251,0.0049999999901047
2,10,347.601546613974,0.00500000000465661
2,11,3747.42986805844,0.00699999999778811
2,12,1270.25628645719,0.00500000000465661
2,13,188.103553842976,0.0049999999901047
2,14,0.61033416653859,0.00900000000547152
2,15,151.410822524053,0.00699999999778811
2,16,5.99407035902514,0.00800000000162981
2,17,247.630109197567,0.00699999999778811
2,18,3188.08075370507,0.00500000000465661
2,19,1696.06649011024,0.0059999999939464
2,20,50.9603713166728,0.00699999999778811
2,21,2387.69546665292,0.00600000000849832
2,22,14514.8412216523,0.00800000000162981
2,23,3824.7557742355,0.0059999999939464
2,24,6246.79083233001,0.00600000000849832
2,25,328.500617664844,0.00800000000162981
2,26,551.980836729562,0.0049999999901047
2,27,45.647390666091,0.00500000000465661
2,28,1138.6027083891,0.00699999999778811
2,29,0.280742246490725,0.00500000000465661
2,30,879.475855863996,0.00800000000162981
3,1,59.8605913937885,0.0079999999870779
3,2,466.971402083409,0.00600000000849832
3,3,47.1180276779965,0.00500000000465661
3,4,558.388230311679,0.0059999999939464
3,5,4172.20276384189,0.00800000000162981
3,6,1684.74411433799,0.0059999999939464
3,7,562.133185029532,0.00600000000849832
3,8,235.476472153721,0.00699999999778811
3,9,0.0316922014488746,0.00400000000081491
3,10,597.777064248178,0.00699999999778811
3,11,1080.17209805487,0.0059999999939464
3,12,257.795949287826,0.00600000000849832
3,13,206.686679925272,0.0059999999939464
3,14,0.619320909352641,0.00600000000849832
3,15,101.128167999093,0.0049999999901047
3,16,53.5218338889534,0.00699999999778811
3,17,17.762824079982,0.00500000000465661
3,18,1806.01477551582,0.00699999999778811
3,19,2321.11593918099,0.0059999999939464
3,20,16.5010614936796,0.00500000000465661
3,21,4562.31721482237,0.00400000000081491
3,22,1971.97207609195,0.00500000000465661
3,23,2386.27367547799,0.00699999999778811
3,24,143.659947125761,0.00400000000081491
3,25,1230.95020082588,0.00999999999476131
3,26,558.990121156774,0.00699999999778811
3,27,0.113463290637496,0.00500000000465661
3,28,129.950668627306,0.00400000000081491
3,29,82.370724821117,0.0059999999939464
3,30,70.8750064406481,0.00500000000465661
4,1,59.5228140708475,0.00800000000162981
4,2,4.09722839618848,0.00500000000465661
4,3,468.891313023348,0.00699999999778811
4,4,70.086243466141,0.0049999999901047
4,5,1365.20325265887,0.00600000000849832
4,6,492.189075277544,0.00800000000162981
4,7,684.232355585389,0.0049999999901047
4,8,147.374083932647,0.00700000001234002
4,9,109.103907402462,0.0059999999939464
4,10,28.7066373684397,0.00500000000465661
4,11,1041.56149952702,0.00699999999778811
4,12,194.185499499029,0.00500000000465661
4,13,1221.28502198872,0.010999999998603
4,14,115.689035290994,0.00699999999778811
4,15,1156.34792410704,0.0049999999901047
4,16,893.030694369937,0.00699999999778811
4,17,512.175591370728,0.00699999999778811
4,18,392.171501390095,0.00600000000849832
4,19,1012.79491445303,0.0059999999939464
4,20,25.052369706747,0.00699999999778811
4,21,2735.75188918055,0.00700000001234002
4,22,1166.41586452863,0.00699999999778811
4,23,179.432504857734,0.0089999999909196
4,24,820.765678946859,0.00600000000849832
4,25,2348.28456957638,0.00699999999778811
4,26,430.263548821292,0.0059999999939464
4,27,448.863365090566,0.00700000001234002
4,28,454.273443736743,0.0059999999939464
4,29,5.26707281075304,0.00699999999778811
4,30,59.8821028419031,0.00500000000465661
5,1,5350.24169255939,0.0059999999939464
5,2,76.1207781574216,0.00500000000465661
5,3,172.276679596825,0.0059999999939464
5,4,144.168411553974,0.00600000000849832
5,5,1383.4917579746,0.00699999999778811
5,6,1504.51990896536,0.00500000000465661
5,7,74.285628236601,0.0049999999901047
5,8,102.532540976572,0.00699999999778811
5,9,20.8882173994223,0.00800000000162981
5,10,16.8768266353716,0.00600000000849832
5,11,2732.44553204159,0.0059999999939464
5,12,564.523433264603,0.00500000000465661
5,13,193.833793328799,0.0059999999939464
5,14,612.857497009472,0.00500000000465661
5,15,191.46100622923,0.00800000000162981
5,16,37.9496074030394,0.0059999999939464
5,17,4.63753151223985,0.00600000000849832
5,18,10.8548851189797,0.0059999999939464
5,19,1427.04838370589,0.00699999999778811
5,20,198.505284369906,0.00400000000081491
5,21,3339.31855705227,0.00500000000465661
5,22,10414.5310339031,0.00399999998626299
5,23,321.227525693411,0.00800000000162981
5,24,165.807328039163,0.00600000000849832
5,25,0.921002388636654,0.0089999999909196
5,26,3692.67797240434,0.00700000001234002
5,27,118.542944437315,0.0059999999939464
5,28,214.931522347913,0.00699999999778811
5,29,135.175573669445,0.00600000000849832
5,30,249.384029329048,0.00699999999778811
6,1,1073.88805699525,0.0089999999909196
6,2,477.261461422223,0.00699999999778811
6,3,80.4625414117042,0.00700000001234002
6,4,250.920070388557,0.0059999999939464
6,5,437.540854264358,0.00900000000547152
6,6,244.045437595647,0.00800000000162981
6,7,712.186275107763,0.00399999998626299
6,8,6.10006755588583,0.00600000000849832
6,9,471.599271029168,0.00800000000162981
6,10,2071.15606809364,0.00699999999778811
6,11,392.267546139357,0.00699999999778811
6,12,228.853001574317,0.00500000000465661
6,13,48.4552013314197,0.00400000000081491
6,14,1442.02833894943,0.00699999999778811
6,15,107.003178789594,0.0059999999939464
6,16,12.5562430365737,0.00699999999778811
6,17,124.133596820773,0.00600000000849832
6,18,6.78501949089831,0.0059999999939464
6,19,522.120828698165,0.00500000000465661
6,20,870.363802088257,0.00500000000465661
6,21,1505.06499166677,0.0059999999939464
6,22,63.6600469724503,0.00500000000465661
6,23,103.67357882942,0.0059999999939464
6,24,5.23157081405357,0.00600000000849832
6,25,182.907419540552,0.00699999999778811
6,26,1143.67195904987,0.0049999999901047
6,27,744.265397367078,0.00900000000547152
6,28,370.061294212973,0.00800000000162981
6,29,380.066546002084,0.0059999999939464
6,30,149.446886421819,0.00800000000162981
7,1,344.593294753966,0.00400000000081491
7,2,1818.70600310662,0.00400000000081491
7,3,487.209554857589,0.0049999999901047
7,4,250.608637104077,0.00400000000081491
7,5,2789.14722722067,0.00500000000465661
7,6,252.718200707021,0.00800000000162981
7,7,2.31409090391144,0.00400000000081491
7,8,807.935573079906,0.0049999999901047
7,9,1176.37343135499,0.00400000000081491
7,10,1110.51156312024,0.0059999999939464
7,11,808.226049607604,0.00500000000465661
7,12,979.569313640015,0.00400000000081491
7,13,189.817255394341,0.00500000000465661
7,14,1516.59088677872,0.0059999999939464
7,15,225.781150187438,0.0059999999939464
7,16,986.508155371141,0.00500000000465661
7,17,1087.50546161383,0.0059999999939464
7,18,63.4287478264867,0.00400000000081491
7,19,2211.34286835101,0.00500000000465661
7,20,1514.23689069914,0.00500000000465661
7,21,1562.36449427954,0.00500000000465661
7,22,721.725759795542,0.00400000000081491
7,23,251.960039388701,0.00400000000081491
7,24,1521.33193488424,0.00500000000465661
7,25,230.435958176286,0.00400000000081491
7,26,19.2827249554905,0.00699999999778811
7,27,43.4970741302323,0.0059999999939464
7,28,1040.23984822108,0.00699999999778811
7,29,11.414158374274,0.00600000000849832
7,30,50.5477398919091,0.0059999999939464
8,1,334.141219240415,0.00600000000849832
8,2,1746.46941059108,0.0059999999939464
8,3,294.769448356417,0.0059999999939464
8,4,576.421193232187,0.00500000000465661
8,5,44.9984552675377,0.00600000000849832
8,6,15.8165613876112,0.0089999999909196
8,7,416.621086308647,0.00500000000465661
8,8,1.16401629106014,0.00699999999778811
8,9,19.9246850575626,0.00500000000465661
8,10,403.976702671212,0.00699999999778811
8,11,13.8992084588287,0.00699999999778811
8,12,255.533954641511,0.00400000000081491
8,13,1235.61519052695,0.00500000000465661
8,14,893.018250292245,0.0059999999939464
8,15,21.9438773629032,0.0059999999939464
8,16,36.3355525233274,0.00700000001234002
8,17,1214.23700278119,0.0049999999901047
8,18,492.541209438306,0.00500000000465661
8,19,230.317482235885,0.00400000000081491
8,20,527.29157734055,0.00500000000465661
8,21,192.923154303568,0.00400000000081491
8,22,29.7618916212392,0.00399999998626299
8,23,298.946260926102,0.00400000000081491
8,24,23.6267678237373,0.00500000000465661
8,25,660.193754927684,0.00600000000849832
8,26,6560.68227140207,0.0049999999901047
8,27,235.979095743452,0.00699999999778811
8,28,534.914924524271,0.00500000000465661
8,29,231.825082935684,0.00699999999778811
8,30,742.479961507564,0.00500000000465661
9,1,273.677656531562,0.0059999999939464
9,2,225.392091938601,0.00500000000465661
9,3,1.10253373253309,0.0049999999901047
9,4,0.0118348786995487,0.00500000000465661
9,5,1029.00040145754,0.00699999999778811
9,6,404.98512779035,0.00600000000849832
9,7,120.395148638208,0.0049999999901047
9,8,3.07158745505877,0.00600000000849832
9,9,67.0802330247986,0.00400000000081491
9,10,34.7762593750395,0.00800000000162981
9,11,704.867675092196,0.0049999999901047
9,12,81.1839297116503,0.00500000000465661
9,13,1445.43361276416,0.00699999999778811
9,14,411.73792543242,0.00400000000081491
9,15,8.38388593483675,0.00500000000465661
9,16,230.839410917682,0.0059999999939464
9,17,8.39049747876399,0.00699999999778811
9,18,72.0416034355722,0.00699999999778811
9,19,48.4865850462521,0.00600000000849832
9,20,12.2895610954125,0.00500000000465661
9,21,1034.07779164993,0.0079999999870779
9,22,988.722449450255,0.00600000000849832
9,23,1285.76371001666,0.00699999999778811
9,24,509.055563670421,0.00500000000465661
9,25,671.564651013053,0.00699999999778811
9,26,59.0105810291829,0.0049999999901047
9,27,16.3710910835793,0.00699999999778811
9,28,0.00108814730931865,0.00600000000849832
9,29,80.4329204556258,0.00800000000162981
9,30,1.41010078419136,0.0059999999939464
10,1,1439.11725772918,0.00600000000849832
10,2,0.314019097341934,0.0049999999901047
10,3,17.0917249630544,0.00500000000465661
10,4,375.235541884091,0.00500000000465661
10,5,72.3374810123667,0.0049999999901047
10,6,1458.11697316277,0.00500000000465661
10,7,111.699254176162,0.00600000000849832
10,8,66.2613893160046,0.0059999999939464
10,9,73.2853693349446,0.00500000000465661
10,10,6.1513371356777,0.0059999999939464
10,11,1090.361658602,0.00400000000081491
10,12,1225.21540092775,0.00500000000465661
10,13,504.276674269249,0.00500000000465661
10,14,100.773959049717,0.0089999999909196
10,15,1.17747959979486,0.00699999999778811
10,16,97.9961490871897,0.00700000001234002
10,17,53.0218656096102,0.0049999999901047
10,18,711.381680116093,0.00500000000465661
10,19,2534.4321148188,0.00500000000465661
10,20,15.3686002917952,0.0059999999939464
10,21,912.988574057354,0.00500000000465661
10,22,2556.88644808068,0.00699999999778811
10,23,1744.43751304201,0.0059999999939464
10,24,1558.48397291553,0.00500000000465661
10,25,36.1503700177612,0.00800000000162981
10,26,258.403033976901,0.0049999999901047
10,27,167.064690205514,0.00700000001234002
10,28,332.856524786576,0.00400000000081491
10,29,52.1375191145801,0.00699999999778811
10,30,53.791090353775,0.0059999999939464
11,1,32128.2909940011,0.00699999999778811
11,2,0.0805506152911852,0.00500000000465661
11,3,3099.2479846735,0.00500000000465661
11,4,3.81501494570552,0.00800000000162981
11,5,12169.9987701884,0.00699999999778811
11,6,1765.27852236182,0.0089999999909196
11,7,444.362403465692,0.00400000000081491
11,8,237.108831676926,0.00900000000547152
11,9,354.122868021612,0.0059999999939464
11,10,21.1149994565474,0.0059999999939464
11,11,6710.07639823083,0.00500000000465661
11,12,30.586094185454,0.00400000000081491
11,13,739.268364159756,0.0059999999939464
11,14,473.51186936107,0.00900000000547152
11,15,840.120635838213,0.0059999999939464
11,16,6251.75878668545,0.00800000000162981
11,17,989.100817110254,0.0059999999939464
11,18,2648.10222515561,0.00699999999778811
11,19,401.710860368816,0.00600000000849832
11,20,377.071133542075,0.0059999999939464
11,21,2433.94975235592,0.00500000000465661
11,22,23919.7097837313,0.0059999999939464
11,23,12031.7307570213,0.00600000000849832
11,24,1691.22008299549,0.0059999999939464
11,25,102.347424471679,0.00699999999778811
11,26,225.230423824437,0.0059999999939464
11,27,0.199656496922693,0.00699999999778811
11,28,2616.39903620078,0.00500000000465661
11,29,24.1885111271889,0.00600000000849832
11,30,584.915654032357,0.00699999999778811
12,1,2237.67548926315,0.0049999999901047
12,2,320.643928599001,0.00600000000849832
12,3,768.582485919598,0.0059999999939464
12,4,992.753716951703,0.00400000000081491
12,5,1744.05817001653,0.00699999999778811
12,6,5660.97901662134,0.00600000000849832
12,7,348.373003155794,0.0059999999939464
12,8,948.977843727155,0.00600000000849832
12,9,226.752087791183,0.0049999999901047
12,10,931.001501410566,0.00500000000465661
12,11,7503.0962412819,0.00500000000465661
12,12,887.257577607788,0.0049999999901047
12,13,135.460506533774,0.00600000000849832
12,14,24.3199387190803,0.0049999999901047
12,15,1385.21856078374,0.00700000001234002
12,16,463.409413352481,0.00399999998626299
12,17,2292.55568010787,0.00600000000849832
12,18,3907.1942046948,0.0059999999939464
12,19,4197.86657848786,0.00500000000465661
12,20,93.4722702798043,0.0049999999901047
12,21,3513.42444967801,0.00500000000465661
12,22,9808.44851736149,0.0059999999939464
12,23,7194.81508256293,0.00500000000465661
12,24,3978.16357651009,0.00500000000465661
12,25,941.901077314129,0.0059999999939464
12,26,0.0290979862759081,0.00600000000849832
12,27,0.0699896214514882,0.00699999999778811
12,28,1986.03820205106,0.0059999999939464
12,29,808.827213899322,0.00699999999778811
12,30,158.847890242315,0.00700000001234002
13,1,1098.85768450589,0.0049999999901047
13,2,127.958250020414,0.00500000000465661
13,3,205.547028061174,0.00500000000465661
13,4,188.941891533352,0.0049999999901047
13,5,346.932820516078,0.0029999999969732
13,6,0.675045750456073,0.00600000000849832
13,7,381.514751385753,0.00500000000465661
13,8,5.96802562954786,0.0049999999901047
13,9,140.908221419143,0.00500000000465661
13,10,115.598668486012,0.0129999999917345
13,11,997.734585139348,0.00500000000465661
13,12,680.010504398601,0.00500000000465661
13,13,139.045587905444,0.00400000000081491
13,14,423.306747352673,0.00800000000162981
13,15,159.025706681858,0.00699999999778811
13,16,0.555284372381257,0.00699999999778811
13,17,0.230186608990137,0.00699999999778811
13,18,46.9682059815701,0.00400000000081491
13,19,194.207073602831,0.0059999999939464
13,20,244.525376361361,0.00500000000465661
13,21,331.84932338385,0.00500000000465661
13,22,1539.49293483251,0.0059999999939464
13,23,212.334439157098,0.00800000000162981
13,24,1999.06371158671,0.00800000000162981
13,25,63.2477606651366,0.0059999999939464
13,26,190.991881392999,0.00500000000465661
13,27,62.2859499465907,0.00500000000465661
13,28,0.547911300591003,0.00500000000465661
13,29,40.5556828959223,0.0059999999939464
13,30,48.2924706921993,0.0049999999901047
14,1,12874.43056194,0.00800000000162981
14,2,3603.73618437149,0.00699999999778811
14,3,17833.3181641342,0.00800000000162981
14,4,831.884455964741,0.00699999999778811
14,5,21822.4805074128,0.00700000001234002
14,6,3880.13493679804,0.0079999999870779
14,7,1403.0057182022,0.00500000000465661
14,8,431.648527817919,0.0059999999939464
14,9,5770.91963904503,0.00800000000162981
14,10,294.533779387481,0.00600000000849832
14,11,21301.4467402906,0.0139999999955762
14,12,4984.65215377622,0.0059999999939464
14,13,58.5081647717533,0.00600000000849832
14,14,3119.27131956826,0.00999999999476131
14,15,3016.65525683095,0.00800000000162981
14,16,8081.856532769,0.00800000000162981
14,17,5099.71285924568,0.0059999999939464
14,18,10974.4345187753,0.010999999998603
14,19,10067.6317624274,0.00500000000465661
14,20,4833.27986773113,0.00699999999778811
14,21,8658.89932220743,0.00900000000547152
14,22,26399.5783975618,0.010999999998603
14,23,13441.0769038819,0.00999999999476131
14,24,13112.4416911188,0.00900000000547152
14,25,841.115904648645,0.00699999999778811
14,26,821.043845445288,0.00699999999778811
14,27,2101.83715759474,0.00600000000849832
14,28,7063.25158636931,0.0129999999917345
14,29,8494.54008227849,0.00800000000162981
14,30,1156.41421197318,0.00699999999778811
15,1,4755.54376736159,0.00500000000465661
15,2,198.386271879959,0.00500000000465661
15,3,1001.9679888913,0.00699999999778811
15,4,595.875755285802,0.00699999999778811
15,5,7190.36669052016,0.00800000000162981
15,6,1293.88323056622,0.00800000000162981
15,7,3.77043670851615,0.00500000000465661
15,8,265.053546744191,0.00400000000081491
15,9,73.1970338099115,0.0059999999939464
15,10,322.178279822774,0.00500000000465661
15,11,1329.78506259858,0.00900000000547152
15,12,3678.98067888268,0.00400000000081491
15,13,0.40954527565176,0.00400000000081491
15,14,6.60208558453424,0.0059999999939464
15,15,1.30532886836616,0.00500000000465661
15,16,636.786345802434,0.00699999999778811
15,17,619.535738298356,0.0059999999939464
15,18,886.339091511984,0.00600000000849832
15,19,688.929111714619,0.00400000000081491
15,20,623.710560437937,0.0049999999901047
15,21,1382.06545455251,0.00600000000849832
15,22,11035.4759086996,0.0059999999939464
15,23,1934.60481228843,0.00800000000162981
15,24,6365.40855444885,0.00800000000162981
15,25,86.1681836566162,0.0059999999939464
15,26,181.038960736581,0.00500000000465661
15,27,50.0359905859589,0.00399999998626299
15,28,128.755473209637,0.00800000000162981
15,29,523.49886228239,0.00400000000081491
15,30,31.1073749475017,0.00400000000081491
16,1,248.252455574673,0.00500000000465661
16,2,4910.62069588138,0.00699999999778811
16,3,423.94118137154,0.0059999999939464
16,4,1323.40496204502,0.00600000000849832
16,5,553.111369526108,0.00900000000547152
16,6,116.361227920726,0.0059999999939464
16,7,345.205247969399,0.0059999999939464
16,8,51.5041967371379,0.00600000000849832
16,9,564.861519551435,0.0059999999939464
16,10,1275.52322030372,0.00699999999778811
16,11,183.073337441763,0.00700000001234002
16,12,38.8194880187213,0.0049999999901047
16,13,577.449618643511,0.00800000000162981
16,14,278.166524818691,0.0059999999939464
16,15,445.15012123184,0.00800000000162981
16,16,60.9522654769376,0.00600000000849832
16,17,855.814444420415,0.0059999999939464
16,18,135.725451288647,0.00800000000162981
16,19,14.1188517565547,0.00500000000465661
16,20,1759.05608048248,0.0059999999939464
16,21,290.873747680985,0.00600000000849832
16,22,1323.06125419002,0.00699999999778811
16,23,78.3234814990716,0.00699999999778811
16,24,12.0122749113049,0.00500000000465661
16,25,5254.32166972353,0.00699999999778811
16,26,2473.95227919851,0.00699999999778811
16,27,402.336460600141,0.0059999999939464
16,28,9.09906632415656,0.00699999999778811
16,29,512.146041721725,0.00600000000849832
16,30,52.816591565901,0.00800000000162981
17,1,16541.2577100755,0.00699999999778811
17,2,0.0512099949023745,0.0059999999939464
17,3,27.0928555861421,0.00600000000849832
17,4,2.33618689973355,0.00800000000162981
17,5,6162.328601737,0.00699999999778811
17,6,1445.86445879423,0.0049999999901047
17,7,197.332888699872,0.00500000000465661
17,8,33.0819709071385,0.00500000000465661
17,9,112.017097413917,0.0049999999901047
17,10,8.10688469073373,0.00699999999778811
17,11,1354.42474276475,0.00900000000547152
17,12,270.747748753418,0.00400000000081491
17,13,136.943174843796,0.00500000000465661
17,14,142.120560326478,0.00500000000465661
17,15,30.5406962100623,0.00699999999778811
17,16,715.854134334674,0.00699999999778811
17,17,0.147022508534769,0.00500000000465661
17,18,2109.212047605,0.0049999999901047
17,19,331.490059123933,0.00500000000465661
17,20,28.4683285795863,0.00400000000081491
17,21,1282.20644662228,0.00600000000849832
17,22,24350.2337605928,0.00699999999778811
17,23,9809.47370320702,0.0089999999909196
17,24,1259.48541963541,0.0059999999939464
17,25,13.9601331744528,0.00700000001234002
17,26,1168.89567923627,0.00699999999778811
17,27,77.2055302712232,0.0059999999939464
17,28,1069.24857914534,0.0100000000093132
17,29,18.680861081277,0.0059999999939464
17,30,1307.70529639076,0.00699999999778811
18,1,5899.84938554345,0.0059999999939464
18,2,904.392002689926,0.00800000000162981
18,3,4.21151426073706,0.00699999999778811
18,4,0.612616336759436,0.00600000000849832
18,5,1093.90261326435,0.0059999999939464
18,6,373.986417793364,0.00500000000465661
18,7,56.7566672996088,0.0059999999939464
18,8,9.63954875907613,0.00500000000465661
18,9,22.2055212078912,0.0059999999939464
18,10,461.996399560688,0.00500000000465661
18,11,33.7168752103723,0.0059999999939464
18,12,30.3102801598446,0.00500000000465661
18,13,80.9254341006815,0.0059999999939464
18,14,276.552778369824,0.00700000001234002
18,15,9.3310047011577,0.0049999999901047
18,16,553.682003212223,0.00699999999778811
18,17,252.223360078924,0.0110000000131549
18,18,312.982824882892,0.0049999999901047
18,19,728.31268448286,0.00600000000849832
18,20,5.99968773422084,0.0049999999901047
18,21,1.78444319199818,0.00500000000465661
18,22,3398.79443491266,0.0059999999939464
18,23,4352.99867319731,0.00600000000849832
18,24,1248.63461975411,0.0049999999901047
18,25,995.652059929682,0.00699999999778811
18,26,273.784601532918,0.00400000000081491
18,27,390.649493884319,0.00900000000547152
18,28,0.068714607588068,0.0059999999939464
18,29,822.976455282201,0.00700000001234002
18,30,5.67359809937119,0.00699999999778811
19,1,8654.58993280593,0.00999999999476131
19,2,876.273267907125,0.00800000000162981
19,3,1490.92200835168,0.0059999999939464
19,4,1891.56165451885,0.00500000000465661
19,5,12036.3086963448,0.0059999999939464
19,6,974.161490721523,0.00700000001234002
19,7,128.795649689122,0.00999999999476131
19,8,891.574554390423,0.00500000000465661
19,9,1642.97436006785,0.00400000000081491
19,10,1029.07454322299,0.0079999999870779
19,11,2353.17836234249,0.00500000000465661
19,12,6152.4758578827,0.00699999999778811
19,13,733.356777164517,0.00400000000081491
19,14,1352.79215527837,0.00699999999778811
19,15,998.532012805629,0.00500000000465661
19,16,586.941129028996,0.0059999999939464
19,17,4126.24065826528,0.0100000000093132
19,18,583.848730060828,0.0089999999909196
19,19,4414.4241056846,0.00600000000849832
19,20,1729.34242350042,0.0059999999939464
19,21,4554.61989192391,0.00500000000465661
19,22,3182.03972714642,0.0059999999939464
19,23,1110.32080284505,0.00500000000465661
19,24,6404.78298665849,0.0059999999939464
19,25,320.029066340731,0.00400000000081491
19,26,85.8552219497609,0.00699999999778811
19,27,149.767999590848,0.00500000000465661
19,28,4235.20948709914,0.0059999999939464
19,29,2677.05529095546,0.00600000000849832
19,30,1401.00169525882,0.0059999999939464
20,1,992.164102209358,0.00699999999778811
20,2,1036.09523419592,0.00600000000849832
20,3,128.14397604594,0.00699999999778811
20,4,13.6864870699339,0.00800000000162981
20,5,1709.35782158714,0.00900000000547152
20,6,132.508650633798,0.0089999999909196
20,7,2059.96034166211,0.00500000000465661
20,8,675.876888539387,0.0049999999901047
20,9,929.334471471532,0.00500000000465661
20,10,2959.21460942233,0.0059999999939464
20,11,353.064970448628,0.0100000000093132
20,12,164.18119699518,0.00400000000081491
20,13,264.038585920731,0.00300000001152512
20,14,1983.85894772403,0.0079999999870779
20,15,231.353519441388,0.00800000000162981
20,16,59.1446122903933,0.00900000000547152
20,17,0.287520159539718,0.00500000000465661
20,18,48.5496028592789,0.00699999999778811
20,19,24.1487519701453,0.0059999999939464
20,20,1535.85575521187,0.00600000000849832
20,21,295.555253231536,0.00699999999778811
20,22,3215.68736483474,0.0049999999901047
20,23,517.374550979091,0.00700000001234002
20,24,64.5023851735721,0.0059999999939464
20,25,0.256699880987649,0.0059999999939464
20,26,3018.20957667692,0.00600000000849832
20,27,623.548788109129,0.00800000000162981
20,28,295.777171971569,0.0089999999909196
20,29,930.514959797696,0.00900000000547152
20,30,312.693041628016,0.0059999999939464
21,1,3187.18209376027,0.00600000000849832
21,2,346.557953246491,0.0059999999939464
21,3,1492.00482575692,0.00800000000162981
21,4,186.037166716463,0.0059999999939464
21,5,212.838331850675,0.00699999999778811
21,6,231.636310036969,0.00700000001234002
21,7,206.287021167836,0.00600000000849832
21,8,10.4412748640098,0.0049999999901047
21,9,1109.71680474381,0.00700000001234002
21,10,31.3268103176705,0.00500000000465661
21,11,6696.89708332358,0.0059999999939464
21,12,272.878859765402,0.00500000000465661
21,13,28.4262915615873,0.00400000000081491
21,14,65.1164456504529,0.00500000000465661
21,15,216.583142180485,0.00699999999778811
21,16,2053.13874897812,0.00699999999778811
21,17,562.32265114575,0.0059999999939464
21,18,3262.6699522001,0.00600000000849832
21,19,2213.34530310209,0.00400000000081491
21,20,166.626744119632,0.0049999999901047
21,21,5095.93667009955,0.00500000000465661
21,22,25558.4654670303,0.00600000000849832
21,23,20129.5592487131,0.0079999999870779
21,24,2053.48853922844,0.00500000000465661
21,25,2.77399588657234,0.00699999999778811
21,26,231.474129973208,0.00400000000081491
21,27,379.045408960951,0.00500000000465661
21,28,5829.92414754659,0.00800000000162981
21,29,647.922988174155,0.0049999999901047
21,30,1174.55098559073,0.00500000000465661
22,1,2332.89761494854,0.00699999999778811
22,2,37.9919155029519,0.0120000000024447
22,3,313.945388019461,0.00600000000849832
22,4,2.41688536691553,0.0049999999901047
22,5,1826.29533901829,0.00500000000465661
22,6,0.00121331096853141,0.0059999999939464
22,7,213.123665659429,0.00400000000081491
22,8,0.0111530041388783,0.00600000000849832
22,9,107.082156876865,0.0059999999939464
22,10,12.9040400693087,0.00600000000849832
22,11,505.011317007032,0.00699999999778811
22,12,184.684280802629,0.00400000000081491
22,13,203.184664119952,0.0049999999901047
22,14,21.170807172386,0.00400000000081491
22,15,48.7317254453312,0.00600000000849832
22,16,2195.53770972037,0.00699999999778811
22,17,0.541570341533548,0.00500000000465661
22,18,864.553121660867,0.0049999999901047
22,19,195.589143742116,0.00500000000465661
22,20,352.46802371112,0.00500000000465661
22,21,235.379051424981,0.0049999999901047
22,22,3682.95323660482,0.00699999999778811
22,23,4289.8548437745,0.00700000001234002
22,24,1815.15769701135,0.0059999999939464
22,25,183.402378208759,0.00699999999778811
22,26,0.315178242279633,0.00699999999778811
22,27,146.532477893247,0.00500000000465661
22,28,5.43125295623547,0.0059999999939464
22,29,12.5892111102879,0.00400000000081491
22,30,133.224141127061,0.00800000000162981
23,1,677.377408104241,0.00699999999778811
23,2,546.434796721237,0.00699999999778811
23,3,89.6820462976401,0.00600000000849832
23,4,1605.87611347396,0.00699999999778811
23,5,7879.64867960585,0.00699999999778811
23,6,3436.38183214913,0.00600000000849832
23,7,340.364763165495,0.0059999999939464
23,8,0.0217787823554161,0.00699999999778811
23,9,681.764844069407,0.00600000000849832
23,10,6.17137219651497,0.0059999999939464
23,11,8558.79276280915,0.0059999999939464
23,12,2655.97305198632,0.00800000000162981
23,13,416.923857553656,0.00400000000081491
23,14,11.0286817270535,0.00500000000465661
23,15,19.1288808445527,0.00500000000465661
23,16,4877.29412015179,0.0059999999939464
23,17,0.910560147163894,0.00500000000465661
23,18,6112.0732896296,0.00699999999778811
23,19,207.569743414694,0.0059999999939464
23,20,762.666170090595,0.00500000000465661
23,21,5451.02302892701,0.00400000000081491
23,22,32994.3227445044,0.00700000001234002
23,23,22769.7740482811,0.0049999999901047
23,24,7248.24967283663,0.00600000000849832
23,25,1550.15574475047,0.0049999999901047
23,26,271.669306500907,0.00600000000849832
23,27,260.50213538223,0.0059999999939464
23,28,2282.02959711234,0.00900000000547152
23,29,4.49080023564543,0.0059999999939464
23,30,2356.25695168091,0.0059999999939464
24,1,0.649381961780341,0.00500000000465661
24,2,173.543611290381,0.00400000000081491
24,3,26.6039237302174,0.00699999999778811
24,4,2.74849578085967,0.00600000000849832
24,5,1609.21863232654,0.0059999999939464
24,6,745.286813685314,0.00500000000465661
24,7,67.4292631443699,0.0049999999901047
24,8,0.0132097842187545,0.00400000000081491
24,9,212.595135884133,0.00600000000849832
24,10,76.2847025152537,0.00400000000081491
24,11,73.5822920076932,0.0049999999901047
24,12,84.2281675038083,0.00600000000849832
24,13,377.893326609371,0.0059999999939464
24,14,14.3926426879913,0.00600000000849832
24,15,111.432904889852,0.0059999999939464
24,16,0.886957712603752,0.00699999999778811
24,17,127.518513459635,0.00600000000849832
24,18,278.084196746282,0.0059999999939464
24,19,258.198860437991,0.00500000000465661
24,20,29.993164545198,0.00400000000081491
24,21,742.27939981113,0.0049999999901047
24,22,932.952986218474,0.00500000000465661
24,23,157.687623590704,0.00699999999778811
24,24,771.102170413117,0.00500000000465661
24,25,1292.99503333021,0.00999999999476131
24,26,156.302689491013,0.00699999999778811
24,27,73.4910462538563,0.00600000000849832
24,28,0.0409763009824506,0.0089999999909196
24,29,121.991529978996,0.00500000000465661
24,30,564.626861628897,0.0059999999939464
25,1,2329.86705064092,0.00700000001234002
25,2,96.6816687251719,0.00699999999778811
25,3,1339.18264066527,0.0049999999901047
25,4,0.018920974014719,0.00700000001234002
25,5,1580.6068293759,0.010999999998603
25,6,479.243289208855,0.0089999999909196
25,7,376.441469819711,0.00500000000465661
25,8,179.993810331049,0.00500000000465661
25,9,41.6375344119147,0.00400000000081491
25,10,0.0784884877899171,0.0079999999870779
25,11,157.923041625421,0.00600000000849832
25,12,137.277986620705,0.00400000000081491
25,13,140.851764791194,0.0049999999901047
25,14,221.298402283842,0.00600000000849832
25,15,736.997191459023,0.00699999999778811
25,16,2167.29546163604,0.00800000000162981
25,17,561.012258951883,0.00699999999778811
25,18,5233.82418744645,0.00699999999778811
25,19,1595.57624904678,0.00500000000465661
25,20,149.826010613214,0.00500000000465661
25,21,1501.54543157976,0.0059999999939464
25,22,25086.2823837011,0.0059999999939464
25,23,8303.34523346232,0.00600000000849832
25,24,1613.34829319798,0.00699999999778811
25,25,21.2732802176097,0.00699999999778811
25,26,339.416797713422,0.0059999999939464
25,27,56.0738504186417,0.00500000000465661
25,28,820.921392682331,0.00800000000162981
25,29,203.379313637793,0.0059999999939464
25,30,30.1742089809874,0.00800000000162981
26,1,600.474219929096,0.00600000000849832
26,2,212.666188561673,0.0059999999939464
26,3,250.89454223065,0.0059999999939464
26,4,121.933512028701,0.00600000000849832
26,5,714.332745759993,0.00699999999778811
26,6,528.086510835953,0.00699999999778811
26,7,325.076979360941,0.00699999999778811
26,8,25.6238894178865,0.00400000000081491
26,9,58.8188101499738,0.00600000000849832
26,10,1063.81379736895,0.0049999999901047
26,11,991.020355008098,0.00800000000162981
26,12,175.414853104579,0.00600000000849832
26,13,688.052214866423,0.00400000000081491
26,14,1213.40373970516,0.00699999999778811
26,15,485.509575077424,0.0089999999909196
26,16,0.0787073840304875,0.0100000000093132
26,17,168.564592267327,0.00699999999778811
26,18,196.644689817526,0.0059999999939464
26,19,58.1029323413679,0.00600000000849832
26,20,658.763819659836,0.00400000000081491
26,21,239.933341039158,0.00700000001234002
26,22,9303.05558614032,0.00699999999778811
26,23,229.137640512776,0.00699999999778811
26,24,582.510452853903,0.0059999999939464
26,25,20.3695230128359,0.00699999999778811
26,26,620.223678573985,0.00500000000465661
26,27,542.495654021693,0.00600000000849832
26,28,7.74848693343465,0.00999999999476131
26,29,38.344344909816,0.00500000000465661
26,30,9.08711234886076,0.0059999999939464
27,1,19551.6493368747,0.00699999999778811
27,2,0.92132245903495,0.00600000000849832
27,3,293.573896493424,0.0049999999901047
27,4,18.1483695447751,0.00500000000465661
27,5,1191.46622135018,0.00500000000465661
27,6,6816.5018909624,0.00699999999778811
27,7,654.238815879332,0.0059999999939464
27,8,90.2453299761791,0.00600000000849832
27,9,4.73496843469673,0.0029999999969732
27,10,174.091396339149,0.00699999999778811
27,11,251.428502342069,0.00800000000162981
27,12,183.022398433943,0.0049999999901047
27,13,33.2390794489949,0.00500000000465661
27,14,86.7485351180177,0.00600000000849832
27,15,73.791725134492,0.00400000000081491
27,16,110.64776416672,0.00699999999778811
27,17,189.996489269038,0.0059999999939464
27,18,899.646652606494,0.0059999999939464
27,19,187.719374213572,0.0029999999969732
27,20,55.613776416122,0.00400000000081491
27,21,750.848649246019,0.00600000000849832
27,22,37650.4611445796,0.00699999999778811
27,23,2167.45974360174,0.0059999999939464
27,24,8636.60118444817,0.00700000001234002
27,25,1095.79115094883,0.0059999999939464
27,26,486.173615330948,0.00699999999778811
27,27,165.833948658808,0.00500000000465661
27,28,65.0700361531795,0.0049999999901047
27,29,0.0669696662009074,0.00500000000465661
27,30,71.389325118887,0.00400000000081491
28,1,21773.3278633778,0.00600000000849832
28,2,0.60390478475957,0.00399999998626299
28,3,5520.4385420542,0.00500000000465661
28,4,6477.17870192219,0.00600000000849832
28,5,1613.36085379745,0.0059999999939464
28,6,142.167556007989,0.00800000000162981
28,7,137.792204704178,0.00400000000081491
28,8,5464.24246180815,0.00400000000081491
28,9,819.765492116396,0.00400000000081491
28,10,159.552738012374,0.00699999999778811
28,11,16.5118079545059,0.00500000000465661
28,12,2072.27462730171,0.00399999998626299
28,13,8.66431366355921,0.00400000000081491
28,14,155.727503262653,0.00500000000465661
28,15,503.020829733653,0.00500000000465661
28,16,17324.265657571,0.0049999999901047
28,17,1046.93121895225,0.00699999999778811
28,18,9704.27689641802,0.00600000000849832
28,19,5862.66756156812,0.00400000000081491
28,20,1728.10493859148,0.00500000000465661
28,21,4043.39303401228,0.00500000000465661
28,22,5360.3582636786,0.00699999999778811
28,23,30039.7228910298,0.0059999999939464
28,24,7913.58036486769,0.00600000000849832
28,25,170.736278111922,0.0049999999901047
28,26,513.742020616567,0.00500000000465661
28,27,19.760221907204,0.00500000000465661
28,28,5837.02766426293,0.0049999999901047
28,29,0.902545970991343,0.00600000000849832
28,30,33.3915443239789,0.00500000000465661
29,1,5748.93071209999,0.0079999999870779
29,2,1110.89676173523,0.00500000000465661
29,3,104.889051937121,0.0100000000093132
29,4,557.076024362611,0.00699999999778811
29,5,1545.49578665486,0.0089999999909196
29,6,94.9110307666045,0.00800000000162981
29,7,1474.99525220945,0.00800000000162981
29,8,336.767033771005,0.00500000000465661
29,9,0.539965943960198,0.0059999999939464
29,10,482.730274747715,0.00699999999778811
29,11,671.911942158253,0.00699999999778811
29,12,90.5101710475335,0.00500000000465661
29,13,729.887239214202,0.00500000000465661
29,14,562.270562044017,0.0049999999901047
29,15,319.161814542762,0.00500000000465661
29,16,1209.1617416551,0.00900000000547152
29,17,561.44652713702,0.00699999999778811
29,18,105.774042115694,0.00699999999778811
29,19,1205.77482039992,0.0059999999939464
29,20,128.698799373511,0.00400000000081491
29,21,1381.08452944312,0.00600000000849832
29,22,9882.79958585774,0.00699999999778811
29,23,633.017969221821,0.00999999999476131
29,24,523.271800946172,0.00500000000465661
29,25,2502.14880408707,0.0089999999909196
29,26,2256.47204012801,0.00700000001234002
29,27,25.0881580584669,0.0089999999909196
29,28,348.056983496074,0.00900000000547152
29,29,467.404394640665,0.0059999999939464
29,30,442.5788640505,0.00600000000849832
30,1,10270.023832838,0.00800000000162981
30,2,2131.62787527152,0.0049999999901047
30,3,4422.34320425642,0.00699999999778811
30,4,2287.96481620652,0.00600000000849832
30,5,662.639507891026,0.0049999999901047
30,6,25148.8961822217,0.00800000000162981
30,7,1686.82791016741,0.00400000000081491
30,8,1215.65971091652,0.00500000000465661
30,9,1800.99639904867,0.0059999999939464
30,10,1654.01050753009,0.00500000000465661
30,11,9724.20053470149,0.00500000000465661
30,12,5914.47056148529,0.0059999999939464
30,13,12.6591247758591,0.00400000000081491
30,14,0.149060089951586,0.00500000000465661
30,15,1839.91838660001,0.00500000000465661
30,16,885.407671094672,0.00699999999778811
30,17,4004.94036472657,0.00699999999778811
30,18,5600.8950269575,0.00699999999778811
30,19,891.784815254223,0.00699999999778811
30,20,4.51421086501553,0.00600000000849832
30,21,8385.24781233685,0.0049999999901047
30,22,62595.5982388603,0.00800000000162981
30,23,6503.10778661674,0.00699999999778811
30,24,29415.2346425936,0.00699999999778811
30,25,983.996395928817,0.00900000000547152
30,26,174.909299761846,0.00500000000465661
30,27,625.557525042438,0.00400000000081491
30,28,3914.61649191043,0.0049999999901047
30,29,201.629685565949,0.00600000000849832
30,30,6708.43226838156,0.0059999999939464
