App - AnkiDroid
Scenario - learn_cards
Length - 5sec
Measure - EuclideanDistance
Before Version - 2.5_b
After Version - 2.6_b


"Before.Trace.ID1","Before.Trace.ID2","Difference","Runtime"
1,2,4008.07866264141,0.00100000000384171
1,3,2861.18395700483,0.000999999996565748
1,4,3090.08275520477,0
1,5,4139.06815831521,0.00100000000384171
1,6,4856.89739900112,0.000999999996565748
1,7,2786.35973967338,0
1,8,5322.70171199367,0.00100000000384171
1,9,3491.80695695541,0.000999999996565748
1,10,5088.65795230127,0
1,11,5646.5609373953,0.00100000000384171
1,12,5057.88927450931,0.000999999996565748
1,13,4414.40119156038,0
1,14,3706.2638425233,0.00100000000384171
1,15,4965.5014298249,0.000999999996565748
1,16,4866.96244394543,0
1,17,5575.63832689157,0.00100000000384171
1,18,3042.45053318208,0.000999999996565748
1,19,3703.39042056251,0
1,20,5267.84996328725,0.000999999996565748
1,21,6124.89347669345,0.00100000000384171
1,22,6276.56407482428,0
1,23,6023.27023492106,0.000999999996565748
1,24,6444.89652946587,0.00100000000384171
1,25,3623.83098819166,0
1,26,6195.07574805239,0
1,27,5742.71478600758,0.00100000000384171
1,28,4269.05941506111,0
1,29,4986.84003083045,0
1,30,4728.91490103257,0.00100000000384171
2,3,3569.02747542816,0.000999999996565748
2,4,2162.05836511815,0
2,5,3219.51108066884,0.00100000000384171
2,6,3789.32217609986,0.000999999996565748
2,7,4459.99762656708,0
2,8,4282.23312501783,0.00100000000384171
2,9,3444.75354853422,0.000999999996565748
2,10,3038.88163670816,0
2,11,4112.28717627452,0.00100000000384171
2,12,2329.77229158136,0.000999999996565748
2,13,3195.35273409645,0
2,14,3278.49710812399,0.00100000000384171
2,15,4450.08997571795,0.000999999996565748
2,16,2631.6953782259,0
2,17,3173.50324215245,0.000999999996565748
2,18,4683.88892812311,0.00100000000384171
2,19,2556.58321868418,0
2,20,5325.00609639312,0.00400000000081491
2,21,3442.78458540167,0.000999999996565748
2,22,4372.47357382036,0.00100000000384171
2,23,4793.85260971814,0
2,24,4541.21229018611,0.000999999996565748
2,25,3078.52341218597,0.00100000000384171
2,26,4362.77048457337,0
2,27,4226.28006577216,0.000999999996565748
2,28,2423.31204613871,0
2,29,4000.05297122524,0
2,30,2274.31726669717,0.000999999996565748
3,4,3196.40230004554,0
3,5,3480.99611691075,0
3,6,4809.33405333619,0.000999999996565748
3,7,3165.06077754033,0
3,8,5633.39218302586,0.00100000000384171
3,9,4390.72675566129,0.000999999996565748
3,10,4461.9999560864,0
3,11,6045.5223251548,0.00100000000384171
3,12,5075.635687284,0.000999999996565748
3,13,3533.93879545572,0
3,14,3872.11862343496,0.000999999996565748
3,15,4438.0887428165,0.00100000000384171
3,16,4486.62802809322,0
3,17,4900.3882413349,0.000999999996565748
3,18,3720.47689776396,0.00100000000384171
3,19,3089.18429655299,0
3,20,5669.70399921501,0.000999999996565748
3,21,5203.42734529545,0.00100000000384171
3,22,5308.39672255627,0
3,23,5951.9107915944,0.000999999996565748
3,24,5693.54201100078,0.00100000000384171
3,25,3949.96852990304,0
3,26,5298.67024305812,0.000999999996565748
3,27,5015.26840914357,0.00100000000384171
3,28,2809.70570151889,0
3,29,4959.49042634907,0.000999999996565748
3,30,4106.51018732773,0.00100000000384171
4,5,2811.02225825971,0
4,6,4268.13233068366,0.000999999996565748
4,7,3893.75096178506,0.00100000000384171
4,8,4038.96740296929,0
4,9,3325.14321303532,0.000999999996565748
4,10,2975.54794794671,0.00100000000384171
4,11,4085.68101019331,0
4,12,3252.43942803298,0.000999999996565748
4,13,3475.62518690772,0.000999999996565748
4,14,2968.29768874686,0
4,15,4655.69230514621,0
4,16,3261.68180828151,0.000999999996565748
4,17,4124.72300257581,0
4,18,4492.99394197321,0
4,19,1999.11274474142,0.000999999996565748
4,20,4376.78446619407,0
4,21,4342.2522539823,0
4,22,4653.63256197784,0.000999999996565748
4,23,4948.90369822947,0
4,24,5447.67921589309,0
4,25,2890.45052407313,0.000999999996565748
4,26,4879.63258713112,0.00100000000384171
4,27,4904.46516855794,0
4,28,2992.8605940741,0.000999999996565748
4,29,3925.5941016622,0.00100000000384171
4,30,3507.77907128714,0
5,6,4964.72917644788,0.000999999996565748
5,7,4305.73725403335,0.00100000000384171
5,8,4764.95827476236,0
5,9,4455.8251498627,0.000999999996565748
5,10,2891.87918230622,0.00100000000384171
5,11,5023.08296609531,0
5,12,4138.495671524,0.000999999996565748
5,13,4476.40121097705,0.000999999996565748
5,14,2602.62836395249,0
5,15,4047.31204755074,0.00100000000384171
5,16,3323.30245416442,0.000999999996565748
5,17,4474.21279504052,0
5,18,4423.83633869369,0.00100000000384171
5,19,2928.33553606557,0.000999999996565748
5,20,4091.05381337384,0
5,21,4052.03267594055,0.00100000000384171
5,22,3775.15578733389,0.000999999996565748
5,23,5105.96342298383,0
5,24,5430.29628856767,0.00100000000384171
5,25,3958.18816633019,0.000999999996565748
5,26,4058.34707688408,0
5,27,4769.39460184636,0
5,28,3346.84380355682,0.000999999996565748
5,29,3876.00381130733,0.00300000000424916
5,30,3697.29635200379,0.000999999996565748
6,7,5162.4842239966,0.00100000000384171
6,8,4575.39657946404,0.000999999996565748
6,9,2776.19580289204,0
6,10,5214.38589521127,0.00100000000384171
6,11,4290.54126304484,0.000999999996565748
6,12,3801.85324429458,0
6,13,5275.06460230035,0.000999999996565748
6,14,4724.22089501174,0
6,15,3537.56732859614,0
6,16,3613.32467066691,0.000999999996565748
6,17,4297.77519571819,0
6,18,4360.74832146669,0.00100000000384171
6,19,4359.60308170927,0.000999999996565748
6,20,6150.00183714845,0
6,21,4115.19106347049,0.00100000000384171
6,22,5069.51874895791,0.000999999996565748
6,23,3762.50829911239,0
6,24,3318.27742873,0.00100000000384171
6,25,3270.34740273506,0.000999999996565748
6,26,3950.50260088634,0
6,27,3556.61705302983,0.00100000000384171
6,28,4149.37419546349,0.000999999996565748
6,29,3440.98985008418,0
6,30,3262.71912422644,0.00100000000384171
7,8,6667.49368659134,0.000999999996565748
7,9,4128.79178842607,0
7,10,5448.39337436869,0.00100000000384171
7,11,6179.67078117653,0.000999999996565748
7,12,5519.50031991062,0
7,13,5254.74122070716,0.00100000000384171
7,14,4462.55223610776,0.000999999996565748
7,15,4904.69796933429,0
7,16,5727.90726137894,0.000999999996565748
7,17,6208.10537579238,0.00100000000384171
7,18,3298.49257732708,0
7,19,3719.5658267562,0.000999999996565748
7,20,5467.42785935726,0.00100000000384171
7,21,6001.93654665008,0
7,22,6921.18013037202,0.000999999996565748
7,23,5455.09406418889,0.00100000000384171
7,24,6266.18825652433,0
7,25,3491.48318939009,0.000999999996565748
7,26,6609.86322206503,0.00100000000384171
7,27,6465.27332257859,0
7,28,4510.55786301229,0.000999999996565748
7,29,5290.42549085972,0.00100000000384171
7,30,4867.00090720437,0
8,9,4925.53579237057,0.000999999996565748
8,10,3606.32021136931,0.00100000000384171
8,11,3226.61225890636,0
8,12,4120.04405405704,0.000999999996565748
8,13,5209.40560979005,0.00100000000384171
8,14,3781.69108046429,0
8,15,5527.77393842444,0.000999999996565748
8,16,3416.08908476174,0.00100000000384171
8,17,4510.71248717572,0
8,18,6059.95765816446,0
8,19,4798.37720298134,0.00100000000384171
8,20,5042.32660928519,0
8,21,5398.95878275415,0
8,22,3849.09345694517,0.000999999996565748
8,23,6159.62249797518,0
8,24,5815.97784853166,0
8,25,4701.88325855027,0.000999999996565748
8,26,4206.47796797985,0.00100000000384171
8,27,4746.165423404,0
8,28,4865.30899112166,0.000999999996565748
8,29,4018.79865385325,0.00100000000384171
8,30,4299.00493812916,0
9,10,5271.00324082849,0.000999999996565748
9,11,4537.90224945568,0.00100000000384171
9,12,3700.2977755335,0
9,13,5171.2420658284,0.000999999996565748
9,14,3946.73561386289,0.00100000000384171
9,15,3966.00487055815,0
9,16,3838.02421138304,0.000999999996565748
9,17,4520.74629898632,0.00100000000384171
9,18,3271.91357253066,0
9,19,4022.80425769063,0.000999999996565748
9,20,5641.28652183516,0.00100000000384171
9,21,4730.38046245744,0
9,22,5686.13136520815,0.000999999996565748
9,23,4090.83414987119,0.00100000000384171
9,24,4550.25482118543,0
9,25,2656.49174029875,0.000999999996565748
9,26,5076.47440930965,0.000999999996565748
9,27,4527.72050620574,0.00300000000424916
9,28,4295.34904680316,0.000999999996565748
9,29,3462.84783823572,0.00100000000384171
9,30,3867.59345245398,0
10,11,4004.94057278877,0.000999999996565748
10,12,3586.85394158544,0.00100000000384171
10,13,4065.29806202354,0
10,14,3084.06600310523,0.000999999996565748
10,15,5242.98751853465,0.00100000000384171
10,16,3173.07241168355,0
10,17,4107.29691237646,0.000999999996565748
10,18,5868.13669422645,0.00100000000384171
10,19,3158.97989979591,0
10,20,4551.94968933706,0.000999999996565748
10,21,4046.25391079345,0.00100000000384171
10,22,3507.82396638144,0
10,23,5828.12697661053,0.000999999996565748
10,24,5858.57933523229,0.00100000000384171
10,25,4244.26045735489,0
10,26,4274.87313121216,0.000999999996565748
10,27,5091.73358493494,0.00100000000384171
10,28,3368.4238799043,0
10,29,4402.30259473919,0.000999999996565748
10,30,3394.09318651861,0.000999999996565748
11,12,3566.05897605879,0
11,13,5941.14758344027,0.00100000000384171
11,14,4462.20227215862,0.000999999996565748
11,15,5105.29672981738,0
11,16,3985.28865782011,0.00100000000384171
11,17,5189.01896173385,0.000999999996565748
11,18,6012.33484128006,0
11,19,4745.25271110322,0.00100000000384171
11,20,4558.86545884891,0.000999999996565748
11,21,5352.2991574755,0
11,22,4950.54422938227,0.00100000000384171
11,23,4643.98960594824,0.000999999996565748
11,24,4786.40663277982,0
11,25,4227.29431206609,0.00100000000384171
11,26,4671.07417488875,0.000999999996565748
11,27,5316.68923606568,0
11,28,5145.65557682762,0.00100000000384171
11,29,3603.98406686054,0.000999999996565748
11,30,4237.64878027329,0
12,13,4451.30488040689,0.00100000000384171
12,14,3985.16269090809,0.000999999996565748
12,15,4560.84697432634,0
12,16,2450.76480256666,0.00100000000384171
12,17,2777.50956894656,0.000999999996565748
12,18,5458.53806951839,0
12,19,3584.94192434341,0.000999999996565748
12,20,5896.81495977347,0.00100000000384171
12,21,3044.68618447874,0
12,22,4199.40482885849,0.000999999996565748
12,23,4752.92825023437,0.00100000000384171
12,24,4556.91398344156,0
12,25,3701.29210254582,0.000999999996565748
12,26,4257.8420731121,0.00100000000384171
12,27,4302.45571820209,0
12,28,3562.28219676096,0.000999999996565748
12,29,4042.61322698251,0.00100000000384171
12,30,2391.62745497336,0
13,14,4361.395652537,0.000999999996565748
13,15,6035.95536150366,0.00100000000384171
13,16,3962.09688759851,0
13,17,4318.59699495454,0
13,18,5916.17186058647,0.00100000000384171
13,19,3515.3345202824,0
13,20,6851.19830384784,0
13,21,5216.99144442158,0.00100000000384171
13,22,5175.67742040944,0.000999999996565748
13,23,7118.78133028911,0
13,24,6599.4455825486,0.00100000000384171
13,25,4444.62693141312,0.000999999996565748
13,26,5492.42462768853,0
13,27,5401.19422660011,0.000999999996565748
13,28,2841.90554066689,0.00100000000384171
13,29,5984.18558073825,0
13,30,3902.44497997712,0.000999999996565748
14,15,4790.64326917949,0.00100000000384171
14,16,3446.32317688548,0
14,17,4255.38329774415,0.000999999996565748
14,18,4109.33785172364,0.00100000000384171
14,19,3880.10440753145,0
14,20,4526.62786192312,0.000999999996565748
14,21,4828.71106614671,0.00100000000384171
14,22,4105.93614683601,0
14,23,5619.74379102565,0.000999999996565748
14,24,5714.03006704813,0.00400000000081491
14,25,3789.649443306,0.00100000000384171
14,26,4315.47530917831,0.000999999996565748
14,27,4767.31893509724,0
14,28,3896.48452552892,0
14,29,3445.12505914025,0.000999999996565748
14,30,3715.4305946275,0
15,16,3935.0508231697,0.00100000000384171
15,17,4919.06292680324,0.000999999996565748
15,18,3691.3257921115,0
15,19,4326.35446877163,0.000999999996565748
15,20,5481.26857098314,0.00100000000384171
15,21,4216.19974532257,0
15,22,4429.736679236,0.000999999996565748
15,23,3774.41222826891,0.00100000000384171
15,24,3212.13065372877,0
15,25,4396.63778884383,0.000999999996565748
15,26,3436.99902672186,0.00100000000384171
15,27,3359.25233461386,0
15,28,4159.57051789874,0.000999999996565748
15,29,3275.46607084264,0.00100000000384171
15,30,3898.37741120542,0
16,17,2510.32464762953,0.000999999996565748
16,18,5019.64728098621,0.00100000000384171
16,19,3536.43445647294,0
16,20,5754.71256530328,0.000999999996565748
16,21,3118.60703875487,0.00100000000384171
16,22,2819.87765344436,0
16,23,5147.31017547042,0.000999999996565748
16,24,4486.99332537261,0.00100000000384171
16,25,3930.80009613135,0
16,26,3033.79035075944,0.000999999996565748
16,27,3265.40299866146,0.00100000000384171
16,28,2949.45956838997,0
16,29,3778.01874171334,0.000999999996565748
16,30,2359.27297264034,0.000999999996565748
17,18,5583.47373939452,0
17,19,4267.86578714882,0.00100000000384171
17,20,7197.9745001486,0.000999999996565748
17,21,2882.81352119678,0
17,22,3687.98264816735,0.00100000000384171
17,23,6025.99180013132,0.000999999996565748
17,24,5037.28754397689,0
17,25,4730.59377755351,0.00100000000384171
17,26,4144.99327149258,0.000999999996565748
17,27,3752.21025184499,0
17,28,3324.2904211416,0.00100000000384171
17,29,4642.90072271597,0.000999999996565748
17,30,2707.88807204212,0
18,19,4807.39115516438,0.00100000000384171
18,20,5888.99004894383,0.000999999996565748
18,21,5784.75318559205,0
18,22,6223.92638834533,0
18,23,5305.3206011844,0.000999999996565748
18,24,5337.32355523218,0
18,25,4135.07515750798,0
18,26,5717.81588884929,0.000999999996565748
18,27,4964.84828127448,0
18,28,4726.43483122657,0
18,29,4262.58086631455,0.000999999996565748
18,30,4699.50026044382,0.00100000000384171
19,20,4749.45059331819,0
19,21,3843.08584424374,0.000999999996565748
19,22,4627.90112830835,0.000999999996565748
19,23,5020.69006789022,0
19,24,5453.88033556833,0.00100000000384171
19,25,2938.58934799633,0.000999999996565748
19,26,4738.24361726431,0
19,27,5097.27585247005,0.00100000000384171
19,28,2451.70493180073,0.000999999996565748
19,29,4557.59326118531,0
19,30,3433.78680835411,0.00100000000384171
20,21,6567.85533209021,0.000999999996565748
20,22,5938.43285101686,0
20,23,5254.12216546692,0.00100000000384171
20,24,6543.9327625684,0.000999999996565748
20,25,4880.60833097648,0
20,26,5848.18275207462,0.00100000000384171
20,27,6905.40607965053,0.000999999996565748
20,28,6037.19958377004,0
20,29,4419.92721005679,0.00100000000384171
20,30,5977.69767701703,0.000999999996565748
21,22,3746.61845204001,0
21,23,4769.37229746186,0.00100000000384171
21,24,4462.98578794667,0.000999999996565748
21,25,4471.28858844108,0
21,26,3818.15351777105,0.00100000000384171
21,27,4154.39103377135,0.000999999996565748
21,28,3596.46038495073,0.0029999999969732
21,29,4411.6867368296,0.00100000000384171
21,30,2915.94955967547,0.000999999996565748
22,23,6117.99508046123,0
22,24,5126.56256220859,0.00100000000384171
22,25,5417.19014419709,0.000999999996565748
22,26,2201.54804491492,0
22,27,3731.21744782326,0.00100000000384171
22,28,3985.72618476764,0.000999999996565748
22,29,4121.95496206944,0
22,30,3932.61689377419,0.00100000000384171
23,24,3220.4700499823,0.000999999996565748
23,25,4365.1531246078,0
23,26,5049.74205670595,0.00100000000384171
23,27,5139.1322392606,0.000999999996565748
23,28,5661.85674169617,0
23,29,3417.92452392984,0.00100000000384171
23,30,4768.46667208033,0.000999999996565748
24,25,5028.53177016678,0
24,26,3856.55715507579,0.00100000000384171
24,27,3410.33306882859,0.000999999996565748
24,28,4960.38478206215,0
24,29,3430.04316821479,0.00100000000384171
24,30,4051.35073773351,0.000999999996565748
25,26,4969.88277620859,0
25,27,5335.60564433897,0.000999999996565748
25,28,3538.46833591285,0.00100000000384171
25,29,3985.01267325259,0
25,30,3464.08518617035,0.000999999996565748
26,27,3053.24639223088,0.00100000000384171
26,28,4082.74918100259,0
26,29,3423.05995973712,0.000999999996565748
26,30,3670.37809775208,0
27,28,4077.67256481305,0
27,29,3755.10418784256,0.000999999996565748
27,30,3580.51206622951,0
28,29,4770.93981164711,0
28,30,2745.31843048778,0.000999999996565748
29,30,3990.07251651946,0


"After.Trace.ID","Before.Trace.ID","Difference","Runtime"
1,1,7213.50233377088,0.00100000000384171
1,2,4142.60137124788,0.000999999996565748
1,3,6134.92050350794,0
1,4,5177.0261833127,0.00100000000384171
1,5,4887.34642242476,0.000999999996565748
1,6,5643.73240549872,0
1,7,7533.95998165127,0.00100000000384171
1,8,5468.5631635337,0.000999999996565748
1,9,6438.53344458669,0
1,10,4047.04847231065,0.00400000000081491
1,11,5973.68049608306,0.000999999996565748
1,12,3928.10854069534,0.00100000000384171
1,13,5025.58977995235,0
1,14,5774.16626200389,0.000999999996565748
1,15,5755.09659270374,0.00100000000384171
1,16,3349.96725573327,0
1,17,3545.37922400181,0.000999999996565748
1,18,7422.6884728738,0.00100000000384171
1,19,4605.62393967542,0
1,20,7459.94977110669,0.000999999996565748
1,21,3003.64842388634,0.00100000000384171
1,22,3700.30164280445,0
1,23,6785.63333985833,0.000999999996565748
1,24,5940.95720553821,0
1,25,5832.31393269414,0
1,26,4385.09043592601,0.000999999996565748
1,27,4894.83120133863,0
1,28,3868.62497809075,0
1,29,6118.0514219804,0.000999999996565748
1,30,3766.70201401248,0
2,1,5300.03387200123,0
2,2,3445.83707415633,0.000999999996565748
2,3,5117.27068386956,0
2,4,3338.73167934908,0
2,5,2997.6013829803,0.000999999996565748
2,6,4721.07809375116,0
2,7,5181.97897499924,0
2,8,4383.62690836768,0.00100000000384171
2,9,4624.87679294277,0
2,10,2813.24271891158,0
2,11,3974.43018758185,0.00100000000384171
2,12,3591.78813332466,0
2,13,5393.75677175104,0.000999999996565748
2,14,3624.95318194064,0.00100000000384171
2,15,4667.19621819032,0
2,16,3655.50724863375,0.000999999996565748
2,17,4586.97066683381,0.00100000000384171
2,18,5497.45275484171,0
2,19,3256.52233537001,0.000999999996565748
2,20,3985.07466919806,0.00100000000384171
2,21,3454.90575675225,0
2,22,4093.082984235,0.000999999996565748
2,23,4514.51729312163,0.00100000000384171
2,24,5371.69882815146,0
2,25,3571.37007472157,0
2,26,4381.535234206,0.00100000000384171
2,27,5470.00068396116,0
2,28,4174.17013028172,0
2,29,3759.5056390292,0.00100000000384171
2,30,3855.81512395822,0.000999999996565748
3,1,6793.08605398608,0
3,2,3786.63026174148,0.00100000000384171
3,3,5532.19158989891,0.000999999996565748
3,4,5155.08832614441,0
3,5,5178.31102156083,0.000999999996565748
3,6,5881.56729862593,0.00100000000384171
3,7,6827.69618644311,0
3,8,6681.29782909466,0.000999999996565748
3,9,6240.98047742458,0.00100000000384171
3,10,4883.88588676635,0
3,11,6923.32673283533,0.000999999996565748
3,12,4118.30960249867,0.00100000000384171
3,13,4409.95153306841,0
3,14,5878.76148042293,0.000999999996565748
3,15,6227.70927184937,0.00100000000384171
3,16,4182.53865104745,0
3,17,3475.89884162549,0.000999999996565748
3,18,7106.86946481652,0.00100000000384171
3,19,4667.22919137397,0
3,20,8271.48585480108,0.000999999996565748
3,21,3446.14261547526,0.00100000000384171
3,22,5155.81718013198,0
3,23,7084.10701527271,0
3,24,6247.20074089385,0.00100000000384171
3,25,5709.39739918306,0
3,26,5519.99273886263,0
3,27,5474.03648992,0.00100000000384171
3,28,3514.91837810946,0.000999999996565748
3,29,6730.59635202466,0
3,30,3739.57079910252,0.000999999996565748
4,1,6167.96407777924,0.00100000000384171
4,2,3986.02110265345,0
4,3,5521.04899708001,0.000999999996565748
4,4,3768.70679065414,0.00100000000384171
4,5,3770.26724179009,0
4,6,6311.9459747209,0.000999999996565748
4,7,5914.25007788804,0.00100000000384171
4,8,5589.72221358706,0.0029999999969732
4,9,6190.92886098726,0.00100000000384171
4,10,2831.53551484817,0.000999999996565748
4,11,5414.89227246428,0
4,12,4472.97866609293,0.00100000000384171
4,13,5144.63250643238,0.000999999996565748
4,14,4823.93423106599,0
4,15,6315.52053358934,0.00100000000384171
4,16,4691.63125931427,0.000999999996565748
4,17,5275.20617258445,0
4,18,7142.51898667988,0.00100000000384171
4,19,3424.04321785846,0.000999999996565748
4,20,5180.72677709581,0
4,21,4246.27920380045,0.00100000000384171
4,22,5015.89359345027,0.000999999996565748
4,23,6024.86237394834,0
4,24,6839.19108393098,0.000999999996565748
4,25,4840.52126407695,0.00100000000384171
4,26,5730.7053662617,0
4,27,6649.92693777653,0.000999999996565748
4,28,4463.93113166254,0.00100000000384171
4,29,5725.78808607369,0
4,30,4705.09996138253,0.000999999996565748
5,1,5697.35277246505,0.00100000000384171
5,2,2839.65448493399,0
5,3,4590.79972578425,0.000999999996565748
5,4,3395.44549438057,0.00100000000384171
5,5,4093.21741761124,0
5,6,4904.29809777994,0.000999999996565748
5,7,5856.35420406506,0.00100000000384171
5,8,4800.66452399502,0
5,9,5301.58854345338,0.000999999996565748
5,10,3005.19454740248,0
5,11,4851.75407725102,0
5,12,3450.4219701854,0.000999999996565748
5,13,3366.76297781463,0
5,14,4723.0599017087,0
5,15,5527.68590086419,0.000999999996565748
5,16,3330.03394424213,0
5,17,3726.42829282751,0
5,18,6526.35427685403,0.000999999996565748
5,19,2823.72026378009,0.000999999996565748
5,20,6223.27280694372,0
5,21,3493.65602584519,0.00100000000384171
5,22,4084.68154422223,0.000999999996565748
5,23,6032.88816275121,0
5,24,5666.53554356175,0.00100000000384171
5,25,4120.6555007538,0.000999999996565748
5,26,4594.03293288803,0
5,27,5211.91522728791,0.00100000000384171
5,28,2599.65142040055,0.000999999996565748
5,29,5363.38240849806,0
5,30,3472.21711575534,0.00100000000384171
6,1,6651.01101605864,0.000999999996565748
6,2,3973.3793060443,0
6,3,5046.97538399475,0.00100000000384171
6,4,4994.12964759947,0.000999999996565748
6,5,4489.93451416773,0
6,6,5477.7310798447,0.00100000000384171
6,7,6900.84566963981,0.000999999996565748
6,8,6102.43371046008,0
6,9,6019.33626344606,0.00100000000384171
6,10,4606.37844391726,0.000999999996565748
6,11,6604.11954330627,0
6,12,4350.01894520851,0
6,13,4394.25007101261,0.000999999996565748
6,14,5584.56126299904,0
6,15,5218.29088963384,0
6,16,3505.14424381518,0.000999999996565748
6,17,3514.2157394034,0
6,18,6744.04191849775,0
6,19,4348.87283967885,0.00100000000384171
6,20,7565.86539730936,0.000999999996565748
6,21,3120.02845070109,0
6,22,3850.9941776258,0.00100000000384171
6,23,6685.3052908586,0.000999999996565748
6,24,5593.94690900392,0
6,25,5579.95463548463,0.00100000000384171
6,26,4233.7346705719,0.000999999996565748
6,27,4674.85144403399,0
6,28,3163.133947947,0.00100000000384171
6,29,5978.71308061708,0.000999999996565748
6,30,3865.84311550887,0
7,1,5300.94535483006,0.00100000000384171
7,2,2691.01094701476,0.000999999996565748
7,3,4282.08613863248,0
7,4,3390.24404111161,0.00100000000384171
7,5,2766.92146756263,0.00400000000081491
7,6,4135.98572248967,0
7,7,5396.25109408672,0.000999999996565748
7,8,4206.2884391363,0.000999999996565748
7,9,4622.95251818978,0
7,10,2539.34749489572,0.00100000000384171
7,11,4550.68542453489,0.000999999996565748
7,12,3072.68009247562,0
7,13,4104.98858039746,0.00100000000384171
7,14,3606.65189229849,0.000999999996565748
7,15,4054.29084494772,0
7,16,2311.37209053596,0.00100000000384171
7,17,3079.70744232743,0.000999999996565748
7,18,5381.27449355006,0
7,19,2961.22000095051,0.00100000000384171
7,20,5364.54245214639,0.000999999996565748
7,21,2467.59996869489,0
7,22,2800.34401020126,0.00100000000384171
7,23,5015.24798057593,0.000999999996565748
7,24,4604.55758275285,0
7,25,3796.5291871931,0.00100000000384171
7,26,3152.07321770587,0.000999999996565748
7,27,3873.22725293844,0
7,28,2472.94791401444,0.00100000000384171
7,29,4031.71104202021,0.000999999996565748
7,30,2525.3169098072,0
8,1,5955.30881998004,0.00100000000384171
8,2,3850.00844065515,0.000999999996565748
8,3,4779.31370117402,0
8,4,4220.3902458261,0.000999999996565748
8,5,3278.49311243178,0.00100000000384171
8,6,5214.10224105002,0
8,7,6067.73508484123,0.000999999996565748
8,8,5001.95474404991,0.00100000000384171
8,9,5569.38876748071,0
8,10,3367.89543158019,0.000999999996565748
8,11,5601.00291868253,0.00100000000384171
8,12,4358.83805835759,0
8,13,4632.17621149663,0.000999999996565748
8,14,4271.19433820013,0.00100000000384171
8,15,4781.56622412741,0
8,16,3483.48970564581,0.000999999996565748
8,17,4232.1265210379,0.00100000000384171
8,18,6183.83466350571,0
8,19,3570.44515928663,0.000999999996565748
8,20,5695.36842162812,0.00100000000384171
8,21,3427.47574802683,0
8,22,2983.59679070503,0.000999999996565748
8,23,6148.26199927613,0.00100000000384171
8,24,5741.473550112,0
8,25,4531.67262851819,0.000999999996565748
8,26,3423.54209695667,0.00100000000384171
8,27,5019.10834897442,0
8,28,3135.62973078384,0.000999999996565748
8,29,4983.38384017403,0.00100000000384171
8,30,4011.93685938083,0
9,1,4101.33794596699,0.000999999996565748
9,2,2699.08051103306,0.000999999996565748
9,3,3453.02970905344,0
9,4,3085.65561275187,0.00100000000384171
9,5,4053.55676172769,0.000999999996565748
9,6,3803.8602799596,0
9,7,4819.51039446303,0
9,8,4743.29874529129,0.000999999996565748
9,9,3865.10819847638,0.00100000000384171
9,10,4092.51324178033,0
9,11,5299.33004209348,0.000999999996565748
9,12,3572.53918589555,0.00100000000384171
9,13,2253.23396150464,0
9,14,4190.73424605743,0.000999999996565748
9,15,4846.45594800304,0.00100000000384171
9,16,3094.84140119438,0
9,17,3632.30237113088,0.000999999996565748
9,18,5154.23696831632,0.00100000000384171
9,19,2726.74361733914,0
9,20,6383.59748474402,0.000999999996565748
9,21,4004.86726770817,0.00100000000384171
9,22,4565.93057654808,0
9,23,5863.03020934119,0.000999999996565748
9,24,5485.35866871098,0.00100000000384171
9,25,3179.71320438837,0
9,26,4478.64542891571,0.000999999996565748
9,27,4579.01915589817,0.000999999996565748
9,28,2297.74734437913,0
9,29,5048.03725114696,0.00100000000384171
9,30,3185.70345191904,0.000999999996565748
10,1,6651.36102641939,0
10,2,3710.59800172184,0.00400000000081491
10,3,5736.31792520965,0.00100000000384171
10,4,4782.72474708874,0
10,5,4347.76729464354,0
10,6,4730.13986781452,0.00100000000384171
10,7,6808.34383089138,0
10,8,4891.75079606005,0
10,9,5634.48716070017,0.00100000000384171
10,10,3600.31320043267,0
10,11,5190.75188361282,0
10,12,3297.82352561062,0.00100000000384171
10,13,5146.9693046014,0
10,14,4808.74920583128,0.000999999996565748
10,15,4928.59904053807,0.00100000000384171
10,16,3049.63120468037,0
10,17,2855.63634402962,0.000999999996565748
10,18,6464.37111119006,0.00100000000384171
10,19,4504.41534092391,0
10,20,6772.20475066388,0.000999999996565748
10,21,2304.0739281698,0.000999999996565748
10,22,3351.10653012262,0
10,23,5839.44261281625,0.00100000000384171
10,24,5056.0726973756,0.000999999996565748
10,25,5178.60521916089,0
10,26,3660.02541750236,0.00100000000384171
10,27,4126.57166156035,0.000999999996565748
10,28,3768.2878413414,0
10,29,4888.15202873578,0.00100000000384171
10,30,2780.89397305925,0.000999999996565748
11,1,4582.58614653107,0
11,2,2540.46290979668,0.00100000000384171
11,3,3945.50462939344,0.000999999996565748
11,4,2638.80356921631,0
11,5,2863.12780890279,0.00100000000384171
11,6,4444.92842176549,0.000999999996565748
11,7,5260.44319464704,0
11,8,4345.00514540417,0.00100000000384171
11,9,4147.56650505403,0.000999999996565748
11,10,3172.16382843154,0
11,11,4904.0656292558,0.00100000000384171
11,12,3333.60745195195,0.000999999996565748
11,13,3516.53236922136,0
11,14,3571.91596454547,0.00100000000384171
11,15,4577.39637152899,0.000999999996565748
11,16,2548.97108133087,0
11,17,3433.64059333308,0.000999999996565748
11,18,5276.2035015947,0.00100000000384171
11,19,2598.71765928011,0
11,20,5496.606309421,0.000999999996565748
11,21,3373.13196586453,0.00100000000384171
11,22,3397.4219099536,0
11,23,5621.36262028868,0.000999999996565748
11,24,5405.78317858931,0.00100000000384171
11,25,3579.48662730203,0
11,26,3892.10623756057,0
11,27,4439.2394641812,0.00100000000384171
11,28,2491.60877927922,0
11,29,4433.75502105635,0
11,30,3433.629878232,0.00100000000384171
12,1,5140.52611793074,0.000999999996565748
12,2,3964.43081234347,0
12,3,4302.79779491104,0.00100000000384171
12,4,4375.27626894873,0.000999999996565748
12,5,4152.51555831043,0
12,6,4523.92898552021,0.00100000000384171
12,7,5176.52369002442,0.000999999996565748
12,8,6127.70506924513,0
12,9,4176.89413287131,0.00100000000384171
12,10,5274.77484895115,0.000999999996565748
12,11,6203.1914463006,0
12,12,4291.70308796708,0.00100000000384171
12,13,5362.18118392272,0.000999999996565748
12,14,5096.57940836009,0
12,15,3392.50267518808,0.000999999996565748
12,16,3761.13559251179,0.00100000000384171
12,17,3739.38664131123,0
12,18,4530.53587078007,0.000999999996565748
12,19,3767.01967484814,0.00100000000384171
12,20,6804.44835665272,0
12,21,3352.10028453937,0.000999999996565748
12,22,4546.71793038408,0.00100000000384171
12,23,5133.39488808776,0
12,24,4636.26507584847,0
12,25,4477.59116981671,0.00100000000384171
12,26,4458.79208595508,0
12,27,4129.11184286758,0
12,28,3446.25511025869,0.00100000000384171
12,29,4697.11497186762,0.0029999999969732
12,30,3960.64376927621,0.00100000000384171
13,1,6101.71321783317,0.000999999996565748
13,2,3789.48217527883,0.00100000000384171
13,3,5864.91413234607,0
13,4,4501.01159086719,0.000999999996565748
13,5,4441.48240165241,0.000999999996565748
13,6,4237.26870624984,0
13,7,6936.47181428169,0.00100000000384171
13,8,3053.6689565758,0.000999999996565748
13,9,4907.46625881279,0
13,10,3498.52674548072,0.00100000000384171
13,11,3964.12497704209,0
13,12,3228.15669822165,0
13,13,5031.55623091173,0.00100000000384171
13,14,3858.67734458572,0
13,15,5078.93977313601,0
13,16,2357.01595233914,0.00100000000384171
13,17,3183.019071229,0
13,18,6050.46189403327,0.000999999996565748
13,19,4907.65209151665,0.00100000000384171
13,20,6229.33913162814,0
13,21,3749.64279147635,0.000999999996565748
13,22,2871.9194508075,0.00100000000384171
13,23,5999.91497205927,0
13,24,5121.86611717194,0.000999999996565748
13,25,4844.62076924325,0.00100000000384171
13,26,3208.07864412192,0
13,27,3879.24145033549,0.000999999996565748
13,28,4327.76898685853,0.00100000000384171
13,29,4059.28492562717,0
13,30,3150.68079159471,0.000999999996565748
14,1,8074.22091944823,0.000999999996565748
14,2,5001.77860744684,0
14,3,6906.38530999893,0.00100000000384171
14,4,6041.73422044246,0.000999999996565748
14,5,5837.7884057752,0
14,6,6196.06271046591,0.00100000000384171
14,7,8366.96256689047,0.000999999996565748
14,8,5962.75383857766,0
14,9,7033.958516314,0.00100000000384171
14,10,4896.22233318078,0.000999999996565748
14,11,6672.83623047878,0
14,12,4503.2078911501,0.00100000000384171
14,13,5584.15499464516,0.000999999996565748
14,14,6279.73302352475,0
14,15,6579.82263423908,0.00100000000384171
14,16,4133.71809467887,0.000999999996565748
14,17,3428.66877532528,0
14,18,8228.23747756571,0.00100000000384171
14,19,5582.71747400672,0.000999999996565748
14,20,8407.51831989743,0
14,21,3370.42157214935,0
14,22,3948.59859592377,0.000999999996565748
14,23,7486.33116932821,0
14,24,6500.3672659957,0
14,25,6510.96709229733,0.000999999996565748
14,26,4706.63452314422,0.00100000000384171
14,27,5471.73367647552,0
14,28,4740.60411509717,0.000999999996565748
14,29,6550.96311818739,0.000999999996565748
14,30,4479.85375629461,0
15,1,4999.18625529279,0.00100000000384171
15,2,3545.43652129203,0.000999999996565748
15,3,4445.41067683352,0
15,4,3909.92577122482,0.00100000000384171
15,5,3430.42764325516,0.000999999996565748
15,6,3524.91004520666,0
15,7,5154.46690904883,0.00100000000384171
15,8,5056.47721178761,0.000999999996565748
15,9,3504.30880162909,0
15,10,4403.261821263,0.00100000000384171
15,11,5387.60309400669,0.000999999996565748
15,12,3727.60378957875,0
15,13,5224.80443267503,0.00100000000384171
15,14,3917.61899288631,0.000999999996565748
15,15,3419.52051654279,0
15,16,3110.48983742064,0.00100000000384171
15,17,3333.46025478126,0.000999999996565748
15,18,4107.84856021978,0
15,19,3853.04688386864,0.00100000000384171
15,20,5939.02742691995,0.000999999996565748
15,21,2552.05747338829,0
15,22,3896.95066029583,0
15,23,4637.31397430312,0.000999999996565748
15,24,4400.6270354861,0.000999999996565748
15,25,3715.50181773639,0
15,26,3677.915100013,0.00100000000384171
15,27,3676.31748235,0.0029999999969732
15,28,3543.42370075388,0
15,29,3448.43247663459,0.000999999996565748
15,30,3305.60784885543,0.00100000000384171
16,1,7797.97967691264,0
16,2,5116.49900662021,0.000999999996565748
16,3,6596.93768269947,0.00100000000384171
16,4,5846.65226199196,0
16,5,5043.08892652723,0.000999999996565748
16,6,5818.1859776281,0.00100000000384171
16,7,8014.7459117809,0
16,8,5444.06800474636,0.000999999996565748
16,9,6766.77838751002,0
16,10,4410.76046464619,0
16,11,5946.82867454374,0.000999999996565748
16,12,4733.5094768663,0
16,13,6130.12873972465,0
16,14,5769.9687356945,0.000999999996565748
16,15,5362.86547313574,0
16,16,3883.7234789128,0.00100000000384171
16,17,4125.55479964543,0.000999999996565748
16,18,7579.98172111583,0
16,19,5341.58921158026,0.000999999996565748
16,20,7150.81292778788,0.00100000000384171
16,21,3293.40149956495,0
16,22,2684.41930171088,0.000999999996565748
16,23,6636.6114841577,0.00100000000384171
16,24,5702.12592206933,0
16,25,6217.53429576356,0.000999999996565748
16,26,3348.93168747085,0.00100000000384171
16,27,4920.15043728087,0
16,28,4646.30786470292,0.000999999996565748
16,29,5533.11896736136,0.00100000000384171
16,30,4535.69997521675,0
17,1,6872.45759250804,0.000999999996565748
17,2,3825.68485079576,0.00100000000384171
17,3,5809.94856538697,0
17,4,4665.14886789849,0.000999999996565748
17,5,4494.15632330064,0.00100000000384171
17,6,5590.32480667568,0
17,7,6889.17328697506,0.000999999996565748
17,8,5384.38448671414,0.00100000000384171
17,9,5996.09582517512,0
17,10,3601.53472109354,0.000999999996565748
17,11,5416.66963334393,0.00100000000384171
17,12,3421.1102686412,0
17,13,5078.63710222393,0.000999999996565748
17,14,5291.3013371588,0.000999999996565748
17,15,5378.99747303143,0
17,16,3460.05101471308,0
17,17,3260.78513946806,0.000999999996565748
17,18,7055.5218274741,0
17,19,4091.2694650042,0
17,20,6760.80700926087,0.000999999996565748
17,21,2622.58691069586,0.00100000000384171
17,22,3697.96343098701,0
17,23,6221.06254242018,0.000999999996565748
17,24,5707.96220879207,0.00100000000384171
17,25,5270.72990617862,0
17,26,4356.26832757514,0.000999999996565748
17,27,5217.99447882947,0.00100000000384171
17,28,3773.12534864654,0
17,29,5433.64373857019,0.000999999996565748
17,30,3545.23786548699,0.00100000000384171
18,1,6468.79500194126,0
18,2,3667.94416946539,0.000999999996565748
18,3,5635.25565208838,0.00100000000384171
18,4,4815.24288123706,0
18,5,5371.09994750582,0.000999999996565748
18,6,4146.17302616306,0.00100000000384171
18,7,6933.59858141554,0
18,8,4741.3185227391,0.000999999996565748
18,9,5355.01088690368,0.00100000000384171
18,10,4501.34722468837,0
18,11,4522.68479192371,0.000999999996565748
18,12,3093.14065127338,0.000999999996565748
18,13,4825.27269083389,0
18,14,5612.45719714949,0
18,15,4950.87613249269,0.000999999996565748
18,16,3068.9362078553,0
18,17,3234.89497862089,0
18,18,6591.33179659827,0.000999999996565748
18,19,4638.17477574653,0.00100000000384171
18,20,7314.9369634497,0
18,21,3659.97654408466,0.000999999996565748
18,22,4116.54404953549,0.00100000000384171
18,23,5858.81222912014,0
18,24,4398.23739975626,0.00400000000081491
18,25,5110.30340137057,0.000999999996565748
18,26,4033.18735869254,0
18,27,3979.61286942384,0.00100000000384171
18,28,3568.43049150375,0.000999999996565748
18,29,5294.66090776921,0
18,30,2954.78420983443,0.00100000000384171
19,1,6380.73317171085,0.000999999996565748
19,2,3841.33387288765,0
19,3,5143.14796261213,0.000999999996565748
19,4,4393.39452622918,0.00100000000384171
19,5,4668.39075222035,0
19,6,5916.20034489984,0.000999999996565748
19,7,6609.37526723911,0.00100000000384171
19,8,5753.0192477965,0
19,9,6211.4922106971,0.000999999996565748
19,10,3921.64108874207,0.00100000000384171
19,11,6283.57462291992,0
19,12,4221.97078691853,0.000999999996565748
19,13,3715.78549795769,0.00100000000384171
19,14,5441.79464244949,0
19,15,6135.13364824482,0.000999999996565748
19,16,3837.58447773191,0
19,17,3641.54947618226,0
19,18,7197.96064191574,0.000999999996565748
19,19,3668.09278837017,0
19,20,7467.28619311538,0
19,21,3812.52637014897,0.000999999996565748
19,22,4329.66158759768,0
19,23,7146.11379964979,0
19,24,6641.18217374647,0.000999999996565748
19,25,5316.0970491098,0
19,26,5113.0286279788,0.00100000000384171
19,27,5522.17976156789,0.000999999996565748
19,28,2958.77715478949,0
19,29,6456.01281855702,0.000999999996565748
19,30,4116.64779868991,0.00100000000384171
20,1,6696.9149079451,0
20,2,4389.80856280457,0.000999999996565748
20,3,5627.32490135217,0.00100000000384171
20,4,5367.26864574964,0
20,5,5097.56914188502,0
20,6,5223.76782888024,0.00100000000384171
20,7,7381.46370885156,0
20,8,5378.08646513571,0
20,9,5817.3276617771,0.00100000000384171
20,10,4903.19255601752,0.000999999996565748
20,11,6213.28313557033,0
20,12,4105.54390586783,0.00100000000384171
20,13,4718.10941434729,0.000999999996565748
20,14,5365.31495705143,0
20,15,5207.25774058865,0.00100000000384171
20,16,2937.76764106846,0.000999999996565748
20,17,2535.17182328527,0
20,18,6546.45376630898,0.00100000000384171
20,19,5138.46186400251,0.000999999996565748
20,20,8121.78854831479,0
20,21,3721.11625477425,0.00100000000384171
20,22,3406.59881201972,0.000999999996565748
20,23,7136.33061590343,0
20,24,5622.44198714436,0.00100000000384171
20,25,5932.65874201741,0.000999999996565748
20,26,3877.32717626478,0
20,27,3870.38280844489,0.000999999996565748
20,28,3612.93966263078,0.00100000000384171
20,29,5794.57510084627,0
20,30,3712.88191709719,0.000999999996565748
21,1,4770.59937134005,0.00100000000384171
21,2,2373.62192594157,0
21,3,4431.13262401799,0.000999999996565748
21,4,3002.44876437818,0.00100000000384171
21,5,3023.37942520009,0
21,6,4133.78681368897,0.000999999996565748
21,7,5254.92612130326,0.00100000000384171
21,8,4223.05501602702,0
21,9,3946.26384849127,0
21,10,3092.41240745847,0.00100000000384171
21,11,4405.97694569678,0.000999999996565748
21,12,2219.79423588924,0
21,13,3986.72191880188,0.00100000000384171
21,14,3597.58947798653,0.000999999996565748
21,15,4158.02609454104,0
21,16,1760.35301239806,0.00100000000384171
21,17,2654.89679514926,0.000999999996565748
21,18,5003.81946679674,0
21,19,2913.04943138511,0.00100000000384171
21,20,5724.9191923166,0.000999999996565748
21,21,2756.94433854723,0.0029999999969732
21,22,3411.32422825495,0.00100000000384171
21,23,5191.29173200482,0.000999999996565748
21,24,4904.26806426076,0
21,25,3786.54895851642,0.00100000000384171
21,26,3843.84860900843,0.000999999996565748
21,27,3921.72060629721,0
21,28,2748.21063869986,0.00100000000384171
21,29,4165.77293753026,0.000999999996565748
21,30,2501.36985877624,0
22,1,3990.94955608043,0.00100000000384171
22,2,2015.48445418427,0.000999999996565748
22,3,3528.83304417428,0
22,4,2221.18566048536,0.00100000000384171
22,5,2678.18294922318,0.000999999996565748
22,6,4011.47212157252,0
22,7,4560.86591966315,0.00100000000384171
22,8,3600.31658248101,0.000999999996565748
22,9,3871.51516185798,0
22,10,2271.91959982681,0.00100000000384171
22,11,3996.19824934895,0.000999999996565748
22,12,2858.84072988326,0
22,13,3065.13836275232,0.00100000000384171
22,14,2607.15274208386,0.000999999996565748
22,15,4334.69563655284,0
22,16,2328.61645784314,0.000999999996565748
22,17,3221.34977388881,0.00100000000384171
22,18,4750.8367646072,0
22,19,2352.44781595609,0.000999999996565748
22,20,4959.60835494031,0
22,21,3597.16417248174,0
22,22,3464.82958791181,0.000999999996565748
22,23,5238.25572123518,0
22,24,5093.5036247726,0
22,25,3182.47873297723,0.000999999996565748
22,26,3678.34972128178,0
22,27,4127.04715305098,0
22,28,2340.10260504847,0.000999999996565748
22,29,3836.23426167321,0
22,30,2434.1476367976,0
23,1,6200.57869754373,0.000999999996565748
23,2,3729.62440498007,0
23,3,5282.32557702339,0
23,4,4567.13356788759,0.000999999996565748
23,5,4142.46258066738,0.00100000000384171
23,6,4562.78315195258,0
23,7,6687.51064887701,0.000999999996565748
23,8,3732.13206697915,0.00100000000384171
23,9,5388.2984750579,0
23,10,3246.36694531088,0.000999999996565748
23,11,4299.29643912458,0.000999999996565748
23,12,3599.304482638,0
23,13,4491.16181720812,0.00100000000384171
23,14,3965.14170786323,0.000999999996565748
23,15,4943.6875226221,0
23,16,2651.17220753515,0.00100000000384171
23,17,3512.19206667095,0.000999999996565748
23,18,6319.87437249431,0
23,19,4581.08153876724,0.00100000000384171
23,20,6044.19808001411,0.000999999996565748
23,21,3847.70558115998,0
23,22,2603.98075154711,0.00100000000384171
23,23,6089.02761182891,0.000999999996565748
23,24,5042.64908975316,0
23,25,4736.28752864098,0.00100000000384171
23,26,2763.57948599684,0.000999999996565748
23,27,4335.72592722098,0
23,28,3625.00505491298,0
23,29,4443.69358174955,0.000999999996565748
23,30,3160.66188996324,0
24,1,4870.45176652786,0
24,2,2346.15392774299,0.000999999996565748
24,3,4687.67922693383,0.00100000000384171
24,4,3117.48155318887,0
24,5,3599.97158111828,0.000999999996565748
24,6,3870.44913349596,0.00100000000384171
24,7,5690.50955504028,0
24,8,3861.84296932864,0.000999999996565748
24,9,3610.58569525434,0.000999999996565748
24,10,3510.00284520783,0
24,11,4205.77991871297,0.00100000000384171
24,12,2162.41781777222,0.000999999996565748
24,13,4242.78776391313,0
24,14,3488.54823403924,0.00100000000384171
24,15,4660.50407571124,0.000999999996565748
24,16,1999.72390135645,0
24,17,2380.69727617948,0.00100000000384171
24,18,5132.19601916622,0.00400000000081491
24,19,3728.30803474431,0
24,20,5913.50132796508,0.000999999996565748
24,21,3014.23262582108,0.00100000000384171
24,22,3768.02976011527,0
24,23,5159.904517837,0.000999999996565748
24,24,4766.56922434344,0.00100000000384171
24,25,4002.89562357657,0
24,26,4032.01520234693,0.000999999996565748
24,27,3934.48948005592,0.00100000000384171
24,28,3549.25578236516,0
24,29,3847.09355390106,0.000999999996565748
24,30,2495.05920188747,0.000999999996565748
25,1,6275.13052868384,0
25,2,3883.37755800262,0.00100000000384171
25,3,5208.57847474147,0.000999999996565748
25,4,4255.48579638664,0
25,5,4051.76740484645,0.00100000000384171
25,6,6053.08969698964,0.000999999996565748
25,7,6861.26252157762,0
25,8,4823.23336596298,0.00100000000384171
25,9,6334.70977462753,0.000999999996565748
25,10,2972.01787914608,0
25,11,5811.99934122018,0.00100000000384171
25,12,4221.08068475236,0.000999999996565748
25,13,4150.43495082737,0
25,14,4690.88590212777,0.00100000000384171
25,15,6005.21232321689,0.000999999996565748
25,16,3496.3961172989,0
25,17,3654.94282017842,0.00100000000384171
25,18,6974.78057740419,0.000999999996565748
25,19,3969.10875091321,0
25,20,6702.47136091618,0.00100000000384171
25,21,3867.7801458435,0.000999999996565748
25,22,3290.79957924231,0
25,23,7289.95793077556,0.00100000000384171
25,24,6689.79449317688,0.000999999996565748
25,25,5566.9852626865,0
25,26,4597.10056170989,0.000999999996565748
25,27,5202.56643534196,0.00100000000384171
25,28,3366.32607008369,0
25,29,5918.05385530703,0.000999999996565748
25,30,4102.08499265551,0.00100000000384171
26,1,5450.88010701647,0
26,2,3034.84481023045,0.000999999996565748
26,3,4698.04501278811,0.00100000000384171
26,4,3861.76217791787,0
26,5,4364.10865013387,0.000999999996565748
26,6,3148.11584782873,0.00100000000384171
26,7,5761.4197932885,0
26,8,4700.6830915445,0.000999999996565748
26,9,3988.26053757202,0.00100000000384171
26,10,4216.53613828853,0
26,11,4448.71173627398,0.000999999996565748
26,12,2608.96512973448,0.00100000000384171
26,13,4402.17844820895,0
26,14,4763.35226270917,0.000999999996565748
26,15,3666.52541351999,0.00100000000384171
26,16,2367.58312230337,0
26,17,2704.99899005835,0.000999999996565748
26,18,5404.71665955041,0.00100000000384171
26,19,3503.07516778461,0
26,20,6624.4225644183,0.000999999996565748
26,21,2589.87662074382,0.00100000000384171
26,22,3667.83467777741,0
26,23,4628.05840923012,0
26,24,3716.7786466639,0.000999999996565748
26,25,4035.74189652365,0
26,26,3291.09761536857,0
26,27,3181.32261284956,0.000999999996565748
26,28,2860.40830687465,0.00100000000384171
26,29,4154.97410562914,0
26,30,2670.20278306861,0.000999999996565748
27,1,7122.91618213743,0.00100000000384171
27,2,4436.68462554007,0
27,3,6620.24455919057,0.000999999996565748
27,4,5274.48764452157,0.00100000000384171
27,5,5332.89055193051,0
27,6,4356.59909407111,0.000999999996565748
27,7,7651.90800528526,0.00100000000384171
27,8,4470.38892401768,0
27,9,5324.70094830279,0.000999999996565748
27,10,4860.06863207729,0.00100000000384171
27,11,4226.92764267744,0
27,12,3854.49904682994,0.000999999996565748
27,13,6320.63480805612,0.00100000000384171
27,14,5406.39415370468,0
27,15,4685.00455334597,0.00399999999353895
27,16,3536.76949930368,0.00100000000384171
27,17,4399.72524877088,0
27,18,6796.4160625478,0
27,19,5567.19920103437,0.00100000000384171
27,20,6562.15274545476,0
27,21,4161.02955709572,0
27,22,3795.7228825164,0.00100000000384171
27,23,4675.87549573771,0
27,24,3470.40346550636,0
27,25,5680.24542732479,0.00100000000384171
27,26,3230.37886133776,0
27,27,3224.20882893776,0
27,28,5109.222177901,0.00100000000384171
27,29,3947.93756834072,0
27,30,4091.6883984024,0
28,1,4534.15677764276,0.00100000000384171
28,2,2685.59759720416,0
28,3,3825.27131595112,0.000999999996565748
28,4,2999.76686314551,0.00100000000384171
28,5,3117.29910736106,0
28,6,4405.15013997332,0
28,7,4412.94480134614,0.00100000000384171
28,8,5354.09447894499,0
28,9,4120.57724324126,0.000999999996565748
28,10,3609.95502136941,0.00100000000384171
28,11,5541.48248132042,0
28,12,3221.82030703529,0.000999999996565748
28,13,3702.37571242589,0.000999999996565748
28,14,3953.97089942804,0
28,15,4543.87057821258,0.00100000000384171
28,16,3244.4576421312,0.000999999996565748
28,17,3364.68208873129,0
28,18,4993.26437091565,0.00100000000384171
28,19,2455.7908084075,0.000999999996565748
28,20,6067.08767042496,0
28,21,2793.85121658976,0.00100000000384171
28,22,4328.53502644306,0.000999999996565748
28,23,5357.20385309592,0
28,24,5436.92037570481,0.00100000000384171
28,25,3347.47872613928,0.000999999996565748
28,26,4600.63168643495,0
28,27,4718.51591216752,0.00100000000384171
28,28,2566.34667461067,0.000999999996565748
28,29,4751.03521424579,0
28,30,2947.72889624743,0
29,1,5624.98909081962,0.000999999996565748
29,2,2978.65886462058,0.00100000000384171
29,3,4488.15590586844,0
29,4,3812.12665245074,0.000999999996565748
29,5,4147.33872110481,0.00100000000384171
29,6,5461.77956951684,0
29,7,6067.93094055774,0.000999999996565748
29,8,5808.86653122729,0.000999999996565748
29,9,5321.96139035799,0
29,10,4055.58048718538,0.00100000000384171
29,11,6250.3184126512,0.000999999996565748
29,12,3618.59789930391,0
29,13,3312.10142764235,0.00100000000384171
29,14,4813.39720413766,0.000999999996565748
29,15,5585.69742305996,0
29,16,3414.16347122107,0.00100000000384171
29,17,2965.14936021926,0.000999999996565748
29,18,6305.53346458397,0
29,19,3667.0646194947,0.00100000000384171
29,20,7284.97875543476,0.000999999996565748
29,21,3399.78120821316,0
29,22,4455.61367995753,0.00100000000384171
29,23,6515.80272691554,0.000999999996565748
29,24,5961.74849765077,0
29,25,5059.46331198056,0.00100000000384171
29,26,5017.39859889006,0.000999999996565748
29,27,4730.54063545982,0
29,28,2846.63430056856,0
29,29,5761.10031595052,0.000999999996565748
29,30,3489.33107253636,0.00100000000384171
30,1,3933.65830235221,0
30,2,3574.81855837701,0.000999999996565748
30,3,4722.28436413232,0.00100000000384171
30,4,3305.26512713187,0
30,5,4314.74376335605,0.000999999996565748
30,6,3657.17341995885,0.000999999996565748
30,7,5112.22193873043,0
30,8,3316.3427729026,0.00100000000384171
30,9,3147.27764564537,0.000999999996565748
30,10,4328.97683957212,0
30,11,3412.92986146883,0.00100000000384171
30,12,3955.00949499541,0.00400000000081491
30,13,4671.98638200536,0
30,14,3800.56209912144,0.000999999996565748
30,15,4796.9870702549,0.00100000000384171
30,16,3319.87507313894,0
30,17,4949.47132449102,0.000999999996565748
30,18,4631.14113523069,0.00100000000384171
30,19,3958.85949973426,0
30,20,4882.93552626871,0.000999999996565748
30,21,5483.54665776375,0.00100000000384171
30,22,5074.43975240831,0
30,23,5229.7215300944,0.000999999996565748
30,24,5279.67793637868,0.00100000000384171
30,25,3175.22533659961,0
30,26,4802.37802419755,0.000999999996565748
30,27,4936.26899073554,0.000999999996565748
30,28,4303.56477146207,0
30,29,4080.78895610745,0.00100000000384171
30,30,4003.35825866118,0.000999999996565748
