App - AnkiDroid
Scenario - learn_cards
Length - 1sec
Measure - ARPicDistance
Before Version - 2.6_b
After Version - 2.7_f


"Before.Trace.ID1","Before.Trace.ID2","Difference","Runtime"
1,2,0.0506728423680212,0.0029999999969732
1,3,0.0433213749209702,0.0029999999969732
1,4,0.0122216071145679,0.00300000000424916
1,5,0.0524054380222363,0.0029999999969732
1,6,0.0509154293168814,0.00300000000424916
1,7,0.0515083065312221,0.0029999999969732
1,8,0.0515756500429326,0.00300000000424916
1,9,0.0535835919957812,0.0029999999969732
1,10,0.0611917263730015,0.00400000000081491
1,11,0.0528892049844501,0.00200000000040745
1,12,0.0587223577208551,0.00300000000424916
1,13,0.0481601595696716,0.0029999999969732
1,14,0.0497934473877952,0.00300000000424916
1,15,0.0547881519417941,0.0029999999969732
1,16,0.0150246545980902,0.0029999999969732
1,17,0.0527649031085103,0.00300000000424916
1,18,0.0523345111778756,0.0029999999969732
1,19,0.0516399311718427,0.00200000000040745
1,20,0.0520960023800371,0.0029999999969732
1,21,0.059883106818201,0.0029999999969732
1,22,0.0461737314083184,0.0430000000051223
1,23,0.0495165182256042,0.0029999999969732
1,24,0.0526743997104244,0.00300000000424916
1,25,0.0531043936732867,0.0029999999969732
1,26,0.0531631104732807,0.0029999999969732
1,27,0.0500300501914624,0.00300000000424916
1,28,0.0477319053876856,0.0029999999969732
1,29,0.0492749153708607,0.00200000000040745
1,30,0.055054052760896,0.00400000000081491
2,3,0.0538186074854402,0.0029999999969732
2,4,0.0550964192339038,0.0029999999969732
2,5,0.0667772568010144,0.00300000000424916
2,6,0.0480689019319502,0.00400000000081491
2,7,0.0508176207203168,0.0029999999969732
2,8,0.0509916500334717,0.00300000000424916
2,9,0.0609407669423387,0.00399999999353895
2,10,0.0183315794553071,0.00300000000424916
2,11,0.0673116909167032,0.0029999999969732
2,12,0.0592645610486221,0.00400000000081491
2,13,0.0501983849961801,0.00300000000424916
2,14,0.0537441000050105,0.00699999999778811
2,15,0.0523516866916806,0.0029999999969732
2,16,0.0550454866051256,0.00300000000424916
2,17,0.0671745507090495,0.00300000000424916
2,18,0.0666987400945211,0.0029999999969732
2,19,0.0659275483006263,0.0029999999969732
2,20,0.0546098741638901,0.00300000000424916
2,21,0.0599355628343359,0.00400000000081491
2,22,0.0493418486646024,0.0029999999969732
2,23,0.0507263406502494,0.00300000000424916
2,24,0.0546780818408011,0.0029999999969732
2,25,0.0524100709744769,0.00300000000424916
2,26,0.0676134580260138,0.00400000000081491
2,27,0.0512320854485727,0.0029999999969732
2,28,0.0550197031155969,0.00300000000424916
2,29,0.0505619134766366,0.00399999999353895
2,30,0.0596276738656357,0.00300000000424916
3,4,0.0477254956946686,0.0029999999969732
3,5,0.0575068648498797,0.00300000000424916
3,6,0.051043295663989,0.00600000000122236
3,7,0.0514678391595922,0.0029999999969732
3,8,0.0537339231431132,0.00300000000424916
3,9,0.019790421736753,0.0029999999969732
3,10,0.0588471397006431,0.00400000000081491
3,11,0.0580196351084894,0.00200000000040745
3,12,0.0598644792385157,0.0029999999969732
3,13,0.0509949162722406,0.0029999999969732
3,14,0.0490855404653307,0.00300000000424916
3,15,0.0564484054773398,0.0029999999969732
3,16,0.0499561149250072,0.00300000000424916
3,17,0.0578879783839135,0.0029999999969732
3,18,0.0574315986058132,0.0029999999969732
3,19,0.0566932911151905,0.00300000000424916
3,20,0.0525207296746453,0.0029999999969732
3,21,0.0568490777126563,0.0029999999969732
3,22,0.0542228548883337,0.00300000000424916
3,23,0.0495420954861645,0.0029999999969732
3,24,0.053046193278435,0.00400000000081491
3,25,0.0518848661646526,0.0029999999969732
3,26,0.0583095158855078,0.00300000000424916
3,27,0.0507530277970076,0.00600000000122236
3,28,0.0484866711821609,0.00399999999353895
3,29,0.0519411199546627,0.00300000000424916
3,30,0.0516445651997795,0.0029999999969732
4,5,0.0538730120818558,0.00300000000424916
4,6,0.0542692911118891,0.0029999999969732
4,7,0.0539334859371316,0.00300000000424916
4,8,0.0517386402287064,0.0029999999969732
4,9,0.0559816113435314,0.0029999999969732
4,10,0.0659793078758415,0.00400000000081491
4,11,0.0543127771650678,0.00200000000040745
4,12,0.0642373552301616,0.00400000000081491
4,13,0.0484892972338509,0.00300000000424916
4,14,0.0523762931800583,0.0029999999969732
4,15,0.0548470994808102,0.0029999999969732
4,16,0.0164013951403962,0.00300000000424916
4,17,0.0541996882860234,0.00200000000040745
4,18,0.0538086193676692,0.00200000000040745
4,19,0.0531791828574036,0.00300000000424916
4,20,0.0570641349524976,0.0029999999969732
4,21,0.0634607238348686,0.00400000000081491
4,22,0.0494295818580228,0.00600000000122236
4,23,0.0598584338540314,0.0029999999969732
4,24,0.0569941075101142,0.0029999999969732
4,25,0.0562012301768589,0.00300000000424916
4,26,0.054562197315005,0.0029999999969732
4,27,0.053569783781529,0.00300000000424916
4,28,0.0513279048962475,0.0029999999969732
4,29,0.0495131131049596,0.00200000000040745
4,30,0.0594240140784694,0.00399999999353895
5,6,0.0597648923310165,0.00300000000424916
5,7,0.0576135779311645,0.0029999999969732
5,8,0.0556380987044468,0.00200000000040745
5,9,0.0485407978818169,0.00300000000424916
5,10,0.0829557934502095,0.0029999999969732
5,11,0.000648039065081818,0.0029999999969732
5,12,0.074704084202888,0.00300000000424916
5,13,0.0476762095694643,0.0029999999969732
5,14,0.0564453495157195,0.00300000000424916
5,15,0.0617475856640727,0.0029999999969732
5,16,0.0668246698741989,0.00200000000040745
5,17,0.000481977964189362,0.00300000000424916
5,18,9.54133020745207e-05,0.0029999999969732
5,19,0.00103545959227658,0.00200000000040745
5,20,0.0558897829906257,0.00400000000081491
5,21,0.084116924911837,0.00600000000122236
5,22,0.0694797518812857,0.0029999999969732
5,23,0.0550805070068033,0.0029999999969732
5,24,0.0689819276444169,0.00300000000424916
5,25,0.0519465657029832,0.0029999999969732
5,26,0.0010128929490234,0.00200000000040745
5,27,0.0545054637421187,0.00300000000424916
5,28,0.0558864750817007,0.0029999999969732
5,29,0.0500381834757947,0.0029999999969732
5,30,0.0622866190870797,0.00300000000424916
6,7,0.00761177973751237,0.0029999999969732
6,8,0.0465723246462602,0.00300000000424916
6,9,0.0550411111417862,0.00400000000081491
6,10,0.0580142073867492,0.0029999999969732
6,11,0.0602794678608611,0.0029999999969732
6,12,0.0527191959242171,0.00400000000081491
6,13,0.0449078668128636,0.00300000000424916
6,14,0.0472989601100903,0.0029999999969732
6,15,0.0486439622539897,0.00300000000424916
6,16,0.0571058359915464,0.0029999999969732
6,17,0.0601473611804877,0.0029999999969732
6,18,0.059689348931577,0.00600000000122236
6,19,0.0589481488519738,0.0029999999969732
6,20,0.0501446680094954,0.00300000000424916
6,21,0.057513346233157,0.0029999999969732
6,22,0.0177053351155593,0.00300000000424916
6,23,0.0510949368039504,0.0029999999969732
6,24,0.0509456844592127,0.00300000000424916
6,25,0.0132841434987695,0.00400000000081491
6,26,0.0605703073282562,0.0029999999969732
6,27,0.0491013092316983,0.0029999999969732
6,28,0.0492902834952207,0.00300000000424916
6,29,0.0454914018886992,0.0029999999969732
6,30,0.0558831907377344,0.00400000000081491
7,8,0.0499082121768866,0.00300000000424916
7,9,0.0538454154910731,0.0029999999969732
7,10,0.0613469724567917,0.00400000000081491
7,11,0.0581035376426841,0.0029999999969732
7,12,0.0557977548367197,0.00300000000424916
7,13,0.0474973667266947,0.0029999999969732
7,14,0.0485024528146469,0.00699999999778811
7,15,0.0524545006679374,0.00300000000424916
7,16,0.0582523561879279,0.0029999999969732
7,17,0.0579776889650613,0.00300000000424916
7,18,0.0575417033018075,0.0029999999969732
7,19,0.0568372724350589,0.0029999999969732
7,20,0.0514915270376871,0.00300000000424916
7,21,0.0607959947175919,0.00300000000424916
7,22,0.0200947525881683,0.0029999999969732
7,23,0.0553256845873165,0.00300000000424916
7,24,0.0534160723148379,0.00399999999353895
7,25,0.00890367362478357,0.00300000000424916
7,26,0.058380746747287,0.0029999999969732
7,27,0.0498651736516767,0.00300000000424916
7,28,0.0504276682350327,0.00400000000081491
7,29,0.0483005032004952,0.0029999999969732
7,30,0.0572483974164407,0.0029999999969732
8,9,0.0548587458509461,0.00300000000424916
8,10,0.062804083346345,0.0029999999969732
8,11,0.0561010278854438,0.00600000000122236
8,12,0.0608958754944831,0.00400000000081491
8,13,0.00798009832783004,0.00200000000040745
8,14,0.0463328655678464,0.0029999999969732
8,15,0.00612744623927641,0.00200000000040745
8,16,0.0571911010866404,0.0029999999969732
8,17,0.0559820514427665,0.00300000000424916
8,18,0.0555702523979497,0.00200000000040745
8,19,0.0549061883644769,0.00200000000040745
8,20,0.053340799062157,0.0029999999969732
8,21,0.0600684647123586,0.00300000000424916
8,22,0.0542048695194346,0.00200000000040745
8,23,0.052400360979182,0.00200000000040745
8,24,0.0541818569860982,0.0029999999969732
8,25,0.051493481137959,0.0029999999969732
8,26,0.0563632680810025,0.00300000000424916
8,27,0.046792087175273,0.0029999999969732
8,28,0.051171909558002,0.00300000000424916
8,29,0.00565385407565967,0.0029999999969732
8,30,0.0582868068891381,0.00300000000424916
9,10,0.0688340606364538,0.00399999999353895
9,11,0.0489562857069585,0.00300000000424916
9,12,0.0677832274025562,0.00600000000122236
9,13,0.0505792368352043,0.0029999999969732
9,14,0.0518319078968877,0.00400000000081491
9,15,0.0586261235674646,0.0029999999969732
9,16,0.0630127821849493,0.00300000000424916
9,17,0.048849333783999,0.0029999999969732
9,18,0.0484800548592034,0.00300000000424916
9,19,0.0478876371076595,0.0029999999969732
9,20,0.0553288367455956,0.0029999999969732
9,21,0.0673887553395143,0.00300000000424916
9,22,0.0630098228160551,0.00400000000081491
9,23,0.0561020036837061,0.0029999999969732
9,24,0.0603318971798562,0.00300000000424916
9,25,0.0520149915953435,0.0029999999969732
9,26,0.0491924226340332,0.0029999999969732
9,27,0.0521999341898425,0.00300000000424916
9,28,0.0523114396357404,0.00400000000081491
9,29,0.0519226937101446,0.0029999999969732
9,30,0.0556365861654345,0.00300000000424916
10,11,0.0835026325875429,0.0059999999939464
10,12,0.064544719057007,0.00400000000081491
10,13,0.0634811386186754,0.00300000000424916
10,14,0.0620486350675714,0.00400000000081491
10,15,0.0628906269519535,0.0029999999969732
10,16,0.0624471615348084,0.0029999999969732
10,17,0.0833623659103785,0.00300000000424916
10,18,0.0828754034332123,0.0029999999969732
10,19,0.0820850921218963,0.00400000000081491
10,20,0.0633195014519472,0.00300000000424916
10,21,0.0597786134435272,0.00399999999353895
10,22,0.0567042651921292,0.00300000000424916
10,23,0.0598920482920868,0.0029999999969732
10,24,0.0593949007528609,0.00400000000081491
10,25,0.0641192348042082,0.00300000000424916
10,26,0.0838111445047609,0.0029999999969732
10,27,0.0629919127934483,0.00400000000081491
10,28,0.0629192408586507,0.00600000000122236
10,29,0.0634528440032567,0.0029999999969732
10,30,0.0656095676378054,0.0029999999969732
11,12,0.0752263252045461,0.0029999999969732
11,13,0.0481347014376043,0.00300000000424916
11,14,0.0569517586810561,0.0029999999969732
11,15,0.0622139335359276,0.00300000000424916
11,16,0.0673055137042644,0.00200000000040745
11,17,0.000166061100892456,0.00200000000040745
11,18,0.000743452367156339,0.0029999999969732
11,19,0.0016834986573584,0.00200000000040745
11,20,0.0563876202123078,0.00300000000424916
11,21,0.0846709384565198,0.0029999999969732
11,22,0.0700099896702065,0.00300000000424916
11,23,0.0555569306336973,0.0029999999969732
11,24,0.0695165208607195,0.0029999999969732
11,25,0.0524077786603882,0.00300000000424916
11,26,0.000364853883941585,0.0029999999969732
11,27,0.0550062001022255,0.00300000000424916
11,28,0.0563791117407881,0.0029999999969732
11,29,0.0504946052359259,0.00300000000424916
11,30,0.0627621255085036,0.0029999999969732
12,13,0.0603083401773987,0.00600000000122236
12,14,0.0562416398438162,0.00400000000081491
12,15,0.0619702738155778,0.0029999999969732
12,16,0.062615163693822,0.00400000000081491
12,17,0.0750923132460347,0.0029999999969732
12,18,0.0746273592450478,0.00300000000424916
12,19,0.0738737653555322,0.0029999999969732
12,20,0.0560365556987429,0.00400000000081491
12,21,0.0589571615523593,0.00300000000424916
12,22,0.0533097251762601,0.0029999999969732
12,23,0.053592603843423,0.00300000000424916
12,24,0.0547802345832973,0.00400000000081491
12,25,0.0571419103171184,0.00400000000081491
12,26,0.0755212109708584,0.0029999999969732
12,27,0.0605765126636262,0.0029999999969732
12,28,0.0563924657630371,0.00700000000506407
12,29,0.060634984536448,0.0029999999969732
12,30,0.0593379582183828,0.00400000000081491
13,14,0.0440564575763993,0.00300000000424916
13,15,0.014106973915683,0.0029999999969732
13,16,0.0556204439424211,0.0029999999969732
13,17,0.0480167958803007,0.00200000000040745
13,18,0.0476090761037252,0.00300000000424916
13,19,0.046952887184834,0.0029999999969732
13,20,0.0503565821137467,0.00300000000424916
13,21,0.0613801180506104,0.0029999999969732
13,22,0.0535207292558451,0.0029999999969732
13,23,0.0493370595055163,0.00300000000424916
13,24,0.0534149051851594,0.0029999999969732
13,25,0.0479851166792469,0.00300000000424916
13,26,0.0483947449011309,0.0029999999969732
13,27,0.0441170136017371,0.0029999999969732
13,28,0.0483611858157107,0.00300000000424916
13,29,0.00237131446395405,0.0029999999969732
13,30,0.055849183964111,0.00300000000424916
14,15,0.0488399323287316,0.00600000000122236
14,16,0.0565906961136266,0.0029999999969732
14,17,0.0568217162744301,0.0029999999969732
14,18,0.0563710338974748,0.00300000000424916
14,19,0.0556422901987068,0.0029999999969732
14,20,0.0158841196641023,0.0029999999969732
14,21,0.0309317361201013,0.0029999999969732
14,22,0.0520737388404491,0.00400000000081491
14,23,0.0528352849553883,0.00300000000424916
14,24,0.0159902441923336,0.0029999999969732
14,25,0.0488646384122955,0.00400000000081491
14,26,0.0572381301017,0.00300000000424916
14,27,0.049872708803803,0.0029999999969732
14,28,0.00920703831830934,0.00400000000081491
14,29,0.0448155422940842,0.0029999999969732
14,30,0.0150282859914632,0.00300000000424916
15,16,0.0590432012306442,0.0029999999969732
15,17,0.0620941203805616,0.00600000000122236
15,18,0.0616792007040486,0.0029999999969732
15,19,0.0610093269404645,0.00200000000040745
15,20,0.0562333769874322,0.00300000000424916
15,21,0.0596906630409186,0.00400000000081491
15,22,0.0554362511770849,0.0029999999969732
15,23,0.0553645483594546,0.00200000000040745
15,24,0.0554733736524852,0.00400000000081491
15,25,0.0547749106515722,0.0029999999969732
15,26,0.0624779189966484,0.00200000000040745
15,27,0.0495672649610354,0.00300000000424916
15,28,0.0539754345093782,0.0029999999969732
15,29,0.0117775702823461,0.0029999999969732
15,30,0.0607444843835128,0.00300000000424916
16,17,0.0671820289432443,0.0029999999969732
16,18,0.0667541121693049,0.00300000000424916
16,19,0.0660622906703234,0.0029999999969732
16,20,0.0603017958255982,0.0029999999969732
16,21,0.0597955568417791,0.00300000000424916
16,22,0.0484181801417527,0.0029999999969732
16,23,0.0593394868224584,0.00300000000424916
16,24,0.0567307243531018,0.00699999999778811
16,25,0.0617743978747417,0.0029999999969732
16,26,0.067577463559116,0.00300000000424916
16,27,0.0577050144524742,0.0029999999969732
16,28,0.0549723321106811,0.00300000000424916
16,29,0.0561921373354543,0.0029999999969732
16,30,0.0618278272698482,0.00300000000424916
17,18,0.000577391266263882,0.0029999999969732
17,19,0.00151743755646594,0.00200000000040745
17,20,0.0562597570609028,0.0029999999969732
17,21,0.0845288441366489,0.00300000000424916
17,22,0.0698739260472936,0.00200000000040745
17,23,0.0554345145492749,0.00200000000040745
17,24,0.0693793461728337,0.0029999999969732
17,25,0.052289214390182,0.0029999999969732
17,26,0.000530914984834041,0.00300000000424916
17,27,0.0548775917263618,0.0029999999969732
17,28,0.0562525724791419,0.00300000000424916
17,29,0.0503772460678693,0.0029999999969732
17,30,0.0626399812897401,0.0029999999969732
18,19,0.000940046290202057,0.00500000000465661
18,20,0.0558167449107633,0.00400000000081491
18,21,0.0840354689404712,0.0029999999969732
18,22,0.0694018518279153,0.00300000000424916
18,23,0.0550106575790122,0.00200000000040745
18,24,0.068903381861934,0.0029999999969732
18,25,0.0518789969031964,0.0029999999969732
18,26,0.00110830625109792,0.00300000000424916
18,27,0.0544320009441732,0.0029999999969732
18,28,0.0558142105069992,0.00300000000424916
18,29,0.0499713404123927,0.0029999999969732
18,30,0.062216871573025,0.0029999999969732
19,20,0.05510080445316,0.00300000000424916
19,21,0.0832345208967022,0.0029999999969732
19,22,0.0686367165854473,0.00300000000424916
19,23,0.0543266333790059,0.00200000000040745
19,24,0.0681318229128874,0.0029999999969732
19,25,0.0512180217849328,0.00300000000424916
19,26,0.00204835254129998,0.00200000000040745
19,27,0.0537119086477502,0.0029999999969732
19,28,0.0551059996006085,0.00300000000424916
19,29,0.0493178038016061,0.00600000000122236
19,30,0.0615333768621315,0.0029999999969732
20,21,0.0369242807468809,0.00400000000081491
20,22,0.0551247571035314,0.0029999999969732
20,23,0.046932988323676,0.00300000000424916
20,24,0.0184787108688327,0.00400000000081491
20,25,0.050341346634389,0.0029999999969732
20,26,0.0566692449815279,0.0029999999969732
20,27,0.0451476524050097,0.00300000000424916
20,28,0.0168751675770331,0.00300000000424916
20,29,0.0513617465708224,0.0029999999969732
20,30,0.017399532927026,0.00300000000424916
21,22,0.0554626652394911,0.0029999999969732
21,23,0.063281035069752,0.00300000000424916
21,24,0.018819104865109,0.0029999999969732
21,25,0.0644823837753514,0.0029999999969732
21,26,0.0849834400037305,0.00600000000122236
21,27,0.0644597089565801,0.0029999999969732
21,28,0.0318669772455545,0.00400000000081491
21,29,0.061159161596049,0.00300000000424916
21,30,0.0304216090045276,0.0029999999969732
22,23,0.056467665629471,0.00400000000081491
22,24,0.052028925777823,0.0029999999969732
22,25,0.0272865182688342,0.00300000000424916
22,26,0.0703093886354234,0.0029999999969732
22,27,0.0542772404997221,0.00400000000081491
22,28,0.052978861042466,0.00300000000424916
22,29,0.053859983398354,0.0029999999969732
22,30,0.059577556378021,0.0029999999969732
23,24,0.053248286580828,0.00400000000081491
23,25,0.0526961956190195,0.00300000000424916
23,26,0.0558266838888744,0.00200000000040745
23,27,0.0491673674689994,0.0059999999939464
23,28,0.0509473848346264,0.0029999999969732
23,29,0.0503414210021025,0.00300000000424916
23,30,0.0534738164705504,0.0029999999969732
24,25,0.0550341739500003,0.00300000000424916
24,26,0.0698183488659679,0.0029999999969732
24,27,0.0535057626695595,0.0029999999969732
24,28,0.0168813875159613,0.0029999999969732
24,29,0.0537841017614797,0.00300000000424916
24,30,0.0162838309252292,0.00400000000081491
25,26,0.0526691784558773,0.0029999999969732
25,27,0.0494557380786143,0.0029999999969732
25,28,0.0502967467339026,0.00300000000424916
25,29,0.0491075389113179,0.0029999999969732
25,30,0.056852958780486,0.00400000000081491
26,27,0.0552894674326517,0.00200000000040745
26,28,0.0566578488018641,0.0029999999969732
26,29,0.050753410997978,0.00600000000122236
26,30,0.0630311946109476,0.0029999999969732
27,28,0.0544537765025459,0.00300000000424916
27,29,0.0449941548669461,0.0029999999969732
27,30,0.058996953181622,0.00400000000081491
28,29,0.049296576224802,0.0029999999969732
28,30,0.00991613071086676,0.00300000000424916
29,30,0.0566896911279112,0.0029999999969732


"After.Trace.ID","Before.Trace.ID","Difference","Runtime"
1,1,0.132822808687964,0.00400000000081491
1,2,0.119626908459212,0.00400000000081491
1,3,0.127848299407779,0.0029999999969732
1,4,0.136779474562128,0.00400000000081491
1,5,0.169099697139939,0.00300000000424916
1,6,0.128047877315052,0.0029999999969732
1,7,0.133323469812977,0.00400000000081491
1,8,0.128610863688812,0.0029999999969732
1,9,0.143083483231664,0.00400000000081491
1,10,0.108100992050271,0.00300000000424916
1,11,0.169704264413655,0.00699999999778811
1,12,0.120144770285101,0.00400000000081491
1,13,0.134064105948286,0.0029999999969732
1,14,0.12943346037829,0.00300000000424916
1,15,0.124536713312448,0.0029999999969732
1,16,0.124974931236336,0.0029999999969732
1,17,0.169549312427703,0.0029999999969732
1,18,0.169010711568689,0.00300000000424916
1,19,0.168134370475099,0.0029999999969732
1,20,0.13118099642622,0.00400000000081491
1,21,0.104433050280947,0.00300000000424916
1,22,0.120508876789125,0.00399999999353895
1,23,0.130020323719144,0.00300000000424916
1,24,0.11800774353569,0.00400000000081491
1,25,0.139540491202982,0.0029999999969732
1,26,0.170044784049165,0.00300000000424916
1,27,0.129824379522347,0.00400000000081491
1,28,0.131687095690197,0.0059999999939464
1,29,0.132677070975673,0.0029999999969732
1,30,0.130777913451304,0.00300000000424916
2,1,0.120956169328108,0.00300000000424916
2,2,0.109687794381349,0.0029999999969732
2,3,0.117231983415269,0.00400000000081491
2,4,0.125060291830448,0.0029999999969732
2,5,0.155534527062893,0.00300000000424916
2,6,0.114994608082188,0.00400000000081491
2,7,0.120136510610072,0.0029999999969732
2,8,0.116965995661654,0.00400000000081491
2,9,0.131879428419995,0.0029999999969732
2,10,0.100144418675423,0.00400000000081491
2,11,0.156132517885563,0.00300000000424916
2,12,0.107958572907123,0.00399999999353895
2,13,0.122009232293128,0.00300000000424916
2,14,0.117324547162077,0.0029999999969732
2,15,0.113248888240157,0.00400000000081491
2,16,0.114017463987792,0.00600000000122236
2,17,0.155979243632043,0.0029999999969732
2,18,0.155446516439204,0.00400000000081491
2,19,0.154579873607312,0.00300000000424916
2,20,0.118616148299405,0.0029999999969732
2,21,0.0943677988265067,0.00400000000081491
2,22,0.10787065978854,0.0029999999969732
2,23,0.117797285751202,0.00400000000081491
2,24,0.106398346246515,0.00300000000424916
2,25,0.126071376809966,0.00400000000081491
2,26,0.156469369362813,0.0029999999969732
2,27,0.117089615398244,0.0029999999969732
2,28,0.119630807092654,0.00400000000081491
2,29,0.120742522930892,0.00300000000424916
2,30,0.119097571200702,0.00400000000081491
3,1,0.0704396675568847,0.0029999999969732
3,2,0.0287099452333316,0.00300000000424916
3,3,0.0683111888803749,0.00399999999353895
3,4,0.0751928776833767,0.00600000000122236
3,5,0.091705176128094,0.00300000000424916
3,6,0.0604595663692195,0.00300000000424916
3,7,0.0644628525820527,0.0029999999969732
3,8,0.0656947115611412,0.00400000000081491
3,9,0.0779717625754229,0.0029999999969732
3,10,0.0196312914955426,0.00300000000424916
3,11,0.092268331977795,0.00300000000424916
3,12,0.0668017827446065,0.0029999999969732
3,13,0.0676029623148168,0.0029999999969732
3,14,0.0664752756632835,0.00400000000081491
3,15,0.0647800070761071,0.00300000000424916
3,16,0.0708254992224375,0.0029999999969732
3,17,0.092123915996506,0.00300000000424916
3,18,0.0916223552792328,0.0029999999969732
3,19,0.0908076957284509,0.00400000000081491
3,20,0.0660215259172479,0.0029999999969732
3,21,0.0613788274869738,0.00400000000081491
3,22,0.0591440900468669,0.00600000000122236
3,23,0.0648283896796558,0.00400000000081491
3,24,0.0618166230021283,0.0029999999969732
3,25,0.067867842386115,0.00400000000081491
3,26,0.0925858841655014,0.00300000000424916
3,27,0.0608470360994322,0.0029999999969732
3,28,0.0691602926775429,0.0029999999969732
3,29,0.0672242552408992,0.0029999999969732
3,30,0.071261246263487,0.00300000000424916
4,1,0.103848904378335,0.0029999999969732
4,2,0.0915455174157032,0.0029999999969732
4,3,0.0945506671492263,0.00400000000081491
4,4,0.109009877955568,0.0029999999969732
4,5,0.131150409099219,0.00300000000424916
4,6,0.0941292592403636,0.0029999999969732
4,7,0.0990305534831178,0.0029999999969732
4,8,0.0980041090005969,0.0029999999969732
4,9,0.107217527820738,0.00700000000506407
4,10,0.0840155542149924,0.00400000000081491
4,11,0.131733512710314,0.0029999999969732
4,12,0.0882350933565655,0.0029999999969732
4,13,0.101897247215174,0.0029999999969732
4,14,0.0953353974500523,0.00300000000424916
4,15,0.0952820670123658,0.0029999999969732
4,16,0.100435863894059,0.0029999999969732
4,17,0.131584033532621,0.00300000000424916
4,18,0.131064608010706,0.0029999999969732
4,19,0.130219979830151,0.0029999999969732
4,20,0.0958845265084485,0.00400000000081491
4,21,0.0766356902152705,0.00300000000424916
4,22,0.0903965616887443,0.00400000000081491
4,23,0.0947587974611466,0.0029999999969732
4,24,0.0859106862467345,0.00400000000081491
4,25,0.10357649275211,0.0029999999969732
4,26,0.13206207349919,0.00600000000122236
4,27,0.0972891547652135,0.0029999999969732
4,28,0.0973295986158545,0.00400000000081491
4,29,0.100967387573127,0.0029999999969732
4,30,0.0962555027025306,0.00300000000424916
5,1,0.139395275221001,0.00400000000081491
5,2,0.125086663133942,0.0029999999969732
5,3,0.132082243593254,0.00400000000081491
5,4,0.144532208221682,0.0029999999969732
5,5,0.172792088004325,0.00400000000081491
5,6,0.128720533912614,0.00300000000424916
5,7,0.134390297925825,0.00399999999353895
5,8,0.133225808784565,0.00300000000424916
5,9,0.146921783838267,0.0029999999969732
5,10,0.113751239657037,0.00400000000081491
5,11,0.173391817603973,0.00300000000424916
5,12,0.110434364188491,0.00699999999778811
5,13,0.138534629297778,0.00400000000081491
5,14,0.132898062504186,0.0029999999969732
5,15,0.129264404609654,0.00400000000081491
5,16,0.132903025036351,0.00300000000424916
5,17,0.1732381027271,0.0029999999969732
5,18,0.172703816969734,0.0029999999969732
5,19,0.171834547038916,0.00400000000081491
5,20,0.133913897139228,0.00300000000424916
5,21,0.107808230958858,0.00400000000081491
5,22,0.122248087053834,0.0029999999969732
5,23,0.130257812630647,0.00400000000081491
5,24,0.121088068056176,0.0029999999969732
5,25,0.140115646274267,0.00400000000081491
5,26,0.173729625336831,0.00300000000424916
5,27,0.135363638774708,0.0029999999969732
5,28,0.134712022365901,0.00600000000122236
5,29,0.13718894391508,0.00400000000081491
5,30,0.133212431175961,0.00300000000424916
6,1,0.0883798958233359,0.00399999999353895
6,2,0.0806935272430425,0.00300000000424916
6,3,0.0813947638146804,0.00400000000081491
6,4,0.0931955325482757,0.0029999999969732
6,5,0.117815055326991,0.00300000000424916
6,6,0.0802661637312667,0.00300000000424916
6,7,0.0854920996573098,0.00399999999353895
6,8,0.0836640419856518,0.00300000000424916
6,9,0.0950769466162572,0.0029999999969732
6,10,0.0741732345457819,0.00400000000081491
6,11,0.11839032278525,0.00300000000424916
6,12,0.0541154855483336,0.00399999999353895
6,13,0.087538568835887,0.00300000000424916
6,14,0.0805261844070125,0.00699999999778811
6,15,0.0810214122670234,0.00300000000424916
6,16,0.0845886207397444,0.0029999999969732
6,17,0.118242837787156,0.00300000000424916
6,18,0.1177304203319,0.0029999999969732
6,19,0.116897453317201,0.00300000000424916
6,20,0.0840020083057285,0.00300000000424916
6,21,0.0607769365915899,0.00399999999353895
6,22,0.0757829504505845,0.00300000000424916
6,23,0.08293635154244,0.00400000000081491
6,24,0.0717259061801651,0.0029999999969732
6,25,0.0904443528698915,0.00400000000081491
6,26,0.118714535315457,0.00300000000424916
6,27,0.0923216313973909,0.0029999999969732
6,28,0.0813441989492133,0.00300000000424916
6,29,0.0865945952989357,0.00699999999778811
6,30,0.0811390363559976,0.00300000000424916
7,1,0.16946900328598,0.00399999999353895
7,2,0.160579899615537,0.00300000000424916
7,3,0.16034009861696,0.0029999999969732
7,4,0.174246622048664,0.00400000000081491
7,5,0.203799372516662,0.00300000000424916
7,6,0.170396516514261,0.0029999999969732
7,7,0.175185307525906,0.0029999999969732
7,8,0.169029352610233,0.00400000000081491
7,9,0.174806004863574,0.00300000000424916
7,10,0.148395628101105,0.0029999999969732
7,11,0.204377189478287,0.00200000000040745
7,12,0.156779703800683,0.0029999999969732
7,13,0.173664162537622,0.00300000000424916
7,14,0.157177752067725,0.00400000000081491
7,15,0.165572560652039,0.0029999999969732
7,16,0.162449711217771,0.00600000000122236
7,17,0.204229082743587,0.0029999999969732
7,18,0.20371433397486,0.00200000000040745
7,19,0.202876996902193,0.00300000000424916
7,20,0.156399719622067,0.0029999999969732
7,21,0.129596476793692,0.00300000000424916
7,22,0.163885321269273,0.0029999999969732
7,23,0.163652030810947,0.00300000000424916
7,24,0.143475793690248,0.0029999999969732
7,25,0.180251667482722,0.0029999999969732
7,26,0.204702692492107,0.00300000000424916
7,27,0.163036638755775,0.0029999999969732
7,28,0.158670777798073,0.00400000000081491
7,29,0.172519823923679,0.0029999999969732
7,30,0.154122417279986,0.00300000000424916
8,1,0.108488849191105,0.00400000000081491
8,2,0.0970396042334868,0.0059999999939464
8,3,0.111239180937222,0.00400000000081491
8,4,0.112170396242653,0.00300000000424916
8,5,0.141400570640758,0.00300000000424916
8,6,0.101105295187026,0.0029999999969732
8,7,0.105996236571442,0.00400000000081491
8,8,0.103975342448635,0.0029999999969732
8,9,0.124677905640821,0.00400000000081491
8,10,0.0905728627377963,0.00300000000424916
8,11,0.141987992300266,0.0029999999969732
8,12,0.0818375315442442,0.00400000000081491
8,13,0.10870329609153,0.0029999999969732
8,14,0.102722634591134,0.0029999999969732
8,15,0.100550667266733,0.00300000000424916
8,16,0.10228465555933,0.00400000000081491
8,17,0.141837414196478,0.0059999999939464
8,18,0.141314127032121,0.00300000000424916
8,19,0.140463074240661,0.00300000000424916
8,20,0.102494380813472,0.0029999999969732
8,21,0.0826545300991328,0.00400000000081491
8,22,0.0938888755101471,0.00400000000081491
8,23,0.10689198359674,0.0029999999969732
8,24,0.091745474360813,0.00300000000424916
8,25,0.111839306359419,0.00300000000424916
8,26,0.142318949380434,0.0029999999969732
8,27,0.0993886397238247,0.00400000000081491
8,28,0.106030893869052,0.0029999999969732
8,29,0.107519606475315,0.00400000000081491
8,30,0.106237216565202,0.00300000000424916
9,1,0.0463771353580643,0.0029999999969732
9,2,0.0512108379986917,0.0100000000020373
9,3,0.0497952033048628,0.0029999999969732
9,4,0.0496095216828105,0.00300000000424916
9,5,0.0551514739424909,0.0029999999969732
9,6,0.0495971645799516,0.0029999999969732
9,7,0.0499600571979412,0.00300000000424916
9,8,0.0491358197772309,0.0029999999969732
9,9,0.0524340031492405,0.00300000000424916
9,10,0.0627286484347501,0.00400000000081491
9,11,0.0556567633540832,0.0019999999931315
9,12,0.0607040683413457,0.00400000000081491
9,13,0.0463870479181512,0.00300000000424916
9,14,0.0501662366953718,0.0029999999969732
9,15,0.0519231319393369,0.00300000000424916
9,16,0.0535035588741513,0.0029999999969732
9,17,0.0555269995484924,0.0029999999969732
9,18,0.0550773306810311,0.00300000000424916
9,19,0.0543503920616978,0.0029999999969732
9,20,0.0457376224504583,0.00300000000424916
9,21,0.0639529760366831,0.0029999999969732
9,22,0.0529486498558265,0.00400000000081491
9,23,0.0510226535426491,0.00600000000122236
9,24,0.0533313406703863,0.0029999999969732
9,25,0.0500360178760804,0.00400000000081491
9,26,0.0559425423594305,0.00200000000040745
9,27,0.00653738611552259,0.0029999999969732
9,28,0.0543009793179572,0.0029999999969732
9,29,0.0473046708502588,0.00300000000424916
9,30,0.0590943248006863,0.0029999999969732
10,1,0.0645995611806434,0.00300000000424916
10,2,0.0597332499002463,0.00400000000081491
10,3,0.0669257991301526,0.0029999999969732
10,4,0.0688693742790212,0.0029999999969732
10,5,0.0888012964518088,0.00300000000424916
10,6,0.05436940683558,0.00300000000424916
10,7,0.0584364053917153,0.0029999999969732
10,8,0.0624334993410117,0.0029999999969732
10,9,0.0773324133823912,0.00400000000081491
10,10,0.0600466852273326,0.00300000000424916
10,11,0.0893657855391093,0.0029999999969732
10,12,0.058141228600168,0.00400000000081491
10,13,0.064301882219858,0.00600000000122236
10,14,0.0382750672199776,0.00300000000424916
10,15,0.0615840865068045,0.0029999999969732
10,16,0.0642400413897389,0.00300000000424916
10,17,0.0892210260590798,0.0029999999969732
10,18,0.0887182809761476,0.0029999999969732
10,19,0.0879017279450116,0.00300000000424916
10,20,0.0396814330345128,0.00300000000424916
10,21,0.0195689808450653,0.0029999999969732
10,22,0.0512267370057705,0.00400000000081491
10,23,0.0637008229062592,0.0029999999969732
10,24,0.0250942329197411,0.00300000000424916
10,25,0.0625731820258817,0.00400000000081491
10,26,0.089684096788538,0.0029999999969732
10,27,0.062085336525054,0.00300000000424916
10,28,0.0406713792596322,0.00400000000081491
10,29,0.0639300056804707,0.0029999999969732
10,30,0.040351639791921,0.0029999999969732
11,1,0.0770194931481152,0.00300000000424916
11,2,0.0766145670899343,0.00600000000122236
11,3,0.0662605623889406,0.00400000000081491
11,4,0.0812196197040662,0.0029999999969732
11,5,0.102345583677995,0.00300000000424916
11,6,0.078771472453467,0.0029999999969732
11,7,0.0818866287446011,0.00400000000081491
11,8,0.080673506794462,0.00300000000424916
11,9,0.0779610854062627,0.0029999999969732
11,10,0.0717588078630252,0.00400000000081491
11,11,0.10288183073615,0.0029999999969732
11,12,0.0734690269842417,0.00300000000424916
11,13,0.0821737672597566,0.00400000000081491
11,14,0.0512743483429905,0.0029999999969732
11,15,0.0799671263635874,0.0029999999969732
11,16,0.0756001744317353,0.00300000000424916
11,17,0.10274429373256,0.0029999999969732
11,18,0.102266739282121,0.00300000000424916
11,19,0.101491456713253,0.0029999999969732
11,20,0.055111335026515,0.00699999999778811
11,21,0.0255362842717746,0.00400000000081491
11,22,0.0760958259600036,0.00300000000424916
11,23,0.0776730349908795,0.0029999999969732
11,24,0.0396511692224998,0.00400000000081491
11,25,0.0852246369628684,0.0029999999969732
11,26,0.103184308912511,0.00300000000424916
11,27,0.0826701574629415,0.00400000000081491
11,28,0.0503607454999506,0.0029999999969732
11,29,0.0819196991067109,0.0029999999969732
11,30,0.0451256944249227,0.00400000000081491
12,1,0.245085971031923,0.00300000000424916
12,2,0.229952958878782,0.0029999999969732
12,3,0.245319013099813,0.00400000000081491
12,4,0.248474898772391,0.00300000000424916
12,5,0.280179739185092,0.0029999999969732
12,6,0.231730700409123,0.0029999999969732
12,7,0.237298644260299,0.00400000000081491
12,8,0.234462837261531,0.00600000000122236
12,9,0.259609625137445,0.00400000000081491
12,10,0.219198936099761,0.0029999999969732
12,11,0.28076101720912,0.00300000000424916
12,12,0.22648405702252,0.00400000000081491
12,13,0.24099037357423,0.0029999999969732
12,14,0.236027836138914,0.00300000000424916
12,15,0.229463697367425,0.0029999999969732
12,16,0.236403803511391,0.00400000000081491
12,17,0.280612035866923,0.0029999999969732
12,18,0.280094180116162,0.00300000000424916
12,19,0.279251562696139,0.0029999999969732
12,20,0.23694855934168,0.0029999999969732
12,21,0.209965900121053,0.00400000000081491
12,22,0.223948623345447,0.00300000000424916
12,23,0.238695987111706,0.0029999999969732
12,24,0.223492000653174,0.00400000000081491
12,25,0.24386865938553,0.00300000000424916
12,26,0.281088412281902,0.0059999999939464
12,27,0.237346348145576,0.0029999999969732
12,28,0.239101024721455,0.00300000000424916
12,29,0.239235571299466,0.00400000000081491
12,30,0.237799498772508,0.0029999999969732
13,1,0.0894165801190129,0.0029999999969732
13,2,0.0819111145673818,0.00400000000081491
13,3,0.0896777536088484,0.00300000000424916
13,4,0.093994267446854,0.00400000000081491
13,5,0.123978473179898,0.0029999999969732
13,6,0.0891740510909287,0.0029999999969732
13,7,0.0937100112406308,0.00400000000081491
13,8,0.0922857229415491,0.00300000000424916
13,9,0.104289183225356,0.00400000000081491
13,10,0.0753715632981344,0.0029999999969732
13,11,0.124569238613865,0.0029999999969732
13,12,0.0825757569646307,0.00400000000081491
13,13,0.0958561333388804,0.00700000000506407
13,14,0.0902260797225999,0.0029999999969732
13,15,0.089845789493708,0.0029999999969732
13,16,0.0837286341282878,0.00400000000081491
13,17,0.124417799635072,0.00300000000424916
13,18,0.12389154086302,0.0029999999969732
13,19,0.123035724264282,0.00300000000424916
13,20,0.0901499526577158,0.00399999999353895
13,21,0.0721401231042048,0.00300000000424916
13,22,0.0818435283967809,0.00400000000081491
13,23,0.089665007408177,0.0029999999969732
13,24,0.0802499757350827,0.00400000000081491
13,25,0.0989294249017056,0.0029999999969732
13,26,0.124902096687632,0.00300000000424916
13,27,0.0868275906766741,0.00400000000081491
13,28,0.0920744500800982,0.0029999999969732
13,29,0.0950318111166101,0.00700000000506407
13,30,0.0924515102383463,0.0029999999969732
14,1,0.0823007245422029,0.00300000000424916
14,2,0.0538139741095611,0.0029999999969732
14,3,0.0841009343725629,0.00400000000081491
14,4,0.0851922332890584,0.00300000000424916
14,5,0.116245438212803,0.0029999999969732
14,6,0.079100625235805,0.00400000000081491
14,7,0.0833135988100664,0.0029999999969732
14,8,0.0828551468040408,0.00300000000424916
14,9,0.0977627702309534,0.00400000000081491
14,10,0.0414818436261672,0.0029999999969732
14,11,0.116811541288571,0.0029999999969732
14,12,0.083308133645351,0.00400000000081491
14,13,0.0865608717328467,0.00300000000424916
14,14,0.0907973109568282,0.00400000000081491
14,15,0.0803586007545393,0.0059999999939464
14,16,0.0763908096751818,0.00300000000424916
14,17,0.116666395165769,0.0029999999969732
14,18,0.116162160992347,0.0029999999969732
14,19,0.115342688898187,0.00300000000424916
14,20,0.0937906872384026,0.0029999999969732
14,21,0.0777553309959768,0.00400000000081491
14,22,0.0716121590136283,0.0029999999969732
14,23,0.0879443755276777,0.00300000000424916
14,24,0.0847215615918217,0.00400000000081491
14,25,0.0891988803331091,0.0029999999969732
14,26,0.117130637914172,0.0029999999969732
14,27,0.0858275766346152,0.00400000000081491
14,28,0.0927561287739399,0.00300000000424916
14,29,0.0856575118372064,0.0029999999969732
14,30,0.0957654969953885,0.00400000000081491
15,1,0.119739029902618,0.0029999999969732
15,2,0.111296598395307,0.00700000000506407
15,3,0.112854589043131,0.00400000000081491
15,4,0.123832524494352,0.0029999999969732
15,5,0.149639624710847,0.0029999999969732
15,6,0.110934418464652,0.00400000000081491
15,7,0.11588204639753,0.00300000000424916
15,8,0.112013135361807,0.0029999999969732
15,9,0.125753648027222,0.0029999999969732
15,10,0.103916877710739,0.00400000000081491
15,11,0.150221971642187,0.0029999999969732
15,12,0.104190854058285,0.00300000000424916
15,13,0.116833817816928,0.00400000000081491
15,14,0.110587871487789,0.0029999999969732
15,15,0.108494061685167,0.0029999999969732
15,16,0.114466712360085,0.00400000000081491
15,17,0.150072692937671,0.00600000000122236
15,18,0.149553929160432,0.00300000000424916
15,19,0.148710258370248,0.00400000000081491
15,20,0.111771971667533,0.0029999999969732
15,21,0.0891893102775071,0.00400000000081491
15,22,0.105993476577933,0.0029999999969732
15,23,0.113789331944579,0.00400000000081491
15,24,0.100377805971543,0.00300000000424916
15,25,0.121228146825847,0.00399999999353895
15,26,0.150550076279119,0.00300000000424916
15,27,0.112123445097218,0.0029999999969732
15,28,0.113324615543863,0.00400000000081491
15,29,0.115618103623111,0.00300000000424916
15,30,0.11222767065806,0.00399999999353895
16,1,0.111030279144777,0.00300000000424916
16,2,0.0962497481875448,0.00699999999778811
16,3,0.106974958972025,0.00300000000424916
16,4,0.116014431749959,0.00399999999353895
16,5,0.14352679564381,0.00300000000424916
16,6,0.104467389334793,0.0029999999969732
16,7,0.109786698661805,0.00400000000081491
16,8,0.107146606550082,0.00300000000424916
16,9,0.121325116427418,0.0029999999969732
16,10,0.0868884848845217,0.00400000000081491
16,11,0.144120089690725,0.0029999999969732
16,12,0.0978699306136142,0.00400000000081491
16,13,0.111722777134892,0.00300000000424916
16,14,0.109374387574663,0.00400000000081491
16,15,0.103835618550101,0.0029999999969732
16,16,0.105432515072685,0.0029999999969732
16,17,0.143968012111808,0.00700000000506407
16,18,0.143439482675189,0.0029999999969732
16,19,0.142579798778923,0.0029999999969732
16,20,0.109771520688875,0.00400000000081491
16,21,0.0892404908131244,0.00300000000424916
16,22,0.0982883522739383,0.00400000000081491
16,23,0.104558440835625,0.0029999999969732
16,24,0.0992138248110872,0.00400000000081491
16,25,0.115101026828191,0.0029999999969732
16,26,0.144454328454543,0.00300000000424916
16,27,0.106440630498948,0.00400000000081491
16,28,0.111415194915366,0.0029999999969732
16,29,0.11059487872038,0.00300000000424916
16,30,0.111232041396478,0.00399999999353895
17,1,0.0732634641168717,0.00300000000424916
17,2,0.0611774716950635,0.00699999999778811
17,3,0.0695195463236358,0.00400000000081491
17,4,0.0760650694307431,0.0029999999969732
17,5,0.101274198163363,0.00300000000424916
17,6,0.0666882763549742,0.00300000000424916
17,7,0.0709563739938892,0.00400000000081491
17,8,0.0657084362453154,0.0029999999969732
17,9,0.0811843779142413,0.0029999999969732
17,10,0.0581206606492342,0.00400000000081491
17,11,0.101857744081541,0.00300000000424916
17,12,0.0448455276902935,0.00400000000081491
17,13,0.0695388781600593,0.0029999999969732
17,14,0.073497908240606,0.00400000000081491
17,15,0.0632149536974759,0.00600000000122236
17,16,0.0699619274198188,0.00300000000424916
17,17,0.101708135038895,0.0029999999969732
17,18,0.101188346731625,0.00300000000424916
17,19,0.100343430868759,0.0029999999969732
17,20,0.0768413419181807,0.00300000000424916
17,21,0.0630861221514479,0.00400000000081491
17,22,0.0630151518462675,0.00400000000081491
17,23,0.0753348955230634,0.0029999999969732
17,24,0.0687590745706759,0.00400000000081491
17,25,0.0763167802261255,0.0029999999969732
17,26,0.102186629545342,0.00300000000424916
17,27,0.0689393930852929,0.00400000000081491
17,28,0.0767838117706328,0.00400000000081491
17,29,0.0686016356368647,0.0059999999939464
17,30,0.0795266031950089,0.00400000000081491
18,1,0.119127662020528,0.00300000000424916
18,2,0.0955216860626334,0.00400000000081491
18,3,0.111242970085592,0.0029999999969732
18,4,0.123198762554002,0.0029999999969732
18,5,0.153282302767064,0.00300000000424916
18,6,0.118577628146298,0.00300000000424916
18,7,0.123163019641793,0.0029999999969732
18,8,0.117697427895902,0.00400000000081491
18,9,0.125681719883574,0.0029999999969732
18,10,0.0804976227300099,0.00300000000424916
18,11,0.153875116854326,0.00300000000424916
18,12,0.111616388569023,0.00600000000122236
18,13,0.122216756968317,0.00399999999353895
18,14,0.116045569961731,0.00300000000424916
18,15,0.114407154559782,0.0029999999969732
18,16,0.112501573822457,0.00400000000081491
18,17,0.153723164767439,0.00300000000424916
18,18,0.15319505823059,0.0029999999969732
18,19,0.152336017201011,0.0029999999969732
18,20,0.116857438202012,0.00300000000424916
18,21,0.0937020851053417,0.00300000000424916
18,22,0.112204379342583,0.0029999999969732
18,23,0.117200487783558,0.0029999999969732
18,24,0.105454505908638,0.0029999999969732
18,25,0.12860975396822,0.00400000000081491
18,26,0.154209073925718,0.00600000000122236
18,27,0.11364625155705,0.00300000000424916
18,28,0.11830859507788,0.00399999999353895
18,29,0.1211104352984,0.00300000000424916
18,30,0.117010222186648,0.00400000000081491
19,1,0.109584822251999,0.0029999999969732
19,2,0.0995823763228927,0.00400000000081491
19,3,0.109851689470368,0.0029999999969732
19,4,0.113793802308338,0.00300000000424916
19,5,0.145087882366343,0.00400000000081491
19,6,0.103587430462478,0.0029999999969732
19,7,0.108618943141648,0.00400000000081491
19,8,0.108697145232171,0.0029999999969732
19,9,0.124793381438152,0.00600000000122236
19,10,0.0908376186656722,0.00400000000081491
19,11,0.14568778173361,0.00300000000424916
19,12,0.0973476954002278,0.00400000000081491
19,13,0.113297509946969,0.0029999999969732
19,14,0.104013461286082,0.00400000000081491
19,15,0.105360024738594,0.0029999999969732
19,16,0.10266829319939,0.00300000000424916
19,17,0.145534017174883,0.0029999999969732
19,18,0.144999591849726,0.0029999999969732
19,19,0.144130207155214,0.0029999999969732
19,20,0.104958667401322,0.00300000000424916
19,21,0.0802359580485687,0.00400000000081491
19,22,0.0953889406930463,0.00699999999778811
19,23,0.1082844769548,0.0029999999969732
19,24,0.0920591266990107,0.00400000000081491
19,25,0.114618998880834,0.00300000000424916
19,26,0.146025713397816,0.0029999999969732
19,27,0.107901763089854,0.00400000000081491
19,28,0.105929151800968,0.0029999999969732
19,29,0.112170164369109,0.00300000000424916
19,30,0.105366719358502,0.00300000000424916
20,1,0.0836688527279095,0.0029999999969732
20,2,0.0719239506354115,0.00400000000081491
20,3,0.0808037282973503,0.0029999999969732
20,4,0.0888292699758676,0.00600000000122236
20,5,0.106303931397602,0.00300000000424916
20,6,0.0695202444306623,0.0029999999969732
20,7,0.0737461606739145,0.00400000000081491
20,8,0.0807744522020753,0.0029999999969732
20,9,0.0914211406473941,0.00300000000424916
20,10,0.0699114702600779,0.00400000000081491
20,11,0.106855745399158,0.0029999999969732
20,12,0.0717498358279685,0.00400000000081491
20,13,0.0829799036931286,0.0029999999969732
20,14,0.081393505362648,0.00400000000081491
20,15,0.0795061675986855,0.00300000000424916
20,16,0.0829504811566462,0.0029999999969732
20,17,0.106714239033247,0.00300000000424916
20,18,0.106222777481414,0.00399999999353895
20,19,0.105424496559679,0.00300000000424916
20,20,0.0814385904681798,0.0029999999969732
20,21,0.0728229779649886,0.00400000000081491
20,22,0.0666551094311819,0.00699999999778811
20,23,0.0761674931210516,0.00300000000424916
20,24,0.0756590844182915,0.00400000000081491
20,25,0.0774607185124609,0.0029999999969732
20,26,0.107166897431714,0.00300000000424916
20,27,0.079493446191374,0.0029999999969732
20,28,0.0829442992248946,0.00300000000424916
20,29,0.0825233286808553,0.00400000000081491
20,30,0.0845962558398269,0.0029999999969732
21,1,0.226491051929406,0.00400000000081491
21,2,0.206679039766313,0.0029999999969732
21,3,0.224538886498521,0.00300000000424916
21,4,0.229891981726798,0.00300000000424916
21,5,0.263575532818028,0.0029999999969732
21,6,0.220521447646361,0.00300000000424916
21,7,0.226193419976893,0.00399999999353895
21,8,0.217926784667852,0.00300000000424916
21,9,0.239473885556612,0.0029999999969732
21,10,0.19358372088621,0.00700000000506407
21,11,0.264164098682527,0.00400000000081491
21,12,0.212712997290974,0.0029999999969732
21,13,0.224435221873636,0.0029999999969732
21,14,0.224470707736624,0.00400000000081491
21,15,0.212945091357427,0.00300000000424916
21,16,0.217282158874249,0.0029999999969732
21,17,0.264013251143961,0.0029999999969732
21,18,0.263488899558939,0.00400000000081491
21,19,0.262635682778304,0.00300000000424916
21,20,0.225683232935029,0.0029999999969732
21,21,0.19907248987351,0.00400000000081491
21,22,0.212661356059871,0.00300000000424916
21,23,0.221684595405582,0.0029999999969732
21,24,0.212723475082881,0.00400000000081491
21,25,0.232719644453057,0.0029999999969732
21,26,0.264495590774817,0.00300000000424916
21,27,0.220391125445996,0.00400000000081491
21,28,0.227381441256964,0.00699999999778811
21,29,0.222694219268651,0.0029999999969732
21,30,0.226482709071477,0.00300000000424916
22,1,0.0952526494897516,0.00300000000424916
22,2,0.0864425262961172,0.0029999999969732
22,3,0.0911531749418672,0.00300000000424916
22,4,0.0993492905755824,0.0029999999969732
22,5,0.130066447613963,0.00300000000424916
22,6,0.0906954628967221,0.00400000000081491
22,7,0.0954429916957455,0.0029999999969732
22,8,0.0948615022061843,0.00400000000081491
22,9,0.106087468945032,0.0029999999969732
22,10,0.0780582759232659,0.00400000000081491
22,11,0.13066612027993,0.00300000000424916
22,12,0.0858846727438319,0.00399999999353895
22,13,0.0991140986930609,0.00300000000424916
22,14,0.0935776099639854,0.0029999999969732
22,15,0.0918515009585583,0.00700000000506407
22,16,0.088944767807445,0.0029999999969732
22,17,0.130512409087725,0.00400000000081491
22,18,0.129978194696049,0.0029999999969732
22,19,0.129109239652548,0.00300000000424916
22,20,0.0956517433100113,0.0029999999969732
22,21,0.0724105950357649,0.0029999999969732
22,22,0.0833769242552757,0.00400000000081491
22,23,0.0953752010650761,0.0029999999969732
22,24,0.0836376941087262,0.00300000000424916
22,25,0.101321303927583,0.00300000000424916
22,26,0.131003945978451,0.0029999999969732
22,27,0.0951403909358854,0.00300000000424916
22,28,0.0954002573156371,0.0029999999969732
22,29,0.0980891462206221,0.00300000000424916
22,30,0.0955967688797286,0.00400000000081491
23,1,0.0536799230770591,0.0029999999969732
23,2,0.0569299395222763,0.00699999999778811
23,3,0.0557503060058383,0.00300000000424916
23,4,0.0576055523038743,0.00300000000424916
23,5,0.0697373989273064,0.0029999999969732
23,6,0.0517031803063938,0.00300000000424916
23,7,0.0538217459799312,0.00399999999353895
23,8,0.0569647497184129,0.00300000000424916
23,9,0.0627344467417248,0.0029999999969732
23,10,0.0617351811731223,0.00400000000081491
23,11,0.0702552607471023,0.00300000000424916
23,12,0.0564534480668583,0.0029999999969732
23,13,0.0559763484379001,0.0029999999969732
23,14,0.0165387271579824,0.0029999999969732
23,15,0.0583856978108595,0.00300000000424916
23,16,0.0576464815252148,0.0029999999969732
23,17,0.0701223515303916,0.00300000000424916
23,18,0.0696613361327231,0.0029999999969732
23,19,0.068914512141488,0.0029999999969732
23,20,0.0204181691595472,0.00400000000081491
23,21,0.0199723974907035,0.00700000000506407
23,22,0.0523298777392703,0.0029999999969732
23,23,0.0562119959134017,0.00400000000081491
23,24,0.00598145040827301,0.0029999999969732
23,25,0.0554158825442123,0.00300000000424916
23,26,0.070547769856923,0.0029999999969732
23,27,0.0577163385956202,0.0029999999969732
23,28,0.0157305658527915,0.0029999999969732
23,29,0.056406386159544,0.00300000000424916
23,30,0.0153173913251609,0.00400000000081491
24,1,0.100883833608802,0.0029999999969732
24,2,0.0888897816566076,0.00400000000081491
24,3,0.0935285761693089,0.0029999999969732
24,4,0.105409898788008,0.00400000000081491
24,5,0.128903785625468,0.00300000000424916
24,6,0.0897810239228473,0.00400000000081491
24,7,0.0949152514614246,0.0029999999969732
24,8,0.0921598236390076,0.00699999999778811
24,9,0.106145679539789,0.00300000000424916
24,10,0.0820680793466052,0.00400000000081491
24,11,0.129495219014219,0.0029999999969732
24,12,0.0645376671048958,0.00400000000081491
24,13,0.0966532094407001,0.0029999999969732
24,14,0.09143472173194,0.00400000000081491
24,15,0.0889644620818424,0.00300000000424916
24,16,0.096933540428191,0.00400000000081491
24,17,0.129343611522187,0.0029999999969732
24,18,0.128816752596038,0.0029999999969732
24,19,0.127959910562083,0.00300000000424916
24,20,0.0928039782604307,0.00400000000081491
24,21,0.0721337381950705,0.00400000000081491
24,22,0.0858022058715662,0.0029999999969732
24,23,0.0934179045644375,0.0029999999969732
24,24,0.0820477551262689,0.00600000000122236
24,25,0.100023375929948,0.00300000000424916
24,26,0.129828440994406,0.0029999999969732
24,27,0.0935315796830764,0.0029999999969732
24,28,0.094137354597881,0.00400000000081491
24,29,0.095542184360399,0.0029999999969732
24,30,0.0936467093170131,0.00300000000424916
25,1,0.0892531580490888,0.00300000000424916
25,2,0.0774649139745138,0.0029999999969732
25,3,0.0852653062274592,0.00300000000424916
25,4,0.0941035113675775,0.0029999999969732
25,5,0.121320483424102,0.00300000000424916
25,6,0.0823303271514023,0.00400000000081491
25,7,0.0867942961187048,0.0029999999969732
25,8,0.090256191035991,0.00400000000081491
25,9,0.09936048958737,0.0029999999969732
25,10,0.0699026880947571,0.00700000000506407
25,11,0.121921009818299,0.0029999999969732
25,12,0.0787457349072907,0.00400000000081491
25,13,0.0936981636970765,0.0029999999969732
25,14,0.0858877309373399,0.00400000000081491
25,15,0.0879260461662133,0.00300000000424916
25,16,0.0846419391881718,0.0029999999969732
25,17,0.121767077494099,0.00400000000081491
25,18,0.121232106923533,0.0029999999969732
25,19,0.120361964179429,0.00300000000424916
25,20,0.0860543436803474,0.0029999999969732
25,21,0.0672543781673055,0.0029999999969732
25,22,0.0757623072131941,0.00400000000081491
25,23,0.0869453514066536,0.0029999999969732
25,24,0.0758688255515855,0.00300000000424916
25,25,0.0920490912680953,0.00400000000081491
25,26,0.122259326985812,0.0029999999969732
25,27,0.0848449765626076,0.00699999999778811
25,28,0.0878207260419003,0.00300000000424916
25,29,0.0929234040744691,0.00300000000424916
25,30,0.0878364716251487,0.0029999999969732
26,1,0.0959590556850212,0.00400000000081491
26,2,0.0843516058396061,0.0029999999969732
26,3,0.0944450535789187,0.00400000000081491
26,4,0.0994461347702554,0.00300000000424916
26,5,0.127379532550174,0.0029999999969732
26,6,0.0889107954505341,0.00400000000081491
26,7,0.0934549127534484,0.0029999999969732
26,8,0.0914359112378785,0.00300000000424916
26,9,0.107454038856893,0.00300000000424916
26,10,0.0779806926950801,0.00400000000081491
26,11,0.127972043931889,0.0029999999969732
26,12,0.0854145469223063,0.0029999999969732
26,13,0.0957742572546175,0.00700000000506407
26,14,0.0907851495019109,0.00400000000081491
26,15,0.0883708095307514,0.0029999999969732
26,16,0.0906299502162023,0.0029999999969732
26,17,0.127820160537761,0.00300000000424916
26,18,0.127292340507751,0.00400000000081491
26,19,0.126433927815906,0.0029999999969732
26,20,0.0918624933850009,0.00300000000424916
26,21,0.0724632646991046,0.00400000000081491
26,22,0.0828096647696056,0.0029999999969732
26,23,0.0955170224879801,0.00400000000081491
26,24,0.0813964271667225,0.0029999999969732
26,25,0.0991388213801726,0.00400000000081491
26,26,0.128305871280178,0.00300000000424916
26,27,0.0885794375928162,0.0029999999969732
26,28,0.0939470582906817,0.00400000000081491
26,29,0.0947123206329875,0.00600000000122236
26,30,0.0944590722285067,0.00400000000081491
27,1,0.201243646954228,0.0029999999969732
27,2,0.179063436609825,0.00300000000424916
27,3,0.195580674595308,0.0029999999969732
27,4,0.205645901668432,0.00400000000081491
27,5,0.236258960261547,0.00300000000424916
27,6,0.192155312261035,0.0029999999969732
27,7,0.198045875402196,0.00400000000081491
27,8,0.192026136879506,0.0029999999969732
27,9,0.210385865604651,0.00300000000424916
27,10,0.165063225419638,0.00400000000081491
27,11,0.236851133835282,0.0029999999969732
27,12,0.184932682605921,0.00400000000081491
27,13,0.19827448674661,0.0029999999969732
27,14,0.197041501958263,0.00300000000424916
27,15,0.187260617413956,0.00400000000081491
27,16,0.193207553500099,0.0059999999939464
27,17,0.2366993604669,0.00300000000424916
27,18,0.236171797028775,0.00400000000081491
27,19,0.235313375607599,0.0029999999969732
27,20,0.198250377263927,0.00300000000424916
27,21,0.171406241848772,0.00399999999353895
27,22,0.185293211862768,0.00300000000424916
27,23,0.192386438248252,0.0029999999969732
27,24,0.185268687160329,0.00400000000081491
27,25,0.204148198681871,0.00300000000424916
27,26,0.237184663297081,0.0029999999969732
27,27,0.195866668127109,0.00400000000081491
27,28,0.199411400970739,0.0029999999969732
27,29,0.196622095308207,0.00300000000424916
27,30,0.198028237019479,0.00300000000424916
28,1,0.0575522684188194,0.0029999999969732
28,2,0.0549103153946261,0.00699999999778811
28,3,0.0513444004633141,0.00400000000081491
28,4,0.0625906990843954,0.00300000000424916
28,5,0.0691713140107559,0.0029999999969732
28,6,0.0543034377230903,0.0029999999969732
28,7,0.0572945682710424,0.00400000000081491
28,8,0.0521606995027897,0.00300000000424916
28,9,0.0574427140568489,0.0029999999969732
28,10,0.0592293968509894,0.00400000000081491
28,11,0.0697081426875794,0.00300000000424916
28,12,0.0554887396728456,0.0029999999969732
28,13,0.0516827319313926,0.0029999999969732
28,14,0.0203589700974413,0.0029999999969732
28,15,0.0532682217384804,0.00300000000424916
28,16,0.0625595956119161,0.0029999999969732
28,17,0.0695703989459144,0.0029999999969732
28,18,0.0690924357150819,0.00300000000424916
28,19,0.0683175535028536,0.00600000000122236
28,20,0.0189519650870161,0.00400000000081491
28,21,0.0241379280060129,0.00400000000081491
28,22,0.0579120310436172,0.0029999999969732
28,23,0.0497772313994717,0.0029999999969732
28,24,0.0133940811567029,0.00400000000081491
28,25,0.0581579179184585,0.00300000000424916
28,26,0.0700112119023821,0.0029999999969732
28,27,0.0495562810443909,0.00400000000081491
28,28,0.0233379021481263,0.0029999999969732
28,29,0.0519584155691679,0.00300000000424916
28,30,0.0205500570384999,0.00400000000081491
29,1,0.173527136219279,0.0029999999969732
29,2,0.162113601495776,0.00300000000424916
29,3,0.166133542094577,0.00399999999353895
29,4,0.176582657295626,0.00300000000424916
29,5,0.208794674825982,0.0029999999969732
29,6,0.166390900158385,0.00700000000506407
29,7,0.17158649963223,0.0029999999969732
29,8,0.165316493413263,0.0029999999969732
29,9,0.180452161214909,0.00400000000081491
29,10,0.149852920444888,0.00300000000424916
29,11,0.20938434965372,0.0029999999969732
29,12,0.158494597793166,0.00400000000081491
29,13,0.171383731773588,0.0029999999969732
29,14,0.15980363265163,0.00300000000424916
29,15,0.160712214816953,0.00300000000424916
29,16,0.165159984339092,0.0029999999969732
29,17,0.209233211586611,0.00300000000424916
29,18,0.208707883948639,0.0029999999969732
29,19,0.207853192977787,0.0029999999969732
29,20,0.16316402902837,0.00300000000424916
29,21,0.130626222652528,0.00400000000081491
29,22,0.159449571117888,0.0059999999939464
29,23,0.170688548752032,0.0029999999969732
29,24,0.147366684765955,0.00300000000424916
29,25,0.178065402684973,0.00400000000081491
29,26,0.209716495321485,0.0029999999969732
29,27,0.171333114116461,0.00300000000424916
29,28,0.162062279735991,0.00399999999353895
29,29,0.169786445698713,0.00300000000424916
29,30,0.159328380155445,0.0029999999969732
30,1,0.0711738220739847,0.00400000000081491
30,2,0.0613685311486878,0.00300000000424916
30,3,0.0667782272583422,0.00399999999353895
30,4,0.0753409605164846,0.00300000000424916
30,5,0.0971978930390806,0.00400000000081491
30,6,0.0655986790307696,0.0029999999969732
30,7,0.0701399448141926,0.00699999999778811
30,8,0.0654213976173541,0.00400000000081491
30,9,0.0784686126070298,0.00300000000424916
30,10,0.0588401336027901,0.00400000000081491
30,11,0.0977710230719551,0.0029999999969732
30,12,0.070099123487589,0.00400000000081491
30,13,0.0684627834907752,0.00400000000081491
30,14,0.0670911900138135,0.0029999999969732
30,15,0.0635893396024158,0.00400000000081491
30,16,0.0693892561619207,0.00300000000424916
30,17,0.0976240682439857,0.0029999999969732
30,18,0.0971135884376244,0.00400000000081491
30,19,0.0962840975790049,0.0029999999969732
30,20,0.0697735349762635,0.00400000000081491
30,21,0.0565096233588594,0.00600000000122236
30,22,0.0629932201077233,0.00300000000424916
30,23,0.0686943940215358,0.00400000000081491
30,24,0.0615971524464206,0.0029999999969732
30,25,0.0744829790567273,0.0029999999969732
30,26,0.098094112574374,0.0029999999969732
30,27,0.0699720675376996,0.00400000000081491
30,28,0.0692019523157199,0.00400000000081491
30,29,0.0677508515006281,0.00300000000424916
30,30,0.0709236821372604,0.00400000000081491
