App - Shortyz
Scenario - download_puzzles
Length - 0sec
Measure - FourierDistance
Before Version - 4.0.0_b
After Version - 4.0.2_b_m


"Before.Trace.ID1","Before.Trace.ID2","Difference","Runtime"
1,2,437657.364861617,0.00499999999999989
1,3,470381.327253609,0.00100000000000033
1,4,413094.723908214,0
1,5,469732.323222779,0.000999999999999446
1,6,463623.91927924,0
1,7,415804.053446217,0
1,8,474432.399417616,0.00100000000000033
1,9,421066.541441025,0
1,10,419735.965415714,0.000999999999999446
1,11,405789.010505136,0
1,12,454785.501429552,0
1,13,418356.88089875,0.00100000000000033
1,14,456788.547255624,0
1,15,444647.3285753,0
1,16,464185.588290234,0.00199999999999978
1,17,426279.849985,0.00100000000000033
1,18,501955.68579753,0
1,19,439159.399358018,0
1,20,520254.382857831,0.00100000000000033
1,21,420876.17239923,0
1,22,436627.494283072,0
1,23,445545.511960561,0
1,24,464480.937037018,0
1,25,430345.606689482,0.00100000000000033
1,26,423910.207834327,0
1,27,444894.951400425,0
1,28,454790.025597725,0.000999999999999446
1,29,420722.537960246,0
1,30,419615.659485581,0
2,3,61910.6355075386,0
2,4,37166.057180653,0
2,5,81326.3782008232,0.00100000000000033
2,6,65554.2573875567,0
2,7,54277.0232813298,0
2,8,57153.5921676531,0.000999999999999446
2,9,35273.5937825451,0
2,10,54120.1012573103,0.00100000000000033
2,11,44015.703706571,0
2,12,92373.0861753686,0
2,13,36360.2177395946,0.00100000000000033
2,14,67585.8243359308,0
2,15,35770.9885461902,0
2,16,60672.8491633442,0.000999999999999446
2,17,34802.556229306,0
2,18,77466.7170146255,0.00100000000000033
2,19,41896.0226183225,0
2,20,99642.9790334303,0
2,21,33327.0336569915,0.000999999999999446
2,22,101560.324393523,0
2,23,44494.5009517395,0
2,24,45999.6183712599,0.00200000000000067
2,25,38869.1667499962,0
2,26,114917.803472598,0
2,27,65727.4704456654,0
2,28,59073.0867794493,0.00100000000000033
2,29,65908.4617784673,0
2,30,48364.0615375972,0
3,4,73510.1378354082,0.00100000000000033
3,5,83572.5902980242,0
3,6,66294.4553257051,0.000999999999999446
3,7,77062.5969224181,0
3,8,58498.8893773872,0
3,9,71984.9554835332,0.00100000000000033
3,10,82436.3224240334,0
3,11,83675.8888184416,0
3,12,117225.626632612,0.000999999999999446
3,13,70399.8486103321,0
3,14,81297.6733817528,0.00100000000000033
3,15,60899.118165712,0
3,16,74662.7573579354,0
3,17,79336.8230124442,0.00100000000000033
3,18,55323.4415825632,0
3,19,71083.0830432698,0
3,20,90456.117296477,0
3,21,71480.283567592,0
3,22,102164.547580935,0.00100000000000033
3,23,69613.1474377165,0
3,24,52849.6818111279,0
3,25,75861.4619692054,0.00100000000000033
3,26,141259.687159403,0
3,27,87965.4129546903,0
3,28,76438.3888556477,0
3,29,98670.7606283563,0
3,30,67443.0494722114,0.00100000000000033
4,5,88812.2657402631,0
4,6,82133.001584607,0.00199999999999978
4,7,35869.2010270349,0
4,8,73122.6637294692,0
4,9,22575.5810394738,0.00100000000000033
4,10,46211.1986350212,0
4,11,24753.9684956847,0.000999999999999446
4,12,100488.693698147,0
4,13,24270.8293119829,0
4,14,74413.5033865407,0.00100000000000033
4,15,45100.8528781938,0
4,16,71481.1892128641,0
4,17,37028.8083277627,0
4,18,94711.4090512434,0
4,19,50074.0010436918,0.000999999999999446
4,20,119593.397820379,0
4,21,20506.003451167,0
4,22,104021.514370972,0.00100000000000033
4,23,46541.0925196475,0
4,24,59983.1664401567,0.000999999999999446
4,25,45693.3074708932,0
4,26,122015.607570242,0
4,27,70726.6006848823,0
4,28,66809.689167559,0
4,29,55439.6927280921,0.00100000000000033
4,30,41467.1088911059,0
5,6,82418.0679063157,0
5,7,70479.2016687748,0.000999999999999446
5,8,88898.3919448894,0
5,9,83316.9065293619,0.00100000000000033
5,10,101470.234756463,0
5,11,99894.2288377259,0
5,12,136931.413202027,0.00100000000000033
5,13,81840.6560823427,0
5,14,113323.440773193,0
5,15,62176.7806647487,0
5,16,109245.2396026,0.00400000000000045
5,17,68571.8187572212,0.000999999999999446
5,18,94801.4696091117,0
5,19,86246.4489940142,0.00100000000000033
5,20,82470.0520098209,0
5,21,79201.7817254863,0
5,22,116045.167713777,0.00100000000000033
5,23,58458.0952376923,0
5,24,80415.7878259257,0.000999999999999446
5,25,86205.232843662,0
5,26,130146.187525783,0
5,27,106640.530947246,0.00100000000000033
5,28,41586.8763303296,0
5,29,107331.985268006,0
5,30,91899.9215248247,0
6,7,80952.2821811435,0
6,8,69845.4321471163,0.00100000000000033
6,9,79445.1433204667,0
6,10,89059.7565364579,0
6,11,89591.2538532253,0.00100000000000033
6,12,97148.5146150636,0
6,13,74478.6656262452,0
6,14,62522.0305663198,0
6,15,62736.3273974406,0
6,16,88442.7320709281,0.00100000000000033
6,17,75498.5508778393,0
6,18,72609.6257237356,0
6,19,55548.0892130717,0.00100000000000033
6,20,77565.8438331518,0
6,21,78775.1255002067,0
6,22,96942.8553227225,0
6,23,74010.7428950177,0
6,24,70001.495323659,0.00100000000000033
6,25,69601.4354633015,0
6,26,106484.02298266,0.000999999999999446
6,27,81702.5479698305,0
6,28,82635.8779030711,0
6,29,87726.8432741251,0.00100000000000033
6,30,61834.4749717444,0
7,8,87084.0532758963,0.00100000000000033
7,9,44009.4519539576,0.000999999999999446
7,10,66984.8478252472,0
7,11,52539.4317857379,0
7,12,120687.213489469,0.000999999999999446
7,13,38140.6774425245,0
7,14,88891.1585518993,0
7,15,45126.6499440875,0.00100000000000033
7,16,90421.7278930901,0
7,17,41725.2763227995,0.00100000000000033
7,18,101081.921051394,0
7,19,65108.8366236412,0
7,20,117776.046025188,0.000999999999999446
7,21,38763.9969682051,0
7,22,100944.214412373,0
7,23,43108.316659321,0
7,24,73767.0185960747,0
7,25,64306.1161723632,0.00100000000000033
7,26,118678.124957155,0
7,27,88041.6000563661,0
7,28,61868.9336942121,0.000999999999999446
7,29,70018.3308710511,0
7,30,50755.4996159312,0
8,9,66727.7151357675,0
8,10,69563.5725660076,0
8,11,75378.2803179787,0.000999999999999446
8,12,78069.3987330984,0
8,13,65398.2823001895,0
8,14,70077.5289864932,0.00100000000000033
8,15,58742.1839515757,0
8,16,55931.0658483834,0.00100000000000033
8,17,70837.0634333694,0
8,18,55169.6142510455,0
8,19,46580.3675344759,0.000999999999999446
8,20,74620.1372759971,0
8,21,64607.7675072388,0
8,22,121833.333499107,0.00100000000000033
8,23,70011.4051808884,0
8,24,27782.8480745674,0.00100000000000033
8,25,56964.2034685406,0
8,26,144687.281297454,0
8,27,55949.5099328423,0.00199999999999978
8,28,70503.7102334408,0
8,29,80442.0739410093,0.000999999999999446
8,30,73074.1696959577,0
9,10,37514.7540793446,0.00100000000000033
9,11,28885.148241091,0
9,12,95966.9422097349,0
9,13,29277.6948354963,0.00100000000000033
9,14,73325.0688494705,0
9,15,42811.2146563917,0
9,16,68775.8832768642,0.000999999999999446
9,17,32585.1142397667,0
9,18,94014.1136001055,0.00100000000000033
9,19,43964.778686689,0
9,20,111502.538557109,0
9,21,19054.4678391052,0.00100000000000033
9,22,104397.840928398,0
9,23,46676.8073926507,0
9,24,56137.5017556456,0.000999999999999446
9,25,34801.2796977982,0
9,26,124230.265550341,0.00100000000000033
9,27,65249.6080812762,0
9,28,58348.1601717705,0
9,29,57165.1074757015,0.000999999999999446
9,30,41401.3186320455,0
10,11,39937.261981228,0
10,12,81338.1960191945,0
10,13,48064.7770960264,0
10,14,77930.5392378753,0.00100000000000033
10,15,66811.7878322409,0
10,16,84832.5379368935,0
10,17,52721.8506306894,0.000999999999999446
10,18,103796.695859832,0
10,19,47312.8310264786,0
10,20,120479.39089876,0
10,21,39942.6486600203,0
10,22,124257.573169591,0.00100000000000033
10,23,74783.8550574955,0
10,24,64150.9951572421,0
10,25,47249.7957760094,0.00199999999999978
10,26,133072.457989587,0
10,27,59352.7939026299,0
10,28,76979.8878562257,0
10,29,56219.7793916841,0.00100000000000033
10,30,55058.5960069546,0
11,12,92160.7680038458,0
11,13,30813.4808148149,0.00100000000000033
11,14,78473.4876663112,0
11,15,56866.5635682862,0.000999999999999446
11,16,79051.2816282486,0
11,17,43581.921331565,0
11,18,104724.120762571,0.00100000000000033
11,19,49762.2766851307,0
11,20,128664.354293973,0
11,21,26941.473393012,0.00100000000000033
11,22,115239.436162481,0
11,23,61433.3647398376,0.000999999999999446
11,24,65436.6496845823,0
11,25,42960.9084322989,0
11,26,122514.993113957,0.00100000000000033
11,27,61500.3686181004,0
11,28,75248.5872717269,0
11,29,53932.780889937,0.000999999999999446
11,30,49793.3954266831,0
12,13,93573.8976010218,0.00100000000000033
12,14,75444.5308687093,0
12,15,101617.413602956,0
12,16,100316.750912427,0.00100000000000033
12,17,98001.3322944704,0
12,18,109427.375804477,0
12,19,63407.8861951572,0.000999999999999446
12,20,119522.233258764,0
12,21,95632.7139803776,0.00100000000000033
12,22,153963.34847423,0
12,23,113185.661813263,0
12,24,84829.4417447096,0.00100000000000033
12,25,77188.3112864094,0
12,26,136988.116439397,0
12,27,59615.7162904931,0.00100000000000033
12,28,118229.981933918,0.000999999999999446
12,29,80129.1439865499,0
12,30,96284.4732217777,0
13,14,76085.1402952448,0.00100000000000033
13,15,37665.0092676532,0
13,16,71967.3291563661,0
13,17,32802.2155124305,0.00100000000000033
13,18,91535.0202174662,0
13,19,40132.2755215911,0.000999999999999446
13,20,112445.429692586,0
13,21,20604.5218173452,0
13,22,99052.3814575296,0.00100000000000033
13,23,47179.5059964784,0
13,24,51939.1882575669,0
13,25,37735.9760018168,0.00100000000000033
13,26,117576.01426753,0
13,27,64078.0937848079,0.000999999999999446
13,28,62242.4632643474,0
13,29,58165.0698516976,0
13,30,39918.3174737049,0.00100000000000033
14,15,73919.6924693118,0
14,16,72710.7571436903,0
14,17,80240.5514532215,0
14,18,74026.3128264398,0
14,19,54848.002346289,0.00100000000000033
14,20,100180.7789351,0
14,21,76572.3573969775,0
14,22,123796.856741558,0.00100000000000033
14,23,80000.1861991144,0
14,24,72287.7096550649,0
14,25,72257.8679049031,0
14,26,126747.932651583,0
14,27,68377.3249558855,0.00100000000000033
14,28,101571.864408506,0
14,29,62239.7886170928,0
14,30,64126.8615840401,0.00100000000000033
15,16,61872.4874189648,0
15,17,38263.733220256,0.00199999999999978
15,18,73688.3227949453,0
15,19,46160.0557928197,0.000999999999999446
15,20,88690.5858017356,0
15,21,38376.0993464546,0
15,22,90930.4883165096,0.00100000000000033
15,23,29805.8224123625,0
15,24,48014.6637954859,0
15,25,46621.9306453128,0
15,26,111886.421503209,0
15,27,73955.0750420873,0.000999999999999446
15,28,48289.3556687476,0
15,29,69643.7816225752,0
15,30,47627.2655979506,0
16,17,79153.3647321954,0
16,18,68090.3994400011,0.00100000000000033
16,19,66673.9961090052,0
16,20,97948.1551794117,0
16,21,70620.1102325646,0.000999999999999446
16,22,113876.963156951,0
16,23,70268.0333282346,0
16,24,56572.693486197,0
16,25,70068.688152351,0
16,26,151214.11495845,0.000999999999999446
16,27,83613.5366649036,0
16,28,88407.9647942689,0
16,29,82421.3960143271,0.00100000000000033
16,30,74158.8095438624,0
17,18,95313.5731656058,0
17,19,45763.8164457377,0
17,20,103929.744211601,0
17,21,27555.2966268492,0.000999999999999446
17,22,108301.175847556,0
17,23,39045.6774198546,0
17,24,58658.0012915564,0.00100000000000033
17,25,41231.583701807,0
17,26,112510.286114275,0.00100000000000033
17,27,70442.3970080989,0
17,28,45427.6668463701,0.00199999999999978
17,29,60100.2240926239,0
17,30,52994.3132427886,0
18,19,80005.0843128142,0.000999999999999446
18,20,69659.7419644591,0
18,21,90956.0858042043,0
18,22,123953.371877729,0
18,23,78223.61884351,0
18,24,56039.0589262804,0.00100000000000033
18,25,92440.9749741969,0
18,26,150453.090216639,0
18,27,93302.3094954669,0.000999999999999446
18,28,91171.4462266626,0
18,29,101194.750726888,0.00100000000000033
18,30,90851.0313691226,0
19,20,92475.2220223614,0
19,21,43001.2480484675,0.00100000000000033
19,22,106136.398935806,0
19,23,60338.6407248893,0
19,24,44998.5257800562,0.000999999999999446
19,25,28723.0863683,0
19,26,113035.277436361,0.00100000000000033
19,27,43959.290225392,0
19,28,67442.2489868124,0
19,29,53253.9508157755,0.000999999999999446
19,30,43460.8633478253,0
20,21,110743.360613053,0
20,22,138104.293931776,0.00100000000000033
20,23,90263.0455011584,0
20,24,80290.6217448004,0.00100000000000033
20,25,102828.931051086,0
20,26,156039.338314541,0
20,27,108420.247275624,0.000999999999999446
20,28,83203.184011199,0
20,29,120226.01588544,0.00100000000000033
20,30,113825.493645351,0
21,22,105803.719709069,0
21,23,43335.3897280946,0.00199999999999978
21,24,51752.2218352938,0
21,25,38572.2096609627,0.00100000000000033
21,26,121834.637016783,0
21,27,64234.3750124018,0.000999999999999446
21,28,55363.5238818156,0
21,29,53196.2076304423,0
21,30,43198.2737966277,0.00100000000000033
22,23,104118.530770388,0
22,24,112874.846136967,0
22,25,99592.4854223806,0.00100000000000033
22,26,124410.609536407,0
22,27,140641.615731082,0.000999999999999446
22,28,113835.077733074,0
22,29,133161.401472936,0
22,30,81626.0811068086,0.00100000000000033
23,24,57659.829385314,0
23,25,59183.3930158096,0
23,26,119141.138637502,0.00100000000000033
23,27,83081.6660834503,0
23,28,42328.7583271874,0.000999999999999446
23,29,71937.4527391322,0
23,30,61490.7690488373,0
24,25,50089.5262727199,0.00100000000000033
24,26,140427.36182029,0
24,27,59606.9952005635,0
24,28,60323.6790234444,0.000999999999999446
24,29,77010.4158351015,0
24,30,65774.1404664405,0.00100000000000033
25,26,114436.850661328,0
25,27,55157.7230223546,0
25,28,61162.6371531768,0.00100000000000033
25,29,67388.1927339684,0
25,30,47148.2725696265,0
26,27,133322.344091333,0.000999999999999446
26,28,130515.962828992,0
26,29,125511.362351174,0.00100000000000033
26,30,108966.920300891,0.00100000000000033
27,28,87546.5618183762,0.000999999999999446
27,29,66879.3009158635,0
27,30,74290.077866573,0
28,29,89398.7809254239,0.00100000000000033
28,30,77620.5902542897,0
29,30,60356.848640654,0.000999999999999446


"After.Trace.ID","Before.Trace.ID","Difference","Runtime"
1,1,436328.471260347,0
1,2,115559.193399485,0.00100000000000033
1,3,134248.021092936,0
1,4,109575.63789726,0
1,5,118262.583914508,0
1,6,131413.995722806,0
1,7,96360.7605096971,0.000999999999999446
1,8,136162.178355685,0
1,9,122793.300595343,0
1,10,136738.533965795,0.00100000000000033
1,11,119940.856784545,0
1,12,159714.624687025,0.00100000000000033
1,13,106508.075183989,0
1,14,137739.986874814,0
1,15,107369.08786039,0.00199999999999978
1,16,135887.97444123,0
1,17,107488.741487634,0.000999999999999446
1,18,132854.558356412,0
1,19,126260.487279084,0.00100000000000033
1,20,149745.167414078,0
1,21,109287.466020853,0
1,22,155519.668453874,0.00100000000000033
1,23,100615.928848984,0
1,24,121510.84044716,0
1,25,132430.815283902,0
1,26,158776.900249383,0
1,27,142070.180118399,0.00100000000000033
1,28,118566.460904655,0
1,29,116747.344058728,0.000999999999999446
1,30,125651.28181873,0
2,1,464387.578398979,0
2,2,124547.161699127,0.00100000000000033
2,3,138163.923486941,0
2,4,121807.181336938,0.00100000000000033
2,5,135233.509586122,0
2,6,132887.382064372,0
2,7,115572.683794513,0.000999999999999446
2,8,134767.296784704,0
2,9,132828.19750798,0
2,10,142086.321829192,0
2,11,131484.215721473,0
2,12,150746.828210184,0.00100000000000033
2,13,121758.116178912,0
2,14,122476.242549793,0
2,15,119389.888903591,0.000999999999999446
2,16,133033.337540749,0.00100000000000033
2,17,121486.444112199,0.000999999999999446
2,18,123340.204864549,0
2,19,130233.555036105,0.00100000000000033
2,20,141096.063851708,0
2,21,122333.091709254,0
2,22,178849.619006815,0.00100000000000033
2,23,110671.974770984,0
2,24,125217.998454611,0
2,25,143112.907020216,0
2,26,173935.50883279,0
2,27,139385.754334022,0.00100000000000033
2,28,133477.020289927,0
2,29,111959.915005089,0
2,30,135410.264372654,0.00100000000000033
3,1,449535.752240964,0
3,2,116632.393835293,0.000999999999999446
3,3,130242.541895244,0
3,4,110855.413040086,0
3,5,103026.868269627,0.00100000000000033
3,6,132172.12156996,0
3,7,93361.3937785547,0
3,8,136341.048679417,0.000999999999999446
3,9,121280.840416555,0
3,10,136270.216481134,0.00100000000000033
3,11,123173.008640593,0
3,12,166855.29562202,0
3,13,110873.022470637,0.00100000000000033
3,14,140865.611304876,0
3,15,106751.65541443,0
3,16,140941.355020191,0.00100000000000033
3,17,104874.28128415,0.00100000000000033
3,18,129979.002466631,0
3,19,129859.106850221,0
3,20,139779.636561802,0.000999999999999446
3,21,109575.974791503,0
3,22,161352.752081267,0.00100000000000033
3,23,92621.6865794483,0
3,24,121666.889979091,0
3,25,134591.267827765,0.000999999999999446
3,26,160464.880586122,0
3,27,144398.387497285,0
3,28,106176.533354537,0
3,29,120054.671991083,0
3,30,129236.349248913,0.00100000000000033
4,1,480515.956210756,0
4,2,108710.769085946,0
4,3,119373.969964422,0.000999999999999446
4,4,115038.306151363,0
4,5,123822.524704642,0
4,6,110732.971457131,0
4,7,113342.738958266,0
4,8,109322.409865746,0.00100000000000033
4,9,123556.37125039,0
4,10,135990.128428556,0
4,11,125544.942436229,0.000999999999999446
4,12,131847.223965819,0
4,13,109960.605280815,0.00100000000000033
4,14,109481.714931762,0
4,15,100713.502289788,0
4,16,102632.239672817,0.000999999999999446
4,17,112397.209764169,0
4,18,96036.9467620494,0
4,19,111550.328585407,0.00100000000000033
4,20,112796.903001331,0
4,21,113849.755427063,0.00100000000000033
4,22,151699.823660149,0
4,23,99324.4520478472,0.00199999999999978
4,24,102551.603714261,0
4,25,124536.956666584,0
4,26,162284.139582419,0
4,27,126699.835846314,0
4,28,120766.774983238,0.000999999999999446
4,29,109958.373112764,0
4,30,121231.563911833,0
5,1,568650.172248948,0.00100000000000033
5,2,245500.513625127,0
5,3,248287.079922226,0.000999999999999446
5,4,251890.745130167,0
5,5,260209.177667679,0
5,6,225604.875977235,0.00100000000000033
5,7,253312.42675795,0
5,8,231735.533189255,0
5,9,259227.031680188,0.00100000000000033
5,10,258809.042554406,0
5,11,256949.833416599,0.000999999999999446
5,12,215327.033511844,0
5,13,247100.344456805,0
5,14,208820.034502883,0.00100000000000033
5,15,240817.39629057,0
5,16,233117.627781026,0
5,17,251312.499633124,0.00100000000000033
5,18,210856.014179822,0
5,19,233592.647513331,0.000999999999999446
5,20,223529.512256102,0
5,21,251512.073044763,0
5,22,282284.191793485,0.00100000000000033
5,23,242120.906834174,0
5,24,234339.774219517,0
5,25,255275.031615086,0
5,26,259993.567325244,0
5,27,235569.775979919,0.00100000000000033
5,28,263263.632819132,0
5,29,222045.302087051,0.00199999999999978
5,30,248246.808884962,0
6,1,501621.301849686,0
6,2,120448.900348663,0
6,3,116928.941105211,0
6,4,128893.905486392,0.00100000000000033
6,5,94223.6931081568,0
6,6,110600.453620688,0
6,7,114984.170674855,0.000999999999999446
6,8,121180.353655991,0
6,9,133947.072492813,0.00100000000000033
6,10,144318.701862314,0
6,11,139908.599056827,0
6,12,153737.323359886,0.000999999999999446
6,13,124302.410700656,0
6,14,129434.353210229,0
6,15,109374.054354735,0.00100000000000033
6,16,139234.709327182,0
6,17,116830.405669149,0.00100000000000033
6,18,99875.9336920721,0
6,19,125511.206622176,0
6,20,102152.916651222,0.000999999999999446
6,21,123638.144039457,0
6,22,163747.873882792,0
6,23,100916.720747563,0.00100000000000033
6,24,112756.24352206,0
6,25,136915.797807664,0.00100000000000033
6,26,154840.899003273,0
6,27,138134.906026724,0
6,28,107627.490267024,0.000999999999999446
6,29,129237.90168344,0
6,30,134880.938726112,0
7,1,451828.738811458,0
7,2,105938.155952902,0
7,3,120063.984034449,0.000999999999999446
7,4,101584.151226175,0
7,5,106367.631362375,0.00200000000000067
7,6,117362.70102455,0
7,7,89944.8904454023,0
7,8,118242.659009272,0
7,9,112417.967994758,0
7,10,123903.354825029,0.00100000000000033
7,11,112273.037801256,0
7,12,145073.079802158,0
7,13,99307.4443564531,0.00100000000000033
7,14,120278.153275863,0
7,15,98023.7618688996,0.000999999999999446
7,16,122659.282460339,0
7,17,98739.6926761815,0
7,18,113895.335041508,0.00100000000000033
7,19,113294.430682373,0
7,20,127798.138381331,0
7,21,99762.1983849035,0.000999999999999446
7,22,158569.118040635,0
7,23,88698.5553913204,0.00100000000000033
7,24,106502.54453587,0
7,25,123274.188105426,0
7,26,160455.226948171,0.00100000000000033
7,27,125332.655194406,0
7,28,106076.678376062,0
7,29,102084.84244408,0.000999999999999446
7,30,117593.552854445,0
8,1,470235.722525306,0.00100000000000033
8,2,116736.608401075,0
8,3,118385.96752292,0
8,4,115953.338965775,0.00100000000000033
8,5,93960.8313706691,0
8,6,112509.25565768,0
8,7,96732.2957395915,0
8,8,124716.00684409,0
8,9,123605.667361132,0.00100000000000033
8,10,134621.98541521,0.000999999999999446
8,11,128953.20511803,0.00100000000000033
8,12,156682.445773381,0
8,13,112011.14469829,0
8,14,129961.223973752,0
8,15,105818.876274806,0
8,16,138303.534695201,0.000999999999999446
8,17,107728.902603105,0
8,18,115688.355356128,0
8,19,121541.014077015,0.00100000000000033
8,20,116395.089924563,0
8,21,113217.093530571,0.00100000000000033
8,22,157375.504614247,0
8,23,96476.1740608109,0
8,24,113333.282625828,0.000999999999999446
8,25,132119.980150665,0
8,26,162795.686710798,0
8,27,136694.978865644,0.00100000000000033
8,28,104821.809765413,0
8,29,119683.058989332,0.000999999999999446
8,30,125334.145972555,0
9,1,457608.386082268,0
9,2,101034.31214481,0.00100000000000033
9,3,113165.365520175,0
9,4,100258.000312242,0
9,5,95603.0780386813,0.00100000000000033
9,6,106102.310224125,0
9,7,88385.6223131997,0.000999999999999446
9,8,111791.158449209,0
9,9,108692.109161954,0
9,10,117677.885986246,0.00100000000000033
9,11,109530.722460575,0
9,12,134430.617430238,0
9,13,96641.9442333527,0
9,14,113943.276286498,0
9,15,93937.4644691139,0.00199999999999978
9,16,124511.167541689,0
9,17,92566.234017441,0.000999999999999446
9,18,107642.67025788,0
9,19,105572.053269268,0
9,20,116199.3559578,0
9,21,96875.5047053715,0
9,22,154835.90253026,0.00100000000000033
9,23,85416.5207848568,0
9,24,100213.969794013,0
9,25,115891.562574777,0.000999999999999446
9,26,148930.127935905,0
9,27,118283.920440011,0.00100000000000033
9,28,97418.6561814018,0
9,29,98434.829838721,0
9,30,112973.512885784,0.00100000000000033
10,1,462287.333007165,0
10,2,98304.2759833896,0
10,3,97917.8551859147,0
10,4,99126.5153754244,0
10,5,94764.8294455015,0.00100000000000033
10,6,80308.8717616049,0
10,7,86904.3702698071,0
10,8,105408.486007563,0.000999999999999446
10,9,105862.704805024,0
10,10,111579.289733217,0
10,11,109780.22467193,0
10,12,124773.132221326,0
10,13,95893.7191691487,0.00100000000000033
10,14,93783.9409318832,0
10,15,93085.8248249356,0
10,16,123819.914243212,0.000999999999999446
10,17,95470.941488282,0
10,18,95466.492401613,0
10,19,95642.4821884523,0.00100000000000033
10,20,106354.787647495,0.000999999999999446
10,21,98070.1038497553,0
10,22,141606.826525844,0
10,23,89239.241244837,0.00100000000000033
10,24,96967.0770161453,0
10,25,110840.140830664,0
10,26,137412.984544191,0
10,27,110789.51584019,0
10,28,102491.564073378,0.00100000000000033
10,29,95854.9500661381,0
10,30,98670.2743998364,0
11,1,486102.850196161,0.00100000000000033
11,2,110408.359251289,0
11,3,118351.221511842,0
11,4,114887.232889543,0
11,5,102539.047916346,0
11,6,112861.937235094,0.00100000000000033
11,7,106761.15198385,0
11,8,109565.097426409,0
11,9,120668.206863604,0.00100000000000033
11,10,128612.153759117,0
11,11,124520.130216362,0
11,12,134308.443438139,0
11,13,111594.545169942,0
11,14,115105.731644321,0.00100000000000033
11,15,102304.65905921,0
11,16,123181.192616412,0
11,17,105238.816169229,0.000999999999999446
11,18,99185.2616353035,0
11,19,112721.306972733,0.00100000000000033
11,20,104238.203439737,0
11,21,110165.516201238,0
11,22,168552.388537468,0.00100000000000033
11,23,93483.2408037547,0.000999999999999446
11,24,101622.663420412,0.00100000000000033
11,25,125761.856705102,0
11,26,162379.686390654,0
11,27,121783.770506742,0
11,28,104303.383388166,0
11,29,107167.638601189,0.000999999999999446
11,30,126297.106230608,0
12,1,443793.838675353,0
12,2,92891.6140708688,0.00100000000000033
12,3,109608.700975695,0
12,4,89463.2646870909,0.000999999999999446
12,5,89584.3203559101,0
12,6,102273.615301118,0
12,7,76125.6978228207,0.00100000000000033
12,8,110487.526264489,0
12,9,98269.8824708729,0
12,10,108267.498902777,0.00100000000000033
12,11,98932.5328136551,0
12,12,133097.906864648,0.000999999999999446
12,13,87158.0474206462,0
12,14,110855.925662766,0
12,15,86874.5002831153,0.00100000000000033
12,16,121311.058641787,0
12,17,81195.8411043674,0
12,18,110517.355898605,0
12,19,99247.5225678695,0
12,20,118452.622383175,0.00100000000000033
12,21,86793.7939555034,0
12,22,147376.681644556,0
12,23,77391.6238607306,0.00100000000000033
12,24,97696.8354989477,0
12,25,107880.91772245,0
12,26,141259.023732929,0.00100000000000033
12,27,113514.717996051,0.00100000000000033
12,28,89392.2675711362,0
12,29,90937.2203209841,0
12,30,103784.943324983,0.000999999999999446
13,1,457557.050328,0
13,2,94053.1340797876,0
13,3,111567.134104266,0
13,4,96510.3578077147,0
13,5,104580.231919779,0.000999999999999446
13,6,99148.8759134349,0
13,7,92774.0444031512,0
13,8,100801.499338822,0.00100000000000033
13,9,104848.203917932,0
13,10,110455.196942108,0.00100000000000033
13,11,103209.393223054,0
13,12,112179.049305576,0
13,13,90062.9673042689,0.000999999999999446
13,14,101885.447132628,0
13,15,90338.1838481001,0
13,16,114019.004312533,0.00100000000000033
13,17,90110.6609029539,0
13,18,100730.633617664,0.00100000000000033
13,19,93250.0036934004,0
13,20,112164.087292437,0
13,21,93089.9541064238,0.000999999999999446
13,22,150033.513903282,0
13,23,87474.5412906747,0
13,24,90340.8921009535,0.00100000000000033
13,25,105146.980632319,0
13,26,142936.583156834,0.000999999999999446
13,27,105838.747363528,0
13,28,101298.631625504,0
13,29,91155.7850459798,0.00200000000000067
13,30,107267.36040912,0
14,1,484099.608469089,0.000999999999999446
14,2,107905.728370559,0
14,3,113803.690584698,0.00100000000000033
14,4,113266.770750028,0
14,5,101057.961966966,0
14,6,107340.614893337,0.00100000000000033
14,7,102593.538451323,0
14,8,114156.29164932,0
14,9,120407.665285158,0.000999999999999446
14,10,132272.921759091,0
14,11,125473.394765009,0.00100000000000033
14,12,141805.3919932,0
14,13,110972.682710655,0
14,14,113570.379749053,0.000999999999999446
14,15,98558.6058695714,0
14,16,121683.930140585,0
14,17,105351.786728509,0
14,18,95929.6039068235,0
14,19,114586.613479064,0.00100000000000033
14,20,105348.991653131,0
14,21,110440.436699635,0
14,22,156691.165907042,0.000999999999999446
14,23,88868.2520103832,0
14,24,105076.731342674,0
14,25,126569.113889091,0
14,26,151920.644437026,0
14,27,128967.450182087,0.00100000000000033
14,28,105580.456470025,0
14,29,110838.669934906,0
14,30,121924.83853878,0.000999999999999446
15,1,488144.626884628,0.00100000000000033
15,2,126495.782670339,0.000999999999999446
15,3,135521.877784416,0
15,4,132263.103474727,0.00100000000000033
15,5,125785.055243865,0
15,6,115903.911280894,0
15,7,130710.597359654,0.00100000000000033
15,8,112115.610680887,0
15,9,134998.718196656,0
15,10,130692.085389152,0
15,11,133050.428589298,0
15,12,108506.31373282,0.00100000000000033
15,13,124273.162821271,0
15,14,116067.069999169,0
15,15,123294.045738605,0.00100000000000033
15,16,140949.375272286,0
15,17,121456.163576842,0
15,18,116913.995585294,0
15,19,111427.809411675,0
15,20,114438.703875492,0.00100000000000033
15,21,125497.666351696,0
15,22,191238.193020315,0
15,23,122109.736005873,0.000999999999999446
15,24,111884.359325872,0
15,25,129902.086665359,0
15,26,164004.89078668,0
15,27,106539.840037495,0
15,28,125641.764885412,0.00100000000000033
15,29,109408.740954444,0
15,30,137479.969723869,0
16,1,476137.035880591,0.000999999999999446
16,2,105438.005980747,0
16,3,113651.502567149,0.00200000000000067
16,4,110252.857294657,0
16,5,95439.5182198849,0.000999999999999446
16,6,96887.2306420891,0
16,7,99870.2968414168,0
16,8,108388.813212841,0.00100000000000033
16,9,115614.357314247,0
16,10,122055.980574964,0.000999999999999446
16,11,118597.396148709,0
16,12,125598.751685618,0
16,13,105798.29088427,0.00100000000000033
16,14,105901.234999808,0
16,15,98078.0306141954,0
16,16,127096.065989394,0.00100000000000033
16,17,98954.1421091611,0
16,18,100171.707858379,0.000999999999999446
16,19,103456.604404351,0
16,20,101512.821890242,0
16,21,105779.417439812,0.00100000000000033
16,22,159428.430497692,0
16,23,91025.2841501296,0
16,24,101302.132027634,0
16,25,117885.23489483,0
16,26,142826.937730998,0.000999999999999446
16,27,114187.654726151,0
16,28,100781.656169857,0
16,29,100684.485413676,0.00100000000000033
16,30,116234.909292382,0
17,1,504500.154569516,0
17,2,126050.414219941,0
17,3,131559.435604123,0
17,4,135507.651767034,0.00200000000000067
17,5,136265.491767633,0
17,6,112783.468085177,0.000999999999999446
17,7,134989.660703706,0
17,8,117388.430542616,0
17,9,139553.795820448,0
17,10,141845.513226718,0
17,11,142293.108884768,0.00100000000000033
17,12,122003.793019018,0
17,13,131726.313197739,0
17,14,102264.444622457,0.000999999999999446
17,15,122186.915482969,0
17,16,126480.752360387,0.00100000000000033
17,17,129057.032450901,0
17,18,99209.317862517,0
17,19,119459.890356291,0.000999999999999446
17,20,109911.719426724,0
17,21,131919.521715877,0
17,22,180671.064974845,0
17,23,120787.915335466,0
17,24,116810.155863803,0.00100000000000033
17,25,139494.894971085,0
17,26,167422.400808551,0
17,27,126329.742768364,0.000999999999999446
17,28,137379.127587887,0
17,29,111303.548461679,0
17,30,135591.785917233,0
18,1,462388.615234258,0
18,2,99561.9882605603,0.00100000000000033
18,3,111060.485371632,0
18,4,99086.7169068546,0
18,5,104977.739680405,0.00199999999999978
18,6,105242.18516047,0
18,7,92390.8978549469,0.000999999999999446
18,8,105306.723013302,0
18,9,107725.082510134,0.00100000000000033
18,10,113478.122108457,0
18,11,108092.747369009,0
18,12,124927.266417814,0.00100000000000033
18,13,96440.0624895868,0
18,14,104184.146007666,0
18,15,95173.6452799039,0
18,16,117008.575421107,0
18,17,94945.1308187679,0.00100000000000033
18,18,100310.835247925,0
18,19,101582.47100743,0
18,20,114041.093526043,0.00100000000000033
18,21,96613.2085406995,0
18,22,159154.880888123,0.000999999999999446
18,23,88650.4010356555,0
18,24,95262.3542699089,0
18,25,115205.84691624,0.00100000000000033
18,26,155784.266039859,0
18,27,111750.97512193,0
18,28,103669.168227009,0.000999999999999446
18,29,91707.636124755,0
18,30,111566.53033408,0.00100000000000033
19,1,516276.563767392,0
19,2,150449.718648734,0
19,3,150695.089648759,0.00100000000000033
19,4,157928.832362468,0
19,5,141458.791296493,0.00199999999999978
19,6,136488.440287686,0
19,7,149301.033699048,0
19,8,145393.484735636,0
19,9,165658.718052668,0
19,10,174611.648345321,0.000999999999999446
19,11,168198.831902817,0
19,12,161264.815533729,0
19,13,152035.616071331,0.00100000000000033
19,14,142733.209890229,0
19,15,137824.108563447,0.000999999999999446
19,16,153943.881689194,0
19,17,151180.912006259,0
19,18,120555.627633301,0.00100000000000033
19,19,148642.297568213,0
19,20,129437.939944366,0
19,21,155172.627572168,0.00100000000000033
19,22,184831.987698672,0
19,23,133550.438725595,0.000999999999999446
19,24,140972.394901311,0
19,25,164856.981919705,0
19,26,169449.635368142,0.00100000000000033
19,27,160060.529056249,0
19,28,151168.333254893,0
19,29,146516.397726818,0
19,30,159734.167143065,0
20,1,491527.008874808,0.000999999999999446
20,2,108886.889429977,0
20,3,110444.034562705,0
20,4,115214.837279158,0.00100000000000033
20,5,114293.988990041,0.000999999999999446
20,6,107361.895090923,0.00100000000000033
20,7,111576.079694293,0
20,8,102421.313709298,0.00100000000000033
20,9,122536.845482303,0
20,10,130388.366870615,0
20,11,124551.060608601,0.000999999999999446
20,12,129323.516624334,0
20,13,110834.215526057,0
20,14,107413.817191577,0
20,15,103183.291183613,0
20,16,112940.290083624,0.00100000000000033
20,17,112269.285350217,0
20,18,86591.781181483,0
20,19,110634.522465477,0.000999999999999446
20,20,104584.556566971,0
20,21,112316.040972449,0
20,22,164589.136319478,0
20,23,98855.2986270025,0
20,24,95955.1534417958,0.000999999999999446
20,25,125818.057298189,0
20,26,168171.460111784,0
20,27,118005.010883121,0.00100000000000033
20,28,115274.387101806,0
20,29,109056.826226025,0
20,30,124291.464023893,0
21,1,553981.970471981,0
21,2,154773.899460528,0.000999999999999446
21,3,150173.14395628,0
21,4,170930.514948246,0.00200000000000067
21,5,147798.76699328,0
21,6,138848.240721089,0
21,7,166459.676084801,0.000999999999999446
21,8,141870.505019439,0
21,9,173789.819492665,0.00100000000000033
21,10,181062.527930578,0
21,11,180827.522255264,0
21,12,161824.618202357,0.000999999999999446
21,13,166033.627084762,0
21,14,142015.158191831,0.00100000000000033
21,15,146843.587125812,0
21,16,152737.687622213,0
21,17,161178.095134594,0.00100000000000033
21,18,110601.770597606,0
21,19,155437.28796022,0
21,20,112795.077041567,0.000999999999999446
21,21,166603.586472108,0
21,22,198942.681620476,0.00100000000000033
21,23,143603.113192066,0
21,24,141867.245252862,0
21,25,171179.619025842,0.00100000000000033
21,26,187870.87262989,0
21,27,163862.15241888,0.000999999999999446
21,28,156433.800564701,0
21,29,160551.725663152,0
21,30,171920.347882555,0.00100000000000033
22,1,465410.732517857,0
22,2,90743.859605424,0
22,3,107659.963137291,0.00199999999999978
22,4,94180.4967959805,0
22,5,100018.992230117,0.00100000000000033
22,6,103700.038284626,0
22,7,90995.3709931989,0.000999999999999446
22,8,96924.3507907356,0
22,9,100247.859143879,0
22,10,105723.109072467,0.00100000000000033
22,11,101619.375013633,0
22,12,117321.033058017,0.000999999999999446
22,13,91452.9910843044,0
22,14,100466.081975012,0
22,15,88088.4204728745,0
22,16,108440.572428597,0
22,17,86192.2428890189,0.00100000000000033
22,18,95085.7082759791,0
22,19,95201.7420446333,0
22,20,106391.537544424,0
22,21,89175.7502333127,0
22,22,159299.770365744,0.00100000000000033
22,23,80899.924232027,0
22,24,87481.1223945681,0
22,25,107113.01030522,0.00100000000000033
22,26,152324.866701747,0
22,27,103943.65384288,0.000999999999999446
22,28,94135.6440172847,0
22,29,86612.6529529458,0
22,30,109231.228652495,0.00100000000000033
23,1,513837.067326685,0.000999999999999446
23,2,148144.673746145,0.00100000000000033
23,3,142316.500997384,0
23,4,153267.015688614,0.00100000000000033
23,5,123750.705006006,0
23,6,127048.633720051,0
23,7,140470.860298851,0.000999999999999446
23,8,136731.902309373,0
23,9,157552.710080446,0
23,10,161701.467657934,0
23,11,162934.695459214,0
23,12,156856.328260177,0.00100000000000033
23,13,146221.232076667,0
23,14,140311.775166706,0
23,15,136667.091965365,0.000999999999999446
23,16,158855.562444421,0
23,17,142756.633561882,0
23,18,121398.294132925,0
23,19,140829.346122978,0
23,20,114483.10362595,0.000999999999999446
23,21,147750.096509021,0
23,22,188192.521668552,0
23,23,131573.94373282,0.00100000000000033
23,24,132663.399210965,0
23,25,157709.344741979,0
23,26,183584.405530045,0
23,27,150240.510295639,0
23,28,136719.914176683,0.000999999999999446
23,29,141160.249933564,0.00100000000000033
23,30,154646.495491138,0.00100000000000033
24,1,473005.277119413,0
24,2,97357.028434007,0
24,3,105209.370158537,0.000999999999999446
24,4,101290.308378429,0
24,5,91154.9645031552,0.00100000000000033
24,6,99513.980028816,0
24,7,91811.0976761812,0
24,8,100671.62974698,0.000999999999999446
24,9,107257.099391259,0
24,10,114831.216712792,0
24,11,110423.931628112,0
24,12,126989.119519807,0
24,13,97220.5945821661,0.00100000000000033
24,14,106800.870793309,0
24,15,90602.9132151335,0
24,16,117263.023091794,0.000999999999999446
24,17,91923.6714546086,0
24,18,94430.379289397,0.00100000000000033
24,19,100479.442923495,0
24,20,100828.007455114,0
24,21,96391.3901340666,0.00100000000000033
24,22,155994.224923628,0
24,23,82867.3965628994,0
24,24,91472.3899102283,0
24,25,112654.147435053,0
24,26,151372.481611873,0.00199999999999978
24,27,111046.534789986,0
24,28,92668.5859301378,0.00100000000000033
24,29,97722.2575448138,0
24,30,112319.942325322,0
25,1,475829.851538089,0.00100000000000033
25,2,115845.012043192,0
25,3,108227.933619944,0.000999999999999446
25,4,118886.915465592,0
25,5,92780.6844266604,0
25,6,97272.9686068302,0.00100000000000033
25,7,99977.0338814846,0
25,8,125221.890812942,0
25,9,125642.082382283,0
25,10,135772.462577016,0
25,11,131049.57043735,0.000999999999999446
25,12,155148.817061727,0
25,13,115492.183422015,0
25,14,122173.087158571,0.00100000000000033
25,15,106673.906716728,0
25,16,143016.6391668,0
25,17,111666.480399114,0
25,18,108021.706078069,0
25,19,120108.308693202,0.00100000000000033
25,20,114299.570939992,0
25,21,117083.229589053,0
25,22,148442.45356916,0.00100000000000033
25,23,99946.9618906631,0.00399999999999956
25,24,115484.284327562,0
25,25,131560.228454379,0.00100000000000033
25,26,144345.648037368,0
25,27,136558.217038269,0.000999999999999446
25,28,109055.201669683,0
25,29,123072.52368965,0
25,30,119698.843940326,0.00100000000000033
26,1,457954.624238769,0
26,2,92903.5450850277,0
26,3,103821.115077895,0
26,4,92881.0747518814,0
26,5,97405.5247131807,0.000999999999999446
26,6,96890.2009634163,0
26,7,83577.3550214396,0
26,8,103323.445037955,0.00100000000000033
26,9,101651.165471452,0
26,10,109282.532331386,0
26,11,102496.112826544,0
26,12,125117.288238019,0
26,13,90604.7422192534,0.000999999999999446
26,14,99538.4624175543,0
26,15,88416.6133030988,0
26,16,115289.907036399,0.00100000000000033
26,17,88113.1762485481,0
26,18,97134.0005621566,0.000999999999999446
26,19,97096.4513623067,0
26,20,111835.358502954,0
26,21,90967.5554729726,0.00100000000000033
26,22,151333.548973098,0
26,23,81240.5802428405,0
26,24,92910.5760386993,0
26,25,110002.873686949,0
26,26,145500.263798108,0.000999999999999446
26,27,108890.941796042,0
26,28,97733.2328502633,0.00100000000000033
26,29,89016.7267737454,0.00100000000000033
26,30,104008.023680844,0.000999999999999446
27,1,483311.206440055,0
27,2,107592.170314467,0.00100000000000033
27,3,115648.167495955,0
27,4,112763.222760915,0
27,5,104009.317788286,0.000999999999999446
27,6,108065.031245276,0
27,7,104889.906776179,0.00100000000000033
27,8,110211.460764323,0
27,9,119572.16414643,0
27,10,128778.494286013,0.00100000000000033
27,11,122894.906758071,0
27,12,133914.052621476,0
27,13,109454.104728547,0.000999999999999446
27,14,110874.099817338,0
27,15,99347.0685052987,0.00100000000000033
27,16,120106.952530449,0
27,17,104679.729803027,0
27,18,95874.0164457512,0.00100000000000033
27,19,111202.55417116,0
27,20,104668.715036705,0.000999999999999446
27,21,108832.460144668,0
27,22,162533.254754353,0
27,23,90702.418994231,0.00100000000000033
27,24,101988.195464344,0
27,25,124481.632231819,0
27,26,154672.435794844,0.000999999999999446
27,27,122744.871776522,0
27,28,105942.005535245,0.00100000000000033
27,29,105654.187408869,0
27,30,122638.998275043,0
28,1,499212.958183144,0.00100000000000033
28,2,112404.92489648,0
28,3,116599.126750124,0
28,4,122882.356411184,0
28,5,107621.377358633,0.00200000000000067
28,6,98546.1589516264,0
28,7,118735.222647919,0
28,8,98460.7517732663,0.000999999999999446
28,9,125456.030207409,0
28,10,127709.423751881,0.00100000000000033
28,11,129287.782071188,0
28,12,112806.6637361,0
28,13,114820.12463643,0.000999999999999446
28,14,104541.666245825,0
28,15,105584.142536754,0
28,16,121486.132285797,0
28,17,110680.247709238,0
28,18,91046.8855614022,0.00100000000000033
28,19,102976.970647892,0
28,20,89469.1643712951,0
28,21,116132.036915437,0.000999999999999446
28,22,167806.713793091,0
28,23,105190.607814244,0.00100000000000033
28,24,96636.0057028237,0
28,25,121123.913419363,0
28,26,158233.947021534,0.00100000000000033
28,27,110740.577176824,0
28,28,111178.261233721,0
28,29,107143.912340837,0
28,30,125150.83323926,0
29,1,464022.643406743,0.00100000000000033
29,2,104964.265155715,0
29,3,114926.846383632,0
29,4,105062.683306079,0.000999999999999446
29,5,105611.301954045,0
29,6,106048.149986568,0.00100000000000033
29,7,95730.9731524368,0
29,8,111504.929458905,0
29,9,113773.918747987,0.00100000000000033
29,10,120299.501594321,0.000999999999999446
29,11,113731.744252715,0.00100000000000033
29,12,129821.157238798,0
29,13,101729.848489551,0.00100000000000033
29,14,107943.651480373,0
29,15,98665.3471140849,0
29,16,123737.737121513,0.000999999999999446
29,17,99219.0657303047,0
29,18,104096.25661383,0
29,19,106377.898777185,0
29,20,116113.66466688,0
29,21,102482.724816884,0.000999999999999446
29,22,161922.850975575,0
29,23,91516.6598733281,0
29,24,102760.80699569,0
29,25,120588.837772944,0
29,26,150341.480405306,0.00100000000000033
29,27,116419.533648713,0
29,28,107190.311017277,0
29,29,96117.5048801135,0.000999999999999446
29,30,115367.494430274,0
30,1,422570.113567892,0.00100000000000033
30,2,122607.089149595,0
30,3,142519.280702826,0
30,4,122346.440347998,0.00100000000000033
30,5,157257.912062085,0
30,6,119818.630518787,0
30,7,127077.972386809,0
30,8,139742.191150991,0
30,9,130452.007058032,0.00100000000000033
30,10,126583.071977124,0
30,11,116127.837100444,0
30,12,115895.586538807,0.000999999999999446
30,13,119959.509617245,0
30,14,110501.120692394,0.00100000000000033
30,15,128251.085964414,0.00100000000000033
30,16,151778.747128797,0.000999999999999446
30,17,125932.789258859,0
30,18,142734.706997272,0
30,19,114940.668605968,0.00100000000000033
30,20,172157.63671533,0
30,21,123227.522711155,0.00100000000000033
30,22,168251.68772461,0
30,23,134364.021008306,0
30,24,136578.229991627,0.000999999999999446
30,25,127431.1606273,0
30,26,105658.725076176,0
30,27,114421.498023588,0.00100000000000033
30,28,153612.11083907,0
30,29,104453.545523538,0.000999999999999446
30,30,116394.872840653,0
