"Before.Trace.ID1","Before.Trace.ID2","Difference","Runtime"
1,2,1736,0.223000000000411
1,3,1731,0.241999999999734
1,4,1734,0.242000000000189
1,5,1744,0.252999999999702
1,6,1728,0.260000000000218
1,7,1742,0.244000000000142
1,8,1742,0.25
1,9,1737,0.252999999999702
1,10,1732,0.235999999999876
1,11,1731,0.251000000000204
1,12,1735,0.235999999999876
1,13,1746,0.253000000000156
1,14,1737,0.235999999999876
1,15,1745,0.253000000000156
1,16,1737,0.235999999999876
1,17,1732,0.269000000000233
1,18,1732,0.243999999999687
1,19,1732,0.25
1,20,1735,0.253000000000156
1,21,1741,0.235999999999876
1,22,1735,0.269000000000233
1,23,1735,0.243999999999687
1,24,1731,0.25
1,25,1733,0.253000000000156
1,26,1743,0.235999999999876
1,27,1730,0.269000000000233
1,28,1737,0.244999999999891
1,29,1742,0.249000000000251
1,30,1743,0.251999999999953
2,3,1746,0.234999999999673
2,4,1737,0.251000000000204
2,5,1747,0.235999999999876
2,6,1737,0.252999999999702
2,7,1745,0.235000000000127
2,8,1736,0.253000000000156
2,9,1742,0.235000000000127
2,10,1741,0.269999999999982
2,11,1736,0.244000000000142
2,12,1733,0.248999999999796
2,13,1747,0.253000000000156
2,14,1730,0.235999999999876
2,15,1741,0.269000000000233
2,16,1742,0.244999999999891
2,17,1720,0.25
2,18,1738,0.253000000000156
2,19,1741,0.235999999999876
2,20,1744,0.268999999999778
2,21,1746,0.244000000000142
2,22,1743,0.25
2,23,1741,0.251999999999953
2,24,1748,0.235999999999876
2,25,1734,0.251000000000204
2,26,1749,0.235999999999876
2,27,1739,0.252999999999702
2,28,1742,0.235000000000127
2,29,1732,0.252999999999702
2,30,1739,0.235000000000127
3,4,1741,0.268999999999778
3,5,1741,0.244000000000142
3,6,1730,0.25
3,7,1743,0.253000000000156
3,8,1740,0.235000000000127
3,9,1739,0.268999999999778
3,10,1741,0.244000000000142
3,11,1733,0.248999999999796
3,12,1744,0.251999999999953
3,13,1744,0.236999999999625
3,14,1737,0.269000000000233
3,15,1743,0.244999999999891
3,16,1746,0.25
3,17,1739,0.253000000000156
3,18,1738,0.235999999999876
3,19,1730,0.251000000000204
3,20,1737,0.235999999999876
3,21,1744,0.253000000000156
3,22,1738,0.235999999999876
3,23,1743,0.251999999999953
3,24,1738,0.234999999999673
3,25,1734,0.269000000000233
3,26,1749,0.244000000000142
3,27,1742,0.25
3,28,1745,0.253000000000156
3,29,1746,0.235999999999876
3,30,1743,0.268999999999778
4,5,1743,0.244000000000142
4,6,1723,0.25
4,7,1749,0.253000000000156
4,8,1738,0.235999999999876
4,9,1740,0.268999999999778
4,10,1736,0.244000000000142
4,11,1735,0.25
4,12,1734,0.253000000000156
4,13,1742,0.235999999999876
4,14,1730,0.251000000000204
4,15,1740,0.235999999999876
4,16,1739,0.253000000000156
4,17,1731,0.235999999999876
4,18,1735,0.253000000000156
4,19,1740,0.235999999999876
4,20,1742,0.268999999999778
4,21,1749,0.244000000000142
4,22,1742,0.25
4,23,1744,0.253000000000156
4,24,1741,0.235999999999876
4,25,1736,0.268999999999778
4,26,1744,0.245000000000346
4,27,1728,0.25
4,28,1744,0.252999999999702
4,29,1731,0.236000000000331
4,30,1740,0.268999999999778
5,6,1739,0.244000000000142
5,7,1744,0.25
5,8,1738,0.252999999999702
5,9,1741,0.236000000000331
5,10,1744,0.250999999999749
5,11,1740,0.235999999999876
5,12,1743,0.253000000000156
5,13,1746,0.235999999999876
5,14,1737,0.253000000000156
5,15,1744,0.235999999999876
5,16,1748,0.269000000000233
5,17,1746,0.243999999999687
5,18,1744,0.25
5,19,1745,0.253000000000156
5,20,1744,0.235999999999876
5,21,1741,0.269000000000233
5,22,1745,0.244999999999891
5,23,1729,0.25
5,24,1744,0.251999999999953
5,25,1743,0.235000000000127
5,26,1748,0.269000000000233
5,27,1747,0.243999999999687
5,28,1741,0.25
5,29,1747,0.253000000000156
5,30,1741,0.235999999999876
6,7,1735,0.251000000000204
6,8,1738,0.235999999999876
6,9,1744,0.253000000000156
6,10,1727,0.235999999999876
6,11,1732,0.253000000000156
6,12,1736,0.235999999999876
6,13,1743,0.268999999999778
6,14,1726,0.244000000000142
6,15,1746,0.25
6,16,1743,0.253000000000156
6,17,1738,0.235999999999876
6,18,1739,0.268999999999778
6,19,1741,0.244000000000142
6,20,1733,0.248999999999796
6,21,1744,0.253000000000156
6,22,1740,0.235999999999876
6,23,1735,0.269999999999982
6,24,1728,0.244000000000142
6,25,1731,0.25
6,26,1746,0.252999999999702
6,27,1736,0.236000000000331
6,28,1735,0.250999999999749
6,29,1729,0.236000000000331
6,30,1737,0.252999999999702
7,8,1743,0.235999999999876
7,9,1740,0.253000000000156
7,10,1741,0.235999999999876
7,11,1736,0.269000000000233
7,12,1742,0.244000000000142
7,13,1746,0.249000000000251
7,14,1740,0.252999999999702
7,15,1740,0.236000000000331
7,16,1744,0.268999999999778
7,17,1741,0.244999999999891
7,18,1743,0.25
7,19,1739,0.251999999999953
7,20,1738,0.235999999999876
7,21,1735,0.269000000000233
7,22,1734,0.243999999999687
7,23,1738,0.25
7,24,1740,0.253000000000156
7,25,1726,0.235999999999876
7,26,1749,0.250999999999749
7,27,1741,0.235000000000127
7,28,1739,0.252999999999702
7,29,1743,0.235000000000127
7,30,1747,0.253000000000156
8,9,1740,0.235000000000127
8,10,1741,0.268999999999778
8,11,1741,0.244000000000142
8,12,1742,0.248999999999796
8,13,1744,0.252999999999702
8,14,1743,0.236000000000331
8,15,1739,0.268999999999778
8,16,1744,0.244000000000142
8,17,1728,0.25
8,18,1748,0.252999999999702
8,19,1745,0.236000000000331
8,20,1736,0.269000000000233
8,21,1738,0.243999999999687
8,22,1741,0.25
8,23,1741,0.253000000000156
8,24,1746,0.235999999999876
8,25,1738,0.251000000000204
8,26,1749,0.235999999999876
8,27,1745,0.253000000000156
8,28,1730,0.235999999999876
8,29,1743,0.253000000000156
8,30,1736,0.235999999999876
9,10,1744,0.269000000000233
9,11,1736,0.243999999999687
9,12,1737,0.25
9,13,1745,0.253000000000156
9,14,1736,0.235999999999876
9,15,1742,0.269000000000233
9,16,1747,0.244000000000142
9,17,1739,0.25
9,18,1735,0.253000000000156
9,19,1742,0.235999999999876
9,20,1740,0.268999999999778
9,21,1744,0.244000000000142
9,22,1740,0.25
9,23,1740,0.253000000000156
9,24,1742,0.235999999999876
9,25,1738,0.250999999999749
9,26,1749,0.236000000000331
9,27,1743,0.252999999999702
9,28,1745,0.236000000000331
9,29,1743,0.252999999999702
9,30,1741,0.235000000000127
10,11,1738,0.268999999999778
10,12,1740,0.244000000000142
10,13,1746,0.25
10,14,1743,0.252999999999702
10,15,1745,0.235000000000127
10,16,1745,0.268999999999778
10,17,1745,0.244000000000142
10,18,1722,0.248999999999796
10,19,1743,0.251999999999953
10,20,1741,0.239000000000033
10,21,1733,0.268999999999778
10,22,1728,0.245000000000346
10,23,1741,0.248999999999796
10,24,1735,0.253000000000156
10,25,1740,0.235999999999876
10,26,1746,0.251000000000204
10,27,1735,0.235999999999876
10,28,1738,0.252999999999702
10,29,1747,0.236000000000331
10,30,1738,0.252999999999702
11,12,1738,0.236000000000331
11,13,1742,0.268999999999778
11,14,1716,0.244999999999891
11,15,1747,0.249000000000251
11,16,1739,0.253999999999905
11,17,1735,0.235000000000127
11,18,1739,0.269999999999982
11,19,1743,0.244999999999891
11,20,1741,0.249000000000251
11,21,1745,0.252999999999702
11,22,1742,0.235999999999876
11,23,1732,0.269000000000233
11,24,1740,0.244000000000142
11,25,1735,0.25
11,26,1749,0.252999999999702
11,27,1737,0.236000000000331
11,28,1737,0.250999999999749
11,29,1736,0.235999999999876
11,30,1743,0.253000000000156
12,13,1740,0.235999999999876
12,14,1738,0.253000000000156
12,15,1734,0.235999999999876
12,16,1746,0.269000000000233
12,17,1729,0.243999999999687
12,18,1735,0.25
12,19,1739,0.253000000000156
12,20,1746,0.235000000000127
12,21,1747,0.269999999999982
12,22,1737,0.244000000000142
12,23,1741,0.248999999999796
12,24,1746,0.253000000000156
12,25,1737,0.235999999999876
12,26,1740,0.268999999999778
12,27,1727,0.244000000000142
12,28,1740,0.249000000000251
12,29,1739,0.251999999999953
12,30,1742,0.235999999999876
13,14,1742,0.251000000000204
13,15,1742,0.235999999999876
13,16,1743,0.253000000000156
13,17,1740,0.235000000000127
13,18,1743,0.252999999999702
13,19,1744,0.235000000000127
13,20,1746,0.268999999999778
13,21,1748,0.244000000000142
13,22,1747,0.25
13,23,1729,0.252999999999702
13,24,1745,0.235000000000127
13,25,1738,0.269000000000233
13,26,1749,0.243999999999687
13,27,1743,0.249000000000251
13,28,1740,0.252999999999702
13,29,1732,0.236000000000331
13,30,1741,0.268999999999778
14,15,1735,0.244000000000142
14,16,1746,0.25
14,17,1735,0.251999999999953
14,18,1740,0.235999999999876
14,19,1742,0.251000000000204
14,20,1743,0.235999999999876
14,21,1737,0.251999999999953
14,22,1736,0.234999999999673
14,23,1733,0.253000000000156
14,24,1734,0.235999999999876
14,25,1733,0.269000000000233
14,26,1748,0.244000000000142
14,27,1726,0.25
14,28,1740,0.252999999999702
14,29,1736,0.235000000000127
14,30,1734,0.268999999999778
15,16,1747,0.244000000000142
15,17,1738,0.25
15,18,1745,0.253000000000156
15,19,1745,0.235999999999876
15,20,1743,0.269000000000233
15,21,1741,0.243999999999687
15,22,1740,0.248999999999796
15,23,1738,0.251999999999953
15,24,1748,0.235000000000127
15,25,1746,0.250999999999749
15,26,1749,0.235000000000127
15,27,1741,0.251999999999953
15,28,1739,0.236000000000331
15,29,1739,0.252999999999702
15,30,1741,0.235000000000127
16,17,1741,0.269000000000233
16,18,1745,0.243999999999687
16,19,1742,0.25
16,20,1743,0.253000000000156
16,21,1746,0.235000000000127
16,22,1747,0.268999999999778
16,23,1746,0.244999999999891
16,24,1742,0.249000000000251
16,25,1740,0.253000000000156
16,26,1747,0.234999999999673
16,27,1743,0.269000000000233
16,28,1748,0.243999999999687
16,29,1742,0.249000000000251
16,30,1747,0.252000000000407
17,18,1722,0.236999999999625
17,19,1722,0.25
17,20,1738,0.236000000000331
17,21,1748,0.252999999999702
17,22,1731,0.236000000000331
17,23,1737,0.251999999999953
17,24,1747,0.235999999999876
17,25,1735,0.268999999999778
17,26,1747,0.244000000000142
17,27,1738,0.249000000000251
17,28,1735,0.251999999999953
17,29,1735,0.235999999999876
17,30,1731,0.269000000000233
18,19,1732,0.244000000000142
18,20,1741,0.248999999999796
18,21,1745,0.251999999999953
18,22,1739,0.235999999999876
18,23,1742,0.269000000000233
18,24,1743,0.243999999999687
18,25,1735,0.249000000000251
18,26,1747,0.252999999999702
18,27,1740,0.236000000000331
18,28,1746,0.25
18,29,1744,0.235999999999876
18,30,1746,0.253000000000156
19,20,1739,0.235000000000127
19,21,1744,0.252999999999702
19,22,1725,0.235000000000127
19,23,1741,0.269999999999982
19,24,1744,0.244000000000142
19,25,1739,0.248999999999796
19,26,1749,0.253000000000156
19,27,1742,0.235999999999876
19,28,1744,0.269000000000233
19,29,1739,0.243999999999687
19,30,1743,0.25
20,21,1746,0.252000000000407
20,22,1744,0.235999999999876
20,23,1744,0.268999999999778
20,24,1745,0.244000000000142
20,25,1726,0.248999999999796
20,26,1749,0.253000000000156
20,27,1736,0.234999999999673
20,28,1743,0.251000000000204
20,29,1745,0.235000000000127
20,30,1744,0.252999999999702
21,22,1740,0.235000000000127
21,23,1744,0.253000000000156
21,24,1739,0.234999999999673
21,25,1745,0.268999999999778
21,26,1746,0.244000000000142
21,27,1746,0.249000000000251
21,28,1745,0.252999999999702
21,29,1746,0.235999999999876
21,30,1742,0.269000000000233
22,23,1738,0.244000000000142
22,24,1739,0.25
22,25,1739,0.252999999999702
22,26,1748,0.235000000000127
22,27,1737,0.269000000000233
22,28,1742,0.244999999999891
22,29,1742,0.250999999999749
22,30,1739,0.253000000000156
23,24,1737,0.235000000000127
23,25,1734,0.250999999999749
23,26,1749,0.235000000000127
23,27,1743,0.251999999999953
23,28,1738,0.235999999999876
23,29,1717,0.253000000000156
23,30,1741,0.235999999999876
24,25,1745,0.268999999999778
24,26,1748,0.244000000000142
24,27,1734,0.248999999999796
24,28,1739,0.253000000000156
24,29,1743,0.235000000000127
24,30,1748,0.268000000000029
25,26,1748,0.242999999999938
25,27,1738,0.248999999999796
25,28,1741,0.253000000000156
25,29,1737,0.235999999999876
25,30,1744,0.268999999999778
26,27,1741,0.244000000000142
26,28,1749,0.25
26,29,1747,0.251999999999953
26,30,1748,0.235999999999876
27,28,1735,0.251000000000204
27,29,1741,0.235999999999876
27,30,1743,0.251999999999953
28,29,1740,0.235000000000127
28,30,1732,0.252999999999702
29,30,1738,0.235000000000127


"After.Trace.ID","Before.Trace.ID","Difference","Runtime"
1,1,1734,0.28899999999976
1,2,1735,0.239000000000033
1,3,1739,0.240999999999985
1,4,1741,0.252999999999702
1,5,1749,0.264000000000124
1,6,1740,0.249000000000251
1,7,1745,0.268999999999778
1,8,1746,0.244000000000142
1,9,1747,0.251999999999953
1,10,1723,0.253000000000156
1,11,1738,0.234999999999673
1,12,1740,0.269000000000233
1,13,1743,0.243999999999687
1,14,1738,0.248999999999796
1,15,1746,0.253000000000156
1,16,1744,0.235999999999876
1,17,1743,0.269000000000233
1,18,1737,0.244000000000142
1,19,1739,0.249000000000251
1,20,1749,0.251999999999953
1,21,1738,0.235000000000127
1,22,1733,0.288000000000011
1,23,1739,0.237999999999829
1,24,1740,0.242000000000189
1,25,1741,0.253999999999905
1,26,1741,0.26299999999992
1,27,1742,0.248000000000047
1,28,1742,0.268999999999778
1,29,1741,0.244999999999891
1,30,1743,0.25
2,1,1742,0.252000000000407
2,2,1728,0.235999999999876
2,3,1743,0.268999999999778
2,4,1740,0.245000000000346
2,5,1745,0.248999999999796
2,6,1737,0.253000000000156
2,7,1741,0.235999999999876
2,8,1733,0.268999999999778
2,9,1743,0.246000000000095
2,10,1741,0.249000000000251
2,11,1739,0.252999999999702
2,12,1737,0.236000000000331
2,13,1740,0.286999999999807
2,14,1729,0.239000000000033
2,15,1744,0.242000000000189
2,16,1744,0.253999999999905
2,17,1737,0.263999999999669
2,18,1744,0.249000000000251
2,19,1739,0.268999999999778
2,20,1745,0.244000000000142
2,21,1745,0.25
2,22,1736,0.253000000000156
2,23,1733,0.234999999999673
2,24,1743,0.269000000000233
2,25,1735,0.244000000000142
2,26,1748,0.25
2,27,1744,0.252999999999702
2,28,1739,0.235000000000127
2,29,1725,0.268999999999778
2,30,1745,0.244000000000142
3,1,1746,0.248999999999796
3,2,1740,0.253000000000156
3,3,1746,0.235000000000127
3,4,1744,0.288000000000011
3,5,1737,0.238999999999578
3,6,1746,0.240999999999985
3,7,1749,0.253000000000156
3,8,1746,0.26299999999992
3,9,1748,0.249000000000251
3,10,1748,0.268000000000029
3,11,1748,0.244000000000142
3,12,1742,0.249000000000251
3,13,1740,0.252999999999702
3,14,1736,0.235000000000127
3,15,1743,0.268000000000029
3,16,1747,0.244000000000142
3,17,1738,0.248999999999796
3,18,1747,0.253000000000156
3,19,1739,0.235999999999876
3,20,1740,0.268000000000029
3,21,1748,0.244999999999891
3,22,1738,0.249000000000251
3,23,1740,0.252999999999702
3,24,1744,0.236000000000331
3,25,1744,0.288000000000011
3,26,1746,0.237999999999829
3,27,1742,0.241999999999734
3,28,1742,0.253000000000156
3,29,1743,0.264000000000124
3,30,1744,0.248999999999796
4,1,1738,0.269000000000233
4,2,1722,0.244999999999891
4,3,1748,0.25
4,4,1739,0.251999999999953
4,5,1745,0.235999999999876
4,6,1735,0.269000000000233
4,7,1743,0.244000000000142
4,8,1746,0.25
4,9,1746,0.251999999999953
4,10,1744,0.235999999999876
4,11,1747,0.268999999999778
4,12,1736,0.242999999999938
4,13,1744,0.248999999999796
4,14,1737,0.253999999999905
4,15,1740,0.235000000000127
4,16,1742,0.286999999999807
4,17,1727,0.239000000000033
4,18,1743,0.242000000000189
4,19,1740,0.252999999999702
4,20,1745,0.264000000000124
4,21,1749,0.248999999999796
4,22,1732,0.269999999999982
4,23,1738,0.244000000000142
4,24,1744,0.249000000000251
4,25,1742,0.251999999999953
4,26,1747,0.235999999999876
4,27,1729,0.269000000000233
4,28,1737,0.244999999999891
4,29,1734,0.249000000000251
4,30,1727,0.252999999999702
5,1,1741,0.235000000000127
5,2,1743,0.268999999999778
5,3,1747,0.244000000000142
5,4,1740,0.248999999999796
5,5,1745,0.253000000000156
5,6,1736,0.235999999999876
5,7,1744,0.287000000000262
5,8,1746,0.237999999999829
5,9,1739,0.242000000000189
5,10,1739,0.253000000000156
5,11,1742,0.264000000000124
5,12,1737,0.248000000000047
5,13,1747,0.268000000000029
5,14,1740,0.244000000000142
5,15,1744,0.248999999999796
5,16,1744,0.253000000000156
5,17,1725,0.234999999999673
5,18,1740,0.269000000000233
5,19,1739,0.244000000000142
5,20,1746,0.25
5,21,1744,0.251999999999953
5,22,1746,0.235000000000127
5,23,1741,0.269000000000233
5,24,1746,0.243999999999687
5,25,1742,0.248999999999796
5,26,1746,0.251999999999953
5,27,1736,0.236000000000331
5,28,1743,0.288000000000011
5,29,1740,0.238999999999578
5,30,1739,0.24100000000044
6,1,1743,0.253999999999905
6,2,1744,0.263999999999669
6,3,1747,0.248000000000047
6,4,1740,0.269000000000233
6,5,1747,0.244999999999891
6,6,1744,0.25
6,7,1746,0.253000000000156
6,8,1746,0.234999999999673
6,9,1742,0.268000000000029
6,10,1745,0.244999999999891
6,11,1742,0.249000000000251
6,12,1743,0.252999999999702
6,13,1749,0.235000000000127
6,14,1745,0.269000000000233
6,15,1746,0.243999999999687
6,16,1744,0.248999999999796
6,17,1740,0.253000000000156
6,18,1744,0.235000000000127
6,19,1740,0.288000000000011
6,20,1744,0.237999999999829
6,21,1746,0.241999999999734
6,22,1746,0.253000000000156
6,23,1747,0.264000000000124
6,24,1746,0.248000000000047
6,25,1746,0.269999999999982
6,26,1747,0.244000000000142
6,27,1747,0.248999999999796
6,28,1749,0.253000000000156
6,29,1748,0.235999999999876
6,30,1747,0.269000000000233
7,1,1730,0.243999999999687
7,2,1736,0.249000000000251
7,3,1733,0.252999999999702
7,4,1741,0.236000000000331
7,5,1740,0.268999999999778
7,6,1742,0.244000000000142
7,7,1739,0.248999999999796
7,8,1745,0.253000000000156
7,9,1729,0.235999999999876
7,10,1741,0.287000000000262
7,11,1732,0.238000000000284
7,12,1735,0.241999999999734
7,13,1744,0.253000000000156
7,14,1727,0.263999999999669
7,15,1738,0.249000000000251
7,16,1741,0.268999999999778
7,17,1736,0.244000000000142
7,18,1736,0.249000000000251
7,19,1746,0.252999999999702
7,20,1741,0.235999999999876
7,21,1744,0.269000000000233
7,22,1740,0.244999999999891
7,23,1736,0.249000000000251
7,24,1738,0.252999999999702
7,25,1732,0.236000000000331
7,26,1747,0.268999999999778
7,27,1732,0.244000000000142
7,28,1747,0.25
7,29,1744,0.252999999999702
7,30,1729,0.235000000000127
8,1,1738,0.288000000000011
8,2,1739,0.238000000000284
8,3,1743,0.242000000000189
8,4,1741,0.252999999999702
8,5,1746,0.264000000000124
8,6,1741,0.248999999999796
8,7,1745,0.269000000000233
8,8,1742,0.244000000000142
8,9,1733,0.248999999999796
8,10,1741,0.253000000000156
8,11,1746,0.235999999999876
8,12,1739,0.269000000000233
8,13,1741,0.243999999999687
8,14,1746,0.249000000000251
8,15,1743,0.252999999999702
8,16,1746,0.236000000000331
8,17,1738,0.268999999999778
8,18,1732,0.244000000000142
8,19,1723,0.248999999999796
8,20,1741,0.253000000000156
8,21,1748,0.235999999999876
8,22,1736,0.286999999999807
8,23,1744,0.239000000000033
8,24,1741,0.240999999999985
8,25,1727,0.253999999999905
8,26,1745,0.264000000000124
8,27,1742,0.248000000000047
8,28,1741,0.268999999999778
8,29,1746,0.244000000000142
8,30,1738,0.248999999999796
9,1,1739,0.253000000000156
9,2,1745,0.234999999999673
9,3,1741,0.269000000000233
9,4,1742,0.244999999999891
9,5,1747,0.249000000000251
9,6,1740,0.252999999999702
9,7,1731,0.236000000000331
9,8,1743,0.268999999999778
9,9,1744,0.244000000000142
9,10,1737,0.248999999999796
9,11,1740,0.251999999999953
9,12,1733,0.235000000000127
9,13,1742,0.288000000000011
9,14,1746,0.237999999999829
9,15,1735,0.244000000000142
9,16,1742,0.253999999999905
9,17,1735,0.264000000000124
9,18,1734,0.249000000000251
9,19,1746,0.268999999999778
9,20,1738,0.244000000000142
9,21,1744,0.248999999999796
9,22,1733,0.251999999999953
9,23,1741,0.235999999999876
9,24,1745,0.269000000000233
9,25,1737,0.243999999999687
9,26,1748,0.249000000000251
9,27,1731,0.253000000000156
9,28,1735,0.235000000000127
9,29,1740,0.268999999999778
9,30,1741,0.244999999999891
10,1,1736,0.249000000000251
10,2,1737,0.251999999999953
10,3,1747,0.235000000000127
10,4,1735,0.288000000000011
10,5,1745,0.239000000000033
10,6,1739,0.240999999999985
10,7,1743,0.253999999999905
10,8,1749,0.264000000000124
10,9,1740,0.250999999999749
10,10,1734,0.269000000000233
10,11,1744,0.244999999999891
10,12,1733,0.25
10,13,1745,0.253000000000156
10,14,1741,0.235999999999876
10,15,1738,0.268999999999778
10,16,1745,0.244000000000142
10,17,1730,0.25
10,18,1741,0.251999999999953
10,19,1726,0.234999999999673
10,20,1742,0.269000000000233
10,21,1744,0.244000000000142
10,22,1733,0.249000000000251
10,23,1742,0.252999999999702
10,24,1739,0.235999999999876
10,25,1741,0.287000000000262
10,26,1744,0.239000000000033
10,27,1731,0.241999999999734
10,28,1745,0.253000000000156
10,29,1745,0.264999999999873
10,30,1743,0.249000000000251
11,1,1745,0.268999999999778
11,2,1743,0.244000000000142
11,3,1742,0.248999999999796
11,4,1735,0.251999999999953
11,5,1743,0.235999999999876
11,6,1742,0.269000000000233
11,7,1743,0.244000000000142
11,8,1747,0.25
11,9,1747,0.252999999999702
11,10,1739,0.235000000000127
11,11,1731,0.268999999999778
11,12,1735,0.244000000000142
11,13,1747,0.25
11,14,1744,0.253000000000156
11,15,1747,0.235999999999876
11,16,1746,0.286999999999807
11,17,1737,0.239000000000033
11,18,1739,0.242000000000189
11,19,1746,0.253999999999905
11,20,1746,0.26299999999992
11,21,1744,0.248000000000047
11,22,1743,0.268999999999778
11,23,1734,0.244000000000142
11,24,1740,0.25
11,25,1743,0.251999999999953
11,26,1748,0.235999999999876
11,27,1744,0.269000000000233
11,28,1740,0.243999999999687
11,29,1744,0.249000000000251
11,30,1747,0.253000000000156
12,1,1745,0.235999999999876
12,2,1747,0.268999999999778
12,3,1747,0.244000000000142
12,4,1747,0.248999999999796
12,5,1747,0.251999999999953
12,6,1748,0.235999999999876
12,7,1739,0.287000000000262
12,8,1746,0.239000000000033
12,9,1748,0.241999999999734
12,10,1743,0.253000000000156
12,11,1749,0.264000000000124
12,12,1745,0.248000000000047
12,13,1746,0.269000000000233
12,14,1742,0.243999999999687
12,15,1743,0.249000000000251
12,16,1745,0.252999999999702
12,17,1748,0.235000000000127
12,18,1747,0.269000000000233
12,19,1746,0.243999999999687
12,20,1748,0.25
12,21,1743,0.253000000000156
12,22,1738,0.235999999999876
12,23,1746,0.268000000000029
12,24,1746,0.243999999999687
12,25,1744,0.249000000000251
12,26,1749,0.251999999999953
12,27,1738,0.234999999999673
12,28,1746,0.288000000000011
12,29,1748,0.238000000000284
12,30,1745,0.240999999999985
13,1,1739,0.253999999999905
13,2,1737,0.264000000000124
13,3,1748,0.249000000000251
13,4,1740,0.268999999999778
13,5,1740,0.244000000000142
13,6,1745,0.248999999999796
13,7,1746,0.251999999999953
13,8,1746,0.235999999999876
13,9,1744,0.269000000000233
13,10,1747,0.243999999999687
13,11,1740,0.25
13,12,1740,0.251999999999953
13,13,1745,0.235000000000127
13,14,1735,0.268999999999778
13,15,1746,0.244000000000142
13,16,1739,0.248999999999796
13,17,1735,0.253000000000156
13,18,1743,0.235000000000127
13,19,1746,0.288000000000011
13,20,1744,0.239000000000033
13,21,1744,0.241999999999734
13,22,1745,0.253000000000156
13,23,1746,0.264000000000124
13,24,1747,0.248999999999796
13,25,1744,0.269000000000233
13,26,1746,0.243999999999687
13,27,1745,0.253999999999905
13,28,1743,0.253999999999905
13,29,1740,0.235000000000127
13,30,1744,0.269999999999982
14,1,1746,0.244000000000142
14,2,1735,0.25
14,3,1741,0.252999999999702
14,4,1738,0.236000000000331
14,5,1741,0.268999999999778
14,6,1737,0.244000000000142
14,7,1747,0.249000000000251
14,8,1735,0.253999999999905
14,9,1745,0.235999999999876
14,10,1746,0.288000000000011
14,11,1745,0.238000000000284
14,12,1739,0.241999999999734
14,13,1745,0.253999999999905
14,14,1749,0.264000000000124
14,15,1746,0.249000000000251
14,16,1742,0.269999999999982
14,17,1743,0.243999999999687
14,18,1742,0.25
14,19,1735,0.253000000000156
14,20,1743,0.235000000000127
14,21,1748,0.268999999999778
14,22,1747,0.243999999999687
14,23,1743,0.25
14,24,1746,0.253000000000156
14,25,1742,0.235000000000127
14,26,1749,0.269999999999982
14,27,1744,0.244000000000142
14,28,1746,0.248999999999796
14,29,1744,0.252999999999702
14,30,1747,0.235000000000127
15,1,1744,0.288000000000011
15,2,1734,0.239000000000033
15,3,1740,0.240999999999985
15,4,1728,0.253000000000156
15,5,1744,0.264000000000124
15,6,1737,0.25
15,7,1747,0.269999999999982
15,8,1740,0.244000000000142
15,9,1748,0.248999999999796
15,10,1741,0.252999999999702
15,11,1737,0.235000000000127
15,12,1742,0.269999999999982
15,13,1741,0.244000000000142
15,14,1742,0.25
15,15,1748,0.252999999999702
15,16,1743,0.236000000000331
15,17,1741,0.268999999999778
15,18,1741,0.244999999999891
15,19,1743,0.25
15,20,1740,0.253000000000156
15,21,1748,0.235000000000127
15,22,1747,0.287000000000262
15,23,1742,0.238000000000284
15,24,1747,0.241999999999734
15,25,1743,0.253999999999905
15,26,1740,0.264000000000124
15,27,1740,0.249000000000251
15,28,1734,0.269999999999982
15,29,1739,0.243999999999687
15,30,1746,0.25
16,1,1732,0.253000000000156
16,2,1736,0.235999999999876
16,3,1740,0.269999999999982
16,4,1730,0.244000000000142
16,5,1748,0.25
16,6,1731,0.253000000000156
16,7,1739,0.234999999999673
16,8,1737,0.268999999999778
16,9,1739,0.244000000000142
16,10,1737,0.25
16,11,1740,0.252999999999702
16,12,1722,0.235000000000127
16,13,1739,0.286999999999807
16,14,1741,0.237999999999829
16,15,1740,0.242000000000189
16,16,1742,0.253000000000156
16,17,1720,0.264000000000124
16,18,1735,0.248999999999796
16,19,1739,0.269999999999982
16,20,1744,0.244000000000142
16,21,1746,0.25
16,22,1730,0.252999999999702
16,23,1730,0.235000000000127
16,24,1742,0.269999999999982
16,25,1741,0.244000000000142
16,26,1743,0.25
16,27,1729,0.252999999999702
16,28,1739,0.235000000000127
16,29,1737,0.269999999999982
16,30,1746,0.243999999999687
17,1,1740,0.25
17,2,1738,0.253000000000156
17,3,1742,0.235999999999876
17,4,1735,0.287000000000262
17,5,1747,0.239000000000033
17,6,1746,0.241999999999734
17,7,1743,0.253000000000156
17,8,1747,0.264000000000124
17,9,1747,0.249000000000251
17,10,1736,0.269000000000233
17,11,1742,0.244999999999891
17,12,1738,0.25
17,13,1743,0.252999999999702
17,14,1746,0.236000000000786
17,15,1746,0.269999999999527
17,16,1739,0.243999999999687
17,17,1739,0.248999999999796
17,18,1730,0.254000000000815
17,19,1740,0.235999999999876
17,20,1743,0.269999999999527
17,21,1745,0.244000000000597
17,22,1747,0.25
17,23,1742,0.253999999999905
17,24,1745,0.235999999999876
17,25,1740,0.287999999999556
17,26,1746,0.239000000000487
17,27,1744,0.242000000000189
17,28,1747,0.253999999999905
17,29,1736,0.264999999999418
17,30,1742,0.25
18,1,1732,0.270000000000437
18,2,1731,0.243999999999687
18,3,1744,0.25
18,4,1734,0.253999999999905
18,5,1744,0.23700000000008
18,6,1737,0.269000000000233
18,7,1746,0.244000000000597
18,8,1744,0.25
18,9,1739,0.253999999999905
18,10,1738,0.235999999999876
18,11,1737,0.270000000000437
18,12,1730,0.243999999999687
18,13,1744,0.25
18,14,1744,0.252999999999702
18,15,1742,0.235999999999876
18,16,1743,0.288000000000466
18,17,1741,0.238999999999578
18,18,1729,0.242000000000189
18,19,1718,0.253999999999905
18,20,1745,0.265000000000327
18,21,1738,0.248999999999796
18,22,1741,0.269999999999527
18,23,1742,0.244000000000597
18,24,1744,0.25
18,25,1739,0.252999999999702
18,26,1747,0.235999999999876
18,27,1740,0.270000000000437
18,28,1740,0.244999999999891
18,29,1747,0.25
18,30,1744,0.252999999999702
19,1,1741,0.235999999999876
19,2,1745,0.270000000000437
19,3,1739,0.243999999999687
19,4,1745,0.248999999999796
19,5,1746,0.253999999999905
19,6,1742,0.235999999999876
19,7,1738,0.288000000000466
19,8,1742,0.238999999999578
19,9,1745,0.242000000000189
19,10,1741,0.253999999999905
19,11,1743,0.264000000000124
19,12,1741,0.248999999999796
19,13,1744,0.269999999999527
19,14,1748,0.244000000000597
19,15,1744,0.248999999999796
19,16,1748,0.252999999999702
19,17,1733,0.234999999999673
19,18,1740,0.269000000000233
19,19,1741,0.243999999999687
19,20,1743,0.25
19,21,1742,0.252999999999702
19,22,1738,0.235999999999876
19,23,1740,0.270000000000437
19,24,1747,0.243999999999687
19,25,1739,0.25
19,26,1748,0.252999999999702
19,27,1744,0.235999999999876
19,28,1745,0.287000000000262
19,29,1744,0.238000000000284
19,30,1746,0.24199999999928
20,1,1734,0.254000000000815
20,2,1736,0.264999999999418
20,3,1742,0.248999999999796
20,4,1745,0.270000000000437
20,5,1743,0.243999999999687
20,6,1739,0.25
20,7,1728,0.253999999999905
20,8,1744,0.235000000000582
20,9,1735,0.269000000000233
20,10,1725,0.244999999999891
20,11,1736,0.25
20,12,1734,0.253000000000611
20,13,1744,0.235999999999876
20,14,1732,0.269999999999527
20,15,1741,0.244000000000597
20,16,1747,0.25
20,17,1739,0.253999999999905
20,18,1740,0.235999999999876
20,19,1735,0.28899999999976
20,20,1744,0.239000000000487
20,21,1747,0.24199999999928
20,22,1735,0.254000000000815
20,23,1740,0.264999999999418
20,24,1742,0.248999999999796
20,25,1745,0.270000000000437
20,26,1742,0.243999999999687
20,27,1729,0.25
20,28,1734,0.252999999999702
20,29,1746,0.236000000000786
20,30,1736,0.269999999999527
21,1,1745,0.243999999999687
21,2,1737,0.25
21,3,1745,0.252999999999702
21,4,1738,0.236000000000786
21,5,1741,0.269999999999527
21,6,1739,0.243999999999687
21,7,1748,0.25
21,8,1744,0.253000000000611
21,9,1746,0.235999999999876
21,10,1740,0.287999999999556
21,11,1744,0.239000000000487
21,12,1739,0.24199999999928
21,13,1744,0.254000000000815
21,14,1736,0.264999999999418
21,15,1747,0.248999999999796
21,16,1741,0.270000000000437
21,17,1732,0.244999999999891
21,18,1745,0.25
21,19,1748,0.252999999999702
21,20,1742,0.236000000000786
21,21,1746,0.269999999999527
21,22,1746,0.244999999999891
21,23,1740,0.25
21,24,1744,0.253000000000611
21,25,1745,0.235999999999876
21,26,1746,0.272999999999229
21,27,1745,0.2450000000008
21,28,1746,0.25
21,29,1742,0.252999999999702
21,30,1740,0.235999999999876
22,1,1749,0.287999999999556
22,2,1733,0.239000000000487
22,3,1745,0.242000000000189
22,4,1736,0.253999999999905
22,5,1743,0.265000000000327
22,6,1740,0.248999999999796
22,7,1743,0.270000000000437
22,8,1736,0.243999999999687
22,9,1744,0.25
22,10,1748,0.252999999999702
22,11,1741,0.235999999999876
22,12,1734,0.270000000000437
22,13,1744,0.243999999999687
22,14,1740,0.251000000000204
22,15,1742,0.252999999999702
22,16,1741,0.236000000000786
22,17,1729,0.269999999999527
22,18,1740,0.243999999999687
22,19,1741,0.25
22,20,1740,0.253000000000611
22,21,1748,0.235999999999876
22,22,1744,0.287999999999556
22,23,1741,0.239000000000487
22,24,1748,0.24199999999928
22,25,1744,0.254000000000815
22,26,1749,0.264999999999418
22,27,1746,0.248999999999796
22,28,1743,0.270000000000437
22,29,1739,0.244999999999891
22,30,1734,0.25
23,1,1735,0.252999999999702
23,2,1741,0.235999999999876
23,3,1743,0.270000000000437
23,4,1739,0.243999999999687
23,5,1749,0.25
23,6,1742,0.252999999999702
23,7,1741,0.235999999999876
23,8,1745,0.27100000000064
23,9,1746,0.243999999999687
23,10,1740,0.25
23,11,1745,0.253999999999905
23,12,1737,0.235999999999876
23,13,1747,0.288000000000466
23,14,1742,0.238999999999578
23,15,1745,0.242000000000189
23,16,1742,0.253999999999905
23,17,1738,0.264000000000124
23,18,1745,0.248999999999796
23,19,1735,0.269999999999527
23,20,1747,0.244000000000597
23,21,1745,0.25
23,22,1735,0.253999999999905
23,23,1735,0.234999999999673
23,24,1742,0.27100000000064
23,25,1741,0.243999999999687
23,26,1748,0.25
23,27,1734,0.252999999999702
23,28,1745,0.23700000000008
23,29,1740,0.270000000000437
23,30,1737,0.243999999999687
24,1,1746,0.25
24,2,1738,0.252999999999702
24,3,1748,0.235999999999876
24,4,1743,0.288000000000466
24,5,1747,0.238999999999578
24,6,1738,0.242000000000189
24,7,1741,0.253999999999905
24,8,1737,0.264000000000124
24,9,1732,0.248999999999796
24,10,1743,0.269000000000233
24,11,1740,0.243999999999687
24,12,1742,0.25
24,13,1748,0.252999999999702
24,14,1741,0.236000000000786
24,15,1743,0.269999999999527
24,16,1749,0.243999999999687
24,17,1741,0.251000000000204
24,18,1739,0.252999999999702
24,19,1736,0.235000000000582
24,20,1743,0.269999999999527
24,21,1743,0.244999999999891
24,22,1733,0.25
24,23,1746,0.253000000000611
24,24,1745,0.235999999999876
24,25,1735,0.287999999999556
24,26,1748,0.239000000000487
24,27,1739,0.24199999999928
24,28,1749,0.254000000000815
24,29,1742,0.263999999999214
24,30,1741,0.25
25,1,1733,0.270000000000437
25,2,1736,0.244999999999891
25,3,1736,0.25
25,4,1744,0.252999999999702
25,5,1742,0.236000000000786
25,6,1737,0.269999999999527
25,7,1740,0.244999999999891
25,8,1733,0.25
25,9,1744,0.253999999999905
25,10,1745,0.235999999999876
25,11,1740,0.270000000000437
25,12,1738,0.243999999999687
25,13,1742,0.251000000000204
25,14,1734,0.252999999999702
25,15,1741,0.236000000000786
25,16,1739,0.287999999999556
25,17,1741,0.238999999999578
25,18,1738,0.242000000000189
25,19,1734,0.253999999999905
25,20,1741,0.265000000000327
25,21,1742,0.248999999999796
25,22,1737,0.270000000000437
25,23,1739,0.243999999999687
25,24,1746,0.25
25,25,1731,0.252999999999702
25,26,1749,0.236000000000786
25,27,1738,0.269999999999527
25,28,1739,0.243999999999687
25,29,1744,0.25
25,30,1721,0.254000000000815
26,1,1736,0.235999999999876
26,2,1741,0.269999999999527
26,3,1746,0.246000000000095
26,4,1746,0.25
26,5,1733,0.253999999999905
26,6,1741,0.235999999999876
26,7,1741,0.288000000000466
26,8,1747,0.238999999999578
26,9,1731,0.242000000000189
26,10,1746,0.253999999999905
26,11,1729,0.265000000000327
26,12,1734,0.248999999999796
26,13,1745,0.270999999999731
26,14,1738,0.244000000000597
26,15,1747,0.25
26,16,1742,0.253999999999905
26,17,1741,0.235999999999876
26,18,1744,0.269999999999527
26,19,1739,0.244000000000597
26,20,1738,0.25
26,21,1743,0.252999999999702
26,22,1740,0.235999999999876
26,23,1746,0.270000000000437
26,24,1742,0.243999999999687
26,25,1744,0.251000000000204
26,26,1748,0.252999999999702
26,27,1743,0.235999999999876
26,28,1739,0.288000000000466
26,29,1747,0.240999999999985
26,30,1743,0.24199999999928
27,1,1736,0.254000000000815
27,2,1739,0.263999999999214
27,3,1740,0.248999999999796
27,4,1724,0.269000000000233
27,5,1748,0.243999999999687
27,6,1738,0.25
27,7,1738,0.252999999999702
27,8,1747,0.235999999999876
27,9,1741,0.270000000000437
27,10,1736,0.244999999999891
27,11,1738,0.25
27,12,1729,0.252999999999702
27,13,1745,0.236000000000786
27,14,1743,0.269999999999527
27,15,1744,0.243999999999687
27,16,1747,0.25
27,17,1736,0.253000000000611
27,18,1738,0.235999999999876
27,19,1729,0.28899999999976
27,20,1740,0.238000000000284
27,21,1743,0.240999999999985
27,22,1735,0.253000000000611
27,23,1739,0.264999999999418
27,24,1738,0.249000000000706
27,25,1742,0.269999999999527
27,26,1745,0.244999999999891
27,27,1723,0.249000000000706
27,28,1736,0.253999999999905
27,29,1738,0.235999999999876
27,30,1741,0.269999999999527
28,1,1748,0.244000000000597
28,2,1747,0.25
28,3,1749,0.253999999999905
28,4,1746,0.235999999999876
28,5,1749,0.269999999999527
28,6,1747,0.244000000000597
28,7,1748,0.25
28,8,1744,0.252999999999702
28,9,1749,0.235999999999876
28,10,1748,0.28899999999976
28,11,1749,0.239000000000487
28,12,1747,0.242000000000189
28,13,1749,0.253999999999905
28,14,1747,0.264999999999418
28,15,1749,0.249000000000706
28,16,1744,0.270000000000437
28,17,1748,0.243999999999687
28,18,1748,0.25
28,19,1748,0.253000000000611
28,20,1749,0.235999999999876
28,21,1747,0.269999999999527
28,22,1749,0.244999999999891
28,23,1748,0.25
28,24,1749,0.253000000000611
28,25,1747,0.235999999999876
28,26,1734,0.269999999999527
28,27,1748,0.244000000000597
28,28,1748,0.25
28,29,1748,0.252999999999702
28,30,1749,0.235999999999876
29,1,1736,0.287999999999556
29,2,1739,0.239000000000487
29,3,1736,0.242000000000189
29,4,1743,0.253999999999905
29,5,1740,0.264000000000124
29,6,1745,0.249000000000706
29,7,1743,0.269999999999527
29,8,1745,0.244000000000597
29,9,1738,0.25
29,10,1738,0.252999999999702
29,11,1745,0.235999999999876
29,12,1741,0.270000000000437
29,13,1747,0.243999999999687
29,14,1743,0.248999999999796
29,15,1742,0.252999999999702
29,16,1744,0.234999999999673
29,17,1724,0.269000000000233
29,18,1745,0.243999999999687
29,19,1736,0.25
29,20,1741,0.252999999999702
29,21,1744,0.235999999999876
29,22,1742,0.288000000000466
29,23,1741,0.238999999999578
29,24,1749,0.242000000000189
29,25,1734,0.253999999999905
29,26,1746,0.264000000000124
29,27,1748,0.248999999999796
29,28,1743,0.270000000000437
29,29,1743,0.243999999999687
29,30,1738,0.248999999999796
30,1,1739,0.252999999999702
30,2,1744,0.234999999999673
30,3,1744,0.270000000000437
30,4,1724,0.243999999999687
30,5,1746,0.25
30,6,1740,0.252999999999702
30,7,1748,0.236000000000786
30,8,1740,0.269999999999527
30,9,1744,0.243999999999687
30,10,1734,0.25
30,11,1742,0.253000000000611
30,12,1746,0.235999999999876
30,13,1739,0.287999999999556
30,14,1740,0.239000000000487
30,15,1748,0.24199999999928
30,16,1747,0.254000000000815
30,17,1739,0.264999999999418
30,18,1733,0.248999999999796
30,19,1745,0.270000000000437
30,20,1735,0.244999999999891
30,21,1746,0.248999999999796
30,22,1745,0.252999999999702
30,23,1739,0.236000000000786
30,24,1744,0.269999999999527
30,25,1744,0.243999999999687
30,26,1746,0.25
30,27,1739,0.252999999999702
30,28,1744,0.236000000000786
30,29,1745,0.269999999999527
30,30,1741,0.243999999999687
