"Before.Trace.ID1","Before.Trace.ID2","Difference","Runtime"
1,2,0.0386805739320548,0.00199999999995271
1,3,0.0573377353372038,0.00199999999995271
1,4,0.0683617113618978,0.00199999999995271
1,5,0.0393473642466109,0.00199999999995271
1,6,0.0153295310071376,0.00199999999995271
1,7,0.0908679384326853,0.00199999999995271
1,8,0.0513507562352382,0.00200000000040745
1,9,0.129279003088257,0.00199999999995271
1,10,0.101803558006903,0.00199999999995271
1,11,0.088230935879984,0.00199999999995271
1,12,0.0128019243671527,0.00199999999995271
1,13,0.0234688744221067,0.00199999999995271
1,14,0.023686048573622,0.00199999999995271
1,15,0.0540287630021705,0.00199999999995271
1,16,0.0113066681012045,0.00199999999995271
1,17,0.0753635941491364,0.00199999999995271
1,18,0.0095895237842738,0.00200000000040745
1,19,0.0299096313736001,0.00199999999995271
1,20,0.0173221027457044,0.00199999999995271
1,21,0.0198289591564884,0.00199999999995271
1,22,0.0229761110380507,0.00199999999995271
1,23,0.0169383148113436,0.00199999999995271
1,24,0.118010313808993,0.00199999999995271
1,25,0.106225585874117,0.00199999999995271
1,26,0.0239974275407665,0.00199999999995271
1,27,0.0550409786426977,0.00199999999995271
1,28,0.0137958855449198,0.00200000000040745
1,29,0.0100196030063694,0.00199999999995271
1,30,0.0119971175779434,0.00199999999995271
2,3,0.0612341600693145,0.00199999999995271
2,4,0.0620020274056217,0.00199999999995271
2,5,0.00990773609189098,0.00199999999995271
2,6,0.032164257863779,0.00199999999995271
2,7,0.064215679749675,0.00199999999995271
2,8,0.0689665013808536,0.00199999999995271
2,9,0.097053811477763,0.00200000000040745
2,10,0.0658528898407068,0.00199999999995271
2,11,0.0515583332737752,0.00199999999995271
2,12,0.0423229944613449,0.00199999999995271
2,13,0.0608201411266296,0.00199999999995271
2,14,0.0164779240705387,0.00199999999995271
2,15,0.0595758806456295,0.00199999999995271
2,16,0.0352786468702323,0.00199999999995271
2,17,0.0599303577389011,0.00199999999995271
2,18,0.0379125017473434,0.00199999999995271
2,19,0.0165957780716113,0.00200000000040745
2,20,0.0278011208874649,0.00599999999985812
2,21,0.036469041181253,0.00199999999995271
2,22,0.0223522177635242,0.00199999999995271
2,23,0.047173625249388,0.00199999999995271
2,24,0.0850752130084672,0.00199999999995271
2,25,0.0787935879425652,0.00199999999995271
2,26,0.020637328778857,0.00200000000040745
2,27,0.0608561826597104,0.00199999999995271
2,28,0.0436858880611547,0.00199999999995271
2,29,0.031574397251945,0.00199999999995271
2,30,0.0471325300389278,0.00199999999995271
3,4,0.0615183651923082,0.00199999999995271
3,5,0.06032334893474,0.00199999999995271
3,6,0.0535551430107236,0.00199999999995271
3,7,0.076682434278016,0.00199999999995271
3,8,0.0316044121621354,0.00199999999995271
3,9,0.113522318916373,0.00200000000040745
3,10,0.100078565805789,0.00199999999995271
3,11,0.0918665429169403,0.00199999999995271
3,12,0.0577573506594863,0.00199999999995271
3,13,0.0657602606577422,0.00199999999995271
3,14,0.0581797400814077,0.00199999999995271
3,15,0.0129581260618055,0.00199999999995271
3,16,0.0557590003891678,0.00199999999995271
3,17,0.0368959252005699,0.00199999999995271
3,18,0.0540114523789256,0.00199999999995271
3,19,0.0544650088423111,0.00200000000040745
3,20,0.0539925663741423,0.00199999999995271
3,21,0.0623754132728309,0.00199999999995271
3,22,0.0546809308428583,0.00199999999995271
3,23,0.054848989021365,0.00199999999995271
3,24,0.103611979455083,0.00199999999995271
3,25,0.0917713212566526,0.00199999999995271
3,26,0.0595922570336699,0.00199999999995271
3,27,0.028864940624737,0.00199999999995271
3,28,0.0556495367413384,0.00200000000040745
3,29,0.0552826774937103,0.00199999999995271
3,30,0.0601429670722232,0.00199999999995271
4,5,0.0666911579737218,0.00199999999995271
4,6,0.0628626265948424,0.00199999999995271
4,7,0.0494254153033472,0.00199999999995271
4,8,0.0683652724419276,0.00199999999995271
4,9,0.100313481066121,0.00199999999995271
4,10,0.0995678110879318,0.00199999999995271
4,11,0.0798615601764654,0.00199999999995271
4,12,0.0658145478874072,0.00200000000040745
4,13,0.0766915486667111,0.00199999999995271
4,14,0.065912285320536,0.00199999999995271
4,15,0.0606719092801729,0.00199999999995271
4,16,0.064721931698125,0.00199999999995271
4,17,0.0611932297650445,0.00199999999995271
4,18,0.0606666389522326,0.00199999999995271
4,19,0.0613116249602828,0.00199999999995271
4,20,0.0616029492085314,0.00199999999995271
4,21,0.0621765821762934,0.00199999999995271
4,22,0.0583120835862261,0.00200000000040745
4,23,0.0651989433682906,0.00199999999995271
4,24,0.0810912755328171,0.00199999999995271
4,25,0.0661169871522475,0.00199999999995271
4,26,0.0649305763120485,0.00199999999995271
4,27,0.0654283400567261,0.00199999999995271
4,28,0.0670763453314911,0.00199999999995271
4,29,0.0622571897210157,0.00600000000031287
4,30,0.067399225460551,0.00199999999995271
5,6,0.0308555284164213,0.00199999999995271
5,7,0.0664647113952165,0.00199999999995271
5,8,0.0704229323674907,0.00199999999995271
5,9,0.0970963998450586,0.00199999999995271
5,10,0.0643703101946205,0.00199999999995271
5,11,0.0539765001789193,0.00199999999995271
5,12,0.0428607379443987,0.00199999999995271
5,13,0.0621464593796377,0.00199999999995271
5,14,0.0171305859887268,0.00200000000040745
5,15,0.0602031190523808,0.00199999999995271
5,16,0.0362026041635315,0.00199999999995271
5,17,0.0606512211685644,0.00199999999995271
5,18,0.0392639206881211,0.00199999999995271
5,19,0.0134413447869106,0.00199999999995271
5,20,0.0279434176603523,0.00199999999995271
5,21,0.039688586662799,0.00199999999995271
5,22,0.0239713980760068,0.00100000000020373
5,23,0.0471440492415556,0.00100000000020373
5,24,0.0866391278692785,0.000999999999748979
5,25,0.0811198462703404,0.00199999999995271
5,26,0.0245700983390244,0.00199999999995271
5,27,0.0630350063208228,0.00199999999995271
5,28,0.0441522799665008,0.00199999999995271
5,29,0.0331958818205602,0.00200000000040745
5,30,0.0485514507937689,0.00199999999995271
6,7,0.0820590096434432,0.00199999999995271
6,8,0.0546105514928862,0.00199999999995271
6,9,0.120168470932005,0.00199999999995271
6,10,0.0934198338603617,0.00199999999995271
6,11,0.0813231420532331,0.00199999999995271
6,12,0.0161948906758392,0.00199999999995271
6,13,0.0358589055010479,0.00199999999995271
6,14,0.019177002853381,0.00200000000040745
6,15,0.0528432356535481,0.00199999999995271
6,16,0.0128973917671466,0.00199999999995271
6,17,0.070297336973412,0.00199999999995271
6,18,0.0142483750800111,0.00199999999995271
6,19,0.020308382401793,0.00199999999995271
6,20,0.0115749393513287,0.00199999999995271
6,21,0.0210976046023314,0.00199999999995271
6,22,0.0183139289482854,0.00199999999995271
6,23,0.0206168309520611,0.00199999999995271
6,24,0.108500348503459,0.00200000000040745
6,25,0.0979066331848227,0.00199999999995271
6,26,0.023929907826466,0.00199999999995271
6,27,0.0573202311990436,0.00199999999995271
6,28,0.0216831417080833,0.00199999999995271
6,29,0.012196461043307,0.00199999999995271
6,30,0.0215923752578275,0.00199999999995271
7,8,0.0956275386021268,0.00199999999995271
7,9,0.0535345694574658,0.00199999999995271
7,10,0.062396178039054,0.00199999999995271
7,11,0.049711789945376,0.00200000000040745
7,12,0.091599550914992,0.00199999999995271
7,13,0.10683893797592,0.00199999999995271
7,14,0.0766836247250432,0.00199999999995271
7,15,0.0784921026960887,0.00199999999995271
7,16,0.0871045300340175,0.00199999999995271
7,17,0.0542686348581127,0.00199999999995271
7,18,0.0857244379985496,0.00199999999995271
7,19,0.068316653825121,0.00199999999995271
7,20,0.0792552923671949,0.00600000000031287
7,21,0.08754438168345,0.00199999999995271
7,22,0.0730467963286939,0.00199999999995271
7,23,0.0914917578085081,0.00199999999995271
7,24,0.0366299079312344,0.00199999999995271
7,25,0.0242176820134584,0.00199999999995271
7,26,0.0783927451726659,0.00199999999995271
7,27,0.0844034048637788,0.00199999999995271
7,28,0.0914488494392574,0.00200000000040745
7,29,0.083408598256754,0.000999999999748979
7,30,0.0954712746524507,0.000999999999748979
8,9,0.134507072742337,0.000999999999748979
8,10,0.119154612796211,0.00199999999995271
8,11,0.105911443925462,0.00100000000020373
8,12,0.0532140630101711,0.00100000000020373
8,13,0.0508263639300734,0.00100000000020373
8,14,0.0611777774324744,0.00100000000020373
8,15,0.0229470753717699,0.00100000000020373
8,16,0.0528613892053008,0.00199999999995271
8,17,0.0585016735438833,0.00199999999995271
8,18,0.0498622790324934,0.00199999999995271
8,19,0.0619486014291188,0.00199999999995271
8,20,0.0557006118759871,0.00199999999995271
8,21,0.0574561212729247,0.00199999999995271
8,22,0.0556512165640805,0.00199999999995271
8,23,0.0479951905303074,0.00199999999995271
8,24,0.123200761023292,0.00199999999995271
8,25,0.110306509407975,0.00100000000020373
8,26,0.0585546220704097,0.00199999999995271
8,27,0.0264508350181867,0.00199999999995271
8,28,0.0512498398754189,0.00199999999995271
8,29,0.0528777261476222,0.00199999999995271
8,30,0.0508465587771619,0.00199999999995271
9,10,0.0510552232857419,0.00199999999995271
9,11,0.0612416383476437,0.00100000000020373
9,12,0.13304077864169,0.00100000000020373
9,13,0.14727769865943,0.00100000000020373
9,14,0.110753620952239,0.00199999999995271
9,15,0.116102442661678,0.00199999999995271
9,16,0.125658224819112,0.00199999999995271
9,17,0.0827649550542037,0.00199999999995271
9,18,0.126951757265847,0.00199999999995271
9,19,0.102270906218958,0.00200000000040745
9,20,0.118196911962749,0.00199999999995271
9,21,0.128653362881385,0.00199999999995271
9,22,0.110862303976964,0.00199999999995271
9,23,0.130627108849809,0.00199999999995271
9,24,0.0349604832647156,0.00199999999995271
9,25,0.0413387010399404,0.00199999999995271
9,26,0.112409551760817,0.00199999999995271
9,27,0.122548859254966,0.00199999999995271
9,28,0.131656667857296,0.00199999999995271
9,29,0.122142993089852,0.00200000000040745
9,30,0.13698065263521,0.00199999999995271
10,11,0.0375758811495998,0.00199999999995271
10,12,0.106361336938443,0.00199999999995271
10,13,0.123150137601591,0.00199999999995271
10,14,0.0797948519972879,0.00199999999995271
10,15,0.101701025584141,0.00199999999995271
10,16,0.098024887680064,0.00199999999995271
10,17,0.0759150905841692,0.00199999999995271
10,18,0.101615434048681,0.00200000000040745
10,19,0.0742119688840218,0.00199999999995271
10,20,0.0899820854193808,0.00599999999985812
10,21,0.101920440546372,0.00199999999995271
10,22,0.0845486543853355,0.00199999999995271
10,23,0.107957267160367,0.00199999999995271
10,24,0.0563079506320906,0.00199999999995271
10,25,0.0620175518461804,0.00199999999995271
10,26,0.0828345006455441,0.00200000000040745
10,27,0.106084389489631,0.00199999999995271
10,28,0.105925538644939,0.00199999999995271
10,29,0.0949475764406429,0.00199999999995271
10,30,0.111388216759235,0.00199999999995271
11,12,0.0917544913632424,0.00199999999995271
11,13,0.108118248903247,0.00199999999995271
11,14,0.0670685106820132,0.00199999999995271
11,15,0.0910665565110499,0.00199999999995271
11,16,0.0860911510046162,0.00200000000040745
11,17,0.0687734513495434,0.00199999999995271
11,18,0.0866845293836716,0.00199999999995271
11,19,0.062223533744331,0.00199999999995271
11,20,0.0777554455935311,0.00199999999995271
11,21,0.0839275908943043,0.00199999999995271
11,22,0.0683056634674978,0.00199999999995271
11,23,0.0935662393749284,0.00199999999995271
11,24,0.0503907210226403,0.00199999999995271
11,25,0.0567191125088832,0.00199999999995271
11,26,0.0689445379938907,0.00200000000040745
11,27,0.0910118439198151,0.00199999999995271
11,28,0.0913658560853218,0.00199999999995271
11,29,0.0815903299342932,0.00199999999995271
11,30,0.0957817815310345,0.000999999999748979
12,13,0.0265784984601656,0.00100000000020373
12,14,0.0289611744453455,0.00100000000020373
12,15,0.0556124315156667,0.00100000000020373
12,16,0.0139104049106342,0.00100000000020373
12,17,0.0783358032189929,0.00199999999995271
12,18,0.00846091952507057,0.00100000000020373
12,19,0.0340341083098453,0.00199999999995271
12,20,0.017840779203861,0.000999999999748979
12,21,0.0160291582565642,0.000999999999748979
12,22,0.0266764947302952,0.000999999999748979
12,23,0.0199770131415826,0.00100000000020373
12,24,0.119316265564925,0.00100000000020373
12,25,0.108475416981414,0.00100000000020373
12,26,0.0311573208647362,0.00199999999995271
12,27,0.0567682765804763,0.00199999999995271
12,28,0.0147188098076182,0.00199999999995271
12,29,0.0150922245649561,0.00199999999995271
12,30,0.00991074056823891,0.00199999999995271
13,14,0.0464625328458105,0.00199999999995271
13,15,0.0613181649385926,0.00199999999995271
13,16,0.0308733661351179,0.00200000000040745
13,17,0.0887998053310112,0.00199999999995271
13,18,0.0261159547719891,0.00199999999995271
13,19,0.0516578058856736,0.00199999999995271
13,20,0.0391037388627473,0.00199999999995271
13,21,0.0346163460786456,0.00199999999995271
13,22,0.0437139474248591,0.00199999999995271
13,23,0.022467162795523,0.00199999999995271
13,24,0.13650491349021,0.00199999999995271
13,25,0.121588821031375,0.00200000000040745
13,26,0.0447569732507374,0.00199999999995271
13,27,0.0607791080008143,0.00199999999995271
13,28,0.0230764209201883,0.00599999999985812
13,29,0.0309168817386714,0.00199999999995271
13,30,0.0181186778897765,0.00199999999995271
14,15,0.0561669845198498,0.00199999999995271
14,16,0.0212483848953892,0.00199999999995271
14,17,0.0655932138666116,0.00200000000040745
14,18,0.0251042631160735,0.00199999999995271
14,19,0.0131184955980718,0.00199999999995271
14,20,0.0170456947220437,0.00199999999995271
14,21,0.0255221940725009,0.00199999999995271
14,22,0.015124351231882,0.00199999999995271
14,23,0.0333327847001453,0.00199999999995271
14,24,0.0997061780668063,0.00199999999995271
14,25,0.0916539247480094,0.00199999999995271
14,26,0.0107548832043398,0.00200000000040745
14,27,0.057328934000999,0.00199999999995271
14,28,0.0300791916607403,0.00199999999995271
14,29,0.0180923032374659,0.00199999999995271
14,30,0.0334286275308799,0.00199999999995271
15,16,0.0534408857012712,0.00199999999995271
15,17,0.0380637200863146,0.00199999999995271
15,18,0.0512376027240253,0.00199999999995271
15,19,0.0541885788448661,0.00199999999995271
15,20,0.0520766728508024,0.00199999999995271
15,21,0.0592703907327538,0.00200000000040745
15,22,0.0516109446688263,0.00199999999995271
15,23,0.0530506243028749,0.00199999999995271
15,24,0.105370585290939,0.00199999999995271
15,25,0.0932420467344591,0.00199999999995271
15,26,0.0557088299632239,0.00199999999995271
15,27,0.0200500693189988,0.00199999999995271
15,28,0.0536144841966005,0.00199999999995271
15,29,0.0525266961954001,0.00199999999995271
15,30,0.0564760370384689,0.00199999999995271
16,17,0.0729437537573563,0.00200000000040745
16,18,0.0115160576268847,0.00199999999995271
16,19,0.0280476483391624,0.00199999999995271
16,20,0.0137099125590483,0.00199999999995271
16,21,0.018091090698499,0.00199999999995271
16,22,0.0236248525244199,0.00199999999995271
16,23,0.0215197863209648,0.00199999999995271
16,24,0.11380473808399,0.00199999999995271
16,25,0.102433055697,0.00199999999995271
16,26,0.0217437248905964,0.00200000000040745
16,27,0.0559989562503093,0.00199999999995271
16,28,0.0186738230358781,0.00199999999995271
16,29,0.00708585448555255,0.00199999999995271
16,30,0.0176867865840605,0.00199999999995271
17,18,0.0724197342009152,0.00199999999995271
17,19,0.0602951420774403,0.00199999999995271
17,20,0.0683977718882213,0.00199999999995271
17,21,0.0775408832437111,0.00199999999995271
17,22,0.0636569125624499,0.00199999999995271
17,23,0.0754434158609522,0.00200000000040745
17,24,0.0750020803206678,0.00199999999995271
17,25,0.0662733830085794,0.00199999999995271
17,26,0.0659509114423627,0.00199999999995271
17,27,0.0438239355691608,0.00199999999995271
17,28,0.0751246069964493,0.00199999999995271
17,29,0.0705255243066823,0.00199999999995271
17,30,0.0812203292045587,0.00199999999995271
18,19,0.029642153942051,0.00600000000031287
18,20,0.0150973063424602,0.00199999999995271
18,21,0.0162225093055829,0.00199999999995271
18,22,0.0218655439723932,0.00199999999995271
18,23,0.0173615102604934,0.00199999999995271
18,24,0.11397688406479,0.00199999999995271
18,25,0.102096720677291,0.00199999999995271
18,26,0.0262062556285871,0.00199999999995271
18,27,0.0525163108327281,0.00199999999995271
18,28,0.0126079441173952,0.00200000000040745
18,29,0.00982253121316712,0.00199999999995271
18,30,0.0110562780428743,0.00199999999995271
19,20,0.0207553648598352,0.00199999999995271
19,21,0.0326083109823291,0.00199999999995271
19,22,0.0156054398514502,0.00199999999995271
19,23,0.0352502895929548,0.00199999999995271
19,24,0.092073364876512,0.00199999999995271
19,25,0.0833572200201394,0.00199999999995271
19,26,0.0207582960102474,0.00199999999995271
19,27,0.0582807374974389,0.00200000000040745
19,28,0.0349803779518781,0.00199999999995271
19,29,0.0243703042759871,0.00199999999995271
19,30,0.0387696625798236,0.00199999999995271
20,21,0.021857046104819,0.00199999999995271
20,22,0.0160171932422428,0.00199999999995271
20,23,0.0286157927363035,0.00199999999995271
20,24,0.105495947892928,0.00199999999995271
20,25,0.0952026434848064,0.00199999999995271
20,26,0.0213814268544948,0.00200000000040745
20,27,0.0556059338837475,0.00199999999995271
20,28,0.0243878855371984,0.00199999999995271
20,29,0.0119954879637842,0.00199999999995271
20,30,0.0235570506100414,0.00199999999995271
21,22,0.0246047565083265,0.00199999999995271
21,23,0.0259700931808849,0.00199999999995271
21,24,0.113409398742442,0.00199999999995271
21,25,0.104308129743696,0.00199999999995271
21,26,0.0255505354472311,0.00199999999995271
21,27,0.057995809911338,0.00200000000040745
21,28,0.0227143243393169,0.00199999999995271
21,29,0.0171344734175016,0.00199999999995271
21,30,0.0192491320903994,0.00199999999995271
22,23,0.0301663493625689,0.00199999999995271
22,24,0.0975873475255415,0.00199999999995271
22,25,0.0895236409151788,0.00199999999995271
22,26,0.0172742090250418,0.00199999999995271
22,27,0.0534041978731486,0.00199999999995271
22,28,0.029851145443503,0.00199999999995271
22,29,0.0195470078685194,0.00200000000040745
22,30,0.0296885485871364,0.00199999999995271
23,24,0.1197241335332,0.00199999999995271
23,25,0.107309969774422,0.00199999999995271
23,26,0.0336530176656902,0.000999999999748979
23,27,0.0552233990265655,0.00199999999995271
23,28,0.0165249987690306,0.00199999999995271
23,29,0.0212605245608194,0.00199999999995271
23,30,0.0179320450010039,0.00100000000020373
24,25,0.0378184791700391,0.00100000000020373
24,26,0.101107997478095,0.000999999999748979
24,27,0.109978919855818,0.00199999999995271
24,28,0.120018409374729,0.00199999999995271
24,29,0.110563251126329,0.00199999999995271
24,30,0.12388879873749,0.00600000000031287
25,26,0.0927719976057848,0.00199999999995271
25,27,0.100281755947262,0.00199999999995271
25,28,0.107829310127708,0.00199999999995271
25,29,0.0984517001113851,0.00199999999995271
25,30,0.111540361089692,0.00199999999995271
26,27,0.0557302639093379,0.00199999999995271
26,28,0.0318407292692912,0.00199999999995271
26,29,0.018970048075827,0.00200000000040745
26,30,0.0333058895567419,0.00199999999995271
27,28,0.0526318243981366,0.00199999999995271
27,29,0.0544832379658132,0.00199999999995271
27,30,0.0569843735082607,0.00199999999995271
28,29,0.0176083738227752,0.00199999999995271
28,30,0.0157519613022631,0.00199999999995271
29,30,0.0176926041643499,0.00199999999995271


"After.Trace.ID","Before.Trace.ID","Difference","Runtime"
1,1,0.0382664715839222,0.00300000000015643
1,2,0.0763878470673719,0.00199999999995271
1,3,0.0733519900009236,0.00199999999995271
1,4,0.0866558040383168,0.00199999999995271
1,5,0.0767797642793458,0.00199999999995271
1,6,0.0480555999533307,0.00199999999995271
1,7,0.120421644408396,0.00199999999995271
1,8,0.0558715259140719,0.00199999999995271
1,9,0.162390255323985,0.00199999999995271
1,10,0.138973818246206,0.00200000000040745
1,11,0.124489344099468,0.00199999999995271
1,12,0.0369410873635959,0.00199999999995271
1,13,0.0199606131612871,0.00199999999995271
1,14,0.0616413864124155,0.00199999999995271
1,15,0.0695950925058649,0.00199999999995271
1,16,0.0441126932701549,0.00199999999995271
1,17,0.101132554189572,0.00199999999995271
1,18,0.0395647546433572,0.00199999999995271
1,19,0.06620526594253,0.00200000000040745
1,20,0.0516476944889643,0.00199999999995271
1,21,0.0472576005725288,0.00199999999995271
1,22,0.0573791762484542,0.00199999999995271
1,23,0.0349400460926581,0.00199999999995271
1,24,0.15022104781291,0.00199999999995271
1,25,0.136377802555834,0.00199999999995271
1,26,0.0604965268411529,0.00199999999995271
1,27,0.0699783070379894,0.00199999999995271
1,28,0.0372706749267897,0.00199999999995271
1,29,0.0461501131207058,0.00200000000040745
1,30,0.0303653296478815,0.00199999999995271
2,1,0.0591610738408306,0.00199999999995271
2,2,0.0761331893760338,0.00199999999995271
2,3,0.061171693119966,0.00199999999995271
2,4,0.0437689109345941,0.00199999999995271
2,5,0.0787249916121283,0.00100000000020373
2,6,0.0589771784916553,0.00100000000020373
2,7,0.0846040636872016,0.00100000000020373
2,8,0.0541925074971624,0.00199999999995271
2,9,0.131608997477568,0.00199999999995271
2,10,0.126273740456767,0.00599999999985812
2,11,0.10863548159075,0.00199999999995271
2,12,0.0571453343212237,0.00200000000040745
2,13,0.054861340723181,0.00199999999995271
2,14,0.0708845066835411,0.00199999999995271
2,15,0.058705714457463,0.00199999999995271
2,16,0.0603036938940166,0.00199999999995271
2,17,0.0792496525568975,0.00199999999995271
2,18,0.0532644015327338,0.00199999999995271
2,19,0.0675408788447588,0.00199999999995271
2,20,0.0611073276400125,0.00199999999995271
2,21,0.0609943606497988,0.00200000000040745
2,22,0.0606835882828826,0.00199999999995271
2,23,0.0511710302516449,0.00199999999995271
2,24,0.11787136588254,0.00199999999995271
2,25,0.0988899561293956,0.00199999999995271
2,26,0.0694650281366402,0.00199999999995271
2,27,0.0652569753827786,0.00199999999995271
2,28,0.0574551621456765,0.00199999999995271
2,29,0.0587267793025821,0.00199999999995271
2,30,0.0538969001347965,0.00199999999995271
3,1,0.0329153951244325,0.00200000000040745
3,2,0.0708820094554274,0.00199999999995271
3,3,0.0709230043449388,0.00199999999995271
3,4,0.0853949841743383,0.000999999999748979
3,5,0.0712215276162377,0.000999999999748979
3,6,0.0431957391339238,0.00100000000020373
3,7,0.116758501500627,0.00100000000020373
3,8,0.0538549592911546,0.00199999999995271
3,9,0.15600773579851,0.00199999999995271
3,10,0.132153911724942,0.00199999999995271
3,11,0.119006325584555,0.00199999999995271
3,12,0.0353489291324113,0.00199999999995271
3,13,0.0148125929681862,0.00199999999995271
3,14,0.0556025324950424,0.00199999999995271
3,15,0.067158323707722,0.00199999999995271
3,16,0.0387269171891289,0.00200000000040745
3,17,0.0967055024070428,0.00199999999995271
3,18,0.0364087380215138,0.00199999999995271
3,19,0.060351176653045,0.00199999999995271
3,20,0.0481628797937911,0.00199999999995271
3,21,0.0441685178036237,0.00199999999995271
3,22,0.0531539471577925,0.00199999999995271
3,23,0.0285420973835515,0.00199999999995271
3,24,0.145909710601832,0.00199999999995271
3,25,0.131363602918077,0.00199999999995271
3,26,0.0537063314655374,0.00200000000040745
3,27,0.0683540127105,0.00199999999995271
3,28,0.0337984947275171,0.00199999999995271
3,29,0.0406716339247475,0.00199999999995271
3,30,0.0281379227550634,0.00199999999995271
4,1,0.0622918203651272,0.00199999999995271
4,2,0.085022487667502,0.00199999999995271
4,3,0.0685935253474965,0.00199999999995271
4,4,0.056026531836734,0.00199999999995271
4,5,0.0879555171070553,0.00200000000040745
4,6,0.0654028875137199,0.00199999999995271
4,7,0.0986191465941659,0.00199999999995271
4,8,0.0555931154955985,0.00199999999995271
4,9,0.145930496407976,0.00199999999995271
4,10,0.138679643543524,0.00199999999995271
4,11,0.120504980750358,0.00199999999995271
4,12,0.0600325527617305,0.00199999999995271
4,13,0.0524836752313437,0.00199999999995271
4,14,0.0778546366208755,0.00199999999995271
4,15,0.0647290616072056,0.00600000000031287
4,16,0.0645195212542469,0.00199999999995271
4,17,0.0896735181569282,0.00199999999995271
4,18,0.0571080903900105,0.00199999999995271
4,19,0.0766827628033979,0.00199999999995271
4,20,0.067099138475978,0.00199999999995271
4,21,0.0649603046800982,0.00199999999995271
4,22,0.068085888161052,0.00200000000040745
4,23,0.0548715010899369,0.00199999999995271
4,24,0.131907577077444,0.000999999999748979
4,25,0.112902773703153,0.000999999999748979
4,26,0.0755997385879391,0.00199999999995271
4,27,0.0688452355682421,0.00199999999995271
4,28,0.0599174427560412,0.00200000000040745
4,29,0.0635691024194498,0.00199999999995271
4,30,0.0551753335590698,0.00199999999995271
5,1,0.0685673317598082,0.00199999999995271
5,2,0.0965063394584014,0.00199999999995271
5,3,0.0777637035585625,0.00199999999995271
5,4,0.0716790089200718,0.00199999999995271
5,5,0.0990110853040827,0.00199999999995271
5,6,0.0736318110610175,0.00199999999995271
5,7,0.114868106142878,0.00200000000040745
5,8,0.0604778895995881,0.00199999999995271
5,9,0.1614885075599,0.00199999999995271
5,10,0.15274236032395,0.00199999999995271
5,11,0.134840583997635,0.00199999999995271
5,12,0.0661727344657098,0.00199999999995271
5,13,0.0538336471873566,0.00199999999995271
5,14,0.0871686355923856,0.00199999999995271
5,15,0.0738361725918137,0.00199999999995271
5,16,0.0716610109399579,0.00199999999995271
5,17,0.102183984563639,0.00200000000040745
5,18,0.0645872497263042,0.00199999999995271
5,19,0.0873205155347451,0.000999999999748979
5,20,0.0762693309637807,0.000999999999748979
5,21,0.0722419375756683,0.000999999999748979
5,22,0.0781648387191799,0.00100000000020373
5,23,0.0600893077594173,0.00100000000020373
5,24,0.147743253526521,0.00199999999995271
5,25,0.129446225153624,0.00199999999995271
5,26,0.0845962650888546,0.00199999999995271
5,27,0.0765799418127381,0.00199999999995271
5,28,0.0655300391636293,0.00199999999995271
5,29,0.0716909792257464,0.00199999999995271
5,30,0.0603731550655169,0.00199999999995271
6,1,0.0660963322209709,0.00199999999995271
6,2,0.0928276970999923,0.00200000000040745
6,3,0.0746799489378682,0.00199999999995271
6,4,0.0667540489999479,0.00199999999995271
6,5,0.0954918375630983,0.00199999999995271
6,6,0.0704704461253442,0.00199999999995271
6,7,0.111153329234819,0.00199999999995271
6,8,0.0581014736494636,0.00199999999995271
6,9,0.158130032595392,0.00199999999995271
6,10,0.149485670079234,0.00199999999995271
6,11,0.131005974160505,0.00199999999995271
6,12,0.0630473119398118,0.00200000000040745
6,13,0.0528735093793901,0.00199999999995271
6,14,0.0836861157665987,0.00199999999995271
6,15,0.0711414195164389,0.00199999999995271
6,16,0.068401258233502,0.00199999999995271
6,17,0.0985768354656998,0.00199999999995271
6,18,0.0615205630453935,0.00199999999995271
6,19,0.0840191165023675,0.00600000000031287
6,20,0.0734928609482979,0.00199999999995271
6,21,0.067916680017365,0.00199999999995271
6,22,0.0749010110123129,0.00199999999995271
6,23,0.056645382896202,0.00199999999995271
6,24,0.143343792638291,0.00199999999995271
6,25,0.126680138716432,0.00100000000020373
6,26,0.0809840895655215,0.00100000000020373
6,27,0.0731713140765226,0.00199999999995271
6,28,0.0624140302163797,0.00199999999995271
6,29,0.0687335499227709,0.00199999999995271
6,30,0.0579755928743814,0.00199999999995271
7,1,0.0754764029950056,0.00199999999995271
7,2,0.106285013579903,0.00199999999995271
7,3,0.0852960534617594,0.00199999999995271
7,4,0.0983323639228465,0.00200000000040745
7,5,0.106212118507269,0.00199999999995271
7,6,0.0822053155160976,0.00199999999995271
7,7,0.133788953884686,0.00199999999995271
7,8,0.0716202287486623,0.00199999999995271
7,9,0.176630018927104,0.00100000000020373
7,10,0.162626624807372,0.00100000000020373
7,11,0.146377633042198,0.00199999999995271
7,12,0.0732844707014967,0.00199999999995271
7,13,0.0599985708003208,0.00199999999995271
7,14,0.0941918622609512,0.00199999999995271
7,15,0.0842779771147669,0.00199999999995271
7,16,0.080683132923678,0.00199999999995271
7,17,0.112104792374383,0.00199999999995271
7,18,0.0736739172680365,0.00199999999995271
7,19,0.0956347815002184,0.00200000000040745
7,20,0.0866550482757424,0.000999999999748979
7,21,0.0817181531721295,0.000999999999748979
7,22,0.0885601014608907,0.00199999999995271
7,23,0.065153947845771,0.00199999999995271
7,24,0.164441986699362,0.00200000000040745
7,25,0.151408847119608,0.00199999999995271
7,26,0.0937410784297361,0.00199999999995271
7,27,0.0814325721180757,0.00199999999995271
7,28,0.0668099025632495,0.00199999999995271
7,29,0.0816605923558743,0.00199999999995271
7,30,0.0697292798701778,0.00199999999995271
8,1,0.0595488744421908,0.00199999999995271
8,2,0.0969017632941054,0.00199999999995271
8,3,0.090731407635135,0.00199999999995271
8,4,0.10122967092466,0.00200000000040745
8,5,0.0980426346930927,0.00199999999995271
8,6,0.0699545748983182,0.00199999999995271
8,7,0.138797273546007,0.00199999999995271
8,8,0.0697971728682723,0.00199999999995271
8,9,0.182856783116551,0.00199999999995271
8,10,0.160482391736838,0.00199999999995271
8,11,0.143651107398213,0.00199999999995271
8,12,0.0570446275101348,0.00199999999995271
8,13,0.0391554871785699,0.00199999999995271
8,14,0.0826889119400404,0.00200000000040745
8,15,0.0862287058203044,0.00199999999995271
8,16,0.0655332559038185,0.00199999999995271
8,17,0.119425645294024,0.00199999999995271
8,18,0.0600423557457303,0.00199999999995271
8,19,0.0877893197071817,0.00199999999995271
8,20,0.0727134050856731,0.00199999999995271
8,21,0.0653963826113184,0.00199999999995271
8,22,0.0778104346002175,0.00199999999995271
8,23,0.0561962635373827,0.00200000000040745
8,24,0.169348657294107,0.00599999999985812
8,25,0.155090696684525,0.00199999999995271
8,26,0.0810352261676559,0.00199999999995271
8,27,0.0840281390151667,0.00199999999995271
8,28,0.0569041799132707,0.00199999999995271
8,29,0.0671816550764716,0.00199999999995271
8,30,0.0504115755828461,0.00199999999995271
9,1,0.027396751847814,0.00200000000040745
9,2,0.0656642413417972,0.00199999999995271
9,3,0.0671327235393449,0.00199999999995271
9,4,0.0804149076961456,0.00199999999995271
9,5,0.0663962713245191,0.00199999999995271
9,6,0.0386526631083135,0.00199999999995271
9,7,0.111655033416699,0.00199999999995271
9,8,0.0510100654986305,0.00199999999995271
9,9,0.152162320865167,0.00100000000020373
9,10,0.127842621364571,0.00100000000020373
9,11,0.114141886428577,0.000999999999748979
9,12,0.0289431247013276,0.00199999999995271
9,13,0.0101093117395322,0.00199999999995271
9,14,0.0508177291453447,0.00199999999995271
9,15,0.0629020091147165,0.00199999999995271
9,16,0.033428587788264,0.00200000000040745
9,17,0.0924068196479995,0.00199999999995271
9,18,0.0300234945736271,0.00199999999995271
9,19,0.0560184141040561,0.00199999999995271
9,20,0.0418846910587839,0.00199999999995271
9,21,0.0388269373702727,0.00199999999995271
9,22,0.0476574067194163,0.00199999999995271
9,23,0.0261859720483105,0.00199999999995271
9,24,0.140962304967242,0.00199999999995271
9,25,0.12684069147474,0.00200000000040745
9,26,0.0490258935419706,0.00199999999995271
9,27,0.0635867004978721,0.00199999999995271
9,28,0.0283436004059812,0.00199999999995271
9,29,0.0352294636042106,0.00199999999995271
9,30,0.0214450441666322,0.00199999999995271
10,1,0.0695740074943172,0.00199999999995271
10,2,0.0988830142425254,0.00199999999995271
10,3,0.0792853747439975,0.00199999999995271
10,4,0.0907008933100659,0.00199999999995271
10,5,0.0997562310117201,0.00200000000040745
10,6,0.0753189524999921,0.00199999999995271
10,7,0.127970027158549,0.00199999999995271
10,8,0.0607674472223685,0.00199999999995271
10,9,0.168173476646704,0.00199999999995271
10,10,0.153729228883361,0.00199999999995271
10,11,0.142231773127537,0.00199999999995271
10,12,0.0691984902149119,0.00100000000020373
10,13,0.0585918537011997,0.00100000000020373
10,14,0.0869183562485486,0.00199999999995271
10,15,0.0759643495386473,0.00199999999995271
10,16,0.0705017649773475,0.00199999999995271
10,17,0.105050026900942,0.00199999999995271
10,18,0.0688615819431152,0.00199999999995271
10,19,0.0898931176234876,0.00199999999995271
10,20,0.0784411395497555,0.00200000000040745
10,21,0.0763944399573798,0.00199999999995271
10,22,0.0815617677597899,0.00199999999995271
10,23,0.0622144937321039,0.00199999999995271
10,24,0.155649306797019,0.00199999999995271
10,25,0.143850807655739,0.00199999999995271
10,26,0.082838158039131,0.00199999999995271
10,27,0.0787800877686292,0.00199999999995271
10,28,0.0685737704500821,0.00600000000031287
10,29,0.0741170784948974,0.00199999999995271
10,30,0.0652455868320575,0.00199999999995271
11,1,0.0724786288561305,0.000999999999748979
11,2,0.101804035880085,0.000999999999748979
11,3,0.0831097946579261,0.00200000000040745
11,4,0.0923078331640914,0.00199999999995271
11,5,0.102987021937832,0.00199999999995271
11,6,0.0785070290679706,0.00199999999995271
11,7,0.131202899252205,0.00199999999995271
11,8,0.0640160093997043,0.00199999999995271
11,9,0.172781599005387,0.00199999999995271
11,10,0.158374138697939,0.00199999999995271
11,11,0.144600638927131,0.00199999999995271
11,12,0.0709419014923498,0.00200000000040745
11,13,0.0608154897900378,0.00199999999995271
11,14,0.0898403912888135,0.00199999999995271
11,15,0.0797900760873416,0.00199999999995271
11,16,0.073807665075141,0.00199999999995271
11,17,0.108766682055291,0.00199999999995271
11,18,0.0711762677446186,0.00100000000020373
11,19,0.0932509690077269,0.00100000000020373
11,20,0.0818500872045427,0.00199999999995271
11,21,0.0769987362195436,0.00199999999995271
11,22,0.0841878207115417,0.00199999999995271
11,23,0.0643686081567109,0.00199999999995271
11,24,0.158571172409003,0.00199999999995271
11,25,0.148308787381015,0.00199999999995271
11,26,0.0858787803007658,0.00199999999995271
11,27,0.080140465076264,0.00200000000040745
11,28,0.0700417503089969,0.00199999999995271
11,29,0.0772733338376029,0.00199999999995271
11,30,0.0671855324209516,0.00199999999995271
12,1,0.0620956565206031,0.00199999999995271
12,2,0.0849335024123371,0.00199999999995271
12,3,0.0680552855739099,0.00199999999995271
12,4,0.0552003391535847,0.00100000000020373
12,5,0.0876630126987691,0.00100000000020373
12,6,0.0644202191469354,0.00100000000020373
12,7,0.0990502898248489,0.00100000000020373
12,8,0.0555949102998023,0.000999999999748979
12,9,0.146945845834235,0.000999999999748979
12,10,0.139377370082128,0.00199999999995271
12,11,0.121202041621434,0.00199999999995271
12,12,0.0586964235707713,0.00200000000040745
12,13,0.0530226657981895,0.00199999999995271
12,14,0.0775642710225178,0.00199999999995271
12,15,0.0647945386929027,0.00199999999995271
12,16,0.0636834733484337,0.00199999999995271
12,17,0.090208143155283,0.00199999999995271
12,18,0.0564362616196557,0.00199999999995271
12,19,0.0764615785931388,0.00199999999995271
12,20,0.066436129235594,0.00199999999995271
12,21,0.0635749574232538,0.00199999999995271
12,22,0.0677327464849286,0.00200000000040745
12,23,0.0541284076734568,0.00199999999995271
12,24,0.131828735089814,0.00199999999995271
12,25,0.11430986324921,0.00199999999995271
12,26,0.0755324208426553,0.00199999999995271
12,27,0.0690757722367277,0.00199999999995271
12,28,0.0595088247773284,0.00199999999995271
12,29,0.063304318336201,0.00199999999995271
12,30,0.0545133673556713,0.00199999999995271
13,1,0.0684776494231392,0.00200000000040745
13,2,0.0948685241513163,0.00199999999995271
13,3,0.0766683270918484,0.00599999999985812
13,4,0.067730265218799,0.00199999999995271
13,5,0.0973745910808248,0.00199999999995271
13,6,0.0725120262127641,0.00199999999995271
13,7,0.11121325858351,0.00199999999995271
13,8,0.0613281481184873,0.00199999999995271
13,9,0.15878036702489,0.00100000000020373
13,10,0.15071889996857,0.000999999999748979
13,11,0.132056227501926,0.000999999999748979
13,12,0.065240327767568,0.00199999999995271
13,13,0.0552021279518822,0.00199999999995271
13,14,0.0862454762290823,0.00200000000040745
13,15,0.0731901856725878,0.00199999999995271
13,16,0.0714302772352812,0.00199999999995271
13,17,0.100638894157904,0.00199999999995271
13,18,0.0637386948773946,0.00199999999995271
13,19,0.0857486291850552,0.00199999999995271
13,20,0.0750590613831636,0.00199999999995271
13,21,0.0709894271027691,0.00199999999995271
13,22,0.0766941734594387,0.00199999999995271
13,23,0.0599892971903755,0.00199999999995271
13,24,0.144280811469808,0.00200000000040745
13,25,0.126147175375215,0.00199999999995271
13,26,0.0842520172278109,0.00199999999995271
13,27,0.0761397223701608,0.00199999999995271
13,28,0.0651568473564703,0.00199999999995271
13,29,0.0711132544885754,0.00199999999995271
13,30,0.060002181790774,0.00199999999995271
14,1,0.0632964673770342,0.00199999999995271
14,2,0.0888867673035595,0.00199999999995271
14,3,0.0701063723859598,0.00199999999995271
14,4,0.0632359373717622,0.00100000000020373
14,5,0.0913765738634682,0.000999999999748979
14,6,0.0674148047285683,0.00199999999995271
14,7,0.104932109590727,0.00199999999995271
14,8,0.0557501919661308,0.00199999999995271
14,9,0.150594789651902,0.00200000000040745
14,10,0.142790156257412,0.00199999999995271
14,11,0.126178540415917,0.00199999999995271
14,12,0.0619704257925631,0.00199999999995271
14,13,0.050683711609513,0.00199999999995271
14,14,0.0803436171805941,0.00199999999995271
14,15,0.0667309365356631,0.00199999999995271
14,16,0.0656899492467459,0.00199999999995271
14,17,0.0928336275946297,0.00199999999995271
14,18,0.0591339263357808,0.00199999999995271
14,19,0.0796607663969107,0.00200000000040745
14,20,0.0701606716348239,0.00199999999995271
14,21,0.0678165178422541,0.00199999999995271
14,22,0.0720561702080792,0.00199999999995271
14,23,0.0545039973446469,0.00199999999995271
14,24,0.138468841866683,0.00199999999995271
14,25,0.118463198897298,0.00199999999995271
14,26,0.0779141480829782,0.00199999999995271
14,27,0.0709725048536373,0.00199999999995271
14,28,0.0601945079054256,0.00200000000040745
14,29,0.0652557298632885,0.00199999999995271
14,30,0.0566022232688502,0.00199999999995271
15,1,0.066359805223757,0.00199999999995271
15,2,0.0912638155169397,0.00199999999995271
15,3,0.0740198170968308,0.00199999999995271
15,4,0.0622618237908152,0.00100000000020373
15,5,0.0943266473731971,0.00100000000020373
15,6,0.0702120736745838,0.00199999999995271
15,7,0.107026266668771,0.00599999999985812
15,8,0.0590025508224415,0.000999999999748979
15,9,0.155060868711245,0.000999999999748979
15,10,0.146862523711869,0.00199999999995271
15,11,0.128653055849985,0.00200000000040745
15,12,0.0629614674418231,0.00199999999995271
15,13,0.0547059453746726,0.00199999999995271
15,14,0.0832488415211694,0.00199999999995271
15,15,0.070112244224429,0.00199999999995271
15,16,0.0680575018578421,0.00199999999995271
15,17,0.0969774729618928,0.00199999999995271
15,18,0.0611386381918373,0.00199999999995271
15,19,0.0832864249754039,0.00199999999995271
15,20,0.0718319418923978,0.00199999999995271
15,21,0.0679742476981943,0.00200000000040745
15,22,0.0740824435319185,0.00199999999995271
15,23,0.0591404210067018,0.00199999999995271
15,24,0.13995145766134,0.00199999999995271
15,25,0.121836383397063,0.00199999999995271
15,26,0.0806831831208596,0.00199999999995271
15,27,0.073317711245726,0.00199999999995271
15,28,0.0636055794710749,0.00199999999995271
15,29,0.0680278989813288,0.00199999999995271
15,30,0.0580874348123577,0.00200000000040745
16,1,0.0233652099778034,0.00199999999995271
16,2,0.060425685536554,0.00199999999995271
16,3,0.0651690370001188,0.00199999999995271
16,4,0.0762466462281932,0.00199999999995271
16,5,0.0610782638038768,0.00199999999995271
16,6,0.0337517611844955,0.00100000000020373
16,7,0.105925527964984,0.00100000000020373
16,8,0.0508208462357734,0.00100000000020373
16,9,0.146277686302968,0.00100000000020373
16,10,0.122647340082185,0.00199999999995271
16,11,0.107164597414438,0.00199999999995271
16,12,0.0256635458682167,0.00199999999995271
16,13,0.00881283174427298,0.00199999999995271
16,14,0.0460317222945763,0.00199999999995271
16,15,0.0611990115823427,0.00200000000040745
16,16,0.0316502290721006,0.00199999999995271
16,17,0.0887480376465427,0.00199999999995271
16,18,0.0258773469690478,0.00100000000020373
16,19,0.0498616872884638,0.00100000000020373
16,20,0.0383813305165456,0.00199999999995271
16,21,0.0342621225617148,0.00199999999995271
16,22,0.0415355461739045,0.00199999999995271
16,23,0.0197201841555851,0.00199999999995271
16,24,0.135126441927294,0.00199999999995271
16,25,0.121192084099246,0.00200000000040745
16,26,0.0451253014572454,0.00199999999995271
16,27,0.061643994841728,0.00199999999995271
16,28,0.0242323908246423,0.00199999999995271
16,29,0.0315135036611856,0.00199999999995271
16,30,0.0174485973267823,0.00199999999995271
17,1,0.0668743757462237,0.00199999999995271
17,2,0.0940482197538592,0.00199999999995271
17,3,0.0752434301997908,0.00199999999995271
17,4,0.0687684814441664,0.00200000000040745
17,5,0.0963466186416523,0.00199999999995271
17,6,0.0713987778104289,0.00199999999995271
17,7,0.111697608615575,0.00199999999995271
17,8,0.0603769567762132,0.00199999999995271
17,9,0.159366715403958,0.00199999999995271
17,10,0.150438749012381,0.00199999999995271
17,11,0.131875817604249,0.00599999999985812
17,12,0.0634320187825465,0.00200000000040745
17,13,0.0530089889945175,0.00199999999995271
17,14,0.0850409072070849,0.00199999999995271
17,15,0.0720915837672213,0.00199999999995271
17,16,0.0700941990009659,0.00199999999995271
17,17,0.0998379130883473,0.00199999999995271
17,18,0.0620944693783279,0.00199999999995271
17,19,0.0848361940144842,0.00199999999995271
17,20,0.073965250401953,0.00199999999995271
17,21,0.0697342092982794,0.00199999999995271
17,22,0.0759700446675263,0.00200000000040745
17,23,0.0582182804523214,0.00199999999995271
17,24,0.144979158071398,0.000999999999748979
17,25,0.127162447894323,0.000999999999748979
17,26,0.0833638868087921,0.00199999999995271
17,27,0.0740911358001997,0.00200000000040745
17,28,0.0623228871133587,0.00199999999995271
17,29,0.0698351329190569,0.00199999999995271
17,30,0.0584262461578636,0.00199999999995271
18,1,0.0226364677792013,0.00199999999995271
18,2,0.0567139517705427,0.00199999999995271
18,3,0.0628908031014484,0.00199999999995271
18,4,0.0750554459508166,0.00199999999995271
18,5,0.0575913294734147,0.00199999999995271
18,6,0.0334916488910123,0.00199999999995271
18,7,0.10286053656713,0.00200000000040745
18,8,0.0483011485960895,0.00199999999995271
18,9,0.141377875830122,0.00199999999995271
18,10,0.117981869714084,0.00199999999995271
18,11,0.102255783812774,0.00199999999995271
18,12,0.0281463107441431,0.00199999999995271
18,13,0.0153494568993415,0.00199999999995271
18,14,0.0423347152792291,0.00199999999995271
18,15,0.0584515793845246,0.00199999999995271
18,16,0.0309651221527038,0.00200000000040745
18,17,0.0837184197022728,0.00199999999995271
18,18,0.0263657073166724,0.00199999999995271
18,19,0.0467525169461676,0.00199999999995271
18,20,0.0384567921520096,0.00199999999995271
18,21,0.0336281931437262,0.00199999999995271
18,22,0.0382833368700175,0.00199999999995271
18,23,0.016997375179619,0.00199999999995271
18,24,0.130538380705849,0.00199999999995271
18,25,0.118420025813732,0.00199999999995271
18,26,0.0399490150615332,0.00200000000040745
18,27,0.0572908316720337,0.00199999999995271
18,28,0.0234538977976415,0.00199999999995271
18,29,0.0307244988448276,0.00199999999995271
18,30,0.0213715654675899,0.00199999999995271
19,1,0.0670262723440958,0.00199999999995271
19,2,0.0923135911769017,0.00199999999995271
19,3,0.0751584802693507,0.00199999999995271
19,4,0.0635823258343894,0.00199999999995271
19,5,0.0953469390354691,0.00200000000040745
19,6,0.0711194543316045,0.00199999999995271
19,7,0.108523008342017,0.00199999999995271
19,8,0.0597962191992967,0.00199999999995271
19,9,0.156759819426754,0.00199999999995271
19,10,0.148545215722015,0.00199999999995271
19,11,0.129460076728575,0.00100000000020373
19,12,0.0634067016287032,0.00100000000020373
19,13,0.054734625349846,0.00100000000020373
19,14,0.0841016534112614,0.00199999999995271
19,15,0.0713518103564244,0.00199999999995271
19,16,0.0691882897852842,0.00599999999985812
19,17,0.0982185775515045,0.00199999999995271
19,18,0.0617726224891784,0.00100000000020373
19,19,0.0842115971837079,0.00199999999995271
19,20,0.0731087343011893,0.00199999999995271
19,21,0.0681364766168046,0.00199999999995271
19,22,0.0748387749082297,0.00199999999995271
19,23,0.0591071325749772,0.00199999999995271
19,24,0.141320805053503,0.00199999999995271
19,25,0.123841214039896,0.00199999999995271
19,26,0.0816606729419196,0.00199999999995271
19,27,0.0734831589399433,0.00199999999995271
19,28,0.0635188060241634,0.00200000000040745
19,29,0.0690493065891207,0.00199999999995271
19,30,0.0585023269870539,0.00199999999995271
20,1,0.0676018433218168,0.00199999999995271
20,2,0.0945746470085576,0.00199999999995271
20,3,0.0756885770342921,0.00199999999995271
20,4,0.0681517919116034,0.00199999999995271
20,5,0.0971989235365079,0.00199999999995271
20,6,0.0722171734994817,0.00199999999995271
20,7,0.111828424171123,0.00199999999995271
20,8,0.0597663687862355,0.00200000000040745
20,9,0.158423400625282,0.00199999999995271
20,10,0.150313267990753,0.000999999999748979
20,11,0.132492776032678,0.000999999999748979
20,12,0.0651763218745881,0.000999999999748979
20,13,0.0533711787426802,0.00200000000040745
20,14,0.0854918253727813,0.00199999999995271
20,15,0.0723443214144901,0.00199999999995271
20,16,0.0700859052240451,0.00199999999995271
20,17,0.0994802610530911,0.00199999999995271
20,18,0.0632631427413732,0.00199999999995271
20,19,0.085529728206207,0.00199999999995271
20,20,0.0752502449310452,0.00199999999995271
20,21,0.070558807459855,0.00199999999995271
20,22,0.0772469708160381,0.00199999999995271
20,23,0.0582796079398785,0.00200000000040745
20,24,0.145023089837718,0.00199999999995271
20,25,0.12621336312531,0.00199999999995271
20,26,0.0829972264466865,0.00199999999995271
20,27,0.0749930414940112,0.00199999999995271
20,28,0.0636700688138208,0.00199999999995271
20,29,0.0700589595574663,0.00199999999995271
20,30,0.0597825058548043,0.00199999999995271
21,1,0.0721772855781543,0.00199999999995271
21,2,0.101313499331719,0.00200000000040745
21,3,0.0811658797243628,0.00199999999995271
21,4,0.0928545644589415,0.00199999999995271
21,5,0.101532851469213,0.00199999999995271
21,6,0.0764335918842221,0.000999999999748979
21,7,0.130162941044286,0.00100000000020373
21,8,0.0642308575114317,0.00199999999995271
21,9,0.170785031472461,0.00199999999995271
21,10,0.15639897595853,0.00199999999995271
21,11,0.144666593335036,0.00199999999995271
21,12,0.0704293480236235,0.00199999999995271
21,13,0.0622535089334681,0.00199999999995271
21,14,0.0892594545108689,0.00199999999995271
21,15,0.0788966032062145,0.00199999999995271
21,16,0.0730584456314766,0.00199999999995271
21,17,0.108255310208227,0.00200000000040745
21,18,0.071061566031516,0.00199999999995271
21,19,0.0915271530818314,0.00199999999995271
21,20,0.080269543721714,0.00599999999985812
21,21,0.077971389122676,0.00199999999995271
21,22,0.0832183278032034,0.00199999999995271
21,23,0.0639230165671814,0.00199999999995271
21,24,0.157209576702125,0.00199999999995271
21,25,0.147040240932052,0.00200000000040745
21,26,0.086083587250662,0.000999999999748979
21,27,0.0824018363492553,0.000999999999748979
21,28,0.0711265086330369,0.000999999999748979
21,29,0.0769394370602906,0.00199999999995271
21,30,0.0672820584768888,0.00200000000040745
22,1,0.073065687162905,0.00199999999995271
22,2,0.103708468533446,0.00199999999995271
22,3,0.0827844808122193,0.00199999999995271
22,4,0.0959937727270098,0.00199999999995271
22,5,0.103465369318052,0.00199999999995271
22,6,0.0793888300932193,0.00199999999995271
22,7,0.131167816629509,0.00199999999995271
22,8,0.0694357644438502,0.00199999999995271
22,9,0.174221469753814,0.00100000000020373
22,10,0.160086385808672,0.00199999999995271
22,11,0.143832519631953,0.00199999999995271
22,12,0.0705952512596691,0.00199999999995271
22,13,0.0583581754290824,0.00199999999995271
22,14,0.0917103217489808,0.00199999999995271
22,15,0.0817834142208834,0.00200000000040745
22,16,0.0783669924337339,0.00199999999995271
22,17,0.109886549803595,0.00199999999995271
22,18,0.0711159406108756,0.00199999999995271
22,19,0.0928553833680209,0.00199999999995271
22,20,0.0837382665557285,0.00100000000020373
22,21,0.0794067491440748,0.00100000000020373
22,22,0.0854721884913948,0.00199999999995271
22,23,0.0628798922641183,0.00199999999995271
22,24,0.161599797384581,0.00199999999995271
22,25,0.149128453756414,0.00199999999995271
22,26,0.0914466681278052,0.00199999999995271
22,27,0.0794432834868977,0.00199999999995271
22,28,0.0648164911075031,0.00199999999995271
22,29,0.0793590955116432,0.00199999999995271
22,30,0.067209751957659,0.00200000000040745
23,1,0.0642164139168949,0.00199999999995271
23,2,0.0894511291489348,0.00199999999995271
23,3,0.071517910823553,0.00199999999995271
23,4,0.0618230682942571,0.00199999999995271
23,5,0.0920131115051988,0.00199999999995271
23,6,0.0675815458016732,0.00100000000020373
23,7,0.105647012793967,0.00100000000020373
23,8,0.0573284049357775,0.00199999999995271
23,9,0.153442116819804,0.00199999999995271
23,10,0.145045799709043,0.00199999999995271
23,11,0.12700295188839,0.00199999999995271
23,12,0.0606809169678199,0.00199999999995271
23,13,0.0528988325279884,0.00199999999995271
23,14,0.0811812856387439,0.00199999999995271
23,15,0.0681512611104083,0.00200000000040745
23,16,0.0662931083182065,0.00199999999995271
23,17,0.0952107690145295,0.00199999999995271
23,18,0.0589976595098698,0.00199999999995271
23,19,0.080694308090738,0.00199999999995271
23,20,0.0697350433558001,0.00199999999995271
23,21,0.0663409218708756,0.00199999999995271
23,22,0.0716727896134977,0.00199999999995271
23,23,0.056173525119271,0.00199999999995271
23,24,0.138478884380582,0.00600000000031287
23,25,0.120976747652881,0.00199999999995271
23,26,0.0791136106470217,0.00199999999995271
23,27,0.0717469842446774,0.00199999999995271
23,28,0.0611995273950872,0.00199999999995271
23,29,0.0662441738721541,0.00199999999995271
23,30,0.0560523355174991,0.00199999999995271
24,1,0.0730304844476385,0.00199999999995271
24,2,0.103053250285585,0.00200000000040745
24,3,0.0823422467076965,0.00199999999995271
24,4,0.094392701320776,0.00199999999995271
24,5,0.103524215711429,0.000999999999748979
24,6,0.0781847212845994,0.000999999999748979
24,7,0.132188736159888,0.00100000000020373
24,8,0.0646586359398391,0.00199999999995271
24,9,0.172699117999901,0.00199999999995271
24,10,0.158257725482439,0.00199999999995271
24,11,0.146940749094164,0.00199999999995271
24,12,0.0718140345922218,0.00199999999995271
24,13,0.0616100218442583,0.00199999999995271
24,14,0.0907474211107688,0.00199999999995271
24,15,0.0798752736407831,0.00199999999995271
24,16,0.0738470370950721,0.00199999999995271
24,17,0.109468343756058,0.00200000000040745
24,18,0.0721519039670868,0.00199999999995271
24,19,0.0934733832053059,0.00199999999995271
24,20,0.0818988628210431,0.00199999999995271
24,21,0.0794381695754545,0.000999999999748979
24,22,0.0855202412894632,0.00100000000020373
24,23,0.0649230746108642,0.00100000000020373
24,24,0.159994074234223,0.00199999999995271
24,25,0.148386003064194,0.00199999999995271
24,26,0.0872670926526958,0.00199999999995271
24,27,0.0830680440438595,0.00199999999995271
24,28,0.0715204120696664,0.00199999999995271
24,29,0.077719838698401,0.00199999999995271
24,30,0.068227696784019,0.00199999999995271
25,1,0.0725842991448043,0.00199999999995271
25,2,0.101695999822219,0.00200000000040745
25,3,0.0816963196103858,0.00199999999995271
25,4,0.0931263626934785,0.00199999999995271
25,5,0.102315058814314,0.00199999999995271
25,6,0.0776122746747518,0.00199999999995271
25,7,0.13066228926657,0.00199999999995271
25,8,0.0639845356763336,0.00199999999995271
25,9,0.170631352604562,0.00100000000020373
25,10,0.156479864810096,0.00100000000020373
25,11,0.145008135718568,0.00199999999995271
25,12,0.0717099764223176,0.00199999999995271
25,13,0.0618339400493938,0.00199999999995271
25,14,0.0895763483510042,0.00199999999995271
25,15,0.0791412274278672,0.00199999999995271
25,16,0.0731924139310596,0.00199999999995271
25,17,0.107838478644567,0.00200000000040745
25,18,0.071771560915868,0.00199999999995271
25,19,0.09237667337085,0.00199999999995271
25,20,0.0815021865969604,0.00199999999995271
25,21,0.0785353179290419,0.00199999999995271
25,22,0.0845343985790145,0.00199999999995271
25,23,0.0641478252507406,0.00199999999995271
25,24,0.157947856793357,0.00199999999995271
25,25,0.146825857873431,0.00199999999995271
25,26,0.0857808558625352,0.00200000000040745
25,27,0.0820123522383699,0.00199999999995271
25,28,0.0711508357396469,0.00599999999985812
25,29,0.0770486469607168,0.00199999999995271
25,30,0.0681936332918598,0.00100000000020373
26,1,0.0614666925777134,0.00100000000020373
26,2,0.0832843155872989,0.00100000000020373
26,3,0.0669828558833148,0.00100000000020373
26,4,0.0521078550205254,0.00100000000020373
26,5,0.0865349467673076,0.00199999999995271
26,6,0.0642442773645635,0.00199999999995271
26,7,0.0969380565723871,0.00199999999995271
26,8,0.0549078387119981,0.00199999999995271
26,9,0.144733597436702,0.00200000000040745
26,10,0.137552859889138,0.00199999999995271
26,11,0.119040651551638,0.00199999999995271
26,12,0.0584992539853387,0.00199999999995271
26,13,0.0523486254585409,0.00199999999995271
26,14,0.0761644108757958,0.00199999999995271
26,15,0.0637821293597922,0.00199999999995271
26,16,0.0624954170297778,0.00199999999995271
26,17,0.0876137834847023,0.00199999999995271
26,18,0.0556205264829775,0.00199999999995271
26,19,0.0756098814585559,0.00200000000040745
26,20,0.0663860212103611,0.00199999999995271
26,21,0.062010901855964,0.00199999999995271
26,22,0.0675908620008523,0.00199999999995271
26,23,0.0529567596560271,0.00199999999995271
26,24,0.129987775796344,0.00199999999995271
26,25,0.111951183258803,0.00100000000020373
26,26,0.0737096112333832,0.00100000000020373
26,27,0.066653969719567,0.00199999999995271
26,28,0.0575932732989056,0.00199999999995271
26,29,0.0619927597433483,0.00199999999995271
26,30,0.0544682602243239,0.00199999999995271
27,1,0.073111837464548,0.00199999999995271
27,2,0.102941530965205,0.00199999999995271
27,3,0.0831408353667459,0.00199999999995271
27,4,0.0947022153053505,0.00200000000040745
27,5,0.103776462767625,0.00199999999995271
27,6,0.0790606465433926,0.00199999999995271
27,7,0.132171686083121,0.00199999999995271
27,8,0.0638423975088314,0.00199999999995271
27,9,0.17179836866142,0.00199999999995271
27,10,0.157765161698821,0.00199999999995271
27,11,0.146082537388301,0.00199999999995271
27,12,0.0731021850247168,0.00199999999995271
27,13,0.0610574362979099,0.00200000000040745
27,14,0.0906888745522512,0.00199999999995271
27,15,0.0798860564706748,0.00199999999995271
27,16,0.0743887376307601,0.000999999999748979
27,17,0.108876454791416,0.000999999999748979
27,18,0.0727698766977155,0.000999999999748979
27,19,0.093631631233054,0.00200000000040745
27,20,0.082816532931061,0.00199999999995271
27,21,0.079954064860163,0.00199999999995271
27,22,0.0855146499412269,0.00199999999995271
27,23,0.0648838257830413,0.00199999999995271
27,24,0.159778519507476,0.00199999999995271
27,25,0.147777107146035,0.00199999999995271
27,26,0.0864928542960192,0.00199999999995271
27,27,0.08243101723993,0.00199999999995271
27,28,0.0719766418339247,0.00200000000040745
27,29,0.0779097400842764,0.00199999999995271
27,30,0.0687968040874644,0.00199999999995271
28,1,0.0749766813775696,0.00199999999995271
28,2,0.104757072202807,0.00599999999985812
28,3,0.0851229960667349,0.00199999999995271
28,4,0.0810839279500525,0.00199999999995271
28,5,0.107038531647855,0.00199999999995271
28,6,0.0807170785182886,0.00200000000040745
28,7,0.124376151833819,0.00199999999995271
28,8,0.067135237215166,0.00199999999995271
28,9,0.171395302447064,0.00199999999995271
28,10,0.161938897629393,0.00199999999995271
28,11,0.144018255253685,0.00100000000020373
28,12,0.0720412045573115,0.00100000000020373
28,13,0.0583924505234713,0.00100000000020373
28,14,0.0947926853961219,0.00199999999995271
28,15,0.0813371371975102,0.00199999999995271
28,16,0.078506885862944,0.00199999999995271
28,17,0.111061983555391,0.00199999999995271
28,18,0.0712933805963195,0.00199999999995271
28,19,0.0953657083909932,0.00199999999995271
28,20,0.0832822980749989,0.00199999999995271
28,21,0.0789329637579119,0.00200000000040745
28,22,0.0860365531919374,0.00199999999995271
28,23,0.0669539478798843,0.00199999999995271
28,24,0.157542566498294,0.00199999999995271
28,25,0.139035702926903,0.00199999999995271
28,26,0.0925331683922473,0.00199999999995271
28,27,0.0835101439829049,0.00199999999995271
28,28,0.0714922269851082,0.00199999999995271
28,29,0.0787703296195657,0.00199999999995271
28,30,0.0661022803119947,0.00199999999995271
29,1,0.0680902846388001,0.00200000000040745
29,2,0.0928706508858584,0.00199999999995271
29,3,0.0498649622402827,0.00199999999995271
29,4,0.0842221913433881,0.00199999999995271
29,5,0.0935389787667072,0.00199999999995271
29,6,0.0731466600948904,0.00199999999995271
29,7,0.116306142870765,0.00199999999995271
29,8,0.0287625632795331,0.00199999999995271
29,9,0.156318925164773,0.00199999999995271
29,10,0.143569881635441,0.00200000000040745
29,11,0.131468051198962,0.00199999999995271
29,12,0.068408183736143,0.00199999999995271
29,13,0.0594509097940365,0.00199999999995271
29,14,0.0830945955772266,0.00199999999995271
29,15,0.0454275618114243,0.00199999999995271
29,16,0.0705152400520208,0.00199999999995271
29,17,0.0798545643088709,0.00199999999995271
29,18,0.0665765754567105,0.00199999999995271
29,19,0.0840790490733302,0.00199999999995271
29,20,0.0751082046922922,0.00200000000040745
29,21,0.0760773175908231,0.00199999999995271
29,22,0.0772725785628355,0.00199999999995271
29,23,0.0619837071382293,0.00199999999995271
29,24,0.145448645805494,0.00199999999995271
29,25,0.131288095969824,0.00199999999995271
29,26,0.0807712202051133,0.00199999999995271
29,27,0.0477376617715539,0.00199999999995271
29,28,0.0652375150451507,0.00199999999995271
29,29,0.0717595285190164,0.00200000000040745
29,30,0.0650419081053399,0.00199999999995271
30,1,0.0729738156924014,0.00199999999995271
30,2,0.0981914352104156,0.00199999999995271
30,3,0.082399914652644,0.00199999999995271
30,4,0.0701566541308895,0.00199999999995271
30,5,0.10137210794033,0.00199999999995271
30,6,0.0778593314583571,0.00599999999985812
30,7,0.113464215531378,0.00200000000040745
30,8,0.065242454703203,0.00199999999995271
30,9,0.160753700785753,0.00199999999995271
30,10,0.153842262503437,0.00199999999995271
30,11,0.132827921984694,0.00199999999995271
30,12,0.070599584100034,0.00199999999995271
30,13,0.0591010932074789,0.00199999999995271
30,14,0.0901268626119809,0.00199999999995271
30,15,0.0778509940457015,0.00199999999995271
30,16,0.0769061234764542,0.00199999999995271
30,17,0.103869158095118,0.00200000000040745
30,18,0.0685994614663421,0.00199999999995271
30,19,0.0897904584000923,0.00199999999995271
30,20,0.0803730307320698,0.00199999999995271
30,21,0.0745182986773273,0.00199999999995271
30,22,0.0800163255350094,0.00199999999995271
30,23,0.064434241505401,0.00199999999995271
30,24,0.145977103957213,0.00100000000020373
30,25,0.128047605152859,0.00100000000020373
30,26,0.0875098969930099,0.00199999999995271
30,27,0.0787279055557128,0.00199999999995271
30,28,0.0697603690890449,0.00199999999995271
30,29,0.0758072383606747,0.00199999999995271
30,30,0.0645910476810353,0.00199999999995271
