App - AnkiDroid
Scenario - learn_cards
Level - 1sec
Measure - ARPicDistance
Test Statistic - Mann-Whitney U Test
Effect Size Measure - Simple Difference:Kerby
Alpha Level - 0.05


"Before.Version","After.Version","Diff","Direction","P.Value","Simple.Diff","Within.Diffs.Mean","Within.Diffs.SD","Between.Diffs.Mean","Between.Diffs.SD","Runtime"
"2.5_b","2.6_b",FALSE,NA,0.062,0.052,0.051,0.016,0.051,0.017,4.322
"2.6_b","2.7_f",TRUE,"NEGATIVE",0,0.838,0.052,0.016,0.112,0.051,4.581
"2.7_f","2.8_f",FALSE,NA,0.551,-0.004,0.089,0.044,0.097,0.067,5.077
