"Before.Trace.ID1","Before.Trace.ID2","Difference","Runtime"
1,2,58595.559992407,0.49100000000908
1,3,45303.5791270168,0.370999999999185
1,4,41729.3696355311,0.353999999992084
1,5,70313.6684462272,0.305999999996857
1,6,53590.9727810164,0.364000000001397
1,7,37794.0819667362,0.360000000000582
1,8,38472.3296988136,0.343999999997322
1,9,39743.04320032,0.341000000000349
1,10,63618.8233672859,0.343000000008033
1,11,37179.6625812707,0.343000000008033
1,12,44145.6452921996,0.339999999996508
1,13,56190.9239756609,0.343999999997322
1,14,29324.2048494755,0.341000000000349
1,15,54232.2162835156,0.293999999994412
1,16,31271.9678635796,0.292000000001281
1,17,63526.5728782759,0.305000000007567
1,18,32329.902891018,0.309999999997672
1,19,36448.3342852475,0.306999999986147
1,20,49938.8603767972,0.310000000012224
1,21,29007.8260543995,0.358000000007451
1,22,41788.4132729455,0.342000000004191
1,23,42295.9499661915,0.339999999996508
1,24,36791.2455553656,0.296000000002095
1,25,41684.4033536802,0.293999999994412
1,26,56170.3107654001,0.312999999994645
1,27,37701.3633335556,0.344000000011874
1,28,49400.4862634834,0.320999999996275
1,29,49996.5794313302,0.365999999994528
1,30,53741.2276434087,0.364000000001397
2,3,63018.2787311462,0.365000000005239
2,4,33422.4703263714,0.35999999998603
2,5,22575.8531997056,0.359000000011292
2,6,31982.9857328815,0.364999999990687
2,7,31418.2933666496,0.361000000004424
2,8,23123.0803689215,0.357999999992899
2,9,27591.1423582335,0.362000000008265
2,10,21147.0309022308,0.35899999999674
2,11,25184.0797077597,0.355999999999767
2,12,46613.5468207127,0.362999999997555
2,13,34041.2087405913,0.364000000001397
2,14,35627.9502323691,0.313000000009197
2,15,30189.5126419298,0.304000000003725
2,16,35759.6778750463,0.309999999997672
2,17,29040.8604277998,0.282999999995809
2,18,32063.646132907,0.312000000005355
2,19,44807.0413229899,0.313999999998487
2,20,17041.7625594786,0.297999999995227
2,21,45160.3221072054,0.296000000002095
2,22,29201.7424958167,0.302999999999884
2,23,68249.4815532904,0.351999999998952
2,24,59129.7826609409,0.362999999997555
2,25,26016.1877676673,0.362999999997555
2,26,45606.1654679101,0.362000000008265
2,27,44525.9897731876,0.364999999990687
2,28,31386.1489461621,0.363000000012107
2,29,56228.0642244642,0.360999999989872
2,30,20728.8080220243,0.361000000004424
3,4,75472.1465435302,0.362999999997555
3,5,52569.6758197771,0.317999999999302
3,6,64007.5539872147,0.317000000010012
3,7,38210.7322914545,0.3009999999922
3,8,54505.9005806194,0.343000000008033
3,9,39519.273016697,0.35899999999674
3,10,81148.4866953542,0.364999999990687
3,11,56428.4256350487,0.389999999999418
3,12,28580.9053993219,0.38300000000163
3,13,30472.9810396299,0.379000000000815
3,14,61265.9712898388,0.376999999993131
3,15,76674.2799906005,0.381000000008498
3,16,31289.1393699971,0.379999999990105
3,17,73684.1987011275,0.332999999998719
3,18,23973.2424208119,0.302999999999884
3,19,36598.3142946662,0.305999999996857
3,20,62614.197630528,0.339000000007218
3,21,46219.6863930015,0.357999999992899
3,22,52865.0500368923,0.414999999993597
3,23,79299.960643473,0.285000000003492
3,24,44022.8832685623,0.307000000000698
3,25,53807.0177376371,0.332999999998719
3,26,71690.9556298482,0.286000000007334
3,27,53049.6022224474,0.347999999998137
3,28,34809.1026745773,0.338000000003376
3,29,67931.4712634456,0.341999999989639
3,30,50463.6596789597,0.343000000008033
4,5,45548.9336273964,0.396999999997206
4,6,38266.4661356354,0.380999999993946
4,7,24756.7740218206,0.380000000004657
4,8,19553.2249605138,0.380000000004657
4,9,37574.4469641138,0.330999999991036
4,10,31253.1703624478,0.30800000000454
4,11,24074.2626845609,0.3009999999922
4,12,43442.1657246774,0.350000000005821
4,13,41366.6796464983,0.343999999997322
4,14,31044.5103882434,0.341000000000349
4,15,28190.9429069191,0.296000000002095
4,16,37907.8589096287,0.326999999990221
4,17,37115.6532000992,0.403000000005704
4,18,33832.6406050708,0.312000000005355
4,19,48144.0454158902,0.295000000012806
4,20,22424.4773067178,0.294999999998254
4,21,38868.4054751392,0.296999999991385
4,22,33433.8655036945,0.360000000000582
4,23,41954.3986220974,0.334999999991851
4,24,40480.4393125026,0.340000000011059
4,25,17769.4336553789,0.336999999999534
4,26,35658.7725571594,0.339999999996508
4,27,43296.6887494677,0.339999999996508
4,28,34927.4127904211,0.339999999996508
4,29,27698.807211196,0.339000000007218
4,30,34568.0140775856,0.336999999999534
5,6,33580.5529274657,0.342999999993481
5,7,44425.6686067715,0.344000000011874
5,8,32664.9209442761,0.298999999999069
5,9,17580.1784526532,0.285999999992782
5,10,25495.9822044444,0.312000000005355
5,11,33191.9506124171,0.294999999998254
5,12,37227.6046611221,0.312999999994645
5,13,32054.9984698458,0.304000000003725
5,14,51918.8195061994,0.346999999994296
5,15,39998.3020696651,0.359000000011292
5,16,44851.0407472772,0.365999999994528
5,17,25473.4425224738,0.388999999995576
5,18,28279.3470071539,0.384000000005472
5,19,49203.242780609,0.380999999993946
5,20,27705.6492804729,0.336000000010245
5,21,42513.7453603583,0.311999999990803
5,22,27509.4579872717,0.305999999996857
5,23,78231.1955580999,0.350000000005821
5,24,47590.7337201822,0.322000000000116
5,25,42936.5544021797,0.350999999995111
5,26,47976.390668171,0.35899999999674
5,27,52611.2384891121,0.396000000007916
5,28,26141.3355589617,0.377999999996973
5,29,64232.6111847916,0.381999999997788
5,30,20387.6409361241,0.380000000004657
6,7,33624.2316042654,0.379999999990105
6,8,36573.2676553148,0.381000000008498
6,9,28192.1047243841,0.385999999998603
6,10,35190.5286771441,0.38300000000163
6,11,45411.1187566731,0.338000000003376
6,12,40660.079961959,0.375
6,13,27819.5322846217,0.352999999988242
6,14,44730.465123592,0.387000000002445
6,15,50460.0610563262,0.33200000000943
6,16,44515.3631443087,0.312999999994645
6,17,48048.054514382,0.30899999999383
6,18,31629.1635113046,0.343999999997322
6,19,54222.3598292835,0.359000000011292
6,20,37184.9623783281,0.364999999990687
6,21,59020.6487396471,0.347999999998137
6,22,33028.8091156286,0.355999999999767
6,23,76019.27164759,0.355999999999767
6,24,39235.77061123,0.38300000000163
6,25,24370.6159976997,0.376999999993131
6,26,20188.49010327,0.378000000011525
6,27,34900.2682357379,0.381999999997788
6,28,28232.6650209249,0.379999999990105
6,29,89206.9294481114,0.385000000009313
6,30,27467.9418321785,0.380999999993946
7,8,18687.9902511572,0.380000000004657
7,9,28830.4240012896,0.379000000000815
7,10,45544.6065104213,0.379999999990105
7,11,24110.1255810577,0.381000000008498
7,12,28776.2865409567,0.380999999993946
7,13,29282.5868726028,0.332999999998719
7,14,30119.1204155794,0.305000000007567
7,15,42492.8332363663,0.304999999993015
7,16,21557.9535285153,0.335999999995693
7,17,53748.2086815246,0.357000000003609
7,18,27786.5975058416,0.361000000004424
7,19,30613.2078523796,0.336999999999534
7,20,30596.4362438414,0.328999999997905
7,21,32183.8716168412,0.344000000011874
7,22,31817.2381171024,0.368000000002212
7,23,58615.2646258715,0.392000000007101
7,24,38684.47301851,0.377000000007683
7,25,21479.7237588887,0.377999999996973
7,26,43594.0384715749,0.373999999996158
7,27,27895.7901094928,0.378000000011525
7,28,25154.581699881,0.377999999996973
7,29,42427.6128079366,0.380000000004657
7,30,34529.1481040868,0.377999999996973
8,9,22482.4944339233,0.377999999996973
8,10,24703.8430468085,0.38300000000163
8,11,16499.1689874296,0.376999999993131
8,12,26443.6842991455,0.381999999997788
8,13,28429.6973126817,0.381999999997788
8,14,23099.2664579789,0.379000000000815
8,15,31583.1748861751,0.380999999993946
8,16,32667.7073200556,0.38300000000163
8,17,39114.1001078465,0.334000000002561
8,18,26922.3358515604,0.313000000009197
8,19,34871.7292607322,0.301999999996042
8,20,22589.8813181884,0.341999999989639
8,21,25384.1166498031,0.360000000000582
8,22,31425.1668602405,0.36600000000908
8,23,51508.8544589194,0.388999999995576
8,24,31219.4812911192,0.385999999998603
8,25,23056.9637258666,0.381000000008498
8,26,36269.7834229444,0.331999999994878
8,27,29722.6775954816,0.312999999994645
8,28,24236.3319693832,0.30800000000454
8,29,21737.3715270928,0.341000000000349
8,30,20586.9500062646,0.315000000002328
9,10,28345.997212653,0.347999999998137
9,11,31418.1646094171,0.35899999999674
9,12,22841.9798870654,0.389999999999418
9,13,29257.4002940647,0.380000000004657
9,14,32186.2564870312,0.334000000002561
9,15,46112.9781722376,0.312999999994645
9,16,35002.0156910627,0.309999999997672
9,17,31670.6052020199,0.342999999993481
9,18,20088.9543044334,0.354000000006636
9,19,40721.1839703839,0.365000000005239
9,20,28868.908247842,0.387000000002445
9,21,35861.6355161913,0.384000000005472
9,22,15010.3947228655,0.376999999993131
9,23,60158.9451612566,0.381000000008498
9,24,28692.8137338377,0.381999999997788
9,25,31272.4427158376,0.381999999997788
9,26,32723.5178493652,0.331999999994878
9,27,30891.8068095564,0.315000000002328
9,28,13658.3441484871,0.297000000005937
9,29,42844.083620204,0.342000000004191
9,30,17141.6198801702,0.354000000006636
10,11,25676.0046282004,0.361999999993714
10,12,51672.3892814371,0.388999999995576
10,13,42473.4141158773,0.384000000005472
10,14,40349.4942760904,0.38300000000163
10,15,25432.6276259708,0.328999999997905
10,16,46604.1467094563,0.311999999990803
10,17,15072.1183971655,0.302000000010594
10,18,30691.8100134405,0.339999999996508
10,19,45266.0362485552,0.315999999991618
10,20,20492.6195338724,0.347000000008848
10,21,40896.8946516964,0.35899999999674
10,22,33537.3644272545,0.392000000007101
10,23,65003.8719495953,0.38399999999092
10,24,54931.9552875037,0.335999999995693
10,25,38198.0567839777,0.311000000001513
10,26,44130.4134624565,0.301999999996042
10,27,57286.7850660583,0.351999999998952
10,28,40519.3350266104,0.342000000004191
10,29,43746.7077001257,0.343999999997322
10,30,26191.7871831471,0.298999999999069
11,12,38205.2327816346,0.312000000005355
11,13,39913.8846474877,0.312000000005355
11,14,24370.9299601857,0.341999999989639
11,15,27134.8257629306,0.297000000005937
11,16,35052.2607067905,0.380999999993946
11,17,27242.5931201245,0.377000000007683
11,18,26243.8864029342,0.381999999997788
11,19,28794.9548712636,0.372999999992317
11,20,21596.6942739724,0.376000000003842
11,21,21667.5289043844,0.380999999993946
11,22,32574.0306012055,0.381000000008498
11,23,51214.7572394932,0.379000000000815
11,24,44153.8043705894,0.387000000002445
11,25,29927.9565018409,0.379999999990105
11,26,48977.4198669356,0.334000000002561
11,27,40178.4501543281,0.312999999994645
11,28,32339.343651168,0.309000000008382
11,29,26086.4567726563,0.342000000004191
11,30,23271.1858909434,0.312999999994645
12,13,31579.3858814592,0.349000000001979
12,14,46570.4665931739,0.357999999992899
12,15,76762.0958724461,0.395000000004075
12,16,32751.2789805219,0.384000000005472
12,17,74030.2829935266,0.335999999995693
12,18,23514.3181098976,0.309999999997672
12,19,50116.3707131771,0.305999999996857
12,20,49333.1399285279,0.351000000009662
12,21,35342.6938637136,0.341999999989639
12,22,42916.5244659744,0.342000000004191
12,23,91580.5584849422,0.302999999999884
12,24,33130.2965608924,0.30899999999383
12,25,48908.2788001187,0.311000000001513
12,26,39551.5732681217,0.361999999993714
12,27,46811.5132642192,0.346000000005006
12,28,17770.9515272954,0.339999999996508
12,29,45115.7455257608,0.297000000005937
12,30,29378.1058931735,0.290999999997439
13,14,50753.5344325097,0.305999999996857
13,15,56076.174148446,0.309999999997672
13,16,27026.5092435399,0.307000000000698
13,17,56602.6573304716,0.311000000001513
13,18,22531.7463578815,0.35899999999674
13,19,37890.8659420766,0.343000000008033
13,20,37119.603874084,0.342999999993481
13,21,42224.4198005042,0.298999999999069
13,22,35577.5378447296,0.292000000001281
13,23,70378.7581598195,0.304999999993015
13,24,30763.7866227581,0.368000000002212
13,25,28791.3092701281,0.369999999995343
13,26,35188.0037335298,0.373000000006869
13,27,26782.348373116,0.322000000000116
13,28,24914.1293137356,0.304000000003725
13,29,57583.647268614,0.311999999990803
13,30,25022.5012727297,0.281000000002678
14,15,37885.1324008013,0.313999999998487
14,16,40591.3144114942,0.31600000000617
14,17,44418.3484825334,0.357000000003609
14,18,25727.9867823597,0.386999999987893
14,19,30077.704196764,0.379000000000815
14,20,32826.6057394137,0.376000000003842
14,21,21263.3115237013,0.379000000000815
14,22,21945.0079672202,0.377999999996973
14,23,45639.4945838107,0.376999999993131
14,24,45637.8231052162,0.384000000005472
14,25,38623.6681024757,0.380999999993946
14,26,51909.2714456261,0.332999999998719
14,27,34890.7538869292,0.311000000001513
14,28,41424.1242034586,0.304000000003725
14,29,26632.5389531972,0.288999999989755
14,30,34177.168585233,0.304000000003725
15,16,39794.8555568664,0.311000000001513
15,17,16673.1443117389,0.343999999997322
15,18,43608.9493453539,0.35899999999674
15,19,31925.8958826554,0.361000000004424
15,20,28011.5725467193,0.355999999999767
15,21,49555.7387882179,0.362999999997555
15,22,32637.0879457958,0.364000000001397
15,23,29598.7641075661,0.354999999995925
15,24,68800.0937599385,0.368000000002212
15,25,29021.9095257079,0.360000000000582
15,26,59515.1947958066,0.357000000003609
15,27,59865.6189009581,0.365999999994528
15,28,60245.2042841735,0.413000000000466
15,29,39573.8608660386,0.285999999992782
15,30,49640.2770612995,0.325000000011642
16,17,48057.3865629623,0.312999999994645
16,18,21546.7674308357,0.315000000002328
16,19,21439.922296979,0.360000000000582
16,20,36832.7329309905,0.353999999992084
16,21,36936.8908890659,0.389000000010128
16,22,38839.5206389947,0.382999999987078
16,23,57647.1051823404,0.384000000005472
16,24,39976.2977564009,0.380000000004657
16,25,29430.4523341447,0.377999999996973
16,26,59967.9819794544,0.38200000001234
16,27,39159.6085877546,0.332999999998719
16,28,31760.7688567655,0.302999999999884
16,29,51163.0954934869,0.307999999989988
16,30,39745.966941539,0.341000000000349
17,18,35269.7155718932,0.359000000011292
17,19,36069.178540926,0.361999999993714
17,20,25956.0864578739,0.338000000003376
17,21,41733.0567354625,0.334999999991851
17,22,34315.6743309733,0.400000000008731
17,23,55633.8275178579,0.307000000000698
17,24,65498.1328709264,0.335999999995693
17,25,42164.3045374836,0.297000000005937
17,26,55948.9157096604,0.331999999994878
17,27,69594.2432977412,0.302000000010594
17,28,56401.4431262286,0.309999999997672
17,29,47516.6104506742,0.365000000005239
17,30,36533.3615151993,0.340999999985797
18,19,27819.4195625662,0.336000000010245
18,20,31852.0302294132,0.339999999996508
18,21,22810.9772199506,0.290999999997439
18,22,27406.0345251919,0.286999999996624
18,23,59145.6372455673,0.294999999998254
18,24,28503.6784212087,0.297000000005937
18,25,33719.815694079,0.312999999994645
18,26,33267.3133426612,0.294000000008964
18,27,29843.9047401667,0.311000000001513
18,28,24157.4721358025,0.3009999999922
18,29,40216.6164117868,0.351999999998952
18,30,23657.3684569001,0.339999999996508
19,20,40900.7317197403,0.341000000000349
19,21,33328.9175027526,0.298999999999069
19,22,38280.4844150801,0.30800000000454
19,23,38859.8897769079,0.30800000000454
19,24,39251.9124415377,0.362999999997555
19,25,38485.732161527,0.341000000000349
19,26,56617.9619103494,0.344000000011874
19,27,36641.5362712414,0.29299999999057
19,28,45741.7803224362,0.286000000007334
19,29,48378.5645390726,0.307999999989988
19,30,46161.9441138673,0.294000000008964
20,21,39164.5363436284,0.312999999994645
20,22,31164.8631346486,0.309000000008382
20,23,57913.7782735762,0.341000000000349
20,24,54684.2270554383,0.360999999989872
20,25,24919.7114353435,0.360000000000582
20,26,42792.0858316484,0.381999999997788
20,27,44509.4810407766,0.380999999993946
20,28,32483.1452504775,0.380000000004657
20,29,36950.697786972,0.373999999996158
20,30,25529.3819157686,0.380000000004657
21,22,36293.0987665745,0.37599999998929
21,23,56224.3890504388,0.384999999994761
21,24,34735.010698051,0.384000000005472
21,25,53253.2052195342,0.384000000005472
21,26,52839.8163493254,0.334999999991851
21,27,35874.3419099167,0.313000000009197
21,28,37302.584690038,0.30899999999383
21,29,25419.4436516608,0.283999999999651
21,30,33406.3644169581,0.309000000008382
22,23,46179.8348250339,0.312999999994645
22,24,48698.9497258684,0.283999999999651
22,25,30851.8894286963,0.342000000004191
22,26,42541.9471290972,0.355999999999767
22,27,33752.7086801459,0.360000000000582
22,28,29201.1322194821,0.338999999992666
22,29,54370.9036196778,0.309999999997672
22,30,27358.283672374,0.30000000000291
23,24,69475.7536952611,0.296999999991385
23,25,42715.420210375,0.302000000010594
23,26,69318.5020617218,0.331999999994878
23,27,56727.8404046419,0.290999999997439
23,28,86708.0077262873,0.36600000000908
23,29,46049.0247065101,0.354999999995925
23,30,75316.0540424984,0.392999999996391
24,25,41655.131687667,0.331999999994878
24,26,28997.4749196762,0.309999999997672
24,27,24069.6388137653,0.301000000006752
24,28,36091.9004757913,0.290999999997439
24,29,44014.3967418194,0.304999999993015
24,30,31340.7238379635,0.331000000005588
25,26,29358.3764494783,0.286999999996624
25,27,30417.3642246846,0.361999999993714
25,28,32550.9166178259,0.353000000002794
25,29,52976.9996180207,0.384999999994761
25,30,33556.6941979765,0.33200000000943
26,27,27293.2067584145,0.309999999997672
26,28,38542.3287775404,0.302999999999884
26,29,53119.3864887724,0.293999999994412
26,30,27342.81878115,0.301999999996042
27,28,35414.2236993067,0.3240000000078
27,29,46847.2246323367,0.293999999994412
27,30,37538.8000191179,0.35899999999674
28,29,49141.3523655571,0.355999999999767
28,30,22757.2186138212,0.384999999994761
29,30,35753.4966101739,0.331000000005588


"After.Trace.ID","Before.Trace.ID","Difference","Runtime"
1,1,47273.5679145991,0.335999999995693
1,2,68269.0407768863,0.349000000001979
1,3,32671.6039114228,0.370999999999185
1,4,58882.1138525925,0.389999999999418
1,5,59679.9775271467,0.38300000000163
1,6,51825.1284409522,0.385999999998603
1,7,39587.2411709388,0.381999999997788
1,8,47249.5315617253,0.380000000004657
1,9,40054.9971330195,0.38399999999092
1,10,83638.5423374813,0.385999999998603
1,11,52897.3241936532,0.334000000002561
1,12,33319.4437907329,0.311000000001513
1,13,33776.7557907899,0.302999999999884
1,14,58335.0294836069,0.347999999998137
1,15,91578.0916039879,0.343000000008033
1,16,55021.1771121289,0.343999999997322
1,17,98952.1570940022,0.303999999989173
1,18,34205.3094784122,0.301000000006752
1,19,55608.1850037726,0.30899999999383
1,20,74178.3605326307,0.297000000005937
1,21,41998.4254328903,0.349000000001979
1,22,45398.5155761107,0.350999999995111
1,23,90913.0934941492,0.384000000005472
1,24,40317.7866330896,0.338999999992666
1,25,54396.5102322642,0.292000000001281
1,26,53295.4151913634,0.30899999999383
1,27,37687.7026505249,0.30000000000291
1,28,41681.5944461945,0.343000000008033
1,29,66264.9658461239,0.355999999999767
1,30,49529.9640006181,0.387999999991735
2,1,50895.7362018812,0.377000000007683
2,2,97175.0293179564,0.384000000005472
2,3,67684.6380654703,0.377999999996973
2,4,62325.5635491918,0.381000000008498
2,5,116379.763642863,0.387999999991735
2,6,82198.7621760919,0.388000000006286
2,7,57832.0677584321,0.386999999987893
2,8,70906.4402355317,0.384000000005472
2,9,85012.4907856178,0.336999999999534
2,10,112692.091931812,0.369999999995343
2,11,80807.2194543033,0.354000000006636
2,12,80078.28549803,0.384999999994761
2,13,70156.3364755144,0.38300000000163
2,14,79401.1376818256,0.38300000000163
2,15,103385.82450176,0.334000000002561
2,16,74702.6582221667,0.309999999997672
2,17,110184.840526735,0.307000000000698
2,18,78527.7704818602,0.351999999998952
2,19,82882.1834492795,0.341000000000349
2,20,83181.6271601951,0.345000000001164
2,21,77393.3839371206,0.304000000003725
2,22,90186.6556314774,0.30899999999383
2,23,86758.590163217,0.307000000000698
2,24,76546.1214013757,0.297000000005937
2,25,61478.218285859,0.351999999998952
2,26,83376.9463785453,0.355999999999767
2,27,65968.1317926964,0.385999999998603
2,28,85020.6531606996,0.339999999996508
2,29,96828.8650376276,0.302999999999884
2,30,93738.1517819669,0.305000000007567
3,1,31514.7304993372,0.298000000009779
3,2,40633.4661121764,0.343999999997322
3,3,30874.8986203716,0.349999999991269
3,4,43541.1668661407,0.388000000006286
3,5,35786.9577254606,0.38300000000163
3,6,39245.0672998639,0.38399999999092
3,7,26807.4464065143,0.375
3,8,38875.2331993255,0.380000000004657
3,9,26914.9932010722,0.379000000000815
3,10,40106.3523235829,0.375
3,11,38631.9774527414,0.381999999997788
3,12,28928.6374391916,0.380999999993946
3,13,24682.3947900265,0.330000000001746
3,14,30658.9259749169,0.30899999999383
3,15,41466.0186300193,0.301000000006752
3,16,28857.0542683144,0.288000000000466
3,17,38981.0085686632,0.304000000003725
3,18,16519.2320837935,0.302999999999884
3,19,32165.1336820835,0.346999999994296
3,20,36561.3822504363,0.362999999997555
3,21,27209.8277485904,0.360000000000582
3,22,25655.9087507437,0.357000000003609
3,23,46284.9195594705,0.364000000001397
3,24,38958.4720324904,0.364000000001397
3,25,39332.2837385087,0.311999999990803
3,26,36779.921006521,0.302999999999884
3,27,29549.6392891145,0.30800000000454
3,28,27045.8605573366,0.338999999992666
3,29,54735.4784841729,0.35899999999674
3,30,32194.6472904732,0.362000000008265
4,1,39855.6230156873,0.339999999996508
4,2,78200.0013483591,0.312999999994645
4,3,82986.3579262875,0.302999999999884
4,4,28341.8260406656,0.339000000007218
4,5,93634.30273951,0.361000000004424
4,6,97178.3647594197,0.365999999994528
4,7,47967.3399820491,0.385999999998603
4,8,30846.5401981877,0.380000000004657
4,9,67098.0420450575,0.385999999998603
4,10,63054.4621456376,0.334000000002561
4,11,39011.8075910335,0.311000000001513
4,12,67929.3037911382,0.305999999996857
4,13,62496.0055626368,0.350999999995111
4,14,40417.7700020796,0.339999999996508
4,15,39846.7009702377,0.340000000011059
4,16,49695.6250668949,0.297999999995227
4,17,66390.6878601278,0.311000000001513
4,18,56224.9374768914,0.305999999996857
4,19,45861.8932422648,0.350000000005821
4,20,57924.9410355321,0.342999999993481
4,21,40972.4929200093,0.339999999996508
4,22,73860.092004171,0.339999999996508
4,23,24342.7776784221,0.339000000007218
4,24,55930.8327122263,0.343999999997322
4,25,51029.0063971793,0.301000000006752
4,26,61073.8298450408,0.309999999997672
4,27,49780.4871436803,0.305999999996857
4,28,73433.367074309,0.345999999990454
4,29,25548.3896999433,0.294999999998254
4,30,58213.3144638447,0.380000000004657
5,1,51362.6054249478,0.379000000000815
5,2,50240.5891401374,0.380000000004657
5,3,30510.3932773387,0.375
5,4,38612.2308955297,0.375
5,5,56778.8245600592,0.384999999994761
5,6,53013.5685454358,0.384999999994761
5,7,22177.837278153,0.375
5,8,30142.7858644986,0.378000000011525
5,9,39108.986574041,0.379999999990105
5,10,61756.6203093286,0.334000000002561
5,11,41483.9254015739,0.309999999997672
5,12,29196.5298077829,0.301999999996042
5,13,24174.4603964005,0.349000000001979
5,14,41694.2804897648,0.339000000007218
5,15,63586.3155763042,0.338999999992666
5,16,35225.8199350944,0.297999999995227
5,17,70017.6054392968,0.30800000000454
5,18,37347.4168563188,0.311000000001513
5,19,37480.9906269411,0.297999999995227
5,20,42587.9951853283,0.293000000005122
5,21,39007.8361995972,0.301999999996042
5,22,48884.0822537025,0.365000000005239
5,23,66176.6927185057,0.373999999996158
5,24,35828.576349765,0.372000000003027
5,25,31397.8037524009,0.319999999992433
5,26,54910.9795187015,0.315000000002328
5,27,34904.3814069751,0.309000000008382
5,28,33010.6252087934,0.341999999989639
5,29,47619.5983500565,0.315000000002328
5,30,44285.5977254152,0.380000000004657
6,1,90509.3469697275,0.380999999993946
6,2,156069.180091314,0.387999999991735
6,3,87213.2959083664,0.381000000008498
6,4,137637.636040825,0.381999999997788
6,5,139124.292997852,0.388999999995576
6,6,120193.866891092,0.392000000007101
6,7,98390.7948964536,0.379000000000815
6,8,129609.097937526,0.38399999999092
6,9,107761.789181283,0.385000000009313
6,10,192024.939132748,0.38399999999092
6,11,141760.770109016,0.39100000000326
6,12,96363.6602103012,0.385999999998603
6,13,95613.6279557711,0.376000000003842
6,14,147357.365533574,0.322999999989406
6,15,198344.82430277,0.36600000000908
6,16,129484.999183344,0.363000000012107
6,17,201984.230813284,0.36799999998766
6,18,118528.195240337,0.362000000008265
6,19,134616.380360823,0.360999999989872
6,20,156575.558057156,0.369000000006054
6,21,130210.967230396,0.371999999988475
6,22,123102.951945412,0.361000000004424
6,23,177751.917038611,0.361000000004424
6,24,107627.826497914,0.368999999991502
6,25,123586.957097684,0.361000000004424
6,26,120079.220029089,0.368000000002212
6,27,106849.575280223,0.36600000000908
6,28,112113.83939103,0.363000000012107
6,29,175579.168237778,0.368999999991502
6,30,137617.171700147,0.368000000002212
7,1,45765.5672868788,0.312999999994645
7,2,61213.2148258737,0.311000000001513
7,3,54749.5356340229,0.305000000007567
7,4,37693.5026832768,0.293999999994412
7,5,68490.8316607079,0.305000000007567
7,6,48550.9559565117,0.317999999999302
7,7,27522.8044725472,0.347999999998137
7,8,30757.0270998419,0.35899999999674
7,9,41887.3825134705,0.362999999997555
7,10,71804.2039278046,0.361000000004424
7,11,41380.1326948917,0.362999999997555
7,12,44708.7674899986,0.365999999994528
7,13,33330.4451854285,0.35899999999674
7,14,48913.9704922206,0.362999999997555
7,15,59154.2263753025,0.364000000001397
7,16,50791.3462651085,0.31600000000617
7,17,69900.747615044,0.311999999990803
7,18,47084.4916756179,0.301000000006752
7,19,46258.693438727,0.341000000000349
7,20,46754.8789926926,0.354999999995925
7,21,48273.4740080602,0.365000000005239
7,22,56860.3744938701,0.389000000010128
7,23,56449.9939923549,0.379999999990105
7,24,29571.6749908225,0.380000000004657
7,25,32717.2267451507,0.330000000001746
7,26,34361.971189243,0.30899999999383
7,27,24393.2791116544,0.298999999999069
7,28,43721.3803889383,0.350999999995111
7,29,49286.571839148,0.341000000000349
7,30,46004.5931032862,0.341000000000349
8,1,79826.7049612046,0.302999999999884
8,2,91600.5708862188,0.309999999997672
8,3,47650.972481458,0.30000000000291
8,4,83955.7146694389,0.349000000001979
8,5,89318.8744131625,0.345000000001164
8,6,73725.9132405958,0.345000000001164
8,7,64944.7788661786,0.340000000011059
8,8,81035.2369713859,0.344999999986612
8,9,68236.8968024816,0.342000000004191
8,10,118628.62849943,0.305999999996857
8,11,90975.625956961,0.36699999999837
8,12,64666.5821693577,0.353000000002794
8,13,48949.7333577891,0.33200000000943
8,14,99788.5902287655,0.311000000001513
8,15,120760.701303718,0.314999999987776
8,16,76698.6470041613,0.325000000011642
8,17,116463.423407264,0.410999999992782
8,18,73678.2740413659,0.30899999999383
8,19,86232.6956262761,0.303000000014435
8,20,86328.5615001014,0.307000000000698
8,21,94275.167072231,0.302999999999884
8,22,87725.3193497812,0.319000000003143
8,23,111891.94496541,0.304000000003725
8,24,78203.842630467,0.364999999990687
8,25,62336.9019615878,0.340000000011059
8,26,75001.054148484,0.339999999996508
8,27,65890.5741286073,0.343999999997322
8,28,62013.8184378017,0.293999999994412
8,29,129453.694202456,0.296000000002095
8,30,78183.0964257056,0.292000000001281
9,1,45306.5116801816,0.297999999995227
9,2,50590.5959632262,0.317999999999302
9,3,50504.0366515375,0.297000000005937
9,4,56080.6071418123,0.313999999998487
9,5,59934.4968972183,0.311999999990803
9,6,24552.8354063242,0.341000000000349
9,7,45869.2054522643,0.355999999999767
9,8,42987.1363473699,0.36600000000908
9,9,38933.8099790582,0.388000000006286
9,10,60484.6577114111,0.381999999997788
9,11,58620.9581449016,0.385999999998603
9,12,46692.7011250279,0.38300000000163
9,13,33942.742939893,0.381999999997788
9,14,58877.1910774829,0.387000000002445
9,15,66949.6624166881,0.332999999998719
9,16,41361.3339238154,0.312999999994645
9,17,69909.7742303391,0.304000000003725
9,18,39156.9906531057,0.343999999997322
9,19,50530.7407170626,0.360000000000582
9,20,54063.1486946282,0.364000000001397
9,21,57090.2111728565,0.391999999992549
9,22,55083.74481288,0.38300000000163
9,23,71838.0684963332,0.385000000009313
9,24,33123.5029415816,0.332999999998719
9,25,39210.5701209416,0.311999999990803
9,26,24916.3685797269,0.304000000003725
9,27,24796.6599105754,0.339999999996508
9,28,43466.9731679206,0.315000000002328
9,29,64273.895234257,0.350000000005821
9,30,42253.4973153095,0.360999999989872
10,1,45463.085839188,0.394000000000233
10,2,34780.8188584941,0.38200000001234
10,3,46312.1444877215,0.334000000002561
10,4,27766.380102811,0.30899999999383
10,5,39522.4753564454,0.302000000010594
10,6,28553.4779212998,0.351999999998952
10,7,19035.6495849811,0.338999999992666
10,8,20536.5131814655,0.338000000003376
10,9,23883.6156366691,0.335000000006403
10,10,45091.8566847718,0.342999999993481
10,11,30617.0029846116,0.341999999989639
10,12,27353.661703565,0.30000000000291
10,13,30278.1224677929,0.307000000000698
10,14,32779.4893723855,0.30899999999383
10,15,43917.6753801618,0.301000000006752
10,16,29654.9067207705,0.286999999996624
10,17,57046.7582888932,0.309999999997672
10,18,28183.7520343975,0.294999999998254
10,19,39510.9402328301,0.312000000005355
10,20,35033.2327203751,0.307000000000698
10,21,38035.47947311,0.342999999993481
10,22,36262.8155981106,0.354000000006636
10,23,59393.8523027893,0.36600000000908
10,24,22042.7017946845,0.38300000000163
10,25,27476.5477186605,0.379000000000815
10,26,23286.0794777474,0.377999999996973
10,27,24837.1165686615,0.376000000003842
10,28,23933.6444202277,0.380999999993946
10,29,31976.7144876801,0.377999999996973
10,30,20423.1281007086,0.373999999996158
11,1,51158.4274058567,0.38300000000163
11,2,69352.4354715036,0.43300000000454
11,3,50225.9828345693,0.286999999996624
11,4,53585.8459309552,0.3240000000078
11,5,77659.5226617525,0.309999999997672
11,6,68394.4172158851,0.312000000005355
11,7,42506.1876446661,0.361999999993714
11,8,47794.7181187851,0.338999999992666
11,9,61362.7596391813,0.339000000007218
11,10,81818.8343323919,0.343999999997322
11,11,53527.8609154126,0.342000000004191
11,12,67125.0544859579,0.342000000004191
11,13,41601.1724470202,0.341000000000349
11,14,53794.4952817078,0.342999999993481
11,15,65439.7608684494,0.293000000005122
11,16,50665.3326647885,0.290999999997439
11,17,84886.4760679431,0.302999999999884
11,18,50627.349552451,0.365999999994528
11,19,40604.9466702591,0.370000000009895
11,20,70759.795878218,0.373999999996158
11,21,55059.3448779133,0.326000000000931
11,22,57780.620211731,0.309999999997672
11,23,41815.5018337651,0.298999999999069
11,24,45015.6449292583,0.350000000005821
11,25,40657.1297485195,0.337999999988824
11,26,64743.9947965019,0.342000000004191
11,27,39392.5264593759,0.3009999999922
11,28,65494.7692121009,0.304000000003725
11,29,65306.4096200503,0.305999999996857
11,30,64244.2653885604,0.283999999999651
12,1,64260.1137032215,0.384000000005472
12,2,61076.8939939539,0.380000000004657
12,3,42226.9205409931,0.372999999992317
12,4,46767.3642781157,0.328000000008615
12,5,68586.5545560281,0.310999999986961
12,6,42547.6238450825,0.310000000012224
12,7,36011.9566076579,0.288999999989755
12,8,49502.1874249472,0.30000000000291
12,9,44500.7161366407,0.315000000002328
12,10,67638.0003780327,0.289999999993597
12,11,60135.4426357053,0.364000000001397
12,12,53650.6121738442,0.360000000000582
12,13,32495.386959212,0.384999999994761
12,14,75783.9141200307,0.381999999997788
12,15,50795.8773819031,0.384000000005472
12,16,43309.7194739312,0.379000000000815
12,17,62860.0160774923,0.379999999990105
12,18,49434.3844633635,0.384000000005472
12,19,45535.5259257353,0.376999999993131
12,20,50766.4553626765,0.327000000004773
12,21,74686.658281956,0.30800000000454
12,22,54160.4626928269,0.333999999988009
12,23,63544.6414722436,0.299000000013621
12,24,56406.1386657668,0.247999999992317
12,25,33859.1036443444,0.354999999995925
12,26,46496.7866376393,0.301000000006752
12,27,45925.7553259656,0.36699999999837
12,28,50520.7140176773,0.320999999996275
12,29,75221.9403594226,0.294999999998254
12,30,62113.4464299176,0.321000000010827
13,1,36758.118532971,0.294999999998254
13,2,64569.0449337117,0.315000000002328
13,3,53426.713247494,0.3009999999922
13,4,31771.5522813755,0.301999999996042
13,5,63630.6889418662,0.304000000003725
13,6,61410.3948856906,0.312999999994645
13,7,43920.7747602666,0.297000000005937
13,8,27396.9267625599,0.323999999993248
13,9,36915.4752784013,0.301999999996042
13,10,51558.1110489216,0.296000000002095
13,11,38092.8121845929,0.313999999998487
13,12,46309.8251174425,0.311000000001513
13,13,51192.051458198,0.298999999999069
13,14,39415.5794104218,0.30000000000291
13,15,53709.4166898202,0.297000000005937
13,16,52138.5363203449,0.3009999999922
13,17,64281.7095966092,0.30000000000291
13,18,40422.5331594363,0.301999999996042
13,19,45403.126682052,0.30800000000454
13,20,49741.5387855611,0.289000000004307
13,21,27793.1185075152,0.326000000000931
13,22,54667.646238827,0.307000000000698
13,23,58781.8278637296,0.296999999991385
13,24,27760.5567179935,0.330000000001746
13,25,47076.2106592587,0.305000000007567
13,26,44054.4425903724,0.292000000001281
13,27,38942.1368791308,0.30899999999383
13,28,49481.896133639,0.362999999997555
13,29,26967.4691430431,0.411999999996624
13,30,40893.9725693333,0.336999999999534
14,1,50598.752721436,0.298999999999069
14,2,48004.9772081823,0.236999999993714
14,3,18320.2184002267,0.275000000008731
14,4,51864.3342380304,0.305999999996857
14,5,47625.8023619666,0.323999999993248
14,6,56785.3187753278,0.313000000009197
14,7,50600.464612179,0.36699999999837
14,8,59078.5316570206,0.309999999997672
14,9,39347.433775169,0.348999999987427
14,10,51061.0414379902,0.33200000000943
14,11,61979.0179220051,0.345999999990454
14,12,42486.5262248922,0.354000000006636
14,13,32276.3464376255,0.294999999998254
14,14,57655.3458658567,0.330000000001746
14,15,48283.290260893,0.336000000010245
14,16,37116.5194068415,0.322000000000116
14,17,50394.5269260465,0.30000000000291
14,18,28506.0681486469,0.288000000000466
14,19,36460.6304863331,0.290999999997439
14,20,44819.7038821851,0.255000000004657
14,21,58539.4904211075,0.369000000006054
14,22,47018.7768655594,0.3009999999922
14,23,59285.4177255902,0.319000000003143
14,24,48458.707777517,0.298999999999069
14,25,45303.3992261514,0.30899999999383
14,26,59892.1786313796,0.309999999997672
14,27,53847.86341576,0.286000000007334
14,28,45232.2137118713,0.360000000000582
14,29,75188.4419335291,0.36699999999837
14,30,55077.6848573102,0.354999999995925
15,1,71934.6077897743,0.319000000003143
15,2,103241.993396427,0.364000000001397
15,3,94698.8953518268,0.361999999993714
15,4,71585.7328340625,0.364000000001397
15,5,119048.522856012,0.364000000001397
15,6,81806.1220540354,0.365000000005239
15,7,69252.7581585045,0.364000000001397
15,8,77157.070279867,0.364000000001397
15,9,86232.506718486,0.360999999989872
15,10,112859.789923698,0.364000000001397
15,11,87979.0821170299,0.365000000005239
15,12,90678.7709196452,0.319000000003143
15,13,80235.2733757901,0.368000000002212
15,14,87216.2327329276,0.351999999998952
15,15,115365.952228732,0.334999999991851
15,16,95185.020308543,0.312000000005355
15,17,116075.01608592,0.31699999999546
15,18,85481.7477805278,0.3240000000078
15,19,107804.957718345,0.408999999999651
15,20,88814.4392342671,0.311999999990803
15,21,87055.8724309197,0.302000000010594
15,22,95391.2291605153,0.307000000000698
15,23,113605.06193457,0.301999999996042
15,24,82029.2233707151,0.327999999994063
15,25,72851.6363774149,0.301000000006752
15,26,70383.2275691538,0.361999999993714
15,27,71521.5797266492,0.343000000008033
15,28,86572.935761664,0.338999999992666
15,29,113218.68958084,0.346000000005006
15,30,92636.1759659414,0.297999999995227
16,1,42869.2988952114,0.347999999998137
16,2,37449.6360247573,0.345000000001164
16,3,52565.8325599333,0.385999999998603
16,4,48354.4365178865,0.38300000000163
16,5,60318.3528627011,0.334999999991851
16,6,47481.3038835674,0.36600000000908
16,7,42097.3216372664,0.351999999998952
16,8,42449.3739780144,0.38399999999092
16,9,41826.7952756392,0.33200000000943
16,10,48714.9116707121,0.298000000009779
16,11,43601.9437971477,0.298999999999069
16,12,64239.1614856762,0.30800000000454
16,13,44821.32300538,0.343000000008033
16,14,34579.940781375,0.349000000001979
16,15,31374.4578381449,0.384000000005472
16,16,34761.1923452215,0.380999999993946
16,17,47164.9319082066,0.381000000008498
16,18,41858.4142433474,0.377999999996973
16,19,29367.3455349684,0.380000000004657
16,20,43359.514780915,0.380999999993946
16,21,56561.2329797931,0.331999999994878
16,22,35535.4553134712,0.310000000012224
16,23,32057.8517025624,0.3009999999922
16,24,50553.2509493677,0.350999999995111
16,25,32443.5819585317,0.339000000007218
16,26,51481.6688651969,0.339999999996508
16,27,32885.2839248334,0.297000000005937
16,28,59715.7843319807,0.30899999999383
16,29,58570.2957460591,0.30000000000291
16,30,51639.5808909281,0.349999999991269
17,1,111497.017508905,0.347999999998137
17,2,173792.763620044,0.355000000010477
17,3,92323.3088112848,0.349999999991269
17,4,166052.624593461,0.355999999999767
17,5,141176.896202283,0.357000000003609
17,6,114330.624276878,0.350999999995111
17,7,128978.775713119,0.351999999998952
17,8,155885.120171541,0.353000000002794
17,9,124078.075818269,0.350000000005821
17,10,201577.70059323,0.357999999992899
17,11,169773.075677679,0.357000000003609
17,12,122757.500881743,0.349000000001979
17,13,95721.2636230394,0.35899999999674
17,14,155567.887989334,0.354999999995925
17,15,188943.315111466,0.346999999994296
17,16,137518.10081094,0.354000000006636
17,17,199845.595360463,0.352999999988242
17,18,115820.042344955,0.355000000010477
17,19,122198.997741794,0.351999999998952
17,20,173489.873957548,0.346000000005006
17,21,145679.497760998,0.357000000003609
17,22,129421.159058121,0.354999999995925
17,23,156874.282810021,0.347999999998137
17,24,88329.747721151,0.351999999998952
17,25,118280.697776879,0.349000000001979
17,26,112911.891800382,0.350000000005821
17,27,97526.4541742892,0.354999999995925
17,28,133766.541593687,0.355999999999767
17,29,170134.707116492,0.346999999994296
17,30,141945.654435543,0.357000000003609
18,1,68734.074965012,0.353000000002794
18,2,67327.5772626014,0.345999999990454
18,3,53432.1145448312,0.351999999998952
18,4,60379.6557183754,0.340000000011059
18,5,81434.7967559813,0.349999999991269
18,6,54494.1570942381,0.351000000009662
18,7,49101.0953208817,0.338999999992666
18,8,54861.3832932946,0.346000000005006
18,9,60061.2061118645,0.345000000001164
18,10,77939.1109404994,0.304000000003725
18,11,68870.9814289061,0.369000000006054
18,12,60014.3023446778,0.35899999999674
18,13,35764.0196877813,0.388999999995576
18,14,68864.4621191352,0.384000000005472
18,15,96373.5079548388,0.384999999994761
18,16,67202.6094143633,0.380000000004657
18,17,88938.3990649121,0.387999999991735
18,18,56136.0059036825,0.389999999999418
18,19,74263.3753522144,0.335000000006403
18,20,62048.1269578258,0.315000000002328
18,21,72888.8134433576,0.309999999997672
18,22,73270.679102911,0.345999999990454
18,23,104089.355823086,0.363000000012107
18,24,50417.2980726104,0.373999999996158
18,25,48155.986451721,0.342000000004191
18,26,45112.7160485474,0.312999999994645
18,27,48429.5638271966,0.312000000005355
18,28,62917.9780067985,0.286999999996624
18,29,88017.0042017131,0.304999999993015
18,30,56299.7283096592,0.296000000002095
19,1,51748.8490205366,0.349000000001979
19,2,58653.0481623459,0.312000000005355
19,3,63573.5338822786,0.336999999999534
19,4,39273.1362896056,0.292000000001281
19,5,74237.2355362811,0.31600000000617
19,6,53535.3474426745,0.302999999999884
19,7,34655.7573316012,0.286999999996624
19,8,38158.6163299195,0.360000000000582
19,9,51588.5118445245,0.342999999993481
19,10,57525.3704547518,0.339999999996508
19,11,38884.4868176906,0.341000000000349
19,12,63447.6387743347,0.341000000000349
19,13,44563.2951002042,0.338000000003376
19,14,40536.6986162089,0.338000000003376
19,15,34238.3867724381,0.338999999992666
19,16,41803.102976212,0.336999999999534
19,17,60040.8747790098,0.342999999993481
19,18,47269.3218221065,0.343000000008033
19,19,35083.1257494539,0.289999999993597
19,20,54243.0441862438,0.293000000005122
19,21,51574.3408407669,0.30899999999383
19,22,58398.0503710084,0.344000000011874
19,23,24893.1348553117,0.314999999987776
19,24,41929.0917931484,0.362000000008265
19,25,31567.2377566729,0.354999999995925
19,26,53621.4765203943,0.362999999997555
19,27,42406.0926757693,0.358000000007451
19,28,59968.3084045605,0.361999999993714
19,29,41531.5366072632,0.360999999989872
19,30,56689.1527209631,0.365000000005239
20,1,47745.3954784495,0.35899999999674
20,2,109224.023612335,0.368000000002212
20,3,41983.0296013147,0.361000000004424
20,4,99394.4840457885,0.313999999998487
20,5,85413.147791997,0.315000000002328
20,6,75676.9588619643,0.309999999997672
20,7,54349.8644198008,0.342999999993481
20,8,82924.1075768474,0.322000000000116
20,9,59183.073649624,0.389999999999418
20,10,129705.912225411,0.384000000005472
20,11,88348.2608297456,0.389999999999418
20,12,47285.338400524,0.382999999987078
20,13,52966.4995618533,0.33200000000943
20,14,90025.3341789286,0.309999999997672
20,15,137645.815204546,0.309999999997672
20,16,73373.5022092867,0.343000000008033
20,17,144936.880227305,0.361999999993714
20,18,58194.2320338487,0.364000000001397
20,19,80468.6646564046,0.341000000000349
20,20,114518.593009978,0.315000000002328
20,21,73100.3382657167,0.303999999989173
20,22,70421.7637257378,0.342000000004191
20,23,122559.833728352,0.357000000003609
20,24,67178.7098284729,0.369999999995343
20,25,88681.9023590516,0.394000000000233
20,26,80964.3751068669,0.380999999993946
20,27,65197.9222135775,0.385999999998603
20,28,56476.7516374623,0.38200000001234
20,29,104361.618569662,0.386999999987893
20,30,83246.7439542105,0.384000000005472
21,1,58993.6505365225,0.381999999997788
21,2,52862.8433463599,0.384000000005472
21,3,30519.3628090724,0.379999999990105
21,4,53634.9548796731,0.377000000007683
21,5,48516.6622511366,0.381999999997788
21,6,44384.4602483586,0.43300000000454
21,7,34946.8073086093,0.288999999989755
21,8,45680.9622940957,0.331000000005588
21,9,44455.1881167376,0.298999999999069
21,10,65479.4736116216,0.312000000005355
21,11,50242.3858947886,0.364000000001397
21,12,41532.4916885359,0.340999999985797
21,13,29731.8971395505,0.336000000010245
21,14,65536.5936965728,0.345000000001164
21,15,76244.08299445,0.341999999989639
21,16,41399.7525620481,0.338000000003376
21,17,67060.5377326251,0.342000000004191
21,18,41317.6212944529,0.342000000004191
21,19,49614.8028807171,0.293000000005122
21,20,50503.2475202756,0.292000000001281
21,21,44710.9270335751,0.309999999997672
21,22,52785.2982206267,0.342999999993481
21,23,96765.2677996944,0.322000000000116
21,24,55363.0318959392,0.36600000000908
21,25,43451.169660788,0.361999999993714
21,26,57444.4430815177,0.365000000005239
21,27,45700.6432444025,0.360999999989872
21,28,37506.106001374,0.361000000004424
21,29,67917.036352157,0.36699999999837
21,30,48650.3236402725,0.364000000001397
22,1,41410.3681950364,0.360000000000582
22,2,59631.7665864963,0.364999999990687
22,3,59544.9752504394,0.365000000005239
22,4,32339.5944692308,0.312000000005355
22,5,70804.0907134851,0.313000000009197
22,6,48191.7944374527,0.309999999997672
22,7,23204.9368959865,0.338999999992666
22,8,38180.5417693022,0.315000000002328
22,9,48048.7521851105,0.349000000001979
22,10,71483.3543930303,0.361999999993714
22,11,46163.5545315458,0.392000000007101
22,12,51396.3272972758,0.384999999994761
22,13,42534.792796884,0.332999999998719
22,14,49899.8887578653,0.311000000001513
22,15,59586.1268340008,0.30899999999383
22,16,50374.0513097319,0.345000000001164
22,17,69597.7865250255,0.355999999999767
22,18,52894.6767555292,0.365999999994528
22,19,52277.9705539135,0.387000000002445
22,20,44899.8956724836,0.381000000008498
22,21,56537.5124332317,0.384999999994761
22,22,49285.3517224407,0.376000000003842
22,23,58709.7280860777,0.379000000000815
22,24,46438.646477187,0.384999999994761
22,25,29993.9250389213,0.330000000001746
22,26,43930.0848030168,0.30899999999383
22,27,33358.6762026885,0.302999999999884
22,28,43591.4232966225,0.292000000001281
22,29,63730.5710650029,0.304000000003725
22,30,55398.7441174978,0.315999999991618
23,1,63129.7998991259,0.351999999998952
23,2,78445.9280415784,0.363000000012107
23,3,67865.696734294,0.36799999998766
23,4,47779.9771543164,0.359000000011292
23,5,89859.5143790018,0.365999999994528
23,6,58700.7146209066,0.369000000006054
23,7,52179.3408344756,0.360999999989872
23,8,57854.3180121369,0.36699999999837
23,9,68078.6167489094,0.36600000000908
23,10,83306.013716139,0.313999999998487
23,11,72305.7831359674,0.315999999991618
23,12,63898.9207930424,0.304000000003725
23,13,47331.5679846596,0.342000000004191
23,14,69941.6978199505,0.357999999992899
23,15,86047.9823199125,0.36600000000908
23,16,75955.4195642886,0.389999999999418
23,17,88237.2796312301,0.382999999987078
23,18,62717.5616913767,0.381000000008498
23,19,78224.63597809,0.334999999991851
23,20,68175.7357666595,0.314000000013039
23,21,75048.5018409638,0.30899999999383
23,22,72180.711249907,0.342999999993481
23,23,80340.1320070577,0.317999999999302
23,24,46269.1112295663,0.385000000009313
23,25,46157.2694020473,0.377999999996973
23,26,44065.6005980494,0.380999999993946
23,27,50721.3011807852,0.380000000004657
23,28,69144.413060831,0.380000000004657
23,29,83080.5590044384,0.385999999998603
23,30,64228.8980283132,0.38300000000163
24,1,31899.8848519132,0.37599999998929
24,2,39009.3023171314,0.381999999997788
24,3,22742.5495863461,0.377999999996973
24,4,45916.6727228549,0.373000000006869
24,5,51411.2208064615,0.385999999998603
24,6,45407.5545820726,0.384999999994761
24,7,15761.5983243653,0.327000000004773
24,8,30874.5546853268,0.327999999994063
24,9,35100.3145238502,0.343999999997322
24,10,59507.4429278146,0.376000000003842
24,11,41351.3340203094,0.394000000000233
24,12,36508.3725609828,0.379000000000815
24,13,28480.1436515939,0.331000000005588
24,14,33293.1081948528,0.301999999996042
24,15,56245.3634560526,0.305999999996857
24,16,22849.4770699367,0.278000000005704
24,17,67003.3991679878,0.304999999993015
24,18,24956.5820887917,0.357000000003609
24,19,31915.1292964684,0.353000000002794
24,20,45419.6636079446,0.389999999999418
24,21,38546.8743873665,0.376000000003842
24,22,36382.5922166581,0.379999999990105
24,23,59602.7985631141,0.332999999998719
24,24,51369.855685516,0.311000000001513
24,25,33384.787656979,0.288000000000466
24,26,61864.9532637356,0.296000000002095
24,27,33512.428494896,0.315000000002328
24,28,33333.8067268154,0.294999999998254
24,29,58797.7375828038,0.312999999994645
24,30,43287.1579868862,0.30800000000454
25,1,84958.6652936993,0.346000000005006
25,2,121961.860412961,0.364000000001397
25,3,65774.1399076229,0.372000000003027
25,4,123825.789528092,0.394000000000233
25,5,82076.607193502,0.394000000000233
25,6,81814.3951846897,0.392000000007101
25,7,80861.4721117669,0.334999999991851
25,8,99086.723419097,0.317999999999302
25,9,71108.54800213,0.312000000005355
25,10,133131.729616268,0.347999999998137
25,11,117337.405598905,0.364999999990687
25,12,72842.4971868666,0.37400000001071
25,13,50262.1984397412,0.390999999988708
25,14,114935.079754086,0.385999999998603
25,15,159322.801300293,0.388000000006286
25,16,107017.587508117,0.388999999995576
25,17,154619.23225868,0.395000000004075
25,18,72634.1642474936,0.389999999999418
25,19,98420.128518047,0.338000000003376
25,20,123602.113881532,0.372999999992317
25,21,97620.1713927425,0.349000000001979
25,22,84105.565074104,0.293999999994412
25,23,141399.252598249,0.310000000012224
25,24,50272.4253500841,0.381999999997788
25,25,95171.3547991741,0.372999999992317
25,26,67878.7225019447,0.370000000009895
25,27,54649.274120561,0.373999999996158
25,28,75966.8417078374,0.376999999993131
25,29,120694.006295488,0.376000000003842
25,30,89492.0407327609,0.377999999996973
26,1,47821.2101128385,0.37400000001071
26,2,61706.8041136246,0.370999999999185
26,3,30241.7094345906,0.368999999991502
26,4,43570.117538284,0.369000000006054
26,5,61975.4163896308,0.370999999999185
26,6,53166.6610259267,0.373999999996158
26,7,24741.6318556801,0.368000000002212
26,8,40045.7585847202,0.36699999999837
26,9,51429.6639079523,0.372999999992317
26,10,68431.4242123359,0.422000000005937
26,11,45984.2323947733,0.289999999993597
26,12,39677.9349790858,0.323000000003958
26,13,24781.7199785401,0.297999999995227
26,14,52202.6341956475,0.317999999999302
26,15,67103.7869871764,0.362999999997555
26,16,23699.9828282905,0.332999999998719
26,17,72612.8074464887,0.340000000011059
26,18,33098.7844909275,0.339999999996508
26,19,33088.6016042214,0.336999999999534
26,20,56797.7040564155,0.338999999992666
26,21,41016.1341629633,0.344000000011874
26,22,53622.8949210344,0.343999999997322
26,23,69435.2279228344,0.302999999999884
26,24,44391.1285523042,0.293999999994412
26,25,40712.1777540755,0.298000000009779
26,26,53522.6779810045,0.364999999990687
26,27,36163.5717734351,0.370999999999185
26,28,40338.8499321218,0.370000000009895
26,29,59358.0963478128,0.322999999989406
26,30,47524.2199000826,0.30800000000454
27,1,55025.4922117235,0.302999999999884
27,2,57978.7212305455,0.292000000001281
27,3,35877.5770231895,0.305999999996857
27,4,40429.2568256976,0.307999999989988
27,5,60492.8341793643,0.354000000006636
27,6,54964.5350037974,0.360000000000582
27,7,24424.8343614447,0.360000000000582
27,8,37170.6140777855,0.384999999994761
27,9,51102.7775682582,0.38300000000163
27,10,63226.2114693293,0.38300000000163
27,11,43176.6355914788,0.330000000001746
27,12,45604.9332093193,0.314000000013039
27,13,30324.6279371536,0.307000000000698
27,14,60565.1993652972,0.284999999988941
27,15,52742.4356969659,0.30899999999383
27,16,34178.2590080411,0.307000000000698
27,17,60169.3808292016,0.360000000000582
27,18,48257.6904425004,0.357000000003609
27,19,36335.0351921463,0.387000000002445
27,20,48769.1935597729,0.377999999996973
27,21,53872.2145580361,0.384999999994761
27,22,64072.2193256553,0.385000000009313
27,23,67790.5624577677,0.332999999998719
27,24,51757.3265305054,0.312999999994645
27,25,39633.0549386015,0.306000000011409
27,26,54521.6066683422,0.342999999993481
27,27,46071.1768030874,0.319000000003143
27,28,48762.0347412435,0.38399999999092
27,29,61447.6830213217,0.380000000004657
27,30,55835.7929585102,0.38300000000163
28,1,57991.0825571989,0.381999999997788
28,2,69084.4185230303,0.384000000005472
28,3,43698.1068907806,0.384999999994761
28,4,51486.7445203424,0.38300000000163
28,5,64906.1773940172,0.379000000000815
28,6,44695.6388989129,0.38300000000163
28,7,42011.6084715013,0.381999999997788
28,8,46863.2613800873,0.377999999996973
28,9,46825.9340834716,0.385999999998603
28,10,63913.5331714428,0.39000000001397
28,11,59020.728095749,0.371999999988475
28,12,54784.3955354413,0.327000000004773
28,13,25909.6176234234,0.361000000004424
28,14,68475.2618176565,0.362999999997555
28,15,54344.7527318639,0.361999999993714
28,16,42048.2853617752,0.35899999999674
28,17,63592.4164183645,0.361000000004424
28,18,50168.4528510163,0.364000000001397
28,19,39340.030978376,0.361000000004424
28,20,55473.07113226,0.363999999986845
28,21,66252.4530027648,0.365000000005239
28,22,54422.5169591743,0.36699999999837
28,23,52369.9945598413,0.312000000005355
28,24,47723.7761865931,0.315000000002328
28,25,35493.3953543513,0.307999999989988
28,26,52673.904169976,0.347999999998137
28,27,40206.2292691499,0.318000000013853
28,28,57588.2393834974,0.384999999994761
28,29,68594.6538834954,0.380000000004657
28,30,60979.9860243399,0.380999999993946
29,1,46081.3682634827,0.376999999993131
29,2,50439.0009771051,0.380000000004657
29,3,24794.3625876013,0.379000000000815
29,4,50971.4005917135,0.38399999999092
29,5,48658.4488317147,0.381000000008498
29,6,44292.8230675351,0.384999999994761
29,7,25127.7132908148,0.379999999990105
29,8,30863.5994120519,0.331999999994878
29,9,34273.9366629982,0.30800000000454
29,10,56770.4128215635,0.3009999999922
29,11,43993.361827716,0.351000000009662
29,12,31524.6668105397,0.341999999989639
29,13,21200.6981575227,0.339000000007218
29,14,46076.1570679308,0.301999999996042
29,15,60735.9665289835,0.30800000000454
29,16,26163.292554289,0.298999999999069
29,17,69913.0791715931,0.350999999995111
29,18,20586.6937461894,0.339000000007218
29,19,26687.1560822594,0.338999999992666
29,20,47748.5685386473,0.338000000003376
29,21,41890.5626553943,0.343000000008033
29,22,49633.5502264501,0.342999999993481
29,23,67553.5840526087,0.301999999996042
29,24,32248.4485860725,0.30800000000454
29,25,40197.9308681624,0.30899999999383
29,26,38402.7101443595,0.345000000001164
29,27,24115.7883230929,0.298999999999069
29,28,28086.1822369175,0.379000000000815
29,29,55060.0573369574,0.378000000011525
29,30,36397.3910653934,0.379999999990105
30,1,47316.8074176251,0.377999999996973
30,2,49135.721021867,0.380000000004657
30,3,39550.4131015238,0.381999999997788
30,4,31929.6484700391,0.380000000004657
30,5,56771.4072540042,0.380999999993946
30,6,46045.0518040556,0.385000000009313
30,7,18375.5146782012,0.378000000011525
30,8,29692.1859381596,0.37599999998929
30,9,40226.2422943147,0.381000000008498
30,10,57529.1128852985,0.382999999987078
30,11,30528.5459610273,0.331000000005588
30,12,30655.7882652604,0.311000000001513
30,13,37620.9930903526,0.307000000000698
30,14,46263.1362838041,0.281999999991967
30,15,52343.9796062786,0.311000000001513
30,16,37088.676040142,0.306000000011409
30,17,61045.4901709732,0.358000000007451
30,18,39096.6271877439,0.357000000003609
30,19,45252.4374359927,0.388000000006286
30,20,37824.6962479033,0.376000000003842
30,21,44287.4556593125,0.38399999999092
30,22,51048.2691493118,0.381999999997788
30,23,76572.5024638467,0.334000000002561
30,24,43152.5670217318,0.311000000001513
30,25,38595.5317883709,0.307000000000698
30,26,48159.6203256282,0.342000000004191
30,27,42366.8629780627,0.31699999999546
30,28,26227.8395380248,0.379000000000815
30,29,42238.9470645774,0.375
30,30,42958.2290039626,0.379999999990105
