"Before.Version","After.Version","Diff","Direction","P.Value","Simple.Diff","Within.Diffs.Mean","Within.Diffs.SD","Between.Diffs.Mean","Between.Diffs.SD","Runtime"
"v1","v2",FALSE,NA,0,0.294,1015.723,1368.672,9139.26,16418.798,18.104
"v2","v3",FALSE,NA,1,-0.119,14534.531,20605.989,11790.402,21391.798,17.728
"v3","v4",FALSE,NA,0.428,0.006,1247.974,1718.916,1338.373,1908.446,21.865
