"Before.Version","After.Version","Diff","Direction","P.Value","Simple.Diff","Within.Diffs.Mean","Within.Diffs.SD","Between.Diffs.Mean","Between.Diffs.SD","Runtime"
"v1","v2",FALSE,NA,0,0.283,1729.818,9.256,1735.182,11.13,336.508
"v2","v3",FALSE,NA,1,-0.16,1737.931,11.688,1735.229,10.862,348.797
"v3","v4",FALSE,NA,0.356,0.012,1730.428,8.149,1730.332,8.46,335.89
