Trial,Energy (J)
1,343.4698657642522
2,341.3911203921582
3,348.8420386450366
4,343.6357373518925
5,348.6095899691932
6,333.9671385839752
7,323.49653851079546
8,328.20436119172905
9,331.00654910369167
10,328.2837887190378
11,331.8683896504129
12,329.7018672147707
13,316.8386372591182
14,313.3992844396208
15,313.2558990536119
16,323.60576495129516
17,323.3804426410343
18,316.82876113470036
19,324.7670359939925
20,327.3785744068587
21,321.30795028893573
22,322.8559771590124
23,324.9431356876224
24,330.48017777567566
25,325.6728617382541
26,325.90325137374145
27,325.8498179541099
28,330.82615383857336
29,328.6291033941921
30,322.92514082470024
