App - EBookDroid
Scenario - open_pdf
Length - 1sec
Measure - TWED
Before Version - 1.1.0_b_m
After Version - 1.1.2_b_m


"Before.Trace.ID1","Before.Trace.ID2","Difference","Runtime"
1,2,38875.5339936938,0.0770000000002256
1,3,39444.4167070721,0.0760000000000218
1,4,38591.4542241336,0.0769999999997708
1,5,39224.9987272957,0.0770000000002256
1,6,39451.126893382,0.0769999999997708
1,7,39333.3935449052,0.0760000000000218
1,8,40007.8403072014,0.0770000000002256
1,9,38839.2257015621,0.0760000000000218
1,10,38966.589309647,0.0769999999997708
1,11,39710.5032927211,0.0760000000000218
1,12,38801.1419021636,0.0770000000002256
1,13,39098.6987688304,0.0760000000000218
1,14,39693.5139410138,0.0769999999997708
1,15,39043.4687218598,0.0770000000002256
1,16,39286.8403658062,0.0760000000000218
1,17,39491.6509054688,0.0769999999997708
1,18,39705.2347646472,0.0770000000002256
1,19,38795.0626098291,0.0760000000000218
1,20,39614.5255259697,0.0769999999997708
1,21,40001.1824699836,0.0760000000000218
1,22,39002.8580659502,0.0760000000000218
1,23,39273.0824710014,0.0769999999997708
1,24,39069.8209965401,0.0770000000002256
1,25,39444.500231524,0.0769999999997708
1,26,39004.9566265727,0.0770000000002256
1,27,39533.716674751,0.0769999999997708
1,28,38715.6446536325,0.0770000000002256
1,29,39472.2206315083,0.0769999999997708
1,30,39078.7498629659,0.0770000000002256
2,3,38676.242049039,0.0769999999997708
2,4,38352.4924042088,0.0770000000002256
2,5,38553.7433171246,0.0769999999997708
2,6,38682.9522353489,0.0770000000002256
2,7,38565.2188868721,0.0760000000000218
2,8,39239.6656491683,0.0769999999997708
2,9,38600.2638816373,0.0770000000002256
2,10,38642.5654443506,0.0769999999997708
2,11,39254.8299991887,0.0770000000002256
2,12,38562.1800822388,0.0760000000000218
2,13,38830.3474990887,0.0779999999999745
2,14,38925.3392829807,0.0769999999997708
2,15,38720.0495919859,0.0770000000002256
2,16,38757.1842862317,0.0769999999997708
2,17,38723.4762474356,0.0779999999999745
2,18,38937.0601066141,0.0770000000002256
2,19,38556.1007899042,0.0769999999997708
2,20,38846.3508679366,0.0760000000000218
2,21,39233.0078119505,0.0760000000000218
2,22,38763.8962460254,0.0769999999997708
2,23,38704.4323913711,0.0770000000002256
2,24,38830.8591766153,0.0769999999997708
2,25,38676.3255734909,0.0760000000000218
2,26,38560.64302567,0.0769999999997708
2,27,39230.7838631481,0.0770000000002256
2,28,38476.6828337077,0.0760000000000218
2,29,38704.0459734752,0.0760000000000218
2,30,38839.7880430411,0.0760000000000218
3,4,38392.1622794789,0.0760000000000218
3,5,39025.7067826409,0.0760000000000218
3,6,39257.9162369484,0.0760000000000218
3,7,39140.1828884716,0.0769999999997708
3,8,39814.6296507677,0.0760000000000218
3,9,38639.9337569073,0.0760000000000218
3,10,38767.2973649923,0.0760000000000218
3,11,39511.2113480664,0.0760000000000218
3,12,38601.8499575088,0.0770000000002256
3,13,38899.4068241757,0.0760000000000218
3,14,39500.3032845802,0.0760000000000218
3,15,38844.176777205,0.0760000000000218
3,16,39087.5484211515,0.0770000000002256
3,17,39298.4402490351,0.0760000000000218
3,18,39512.0241082136,0.0769999999997708
3,19,38595.7706651743,0.0760000000000218
3,20,39421.3148695361,0.0760000000000218
3,21,39798.7168364486,0.0760000000000218
3,22,38803.5661212954,0.0760000000000218
3,23,39073.7905263467,0.0769999999997708
3,24,38870.5290518854,0.0760000000000218
3,25,39251.2895750904,0.0770000000002256
3,26,38805.664681918,0.0760000000000218
3,27,39334.4247300962,0.0760000000000218
3,28,38516.3527089777,0.0760000000000218
3,29,38771.1637655169,0.0769999999997708
3,30,38879.4579183111,0.0760000000000218
4,5,38269.6635475645,0.0770000000002256
4,6,38398.8724657887,0.0769999999997708
4,7,38281.1391173119,0.0760000000000218
4,8,38955.5858796081,0.0760000000000218
4,9,38406.855135616,0.0769999999997708
4,10,38358.4856747905,0.0760000000000218
4,11,38970.7502296285,0.0770000000002256
4,12,38487.9295831729,0.0769999999997708
4,13,38546.2677295285,0.0770000000002256
4,14,38641.2595134206,0.0769999999997708
4,15,38435.9698224258,0.0760000000000218
4,16,38473.1045166715,0.0769999999997708
4,17,38439.3964778755,0.0770000000002256
4,18,38652.980337054,0.0769999999997708
4,19,38462.3919767236,0.0770000000002256
4,20,38562.2710983764,0.0769999999997708
4,21,38948.9280423903,0.0760000000000218
4,22,38631.7204688734,0.0770000000002256
4,23,38420.3526218109,0.0769999999997708
4,24,38836.7547311572,0.0760000000000218
4,25,38392.2458039307,0.0769999999997708
4,26,38276.5632561099,0.0770000000002256
4,27,38946.7040935879,0.0760000000000218
4,28,38482.5783882496,0.0760000000000218
4,29,38419.9662039151,0.0770000000002256
4,30,38652.6194666118,0.0769999999997708
5,6,39032.4169689508,0.0770000000002256
5,7,38914.683620474,0.0760000000000218
5,8,39589.1303827702,0.0769999999997708
5,9,38517.4350249929,0.0770000000002256
5,10,38644.7986330779,0.0769999999997708
5,11,39388.712616152,0.0760000000000218
5,12,38479.3512255944,0.0760000000000218
5,13,38776.9080922613,0.0779999999999745
5,14,39274.8040165826,0.0760000000000218
5,15,38721.6780452906,0.0769999999997708
5,16,38965.0496892371,0.0770000000002256
5,17,39072.9409810376,0.0769999999997708
5,18,39286.524840216,0.0760000000000218
5,19,38473.2719332598,0.0770000000002256
5,20,39195.8156015385,0.0769999999997708
5,21,39582.4725455524,0.0770000000002256
5,22,38681.0673893811,0.0769999999997708
5,23,38951.2917944323,0.0770000000002256
5,24,38748.030319971,0.0760000000000218
5,25,39025.7903070928,0.0769999999997708
5,26,38683.1659500036,0.0779999999999745
5,27,39211.9259981818,0.0770000000002256
5,28,38393.8539770633,0.0760000000000218
5,29,39053.5107070771,0.0760000000000218
5,30,38756.9591863967,0.0770000000002256
6,7,39186.2856505229,0.0769999999997708
6,8,40116.5648943785,0.0770000000002256
6,9,38646.6439432172,0.0769999999997708
6,10,38774.0075513021,0.0770000000002256
6,11,39517.9215343762,0.0769999999997708
6,12,38608.5601438187,0.0770000000002256
6,13,38906.1170104855,0.0769999999997708
6,14,39582.0225540781,0.0770000000002256
6,15,38850.8869635149,0.0769999999997708
6,16,39094.2586074613,0.0770000000002256
6,17,39670.1414038813,0.0769999999997708
6,18,39933.5712880198,0.0760000000000218
6,19,38602.4808514842,0.0760000000000218
6,20,39537.3109010862,0.0760000000000218
6,21,39989.2099605395,0.0760000000000218
6,22,38810.2763076053,0.0760000000000218
6,23,39080.5007126565,0.0760000000000218
6,24,38877.2392381952,0.0769999999997708
6,25,39451.0018047777,0.0760000000000218
6,26,38812.3748682278,0.0770000000002256
6,27,39341.1349164061,0.0769999999997708
6,28,38523.0628952876,0.0760000000000218
6,29,39644.3608730165,0.0760000000000218
6,30,38886.168104621,0.0759999999995671
7,8,39742.9990643422,0.0770000000002256
7,9,38528.9105947404,0.0760000000000218
7,10,38656.2742028253,0.0760000000000218
7,11,39400.1881858994,0.0769999999997708
7,12,38490.8267953419,0.0760000000000218
7,13,38788.3836620087,0.0770000000002256
7,14,39428.6726981547,0.0760000000000218
7,15,38733.1536150381,0.0760000000000218
7,16,38976.5252589845,0.0769999999997708
7,17,39226.8096626096,0.0770000000002256
7,18,39440.3935217881,0.0769999999997708
7,19,38484.7475030073,0.0770000000002256
7,20,39349.6842831105,0.0769999999997708
7,21,39736.3412271244,0.0770000000002256
7,22,38692.5429591285,0.0769999999997708
7,23,38962.7673641797,0.0760000000000218
7,24,38759.5058897184,0.0770000000002256
7,25,38527.5214764113,0.0760000000000218
7,26,38694.6415197511,0.0769999999997708
7,27,39223.4015679293,0.0760000000000218
7,28,38405.3295468108,0.0770000000002256
7,29,39207.3793886492,0.0760000000000218
7,30,38768.4347561442,0.0769999999997708
8,9,39203.3573570366,0.0770000000002256
8,10,39330.7209651215,0.0769999999997708
8,11,40074.6349481956,0.0760000000000218
8,12,39165.2735576381,0.0770000000002256
8,13,39462.830424305,0.0760000000000218
8,14,40138.7359678975,0.0760000000000218
8,15,39407.6003773343,0.0770000000002256
8,16,39650.9720212808,0.0759999999995671
8,17,40157.0889064653,0.0770000000002256
8,18,40370.6727656438,0.0760000000000218
8,19,39159.1942653036,0.0769999999997708
8,20,40094.0243149056,0.0760000000000218
8,21,40545.9233743589,0.0760000000000218
8,22,39366.9897214247,0.0769999999997708
8,23,39637.2141264759,0.0760000000000218
8,24,39433.9526520146,0.0769999999997708
8,25,40007.7152185971,0.0760000000000218
8,26,39369.0882820472,0.0760000000000218
8,27,39897.8483302255,0.0769999999997708
8,28,39079.776309107,0.0770000000002256
8,29,40137.6586325048,0.0760000000000218
8,30,39442.8815184404,0.0769999999997708
9,10,38606.2571522189,0.0770000000002256
9,11,39218.5217070569,0.0760000000000218
9,12,38616.542813646,0.0760000000000218
9,13,38794.0392069569,0.0770000000002256
9,14,38889.030990849,0.0769999999997708
9,15,38683.7412998542,0.0760000000000218
9,16,38720.8759941,0.0769999999997708
9,17,38687.1679553039,0.0760000000000218
9,18,38900.7518144824,0.0769999999997708
9,19,38610.4635213115,0.0770000000002256
9,20,38810.0425758049,0.0760000000000218
9,21,39196.6995198188,0.0760000000000218
9,22,38818.2589774326,0.0770000000002256
9,23,38668.1240992393,0.0769999999997708
9,24,38885.2219080225,0.0770000000002256
9,25,38640.0172813592,0.0769999999997708
9,26,38524.3347335383,0.0770000000002256
9,27,39194.4755710163,0.0769999999997708
9,28,38531.0455651149,0.0770000000002256
9,29,38667.7376813435,0.0769999999997708
9,30,38894.1507744483,0.0770000000002256
10,11,39345.8853151419,0.0769999999997708
10,12,38568.1733528204,0.0770000000002256
10,13,38264.6065965197,0.0769999999997708
10,14,39016.394598934,0.0770000000002256
10,15,38810.5001725166,0.0769999999997708
10,16,38848.2396021849,0.0760000000000218
10,17,38814.5315633889,0.0760000000000218
10,18,39028.1154225674,0.0769999999997708
10,19,38562.0940604859,0.0770000000002256
10,20,38937.4061838898,0.0779999999999745
10,21,39324.0631279037,0.0769999999997708
10,22,38769.8895166071,0.0760000000000218
10,23,38795.4877073243,0.0769999999997708
10,24,38836.852447197,0.0770000000002256
10,25,38767.3808894441,0.0760000000000218
10,26,38651.6983416233,0.0760000000000218
10,27,39300.7481254078,0.0769999999997708
10,28,38482.6761042893,0.0760000000000218
10,29,38795.1012894285,0.0760000000000218
10,30,38845.7813136227,0.0760000000000218
11,12,39180.4379076585,0.0760000000000218
11,13,39477.9947743253,0.0760000000000218
11,14,39760.308582008,0.0770000000002256
11,15,39422.7647273547,0.0760000000000218
11,16,39592.153585259,0.0769999999997708
11,17,39558.445546463,0.0770000000002256
11,18,39772.0294056414,0.0769999999997708
11,19,39174.358615324,0.0760000000000218
11,20,39681.3201669639,0.0760000000000218
11,21,40067.9771109778,0.0769999999997708
11,22,39382.1540714451,0.0760000000000218
11,23,39539.4016903984,0.0770000000002256
11,24,39449.117002035,0.0760000000000218
11,25,39511.2948725182,0.0769999999997708
11,26,39384.2526320676,0.0760000000000218
11,27,39913.0126802459,0.0770000000002256
11,28,39094.9406591274,0.0769999999997708
11,29,39539.0152725025,0.0760000000000218
11,30,39458.0458684608,0.0760000000000218
12,13,38755.9554075585,0.0769999999997708
12,14,38850.9471914505,0.0760000000000218
12,15,38645.6575004558,0.0770000000002256
12,16,38682.7921947015,0.0760000000000218
12,17,38649.0841559055,0.0769999999997708
12,18,38862.6680150839,0.0760000000000218
12,19,38672.0796547535,0.0770000000002256
12,20,38771.9587764064,0.0760000000000218
12,21,39158.6157204203,0.0760000000000218
12,22,38841.4081469034,0.0770000000002256
12,23,38630.0402998409,0.0769999999997708
12,24,38966.2963555794,0.0760000000000218
12,25,38601.9334819607,0.0770000000002256
12,26,38486.2509341398,0.0760000000000218
12,27,39156.3917716179,0.0769999999997708
12,28,38612.1200126718,0.0770000000002256
12,29,38629.653881945,0.0769999999997708
12,30,38862.3071446417,0.0760000000000218
13,14,39148.5040581173,0.0770000000002256
13,15,38943.2143671226,0.0760000000000218
13,16,38902.1743780143,0.0770000000002256
13,17,38946.6410225723,0.0759999999995671
13,18,39160.2248817508,0.0770000000002256
13,19,38749.876115224,0.0769999999997708
13,20,39069.5156430732,0.0770000000002256
13,21,39456.1725870872,0.0769999999997708
13,22,38957.6715713451,0.0770000000002256
13,23,38927.5971665077,0.0759999999995671
13,24,39024.634501935,0.0770000000002256
13,25,38899.4903486275,0.0759999999995671
13,26,38783.8078008067,0.0770000000002256
13,27,39453.9486382847,0.0770000000002256
13,28,38670.4581590273,0.0759999999995671
13,29,38927.2107486119,0.0760000000000218
13,30,39033.5633683608,0.0769999999997708
14,15,39093.2740111467,0.0770000000002256
14,16,39336.6456550932,0.0769999999997708
14,17,39622.5465661648,0.0770000000002256
14,18,39836.1304253433,0.0769999999997708
14,19,38844.867899116,0.0770000000002256
14,20,39745.4211866658,0.0769999999997708
14,21,40132.0781306797,0.0770000000002256
14,22,39052.6633552371,0.0769999999997708
14,23,39322.8877602883,0.0770000000002256
14,24,39119.626285827,0.0760000000000218
14,25,39575.39589222,0.0760000000000218
14,26,39054.7619158597,0.0770000000002256
14,27,39583.5219640379,0.0769999999997708
14,28,38765.4499429194,0.0770000000002256
14,29,39603.1162922044,0.0769999999997708
14,30,39128.5551522528,0.0770000000002256
15,16,38925.1190143977,0.0769999999997708
15,17,38891.4109756017,0.0770000000002256
15,18,39104.9948347801,0.0769999999997708
15,19,38639.5782081212,0.0770000000002256
15,20,39014.2855961026,0.0769999999997708
15,21,39400.9425401165,0.0770000000002256
15,22,38847.3736642423,0.0769999999997708
15,23,38872.3671195371,0.0770000000002256
15,24,38914.3365948323,0.0760000000000218
15,25,38844.2603016569,0.0760000000000218
15,26,38728.577753836,0.0859999999997854
15,27,39378.2322730431,0.0760000000000218
15,28,38560.1602519246,0.0760000000000218
15,29,38871.9807016412,0.0760000000000218
15,30,38923.265461258,0.0760000000000218
16,17,39134.7826195481,0.0760000000000218
16,18,39348.3664787266,0.0760000000000218
16,19,38676.712902367,0.0760000000000218
16,20,39257.6572400491,0.0760000000000218
16,21,39644.314184063,0.0770000000002256
16,22,38884.5083584881,0.0760000000000218
16,23,39115.7387634835,0.0769999999997708
16,24,38951.471289078,0.0760000000000218
16,25,39087.6319456033,0.0770000000002256
16,26,38886.6069191107,0.0769999999997708
16,27,39415.3669672889,0.0760000000000218
16,28,38597.2949461704,0.0770000000002256
16,29,39115.3523455877,0.0760000000000218
16,30,38960.4001555038,0.0760000000000218
17,18,39924.2492751465,0.0760000000000218
17,19,38643.0048635709,0.0760000000000218
17,20,39577.8349131729,0.0770000000002256
17,21,39579.629477531,0.0769999999997708
17,22,38850.8003196921,0.0770000000002256
17,23,39121.0247247433,0.0760000000000218
17,24,38917.763250282,0.0760000000000218
17,25,39491.5258168645,0.0770000000002256
17,26,38852.8988803146,0.0760000000000218
17,27,39381.6589284928,0.0769999999997708
17,28,38563.5869073743,0.0760000000000218
17,29,39684.8848851033,0.0770000000002256
17,30,38926.6921167078,0.0759999999995671
18,19,38856.5887227494,0.0770000000002256
18,20,39791.4187723514,0.0760000000000218
18,21,40243.3178318048,0.0769999999997708
18,22,39064.3841788705,0.0760000000000218
18,23,39334.6085839217,0.0770000000002256
18,24,39131.3471094604,0.0769999999997708
18,25,39705.1096760429,0.0770000000002256
18,26,39066.4827394931,0.0760000000000218
18,27,39595.2427876713,0.0760000000000218
18,28,38777.1707665528,0.0770000000002256
18,29,39898.4687442818,0.0760000000000218
18,30,39140.2759758862,0.0760000000000218
19,20,38765.8794840719,0.0770000000002256
19,21,39152.5364280858,0.0769999999997708
19,22,38835.3288545689,0.0760000000000218
19,23,38623.9610075063,0.0770000000002256
19,24,38940.75874913,0.0760000000000218
19,25,38595.8541896261,0.0760000000000218
19,26,38480.1716418053,0.0760000000000218
19,27,39150.3124792834,0.0760000000000218
19,28,38586.5824062224,0.0770000000002256
19,29,38623.5745896105,0.0769999999997708
19,30,38856.2278523072,0.0770000000002256
20,21,40087.3664776878,0.0760000000000218
20,22,38973.674940193,0.0769999999997708
20,23,39243.8993452442,0.0770000000002256
20,24,39040.6378707829,0.0760000000000218
20,25,39530.6842392282,0.0760000000000218
20,26,38975.7735008156,0.0770000000002256
20,27,39504.5335489938,0.0769999999997708
20,28,38686.4615278753,0.0760000000000218
20,29,39558.4046392125,0.0770000000002256
20,30,39049.5667372087,0.0769999999997708
21,22,39360.3318842069,0.0770000000002256
21,23,39630.5562892581,0.0779999999999745
21,24,39427.2948147968,0.0760000000000218
21,25,39982.5832986816,0.0760000000000218
21,26,39362.4304448294,0.0770000000002256
21,27,39891.1904930077,0.0769999999997708
21,28,39073.1184718892,0.0760000000000218
21,29,40010.3036986659,0.0760000000000218
21,30,39436.2236812226,0.0769999999997708
22,23,38831.7564636275,0.0770000000002256
22,24,39110.0872412799,0.0769999999997708
22,25,38803.6496457473,0.0770000000002256
22,26,38687.9670979264,0.0769999999997708
22,27,39358.1079354045,0.0770000000002256
22,28,38755.9108983723,0.0769999999997708
22,29,38831.3700457316,0.0770000000002256
22,30,39064.0233084284,0.0769999999997708
23,24,38898.7193942174,0.0770000000002256
23,25,39073.8740507985,0.0769999999997708
23,26,38833.85502425,0.0770000000002256
23,27,39362.6150724282,0.0760000000000218
23,28,38544.5430513098,0.0769999999997708
23,29,39101.5944507829,0.0779999999999745
23,30,38907.6482606432,0.0760000000000218
24,25,38870.6125763372,0.0859999999997854
24,26,38754.9300285163,0.0760000000000218
24,27,39425.0708659944,0.0770000000002256
24,28,39067.9666487837,0.0769999999997708
24,29,38898.3329763215,0.0760000000000218
24,30,39130.9862390183,0.0760000000000218
25,26,38805.7482063698,0.0760000000000218
25,27,39334.5082545481,0.0759999999995671
25,28,38516.4362334296,0.0770000000002256
25,29,39472.095542904,0.0760000000000218
25,30,38879.541442763,0.0769999999997708
26,27,39218.8257067272,0.0760000000000218
26,28,38400.7536856087,0.0760000000000218
26,29,38833.4686063542,0.0770000000002256
26,30,38763.8588949421,0.0760000000000218
27,28,39070.8945230868,0.0769999999997708
27,29,39362.2286545324,0.0770000000002256
27,30,39433.9997324201,0.0760000000000218
28,29,38544.1566334139,0.0760000000000218
28,30,38776.8098961106,0.0770000000002256
29,30,38907.2618427473,0.0760000000000218


"After.Trace.ID","Before.Trace.ID","Difference","Runtime"
1,1,39544.7395612046,0.0760000000000218
1,2,38900.0735638103,0.0760000000000218
1,3,39345.4476165498,0.0760000000000218
1,4,38615.9937942501,0.0760000000000218
1,5,39222.9488846354,0.0760000000000218
1,6,39352.1578028597,0.0760000000000218
1,7,39234.4244543829,0.0760000000000218
1,8,39908.8712166791,0.0759999999995671
1,9,38863.7652716786,0.0770000000002256
1,10,38991.1288797635,0.0760000000000218
1,11,39735.0428628376,0.0760000000000218
1,12,38825.6814722801,0.0769999999997708
1,13,39123.238338947,0.0760000000000218
1,14,39594.5448504915,0.0760000000000218
1,15,39068.0082919763,0.0760000000000218
1,16,39311.3799359228,0.0760000000000218
1,17,39392.6818149465,0.0760000000000218
1,18,39606.2656741249,0.0760000000000218
1,19,38819.6021799456,0.0760000000000218
1,20,39515.5564354474,0.0760000000000218
1,21,39902.2133794613,0.0769999999997708
1,22,39027.3976360667,0.0760000000000218
1,23,39297.6220411179,0.0770000000002256
1,24,39094.3605666566,0.0760000000000218
1,25,39345.5311410017,0.0760000000000218
1,26,39029.4961966893,0.0760000000000218
1,27,39558.2562448675,0.0760000000000218
1,28,38740.184223749,0.0759999999995671
1,29,39373.251540986,0.0770000000002256
1,30,39103.2894330824,0.0769999999997708
2,1,39928.612284215,0.0760000000000218
2,2,39160.4376261819,0.0760000000000218
2,3,39735.4016277814,0.0760000000000218
2,4,38876.3578566217,0.0760000000000218
2,5,39509.9023597838,0.0760000000000218
2,6,39996.548653514,0.0760000000000218
2,7,39663.7710413559,0.0769999999997708
2,8,40553.2620673334,0.0770000000002256
2,9,39124.1293340502,0.0760000000000218
2,10,39251.4929421351,0.0769999999997708
2,11,39995.4069252092,0.0760000000000218
2,12,39086.0455346517,0.0779999999999745
2,13,39383.6024013185,0.0770000000002256
2,14,40059.5079449111,0.0769999999997708
2,15,39328.3723543479,0.0770000000002256
2,16,39571.7439982943,0.0769999999997708
2,17,40037.0726656007,0.0760000000000218
2,18,40250.6565247792,0.0770000000002256
2,19,39079.9662423172,0.0760000000000218
2,20,40014.7962919192,0.0760000000000218
2,21,40466.6953513725,0.0770000000002256
2,22,39287.7616984383,0.0760000000000218
2,23,39557.9861034895,0.0769999999997708
2,24,39354.7246290282,0.0770000000002256
2,25,39928.4871956107,0.0779999999999745
2,26,39289.8602590608,0.0769999999997708
2,27,39818.6203072391,0.0760000000000218
2,28,39000.5482861206,0.0769999999997708
2,29,40017.6423916403,0.0770000000002256
2,30,39363.653495454,0.0760000000000218
3,1,39094.3102263724,0.0770000000002256
3,2,38809.1279119509,0.0769999999997708
3,3,38895.0182817177,0.0770000000002256
3,4,38525.0481423907,0.0769999999997708
3,5,38772.5195498033,0.0760000000000218
3,6,38901.7284680275,0.0770000000002256
3,7,38783.9951195507,0.0769999999997708
3,8,39458.4418818469,0.0770000000002256
3,9,38772.8196198191,0.0770000000002256
3,10,38861.3416770293,0.0769999999997708
3,11,39473.6062318673,0.0770000000002256
3,12,38734.7358204206,0.0769999999997708
3,13,39032.2926870875,0.0770000000002256
3,14,39144.1155156593,0.0769999999997708
3,15,37899.127617692,0.0770000000002256
3,16,38975.9605189103,0.0769999999997708
3,17,38942.2524801143,0.0770000000002256
3,18,39155.8363392928,0.0760000000000218
3,19,38728.6565280861,0.0760000000000218
3,20,39065.1271006152,0.0760000000000218
3,21,39451.7840446291,0.0779999999999745
3,22,38936.4519842073,0.0770000000002256
3,23,38923.2086240497,0.0769999999997708
3,24,39003.4149147972,0.0780000000004293
3,25,38895.1018061695,0.0769999999997708
3,26,38779.4192583486,0.114000000000033
3,27,39449.5600958267,0.103999999999814
3,28,38560.4591305391,0.0820000000003347
3,29,38922.8222061539,0.0850000000000364
3,30,39012.3437812229,0.0760000000000218
4,1,39275.7330432399,0.0760000000000218
4,2,38796.9705433158,0.0760000000000218
4,3,39076.4410985851,0.0769999999997708
4,4,38512.8907737557,0.0760000000000218
4,5,38953.9423666707,0.0760000000000218
4,6,39083.151284895,0.0760000000000218
4,7,38802.9557373626,0.0760000000000218
4,8,39639.8646987145,0.0760000000000218
4,9,38760.6622511841,0.0760000000000218
4,10,38888.025859269,0.0760000000000218
4,11,39631.9398423431,0.0760000000000218
4,12,38722.5784517856,0.0760000000000218
4,13,39020.1353184524,0.0760000000000218
4,14,39325.5383325269,0.0760000000000218
4,15,38964.9052714818,0.0760000000000218
4,16,39157.3833357778,0.0770000000002256
4,17,39123.6752969818,0.0769999999997708
4,18,39337.2591561603,0.0770000000002256
4,19,38716.4991594511,0.0760000000000218
4,20,39246.5499174827,0.0759999999995671
4,21,39633.2068614967,0.0760000000000218
4,22,38924.2946155722,0.0760000000000218
4,23,39104.6314409172,0.128000000000156
4,24,38991.2575461621,0.0919999999996435
4,25,39076.524623037,0.0770000000002256
4,26,38926.3931761948,0.0769999999997708
4,27,39455.153224373,0.0760000000000218
4,28,38637.0812032545,0.0770000000002256
4,29,39104.2450230213,0.0760000000000218
4,30,39000.1864125879,0.0760000000000218
5,1,38890.8221982003,0.0769999999997708
5,2,38651.8603782755,0.0760000000000218
5,3,38691.5302535456,0.0760000000000218
5,4,38538.4412980209,0.0760000000000218
5,5,38569.0315216311,0.0760000000000218
5,6,38698.2404398554,0.0769999999997708
5,7,38580.5070913786,0.0760000000000218
5,8,39254.9538536749,0.0770000000002256
5,9,38706.2231096827,0.0760000000000218
5,10,38657.8536488572,0.0759999999995671
5,11,39270.1182036952,0.0770000000002256
5,12,38748.1289760509,0.0759999999995671
5,13,38845.6357035952,0.0760000000000218
5,14,38940.6274874872,0.0770000000002256
5,15,38735.3377964925,0.0760000000000218
5,16,38772.4724907382,0.0769999999997708
5,17,38738.7644519422,0.0760000000000218
5,18,38952.3483111207,0.0760000000000218
5,19,38742.0496837164,0.0760000000000218
5,20,38861.6390724431,0.0769999999997708
5,21,39248.2960164571,0.0760000000000218
5,22,38931.0884429401,0.0770000000002256
5,23,38719.7205958776,0.0760000000000218
5,24,39016.8080704274,0.0769999999997708
5,25,38691.6137779974,0.0770000000002256
5,26,38575.9312301765,0.0760000000000218
5,27,39246.0720676546,0.0769999999997708
5,28,38662.6317275198,0.0760000000000218
5,29,38719.3341779818,0.0770000000002256
5,30,38798.3219469224,0.0760000000000218
6,1,39506.7143123627,0.0760000000000218
6,2,38822.774385758,0.0760000000000218
6,3,39307.4223677079,0.0760000000000218
6,4,38538.6946161978,0.0769999999997708
6,5,39172.2391193599,0.0760000000000218
6,6,39314.1325540177,0.0760000000000218
6,7,39036.7095557695,0.0769999999997708
6,8,39870.8459678372,0.0770000000002256
6,9,38786.4660936262,0.0769999999997708
6,10,38913.8297017112,0.0760000000000218
6,11,39657.7436847853,0.0759999999995671
6,12,38748.3822942277,0.0770000000002256
6,13,39045.9391608946,0.0760000000000218
6,14,39556.5196016496,0.0760000000000218
6,15,38990.7091139239,0.0770000000002256
6,16,39234.0807578704,0.0769999999997708
6,17,39354.6565661045,0.0780000000004293
6,18,39568.240425283,0.0769999999997708
6,19,38742.3030018932,0.0770000000002256
6,20,39477.5311866055,0.0769999999997708
6,21,39864.1881306194,0.0770000000002256
6,22,38950.0984580144,0.0769999999997708
6,23,39220.3228630656,0.0760000000000218
6,24,39017.0613886043,0.0769999999997708
6,25,39307.5058921598,0.0770000000002256
6,26,38952.1970186369,0.0769999999997708
6,27,39480.9570668151,0.0770000000002256
6,28,38662.8850456966,0.0760000000000218
6,29,39335.2262921441,0.0760000000000218
6,30,39025.99025503,0.0770000000002256
7,1,39140.7841158377,0.0769999999997708
7,2,38702.3627308204,0.0780000000004293
7,3,38941.492171183,0.0769999999997708
7,4,38418.2829612602,0.0760000000000218
7,5,38818.9934392686,0.0770000000002256
7,6,38948.2023574928,0.0769999999997708
7,7,38830.469009016,0.0770000000002256
7,8,39504.9157713123,0.0769999999997708
7,9,38666.0544386887,0.0770000000002256
7,10,38793.4180467736,0.0769999999997708
7,11,39520.0801213326,0.0770000000002256
7,12,38044.8700983722,0.0769999999997708
7,13,38925.527505957,0.0770000000002256
7,14,39190.5894051247,0.0769999999997708
7,15,38870.2974589864,0.0770000000002256
7,16,39022.4344083756,0.0789999999997235
7,17,38988.7263695796,0.0770000000002256
7,18,39202.3102287581,0.0769999999997708
7,19,38621.8913469556,0.0770000000002256
7,20,39111.6009900806,0.0770000000002256
7,21,39498.2579340945,0.0760000000000218
7,22,38829.6868030768,0.0760000000000218
7,23,38969.682513515,0.0760000000000218
7,24,38896.6497336667,0.0760000000000218
7,25,38941.5756956348,0.0749999999998181
7,26,38825.8931478139,0.0749999999998181
7,27,39360.5454118776,0.0760000000000218
7,28,38542.4733907591,0.0759999999995671
7,29,38969.2960956192,0.0770000000002256
7,30,38905.5786000925,0.0760000000000218
8,1,39519.0242450413,0.0769999999997708
8,2,38813.2354395364,0.0760000000000218
8,3,39319.7323003865,0.0760000000000218
8,4,38529.1556699763,0.0760000000000218
8,5,39162.7001731383,0.0770000000002256
8,6,39326.4424866964,0.0760000000000218
8,7,39208.7091382196,0.0760000000000218
8,8,39883.1559005158,0.0760000000000218
8,9,38776.9271474047,0.0760000000000218
8,10,38904.2907554897,0.0760000000000218
8,11,39648.2047385638,0.0760000000000218
8,12,38738.8433480062,0.0770000000002256
8,13,39036.4002146731,0.0760000000000218
8,14,39568.8295343282,0.0759999999995671
8,15,38981.1701677024,0.0760000000000218
8,16,39224.5418116489,0.0760000000000218
8,17,39366.9664987831,0.0760000000000218
8,18,39580.5503579616,0.0769999999997708
8,19,38732.7640556717,0.0760000000000218
8,20,39489.8411192841,0.0760000000000218
8,21,39876.498063298,0.0770000000002256
8,22,38940.5595117928,0.0760000000000218
8,23,39210.7839168441,0.0760000000000218
8,24,39007.5224423828,0.0760000000000218
8,25,39319.8158248384,0.0770000000002256
8,26,38942.6580724154,0.0760000000000218
8,27,39471.4181205936,0.0769999999997708
8,28,38653.3460994751,0.0760000000000218
8,29,39347.5362248227,0.0760000000000218
8,30,39016.4513088085,0.0770000000002256
9,1,39811.7909493861,0.0760000000000218
9,2,39043.616291353,0.0759999999995671
9,3,39618.5802929524,0.0760000000000218
9,4,38759.5365217928,0.0760000000000218
9,5,39393.0810249549,0.0760000000000218
9,6,39770.7366168911,0.0760000000000218
9,7,39546.9497065269,0.0770000000002256
9,8,40327.4500307105,0.0769999999997708
9,9,39007.3079992212,0.0760000000000218
9,10,39134.6716073062,0.0760000000000218
9,11,39878.5855903803,0.0769999999997708
9,12,38969.2241998228,0.0770000000002256
9,13,39266.7810664896,0.0760000000000218
9,14,39942.6866100821,0.0769999999997708
9,15,39211.551019519,0.0760000000000218
9,16,39454.9226634654,0.0770000000002256
9,17,39811.2606289778,0.0760000000000218
9,18,40024.8444881563,0.0769999999997708
9,19,38963.1449074882,0.0760000000000218
9,20,39897.9749570902,0.0770000000002256
9,21,40320.7921934927,0.0769999999997708
9,22,39170.9403636094,0.0760000000000218
9,23,39441.1647686606,0.0770000000002256
9,24,39237.9032941993,0.0760000000000218
9,25,39764.1099550331,0.0769999999997708
9,26,39173.0389242319,0.0770000000002256
9,27,39701.7989724101,0.0760000000000218
9,28,38883.7269512916,0.0769999999997708
9,29,39791.8303550174,0.0760000000000218
9,30,39246.832160625,0.0760000000000218
10,1,39098.1108394908,0.0769999999997708
10,2,38736.5194794348,0.0770000000002256
10,3,38898.818894836,0.0759999999995671
10,4,38452.4397098746,0.0780000000004293
10,5,38776.3201629216,0.0759999999995671
10,6,38905.5290811458,0.0770000000002256
10,7,38787.795732669,0.0769999999997708
10,8,39462.2424949652,0.0770000000002256
10,9,38700.2111873031,0.0769999999997708
10,10,38827.574795388,0.0760000000000218
10,11,39477.4068449856,0.0770000000002256
10,12,38662.1273879046,0.0769999999997708
10,13,38959.6842545714,0.0770000000002256
10,14,39147.9161287777,0.0760000000000218
10,15,38904.4542076008,0.0760000000000218
10,16,38979.7611320286,0.0770000000002256
10,17,38946.0530932326,0.0769999999997708
10,18,39159.6369524111,0.0769999999997708
10,19,38656.04809557,0.0770000000002256
10,20,39068.9277137336,0.0769999999997708
10,21,39455.5846577474,0.0770000000002256
10,22,38863.8435516912,0.0769999999997708
10,23,38927.009237168,0.0760000000000218
10,24,38930.8064822811,0.0760000000000218
10,25,38898.9024192878,0.0769999999997708
10,26,38783.219871467,0.0779999999999745
10,27,39394.7021604919,0.0770000000002256
10,28,38576.6301393735,0.0760000000000218
10,29,38926.6228192722,0.0760000000000218
10,30,38939.7353487069,0.0769999999997708
11,1,39352.2422933038,0.0770000000002256
11,2,38689.8409259971,0.0769999999997708
11,3,39152.9503486491,0.0770000000002256
11,4,38405.7611564369,0.0769999999997708
11,5,39030.4516167347,0.0770000000002256
11,6,39159.6605349589,0.0770000000002256
11,7,39041.9271864822,0.0769999999997708
11,8,39716.3739487783,0.0770000000002256
11,9,38653.5326338654,0.0769999999997708
11,10,38780.8962419503,0.0770000000002256
11,11,39524.8102250244,0.0769999999997708
11,12,38615.4488344669,0.0860000000002401
11,13,38882.3310928255,0.0769999999997708
11,14,39402.0475825907,0.0760000000000218
11,15,38857.7756541631,0.0760000000000218
11,16,38122.172705067,0.0760000000000218
11,17,39200.1845470457,0.0770000000002256
11,18,39413.7684062242,0.0759999999995671
11,19,38609.3695421323,0.0760000000000218
11,20,39323.0591675466,0.0770000000002256
11,21,39709.7161115605,0.0760000000000218
11,22,38817.1649982535,0.0760000000000218
11,23,39087.3894033047,0.0760000000000218
11,24,38884.1279288434,0.0760000000000218
11,25,39153.0338731009,0.0760000000000218
11,26,38819.263558876,0.0760000000000218
11,27,39348.0236070543,0.0760000000000218
11,28,38529.9515859357,0.0769999999997708
11,29,39180.7542730853,0.0760000000000218
11,30,38893.0567952692,0.0770000000002256
12,1,39648.5446375692,0.0760000000000218
12,2,38880.3699795361,0.0760000000000218
12,3,39455.3339811356,0.0769999999997708
12,4,38596.290209976,0.0770000000002256
12,5,39229.8347131381,0.0760000000000218
12,6,39714.6238231079,0.0759999999995671
12,7,39383.7033947101,0.0760000000000218
12,8,39747.5934221324,0.0760000000000218
12,9,38844.0616874044,0.0760000000000218
12,10,38971.4252954894,0.0760000000000218
12,11,39715.3392785634,0.0770000000002256
12,12,38805.9778880059,0.0760000000000218
12,13,39103.5347546728,0.0760000000000218
12,14,39779.4402982653,0.0769999999997708
12,15,39048.3047077021,0.0760000000000218
12,16,39291.6763516486,0.0760000000000218
12,17,39755.1478351947,0.0770000000002256
12,18,39968.7316943731,0.0760000000000218
12,19,38799.8985956714,0.0760000000000218
12,20,39734.7286452734,0.0760000000000218
12,21,40186.6277047268,0.0760000000000218
12,22,39007.6940517925,0.0760000000000218
12,23,39277.9184568438,0.0769999999997708
12,24,39074.6569823825,0.0760000000000218
12,25,39648.4195489649,0.0760000000000218
12,26,39009.7926124151,0.0759999999995671
12,27,39538.5526605933,0.0760000000000218
12,28,38720.4806394748,0.0770000000002256
12,29,39735.7175612342,0.0760000000000218
12,30,39083.5858488082,0.0769999999997708
13,1,39409.663810094,0.0770000000002256
13,2,38641.489152061,0.0760000000000218
13,3,39216.4531536604,0.0769999999997708
13,4,38357.4093825008,0.0760000000000218
13,5,38990.9538856629,0.0770000000002256
13,6,39638.0003334666,0.0769999999997708
13,7,39144.8225672349,0.0760000000000218
13,8,40075.1018110906,0.0770000000002256
13,9,38605.1808599292,0.0760000000000218
13,10,38732.5444680142,0.0760000000000218
13,11,39476.4584510883,0.0770000000002256
13,12,38567.0970605307,0.0760000000000218
13,13,38864.6539271976,0.0769999999997708
13,14,39540.5594707901,0.0760000000000218
13,15,38809.423880227,0.0770000000002256
13,16,39052.7955241734,0.0769999999997708
13,17,39628.6783205933,0.0770000000002256
13,18,39943.6678688316,0.0760000000000218
13,19,38561.0177681962,0.0779999999999745
13,20,39495.8478177982,0.0769999999997708
13,21,39947.7468772516,0.0770000000002256
13,22,38768.8132243174,0.0769999999997708
13,23,39039.0376293686,0.0770000000002256
13,24,38835.7761549073,0.0760000000000218
13,25,39409.5387214897,0.0760000000000218
13,26,38770.9117849399,0.0770000000002256
13,27,39299.6718331181,0.0760000000000218
13,28,38481.5998119996,0.0760000000000218
13,29,39602.8977897286,0.0760000000000218
13,30,38844.705021333,0.0769999999997708
14,1,39486.6832089087,0.0770000000002256
14,2,38718.5085508756,0.0769999999997708
14,3,39293.4725524751,0.0769999999997708
14,4,38434.4287813154,0.0770000000002256
14,5,39067.9732844775,0.0769999999997708
14,6,39351.8458081946,0.0770000000002256
14,7,39221.8419660495,0.0769999999997708
14,8,39908.559222014,0.0770000000002256
14,9,38682.2002587439,0.0770000000002256
14,10,38809.5638668288,0.0769999999997708
14,11,39553.4778499029,0.0770000000002256
14,12,38644.1164593454,0.0769999999997708
14,13,38941.6733260122,0.0770000000002256
14,14,39594.2328558264,0.0769999999997708
14,15,38886.4432790416,0.0770000000002256
14,16,39129.814922988,0.0760000000000218
14,17,39392.3698202813,0.0779999999999745
14,18,39605.9536794598,0.0770000000002256
14,19,38638.0371670109,0.0769999999997708
14,20,39515.2444407823,0.0779999999999745
14,21,39901.9013847962,0.0760000000000218
14,22,38845.832623132,0.0760000000000218
14,23,39116.0570281832,0.0760000000000218
14,24,38912.7955537219,0.0760000000000218
14,25,39345.2191463366,0.0760000000000218
14,26,38847.9311837546,0.0779999999999745
14,27,39376.6912319328,0.0770000000002256
14,28,38558.6192108143,0.0779999999999745
14,29,39372.9395463209,0.0769999999997708
14,30,38921.7244201477,0.0780000000004293
15,1,39699.792090311,0.0769999999997708
15,2,39203.8451333556,0.0770000000002256
15,3,39500.5001456563,0.0770000000002256
15,4,38919.7653637954,0.0760000000000218
15,5,39378.0014137418,0.0759999999995671
15,6,39507.2103319661,0.0770000000002256
15,7,39389.4769834893,0.0760000000000218
15,8,40063.9237457855,0.0760000000000218
15,9,39167.5368412238,0.0760000000000218
15,10,39294.9004493088,0.0769999999997708
15,11,40038.8144323829,0.0770000000002256
15,12,39129.4530418254,0.0760000000000218
15,13,39427.0099084922,0.0760000000000218
15,14,39749.5973795979,0.0760000000000218
15,15,39371.7798615216,0.0760000000000218
15,16,39581.4423828489,0.0760000000000218
15,17,39547.7343440529,0.0760000000000218
15,18,39761.3182032313,0.0760000000000218
15,19,39123.3737494909,0.0760000000000218
15,20,39670.6089645538,0.0759999999995671
15,21,40057.2659085677,0.0760000000000218
15,22,39331.169205612,0.0770000000002256
15,23,39528.6904879883,0.0760000000000218
15,24,39398.1321362019,0.0769999999997708
15,25,39500.5836701081,0.0760000000000218
15,26,39333.2677662345,0.0770000000002256
15,27,39862.0278144128,0.0760000000000218
15,28,39043.9557932943,0.0760000000000218
15,29,39528.3040700924,0.0760000000000218
15,30,39407.0610026277,0.0760000000000218
16,1,39386.6948803243,0.0760000000000218
16,2,38618.5202222913,0.0770000000002256
16,3,39193.4842238907,0.0760000000000218
16,4,38334.4404527311,0.0760000000000218
16,5,38967.9849558932,0.0760000000000218
16,6,39240.8404760764,0.0760000000000218
16,7,39119.8193777107,0.0770000000002256
16,8,39797.5538898959,0.0760000000000218
16,9,38582.2119301595,0.0770000000002256
16,10,38709.5755382445,0.0760000000000218
16,11,39453.4895213186,0.0759999999995671
16,12,38544.128130761,0.0770000000002256
16,13,38841.6849974279,0.0760000000000218
16,14,39483.2275237083,0.0760000000000218
16,15,38786.4549504573,0.0760000000000218
16,16,38723.8954092363,0.0760000000000218
16,17,39281.3644881632,0.0770000000002256
16,18,39494.9483473417,0.0760000000000218
16,19,38538.0488384265,0.0760000000000218
16,20,39404.2391086641,0.0760000000000218
16,21,39790.8960526781,0.0770000000002256
16,22,38745.8442945477,0.0760000000000218
16,23,39016.0686995989,0.0760000000000218
16,24,38812.8072251376,0.0760000000000218
16,25,39234.2138142184,0.0770000000002256
16,26,38747.9428551702,0.0760000000000218
16,27,39276.7029033484,0.0760000000000218
16,28,38458.6308822299,0.0770000000002256
16,29,39261.9342142028,0.0760000000000218
16,30,38821.7360915633,0.0769999999997708
17,1,38943.9104630998,0.0760000000000218
17,2,38704.948643175,0.0770000000002256
17,3,38744.618518445,0.0769999999997708
17,4,38518.5764666691,0.0760000000000218
17,5,38622.1197865306,0.0759999999995671
17,6,38751.3287047549,0.0760000000000218
17,7,38633.5953562781,0.0769999999997708
17,8,39308.0421185743,0.0760000000000218
17,9,38759.3113745822,0.0770000000002256
17,10,38710.9419137566,0.0769999999997708
17,11,39323.2064685946,0.0760000000000218
17,12,38728.264144699,0.0770000000002256
17,13,38898.7239684947,0.0769999999997708
17,14,38993.7157523867,0.0760000000000218
17,15,38788.4260613919,0.0760000000000218
17,16,38825.5607556377,0.0779999999999745
17,17,38791.8527168416,0.0769999999997708
17,18,39005.4365760201,0.0770000000002256
17,19,38722.1848523645,0.0780000000004293
17,20,38914.7273373426,0.0779999999999745
17,21,39301.3842813565,0.0789999999997235
17,22,38320.7663548971,0.0790000000001783
17,23,38772.8088607771,0.0769999999997708
17,24,38996.9432390756,0.0779999999999745
17,25,38744.7020428969,0.0770000000002256
17,26,38629.019495076,0.0760000000000218
17,27,39299.160332554,0.0760000000000218
17,28,38642.7668961679,0.0769999999997708
17,29,38772.4224428812,0.0779999999999745
17,30,39005.0757055779,0.0770000000002256
18,1,39297.142685544,0.0769999999997708
18,2,39058.1808656192,0.0780000000004293
18,3,39097.8507408892,0.0769999999997708
18,4,38807.9646096768,0.0769999999997708
18,5,38975.3520089748,0.0770000000002256
18,6,39104.5609271991,0.0769999999997708
18,7,38986.8275787223,0.0770000000002256
18,8,39661.2743410185,0.0769999999997708
18,9,39055.7360871053,0.0770000000002256
18,10,39064.1741362008,0.0779999999999745
18,11,39676.4386910389,0.0769999999997708
18,12,39017.6522877068,0.0770000000002256
18,13,39251.9561909389,0.0760000000000218
18,14,39346.9479748309,0.0779999999999745
18,15,39141.6582838361,0.0770000000002256
18,16,39178.7929780819,0.0769999999997708
18,17,39145.0849392858,0.0779999999999745
18,18,39358.6687984643,0.0770000000002256
18,19,39011.5729953723,0.0769999999997708
18,20,39267.9595597868,0.0770000000002256
18,21,39654.6165038007,0.0770000000002256
18,22,39219.3684514934,0.0769999999997708
18,23,39126.0410832213,0.0769999999997708
18,24,39286.3313820833,0.0770000000002256
18,25,39097.9342653411,0.0760000000000218
18,26,38982.2517175202,0.0760000000000218
18,27,39652.3925549983,0.0760000000000218
18,28,38932.1550391757,0.0760000000000218
18,29,39125.6546653254,0.0770000000002256
18,30,39295.2602485091,0.0769999999997708
19,1,38901.2206159631,0.0760000000000218
19,2,38090.4528116427,0.0770000000002256
19,3,38701.9286713083,0.0760000000000218
19,4,38263.7831253786,0.0760000000000218
19,5,38579.4299393939,0.0760000000000218
19,6,38708.6388576182,0.0760000000000218
19,7,38590.9055091414,0.0769999999997708
19,8,39265.3522714376,0.0770000000002256
19,9,38500.9337929889,0.0760000000000218
19,10,38638.918210892,0.0760000000000218
19,11,39280.516621458,0.0769999999997708
19,12,38473.4708034085,0.0760000000000218
19,13,38771.0276700754,0.0769999999997708
19,14,38951.02590525,0.0760000000000218
19,15,38715.7976231047,0.0760000000000218
19,16,38782.870908501,0.0760000000000218
19,17,38749.1628697049,0.0760000000000218
19,18,38962.7467288834,0.0760000000000218
19,19,38467.391511074,0.0760000000000218
19,20,38872.0374902059,0.0760000000000218
19,21,39258.6944342198,0.0769999999997708
19,22,38675.1869671952,0.0760000000000218
19,23,38730.1190136404,0.0760000000000218
19,24,38742.1498977851,0.0760000000000218
19,25,38702.0121957602,0.0770000000002256
19,26,38075.5480839481,0.0769999999997708
19,27,39206.0455759959,0.0770000000002256
19,28,38387.9735548774,0.0769999999997708
19,29,38729.7325957445,0.0760000000000218
19,30,38751.0787642108,0.0760000000000218
20,1,38543.1809515631,0.0760000000000218
20,2,38304.2191316383,0.0760000000000218
20,3,38343.8890069083,0.0760000000000218
20,4,38310.1146861802,0.0779999999999745
20,5,38221.3902749939,0.0769999999997708
20,6,38350.5991932182,0.0760000000000218
20,7,38232.8658447413,0.0760000000000218
20,8,38907.3126070375,0.0760000000000218
20,9,38358.5818630455,0.0779999999999745
20,10,38310.2124022199,0.0760000000000218
20,11,38922.4769570579,0.0769999999997708
20,12,38439.6563106024,0.0760000000000218
20,13,38497.994456958,0.0760000000000218
20,14,38592.98624085,0.0769999999997708
20,15,38387.6965498552,0.0760000000000218
20,16,38424.831244101,0.0770000000002256
20,17,38391.1232053049,0.0779999999999745
20,18,38604.7070644834,0.0769999999997708
20,19,38414.118704153,0.0770000000002256
20,20,38513.9978258059,0.0770000000002256
20,21,38900.6547698197,0.0760000000000218
20,22,38583.4471963029,0.0769999999997708
20,23,38372.0793492403,0.0770000000002256
20,24,38946.8077334076,0.0769999999997708
20,25,38343.9725313602,0.0769999999997708
20,26,38228.2899835393,0.0770000000002256
20,27,38898.4308210173,0.0760000000000218
20,28,38541.3266038067,0.0769999999997708
20,29,38371.6929313445,0.0770000000002256
20,30,38604.3461940412,0.0769999999997708
21,1,38680.5287255258,0.0779999999999745
21,2,38212.1864713653,0.0770000000002256
21,3,38481.236780871,0.0779999999999745
21,4,38432.8596212975,0.0769999999997708
21,5,38358.7380489566,0.0770000000002256
21,6,38487.9469671809,0.0770000000002256
21,7,38370.2136187041,0.0779999999999745
21,8,39044.6603810003,0.0770000000002256
21,9,38495.9296370082,0.0779999999999745
21,10,38447.5601761826,0.0799999999999272
21,11,39059.8247310206,0.0789999999997235
21,12,38577.0040845651,0.0779999999999745
21,13,38635.3422309207,0.080000000000382
21,14,38730.3340148127,0.0789999999997235
21,15,38525.0443238179,0.0779999999999745
21,16,38562.1790180637,0.0779999999999745
21,17,38528.4709792677,0.0799999999999272
21,18,38742.0548384461,0.0790000000001783
21,19,38551.4664781157,0.0790000000001783
21,20,38651.3455997686,0.0779999999999745
21,21,39038.0025437825,0.0789999999997235
21,22,38720.7949702656,0.0790000000001783
21,23,38509.4271232031,0.081000000000131
21,24,38911.226393704,0.0799999999999272
21,25,38481.3203053229,0.0790000000001783
21,26,38365.637757502,0.0799999999999272
21,27,39035.77859498,0.0799999999999272
21,28,38557.0500507963,0.0770000000002256
21,29,38509.0407053072,0.0779999999999745
21,30,38741.6939680039,0.0790000000001783
22,1,39615.6480660036,0.0779999999999745
22,2,38847.4734079705,0.0789999999997235
22,3,39422.43740957,0.0779999999999745
22,4,38563.3936384104,0.081000000000131
22,5,39196.9381415724,0.0790000000001783
22,6,39549.3087171289,0.0789999999997235
22,7,39350.8068231445,0.0790000000001783
22,8,40106.0221309483,0.0779999999999745
22,9,38811.1651158388,0.0779999999999745
22,10,38938.5287239238,0.0780000000004293
22,11,39682.4427069978,0.0799999999999272
22,12,38773.0813164403,0.0919999999996435
22,13,39070.6381831072,0.0790000000001783
22,14,39746.5437266997,0.0779999999999745
22,15,39015.4081361365,0.0770000000002256
22,16,39258.779780083,0.0779999999999745
22,17,39589.8327292157,0.0769999999997708
22,18,39803.4165883942,0.0770000000002256
22,19,38767.0020241058,0.0790000000001783
22,20,39701.8320737078,0.0779999999999745
22,21,40099.3642937305,0.0769999999997708
22,22,38974.7974802269,0.0760000000000218
22,23,39245.0218852782,0.0760000000000218
22,24,39041.7604108168,0.0760000000000218
22,25,39542.6820552709,0.0760000000000218
22,26,38976.8960408495,0.0760000000000218
22,27,39505.6560890277,0.0760000000000218
22,28,38687.5840679092,0.0760000000000218
22,29,39570.4024552552,0.0760000000000218
22,30,39050.6892772426,0.0770000000002256
23,1,39165.2740884367,0.0789999999997235
23,2,38812.6870028721,0.081000000000131
23,3,38965.9821437819,0.0799999999999272
23,4,38528.6072333119,0.0779999999999745
23,5,38843.4834118675,0.0790000000001783
23,6,38972.6923300918,0.0779999999999745
23,7,38854.9589816149,0.0790000000001783
23,8,39529.4057439111,0.0790000000001783
23,9,38776.3787107404,0.0760000000000218
23,10,38903.7423188253,0.0789999999997235
23,11,39544.5700939315,0.0790000000001783
23,12,38738.2949113419,0.0769999999997708
23,13,39035.8517780087,0.0760000000000218
23,14,39215.0793777236,0.0769999999997708
23,15,38980.6217310381,0.0770000000002256
23,16,39046.9243809745,0.0769999999997708
23,17,39013.2163421785,0.0799999999999272
23,18,39226.800201357,0.080000000000382
23,19,38732.2156190074,0.0799999999999272
23,20,39136.0909626795,0.0789999999997235
23,21,39522.7479066933,0.080000000000382
23,22,38940.0110751285,0.0789999999997235
23,23,38994.1724861139,0.0799999999999272
23,24,39006.9740057184,0.0790000000001783
23,25,38966.0656682338,0.0769999999997708
23,26,38850.3831204129,0.080000000000382
23,27,39470.8696839293,0.0819999999998799
23,28,38652.7976628108,0.0799999999999272
23,29,38993.7860682181,0.081000000000131
23,30,39015.9028721442,0.0809999999996762
24,1,39740.0118973148,0.0820000000003347
24,2,38971.8372392817,0.0799999999999272
24,3,39546.8012408812,0.0799999999999272
24,4,38687.7574697216,0.0790000000001783
24,5,39321.3019728836,0.0779999999999745
24,6,39772.0531148694,0.0770000000002256
24,7,39475.1706544557,0.0769999999997708
24,8,40328.7665286888,0.0799999999999272
24,9,38935.52894715,0.080000000000382
24,10,39062.892555235,0.0769999999997708
24,11,39806.806538309,0.0779999999999745
24,12,38897.4451477515,0.0790000000001783
24,13,39195.0020144184,0.0809999999996762
24,14,39870.9075580109,0.081000000000131
24,15,39139.7719674477,0.081000000000131
24,16,39383.1436113942,0.081000000000131
24,17,39812.5771269561,0.0799999999999272
24,18,40026.1609861346,0.0769999999997708
24,19,38891.365855417,0.0799999999999272
24,20,39826.195905019,0.080000000000382
24,21,40278.0949644724,0.0769999999997708
24,22,39099.1613115381,0.0770000000002256
24,23,39369.3857165893,0.0779999999999745
24,24,39166.124242128,0.0769999999997708
24,25,39739.8868087105,0.0770000000002256
24,26,39101.2598721607,0.0779999999999745
24,27,39630.0199203389,0.0760000000000218
24,28,38811.9478992204,0.0769999999997708
24,29,39793.1468529957,0.0769999999997708
24,30,39175.0531085538,0.0770000000002256
25,1,39731.376680192,0.0769999999997708
25,2,39072.1438289617,0.0779999999999745
25,3,39532.0847355372,0.0779999999999745
25,4,38788.0640594015,0.0760000000000218
25,5,39409.5860036228,0.0779999999999745
25,6,39538.7949218471,0.0779999999999745
25,7,39421.0615733703,0.0760000000000218
25,8,40095.5083356665,0.0779999999999745
25,9,39035.8355368299,0.0769999999997708
25,10,39163.1991449149,0.0780000000004293
25,11,39907.113127989,0.0759999999995671
25,12,38997.7517374315,0.0770000000002256
25,13,39295.3086040983,0.0769999999997708
25,14,39781.1819694789,0.0770000000002256
25,15,39240.0785571277,0.0779999999999745
25,16,39110.6063687234,0.0769999999997708
25,17,39579.3189339339,0.0779999999999745
25,18,39792.9027931123,0.0790000000001783
25,19,38991.6724450969,0.0779999999999745
25,20,39702.1935544348,0.0770000000002256
25,21,40088.8504984487,0.0769999999997708
25,22,39199.4679012181,0.0770000000002256
25,23,39469.6923062693,0.0769999999997708
25,24,39266.430831808,0.0779999999999745
25,25,39532.1682599891,0.0770000000002256
25,26,39201.5664618406,0.0769999999997708
25,27,39730.3265100188,0.0770000000002256
25,28,38912.2544889003,0.0770000000002256
25,29,39559.8886599734,0.0779999999999745
25,30,39275.3596982337,0.0779999999999745
26,1,39099.9911716303,0.0879999999997381
26,2,38861.0293517055,0.0760000000000218
26,3,38900.0453587388,0.0770000000002256
26,4,38659.0492695699,0.0760000000000218
26,5,38778.2004950611,0.0760000000000218
26,6,38907.4094132854,0.0770000000002256
26,7,38789.6760648086,0.0760000000000218
26,8,39464.1228271048,0.0779999999999745
26,9,38906.8207469983,0.0769999999997708
26,10,38867.0226222871,0.0760000000000218
26,11,39479.2871771252,0.0770000000002256
26,12,38868.7369475999,0.0769999999997708
26,13,39054.8046770252,0.0760000000000218
26,14,39149.7964609172,0.0769999999997708
26,15,38758.2762731001,0.0770000000002256
26,16,38981.6414641682,0.0760000000000218
26,17,38947.9334253722,0.0779999999999745
26,18,39161.5172845506,0.0789999999997235
26,19,38862.6576552653,0.0799999999999272
26,20,39070.8080458731,0.080000000000382
26,21,39457.464989887,0.0769999999997708
26,22,38793.9297888255,0.0770000000002256
26,23,38928.8895693076,0.0760000000000218
26,24,39137.4160419764,0.0760000000000218
26,25,38900.7827514274,0.0770000000002256
26,26,38785.1002036065,0.0769999999997708
26,27,39455.2410410846,0.0790000000001783
26,28,38783.2396990687,0.0779999999999745
26,29,38928.5031514117,0.0779999999999745
26,30,39146.3449084021,0.0779999999999745
27,1,39615.9168961603,0.0760000000000218
27,2,38847.7422381272,0.0780000000004293
27,3,39422.7062397267,0.0779999999999745
27,4,38563.662468567,0.0779999999999745
27,5,39197.2069717291,0.0769999999997708
27,6,39730.3877557929,0.0779999999999745
27,7,39351.0756533011,0.0789999999997235
27,8,40281.3548971568,0.0760000000000218
27,9,38811.4339459955,0.0770000000002256
27,10,38938.7975540804,0.0789999999997235
27,11,39682.7115371545,0.0779999999999745
27,12,38773.350146597,0.0790000000001783
27,13,39070.9070132638,0.0760000000000218
27,14,39746.8125568563,0.0770000000002256
27,15,39015.6769662932,0.0770000000002256
27,16,39259.0486102396,0.0760000000000218
27,17,39770.9117678796,0.0779999999999745
27,18,39984.4956270581,0.0769999999997708
27,19,38767.2708542625,0.0769999999997708
27,20,39702.1009038645,0.0779999999999745
27,21,40153.9999633178,0.0760000000000218
27,22,38975.0663103836,0.0779999999999745
27,23,39245.2907154348,0.0770000000002256
27,24,39042.0292409735,0.0760000000000218
27,25,39615.791807556,0.0769999999997708
27,26,38977.1648710061,0.0770000000002256
27,27,39505.9249191844,0.0769999999997708
27,28,38687.8528980659,0.0760000000000218
27,29,39751.4814939192,0.0770000000002256
27,30,39050.9581073993,0.0769999999997708
28,1,39729.1882368143,0.0760000000000218
28,2,39106.5057012784,0.0760000000000218
28,3,39529.8962921596,0.0769999999997708
28,4,38822.4259317182,0.0770000000002256
28,5,39407.3975602452,0.0769999999997708
28,6,39536.6064784694,0.0760000000000218
28,7,39418.8731299926,0.0770000000002256
28,8,40093.3198922888,0.0770000000002256
28,9,39070.1974091467,0.0769999999997708
28,10,39197.5610172316,0.0770000000002256
28,11,39941.4750003057,0.0779999999999745
28,12,39032.1136097482,0.0769999999997708
28,13,39329.670476415,0.0770000000002256
28,14,39778.9935261012,0.0769999999997708
28,15,39274.4404294444,0.0770000000002256
28,16,39517.8120733909,0.0769999999997708
28,17,39577.1304905562,0.0770000000002256
28,18,39790.7143497346,0.0770000000002256
28,19,39026.0343174137,0.0769999999997708
28,20,39700.0051110571,0.0769999999997708
28,21,40086.662055071,0.0770000000002256
28,22,39233.8297735348,0.0769999999997708
28,23,39504.054178586,0.0770000000002256
28,24,39300.7927041247,0.0769999999997708
28,25,39529.9798166114,0.0770000000002256
28,26,39235.9283341574,0.0770000000002256
28,27,39764.6883823356,0.0769999999997708
28,28,38946.6163612171,0.0770000000002256
28,29,39557.7002165958,0.0769999999997708
28,30,39309.7215705505,0.0770000000002256
29,1,39631.6208670968,0.0770000000002256
29,2,38863.4462090637,0.0779999999999745
29,3,39438.2301626124,0.0770000000002256
29,4,38579.3664395036,0.0769999999997708
29,5,39212.9109426656,0.0770000000002256
29,6,39769.8181762158,0.0769999999997708
29,7,39366.7796242377,0.0779999999999745
29,8,40297.0588680933,0.0770000000002256
29,9,38827.137916932,0.0779999999999745
29,10,38954.501525017,0.0769999999997708
29,11,39698.415508091,0.0770000000002256
29,12,38789.0541175335,0.0769999999997708
29,13,39086.6109842004,0.0779999999999745
29,14,39762.5165277929,0.0779999999999745
29,15,39031.3809372297,0.0770000000002256
29,16,39274.7525811762,0.0769999999997708
29,17,39810.3421883026,0.0770000000002256
29,18,40023.9260474811,0.0769999999997708
29,19,38782.974825199,0.0779999999999745
29,20,39717.804874801,0.0769999999997708
29,21,40169.7039342544,0.0760000000000218
29,22,38990.7702813201,0.0760000000000218
29,23,39260.9946863714,0.0770000000002256
29,24,39057.73321191,0.0769999999997708
29,25,39631.4957784925,0.0760000000000218
29,26,38992.8688419427,0.0760000000000218
29,27,39521.6288901209,0.0779999999999745
29,28,38703.5568690024,0.0760000000000218
29,29,39539.7397245055,0.0760000000000218
29,30,39066.6620783358,0.0760000000000218
30,1,39549.9546315171,0.0760000000000218
30,2,38781.779973484,0.0769999999997708
30,3,39115.5828610919,0.0760000000000218
30,4,38497.7002039239,0.0760000000000218
30,5,39131.2447070859,0.0770000000002256
30,6,39381.0530542645,0.0769999999997708
30,7,39263.3197057877,0.0760000000000218
30,8,39937.7664680839,0.0760000000000218
30,9,38745.4716813523,0.0760000000000218
30,10,38872.8352894373,0.0769999999997708
30,11,39616.7492725113,0.0770000000002256
30,12,38707.3878819538,0.0760000000000218
30,13,39004.9447486207,0.0760000000000218
30,14,39623.4401018964,0.0760000000000218
30,15,38949.71470165,0.0760000000000218
30,16,39193.0863455965,0.0760000000000218
30,17,39421.5770663513,0.0770000000002256
30,18,39635.1609255298,0.0779999999999745
30,19,38701.3085896193,0.0789999999997235
30,20,39544.4516868522,0.0780000000004293
30,21,39931.1086308661,0.0779999999999745
30,22,38909.1040457404,0.0779999999999745
30,23,39179.3284507916,0.0789999999997235
30,24,38976.0669763303,0.081000000000131
30,25,39374.4263924065,0.0790000000001783
30,26,38911.202606363,0.0799999999999272
30,27,39439.9626545412,0.0799999999999272
30,28,38621.8906334227,0.081000000000131
30,29,39402.1467923909,0.0789999999997235
30,30,38984.9958427561,0.0770000000002256
