"Before.Version","After.Version","Diff","Direction","P.Value","Simple.Diff","Within.Diffs.Mean","Within.Diffs.SD","Between.Diffs.Mean","Between.Diffs.SD","Runtime"
"v1","v2",FALSE,NA,0,0.115,14304.537,9150.42,15204.97,8975.125,455.462
"v2","v3",TRUE,"NEGATIVE",0,1,13257.173,7667.775,157336.691,30423.745,500.814
"v3","v4",FALSE,NA,0,0.161,11183.466,3858.448,13864.94,8364.931,461.634
