App - AnkiDroid
Scenario - learn_cards
Length - 1sec
Measure - EuclideanDistance
Before Version - 2.6_b
After Version - 2.7_f


"Before.Trace.ID1","Before.Trace.ID2","Difference","Runtime"
1,2,2403.67541534074,0.000999999996565748
1,3,2920.74400829517,0
1,4,1615.7336504213,0.00100000000384171
1,5,946.07735578751,0.000999999996565748
1,6,3672.3823496002,0
1,7,1751.69058097987,0.000999999996565748
1,8,2450.35766816384,0.00100000000384171
1,9,2706.0462573028,0
1,10,1843.34447586315,0.000999999996565748
1,11,3294.22039654549,0.00100000000384171
1,12,3432.81142361671,0
1,13,2544.01299493244,0.000999999996565748
1,14,1999.48567369637,0.00100000000384171
1,15,1991.77906778507,0
1,16,3335.56753224573,0.000999999996565748
1,17,2403.71959755481,0.00100000000384171
1,18,2122.80770320443,0
1,19,4510.34892369145,0.000999999996565748
1,20,2293.13567640725,0.00100000000384171
1,21,2669.50446729025,0
1,22,3241.48137576595,0.000999999996565748
1,23,1779.40390701656,0.00100000000384171
1,24,1990.93406482885,0
1,25,3256.67953707223,0.000999999996565748
1,26,3152.46102914388,0.00100000000384171
1,27,2641.94349140785,0
1,28,2681.19824808553,0.000999999996565748
1,29,1997.46571596453,0.00100000000384171
1,30,2621.10874340597,0
2,3,2859.70547536968,0.000999999996565748
2,4,2667.87357432143,0.00100000000384171
2,5,2616.03626013155,0
2,6,3300.39415531254,0.000999999996565748
2,7,2385.88328790925,0.000999999996565748
2,8,3565.96879228264,0
2,9,3889.58085302648,0.00100000000384171
2,10,2644.25709709833,0.000999999996565748
2,11,4336.56012444874,0
2,12,4340.17323890359,0.00100000000384171
2,13,3663.3660393331,0.000999999996565748
2,14,1414.02126908416,0
2,15,3041.59465601201,0
2,16,4326.23297557014,0.000999999996565748
2,17,3240.64882892998,0
2,18,3174.32469956079,0
2,19,5068.9253543764,0.000999999996565748
2,20,3291.36443913678,0.00100000000384171
2,21,2987.09598740395,0
2,22,2948.91779305031,0.000999999996565748
2,23,1855.41135721002,0.00100000000384171
2,24,1799.85441331798,0
2,25,4261.79304599482,0.000999999996565748
2,26,4108.96152780001,0.00100000000384171
2,27,3399.92716155204,0
2,28,3264.35208852972,0.000999999996565748
2,29,3126.95782484987,0.00100000000384171
2,30,3244.83583054644,0
3,4,2245.27073935995,0.000999999996565748
3,5,2797.32880553346,0.000999999996565748
3,6,3541.70142092903,0
3,7,2321.9527710105,0
3,8,2344.99379723981,0.000999999996565748
3,9,3783.37052100308,0.00100000000384171
3,10,3005.00809494708,0
3,11,3061.37850215214,0.000999999996565748
3,12,4596.24368446972,0.00100000000384171
3,13,3338.35363721654,0
3,14,2488.91404360253,0.000999999996565748
3,15,2563.8536352972,0.00100000000384171
3,16,3305.66789355101,0
3,17,2692.41940311936,0
3,18,2829.97923659742,0.000999999996565748
3,19,3637.87675733555,0.00100000000384171
3,20,3257.9871438943,0
3,21,3766.88826062531,0
3,22,3695.58135409978,0.000999999996565748
3,23,3106.39839497845,0
3,24,2049.5754321153,0
3,25,4141.04330528534,0.000999999996565748
3,26,3021.83777894681,0
3,27,3114.38831475743,0
3,28,3521.98038076408,0.000999999996565748
3,29,3031.00033276252,0
3,30,3155.7896237019,0.00100000000384171
4,5,1398.51347645253,0.000999999996565748
4,6,3247.22974118427,0
4,7,1519.33892985269,0.00100000000384171
4,8,1443.55550686277,0.000999999996565748
4,9,2654.29072903935,0
4,10,1483.3284627087,0.00100000000384171
4,11,2368.15263469976,0.000999999996565748
4,12,3294.24610797238,0
4,13,2175.03042691712,0.00100000000384171
4,14,2198.30845444648,0.000999999996565748
4,15,1537.73211887463,0
4,16,2430.78777505964,0.00100000000384171
4,17,1772.88147866034,0.000999999996565748
4,18,1231.15780808749,0
4,19,3771.92429457176,0.00100000000384171
4,20,1505.15724107374,0.000999999996565748
4,21,2719.07820021627,0
4,22,2996.2152493372,0.000999999996565748
4,23,2142.81824156798,0.00100000000384171
4,24,1676.01996087709,0
4,25,3342.86769894948,0.000999999996565748
4,26,2802.06257670934,0.00100000000384171
4,27,2080.11703149032,0
4,28,2963.98557077551,0.000999999996565748
4,29,1727.37372442953,0.00100000000384171
4,30,2011.45029179593,0
5,6,3253.5507191862,0.000999999996565748
5,7,1632.09673310734,0.00100000000384171
5,8,2258.7942169689,0
5,9,2549.4415688621,0
5,10,1572.94604168402,0.00100000000384171
5,11,3026.87394234341,0
5,12,3417.76737414599,0
5,13,2354.65264702276,0.00100000000384171
5,14,2133.14158938473,0.000999999996565748
5,15,1924.68241088146,0
5,16,3083.30918790023,0.00100000000384171
5,17,2117.71479699243,0.000999999996565748
5,18,1724.05607004898,0
5,19,4387.16867459126,0.00100000000384171
5,20,1960.36756686011,0.000999999996565748
5,21,2678.34453686971,0
5,22,3124.38256009851,0.00100000000384171
5,23,1847.52234330845,0.000999999996565748
5,24,1876.35861505416,0
5,25,3350.41409273251,0.000999999996565748
5,26,3002.06760125941,0.00100000000384171
5,27,2324.068584847,0
5,28,2934.18200572935,0.000999999996565748
5,29,1836.79081478497,0.00100000000384171
5,30,2381.96829711597,0
6,7,3447.89335599379,0
6,8,3845.49093726044,0.00100000000384171
6,9,3406.80322346382,0.000999999996565748
6,10,3105.86518633755,0
6,11,3916.64479016907,0.00100000000384171
6,12,4335.47461585841,0.000999999996565748
6,13,3455.74867345736,0.000999999996565748
6,14,3067.05808286508,0
6,15,3722.72759636208,0.000999999996565748
6,16,3963.31256797265,0.00100000000384171
6,17,2745.6309595896,0
6,18,3209.33480967473,0.000999999996565748
6,19,4390.12325323218,0.00100000000384171
6,20,3041.51997973145,0
6,21,3390.95940254369,0.000999999996565748
6,22,2735.64790966876,0.00100000000384171
6,23,3148.41085625922,0
6,24,2763.25178208525,0.000999999996565748
6,25,4210.59272215281,0.00100000000384171
6,26,3904.22917407643,0
6,27,3307.40265328496,0.000999999996565748
6,28,3959.0853895113,0.00100000000384171
6,29,3423.0496787502,0
6,30,3181.81618339892,0.000999999996565748
7,8,2452.39018726459,0.00100000000384171
7,9,3521.385371521,0
7,10,2048.29883136193,0.000999999996565748
7,11,3352.58737945931,0.00100000000384171
7,12,4246.15141949533,0
7,13,3344.03746727046,0.000999999996565748
7,14,1671.03914281412,0.00100000000384171
7,15,2567.48779572653,0
7,16,3215.87431690068,0.000999999996565748
7,17,2169.97412228075,0.000999999996565748
7,18,2063.73422176691,0
7,19,4625.54901109157,0.00100000000384171
7,20,2258.49943950322,0.000999999996565748
7,21,2608.09281638578,0
7,22,3396.16332437744,0.00100000000384171
7,23,1814.01574634099,0.000999999996565748
7,24,1514.27497341713,0
7,25,4033.24560730624,0.00100000000384171
7,26,3389.3555741863,0.000999999996565748
7,27,2592.5969663406,0
7,28,3640.15765008592,0.00100000000384171
7,29,1979.00389521288,0.000999999996565748
7,30,2543.83123991817,0
8,9,2795.11522403354,0.00100000000384171
8,10,2258.05474097622,0.000999999996565748
8,11,1945.62884962948,0
8,12,3371.45026549476,0.00100000000384171
8,13,2109.26863124808,0.000999999996565748
8,14,3129.96721289265,0
8,15,1559.68946721736,0.00100000000384171
8,16,1967.17556540463,0.000999999996565748
8,17,2267.34259962424,0
8,18,1802.99210690297,0
8,19,3208.54656681461,0.000999999996565748
8,20,2061.03395009756,0
8,21,3407.58290476292,0
8,22,3541.39217885592,0.000999999996565748
8,23,3146.01054577084,0.000999999996565748
8,24,2517.66102756843,0
8,25,3447.37151052796,0.00100000000384171
8,26,2560.688232259,0.000999999996565748
8,27,2299.35660921457,0
8,28,3061.51212517255,0.00100000000384171
8,29,2358.32095403402,0.000999999996565748
8,30,2295.12458733296,0
9,10,2707.12825100638,0.00100000000384171
9,11,2945.28059232727,0.000999999996565748
9,12,2598.8253404593,0
9,13,1719.99094144187,0.00100000000384171
9,14,3431.48516927208,0.000999999996565748
9,15,2465.33375450261,0
9,16,3256.92344587491,0
9,17,2659.763310047,0.000999999996565748
9,18,2738.48746809957,0.00100000000384171
9,19,3460.29510043524,0.000999999996565748
9,20,2558.42332586641,0
9,21,3250.12586110271,0.00100000000384171
9,22,3321.9652873671,0.000999999996565748
9,23,3383.2191168481,0
9,24,3187.33409690614,0.00100000000384171
9,25,1986.61052572315,0.000999999996565748
9,26,3273.9995408561,0
9,27,2957.86318801778,0.00100000000384171
9,28,2094.65829609143,0.000999999996565748
9,29,3066.99281286923,0
9,30,3012.16860464536,0.00100000000384171
10,11,3297.57754617357,0.000999999996565748
10,12,2593.20550405647,0
10,13,2276.30375378433,0.00100000000384171
10,14,2534.40695846427,0.000999999996565748
10,15,1912.48835738148,0
10,16,2930.44376936783,0.00100000000384171
10,17,2576.84891350375,0.000999999996565748
10,18,1801.61201732888,0
10,19,4553.88020201726,0.00100000000384171
10,20,1367.75726250217,0.000999999996565748
10,21,2358.78157776714,0
10,22,2438.15658783515,0.00100000000384171
10,23,2279.29032989682,0.000999999996565748
10,24,2037.87000884461,0
10,25,3519.15427113101,0.000999999996565748
10,26,3558.67512260269,0.00100000000384171
10,27,2259.26203350183,0
10,28,2951.14604428147,0.000999999996565748
10,29,2294.23150654143,0.00100000000384171
10,30,1536.26480101228,0
11,12,4154.34610111618,0.000999999996565748
11,13,2441.59850953615,0.00100000000384171
11,14,3818.54496906193,0
11,15,2444.25402283847,0.000999999996565748
11,16,1845.12457324002,0.00100000000384171
11,17,2175.32903113504,0
11,18,2170.10460153459,0.000999999996565748
11,19,2514.69653312455,0.00100000000384171
11,20,2672.4620968583,0
11,21,4127.17963528938,0.000999999996565748
11,22,4154.70396043949,0.00100000000384171
11,23,3760.23038573558,0
11,24,3244.38272644642,0.000999999996565748
11,25,3793.45606364419,0.00100000000384171
11,26,1995.99762967097,0
11,27,2692.03495878108,0.000999999996565748
11,28,3671.80970822186,0.00100000000384171
11,29,2527.01652195604,0
11,30,3278.10259552104,0.000999999996565748
12,13,2330.41427499802,0.000999999996565748
12,14,4336.77815473334,0
12,15,2742.73001378388,0.00100000000384171
12,16,3899.15827136105,0.000999999996565748
12,17,4033.1010253452,0
12,18,3452.8761700062,0
12,19,4930.7026766565,0.000999999996565748
12,20,2845.2708033535,0.00100000000384171
12,21,3532.65916593774,0
12,22,3290.54110906499,0.000999999996565748
12,23,4097.42339689712,0.00100000000384171
12,24,3881.31697556776,0
12,25,3289.04832211616,0.000999999996565748
12,26,4662.61733487835,0.00100000000384171
12,27,3430.106481162,0
12,28,2696.89070672332,0.000999999996565748
12,29,3964.16238682194,0.00100000000384171
12,30,2727.39064001667,0
13,14,3437.84662550532,0.00799999999435386
13,15,1657.09320389164,0.00100000000384171
13,16,2652.7432116464,0.000999999996565748
13,17,2520.13095340604,0.00100000000384171
13,18,2396.3609907811,0
13,19,3337.3810036481,0.000999999996565748
13,20,2217.66214013933,0.00100000000384171
13,21,3303.2109772031,0
13,22,3000.99523711675,0.000999999996565748
13,23,3373.12491454125,0.00100000000384171
13,24,2964.81061667113,0
13,25,2739.85015900794,0.000999999996565748
13,26,2865.77890269458,0.00100000000384171
13,27,2388.24596990998,0
13,28,2243.47609323581,0.000999999996565748
13,29,2714.92880438512,0.00100000000384171
13,30,2464.65497230979,0
14,15,2883.80201647245,0.000999999996565748
14,16,3860.6401424641,0.00100000000384171
14,17,2405.74263884701,0
14,18,2828.0379606719,0.000999999996565748
14,19,4705.61124887918,0.00100000000384171
14,20,2869.47890070642,0
14,21,2499.85808247505,0.000999999996565748
14,22,2992.27397565247,0.000999999996565748
14,23,1485.8009563373,0
14,24,1326.13211540626,0.00100000000384171
14,25,3853.30335973936,0.000999999996565748
14,26,3701.21787405245,0
14,27,2959.6718478849,0.00100000000384171
14,28,3161.44590292283,0.000999999996565748
14,29,2548.08736485579,0
14,30,2956.12506997584,0.00100000000384171
15,16,2533.74644519204,0.000999999996565748
15,17,2537.27054987421,0
15,18,1847.35430508436,0.00100000000384171
15,19,3611.20464146434,0.000999999996565748
15,20,2052.41360211631,0
15,21,3283.27190052946,0.00100000000384171
15,22,3232.03746210654,0.000999999996565748
15,23,2724.16839157817,0
15,24,2256.53757424543,0.00100000000384171
15,25,3312.16282709862,0.000999999996565748
15,26,2856.90080816071,0
15,27,2114.14401147199,0.00100000000384171
15,28,2375.01174745822,0.000999999996565748
15,29,2285.42862952745,0
15,30,2209.72792624791,0.00100000000384171
16,17,2463.30723556365,0.000999999996565748
16,18,2133.13562540679,0
16,19,3247.5409457706,0
16,20,2110.31751593736,0.00100000000384171
16,21,3455.05747574744,0.000999999996565748
16,22,3783.49682828374,0
16,23,3768.74958632825,0.00100000000384171
16,24,3212.45513939614,0.000999999996565748
16,25,4354.14545864761,0
16,26,2957.74109437175,0.00100000000384171
16,27,2060.74589611694,0.000999999996565748
16,28,3885.3714330145,0
16,29,2663.57540848472,0.00100000000384171
16,30,2451.06851729813,0.000999999996565748
17,18,1998.72031813871,0
17,19,3472.64936724058,0.00100000000384171
17,20,2046.4177704436,0.000999999996565748
17,21,2732.53668363216,0
17,22,3051.65035399472,0.00100000000384171
17,23,2536.26336317466,0.000999999996565748
17,24,2117.0230218582,0
17,25,3533.93447468138,0
17,26,2534.55542551061,0.000999999996565748
17,27,2127.70574557926,0.00800000000162981
17,28,3427.62013263278,0.000999999996565748
17,29,1554.51502885748,0
17,30,2583.10552769478,0.00100000000384171
18,19,3741.32821386405,0.000999999996565748
18,20,1377.46505653821,0
18,21,3068.20754886243,0.00100000000384171
18,22,3342.49055749075,0.000999999996565748
18,23,2360.34940029055,0
18,24,2088.65422621131,0.00100000000384171
18,25,3768.71536852227,0.000999999996565748
18,26,2815.99926206362,0
18,27,1973.00091975107,0.00100000000384171
18,28,3396.74915012441,0.000999999996565748
18,29,1832.75850954243,0
18,30,2189.02945988185,0.00100000000384171
19,20,4116.33752525193,0.000999999996565748
19,21,5136.7752629367,0
19,22,4768.41678334707,0.00100000000384171
19,23,4968.7792443686,0.000999999996565748
19,24,4254.26561446789,0
19,25,3760.62343527825,0.000999999996565748
19,26,2729.67717066372,0.00100000000384171
19,27,4201.43227684669,0
19,28,3750.81961442192,0.000999999996565748
19,29,4117.77104069743,0.00100000000384171
19,30,4529.20070596353,0
20,21,2321.19035627355,0.000999999996565748
20,22,2714.82590678886,0.00100000000384171
20,23,2526.07841262855,0
20,24,2251.49063416463,0.000999999996565748
20,25,3646.15419876303,0.00100000000384171
20,26,3371.39531956612,0
20,27,1775.32625144982,0.000999999996565748
20,28,3278.601472126,0.00100000000384171
20,29,1964.296267984,0
20,30,1444.47688282106,0.000999999996565748
21,22,2392.75824877434,0.00100000000384171
21,23,2675.28246663929,0
21,24,2516.70577522204,0.000999999996565748
21,25,4102.68435160293,0.00100000000384171
21,26,4371.75261034072,0
21,27,2540.1329879316,0.000999999996565748
21,28,3442.00943679763,0.00100000000384171
21,29,2883.19866224369,0
21,30,2143.80507050295,0.000999999996565748
22,23,3210.31220495439,0.00100000000384171
22,24,2777.77235144786,0
22,25,4115.02038226543,0
22,26,4161.00253085415,0.000999999996565748
22,27,3085.4208645924,0
22,28,3230.39394952903,0
22,29,3130.44132456899,0.000999999996565748
22,30,2422.01270550146,0.00100000000384171
23,24,1513.61529738315,0
23,25,4103.91270404168,0.000999999996565748
23,26,3767.81478481204,0.00100000000384171
23,27,2702.24697007391,0
23,28,3387.30853521602,0.000999999996565748
23,29,2301.34991258398,0.00100000000384171
23,30,2875.72152920051,0
24,25,3891.93449786247,0.000999999996565748
24,26,3418.22602389545,0.00100000000384171
24,27,2273.24683503082,0
24,28,3110.85265034231,0.000999999996565748
24,29,2157.3890192892,0.00100000000384171
24,30,2341.83645044785,0
25,26,3800.46327744862,0.000999999996565748
25,27,4356.45190850256,0.00100000000384171
25,28,2317.96795744801,0
25,29,3967.18414704594,0
25,30,4077.90240729732,0.00800000000162981
26,27,3368.91902482502,0.000999999996565748
26,28,3548.34517477849,0.00100000000384171
26,29,2669.23865891351,0
26,30,3836.0563120532,0.000999999996565748
27,28,3479.55804375566,0.00100000000384171
27,29,2186.93978952811,0
27,30,1669.25981901691,0.000999999996565748
28,29,3517.70498088002,0.00100000000384171
28,30,3328.94853280235,0
29,30,2606.24977697433,0.000999999996565748


"After.Trace.ID","Before.Trace.ID","Difference","Runtime"
1,1,7474.4725550499,0
1,2,7138.28256875898,0.00100000000384171
1,3,7856.25886568063,0.000999999996565748
1,4,7359.39417493901,0
1,5,7455.36293915266,0.00100000000384171
1,6,8185.31840501449,0.000999999996565748
1,7,6449.89045906409,0
1,8,8017.29471319102,0.00100000000384171
1,9,9128.8054581829,0.000999999996565748
1,10,7360.90548870877,0
1,11,8612.47660157735,0.00100000000384171
1,12,9140.78420405974,0.000999999996565748
1,13,8923.29489347812,0
1,14,6858.72272657438,0
1,15,8157.67565533656,0.000999999996565748
1,16,7767.68659134202,0
1,17,7476.14317257746,0
1,18,7384.13851742412,0.000999999996565748
1,19,10143.6053329704,0
1,20,7210.37870409231,0
1,21,6532.72547633257,0.000999999996565748
1,22,7937.67924803397,0
1,23,6627.14964222465,0
1,24,6897.58058735243,0.000999999996565748
1,25,9943.22121852478,0
1,26,9023.49006459222,0
1,27,6981.7331797976,0.00100000000384171
1,28,9258.70391298436,0
1,29,7172.89330778589,0
1,30,7154.68781549283,0.00100000000384171
2,1,6734.13889782088,0.000999999996565748
2,2,6463.54157698483,0
2,3,6645.98585736797,0.00100000000384171
2,4,6496.12136384942,0.000999999996565748
2,5,6644.94036486321,0
2,6,7503.77539473063,0.00100000000384171
2,7,5599.62415092141,0.000999999996565748
2,8,7016.67763050974,0
2,9,8338.44975518586,0.00100000000384171
2,10,6674.09944740471,0.000999999996565748
2,11,7647.39107386954,0
2,12,8508.9737460086,0.00100000000384171
2,13,8097.81632851896,0.000999999996565748
2,14,6070.51002260203,0
2,15,7186.17416266315,0.00100000000384171
2,16,6862.29243181238,0.000999999996565748
2,17,6713.49420887504,0
2,18,6565.2069282662,0
2,19,9130.7275485571,0.000999999996565748
2,20,6531.16577174107,0.000999999996565748
2,21,6102.16755651534,0
2,22,7534.01668967646,0.00100000000384171
2,23,5987.07218691424,0.000999999996565748
2,24,5998.21157262002,0
2,25,9168.79725498957,0.00100000000384171
2,26,8175.06091293559,0.000999999996565748
2,27,6094.43794703375,0
2,28,8454.341405942,0.00100000000384171
2,29,6553.94588555846,0.000999999996565748
2,30,6366.67573653009,0
3,1,5378.68361223238,0.00100000000384171
3,2,5489.52614556095,0.000999999996565748
3,3,5942.19936414788,0.00800000000162981
3,4,5111.99435088196,0.00100000000384171
3,5,5401.1780469172,0
3,6,6676.4905819158,0.000999999996565748
3,7,4512.45771619721,0.000999999996565748
3,8,5719.60200923042,0
3,9,7058.2983880745,0.00100000000384171
3,10,5187.21692373454,0.000999999996565748
3,11,6424.2932193183,0
3,12,6812.47950984178,0.00100000000384171
3,13,6700.47822225355,0.000999999996565748
3,14,5204.33853260115,0
3,15,5798.95635041947,0.00100000000384171
3,16,5691.83091466079,0.000999999996565748
3,17,5559.32897752654,0
3,18,5181.79013616599,0.00100000000384171
3,19,8200.58315493907,0.000999999996565748
3,20,5037.67264917248,0
3,21,5021.15716143446,0.00100000000384171
3,22,6211.11623017212,0.000999999996565748
3,23,4830.40284525448,0
3,24,5068.92763981312,0.00100000000384171
3,25,7803.22593231443,0.000999999996565748
3,26,7098.57727072619,0
3,27,5016.53603713923,0.00100000000384171
3,28,7251.40132075754,0.000999999996565748
3,29,5117.34800110596,0
3,30,5019.94070340375,0.00100000000384171
4,1,7540.2370718333,0.000999999996565748
4,2,7206.13394006026,0
4,3,7644.51988298281,0.000999999996565748
4,4,7332.87016571165,0.00100000000384171
4,5,7451.93535661744,0
4,6,7986.0995175619,0.000999999996565748
4,7,6452.71337484938,0.00100000000384171
4,8,7935.31387714195,0
4,9,9117.0670337139,0.000999999996565748
4,10,7383.80590272292,0.00100000000384171
4,11,8449.94795623817,0
4,12,9139.62564499122,0.000999999996565748
4,13,8871.46933137966,0.00100000000384171
4,14,6844.02173930771,0
4,15,8063.01597983921,0
4,16,7664.19736657248,0.00100000000384171
4,17,7347.25277662587,0.000999999996565748
4,18,7343.21484565209,0
4,19,10057.2205727911,0.00100000000384171
4,20,7188.31853214076,0.000999999996565748
4,21,6657.14826007362,0
4,22,7928.13561396616,0.00100000000384171
4,23,6643.55861393431,0.000999999996565748
4,24,6787.15356969183,0
4,25,10004.5926020417,0.00100000000384171
4,26,8977.14911956717,0.000999999996565748
4,27,6815.24464537148,0
4,28,9307.4484799899,0.00100000000384171
4,29,7130.13839451132,0.000999999996565748
4,30,7010.23233717875,0
5,1,6603.2846463966,0.000999999996565748
5,2,6748.53937068501,0.00100000000384171
5,3,6897.83936043899,0.000999999996565748
5,4,6307.63126048296,0
5,5,6513.69416649957,0.00100000000384171
5,6,7536.19561625337,0.000999999996565748
5,7,5566.313400857,0
5,8,6779.73410654371,0.00100000000384171
5,9,8147.5444638938,0.000999999996565748
5,10,6405.69650686211,0
5,11,7360.77272280659,0.00100000000384171
5,12,8104.10746769057,0.000999999996565748
5,13,7855.58619426795,0
5,14,6332.36580399001,0.00800000000162981
5,15,7010.96409685021,0
5,16,6455.49406982375,0.00100000000384171
5,17,6513.53213249312,0.000999999996565748
5,18,6240.84674292834,0
5,19,9041.03011471375,0.00100000000384171
5,20,6108.66996667081,0.000999999996565748
5,21,5921.23192731938,0
5,22,7366.2664713087,0.00100000000384171
5,23,6030.4821462544,0.000999999996565748
5,24,6136.0198481973,0
5,25,9041.87249346047,0.00100000000384171
5,26,7977.96254983872,0.000999999996565748
5,27,5852.16845530005,0
5,28,8463.93663890627,0.00100000000384171
5,29,6202.33632868452,0.000999999996565748
5,30,6020.17086265834,0
6,1,6028.5551543734,0.00100000000384171
6,2,5930.70827744445,0.000999999996565748
6,3,6709.6191287758,0
6,4,5950.93257061058,0.00100000000384171
6,5,6042.34829776973,0.000999999996565748
6,6,7041.18157180214,0
6,7,5148.66881989296,0.00100000000384171
6,8,6648.63704391379,0.000999999996565748
6,9,7656.57893269787,0
6,10,5913.43393756397,0.000999999996565748
6,11,7253.62579826289,0.00100000000384171
6,12,7543.33763942916,0
6,13,7493.91865497412,0.000999999996565748
6,14,5625.1061189529,0.00100000000384171
6,15,6654.4470924667,0
6,16,6470.6996684545,0.000999999996565748
6,17,6200.4766504179,0.00100000000384171
6,18,5940.56343464674,0
6,19,8927.96357682984,0.000999999996565748
6,20,5741.35077497834,0.00100000000384171
6,21,5263.66065718859,0
6,22,6727.91456353299,0.000999999996565748
6,23,5255.1480979834,0.00100000000384171
6,24,5598.24281548699,0
6,25,8458.19544559155,0.000999999996565748
6,26,7812.43308557526,0.00100000000384171
6,27,5653.83737718731,0
6,28,7809.86874646298,0.000999999996565748
6,29,5789.08938796822,0.00100000000384171
6,30,5740.52071054326,0
7,1,7120.49026060837,0
7,2,6945.97003631245,0.00100000000384171
7,3,7407.82779521433,0
7,4,6976.83162496892,0
7,5,7077.08085905009,0.00100000000384171
7,6,7777.57741805423,0.000999999996565748
7,7,6092.54484715352,0
7,8,7523.81269059295,0.000999999996565748
7,9,8600.70870789588,0.00100000000384171
7,10,6949.35341454723,0
7,11,8205.54754981401,0.000999999996565748
7,12,8558.44836723583,0.00100000000384171
7,13,8421.54853332358,0
7,14,6541.67131651154,0.000999999996565748
7,15,7710.47530654829,0.00100000000384171
7,16,7277.32103216912,0
7,17,7042.17924288943,0.000999999996565748
7,18,7050.0206851282,0.00100000000384171
7,19,9709.96687758117,0
7,20,6766.38144070923,0
7,21,5990.21476360384,0.00100000000384171
7,22,7546.38860599438,0.000999999996565748
7,23,6384.64324105681,0
7,24,6509.98982912904,0.00100000000384171
7,25,9434.72944592156,0.000999999996565748
7,26,8709.481820523,0.00100000000384171
7,27,6429.46489406206,0
7,28,8801.55323735341,0.000999999996565748
7,29,6880.32063218885,0.00100000000384171
7,30,6526.08452748391,0
8,1,6681.20211023625,0.000999999996565748
8,2,6742.48670078435,0.00100000000384171
8,3,6997.58722448539,0
8,4,6478.80899862893,0.000999999996565748
8,5,6581.44788844244,0.00100000000384171
8,6,7549.86267169988,0
8,7,5622.9161163671,0.000999999996565748
8,8,7035.11122931369,0.00100000000384171
8,9,8337.89852456377,0
8,10,6596.21991395034,0.000999999996565748
8,11,7577.20580976457,0.00100000000384171
8,12,8421.30169358329,0
8,13,8046.27780718814,0.000999999996565748
8,14,6306.67119531474,0.00100000000384171
8,15,7224.8349245739,0
8,16,6755.22781044142,0.000999999996565748
8,17,6570.56592320858,0.00100000000384171
8,18,6455.27546754494,0
8,19,9262.82168809521,0.000999999996565748
8,20,6344.10886329284,0.000999999996565748
8,21,6041.93417927625,0
8,22,7423.22609370198,0.00100000000384171
8,23,6056.7961985101,0.000999999996565748
8,24,6182.29269135859,0
8,25,9239.57210611895,0.00100000000384171
8,26,8076.86407638591,0.000999999996565748
8,27,6042.98707523525,0
8,28,8635.4789700524,0.00100000000384171
8,29,6214.01418879936,0.000999999996565748
8,30,6280.80863442649,0
9,1,5538.81000166547,0.00100000000384171
9,2,5841.98563566014,0.000999999996565748
9,3,5728.68455358957,0
9,4,5222.59308452055,0
9,5,5355.09214946199,0.000999999996565748
9,6,6477.76732489192,0.00100000000384171
9,7,4438.56168765293,0
9,8,5707.39476222822,0.000999999996565748
9,9,7175.50026361446,0.00100000000384171
9,10,5590.37237381644,0
9,11,6049.98065452165,0.000999999996565748
9,12,7582.49356081537,0.00100000000384171
9,13,6862.07338495395,0
9,14,5338.46269910818,0.000999999996565748
9,15,6000.40475605843,0.000999999996565748
9,16,5421.50385163578,0
9,17,5262.77861405004,0.00100000000384171
9,18,5065.20556703621,0.000999999996565748
9,19,7771.08787298122,0
9,20,5244.7976086654,0.00100000000384171
9,21,5371.15328158999,0.000999999996565748
9,22,6643.81805457354,0
9,23,5000.91339634321,0
9,24,5120.36342449374,0.000999999996565748
9,25,8101.82608309098,0.00100000000384171
9,26,6461.70102185417,0
9,27,4913.26820195267,0.000999999996565748
9,28,7597.84118458873,0.00100000000384171
9,29,4952.05265758441,0
9,30,5374.6579618158,0.000999999996565748
10,1,7197.86665429239,0.00100000000384171
10,2,6754.97063041802,0
10,3,7386.95135197276,0.000999999996565748
10,4,7131.43427351884,0.00100000000384171
10,5,7197.50479067847,0.00799999999435386
10,6,8083.87520329497,0.00100000000384171
10,7,6166.36330759295,0
10,8,7796.02896386937,0.000999999996565748
10,9,9077.173059901,0.00100000000384171
10,10,7237.47932164394,0
10,11,8438.35905352378,0.000999999996565748
10,12,9115.12739422395,0.00100000000384171
10,13,8820.94800183131,0
10,14,6544.93815022344,0.000999999996565748
10,15,7844.25685446267,0.00100000000384171
10,16,7798.68671637377,0
10,17,7395.30279140917,0.000999999996565748
10,18,7191.62244599251,0.00100000000384171
10,19,10009.1263882899,0
10,20,7227.19380127582,0.000999999996565748
10,21,6775.61564422533,0.00100000000384171
10,22,8036.20370367728,0
10,23,6281.02115461046,0.000999999996565748
10,24,6570.75331017986,0.00100000000384171
10,25,9814.27439059042,0
10,26,8786.24080780262,0.000999999996565748
10,27,6908.99054806208,0.000999999996565748
10,28,9068.94802897757,0
10,29,7033.2628954836,0.00100000000384171
10,30,7135.81084561962,0.000999999996565748
11,1,7191.24625088574,0
11,2,7356.11614197176,0.00100000000384171
11,3,7228.55463011394,0.000999999996565748
11,4,6750.85671828907,0
11,5,7046.22519138128,0.00100000000384171
11,6,7949.30580254172,0.000999999996565748
11,7,6078.63508652214,0
11,8,7107.03264274535,0.00100000000384171
11,9,8605.60771233055,0.000999999996565748
11,10,6959.91162417001,0
11,11,7530.5657711158,0.00100000000384171
11,12,8667.8685890313,0.000999999996565748
11,13,8251.34093389721,0
11,14,6903.86879464341,0.00100000000384171
11,15,7465.91716882153,0.000999999996565748
11,16,6625.67616182449,0
11,17,6848.40331598337,0.00100000000384171
11,18,6647.98189553966,0.000999999996565748
11,19,9214.99225208168,0
11,20,6562.55097119216,0.00100000000384171
11,21,6461.03991240292,0.000999999996565748
11,22,7853.03221148566,0
11,23,6667.77042230638,0.000999999996565748
11,24,6663.1055129693,0.00100000000384171
11,25,9548.56962559001,0
11,26,8206.16721605482,0
11,27,6203.42431772417,0.00100000000384171
11,28,8999.65486686555,0.000999999996565748
11,29,6619.54683273302,0
11,30,6486.35681010743,0.00100000000384171
12,1,6767.39809249349,0.000999999996565748
12,2,6590.9141914906,0
12,3,6928.17125313995,0.00100000000384171
12,4,6469.39708455874,0.000999999996565748
12,5,6697.32459387309,0
12,6,7544.62636904583,0.00100000000384171
12,7,5901.33695443845,0.000999999996565748
12,8,6921.16371354929,0
12,9,8208.7633972782,0.00100000000384171
12,10,6447.99226661868,0.000999999996565748
12,11,7565.2405928034,0
12,12,7918.20261524593,0
12,13,7780.23685935481,0.000999999996565748
12,14,6368.92676506604,0.00100000000384171
12,15,6909.62665081703,0
12,16,6617.44910879404,0.0519999999960419
12,17,6800.60511938145,0.00100000000384171
12,18,6445.27133494666,0
12,19,9186.83550115829,0.000999999996565748
12,20,6253.55258236305,0.00100000000384171
12,21,6018.41283674406,0
12,22,7257.01943036745,0.000999999996565748
12,23,6068.15847011573,0.000999999996565748
12,24,6082.37642615118,0
12,25,9210.24554807571,0.00100000000384171
12,26,8323.45177085095,0.000999999996565748
12,27,5746.14968363192,0
12,28,8329.03701959227,0.00100000000384171
12,29,6483.35808233734,0.000999999996565748
12,30,5968.97233801324,0
13,1,7335.1091830626,0.00100000000384171
13,2,6934.28543064068,0.000999999996565748
13,3,7448.07086298674,0
13,4,7216.62493084014,0.00100000000384171
13,5,7322.80553866082,0.000999999996565748
13,6,8126.08716641975,0
13,7,6279.67592056278,0.00100000000384171
13,8,7879.27719902818,0.000999999996565748
13,9,9198.30484375409,0
13,10,7334.21641218588,0.00100000000384171
13,11,8466.25095315362,0.000999999996565748
13,12,9256.44591551683,0
13,13,8914.79766892111,0.00100000000384171
13,14,6702.00716000116,0.000999999996565748
13,15,7926.04738256573,0
13,16,7767.62171989143,0.00100000000384171
13,17,7433.02795931017,0.000999999996565748
13,18,7243.91133907422,0
13,19,10014.1717440061,0.00100000000384171
13,20,7274.59159912519,0.000999999996565748
13,21,6907.29172959643,0
13,22,8089.81527199845,0.000999999996565748
13,23,6468.09531021163,0.00100000000384171
13,24,6683.93162261329,0
13,25,9973.96068069085,0.000999999996565748
13,26,8875.12872704442,0.00100000000384171
13,27,6977.11154772067,0
13,28,9255.36297593074,0.000999999996565748
13,29,7074.00590188365,0.00100000000384171
13,30,7173.68442399237,0
14,1,8093.21047271128,0.000999999996565748
14,2,7809.21221005301,0.00100000000384171
14,3,8344.67370033434,0
14,4,8038.37960075605,0
14,5,8092.78544712941,0.00100000000384171
14,6,8963.46346818745,0.000999999996565748
14,7,7021.22068159934,0
14,8,8670.41738042318,0.00100000000384171
14,9,9909.06160414673,0.000999999996565748
14,10,8215.71572559744,0
14,11,9179.4308398095,0.00100000000384171
14,12,10130.8168934836,0.000999999996565748
14,13,9741.72244379275,0
14,14,7487.71220716114,0.00100000000384171
14,15,8835.39517887434,0.000999999996565748
14,16,8483.17625689697,0
14,17,8137.43162329065,0
14,18,8027.80721440204,0.00100000000384171
14,19,10693.0413975415,0.000999999996565748
14,20,8068.3094729345,0
14,21,7545.04534203098,0.00100000000384171
14,22,8981.37936547119,0.000999999996565748
14,23,7253.98809473009,0
14,24,7563.04170767935,0.00100000000384171
14,25,10658.9227330971,0.000999999996565748
14,26,9499.27447561134,0
14,27,7777.05323888687,0.00100000000384171
14,28,10018.5426978673,0.000999999996565748
14,29,7832.19413364114,0
14,30,8068.61491765808,0
15,1,7384.7603606221,0.000999999996565748
15,2,7374.24587134056,0.00100000000384171
15,3,7352.14720852745,0
15,4,6916.1635298747,0.000999999996565748
15,5,7271.08652484295,0.00100000000384171
15,6,8074.03977775285,0
15,7,6269.4113725177,0.000999999996565748
15,8,7278.57652576276,0.00100000000384171
15,9,8804.24450880774,0
15,10,7061.02403852044,0.000999999996565748
15,11,7819.12456592386,0.000999999996565748
15,12,8686.28669784142,0
15,13,8404.05151064836,0.0029999999969732
15,14,6993.3710436852,0.00100000000384171
15,15,7590.13142136832,0
15,16,6879.47196280017,0
15,17,7089.6575174303,0.00100000000384171
15,18,6867.11415021636,0
15,19,9442.45950013215,0
15,20,6717.0595729054,0.00100000000384171
15,21,6572.62348525379,0
15,22,7891.09376933273,0
15,23,6764.2468730176,0.00100000000384171
15,24,6735.36673535227,0
15,25,9713.59727016154,0.000999999996565748
15,26,8531.43423743935,0.00100000000384171
15,27,6370.51965003353,0
15,28,9075.33309702019,0.000999999996565748
15,29,6847.71124273449,0.00100000000384171
15,30,6581.51023598957,0
16,1,7379.54885811473,0.000999999996565748
16,2,6936.64587816791,0.00100000000384171
16,3,7680.41016308807,0
16,4,7318.6844260843,0.000999999996565748
16,5,7403.87844056301,0.000999999996565748
16,6,8319.19481906755,0
16,7,6403.09958550567,0.00100000000384171
16,8,7964.94013573227,0.000999999996565748
16,9,9163.04214626733,0
16,10,7346.10106310548,0.00100000000384171
16,11,8700.80858673169,0.000999999996565748
16,12,9084.38303971589,0
16,13,8906.34349328232,0.00100000000384171
16,14,6736.90934950041,0.000999999996565748
16,15,8006.47490417136,0
16,16,7951.30810834991,0.00100000000384171
16,17,7604.19709392282,0.000999999996565748
16,18,7448.26276154512,0
16,19,10235.7855746284,0.00100000000384171
16,20,7334.49083302169,0.000999999996565748
16,21,6705.58921021655,0
16,22,8073.40458267866,0.00100000000384171
16,23,6542.76010382696,0.000999999996565748
16,24,6789.05013493163,0
16,25,9887.12936064795,0.00100000000384171
16,26,9135.85422192327,0.000999999996565748
16,27,7032.52871840907,0
16,28,9148.50093071874,0
16,29,7293.53863886064,0.000999999996565748
16,30,7174.64236351071,0.000999999996565748
17,1,6563.05413750205,0
17,2,6438.01497532902,0.00100000000384171
17,3,6623.4550491218,0.000999999996565748
17,4,6347.57603376657,0
17,5,6482.81839100758,0.00100000000384171
17,6,7496.18116632417,0.000999999996565748
17,7,5373.28701163495,0
17,8,6915.01573779865,0.00100000000384171
17,9,8274.44431806515,0.000999999996565748
17,10,6601.76142614212,0
17,11,7501.16900468742,0.00100000000384171
17,12,8530.17243305038,0.000999999996565748
17,13,8042.16635917551,0
17,14,5983.50837142841,0.00100000000384171
17,15,7142.99373085673,0.000999999996565748
17,16,6830.98998861639,0
17,17,6481.6160195328,0.00100000000384171
17,18,6440.06736036934,0.000999999996565748
17,19,9056.42839344356,0
17,20,6449.38206517275,0.00100000000384171
17,21,6043.97390022828,0.000999999996565748
17,22,7487.79880720053,0
17,23,5902.69042994982,0
17,24,5987.63699755016,0.000999999996565748
17,25,9024.73117173188,0.00100000000384171
17,26,7921.01929553335,0
17,27,6110.88672328158,0.000999999996565748
17,28,8468.99482521634,0.000999999996565748
17,29,6244.04970018959,0
17,30,6382.02413354359,0.00100000000384171
18,1,6878.08901387752,0.000999999996565748
18,2,6435.79084886303,0
18,3,6874.04925451928,0.00100000000384171
18,4,6670.28934254412,0.000999999996565748
18,5,6864.57643399019,0
18,6,7643.65435826434,0.00100000000384171
18,7,5826.50374656998,0.000999999996565748
18,8,7250.18661998215,0
18,9,8496.2625297933,0.00100000000384171
18,10,6762.06336252658,0.000999999996565748
18,11,7943.68177447913,0.00300000000424916
18,12,8531.10270910753,0.000999999996565748
18,13,8209.7498973368,0.00100000000384171
18,14,6129.39866178163,0
18,15,7397.99443389184,0.000999999996565748
18,16,7085.98838578342,0.00100000000384171
18,17,6919.37528075866,0
18,18,6839.67946607832,0.000999999996565748
18,19,9351.1261395705,0.000999999996565748
18,20,6698.63713143899,0
18,21,6020.2140988025,0.00100000000384171
18,22,7440.63675298243,0.000999999996565748
18,23,6129.25509751917,0
18,24,6178.55551395492,0.00100000000384171
18,25,9257.00669032437,0.000999999996565748
18,26,8459.32185719711,0
18,27,6321.76286496674,0.00100000000384171
18,28,8491.73812986622,0.000999999996565748
18,29,6808.76053929693,0
18,30,6474.9953960976,0.00100000000384171
19,1,6217.52553045298,0.000999999996565748
19,2,5779.19582832931,0
19,3,5936.76980985118,0.00100000000384171
19,4,5901.28492038505,0.000999999996565748
19,5,6092.03613771034,0
19,6,6704.25065431079,0.00100000000384171
19,7,5124.30983533871,0.000999999996565748
19,8,6384.30671937189,0
19,9,7639.01370245152,0.00100000000384171
19,10,5953.64780754773,0.000999999996565748
19,11,7151.25772732143,0
19,12,7647.18964083328,0.00100000000384171
19,13,7281.27573145532,0.000999999996565748
19,14,5419.09413043749,0
19,15,6524.99147516474,0.00100000000384171
19,16,6321.79513053136,0.000999999996565748
19,17,6063.37002960111,0
19,18,6165.25861962386,0.000999999996565748
19,19,8564.71293845774,0.00100000000384171
19,20,5920.78661486383,0
19,21,5287.75470294248,0.000999999996565748
19,22,6540.62933330829,0.00100000000384171
19,23,5530.19644435579,0
19,24,5356.14417613175,0.000999999996565748
19,25,8448.65249160076,0.00100000000384171
19,26,7674.68039005745,0
19,27,5376.84439887105,0.000999999996565748
19,28,7714.61662489147,0.00100000000384171
19,29,6082.71305243592,0
19,30,5540.65243353848,0.000999999996565748
20,1,7416.19246392932,0.00100000000384171
20,2,7250.62985379783,0
20,3,7544.82746484688,0
20,4,7121.61678673762,0.00100000000384171
20,5,7312.85091547931,0
20,6,7933.89506353337,0
20,7,6319.75625485064,0.00100000000384171
20,8,7650.66887502513,0.000999999996565748
20,9,8925.34212851163,0
20,10,7185.20035108732,0.00100000000384171
20,11,8159.83988067754,0.000999999996565748
20,12,8891.14750007808,0
20,13,8606.30840285587,0.000999999996565748
20,14,6827.67259556422,0.00100000000384171
20,15,7874.80197097648,0
20,16,7336.0444968225,0.000999999996565748
20,17,7113.36489740306,0.00100000000384171
20,18,7160.4618926057,0
20,19,9824.31672688679,0.000999999996565748
20,20,6918.17912895484,0.00100000000384171
20,21,6439.07743129023,0
20,22,7726.76604875676,0.000999999996565748
20,23,6661.18044590049,0.00100000000384171
20,24,6730.18954433881,0
20,25,9811.73283864567,0.000999999996565748
20,26,8725.08240033731,0.00100000000384171
20,27,6574.09095526825,0
20,28,9170.00358456013,0.000999999996565748
20,29,6870.08032506519,0.00100000000384171
20,30,6753.72759248883,0
21,1,7507.70774996098,0.000999999996565748
21,2,7218.62441615011,0.00100000000384171
21,3,8104.68935011504,0
21,4,7483.5918183988,0
21,5,7534.01845177963,0.00100000000384171
21,6,8445.10375348442,0
21,7,6643.85690616772,0
21,8,8166.25239571417,0.000999999996565748
21,9,9230.09739331031,0.00300000000424916
21,10,7424.93831279076,0
21,11,8785.08279076411,0.00100000000384171
21,12,9080.60007439271,0
21,13,8999.06870234028,0
21,14,7048.65110490873,0.00100000000384171
21,15,8167.00242004024,0.000999999996565748
21,16,7940.03186021025,0
21,17,7749.82576723839,0.00100000000384171
21,18,7469.65627396916,0
21,19,10407.0831209768,0
21,20,7323.82132928693,0.00100000000384171
21,21,6756.6201817502,0
21,22,8187.26814425214,0
21,23,6696.50429151386,0.00100000000384171
21,24,7053.08296644428,0
21,25,10073.1098899334,0.000999999996565748
21,26,9288.85429847274,0.00100000000384171
21,27,7085.52425175845,0
21,28,9328.96214045281,0
21,29,7369.86459686396,0.00100000000384171
21,30,7229.38219744917,0
22,1,6855.82273015138,0.000999999996565748
22,2,6101.88366744057,0.000999999996565748
22,3,6226.81360138165,0
22,4,6426.83568519455,0.00100000000384171
22,5,6800.03901214235,0.000999999996565748
22,6,7088.69550399899,0
22,7,5658.30558813178,0.00100000000384171
22,8,6930.55996355631,0.000999999996565748
22,9,8274.84143199886,0
22,10,6662.38577595012,0.00100000000384171
22,11,7577.32857576395,0.000999999996565748
22,12,8378.41780268084,0
22,13,7917.60465874737,0.00100000000384171
22,14,5772.58295975401,0.000999999996565748
22,15,7140.95497372713,0
22,16,6919.14388106215,0.00100000000384171
22,17,6508.45432869807,0.000999999996565748
22,18,6724.98579534614,0
22,19,8844.1015911541,0.00100000000384171
22,20,6590.5460829522,0.000999999996565748
22,21,5957.08744963374,0
22,22,7056.75857646581,0
22,23,5992.48240307512,0.000999999996565748
22,24,5772.28195861803,0.00100000000384171
22,25,8964.62219525284,0
22,26,8118.92496704575,0.000999999996565748
22,27,6079.43937843433,0.000999999996565748
22,28,8239.86563969581,0
22,29,6623.04038112488,0.00100000000384171
22,30,6244.36673518138,0.000999999996565748
23,1,6479.81817904187,0
23,2,6731.68947675943,0.00100000000384171
23,3,6533.26042286164,0.000999999996565748
23,4,6041.33292324777,0
23,5,6364.33988295817,0.00100000000384171
23,6,7460.04124118474,0.000999999996565748
23,7,5502.67276879098,0
23,8,6253.17858576984,0.00100000000384171
23,9,7928.63726640907,0.000999999996565748
23,10,6330.01000964304,0
23,11,6612.73161656069,0.00100000000384171
23,12,7975.51655318041,0.000999999996565748
23,13,7410.80656027807,0
23,14,6288.46385166412,0.00100000000384171
23,15,6622.2660588816,0.000999999996565748
23,16,5821.99906537173,0
23,17,6107.4908426773,0
23,18,5984.5717714758,0.000999999996565748
23,19,8440.48340187484,0.00100000000384171
23,20,5928.80021156593,0
23,21,5978.49584920486,0.000999999996565748
23,22,7189.83162272908,0.00100000000384171
23,23,6071.48726313299,0
23,24,6027.07337998974,0.000999999996565748
23,25,8892.87748100851,0.000999999996565748
23,26,7244.9039610787,0
23,27,5419.93451540773,0.00100000000384171
23,28,8219.89060069426,0.000999999996565748
23,29,5761.78314662095,0
23,30,5814.44642168102,0.00100000000384171
24,1,6583.44985407411,0.000999999996565748
24,2,6259.35220855246,0
24,3,6624.96463228429,0.00100000000384171
24,4,6406.66771685513,0.000999999996565748
24,5,6590.45958683162,0
24,6,7481.56009520637,0.00400000000081491
24,7,5532.84287625902,0.00100000000384171
24,8,6936.99305196227,0
24,9,8354.0151646111,0.000999999996565748
24,10,6600.01920502453,0.00100000000384171
24,11,7516.03306887772,0
24,12,8457.21005211584,0.000999999996565748
24,13,8026.62695601378,0.00100000000384171
24,14,5943.04112091838,0
24,15,7060.39956738412,0.000999999996565748
24,16,6780.81823750118,0.000999999996565748
24,17,6582.19302213152,0
24,18,6459.42196740972,0.00100000000384171
24,19,9053.30298083044,0.000999999996565748
24,20,6454.51529131197,0
24,21,6066.20930846101,0.00100000000384171
24,22,7300.00521961717,0.000999999996565748
24,23,5769.19018696682,0
24,24,5902.09628801463,0.00100000000384171
24,25,9178.67874461983,0.000999999996565748
24,26,7933.37233110226,0
24,27,6039.52884197991,0.00100000000384171
24,28,8358.88089360289,0.000999999996565748
24,29,6239.23915975261,0
24,30,6286.02488020343,0.00100000000384171
25,1,6236.30751489374,0.000999999996565748
25,2,5937.01640756725,0
25,3,6049.46113493642,0.00100000000384171
25,4,5665.50763843926,0.000999999996565748
25,5,6089.85361712316,0
25,6,6458.94881125261,0.00100000000384171
25,7,5063.34846883162,0.000999999996565748
25,8,6067.73948125047,0
25,9,7413.27596387767,0.00100000000384171
25,10,5865.83287731901,0.000999999996565748
25,11,6495.64976727037,0
25,12,7525.71734755525,0.00100000000384171
25,13,7094.7290796659,0.000999999996565748
25,14,5588.25139370644,0
25,15,6369.51021776684,0.000999999996565748
25,16,5634.44297027807,0.00100000000384171
25,17,5719.07156950651,0
25,18,5575.35980528336,0.000999999996565748
25,19,7926.42690413359,0.00100000000384171
25,20,5453.10521630022,0
25,21,5330.72557313942,0.000999999996565748
25,22,6599.75652999879,0.00100000000384171
25,23,5391.90209681454,0
25,24,5321.7076787615,0.000999999996565748
25,25,8322.3610602988,0.00100000000384171
25,26,7213.79399211666,0
25,27,5067.14761048871,0
25,28,7686.66467515879,0.00100000000384171
25,29,5699.49873584636,0.000999999996565748
25,30,5402.67458086041,0
26,1,5750.60674456197,0.00100000000384171
26,2,5721.70115646467,0.000999999996565748
26,3,5732.97019805464,0
26,4,5375.79709119109,0.00100000000384171
26,5,5652.60561157217,0.000999999996565748
26,6,6587.39111934358,0
26,7,4587.37777503302,0.00100000000384171
26,8,5853.64466657756,0.000999999996565748
26,9,7264.19496468825,0
26,10,5587.88913638487,0.000999999996565748
26,11,6443.01734193657,0.00100000000384171
26,12,7349.91208961733,0
26,13,6970.22981814901,0.000999999996565748
26,14,5275.72818082328,0.00100000000384171
26,15,6053.38099306751,0
26,16,5672.10872765584,0.000999999996565748
26,17,5563.01052168286,0.00100000000384171
26,18,5415.5660077105,0
26,19,8052.90807888928,0.000999999996565748
26,20,5321.42509489449,0.00100000000384171
26,21,5137.92302695035,0
26,22,6522.19307061433,0
26,23,5113.36488163807,0.00100000000384171
26,24,5073.18076886163,0
26,25,8079.77610612849,0
26,26,7076.89842591011,0.00100000000384171
26,27,5010.18316448164,0.000999999996565748
26,28,7496.44807265321,0
26,29,5343.51654601646,0.00100000000384171
26,30,5234.11335960211,0.000999999996565748
27,1,6972.19238354412,0
27,2,6684.73683686401,0.00100000000384171
27,3,7164.04737798078,0.000999999996565748
27,4,6806.47268984375,0.0029999999969732
27,5,6940.48286362327,0.00100000000384171
27,6,7747.81618711839,0.000999999996565748
27,7,5930.38750305022,0
27,8,7414.41351769993,0.00100000000384171
27,9,8563.53440847626,0.000999999996565748
27,10,6939.73208920125,0
27,11,7968.55266497807,0.00100000000384171
27,12,8717.63372738676,0.000999999996565748
27,13,8382.36857209492,0
27,14,6328.2104365876,0.00100000000384171
27,15,7536.08572799089,0.000999999996565748
27,16,7155.76842301399,0
27,17,6968.65870410228,0.00100000000384171
27,18,6813.31191194508,0.000999999996565748
27,19,9448.53052445612,0
27,20,6748.1528396331,0.00100000000384171
27,21,6221.94638223287,0.000999999996565748
27,22,7744.56730180885,0
27,23,6151.93815679185,0.00100000000384171
27,24,6321.22447290283,0.000999999996565748
27,25,9400.95673934684,0
27,26,8517.43581306327,0.00100000000384171
27,27,6397.6744692924,0.000999999996565748
27,28,8713.96863042323,0
27,29,6786.84732176349,0.000999999996565748
27,30,6656.54850016108,0.00100000000384171
28,1,4730.4186620499,0
28,2,4394.29893342017,0.000999999996565748
28,3,4542.35812180784,0.00100000000384171
28,4,4377.76732739126,0
28,5,4629.50472815604,0.000999999996565748
28,6,5663.10562015552,0
28,7,3552.47815434957,0
28,8,4947.74876075967,0.000999999996565748
28,9,6505.38983325055,0
28,10,4692.66715372871,0
28,11,5576.18349886471,0.000999999996565748
28,12,6754.92732194885,0
28,13,5996.82380587572,0
28,14,4080.82680011893,0.000999999996565748
28,15,5111.68589208276,0.00100000000384171
28,16,5065.30619461431,0
28,17,4575.92217970433,0.000999999996565748
28,18,4650.6474402539,0.00100000000384171
28,19,7136.72772992332,0
28,20,4678.13134357941,0.000999999996565748
28,21,4472.4616031845,0.00100000000384171
28,22,5381.0221975075,0
28,23,4180.72422209226,0.000999999996565748
28,24,4016.80888591321,0.000999999996565748
28,25,7253.73196925291,0
28,26,5862.26914116938,0.00100000000384171
28,27,4279.99407769201,0.000999999996565748
28,28,6537.32358832792,0
28,29,4262.7051329308,0.00100000000384171
28,30,4533.66238892078,0.000999999996565748
29,1,6599.15762464459,0
29,2,6470.84806150196,0
29,3,6713.79870817351,0.000999999996565748
29,4,6334.68760782253,0
29,5,6508.09355696919,0
29,6,7407.06946403668,0.000999999996565748
29,7,5520.64761362355,0.00100000000384171
29,8,6847.65487007269,0
29,9,8169.70467331517,0.000999999996565748
29,10,6391.12047870064,0.00100000000384171
29,11,7527.24724628058,0
29,12,8120.18007654117,0.000999999996565748
29,13,7854.47258563275,0.00100000000384171
29,14,6109.61544832916,0
29,15,7004.65995291143,0.000999999996565748
29,16,6616.86468515294,0.00100000000384171
29,17,6541.12064512936,0
29,18,6401.94261396258,0.000999999996565748
29,19,9105.00982312461,0.00100000000384171
29,20,6213.58157865023,0
29,21,5761.40243778027,0.000999999996565748
29,22,7148.03299829846,0.000999999996565748
29,23,5964.62784118457,0
29,24,5962.42546966798,0.00100000000384171
29,25,9050.02728538586,0.000999999996565748
29,26,8090.61608594236,0
29,27,5841.68161456279,0.00100000000384171
29,28,8351.49149184693,0.000999999996565748
29,29,6285.83849303923,0
29,30,6002.85967473794,0.00100000000384171
30,1,6378.60645860675,0.00400000000081491
30,2,6087.48265230139,0
30,3,6171.80381287894,0.000999999996565748
30,4,5988.37948406168,0.00100000000384171
30,5,6232.30056868494,0
30,6,6764.89873062043,0.000999999996565748
30,7,5199.52243542442,0.00100000000384171
30,8,6520.33400206255,0
30,9,7851.2221744258,0
30,10,6194.21591867736,0.00100000000384171
30,11,6964.64688419015,0
30,12,8062.59805765292,0.000999999996565748
30,13,7559.98801392637,0.000999999996565748
30,14,5676.74060363121,0
30,15,6744.9461858255,0.00100000000384171
30,16,6210.23244555496,0.000999999996565748
30,17,6001.57544549201,0
30,18,5958.11656276031,0.00100000000384171
30,19,8495.63453835135,0.000999999996565748
30,20,5932.52968642772,0
30,21,5580.94196339277,0.00100000000384171
30,22,6803.81634694055,0.000999999996565748
30,23,5572.47302570912,0
30,24,5487.68273036013,0.00100000000384171
30,25,8801.46228914904,0.000999999996565748
30,26,7530.09691165586,0
30,27,5480.88818156101,0.00100000000384171
30,28,8096.24547313867,0.000999999996565748
30,29,5875.54478440144,0
30,30,5774.98733654697,0.00100000000384171
