App - AnkiDroid
Scenario - learn_cards
Length - 1sec
Measure - EuclideanDistance
Before Version - 2.5_b
After Version - 2.6_b


"Before.Trace.ID1","Before.Trace.ID2","Difference","Runtime"
1,2,2383.70658995807,0.00100000000384171
1,3,2542.78678274421,0.000999999996565748
1,4,2351.13090188066,0
1,5,1442.35418010617,0
1,6,2956.94029354909,0.000999999996565748
1,7,2668.02914048946,0
1,8,2134.30587558709,0
1,9,3985.69530047844,0.000999999996565748
1,10,2226.46686984675,0
1,11,2126.48614254686,0
1,12,4085.62928690583,0.000999999996565748
1,13,3576.2391197643,0
1,14,2361.88778096556,0
1,15,4529.66960299597,0.000999999996565748
1,16,3097.56786187906,0
1,17,2549.13944774248,0
1,18,4369.74786887219,0.000999999996565748
1,19,3495.7325111769,0.00100000000384171
1,20,2805.35575274328,0
1,21,4621.80220025148,0.000999999996565748
1,22,2316.8844794291,0.00100000000384171
1,23,2113.29849211274,0
1,24,3695.15032699032,0.000999999996565748
1,25,2598.42164119936,0.000999999996565748
1,26,2587.27991565258,0
1,27,5020.51886131382,0.00100000000384171
1,28,2065.78177490024,0.000999999996565748
1,29,2537.93871829958,0
1,30,3960.87753395734,0.00100000000384171
2,3,2489.25081771392,0.000999999996565748
2,4,3367.30776910407,0
2,5,2520.29557857584,0.00100000000384171
2,6,2589.90001715773,0.000999999996565748
2,7,2190.00478741139,0
2,8,3262.86416906452,0.00100000000384171
2,9,3938.46463762041,0.000999999996565748
2,10,2062.87993967861,0.0570000000006985
2,11,3148.00530762305,0.00100000000384171
2,12,4142.04539040079,0.000999999996565748
2,13,3506.01150960698,0
2,14,3487.82795530347,0.00100000000384171
2,15,4803.81703109555,0.000999999996565748
2,16,2697.74886597528,0
2,17,2673.04894135116,0
2,18,4266.28140575166,0.00100000000384171
2,19,3126.51899860059,0
2,20,3065.34337267751,0
2,21,4960.70385828451,0.00100000000384171
2,22,2462.93853498555,0
2,23,3015.40371423527,0
2,24,3994.91609773836,0.00100000000384171
2,25,3406.6860767383,0
2,26,2986.31664148785,0.000999999996565748
2,27,6355.67195725358,0.00100000000384171
2,28,3415.08962259883,0
2,29,2615.10009297162,0
2,30,4749.3368033595,0.00100000000384171
3,4,3355.34062796024,0
3,5,1868.73832289122,0.000999999996565748
3,6,1758.48376961085,0.00100000000384171
3,7,1320.70564649464,0
3,8,1757.57227416929,0
3,9,2571.26896675101,0.00100000000384171
3,10,2208.53780746365,0
3,11,2068.05877751471,0.000999999996565748
3,12,2677.39793608429,0.00100000000384171
3,13,2665.63750492413,0
3,14,2141.76210559539,0.000999999996565748
3,15,3225.67806085813,0.00100000000384171
3,16,1265.15316831387,0
3,17,1542.96141985534,0.000999999996565748
3,18,3175.00852507737,0.000999999996565748
3,19,2498.44532653515,0
3,20,2375.97056082109,0.00100000000384171
3,21,3564.99469735528,0.000999999996565748
3,22,1179.05224929749,0
3,23,1763.97101561652,0.00100000000384171
3,24,3072.52209347672,0.000999999996565748
3,25,2289.18386802381,0.00100000000384171
3,26,1919.60739243813,0
3,27,4624.81723117659,0.000999999996565748
3,28,2623.62270413071,0.00100000000384171
3,29,1890.29202207311,0
3,30,3467.22258418157,0.000999999996565748
4,5,2177.23949909013,0.00100000000384171
4,6,4001.79015486882,0
4,7,3361.54974481372,0.000999999996565748
4,8,2981.62555150074,0.00100000000384171
4,9,4307.52734251753,0
4,10,2029.74705638269,0.000999999996565748
4,11,3544.22513833809,0.00100000000384171
4,12,3803.67651786266,0
4,13,4860.91842064655,0.000999999996565748
4,14,3416.40920979693,0.00100000000384171
4,15,4772.89810362437,0
4,16,4143.86316172917,0
4,17,3196.76551569758,0.000999999996565748
4,18,4701.88126500451,0.00100000000384171
4,19,4700.42675117402,0
4,20,4169.38048939075,0.000999999996565748
4,21,4681.48652330186,0.00100000000384171
4,22,3127.95762263176,0
4,23,2777.62195915012,0.000999999996565748
4,24,3836.23601957719,0.00100000000384171
4,25,3534.83147478494,0
4,26,2378.70564243261,0.000999999996565748
4,27,4780.95640671999,0.00100000000384171
4,28,2466.75957074759,0
4,29,3671.12061315573,0.000999999996565748
4,30,3565.90173389788,0.00100000000384171
5,6,2505.27562591463,0.000999999996565748
5,7,2017.87772872618,0
5,8,1647.23822507542,0.00100000000384171
5,9,3334.71849956317,0.000999999996565748
5,10,1686.72895401671,0
5,11,2062.09994092149,0.00100000000384171
5,12,3073.5498489558,0.000999999996565748
5,13,3332.98877383808,0
5,14,1994.24336383413,0.00100000000384171
5,15,3619.43793147616,0.000999999996565748
5,16,2599.50528383557,0
5,17,1941.01817944365,0.00100000000384171
5,18,3789.00506903692,0.000999999996565748
5,19,3257.35181046699,0
5,20,2687.45588630371,0.00100000000384171
5,21,3857.03619121561,0.000999999996565748
5,22,1639.76380262518,0
5,23,1523.8084555362,0
5,24,3187.75279159661,0.000999999996565748
5,25,2126.88743303825,0.00100000000384171
5,26,1703.73556783727,0
5,27,4341.50926295193,0.000999999996565748
5,28,1705.4824366265,0
5,29,2155.34995051849,0
5,30,3168.9007403336,0.000999999996565748
6,7,1438.50740959774,0
6,8,2276.03573285008,0.00100000000384171
6,9,2556.67219485516,0.000999999996565748
6,10,2708.87197736107,0
6,11,2389.28390088735,0.00100000000384171
6,12,2855.62194211553,0.000999999996565748
6,13,2030.87255374852,0
6,14,2358.62933305176,0.00100000000384171
6,15,2978.0041057942,0.000999999996565748
6,16,1275.1313882233,0
6,17,1839.40162570975,0.000999999996565748
6,18,3229.58515389785,0.00100000000384171
6,19,1856.15916936301,0
6,20,2388.35828226791,0.000999999996565748
6,21,3440.86382490157,0.00100000000384171
6,22,1762.15160931802,0
6,23,2035.16813913943,0.000999999996565748
6,24,2721.5143783258,0.00100000000384171
6,25,2632.33946891392,0
6,26,2418.22098053195,0.000999999996565748
6,27,4743.33805678991,0.00100000000384171
6,28,3142.70061776566,0
6,29,1837.71673345336,0.000999999996565748
6,30,3466.24237275794,0.00100000000384171
7,8,2155.67097765081,0
7,9,2543.6049196892,0.000999999996565748
7,10,1913.02216145551,0.00100000000384171
7,11,2464.36564608695,0
7,12,2680.43776308362,0.000999999996565748
7,13,2524.51351432589,0.00100000000384171
7,14,2560.59247507669,0
7,15,3142.42340888328,0.000999999996565748
7,16,1431.92488654675,0.00100000000384171
7,17,1542.36127699412,0
7,18,3219.80753446518,0.000999999996565748
7,19,2302.75997860139,0.000999999996565748
7,20,2588.93030937494,0
7,21,3504.82744085173,0.00100000000384171
7,22,1624.62960391688,0.000999999996565748
7,23,1877.91622368306,0
7,24,2845.35614834802,0.00100000000384171
7,25,2657.27808627501,0.000999999996565748
7,26,2088.59816850444,0
7,27,4851.39506873445,0
7,28,2962.07386721516,0.000999999996565748
7,29,2004.22311309938,0
7,30,3454.21654111633,0
8,9,2934.19073102782,0.000999999996565748
8,10,2573.50593440808,0.00100000000384171
8,11,1449.95076973962,0
8,12,2961.25810869345,0.000999999996565748
8,13,2825.25981584782,0.00100000000384171
8,14,1442.86941832575,0
8,15,3122.82110958882,0.000999999996565748
8,16,2275.12714452503,0.00100000000384171
8,17,1686.5744965658,0
8,18,3149.90938382479,0.000999999996565748
8,19,2955.36892671478,0.00100000000384171
8,20,2387.69266724704,0
8,21,3437.97847884178,0.000999999996565748
8,22,1716.01843153123,0.00100000000384171
8,23,1285.54450745937,0
8,24,2774.85127651998,0.000999999996565748
8,25,1733.38050709986,0.000999999996565748
8,26,1783.6716997504,0
8,27,3631.50478714256,0.00100000000384171
8,28,1782.45032231061,0.000999999996565748
8,29,2082.50912154816,0
8,30,2975.27472984332,0.00100000000384171
9,10,3469.31146812586,0.000999999996565748
9,11,3144.99702415451,0
9,12,2825.21035833304,0.00100000000384171
9,13,3036.26471517785,0.000999999996565748
9,14,2707.18871292947,0
9,15,3051.07304050211,0.00100000000384171
9,16,2338.88084947122,0.000999999996565748
9,17,2613.74976369842,0.00300000000424916
9,18,3256.87677635093,0.000999999996565748
9,19,3012.33662260041,0.00100000000384171
9,20,3318.44278186289,0
9,21,3666.58094202087,0.000999999996565748
9,22,2487.13407089619,0.00100000000384171
9,23,2594.99156391824,0
9,24,3148.50441066778,0.000999999996565748
9,25,3213.1820649134,0.000999999996565748
9,26,2614.64930626879,0
9,27,4245.25996216575,0.00100000000384171
9,28,3545.57373408581,0.000999999996565748
9,29,2709.710611392,0
9,30,3714.21737151584,0.00100000000384171
10,11,3143.42515937656,0.000999999996565748
10,12,3041.67257651347,0
10,13,3823.65239484091,0.00100000000384171
10,14,3122.29091663699,0.000999999996565748
10,15,3938.63042580917,0
10,16,2860.46058449863,0.00100000000384171
10,17,2287.20300572292,0.000999999996565748
10,18,3861.20623101318,0
10,19,3593.82216139815,0.00100000000384171
10,20,3409.24500935776,0.000999999996565748
10,21,4276.69376750838,0
10,22,2294.55443935676,0.00100000000384171
10,23,2093.80199149891,0.000999999996565748
10,24,3527.69245691223,0
10,25,3124.50807453318,0.00100000000384171
10,26,1974.14537907949,0.000999999996565748
10,27,5076.72834465859,0
10,28,2504.82538614432,0.00100000000384171
10,29,2819.35635467981,0.000999999996565748
10,30,3370.21074786836,0
11,12,3816.99438593382,0.00100000000384171
11,13,2492.02447842527,0
11,14,1199.492526302,0
11,15,3631.26871977997,0.000999999996565748
11,16,2242.86610691738,0
11,17,1815.19286527056,0
11,18,3404.07937039915,0.000999999996565748
11,19,2536.57143601529,0.00100000000384171
11,20,1593.26567916987,0
11,21,3811.05536723318,0.000999999996565748
11,22,1791.51051621622,0.00100000000384171
11,23,2057.82763549897,0
11,24,2985.7113280806,0.000999999996565748
11,25,1279.05548900852,0.00100000000384171
11,26,2358.55264715279,0
11,27,4367.71985317415,0.000999999996565748
11,28,2069.79049341421,0.00100000000384171
11,29,1617.14364190806,0
11,30,3735.55891576437,0.000999999996565748
12,13,4005.0549077858,0.00100000000384171
12,14,3335.97209042118,0
12,15,2769.65015310476,0.000999999996565748
12,16,2978.87416291355,0.00100000000384171
12,17,3010.10489574813,0
12,18,3891.75730684267,0.000999999996565748
12,19,3940.15874972197,0.00100000000384171
12,20,4171.6550278674,0
12,21,3245.00523443169,0.000999999996565748
12,22,2731.35598000576,0.000999999996565748
12,23,2655.07562563886,0
12,24,3222.81568530728,0.00100000000384171
12,25,3653.39676171136,0.000999999996565748
12,26,2451.68231016274,0
12,27,3706.27738052311,0
12,28,3557.24044527928,0.000999999996565748
12,29,3569.5452325848,0
12,30,2744.67621184503,0
13,14,2534.69872832598,0.000999999996565748
13,15,3338.04761431293,0.00100000000384171
13,16,1832.93081927935,0
13,17,2235.16656314832,0.000999999996565748
13,18,2806.88257129798,0.00100000000384171
13,19,1108.07980655818,0
13,20,1943.44441732694,0.000999999996565748
13,21,3387.43539260589,0.00100000000384171
13,22,2459.68332362986,0
13,23,2800.07961186925,0.000999999996565748
13,24,2945.44595846047,0.00100000000384171
13,25,2599.69000959291,0
13,26,3327.56500834773,0.000999999996565748
13,27,4976.41244630635,0.00100000000384171
13,28,3659.2808704844,0
13,29,1841.00858857485,0.000999999996565748
13,30,3952.03743780419,0.00100000000384171
14,15,3173.98338737561,0.0029999999969732
14,16,2337.8951836472,0.000999999996565748
14,17,1941.13378643858,0.00100000000384171
14,18,3293.84127877616,0
14,19,2652.61175015998,0.000999999996565748
14,20,2050.08770535335,0.00100000000384171
14,21,3318.23665574708,0
14,22,1678.78962646295,0.000999999996565748
14,23,1775.87024010974,0.00100000000384171
14,24,2631.49326948804,0
14,25,1434.08345560457,0.000999999996565748
14,26,2056.88088653342,0.00100000000384171
14,27,3609.12698693424,0
14,28,1920.152643461,0.000999999996565748
14,29,1690.27490767871,0.00100000000384171
14,30,3134.31430445992,0
15,16,3040.86517177288,0.000999999996565748
15,17,3043.2208673319,0.00100000000384171
15,18,3483.6337286075,0
15,19,3471.59296070749,0.000999999996565748
15,20,3761.94129660203,0.00100000000384171
15,21,3623.19497846199,0
15,22,3213.01009528493,0.000999999996565748
15,23,2955.05605126544,0.000999999996565748
15,24,3512.39469781972,0
15,25,3240.18853829502,0.00100000000384171
15,26,3004.95992200344,0
15,27,3665.86266429803,0
15,28,3813.55977811722,0.00100000000384171
15,29,3232.84888494586,0
15,30,2751.16254082717,0
16,17,1694.4849205413,0.00100000000384171
16,18,3005.64686665954,0
16,19,1577.45312881342,0.000999999996565748
16,20,2047.34940907531,0.00100000000384171
16,21,3509.80663156022,0
16,22,1581.89645809648,0.000999999996565748
16,23,2248.06578792979,0.00100000000384171
16,24,3029.50124212185,0
16,25,2435.5516946629,0.000999999996565748
16,26,2511.60260143852,0.00100000000384171
16,27,4897.13725694238,0
16,28,3233.13071395266,0.000999999996565748
16,29,1641.93375426071,0.00100000000384171
16,30,3715.64043215531,0
17,18,2378.16006609481,0
17,19,2121.20370566451,0.00100000000384171
17,20,1941.28012034401,0.000999999996565748
17,21,3131.04536555301,0
17,22,1347.59294867532,0.000999999996565748
17,23,1687.68266220859,0.00100000000384171
17,24,2314.40391438871,0
17,25,1763.74710988423,0.000999999996565748
17,26,1693.63581246111,0.00100000000384171
17,27,4369.7842491955,0
17,28,2328.20376794916,0.000999999996565748
17,29,1422.03743508529,0.00100000000384171
17,30,3047.63999820937,0
18,19,2924.68410987122,0.000999999996565748
18,20,2968.25703885453,0.00100000000384171
18,21,3263.18909781812,0
18,22,3083.59559730153,0.000999999996565748
18,23,3225.97185929273,0.00100000000384171
18,24,3125.94745770955,0
18,25,2936.55037172089,0.000999999996565748
18,26,3148.21740262367,0.00100000000384171
18,27,4736.0873293394,0
18,28,3630.02947045203,0.000999999996565748
18,29,2783.98167908425,0.00100000000384171
18,30,3667.32952882121,0
19,20,1683.75958431631,0.000999999996565748
19,21,3523.41529934663,0.00100000000384171
19,22,2386.58666240369,0
19,23,2946.28245096942,0.000999999996565748
19,24,2965.06735903316,0.00100000000384171
19,25,2595.97432371575,0
19,26,3191.19053633693,0.000999999996565748
19,27,5291.22582916596,0.000999999996565748
19,28,3725.32073270098,0
19,29,1603.81670539198,0
19,30,4056.79540383781,0.000999999996565748
20,21,3893.87743269713,0
20,22,2175.79475831857,0
20,23,2699.36335960348,0.000999999996565748
20,24,3317.03791462186,0.00100000000384171
20,25,1624.14607344282,0
20,26,2904.12746641609,0.000999999996565748
20,27,5075.25860912523,0.00100000000384171
20,28,2822.08173081805,0.000999999996565748
20,29,1293.05679923795,0.00100000000384171
20,30,4018.68918584226,0
21,22,3304.13825750511,0
21,23,3474.46404266412,0.00100000000384171
21,24,2010.60757944597,0.000999999996565748
21,25,3507.9988456336,0
21,26,3331.99316967248,0.00100000000384171
21,27,3511.02952763906,0
21,28,3928.64958007349,0
21,29,3570.60074290215,0.000999999996565748
21,30,2970.52942976875,0
22,23,1673.4194904823,0.00100000000384171
22,24,2620.28525535914,0.000999999996565748
22,25,1879.450574185,0
22,26,1577.42396017307,0.00100000000384171
22,27,4362.90718348752,0.000999999996565748
22,28,2222.65870369155,0
22,29,1441.82061437846,0.00100000000384171
22,30,3253.16367048586,0.000999999996565748
23,24,2747.69462927591,0
23,25,2293.70879226679,0.00100000000384171
23,26,1726.70229183556,0.000999999996565748
23,27,3688.16150656849,0
23,28,1966.85093486751,0.00100000000384171
23,29,2193.71365211379,0.000999999996565748
23,30,2697.04190705006,0
24,25,2954.35062267717,0.00100000000384171
24,26,2509.9903029269,0.000999999996565748
24,27,3814.85345510961,0
24,28,3343.11186776802,0.00100000000384171
24,29,2788.80987479369,0.000999999996565748
24,30,3039.35456928645,0
25,26,2152.59638842268,0.00100000000384171
25,27,4135.04285340566,0.000999999996565748
25,28,1822.52314958576,0
25,29,1525.99701137437,0.00100000000384171
25,30,3249.26148932622,0.000999999996565748
26,27,3871.25731891656,0
26,28,1934.26351345473,0.000999999996565748
26,29,2180.52026385645,0.00100000000384171
26,30,2735.13998457742,0
27,28,3864.1800838228,0.000999999996565748
27,29,4757.31472156922,0.00100000000384171
27,30,2920.15351897294,0
28,29,2574.58885911801,0.000999999996565748
28,30,2945.22722780591,0.00100000000384171
29,30,3590.93064416835,0


"After.Trace.ID","Before.Trace.ID","Difference","Runtime"
1,1,2823.68161765658,0.000999999996565748
1,2,2242.41751229496,0.00400000000081491
1,3,3108.25292273721,0.00100000000384171
1,4,2759.65044614284,0
1,5,2599.71964631786,0.000999999996565748
1,6,3077.75692340174,0.00100000000384171
1,7,2560.34193432563,0
1,8,3314.49775127475,0.000999999996565748
1,9,3967.67601845473,0.00100000000384171
1,10,2028.45946224249,0
1,11,3511.98784808138,0.000999999996565748
1,12,3906.12362790544,0
1,13,3731.85311578754,0
1,14,3510.6742404392,0.000999999996565748
1,15,4285.43715095723,0
1,16,3325.81680797125,0
1,17,2600.5108515016,0.00100000000384171
1,18,3724.60715725261,0
1,19,3381.76950176646,0
1,20,3440.06587447401,0.00100000000384171
1,21,4449.18993340959,0
1,22,2839.81818405484,0
1,23,3033.33402241913,0.00100000000384171
1,24,3383.86425903244,0
1,25,3340.75029416828,0
1,26,2605.8729656744,0.00100000000384171
1,27,5769.54278775339,0
1,28,3308.7169578421,0.000999999996565748
1,29,2773.4396198126,0.00100000000384171
1,30,3926.91699153675,0
2,1,2614.27431277527,0.000999999996565748
2,2,2536.92108693074,0.00100000000384171
2,3,2915.67135008101,0
2,4,2029.19811646741,0.000999999996565748
2,5,2485.16503050628,0.00100000000384171
2,6,3123.63586368158,0
2,7,2555.87013548424,0.000999999996565748
2,8,3078.06215785794,0.00100000000384171
2,9,3523.06777144222,0
2,10,1758.68269767644,0.000999999996565748
2,11,3519.47431744883,0.00100000000384171
2,12,3288.22556638042,0
2,13,4266.08955530255,0.000999999996565748
2,14,3472.00507275103,0.000999999996565748
2,15,4365.78461504013,0
2,16,3378.89036913495,0
2,17,2943.63965288302,0.000999999996565748
2,18,4532.20737829398,0.00100000000384171
2,19,4008.54400690291,0
2,20,3963.86658085165,0.000999999996565748
2,21,4656.80942434951,0.00100000000384171
2,22,2753.53716810058,0
2,23,2634.69937670726,0.000999999996565748
2,24,3571.15580741136,0.00100000000384171
2,25,3746.89109289136,0
2,26,2299.9542788356,0.000999999996565748
2,27,5218.25170859786,0.00100000000384171
2,28,3147.91125722061,0
2,29,3313.05027295456,0.000999999996565748
2,30,3867.04719350216,0.00100000000384171
3,1,2967.62993909651,0
3,2,2065.72857754913,0.000999999996565748
3,3,2104.74693929505,0.00100000000384171
3,4,3942.35486524912,0
3,5,2812.87562513881,0.000999999996565748
3,6,2153.08731730879,0.00100000000384171
3,7,1887.12415040005,0
3,8,2925.99599671009,0.000999999996565748
3,9,3200.67996556569,0.000999999996565748
3,10,2711.30360725017,0
3,11,2831.20086205318,0.00100000000384171
3,12,3796.85538832357,0.000999999996565748
3,13,3237.90482233287,0
3,14,3196.60194502271,0.00100000000384171
3,15,4066.36899984285,0.000999999996565748
3,16,2139.4587364284,0
3,17,2490.70984738007,0
3,18,4056.08072294975,0.000999999996565748
3,19,2842.28817962699,0
3,20,2948.58677490627,0
3,21,4882.37920312871,0.000999999996565748
3,22,2437.3063230271,0.00100000000384171
3,23,2843.92172204658,0
3,24,3843.24114874284,0.000999999996565748
3,25,3317.22218377714,0.00100000000384171
3,26,2830.36155356728,0
3,27,6019.69123458787,0.000999999996565748
3,28,3684.95764356096,0.00100000000384171
3,29,2520.73385154487,0.0029999999969732
3,30,4759.50476186745,0.000999999996565748
4,1,2433.61116949483,0.00100000000384171
4,2,2075.2365588919,0
4,3,2649.15687931059,0.000999999996565748
4,4,3092.49208449357,0.00100000000384171
4,5,2300.4698486112,0
4,6,2720.53438554173,0.000999999996565748
4,7,2269.78129880926,0.00100000000384171
4,8,2888.1207384224,0
4,9,3544.43671547917,0.000999999996565748
4,10,2390.80996394315,0.00100000000384171
4,11,2670.21570298084,0
4,12,4109.38038707611,0.000999999996565748
4,13,3244.32631971154,0
4,14,2867.72069896772,0
4,15,4180.39988504755,0.000999999996565748
4,16,2789.40765780809,0
4,17,2205.39411102759,0
4,18,3679.42118281435,0.000999999996565748
4,19,2789.10147565547,0
4,20,2621.6152001495,0
4,21,4491.86791604409,0.000999999996565748
4,22,2421.31187867098,0
4,23,2824.41010040659,0
4,24,3306.7529949204,0.000999999996565748
4,25,2736.83407188051,0
4,26,2521.86979940356,0
4,27,5698.5580137581,0.000999999996565748
4,28,3151.81286988937,0
4,29,1965.54736664327,0.000999999996565748
4,30,4260.13822944813,0.00100000000384171
5,1,2698.87767843586,0
5,2,2172.02492142036,0.000999999996565748
5,3,2986.4123336366,0.00100000000384171
5,4,2848.51736395834,0
5,5,2531.75107663825,0.000999999996565748
5,6,3093.73116573395,0.00100000000384171
5,7,2561.84137570379,0
5,8,3162.15755860425,0.000999999996565748
5,9,3851.45372277396,0.00100000000384171
5,10,2154.89475688835,0
5,11,3279.49555952285,0
5,12,4086.32857890592,0.00100000000384171
5,13,3616.61961089636,0
5,14,3333.38839683459,0
5,15,4500.08288985236,0.00100000000384171
5,16,3248.74733517588,0.000999999996565748
5,17,2427.8963794373,0
5,18,3430.69545411446,0.00100000000384171
5,19,3293.68741437915,0.000999999996565748
5,20,3186.73585389648,0
5,21,4423.56662015383,0.00100000000384171
5,22,2721.52314849763,0.000999999996565748
5,23,2975.32903760181,0
5,24,3356.53802295896,0.000999999996565748
5,25,3170.49858771499,0.00100000000384171
5,26,2582.78091519308,0
5,27,5797.53803868737,0.000999999996565748
5,28,3194.86620271755,0.00100000000384171
5,29,2570.80408982701,0
5,30,4194.00648219719,0.000999999996565748
6,1,3354.92063661443,0.00100000000384171
6,2,3417.68976953138,0
6,3,3068.11260481728,0.000999999996565748
6,4,3498.37831707056,0.00100000000384171
6,5,2988.36992110461,0
6,6,3647.22640455421,0.000999999996565748
6,7,3296.9467636215,0.00100000000384171
6,8,3221.69042359374,0
6,9,3003.53408628731,0
6,10,3201.84387004625,0.00100000000384171
6,11,3129.45867971667,0
6,12,4076.00298884127,0
6,13,4079.16586764245,0.00100000000384171
6,14,3031.04740660487,0.000999999996565748
6,15,4708.98983970439,0
6,16,3490.39698733217,0.00100000000384171
6,17,2980.35327857252,0.000999999996565748
6,18,3725.58166163822,0
6,19,4010.25325418521,0.00100000000384171
6,20,3388.84471523543,0.000999999996565748
6,21,4632.96302791103,0
6,22,2664.70004574069,0.000999999996565748
6,23,3111.89254060942,0.00100000000384171
6,24,3936.90733878682,0
6,25,3179.86931431974,0.000999999996565748
6,26,2635.9171072256,0.00100000000384171
6,27,5182.07379355847,0
6,28,2908.37778051436,0.00100000000384171
6,29,2995.79056633796,0.000999999996565748
6,30,4605.2619092077,0
7,1,2782.29307268328,0.00100000000384171
7,2,1858.06773152704,0.000999999996565748
7,3,3050.96208379701,0
7,4,2936.74064272509,0.00100000000384171
7,5,2688.90761734941,0.000999999996565748
7,6,3413.53946197492,0
7,7,2665.15617661835,0.00100000000384171
7,8,3549.69669823613,0.000999999996565748
7,9,4180.17673753692,0
7,10,2132.02465121394,0.00100000000384171
7,11,3540.7452332116,0.000999999996565748
7,12,4402.65182378037,0
7,13,4254.90257596711,0.000999999996565748
7,14,3831.66680942721,0.00100000000384171
7,15,4869.73634595736,0
7,16,3462.19889723815,0.000999999996565748
7,17,2900.86697992768,0.00100000000384171
7,18,4391.26048101648,0
7,19,3805.76038144412,0.000999999996565748
7,20,3584.12468511603,0.00100000000384171
7,21,5308.20746217631,0
7,22,3030.83597775174,0.000999999996565748
7,23,3371.46848245143,0.00100000000384171
7,24,4192.956376558,0
7,25,3619.38239093982,0.000999999996565748
7,26,2905.45309999312,0.00100000000384171
7,27,6443.97031892208,0
7,28,3580.59392466977,0.000999999996565748
7,29,3029.80597591744,0
7,30,4826.14577983482,0
8,1,2802.12837869928,0.000999999996565748
8,2,2445.90648191389,0
8,3,2688.92947976802,0
8,4,3972.22524656072,0.000999999996565748
8,5,2757.1681674979,0
8,6,2532.53304880688,0
8,7,2416.73643389803,0.000999999996565748
8,8,3008.07556433059,0.00100000000384171
8,9,3775.58652095045,0
8,10,3050.50289178583,0.000999999996565748
8,11,2496.36705291077,0.000999999996565748
8,12,4424.51145493582,0
8,13,2694.69623297205,0.00100000000384171
8,14,2857.23515300528,0.000999999996565748
8,15,4083.93545974522,0
8,16,2529.37857442107,0.00100000000384171
8,17,2198.96632792801,0.000999999996565748
8,18,3516.24014237575,0
8,19,2118.35254649342,0.00100000000384171
8,20,2007.00636687904,0.000999999996565748
8,21,4442.50351859566,0
8,22,2630.10910818593,0.00100000000384171
8,23,3021.66956839849,0.000999999996565748
8,24,3431.34987013292,0
8,25,2599.7209817585,0.00100000000384171
8,26,3067.18806594382,0.000999999996565748
8,27,5868.44590657203,0
8,28,3468.47272415339,0
8,29,1804.52591124735,0.000999999996565748
8,30,4444.66606163611,0
9,1,3341.18300605718,0
9,2,3548.46669839421,0.000999999996565748
9,3,3241.95244561571,0.00100000000384171
9,4,3840.10839850834,0
9,5,2851.0817458782,0.000999999996565748
9,6,3025.7218209795,0.000999999996565748
9,7,3069.50843238833,0
9,8,3021.54651325535,0.00100000000384171
9,9,3402.96808540814,0.000999999996565748
9,10,3181.68767197993,0
9,11,3028.56459683074,0.00100000000384171
9,12,4029.14313218643,0.000999999996565748
9,13,2850.01472553864,0
9,14,2694.7567484236,0.00100000000384171
9,15,3462.95566355913,0.000999999996565748
9,16,3151.8401368111,0
9,17,2415.63342111833,0.00100000000384171
9,18,2594.33343632014,0.000999999996565748
9,19,2872.24149754383,0
9,20,2597.26070188121,0.00100000000384171
9,21,3871.76960909157,0.000999999996565748
9,22,2783.92586938619,0
9,23,2843.37796029712,0.00100000000384171
9,24,3319.83660463864,0.00400000000081491
9,25,2402.83330804393,0
9,26,2746.80636455873,0.000999999996565748
9,27,4797.82398268421,0.000999999996565748
9,28,2848.73857983789,0
9,29,2137.2244993577,0.00100000000384171
9,30,3289.21143897886,0.000999999996565748
10,1,2299.2672034228,0
10,2,2722.30714246972,0.00100000000384171
10,3,2958.68194698125,0.000999999996565748
10,4,2434.7748316667,0
10,5,2198.26867027388,0.00100000000384171
10,6,3217.69762548002,0.000999999996565748
10,7,2767.52860866652,0
10,8,2708.9404132052,0.00100000000384171
10,9,3810.60920925377,0.000999999996565748
10,10,2436.45006142177,0
10,11,2637.49920294742,0.00100000000384171
10,12,4098.54556477888,0.000999999996565748
10,13,3705.7657103144,0
10,14,2719.63524197625,0.00100000000384171
10,15,4382.68933757471,0.000999999996565748
10,16,3360.17527915408,0
10,17,2297.10849369653,0.00100000000384171
10,18,3645.3772528904,0.000999999996565748
10,19,3386.94102965884,0
10,20,2904.02708088444,0.00100000000384171
10,21,4137.39535415538,0.000999999996565748
10,22,2596.17323943944,0
10,23,2815.90947205716,0.00100000000384171
10,24,3024.97300380278,0.000999999996565748
10,25,2577.29001161999,0
10,26,2239.09499055394,0.000999999996565748
10,27,5176.2409254673,0.00100000000384171
10,28,2569.40217180843,0
10,29,2400.41829487752,0.000999999996565748
10,30,3880.47101144154,0.00100000000384171
11,1,3704.18563118893,0
11,2,3024.49886028122,0.000999999996565748
11,3,3467.68196070574,0.00100000000384171
11,4,4962.82695931155,0
11,5,3687.03354432965,0.000999999996565748
11,6,3089.84965604206,0.00100000000384171
11,7,3183.95076019898,0
11,8,3896.72130008842,0.000999999996565748
11,9,3853.70957202571,0.00100000000384171
11,10,4005.23684535119,0
11,11,3180.85302116849,0.000999999996565748
11,12,5077.81863520319,0.00100000000384171
11,13,2623.36410120123,0
11,14,3441.08049773092,0.000999999996565748
11,15,4620.01441860302,0.00100000000384171
11,16,2886.76430608123,0
11,17,3063.41344222357,0.000999999996565748
11,18,3833.14058137815,0.00100000000384171
11,19,2109.65396012901,0
11,20,2222.95633247769,0.000999999996565748
11,21,4967.65445211705,0.000999999996565748
11,22,3185.17691593761,0
11,23,3893.52095741559,0
11,24,4136.97876570231,0.000999999996565748
11,25,3220.03535594573,0
11,26,3873.04673386953,0
11,27,6522.9403158432,0.000999999996565748
11,28,4272.5634301361,0.00100000000384171
11,29,2121.55170751115,0
11,30,5270.63813492744,0.000999999996565748
12,1,3370.21096544953,0.00100000000384171
12,2,4492.19792849706,0
12,3,3907.45147022963,0.000999999996565748
12,4,3699.87541164896,0.00100000000384171
12,5,3136.86260770021,0
12,6,3899.08560665554,0.000999999996565748
12,7,3853.56021392754,0.00100000000384171
12,8,3099.32529785045,0
12,9,4366.1367721946,0.000999999996565748
12,10,3874.59809787327,0.00100000000384171
12,11,3010.34736403151,0
12,12,4600.52448994833,0.000999999996565748
12,13,3714.70039427334,0.00100000000384171
12,14,2660.86956782273,0
12,15,3977.97538273551,0.000999999996565748
12,16,4071.31955935555,0.00100000000384171
12,17,3081.4805075508,0
12,18,3734.03635414094,0.000999999996565748
12,19,3737.71892338867,0.000999999996565748
12,20,3281.66081252308,0
12,21,3645.55266067815,0.0029999999969732
12,22,3434.46275029941,0.00100000000384171
12,23,3330.42516279837,0
12,24,3102.0901327804,0
12,25,2493.47027694415,0.00100000000384171
12,26,3103.87153733039,0
12,27,4191.73756066862,0
12,28,2756.49852832294,0.00100000000384171
12,29,3012.37557406619,0
12,30,3191.80417342041,0.000999999996565748
13,1,2824.32494247586,0.00100000000384171
13,2,3122.39938986711,0
13,3,2736.39599813665,0.000999999996565748
13,4,3710.46350075613,0.00100000000384171
13,5,2566.72637407136,0
13,6,2519.6690094743,0.000999999996565748
13,7,2647.42329332758,0.00100000000384171
13,8,2490.91349056169,0
13,9,3362.14643100394,0.000999999996565748
13,10,3164.43411561846,0.000999999996565748
13,11,2237.73505332522,0
13,12,3933.91853311195,0.00100000000384171
13,13,2183.40966775046,0.000999999996565748
13,14,2083.90931415605,0
13,15,3512.10111037639,0.00100000000384171
13,16,2585.82140269325,0.000999999996565748
13,17,1896.52063718707,0
13,18,2639.5669904902,0.00100000000384171
13,19,2103.83532665814,0.000999999996565748
13,20,1923.58813444757,0
13,21,3345.42294331447,0.00100000000384171
13,22,2168.72585505112,0.000999999996565748
13,23,2635.8452884704,0
13,24,2561.02257519435,0.00100000000384171
13,25,1867.55005020404,0.000999999996565748
13,26,2536.84553359617,0
13,27,4705.03801097855,0.00100000000384171
13,28,2788.45995043372,0.000999999996565748
13,29,1406.72896119795,0
13,30,3476.49713914565,0.00100000000384171
14,1,2419.46628994828,0.000999999996565748
14,2,1931.03402091417,0
14,3,2668.59094919796,0.00100000000384171
14,4,2279.57105517263,0.000999999996565748
14,5,2136.54344043188,0
14,6,3021.98308484431,0.00100000000384171
14,7,2320.66451378473,0.000999999996565748
14,8,3100.07031054602,0
14,9,3595.15951706221,0.000999999996565748
14,10,1404.10313419848,0.00100000000384171
14,11,3423.52957829061,0
14,12,3502.71055326696,0
14,13,4118.86042092017,0.00100000000384171
14,14,3468.01086172731,0
14,15,4346.90941098857,0
14,16,3167.07427654382,0.00100000000384171
14,17,2748.42105925421,0.000999999996565748
14,18,4352.5153714607,0
14,19,3839.02526363488,0.00100000000384171
14,20,3667.55297602897,0.000999999996565748
14,21,4954.43981464395,0
14,22,2530.05123883249,0.00100000000384171
14,23,2625.03625863318,0.000999999996565748
14,24,3987.01718315815,0
14,25,3530.89958687992,0.00100000000384171
14,26,2363.43933073321,0.000999999996565748
14,27,5677.13031912866,0
14,28,3063.96536368454,0.00100000000384171
14,29,3006.16604509413,0.000999999996565748
14,30,4081.528101839,0
15,1,2499.52927366822,0.00100000000384171
15,2,2411.4663201699,0.000999999996565748
15,3,2706.64978843118,0
15,4,3474.58579069907,0.000999999996565748
15,5,2557.2706289647,0.00100000000384171
15,6,2280.55208421682,0
15,7,2276.36411214538,0.000999999996565748
15,8,2747.1270381992,0.00100000000384171
15,9,3488.47175879469,0
15,10,2738.63328988128,0
15,11,2459.67791257976,0.00100000000384171
15,12,4086.32355434401,0
15,13,2561.523897692,0
15,14,2525.68051598198,0.00100000000384171
15,15,3900.75345777863,0.000999999996565748
15,16,2569.42609509423,0
15,17,2045.32262579491,0.00100000000384171
15,18,3377.62825587131,0.0029999999969732
15,19,2215.72050712889,0.00100000000384171
15,20,2374.02833976757,0.000999999996565748
15,21,3902.18461574599,0.00100000000384171
15,22,2352.20214132138,0
15,23,2663.51610436645,0.000999999996565748
15,24,2710.42795766882,0.000999999996565748
15,25,2554.43441197827,0
15,26,2633.47534597343,0.00100000000384171
15,27,5312.65502988039,0.000999999996565748
15,28,3061.51090056874,0
15,29,1815.18826097909,0.00100000000384171
15,30,3856.87362423536,0
16,1,3343.60658662548,0
16,2,3078.11410093248,0.00100000000384171
16,3,3735.79705260351,0
16,4,4627.11023122347,0
16,5,3639.45298876835,0.00100000000384171
16,6,3587.97236865758,0
16,7,3688.42580109338,0
16,8,3862.18866996341,0.00100000000384171
16,9,4532.0444285719,0
16,10,4050.28589510893,0
16,11,2952.26401706932,0.00100000000384171
16,12,5479.76146649785,0
16,13,3433.39801070376,0
16,14,3442.84420709674,0.00100000000384171
16,15,5099.81204093232,0
16,16,3500.0785752946,0
16,17,3200.90163520235,0.00100000000384171
16,18,4227.52019754003,0
16,19,2907.47624069768,0.000999999996565748
16,20,2229.28680031591,0.00100000000384171
16,21,5435.81303350272,0
16,22,3368.66538835664,0.000999999996565748
16,23,4049.97432322124,0.000999999996565748
16,24,4375.82608064353,0
16,25,2980.32377485139,0.00100000000384171
16,26,3870.38198332394,0.000999999996565748
16,27,6630.29247871717,0
16,28,3876.75138278998,0.00100000000384171
16,29,2441.8278500783,0.000999999996565748
16,30,5384.58665613174,0
17,1,2875.12524823596,0
17,2,2039.38914191585,0.000999999996565748
17,3,2741.39557497065,0.00100000000384171
17,4,3657.37717493238,0
17,5,2578.68234846171,0.000999999996565748
17,6,3001.8131985447,0.00100000000384171
17,7,2656.41362986269,0
17,8,3358.88160510553,0.000999999996565748
17,9,3601.24816949007,0.00100000000384171
17,10,2708.90895757759,0
17,11,3043.41270070755,0.000999999996565748
17,12,4285.07853488533,0.00100000000384171
17,13,3395.06130927445,0
17,14,3161.30130754192,0.000999999996565748
17,15,4471.84150700165,0.00100000000384171
17,16,2842.17951517603,0
17,17,2660.12281863305,0.000999999996565748
17,18,3820.25699493755,0.000999999996565748
17,19,2997.24339356678,0
17,20,2640.14927905195,0.00100000000384171
17,21,4877.46664688071,0.000999999996565748
17,22,2402.6973800704,0
17,23,3246.26843795821,0.00100000000384171
17,24,4061.78105296734,0.000999999996565748
17,25,2885.60948083727,0
17,26,2872.51284469059,0
17,27,6100.88592984666,0.000999999996565748
17,28,3317.85636310452,0
17,29,2073.17398219163,0
17,30,4713.29183972219,0.000999999996565748
18,1,2913.0785229407,0.00100000000384171
18,2,2525.39873012234,0
18,3,3388.34709465297,0.000999999996565748
18,4,3610.9105489728,0.00100000000384171
18,5,3038.38487181457,0
18,6,3287.20603409569,0.000999999996565748
18,7,3003.32069297958,0.00100000000384171
18,8,3514.69515035506,0
18,9,3807.76007464604,0.000999999996565748
18,10,3079.44031906914,0.00100000000384171
18,11,3055.27225248002,0
18,12,4821.72928575852,0.000999999996565748
18,13,3460.97709882373,0.00100000000384171
18,14,3245.85628707871,0
18,15,4784.44501184224,0.000999999996565748
18,16,3368.22363651307,0.00400000000081491
18,17,2787.81433959473,0
18,18,3868.59678894498,0.000999999996565748
18,19,3024.10640740775,0.00100000000384171
18,20,2810.35263214148,0
18,21,4886.92492223726,0.000999999996565748
18,22,3045.9214730494,0.00100000000384171
18,23,3410.57039252983,0
18,24,3637.69304854088,0.000999999996565748
18,25,3110.94249250699,0.00100000000384171
18,26,3107.14967250454,0
18,27,6127.37070217081,0.000999999996565748
18,28,3524.35116834688,0.00100000000384171
18,29,2362.97890468265,0
18,30,4836.90336179128,0.000999999996565748
19,1,4848.20346021187,0.00100000000384171
19,2,4170.16359522666,0
19,3,3762.5198506659,0.000999999996565748
19,4,5926.05598596261,0.00100000000384171
19,5,4515.46565612712,0
19,6,3089.16424028929,0.000999999996565748
19,7,3657.52579518731,0.000999999996565748
19,8,4237.74892625436,0
19,9,3499.08590097841,0.00100000000384171
19,10,4741.42613209049,0.000999999996565748
19,11,3704.19043052225,0
19,12,4892.40158501655,0.00100000000384171
19,13,2714.71994742495,0.000999999996565748
19,14,3778.08409993887,0
19,15,3848.37139585604,0.00100000000384171
19,16,2932.47163215048,0.000999999996565748
19,17,3432.65734356242,0
19,18,3642.05479666585,0.00100000000384171
19,19,2410.8454025111,0.000999999996565748
19,20,2807.35446180066,0
19,21,5035.50693696391,0.00100000000384171
19,22,3607.94012106767,0.000999999996565748
19,23,4163.60862400397,0
19,24,4398.47227139765,0.00100000000384171
19,25,3588.09667752771,0.000999999996565748
19,26,4152.32704096677,0
19,27,6219.70964162608,0.00100000000384171
19,28,4774.85889517822,0.000999999996565748
19,29,2724.11162283029,0
19,30,5164.20377620662,0.00100000000384171
20,1,2540.11077337317,0.000999999996565748
20,2,2782.23313228543,0
20,3,3308.42590365468,0.00100000000384171
20,4,3130.06375679976,0.000999999996565748
20,5,2588.32611370038,0
20,6,3512.59122552684,0.000999999996565748
20,7,3193.52348962171,0.00100000000384171
20,8,3231.02327814242,0
20,9,4067.07464898374,0.000999999996565748
20,10,2983.11672972701,0.00100000000384171
20,11,2714.52403456136,0
20,12,4762.22614413864,0.000999999996565748
20,13,3703.19752462162,0.00100000000384171
20,14,2897.36257089918,0
20,15,4714.01255673249,0
20,16,3531.22515362634,0.00100000000384171
20,17,2631.29907134936,0
20,18,3886.51988867593,0
20,19,3320.33680252424,0.00100000000384171
20,20,2647.10487515429,0.000999999996565748
20,21,4704.81073269303,0
20,22,2826.81917296667,0.00100000000384171
20,23,3296.96309378766,0.000999999996565748
20,24,3614.17534607951,0
20,25,2565.01115968039,0.00100000000384171
20,26,2805.59903660931,0.000999999996565748
20,27,5725.29828554903,0
20,28,2856.34406437534,0.00100000000384171
20,29,2284.92489235943,0.000999999996565748
20,30,4447.64585810801,0
21,1,2453.50197012073,0.000999999996565748
21,2,2998.4782287081,0.00100000000384171
21,3,3523.42920657578,0
21,4,2377.58926964907,0.000999999996565748
21,5,2375.95023398499,0.00100000000384171
21,6,3979.46411856104,0
21,7,3585.2495729642,0.000999999996565748
21,8,3260.26509774973,0.00100000000384171
21,9,4712.29825152118,0
21,10,2540.03360458271,0.000999999996565748
21,11,3274.70005,0.00100000000384171
21,12,4521.68110768957,0
21,13,4646.50385961726,0.00400000000081491
21,14,3438.6842772866,0.000999999996565748
21,15,4840.80356572024,0
21,16,4087.93252961505,0.00100000000384171
21,17,3255.02239647311,0.000999999996565748
21,18,4579.99100211401,0
21,19,4410.73431982314,0.00100000000384171
21,20,3525.49042734324,0.000999999996565748
21,21,5279.3182172846,0
21,22,3160.19514940499,0.000999999996565748
21,23,3356.5489430281,0.00100000000384171
21,24,4453.31412521921,0
21,25,2947.38545051672,0.000999999996565748
21,26,2744.62420771377,0.00100000000384171
21,27,5677.84597845995,0
21,28,2355.3286692729,0.000999999996565748
21,29,3202.04090538006,0.00100000000384171
21,30,4196.49889391475,0
22,1,2745.4666064211,0.000999999996565748
22,2,3390.32992949108,0.00100000000384171
22,3,3004.35698886279,0
22,4,2711.27101725606,0.000999999996565748
22,5,2239.64328960125,0.00100000000384171
22,6,3365.93094770423,0
22,7,3215.6114545196,0.000999999996565748
22,8,2649.01380025073,0.00100000000384171
22,9,3720.50218211274,0
22,10,2918.09371393234,0.000999999996565748
22,11,2688.49542529185,0.00100000000384171
22,12,3424.2323628397,0
22,13,4077.95498663724,0.000999999996565748
22,14,2537.15182549539,0.00100000000384171
22,15,4232.39681099557,0
22,16,3499.38442265171,0.000999999996565748
22,17,2788.13577622703,0.00100000000384171
22,18,4081.43138240794,0
22,19,3908.95109421329,0.000999999996565748
22,20,3215.98714730389,0.000999999996565748
22,21,3886.94926739817,0
22,22,2381.66098014047,0.00100000000384171
22,23,2874.38048909723,0.000999999996565748
22,24,3194.54157035899,0
22,25,2418.8440769026,0.00100000000384171
22,26,1962.5250448354,0.000999999996565748
22,27,4380.34386964419,0
22,28,2141.31876376106,0.00100000000384171
22,29,2792.11937177487,0.000999999996565748
22,30,3633.88833326401,0
23,1,2550.74776560124,0.00100000000384171
23,2,2146.37328966302,0.000999999996565748
23,3,3270.63343443701,0
23,4,2270.77223879084,0.00100000000384171
23,5,2567.87985896428,0.000999999996565748
23,6,3507.6782173223,0
23,7,2871.66166513739,0.00100000000384171
23,8,3572.14896264684,0.000999999996565748
23,9,3904.24531070308,0
23,10,1802.22847508991,0
23,11,3715.93924557596,0.000999999996565748
23,12,4113.46627904193,0
23,13,4322.61447856999,0
23,14,3682.29008168101,0.000999999996565748
23,15,4907.61182621625,0.000999999996565748
23,16,3678.10532643524,0
23,17,3105.70182882552,0.00100000000384171
23,18,4499.65808850616,0.000999999996565748
23,19,4006.87494749544,0
23,20,3870.55098472135,0.00100000000384171
23,21,5046.28043223183,0.000999999996565748
23,22,3038.51716799564,0
23,23,3041.69785600968,0.00100000000384171
23,24,3970.607935565,0.000999999996565748
23,25,3786.86421693298,0
23,26,2788.38186608425,0.00100000000384171
23,27,5923.04898823472,0.000999999996565748
23,28,3276.27526846478,0
23,29,3237.33651356977,0.00100000000384171
23,30,4364.42034884538,0.000999999996565748
24,1,2044.3217144921,0
24,2,1714.32614800451,0.00100000000384171
24,3,2485.66875021807,0.000999999996565748
24,4,2521.59333951202,0
24,5,1985.27175518297,0.00100000000384171
24,6,2730.8143097642,0.000999999996565748
24,7,2204.9352586817,0
24,8,2804.11554679615,0
24,9,3388.01919252938,0.000999999996565748
24,10,1745.68855416341,0.0029999999969732
24,11,2817.70183906303,0.00100000000384171
24,12,3797.971278071,0.000999999996565748
24,13,3638.19159828387,0
24,14,2951.06542230653,0
24,15,4325.54949075492,0.000999999996565748
24,16,2892.89502370139,0
24,17,2424.3350490035,0
24,18,4127.03930540793,0.000999999996565748
24,19,3354.65707670132,0
24,20,3142.85682290963,0
24,21,4754.69536821842,0.000999999996565748
24,22,2253.33784261165,0
24,23,2437.97754123483,0.00100000000384171
24,24,3580.47857344369,0.000999999996565748
24,25,3077.77051079835,0
24,26,2161.22406667271,0.00100000000384171
24,27,5591.86882973862,0.000999999996565748
24,28,2816.01212438422,0
24,29,2502.54491869825,0.00100000000384171
24,30,4271.47914927477,0.000999999996565748
25,1,4291.75919213403,0
25,2,4356.1098936947,0.00100000000384171
25,3,3492.29023872191,0.000999999996565748
25,4,4340.82945816682,0
25,5,3421.19747461383,0.000999999996565748
25,6,3344.74957607113,0.00100000000384171
25,7,3174.73823269433,0
25,8,3501.44819807414,0.000999999996565748
25,9,3467.34549199835,0.00100000000384171
25,10,3525.08764954164,0
25,11,3819.83575708028,0.000999999996565748
25,12,3665.94245482483,0.00100000000384171
25,13,3396.92508545817,0
25,14,3429.99316438957,0.000999999996565748
25,15,2649.96771152071,0.00100000000384171
25,16,3389.22554658738,0
25,17,2827.57435995933,0.000999999996565748
25,18,2818.2403335344,0.00100000000384171
25,19,3331.25037664807,0
25,20,3452.58518544811,0.000999999996565748
25,21,3794.204395558,0.00100000000384171
25,22,3327.49988757902,0
25,23,3252.81561756343,0.000999999996565748
25,24,3651.45250588971,0.00100000000384171
25,25,3176.23258610479,0
25,26,3056.89210226152,0
25,27,4647.61209715372,0.00100000000384171
25,28,3699.15738794206,0
25,29,2934.07768520208,0
25,30,2995.35350469261,0.00100000000384171
26,1,4158.94296515274,0.000999999996565748
26,2,2799.60452828224,0
26,3,3267.3373618368,0.000999999996565748
26,4,5020.2879063189,0.00100000000384171
26,5,3874.2139927013,0
26,6,2783.71160260092,0.000999999996565748
26,7,2771.65914317919,0.00100000000384171
26,8,4014.10224621335,0
26,9,3658.06376847366,0.000999999996565748
26,10,3699.27150351431,0.00100000000384171
26,11,3671.91029593416,0
26,12,4460.03423571293,0.000999999996565748
26,13,2718.98302745983,0.00100000000384171
26,14,3895.5001920363,0
26,15,4482.00544055808,0.000999999996565748
26,16,2624.91807440332,0.00100000000384171
26,17,2921.83302285458,0
26,18,3405.3967141439,0.000999999996565748
26,19,2174.85345505956,0.00100000000384171
26,20,2766.08906340641,0
26,21,4454.27267846307,0.000999999996565748
26,22,3155.0378089525,0.00100000000384171
26,23,3963.56380989933,0
26,24,3832.35213275514,0.000999999996565748
26,25,3570.48665807041,0.00100000000384171
26,26,3734.06613617295,0
26,27,6546.75400763264,0
26,28,4486.68653936584,0.000999999996565748
26,29,2540.25559799896,0
26,30,5038.54107003899,0
27,1,2021.60668001109,0.000999999996565748
27,2,2160.93723959088,0.00100000000384171
27,3,3198.18169905104,0
27,4,3445.01061373892,0.000999999996565748
27,5,2611.43219585589,0.00100000000384171
27,6,3291.85390990852,0
27,7,3156.61331889673,0.00400000000081491
27,8,3132.93955476057,0.000999999996565748
27,9,4318.49865317555,0
27,10,3000.20745248183,0.00100000000384171
27,11,2552.60743423178,0.000999999996565748
27,12,4950.84303660107,0
27,13,3460.70751967892,0.00100000000384171
27,14,2922.22242920687,0.000999999996565748
27,15,5051.28571750195,0
27,16,3363.88562746179,0.00100000000384171
27,17,2831.67202903943,0
27,18,4188.31984625265,0
27,19,3243.54512062517,0.000999999996565748
27,20,2537.94841511974,0
27,21,5048.67040847521,0
27,22,2757.98981091261,0.000999999996565748
27,23,3225.08931031221,0
27,24,3964.79965632508,0.00100000000384171
27,25,2690.96487199626,0.000999999996565748
27,26,3194.30283341677,0
27,27,6050.98987664646,0.00100000000384171
27,28,2850.69418053054,0.000999999996565748
27,29,2367.50741723005,0
27,30,4808.93826663186,0.00100000000384171
28,1,3237.80858485553,0.000999999996565748
28,2,3461.7837196567,0
28,3,2948.45627188068,0.00100000000384171
28,4,3541.94391985375,0.000999999996565748
28,5,2712.93748781976,0
28,6,2373.66294812347,0.00100000000384171
28,7,2558.03439878058,0.000999999996565748
28,8,2689.00196065081,0
28,9,3289.10518297974,0.00100000000384171
28,10,2766.54146138902,0.000999999996565748
28,11,3035.62446078131,0
28,12,3141.90669290659,0.00100000000384171
28,13,2799.07701418625,0.000999999996565748
28,14,2680.94626265322,0
28,15,2631.14009282081,0.00100000000384171
28,16,2826.11417578732,0.000999999996565748
28,17,2215.79262772314,0
28,18,3025.73546966019,0.000999999996565748
28,19,2815.46586621935,0.00100000000384171
28,20,2981.65462982751,0
28,21,3385.3326500945,0.000999999996565748
28,22,2568.90178224521,0.00100000000384171
28,23,2346.94734240305,0
28,24,2782.41207797724,0
28,25,2623.19213168185,0.00100000000384171
28,26,2317.23421460719,0.000999999996565748
28,27,4207.70415290627,0
28,28,2797.79575086853,0.00100000000384171
28,29,2430.6330410134,0.000999999996565748
28,30,2267.57754513734,0
29,1,3071.21193247427,0.00100000000384171
29,2,2010.41304933832,0.000999999996565748
29,3,3344.07052770194,0
29,4,3585.10825821568,0.00100000000384171
29,5,2926.69281183607,0.000999999996565748
29,6,3304.70664583394,0
29,7,2971.19212698614,0.00100000000384171
29,8,3859.75132675905,0.000999999996565748
29,9,4223.23147632551,0
29,10,2826.86330831951,0.00100000000384171
29,11,3554.23163527253,0.000999999996565748
29,12,4588.96967033889,0
29,13,3768.72924805306,0.000999999996565748
29,14,3679.09307955049,0.00100000000384171
29,15,4971.20198049381,0
29,16,3406.84653256523,0.000999999996565748
29,17,3016.31105593716,0.00100000000384171
29,18,4260.05306602114,0
29,19,3270.64090141275,0.000999999996565748
29,20,3193.80109086056,0.00100000000384171
29,21,4806.02770333742,0
29,22,2888.69195569691,0
29,23,3687.41250891464,0.00100000000384171
29,24,3841.92117970903,0
29,25,3420.50115737344,0
29,26,3142.68496482698,0.00100000000384171
29,27,6441.4212585307,0.000999999996565748
29,28,3712.70570755925,0
29,29,2618.086884266,0.00100000000384171
29,30,4868.84469454742,0.000999999996565748
30,1,2005.4127979215,0
30,2,2759.03254636174,0.00100000000384171
30,3,3072.50038730941,0.000999999996565748
30,4,2970.19871793248,0.00300000000424916
30,5,2286.44798482839,0.000999999996565748
30,6,3407.26287744157,0.000999999996565748
30,7,3118.73500614101,0
30,8,2747.91978999617,0.00100000000384171
30,9,4241.62321715208,0.000999999996565748
30,10,2925.68180583468,0
30,11,2194.99311753683,0.00100000000384171
30,12,4623.48301863969,0.000999999996565748
30,13,3721.27736496896,0
30,14,2582.57893563883,0.00100000000384171
30,15,4687.39630606588,0.000999999996565748
30,16,3475.52342156771,0
30,17,2610.55584716307,0.00100000000384171
30,18,4043.80548334176,0.000999999996565748
30,19,3494.71803890518,0
30,20,2596.0528290443,0.00100000000384171
30,21,4647.40038532567,0.000999999996565748
30,22,2649.34166045408,0
30,23,3016.179100982,0.00100000000384171
30,24,3593.63200375739,0.000999999996565748
30,25,2251.05987134461,0
30,26,2741.67744218239,0.00100000000384171
30,27,5465.79085268446,0.000999999996565748
30,28,2346.90158374458,0
30,29,2435.73769514035,0.00100000000384171
30,30,4321.3973615039,0.000999999996565748
