Trial,Energy (J)
1,103.66445042733567
2,101.82997539646387
3,102.75739710457599
4,101.20340524775975
5,103.74643065892413
6,102.67340465242806
7,101.73320758556024
8,103.58037173033173
9,102.52498823809596
10,103.52061213297961
11,102.16785091125554
12,102.89319576805997
13,101.723578984072
14,103.78255873803607
15,102.46400935868805
16,104.39001391269174
17,103.08466990161185
18,103.65053017265178
19,102.001542926824
20,103.85803706598007
21,103.51795856265242
22,103.80537715013199
23,102.95881952835606
24,103.86356879908008
25,104.60806709115991
26,104.2311360490042
27,104.19922611705186
28,103.1869380204235
29,103.86286786079597
30,103.82679608849249
