App - AnkiDroid
Scenario - learn_cards
Level - 1sec
Measure - EuclideanDistance
Test Statistic - Mann-Whitney U Test
Effect Size Measure - Simple Difference:Kerby
Alpha Level - 0.05


"Before.Version","After.Version","Diff","Direction","P.Value","Simple.Diff","Within.Diffs.Mean","Within.Diffs.SD","Between.Diffs.Mean","Between.Diffs.SD","Runtime"
"2.5_b","2.6_b",FALSE,NA,0,0.285,2877.724,886.665,3345.473,862.596,0.908
"2.6_b","2.7_f",TRUE,"NEGATIVE",0,0.998,2900.102,796.075,7033.565,1210.977,0.952
"2.7_f","2.8_f",FALSE,NA,0,0.184,2549.947,643.58,2775.838,689.929,0.987
