App - SimpleCalendar
Scenario - make_events
Length - 0sec
Measure - DTWDistance
Before Version - 5379244
After Version - b2fe795


"Before.Trace.ID1","Before.Trace.ID2","Difference","Runtime"
1,2,10334.8318111773,0.461999999999534
1,3,13548.3917982247,0.380999999993946
1,4,20289.3456523617,0.394000000000233
1,5,12513.6481140889,0.38300000000163
1,6,10840.5705982166,0.379000000000815
1,7,14754.0668784281,0.345000000001164
1,8,13161.0066294054,0.343999999997322
1,9,13884.5428588402,0.389000000010128
1,10,12929.3439006395,0.378000000011525
1,11,8576.23009697924,0.341999999989639
1,12,13213.326745754,0.380000000004657
1,13,9847.05763555797,0.349000000001979
1,14,10337.5163063435,0.375
1,15,7888.46598303321,0.372999999992317
1,16,10400.9414487569,0.381999999997788
1,17,13652.0411606022,0.38300000000163
1,18,13230.0348188591,0.38300000000163
1,19,12605.5497654561,0.381999999997788
1,20,13892.628383989,0.38300000000163
1,21,9451.88186682106,0.375
1,22,12809.0796492076,0.347999999998137
1,23,14624.017638155,0.381999999997788
1,24,11568.0876843604,0.381999999997788
1,25,10273.1781597069,0.379000000000815
1,26,14615.203019719,0.381000000008498
1,27,11558.2650989502,0.342999999993481
1,28,15860.7744755859,0.347999999998137
1,29,9905.47891657735,0.384999999994761
1,30,17352.8122332469,0.379000000000815
2,3,7272.7984686802,0.343000000008033
2,4,12662.1913882996,0.346999999994296
2,5,9342.94892587487,0.380999999993946
2,6,7790.0135001741,0.342000000004191
2,7,11471.0113515561,0.380999999993946
2,8,10599.0977928981,0.347000000008848
2,9,8812.20230556602,0.380999999993946
2,10,7777.75532452465,0.342000000004191
2,11,7962.58862615417,0.377999999996973
2,12,9472.71869359999,0.347999999998137
2,13,9929.65595179872,0.387000000002445
2,14,10857.2473470393,0.376000000003842
2,15,8348.44738437424,0.337999999988824
2,16,11806.2579694323,0.346000000005006
2,17,11475.9632199757,0.341000000000349
2,18,9126.27243552137,0.379000000000815
2,19,12064.1067978639,0.349000000001979
2,20,12494.3742002451,0.411999999996624
2,21,10186.5046552082,0.343999999997322
2,22,11968.7745084587,0.349000000001979
2,23,10726.4367942053,0.346999999994296
2,24,10555.5807131809,0.347999999998137
2,25,12272.3181512887,0.351000000009662
2,26,11758.2654506185,0.346999999994296
2,27,8755.73021422136,0.377000000007683
2,28,9723.20516302115,0.379000000000815
2,29,9754.84200172256,0.37599999998929
2,30,18509.5553057195,0.381999999997788
3,4,11086.4695288366,0.376000000003842
3,5,13415.2217778079,0.376999999993131
3,6,9163.74708488112,0.376000000003842
3,7,14436.0293909071,0.379000000000815
3,8,13123.1136279511,0.379000000000815
3,9,11863.1182666388,0.379000000000815
3,10,5099.39218866037,0.367000000012922
3,11,10820.3570669225,0.379999999990105
3,12,13949.8311700708,0.380000000004657
3,13,13356.1436826052,0.380000000004657
3,14,11837.6611053287,0.37599999998929
3,15,10248.9656029499,0.379000000000815
3,16,11929.6392037205,0.376000000003842
3,17,11349.8433986045,0.376000000003842
3,18,9483.90729722669,0.375
3,19,10913.215395692,0.37599999998929
3,20,11227.7060552239,0.375
3,21,11678.404079443,0.385999999998603
3,22,13053.469272088,0.385000000009313
3,23,10647.6391283609,0.381999999997788
3,24,10780.6658642569,0.38300000000163
3,25,11514.4452876019,0.379999999990105
3,26,13140.2872406449,0.348000000012689
3,27,9433.10213547344,0.376999999993131
3,28,11741.8122226904,0.376000000003842
3,29,12220.8276353265,0.379999999990105
3,30,18283.3556616798,0.381000000008498
4,5,17244.4320924446,0.384999999994761
4,6,12300.684212431,0.377999999996973
4,7,19622.2553195475,0.353000000002794
4,8,17697.6752248285,0.347999999998137
4,9,16436.958845902,0.350000000005821
4,10,11944.6045975383,0.347999999998137
4,11,16150.985706756,0.353000000002794
4,12,16973.0977795209,0.357000000003609
4,13,20522.1713025451,0.390999999988708
4,14,22304.5407642603,0.384000000005472
4,15,17618.3613073848,0.38300000000163
4,16,20712.1343774047,0.387000000002445
4,17,17898.6673926597,0.384000000005472
4,18,14529.9594137315,0.345000000001164
4,19,18399.4888072914,0.347999999998137
4,20,20425.7892992541,0.390999999988708
4,21,20519.6308439681,0.38200000001234
4,22,23265.2362356972,0.352999999988242
4,23,16151.6705115282,0.355999999999767
4,24,17738.5844812626,0.350000000005821
4,25,18971.5467663291,0.354000000006636
4,26,20628.1817451043,0.39100000000326
4,27,17134.5549637657,0.354999999995925
4,28,17815.5277879995,0.347999999998137
4,29,19187.8472765571,0.384000000005472
4,30,30295.7549504627,0.385999999998603
5,6,11742.3494361877,0.379000000000815
5,7,12095.2017532189,0.375
5,8,6219.65202005798,0.373999999996158
5,9,5027.35744013994,0.368999999991502
5,10,11824.4556977351,0.380000000004657
5,11,8306.62685259251,0.373999999996158
5,12,6831.58195461997,0.373000000006869
5,13,6320.98552554876,0.371999999988475
5,14,11265.7891110902,0.378000000011525
5,15,9946.12604929689,0.377999999996973
5,16,9093.88812675269,0.375
5,17,12849.1350273222,0.380999999993946
5,18,9507.76480682674,0.377999999996973
5,19,12335.9077604351,0.379000000000815
5,20,10392.6402603048,0.379000000000815
5,21,8845.34750909103,0.375
5,22,8739.28260875515,0.377000000007683
5,23,11005.9387664389,0.377999999996973
5,24,12490.1142332228,0.377000000007683
5,25,12657.3753762649,0.376999999993131
5,26,11975.3815067258,0.379000000000815
5,27,9585.89658531957,0.376000000003842
5,28,11220.8225802272,0.384999999994761
5,29,8469.41987522931,0.38300000000163
5,30,16576.2374741168,0.38300000000163
6,7,7253.9562164959,0.342999999993481
6,8,9358.14274878063,0.379000000000815
6,9,8748.95099084761,0.376000000003842
6,10,7910.52016829958,0.380000000004657
6,11,7127.50652878587,0.379999999990105
6,12,10040.0875534521,0.381999999997788
6,13,11570.1856676459,0.385000000009313
6,14,11629.5000035433,0.384999999994761
6,15,8084.15214063235,0.381000000008498
6,16,9911.3992934826,0.38399999999092
6,17,10521.7364198199,0.381999999997788
6,18,8522.93264742769,0.38300000000163
6,19,9659.74296585253,0.38300000000163
6,20,12517.0764432288,0.38300000000163
6,21,9300.97975536761,0.38300000000163
6,22,12609.7800908155,0.379999999990105
6,23,11215.0290635497,0.38300000000163
6,24,9319.79358707455,0.384000000005472
6,25,13449.296204738,0.385999999998603
6,26,12507.9929098846,0.384000000005472
6,27,9395.43649267071,0.381999999997788
6,28,9464.65574100806,0.38399999999092
6,29,8993.28244716998,0.38200000001234
6,30,17696.8120743124,0.388999999995576
7,8,9404.85891637199,0.380999999993946
7,9,9237.7804769689,0.381000000008498
7,10,12542.9250123675,0.38300000000163
7,11,10350.7236299555,0.379999999990105
7,12,10349.0315152485,0.377999999996973
7,13,12256.8726040916,0.38200000001234
7,14,12050.5547171679,0.415000000008149
7,15,9800.18071347617,0.346999999994296
7,16,10758.4241907824,0.347000000008848
7,17,13022.3942232558,0.345000000001164
7,18,10234.5258612319,0.347999999998137
7,19,13087.562117832,0.347000000008848
7,20,14644.0041448838,0.345000000001164
7,21,9638.06927772892,0.371999999988475
7,22,13207.6122491228,0.379000000000815
7,23,14391.6169681243,0.378000000011525
7,24,11881.0557517972,0.381999999997788
7,25,15508.810846043,0.381000000008498
7,26,10859.2515042488,0.380000000004657
7,27,10742.0179641755,0.381999999997788
7,28,11363.966562106,0.380999999993946
7,29,8815.63661233373,0.373000000006869
7,30,16549.8008080691,0.388999999995576
8,9,7381.8359635306,0.380000000004657
8,10,10504.5564909048,0.381999999997788
8,11,8940.26847975668,0.381999999997788
8,12,7471.81759733741,0.379000000000815
8,13,8012.67085762016,0.377999999996973
8,14,9394.61399550854,0.381000000008498
8,15,7511.42401286716,0.376999999993131
8,16,9112.59167226386,0.381999999997788
8,17,9836.25893316546,0.381000000008498
8,18,7394.06786344376,0.37599999998929
8,19,8841.23516568385,0.379000000000815
8,20,9620.93896893867,0.381000000008498
8,21,7641.20952158783,0.376999999993131
8,22,8546.54691501477,0.381000000008498
8,23,10876.1330512881,0.38399999999092
8,24,8740.77085084877,0.376000000003842
8,25,12219.0452902621,0.349000000001979
8,26,9283.54109768252,0.376999999993131
8,27,6818.89002245369,0.372000000003027
8,28,8143.066641938,0.369999999995343
8,29,6670.81192935602,0.377000000007683
8,30,12497.1903916752,0.38399999999092
9,10,9250.98466352239,0.384000000005472
9,11,7769.00972212833,0.380000000004657
9,12,6514.44329909141,0.37400000001071
9,13,7658.18017680646,0.385999999998603
9,14,9382.32235728492,0.380999999993946
9,15,9883.31904892472,0.384000000005472
9,16,8264.30808115815,0.38300000000163
9,17,11873.4468457702,0.38399999999092
9,18,10184.9031319678,0.384000000005472
9,19,11347.7944494845,0.384000000005472
9,20,10020.3575380627,0.380999999993946
9,21,7418.54844101145,0.380999999993946
9,22,8363.92409104335,0.38300000000163
9,23,11346.0285153504,0.384000000005472
9,24,11856.7956924324,0.384000000005472
9,25,13337.8504080568,0.385999999998603
9,26,12738.3090244132,0.384000000005472
9,27,9826.24549384023,0.38399999999092
9,28,9704.29466641492,0.385000000009313
9,29,7421.63831654828,0.380999999993946
9,30,15105.6229062114,0.385999999998603
10,11,7994.68179630957,0.381000000008498
10,12,9440.35411478934,0.380999999993946
10,13,13099.5027927413,0.387000000002445
10,14,9715.2346809978,0.414000000004307
10,15,8387.96334818697,0.349000000001979
10,16,11023.0043835733,0.350999999995111
10,17,10647.2391034835,0.345000000001164
10,18,9707.15895272264,0.347999999998137
10,19,10274.8294422051,0.349000000001979
10,20,10623.3778441978,0.342999999993481
10,21,10016.6399028048,0.376999999993131
10,22,11064.5154440984,0.378000000011525
10,23,11044.3622111291,0.375
10,24,10712.3996122624,0.377000000007683
10,25,11415.5107833822,0.375
10,26,14170.7837886775,0.379000000000815
10,27,9006.97518411492,0.37599999998929
10,28,11174.0899917513,0.379000000000815
10,29,9100.39729370258,0.373999999996158
10,30,14808.9825339399,0.380000000004657
11,12,7888.13693225586,0.373999999996158
11,13,7798.91452711667,0.373000000006869
11,14,8013.11718525026,0.375
11,15,5280.52515781678,0.370999999999185
11,16,7442.03003700567,0.376000000003842
11,17,10609.8042273164,0.379000000000815
11,18,7823.54080905455,0.375
11,19,10051.2103107367,0.377999999996973
11,20,10832.5649165076,0.377999999996973
11,21,7216.38000559336,0.372000000003027
11,22,7732.1554274432,0.371999999988475
11,23,10932.9178341666,0.387000000002445
11,24,9214.46419062508,0.381000000008498
11,25,9569.12087586089,0.38300000000163
11,26,11346.9466546662,0.385999999998603
11,27,6845.26345438729,0.377999999996973
11,28,9783.55976180155,0.346999999994296
11,29,6793.58547995028,0.375
11,30,13102.8580741805,0.377999999996973
12,13,9549.83054692132,0.375
12,14,10073.6610254291,0.385000000009313
12,15,9653.75261827509,0.379999999990105
12,16,8973.34751289632,0.381000000008498
12,17,12072.4326090643,0.385999999998603
12,18,10504.7765948908,0.384000000005472
12,19,12382.0501466352,0.385999999998603
12,20,11032.7926295386,0.38300000000163
12,21,9981.82672304136,0.381999999997788
12,22,9468.70162453697,0.380999999993946
12,23,11505.625655396,0.38300000000163
12,24,12039.7301256037,0.385999999998603
12,25,13357.7698777932,0.385000000009313
12,26,12711.4624933537,0.38399999999092
12,27,9815.66244413439,0.384000000005472
12,28,10913.8132460714,0.384999999994761
12,29,5931.26128568807,0.373000000006869
12,30,13144.4193567809,0.385999999998603
13,14,9526.41919675535,0.38300000000163
13,15,7232.23958539732,0.378000000011525
13,16,7565.4956153576,0.379999999990105
13,17,12871.0413676096,0.384999999994761
13,18,10073.1925972376,0.38200000001234
13,19,11662.9160313179,0.384999999994761
13,20,11989.7787988085,0.385999999998603
13,21,7330.60371258205,0.377999999996973
13,22,8673.87082755231,0.38300000000163
13,23,12203.321504268,0.418999999994412
13,24,10240.8147360626,0.354000000006636
13,25,11619.5344580812,0.350000000005821
13,26,9660.84066518928,0.343999999997322
13,27,8727.91767410415,0.353999999992084
13,28,10281.4488302048,0.350000000005821
13,29,8514.98337559174,0.343999999997322
13,30,14266.6476709725,0.385999999998603
14,15,6880.45003813975,0.375
14,16,8754.10601597215,0.375
14,17,8762.95650135295,0.376000000003842
14,18,10619.0830169899,0.376000000003842
14,19,8919.3060884736,0.372999999992317
14,20,9574.58079436484,0.375
14,21,5505.73825032039,0.370000000009895
14,22,7249.43231021767,0.376999999993131
14,23,13399.1769653452,0.379000000000815
14,24,8490.12132655565,0.375
14,25,10032.6352774192,0.375
14,26,11537.8974982453,0.377999999996973
14,27,7865.06843691257,0.373999999996158
14,28,8915.84168900351,0.375
14,29,6743.49772326517,0.375
14,30,8852.43125660074,0.373999999996158
15,16,7394.9164950659,0.375
15,17,8878.69704857722,0.375
15,18,6911.49209190835,0.373999999996158
15,19,8939.99722283069,0.37400000001071
15,20,10033.2127146453,0.38300000000163
15,21,5649.15565075602,0.373999999996158
15,22,8260.11829202645,0.38300000000163
15,23,10002.5081644502,0.38300000000163
15,24,6416.34730022977,0.371999999988475
15,25,8857.00748120778,0.349000000001979
15,26,8524.20043361339,0.376000000003842
15,27,5662.14661523648,0.368000000002212
15,28,8325.37943655681,0.379000000000815
15,29,6646.13419247128,0.380999999993946
15,30,10108.8513127259,0.380000000004657
16,17,9492.87959849281,0.38300000000163
16,18,9624.3381799704,0.38399999999092
16,19,9298.31876049998,0.381000000008498
16,20,9986.8355151107,0.382999999987078
16,21,6442.4079267423,0.379000000000815
16,22,7387.67982447483,0.380000000004657
16,23,11043.6450252096,0.381999999997788
16,24,8628.38207683129,0.380999999993946
16,25,9452.30796235406,0.38200000001234
16,26,10838.7583318939,0.382999999987078
16,27,7901.23675685679,0.380000000004657
16,28,10160.1901036252,0.384999999994761
16,29,6522.9840341557,0.379000000000815
16,30,9035.70448593755,0.379000000000815
17,18,7059.36307058514,0.380000000004657
17,19,5166.06936016651,0.373999999996158
17,20,7151.18796198909,0.381999999997788
17,21,8395.97230169112,0.38300000000163
17,22,9502.23918244626,0.384000000005472
17,23,8173.37173244255,0.380000000004657
17,24,4122.51374606379,0.373999999996158
17,25,6073.67188808674,0.379000000000815
17,26,9253.3883579317,0.381999999997788
17,27,6660.24830808277,0.376999999993131
17,28,6089.19941697606,0.379000000000815
17,29,9199.57011979001,0.375
17,30,11214.4015933924,0.345000000001164
18,19,7856.20194274689,0.345000000001164
18,20,9066.86257722325,0.37599999998929
18,21,9309.8817767683,0.380000000004657
18,22,10174.4590920027,0.342999999993481
18,23,5738.65432463715,0.373000000006869
18,24,6703.23370171727,0.343999999997322
18,25,9421.91353321122,0.384999999994761
18,26,7290.63392732169,0.375
18,27,4700.48986044572,0.375
18,28,5285.36188955868,0.335000000006403
18,29,7807.97086819107,0.345000000001164
18,30,12917.5157188998,0.380000000004657
19,20,7179.13042762083,0.410999999992782
19,21,7584.64263703088,0.347999999998137
19,22,7232.00676785191,0.373000000006869
19,23,9539.42583881239,0.379000000000815
19,24,5386.49596611167,0.370999999999185
19,25,6484.72735397794,0.370999999999185
19,26,11262.0513571383,0.384000000005472
19,27,7654.28526770738,0.379000000000815
19,28,8060.20392793706,0.381999999997788
19,29,7728.64744112933,0.381000000008498
19,30,11716.4062126828,0.381999999997788
20,21,8075.4188690388,0.381999999997788
20,22,6993.71864756365,0.380000000004657
20,23,9435.79406065643,0.380999999993946
20,24,8310.670934331,0.381999999997788
20,25,8153.05388834068,0.38300000000163
20,26,12314.0918657736,0.381999999997788
20,27,7698.29684051405,0.380000000004657
20,28,8873.97467899957,0.380999999993946
20,29,8841.05489578458,0.380999999993946
20,30,11270.002053266,0.38200000001234
21,22,5824.57688610327,0.379000000000815
21,23,12553.6687415826,0.384999999994761
21,24,7572.55077979997,0.380000000004657
21,25,8989.40479912194,0.381999999997788
21,26,10416.0337047693,0.380999999993946
21,27,6672.24108356448,0.380000000004657
21,28,8919.48181923521,0.414999999993597
21,29,5611.07418504086,0.342000000004191
21,30,10179.9301393252,0.346999999994296
22,23,12083.748477904,0.353000000002794
22,24,9253.02396668189,0.339999999996508
22,25,10000.8782460837,0.378000000011525
22,26,12356.2002435579,0.376999999993131
22,27,7286.54148572205,0.373999999996158
22,28,10239.3451058221,0.385999999998603
22,29,6667.951103675,0.379000000000815
22,30,11985.6041408033,0.38300000000163
23,24,8041.19775649088,0.38300000000163
23,25,8988.55261652279,0.38300000000163
23,26,9558.5161677133,0.380999999993946
23,27,7707.80005952268,0.38300000000163
23,28,7284.54272348435,0.38200000001234
23,29,10064.8187662553,0.381999999997788
23,30,15951.3377008364,0.385999999998603
24,25,5502.90484575697,0.376999999993131
24,26,7485.03092603955,0.379000000000815
24,27,6221.53621826951,0.379000000000815
24,28,6520.55672320495,0.379000000000815
24,29,8213.98996291571,0.379000000000815
24,30,11213.0418501442,0.38300000000163
25,26,10158.5142944028,0.380999999993946
25,27,8330.67189158146,0.38300000000163
25,28,10477.6236424371,0.38300000000163
25,29,9941.61015221422,0.380000000004657
25,30,12915.8643474158,0.348999999987427
26,27,6902.42659876693,0.375
26,28,5990.31303530073,0.369000000006054
26,29,9386.83704520406,0.38300000000163
26,30,12961.9671780041,0.382999999987078
27,28,5231.59216999998,0.376000000003842
27,29,6919.44961786537,0.381000000008498
27,30,10260.0697631292,0.380999999993946
28,29,8820.48179374218,0.377999999996973
28,30,11792.8435019844,0.385000000009313
29,30,9772.52441948942,0.380999999993946


"After.Trace.ID","Before.Trace.ID","Difference","Runtime"
1,1,10749.7115204747,0.380999999993946
1,2,6586.06185356202,0.379000000000815
1,3,11743.4637745053,0.381000000008498
1,4,14975.3086452705,0.382999999987078
1,5,9398.76605566877,0.379000000000815
1,6,10478.707176402,0.380000000004657
1,7,14294.7278790523,0.379000000000815
1,8,9860.02144316136,0.376999999993131
1,9,10473.0741823134,0.380000000004657
1,10,10569.6129833623,0.381000000008498
1,11,6468.84065663185,0.379000000000815
1,12,8839.1966834605,0.379999999990105
1,13,9417.42378384067,0.380000000004657
1,14,11395.5101692702,0.38300000000163
1,15,7778.24737872637,0.380999999993946
1,16,9606.8732253419,0.377999999996973
1,17,11433.3469037448,0.379000000000815
1,18,8921.34212479842,0.38300000000163
1,19,11418.3457652081,0.342000000004191
1,20,12644.0456980919,0.345999999990454
1,21,10264.9841359627,0.385999999998603
1,22,10643.619455141,0.373000000006869
1,23,11295.0958758594,0.38300000000163
1,24,10684.6968912841,0.347999999998137
1,25,11366.2839646715,0.343999999997322
1,26,11373.2580124839,0.380000000004657
1,27,7494.54098483686,0.342000000004191
1,28,10394.7201425106,0.341000000000349
1,29,9512.68135897195,0.37599999998929
1,30,16521.4809516756,0.355999999999767
2,1,6945.89759656852,0.375
2,2,7912.66484808721,0.377000000007683
2,3,11374.2263452955,0.377999999996973
2,4,17303.7763190106,0.381999999997788
2,5,10079.7741336547,0.380999999993946
2,6,9109.88021148095,0.377999999996973
2,7,11240.1162965925,0.376000000003842
2,8,8930.99274193091,0.377999999996973
2,9,10304.438628266,0.380000000004657
2,10,9807.48078127912,0.381000000008498
2,11,4314.76013145349,0.371999999988475
2,12,8376.1998653621,0.377000000007683
2,13,7343.50828894654,0.376999999993131
2,14,7893.91876300073,0.377999999996973
2,15,4407.02100466427,0.373000000006869
2,16,7407.31905809001,0.376999999993131
2,17,9870.60100513866,0.342000000004191
2,18,7817.84813133964,0.345000000001164
2,19,10413.2296775545,0.38399999999092
2,20,11527.5669410768,0.377000000007683
2,21,6622.10901015872,0.341000000000349
2,22,9041.06982344889,0.345999999990454
2,23,11217.2827963977,0.379000000000815
2,24,8174.02412547885,0.341000000000349
2,25,9133.62752079545,0.377999999996973
2,26,9915.44990997778,0.413000000000466
2,27,6623.49355189772,0.343999999997322
2,28,9622.65422107719,0.375
2,29,6801.49385529173,0.342999999993481
2,30,13019.330678261,0.379000000000815
3,1,18784.1495040162,0.380000000004657
3,2,14439.3038453757,0.387000000002445
3,3,13491.0795459843,0.384999999994761
3,4,17469.2173398221,0.384999999994761
3,5,14152.2476523095,0.38200000001234
3,6,12672.1054901804,0.38399999999092
3,7,13312.2423532146,0.38300000000163
3,8,11198.764331973,0.384000000005472
3,9,12623.4283536788,0.38399999999092
3,10,12751.3113890035,0.38300000000163
3,11,13365.62503439,0.385999999998603
3,12,13192.0643687588,0.388000000006286
3,13,15979.3411714635,0.347999999998137
3,14,12701.6004240274,0.343999999997322
3,15,11977.6550012261,0.388999999995576
3,16,12697.6049362663,0.381999999997788
3,17,6013.43153597031,0.373999999996158
3,18,7115.7178781561,0.349000000001979
3,19,7439.09608134144,0.373000000006869
3,20,9084.01745325054,0.343999999997322
3,21,11230.9077247725,0.377999999996973
3,22,12788.0755821769,0.343999999997322
3,23,7929.31178158864,0.346999999994296
3,24,7170.31746815193,0.375
3,25,8616.85491870244,0.377000000007683
3,26,8137.22817013318,0.376000000003842
3,27,9423.025720586,0.376999999993131
3,28,6784.16689148752,0.376000000003842
3,29,10274.7577338242,0.380000000004657
3,30,12653.5763152019,0.379999999990105
4,1,12136.4515370864,0.381999999997788
4,2,11641.6806747191,0.381999999997788
4,3,10309.7456712487,0.377000000007683
4,4,15896.7960486742,0.385999999998603
4,5,11139.3332200354,0.385999999998603
4,6,8800.51081063107,0.377999999996973
4,7,9596.65610984437,0.342000000004191
4,8,7660.56494218898,0.342999999993481
4,9,10920.9345996852,0.389999999999418
4,10,10417.9758007458,0.378000000011525
4,11,7721.29328854055,0.384999999994761
4,12,11065.7797873059,0.384999999994761
4,13,9364.73292279868,0.351999999998952
4,14,10103.5502750792,0.377000000007683
4,15,6400.16239476665,0.341000000000349
4,16,8567.59346706291,0.345999999990454
4,17,7302.50448288854,0.373000000006869
4,18,4458.56909566065,0.372999999992317
4,19,8257.63318369273,0.377999999996973
4,20,9270.72172561542,0.375
4,21,8639.43211446119,0.377000000007683
4,22,10425.9541955602,0.376000000003842
4,23,6385.85401648873,0.372999999992317
4,24,5715.79577621932,0.381000000008498
4,25,8232.06781788152,0.379999999990105
4,26,6247.96287200868,0.377000000007683
4,27,5176.64019970813,0.376999999993131
4,28,6801.73897344495,0.380000000004657
4,29,8021.75808606064,0.381999999997788
4,30,12063.5627649897,0.384999999994761
5,1,10202.1079555999,0.38300000000163
5,2,10313.929143131,0.38300000000163
5,3,13119.3160808131,0.380000000004657
5,4,17413.6299890131,0.38399999999092
5,5,8187.09479882208,0.343000000008033
5,6,8719.62543297805,0.345000000001164
5,7,10582.8269596714,0.382999999987078
5,8,7207.95251624722,0.337000000014086
5,9,8725.16989553828,0.344999999986612
5,10,9795.67343442991,0.388000000006286
5,11,6151.92592340092,0.376000000003842
5,12,8298.04318619326,0.343999999997322
5,13,7173.6485498808,0.346999999994296
5,14,9130.6415525423,0.350000000005821
5,15,5147.56843421918,0.369000000006054
5,16,8600.1148889676,0.379999999990105
5,17,9678.92260106456,0.369000000006054
5,18,7543.58102574305,0.381999999997788
5,19,9736.8525539245,0.377000000007683
5,20,10819.7220494923,0.384999999994761
5,21,7810.7633835008,0.376000000003842
5,22,10412.5949765529,0.381999999997788
5,23,10280.6798700558,0.38399999999092
5,24,8220.68742425883,0.376000000003842
5,25,10309.4422337149,0.388000000006286
5,26,9058.54452161555,0.376999999993131
5,27,7393.03888481829,0.379000000000815
5,28,9033.62084745904,0.380000000004657
5,29,6759.87954046712,0.379000000000815
5,30,12473.9404102794,0.387999999991735
6,1,14534.6620693509,0.385999999998603
6,2,13656.3600798001,0.384000000005472
6,3,14914.2047769694,0.387000000002445
6,4,20504.2216773687,0.388999999995576
6,5,10031.3017302155,0.380999999993946
6,6,11918.19355638,0.385000000009313
6,7,12954.1335384104,0.381999999997788
6,8,6506.20982060087,0.376000000003842
6,9,9647.67793910025,0.347999999998137
6,10,10858.743941483,0.379000000000815
6,11,8694.49599217918,0.376999999993131
6,12,8072.62242995884,0.377999999996973
6,13,9025.55637620906,0.379000000000815
6,14,7726.31974686639,0.341000000000349
6,15,8509.89570889245,0.341000000000349
6,16,8290.03859571991,0.350000000005821
6,17,9145.05896905497,0.342999999993481
6,18,9711.21172010533,0.377999999996973
6,19,9058.34640362313,0.340000000011059
6,20,9752.90957245819,0.341999999989639
6,21,8466.79539438154,0.342000000004191
6,22,8755.05693108158,0.342999999993481
6,23,12202.8092028733,0.342000000004191
6,24,8714.33839201385,0.342000000004191
6,25,10950.1585839647,0.347000000008848
6,26,10327.4895407547,0.342999999993481
6,27,7127.39469563134,0.343999999997322
6,28,9623.91191491237,0.38300000000163
6,29,7804.53247309193,0.377000000007683
6,30,8881.07133838004,0.384999999994761
7,1,12654.2227442272,0.384000000005472
7,2,14591.7005545122,0.38399999999092
7,3,15252.9852046678,0.385000000009313
7,4,22324.5799502098,0.388999999995576
7,5,12118.0125818702,0.346999999994296
7,6,12261.1978916482,0.344000000011874
7,7,12945.5260814349,0.385999999998603
7,8,8688.42685598698,0.379000000000815
7,9,11574.3781137617,0.345999999990454
7,10,12752.4318154287,0.381000000008498
7,11,9097.3328335592,0.414999999993597
7,12,10315.0811078858,0.380000000004657
7,13,9520.69440138419,0.414999999993597
7,14,8045.78207745868,0.349000000001979
7,15,8006.28760253726,0.373999999996158
7,16,8074.86257642191,0.379999999990105
7,17,7367.58381862379,0.377000000007683
7,18,10458.1562405199,0.38300000000163
7,19,7519.48617838887,0.380999999993946
7,20,10281.7329289202,0.381999999997788
7,21,8375.85285319615,0.379000000000815
7,22,9839.36081150107,0.38300000000163
7,23,12541.3476726267,0.384999999994761
7,24,6123.0995842705,0.373000000006869
7,25,8370.76135466707,0.377999999996973
7,26,10230.6558575374,0.380000000004657
7,27,8254.85742715709,0.379000000000815
7,28,10505.6238770536,0.379999999990105
7,29,8086.40135409347,0.380000000004657
7,30,8506.8463275075,0.377000000007683
8,1,14082.7091055455,0.384000000005472
8,2,13239.7886897371,0.384000000005472
8,3,12122.3078530217,0.382999999987078
8,4,17447.4863564855,0.385000000009313
8,5,13043.3216513879,0.385999999998603
8,6,11330.8823754416,0.376999999993131
8,7,12136.8221186897,0.384999999994761
8,8,9118.19377568535,0.379000000000815
8,9,12396.5444065651,0.347999999998137
8,10,11065.7773303587,0.343000000008033
8,11,9442.78218616603,0.384999999994761
8,12,11249.4542892507,0.379000000000815
8,13,10258.2477383844,0.347999999998137
8,14,8848.5332016374,0.377000000007683
8,15,7129.53744726734,0.339999999996508
8,16,8348.38646141158,0.377000000007683
8,17,5613.65087307805,0.407999999995809
8,18,6424.68961323176,0.345999999990454
8,19,8466.10984816957,0.373000000006869
8,20,10119.1484531904,0.380999999993946
8,21,9022.87663590073,0.378000000011525
8,22,11199.2165157589,0.379000000000815
8,23,7801.71651727442,0.376000000003842
8,24,4490.33236025657,0.375
8,25,7367.65896163631,0.376000000003842
8,26,7415.18121991394,0.338999999992666
8,27,5717.59554619761,0.341000000000349
8,28,7192.68026635241,0.384000000005472
8,29,8984.55797955102,0.377999999996973
8,30,8902.96980998427,0.376000000003842
9,1,14944.0246460569,0.355000000010477
9,2,15776.4151801861,0.384999999994761
9,3,13201.006564045,0.347999999998137
9,4,20476.7491382165,0.380000000004657
9,5,16094.9893303442,0.347999999998137
9,6,14871.5758081976,0.352999999988242
9,7,15655.2340361024,0.379000000000815
9,8,12466.9903524375,0.379000000000815
9,9,15051.4834605573,0.38300000000163
9,10,13068.0301844351,0.377999999996973
9,11,13779.6098626336,0.351999999998952
9,12,15082.637958624,0.38300000000163
9,13,15144.6757278747,0.38200000001234
9,14,9643.56997763617,0.376999999993131
9,15,11153.9582344731,0.376000000003842
9,16,11857.7712892335,0.38399999999092
9,17,5998.61424401249,0.379000000000815
9,18,9873.70442637023,0.384000000005472
9,19,6670.94866639938,0.376999999993131
9,20,8968.49017533776,0.381999999997788
9,21,10942.6862009156,0.384000000005472
9,22,12252.9226934286,0.381999999997788
9,23,10385.8653263945,0.379999999990105
9,24,6212.72046384325,0.375
9,25,6168.84744050754,0.373000000006869
9,26,10677.0459258105,0.380000000004657
9,27,9756.63436974022,0.380000000004657
9,28,10310.6345846716,0.380000000004657
9,29,10978.9524689236,0.38399999999092
9,30,11308.2092632404,0.38300000000163
10,1,10085.3308494483,0.377000000007683
10,2,12246.2610092405,0.38399999999092
10,3,14548.6021173094,0.384000000005472
10,4,24445.0460214867,0.387999999991735
10,5,10547.2815052914,0.379000000000815
10,6,11714.0961814491,0.384000000005472
10,7,10949.26184339,0.372999999992317
10,8,9290.2647544832,0.381000000008498
10,9,9680.53334644054,0.410000000003492
10,10,12698.3302158069,0.347999999998137
10,11,8146.29685579129,0.347000000008848
10,12,9634.66840573049,0.339999999996508
10,13,7870.60070561888,0.343000000008033
10,14,4962.17405438535,0.372999999992317
10,15,7049.29321357167,0.338000000003376
10,16,7167.68058022022,0.335999999995693
10,17,11433.6353413577,0.339999999996508
10,18,10979.1934503902,0.349000000001979
10,19,11165.4495910874,0.353000000002794
10,20,11737.2737694677,0.379999999990105
10,21,5434.11402664058,0.365000000005239
10,22,8435.59366320669,0.381999999997788
10,23,15104.6580810259,0.349000000001979
10,24,9913.56931075448,0.380999999993946
10,25,11189.2077772912,0.385999999998603
10,26,9716.19928064686,0.384000000005472
10,27,8370.91251102596,0.380999999993946
10,28,11122.160510817,0.378000000011525
10,29,6081.25111192686,0.375
10,30,9136.52259970056,0.339999999996508
11,1,13892.3416634269,0.346000000005006
11,2,17720.4201129665,0.351999999998952
11,3,17069.8190011766,0.381999999997788
11,4,23005.4158104162,0.387000000002445
11,5,15556.7612430042,0.346999999994296
11,6,16499.0418204842,0.38300000000163
11,7,17777.9379440817,0.39100000000326
11,8,13810.5745045748,0.384999999994761
11,9,14503.6803219808,0.413000000000466
11,10,14669.5900029899,0.350999999995111
11,11,13260.5180749048,0.385999999998603
11,12,14552.5645149125,0.385000000009313
11,13,12962.1731494796,0.346999999994296
11,14,9104.17695263621,0.339999999996508
11,15,11609.0155886137,0.388999999995576
11,16,10464.2551866018,0.379000000000815
11,17,9441.89232808481,0.343000000008033
11,18,12141.2089163555,0.350999999995111
11,19,9589.35454632401,0.380000000004657
11,20,12043.835932352,0.343999999997322
11,21,11357.5742008487,0.379000000000815
11,22,12186.4226071501,0.353000000002794
11,23,13252.2545193117,0.381999999997788
11,24,8380.97609185094,0.375
11,25,7497.46994398326,0.375
11,26,11856.1359007987,0.384000000005472
11,27,11586.6063136748,0.380000000004657
11,28,13151.7120534868,0.379000000000815
11,29,11577.0356857241,0.377999999996973
11,30,9422.01196267865,0.377999999996973
12,1,18755.7673978068,0.377999999996973
12,2,17637.282144165,0.380000000004657
12,3,14793.4580886303,0.377999999996973
12,4,21754.891141958,0.38300000000163
12,5,16931.0519193907,0.387999999991735
12,6,15346.9090803291,0.384000000005472
12,7,16886.3863976633,0.38399999999092
12,8,12357.1458347004,0.385000000009313
12,9,15539.8432344558,0.415999999997439
12,10,13922.0675854094,0.346000000005006
12,11,13204.9817656997,0.348999999987427
12,12,12835.8674764754,0.346000000005006
12,13,15361.5825500375,0.350999999995111
12,14,11123.1930650709,0.349000000001979
12,15,12802.7611410665,0.343999999997322
12,16,10889.1020801101,0.377000000007683
12,17,8118.91352645275,0.370999999999185
12,18,11790.1227303073,0.379000000000815
12,19,7885.46818655543,0.370999999999185
12,20,11360.6387351354,0.378000000011525
12,21,12545.4108191273,0.376999999993131
12,22,12496.7900459812,0.379000000000815
12,23,13805.0779880565,0.377999999996973
12,24,8709.69668170897,0.369000000006054
12,25,10339.0702476812,0.378000000011525
12,26,13655.6191591965,0.378999999986263
12,27,10377.2016382022,0.376000000003842
12,28,11255.5235314656,0.377000000007683
12,29,11399.2757524594,0.379000000000815
12,30,11058.6564646132,0.375
13,1,13302.8228593756,0.379000000000815
13,2,10480.2205787457,0.375
13,3,10971.0279971214,0.37599999998929
13,4,17603.2823720433,0.381000000008498
13,5,9116.65468378206,0.373999999996158
13,6,10469.7467361608,0.375
13,7,11355.4250827005,0.379000000000815
13,8,6858.88888042228,0.376999999993131
13,9,8845.70018473625,0.385999999998603
13,10,9824.75468121255,0.38300000000163
13,11,7127.05662118272,0.378000000011525
13,12,8905.34329621572,0.346999999994296
13,13,8622.82578933765,0.373999999996158
13,14,8595.50136077299,0.373000000006869
13,15,6924.92484669968,0.372000000003027
13,16,6376.36724220918,0.375
13,17,6973.62076671639,0.371000000013737
13,18,5377.66814643431,0.376999999993131
13,19,8021.07177963971,0.381999999997788
13,20,8930.70455890053,0.38300000000163
13,21,7379.50030543755,0.381999999997788
13,22,7816.8539650354,0.379000000000815
13,23,8221.41836931283,0.381999999997788
13,24,6392.88426629272,0.376000000003842
13,25,9474.06999989848,0.384000000005472
13,26,8244.36029907069,0.377999999996973
13,27,4328.22790093303,0.375
13,28,5949.46580779808,0.377999999996973
13,29,6300.04903824329,0.381999999997788
13,30,10241.8869111362,0.385999999998603
14,1,11260.158653055,0.381999999997788
14,2,13862.0842343443,0.385000000009313
14,3,12819.41027488,0.384999999994761
14,4,17595.9188296821,0.385999999998603
14,5,14932.8722995364,0.388000000006286
14,6,13334.0895933606,0.385999999998603
14,7,14072.8990750823,0.38200000001234
14,8,11805.7894167902,0.385999999998603
14,9,16558.55158904,0.387999999991735
14,10,13189.5477662849,0.384000000005472
14,11,10290.5739473721,0.381999999997788
14,12,13255.2980719171,0.418999999994412
14,13,12494.4721927314,0.354000000006636
14,14,11018.9765964597,0.347999999998137
14,15,8551.68236895691,0.342000000004191
14,16,11012.906179764,0.347999999998137
14,17,8812.82316957143,0.345000000001164
14,18,8312.54386583791,0.342999999993481
14,19,9824.49409738001,0.375
14,20,13301.6690720707,0.380999999993946
14,21,11166.9648017204,0.37400000001071
14,22,13912.8726877774,0.379000000000815
14,23,11352.5961486611,0.37599999998929
14,24,7458.08183905825,0.369000000006054
14,25,6931.60643646639,0.373999999996158
14,26,10578.1963314214,0.380000000004657
14,27,9622.36856247307,0.375
14,28,12562.976890045,0.379000000000815
14,29,9604.1278133766,0.376000000003842
14,30,14011.3244985452,0.376999999993131
15,1,10558.586574528,0.375
15,2,11915.3943850537,0.377999999996973
15,3,11192.6234184504,0.375
15,4,20271.2599781787,0.381999999997788
15,5,11908.4560785494,0.377000000007683
15,6,11979.347624766,0.379999999990105
15,7,13980.0054308338,0.377000000007683
15,8,9764.57434933389,0.375
15,9,11295.0947625304,0.376999999993131
15,10,10223.7791520695,0.385000000009313
15,11,8702.64669759599,0.37599999998929
15,12,11060.2061048681,0.388000000006286
15,13,11198.9345061184,0.384999999994761
15,14,7219.34703109468,0.377999999996973
15,15,8169.43024370839,0.343000000008033
15,16,9061.23027278692,0.377999999996973
15,17,6043.26448498943,0.368000000002212
15,18,8830.61231584172,0.387000000002445
15,19,5357.26333747173,0.376999999993131
15,20,7248.15187017515,0.381999999997788
15,21,7959.75248654704,0.38200000001234
15,22,7157.70782329483,0.380999999993946
15,23,10345.1662568074,0.384000000005472
15,24,6637.5074043183,0.37599999998929
15,25,6451.06707305583,0.378000000011525
15,26,10156.3949762136,0.385999999998603
15,27,7153.98299062713,0.377999999996973
15,28,8179.83426025034,0.381999999997788
15,29,7638.85800290098,0.381999999997788
15,30,10519.5286408704,0.381000000008498
16,1,12172.0940407834,0.381000000008498
16,2,10889.7421801622,0.38300000000163
16,3,11466.221632771,0.38399999999092
16,4,18583.1850878097,0.385999999998603
16,5,9241.2666933196,0.38200000001234
16,6,10542.6988713697,0.381999999997788
16,7,12498.639812522,0.376999999993131
16,8,7657.27616573909,0.384000000005472
16,9,8286.96757416865,0.381999999997788
16,10,9502.15394477454,0.376000000003842
16,11,7303.55005490495,0.384999999994761
16,12,9177.148330564,0.384000000005472
16,13,8539.1666487025,0.379999999990105
16,14,7305.12860027885,0.378000000011525
16,15,7734.75775222535,0.41799999999057
16,16,6718.84334700171,0.346000000005006
16,17,5741.82611187602,0.343999999997322
16,18,7011.92501737602,0.343999999997322
16,19,6386.79050033298,0.343999999997322
16,20,6909.08052767796,0.345000000001164
16,21,7039.35730542859,0.339999999996508
16,22,6538.31913540193,0.376000000003842
16,23,8329.89981630381,0.379000000000815
16,24,5426.4955565861,0.368000000002212
16,25,7478.35039939808,0.375
16,26,11071.7646937145,0.377999999996973
16,27,5576.06232286276,0.368000000002212
16,28,7799.01768787572,0.373999999996158
16,29,7268.75614904088,0.376000000003842
16,30,10561.3619072487,0.377999999996973
17,1,17923.4584917201,0.380999999993946
17,2,13353.4687633845,0.377999999996973
17,3,13334.0551661051,0.377000000007683
17,4,18833.9259233516,0.380999999993946
17,5,10585.2769832751,0.378000000011525
17,6,11882.1351538087,0.37599999998929
17,7,14137.9044491049,0.377999999996973
17,8,8988.99748387025,0.37400000001071
17,9,9670.78751750254,0.376999999993131
17,10,11707.1072640443,0.377999999996973
17,11,10796.6505143345,0.375
17,12,10777.8093335882,0.375
17,13,12249.500515754,0.385000000009313
17,14,9712.88838163641,0.381999999997788
17,15,10620.0238636647,0.380999999993946
17,16,9433.22485899008,0.381000000008498
17,17,5741.61619761222,0.370999999999185
17,18,8172.49369801899,0.344999999986612
17,19,7130.12165268153,0.376000000003842
17,20,6875.73968943993,0.372999999992317
17,21,9494.16592383699,0.385000000009313
17,22,8444.51252289066,0.38300000000163
17,23,9339.4776330788,0.379000000000815
17,24,7289.58098472144,0.377999999996973
17,25,8953.86490616823,0.384999999994761
17,26,12046.0970090378,0.381000000008498
17,27,7783.53664483186,0.377999999996973
17,28,7641.03152573675,0.38300000000163
17,29,9146.15530538029,0.381999999997788
17,30,10488.5670433491,0.381999999997788
18,1,10206.0556344978,0.380999999993946
18,2,10981.0502711378,0.384000000005472
18,3,12020.8516354377,0.384000000005472
18,4,20666.8652805453,0.387000000002445
18,5,12376.6693186481,0.384999999994761
18,6,10928.8223480762,0.384999999994761
18,7,10994.6670100612,0.379000000000815
18,8,9889.10732784031,0.381000000008498
18,9,10999.1917769405,0.38300000000163
18,10,11054.9858601288,0.382999999987078
18,11,7142.51695781174,0.38200000001234
18,12,10271.5742068221,0.382999999987078
18,13,10187.2293479195,0.381000000008498
18,14,7896.79046739599,0.380999999993946
18,15,6689.43589836012,0.379000000000815
18,16,7452.48458332478,0.380000000004657
18,17,10170.3323317486,0.384999999994761
18,18,8846.92717417801,0.417000000001281
18,19,9208.26722682043,0.351000000009662
18,20,9754.20068695064,0.349000000001979
18,21,6837.75879990358,0.339999999996508
18,22,7893.72683107161,0.345000000001164
18,23,10332.9143898526,0.347999999998137
18,24,9069.4444017004,0.344000000011874
18,25,9040.73311667884,0.379999999990105
18,26,8383.57610663141,0.377000000007683
18,27,6475.59991085038,0.376999999993131
18,28,8996.95224641082,0.377999999996973
18,29,6061.69818771606,0.373000000006869
18,30,10094.8662088209,0.380999999993946
19,1,8050.30680412578,0.37400000001071
19,2,10687.2069807178,0.38399999999092
19,3,14707.0458956912,0.381000000008498
19,4,21081.0745254553,0.386999999987893
19,5,13016.5569910641,0.381000000008498
19,6,11441.4474283803,0.377999999996973
19,7,13047.4364517756,0.377000000007683
19,8,13087.6454736813,0.377999999996973
19,9,11834.5090893064,0.376000000003842
19,10,11981.6484074403,0.377999999996973
19,11,7483.04309371813,0.369999999995343
19,12,11069.5720513644,0.377999999996973
19,13,9200.88112232694,0.38300000000163
19,14,9004.34432823295,0.381000000008498
19,15,6521.65450377519,0.373999999996158
19,16,8852.09032217782,0.381999999997788
19,17,13385.5455672246,0.387000000002445
19,18,12244.8590535341,0.387000000002445
19,19,11519.7477473551,0.381999999997788
19,20,13092.2272605773,0.380999999993946
19,21,7957.29409922671,0.339000000007218
19,22,10469.1919814442,0.379000000000815
19,23,11965.5640595782,0.37599999998929
19,24,11834.7214031448,0.377000000007683
19,25,9928.72387079416,0.379000000000815
19,26,10788.4633489608,0.373999999996158
19,27,10410.675762542,0.377999999996973
19,28,13390.3735666008,0.379000000000815
19,29,7814.73105452236,0.369000000006054
19,30,13206.8115599594,0.381999999997788
20,1,9197.12469411833,0.379999999990105
20,2,10669.3993276543,0.385999999998603
20,3,12794.5557230622,0.385000000009313
20,4,22493.9029182758,0.387999999991735
20,5,14285.7449961186,0.384000000005472
20,6,11791.925335037,0.38300000000163
20,7,13966.7658437836,0.380999999993946
20,8,13786.3763503791,0.38300000000163
20,9,13004.037505392,0.384999999994761
20,10,12198.4158782774,0.381999999997788
20,11,7865.10650054034,0.375
20,12,12649.1712751265,0.38300000000163
20,13,11248.4725073271,0.379000000000815
20,14,9166.10476495322,0.38300000000163
20,15,6873.18702604295,0.376000000003842
20,16,9623.889452652,0.381000000008498
20,17,10709.4833438106,0.386999999987893
20,18,10565.2220672878,0.384000000005472
20,19,9970.89252927296,0.381999999997788
20,20,11855.4744503296,0.385999999998603
20,21,8546.72575171016,0.376999999993131
20,22,9004.98109179189,0.37400000001071
20,23,10688.3161596926,0.347999999998137
20,24,9266.33150895503,0.342999999993481
20,25,8249.67949197364,0.37400000001071
20,26,10260.7590747429,0.347999999998137
20,27,8561.26235591617,0.408999999999651
20,28,10462.7909945704,0.341000000000349
20,29,7497.30715094539,0.336999999999534
20,30,13320.6696405976,0.341999999989639
21,1,13515.3861195784,0.342000000004191
21,2,9944.68024064821,0.346000000005006
21,3,13226.6234343036,0.342000000004191
21,4,22714.7721014734,0.385999999998603
21,5,13974.0491965697,0.381999999997788
21,6,12705.9670256453,0.380999999993946
21,7,12190.6030271701,0.377999999996973
21,8,11411.1430634589,0.384000000005472
21,9,12385.6005752366,0.384999999994761
21,10,13446.5532905116,0.385999999998603
21,11,11054.8968356104,0.385000000009313
21,12,12671.288128685,0.381999999997788
21,13,11045.6030041659,0.379000000000815
21,14,11124.2206051393,0.381999999997788
21,15,8392.5971448458,0.339999999996508
21,16,9988.56140318532,0.344000000011874
21,17,9737.06994150754,0.343999999997322
21,18,10011.2505292372,0.379999999990105
21,19,9411.6609144605,0.379000000000815
21,20,11435.590912368,0.38300000000163
21,21,8118.01926102955,0.341000000000349
21,22,9901.91442836053,0.343000000008033
21,23,10262.0820157842,0.346999999994296
21,24,9370.81212819641,0.375
21,25,9842.37384784511,0.342000000004191
21,26,8189.25156169623,0.342999999993481
21,27,8957.54249087195,0.38300000000163
21,28,8066.45104576104,0.341000000000349
21,29,7708.89838724459,0.339999999996508
21,30,12458.8550938837,0.392000000007101
22,1,15033.9302296949,0.380999999993946
22,2,10328.9782038014,0.346000000005006
22,3,12092.1312127981,0.346000000005006
22,4,19553.2888631278,0.388999999995576
22,5,12356.0180043056,0.353000000002794
22,6,12248.9111412669,0.381999999997788
22,7,14337.3705737008,0.376999999993131
22,8,9948.67535353157,0.377000000007683
22,9,10919.8868733879,0.377999999996973
22,10,12470.4674680741,0.380000000004657
22,11,10203.9531600744,0.376999999993131
22,12,12595.7589625027,0.379000000000815
22,13,10671.148933262,0.375
22,14,10765.5997449583,0.376999999993131
22,15,8542.03714896182,0.375
22,16,9831.73505880257,0.37400000001071
22,17,7865.787475737,0.375
22,18,7020.12123451665,0.373999999996158
22,19,7496.56244765107,0.368999999991502
22,20,8971.0230074252,0.377999999996973
22,21,8551.62101818426,0.373000000006869
22,22,8618.73464874607,0.376000000003842
22,23,7123.54872261982,0.375
22,24,7997.94880332546,0.373000000006869
22,25,9509.81958027689,0.373999999996158
22,26,8259.74266667909,0.38300000000163
22,27,6856.89199577078,0.376000000003842
22,28,5776.0836505101,0.379000000000815
22,29,7727.88980550613,0.384999999994761
22,30,12376.0192645781,0.380999999993946
23,1,16181.2212952302,0.349000000001979
23,2,12616.7122000671,0.380000000004657
23,3,13290.1357095715,0.376999999993131
23,4,18140.7037808765,0.387000000002445
23,5,10992.2057314853,0.384000000005472
23,6,10516.0406987972,0.38399999999092
23,7,12395.2722780355,0.38300000000163
23,8,7903.58746579541,0.380999999993946
23,9,9580.48798260615,0.381999999997788
23,10,10294.3216429444,0.385000000009313
23,11,9131.71707086966,0.381999999997788
23,12,8995.19285222694,0.381999999997788
23,13,10994.3486638568,0.384000000005472
23,14,8863.16084456033,0.380999999993946
23,15,8909.79741668374,0.38300000000163
23,16,8530.41680845983,0.379000000000815
23,17,5174.68228504785,0.372000000003027
23,18,7682.93504325879,0.38399999999092
23,19,6840.28864352592,0.381000000008498
23,20,8294.8787692198,0.379999999990105
23,21,8906.06008806344,0.380999999993946
23,22,9259.94193767797,0.384000000005472
23,23,8924.64552198878,0.380999999993946
23,24,6153.52986106732,0.376000000003842
23,25,9190.60036589413,0.385999999998603
23,26,9780.51403584299,0.381999999997788
23,27,6631.50739447755,0.381000000008498
23,28,6807.65646220506,0.377999999996973
23,29,8042.29904491486,0.384000000005472
23,30,9201.42816961147,0.38300000000163
24,1,16546.9234447856,0.420999999987544
24,2,11397.337001262,0.355000000010477
24,3,11460.2110640586,0.349999999991269
24,4,14019.250401171,0.347000000008848
24,5,9086.12621482418,0.352999999988242
24,6,8621.38356066024,0.349000000001979
24,7,9421.30401748562,0.342000000004191
24,8,8929.28478123866,0.381999999997788
24,9,8286.01001566008,0.381999999997788
24,10,11352.5321800298,0.38300000000163
24,11,9106.1929803834,0.38300000000163
24,12,10694.7505354717,0.381999999997788
24,13,9980.01243084751,0.379000000000815
24,14,13358.8028868893,0.384999999994761
24,15,9470.09510488406,0.38300000000163
24,16,9250.75194057655,0.379000000000815
24,17,10730.1643085607,0.381999999997788
24,18,5724.16104028579,0.376000000003842
24,19,11347.3603388848,0.387000000002445
24,20,10835.4605210585,0.384999999994761
24,21,10427.3730393655,0.384000000005472
24,22,11244.6196557125,0.38300000000163
24,23,7542.83582866554,0.380999999993946
24,24,9578.47647704851,0.380999999993946
24,25,13334.6331866496,0.385000000009313
24,26,9243.07134995759,0.380999999993946
24,27,7845.00085436134,0.380000000004657
24,28,7108.66863069094,0.376000000003842
24,29,9741.99463798541,0.387999999991735
24,30,16299.3594175555,0.384999999994761
25,1,14993.3498688756,0.384000000005472
25,2,13074.5066647644,0.385999999998603
25,3,15842.042516457,0.384000000005472
25,4,22309.743846325,0.353000000002794
25,5,8280.84777782047,0.37599999998929
25,6,12116.4465085138,0.379000000000815
25,7,10068.4871676779,0.376000000003842
25,8,6885.82085088612,0.377999999996973
25,9,6086.63911249594,0.379000000000815
25,10,12720.8808169815,0.388999999995576
25,11,9690.63856185191,0.384000000005472
25,12,7923.40804447339,0.380000000004657
25,13,7849.99668336985,0.377999999996973
25,14,8617.11726556299,0.38300000000163
25,15,9431.72577874247,0.380999999993946
25,16,8399.44836021885,0.381999999997788
25,17,11562.3514181098,0.38200000001234
25,18,11086.7864895156,0.386999999987893
25,19,11645.9314984104,0.38200000001234
25,20,12541.6040495214,0.382999999987078
25,21,7517.04916637013,0.377000000007683
25,22,9950.94601847215,0.385999999998603
25,23,13652.6053131037,0.385999999998603
25,24,11870.4259950885,0.384000000005472
25,25,14142.4258216073,0.387000000002445
25,26,9402.41146003596,0.379999999990105
25,27,8942.32197174577,0.381000000008498
25,28,8895.41427770824,0.380999999993946
25,29,7695.51546536114,0.380000000004657
25,30,11060.910469716,0.384000000005472
26,1,12752.1382760859,0.38300000000163
26,2,12557.0977125655,0.38399999999092
26,3,11964.1857151708,0.384000000005472
26,4,18644.9787819719,0.421000000002095
26,5,12782.4053633075,0.354999999995925
26,6,9962.89158441814,0.349000000001979
26,7,10994.7405156544,0.343999999997322
26,8,7884.70186023196,0.346000000005006
26,9,12434.906469982,0.349999999991269
26,10,10156.3261680003,0.343999999997322
26,11,8538.07803787614,0.377999999996973
26,12,10677.3003374376,0.380999999993946
26,13,11016.4599433819,0.376000000003842
26,14,10436.3234870681,0.380000000004657
26,15,6457.40803669894,0.372000000003027
26,16,10366.7744925372,0.380999999993946
26,17,7344.10430613389,0.373000000006869
26,18,5196.29951734916,0.375
26,19,8043.02928005742,0.375
26,20,10591.1367485493,0.38200000001234
26,21,9630.80545167931,0.377999999996973
26,22,11348.5554307943,0.377000000007683
26,23,7591.89889888945,0.373999999996158
26,24,6141.11394818278,0.375
26,25,9273.76760450471,0.380000000004657
26,26,7154.0319527946,0.371999999988475
26,27,5347.42946548656,0.373000000006869
26,28,6606.27525483118,0.375
26,29,8087.53141084022,0.381999999997788
26,30,10215.0413589074,0.377999999996973
27,1,11885.0654847907,0.377000000007683
27,2,11638.9221955646,0.37599999998929
27,3,11263.0561545406,0.376000000003842
27,4,19366.8199925842,0.38300000000163
27,5,12696.857098315,0.385999999998603
27,6,13972.1933546385,0.380000000004657
27,7,16663.6135317524,0.347999999998137
27,8,11001.4765290791,0.376999999993131
27,9,13421.5534901241,0.377000000007683
27,10,8474.39020655798,0.375
27,11,8773.17795208556,0.381999999997788
27,12,9694.07087657789,0.380999999993946
27,13,11240.5245982174,0.381999999997788
27,14,8686.22979897886,0.381999999997788
27,15,7169.4364193211,0.375
27,16,11045.1099344644,0.387000000002445
27,17,10337.5858830163,0.380999999993946
27,18,10222.277597322,0.385000000009313
27,19,11338.3357366076,0.38399999999092
27,20,10864.8749767074,0.380000000004657
27,21,10672.5517857925,0.380999999993946
27,22,11702.8553407158,0.380000000004657
27,23,11594.7406700733,0.381999999997788
27,24,9626.5787342102,0.380999999993946
27,25,10474.0770995839,0.38300000000163
27,26,13172.8613648131,0.381999999997788
27,27,9350.3012027018,0.381999999997788
27,28,11883.1642826111,0.384000000005472
27,29,9698.56818459734,0.380999999993946
27,30,11948.638190391,0.385999999998603
28,1,11495.825865782,0.38300000000163
28,2,10775.7973629285,0.381999999997788
28,3,12721.787316039,0.38300000000163
28,4,20829.0711857919,0.389000000010128
28,5,11213.5957634467,0.381999999997788
28,6,11760.6958561791,0.384999999994761
28,7,12299.0171852549,0.415999999997439
28,8,8237.16662116066,0.351000000009662
28,9,11162.1478206792,0.350999999995111
28,10,9304.68647873444,0.343999999997322
28,11,7656.67291745958,0.346000000005006
28,12,8616.60231926874,0.346000000005006
28,13,10187.7999662604,0.341000000000349
28,14,7233.5623624544,0.380000000004657
28,15,5488.46199807998,0.370999999999185
28,16,9170.24851529514,0.377999999996973
28,17,8996.80174813717,0.376000000003842
28,18,6911.1768676954,0.372999999992317
28,19,8860.03815789374,0.373999999996158
28,20,10130.8962353034,0.376000000003842
28,21,8365.48272195905,0.372000000003027
28,22,9585.92589997208,0.376999999993131
28,23,9942.83714713351,0.376000000003842
28,24,7810.38816106835,0.375
28,25,9687.40427811072,0.376000000003842
28,26,9090.56608247158,0.375
28,27,5780.13682709504,0.372000000003027
28,28,8021.64582981197,0.37599999998929
28,29,6340.17022504445,0.370999999999185
28,30,8653.8372157106,0.378000000011525
29,1,8897.29070740136,0.376999999993131
29,2,8902.74183341823,0.377000000007683
29,3,10278.4809702192,0.375
29,4,18650.1414395605,0.379999999990105
29,5,9473.70036038943,0.384000000005472
29,6,9904.77427290844,0.38399999999092
29,7,9863.01499125942,0.381000000008498
29,8,8410.5525342328,0.381999999997788
29,9,9139.92779202504,0.379000000000815
29,10,8496.61814924758,0.343999999997322
29,11,6728.67410044598,0.375
29,12,9200.88856020822,0.373999999996158
29,13,9197.81669371698,0.377000000007683
29,14,6698.23085716018,0.375
29,15,4507.20355900074,0.373999999996158
29,16,7484.29660099919,0.384000000005472
29,17,8958.06195262641,0.38300000000163
29,18,6633.56519378683,0.37599999998929
29,19,8321.71473854887,0.384000000005472
29,20,8611.30280398065,0.379000000000815
29,21,6188.63853471982,0.377000000007683
29,22,8027.80939391227,0.384999999994761
29,23,9067.9728320361,0.381000000008498
29,24,7683.55587637522,0.380999999993946
29,25,8704.58861621473,0.379000000000815
29,26,9023.87258007457,0.380000000004657
29,27,6403.50287667357,0.380999999993946
29,28,8121.29690421748,0.381999999997788
29,29,5896.29386587897,0.373999999996158
29,30,10418.6103507988,0.385000000009313
30,1,6649.76970911996,0.377999999996973
30,2,8876.92803666242,0.38300000000163
30,3,11741.5886046034,0.382999999987078
30,4,18485.9027966444,0.389999999999418
30,5,8190.11230020544,0.380000000004657
30,6,10161.4811515978,0.384000000005472
30,7,10831.9234780957,0.376999999993131
30,8,8690.33950194476,0.384000000005472
30,9,8889.23585129564,0.380999999993946
30,10,10003.0577669525,0.414000000004307
30,11,5751.97277910921,0.346999999994296
30,12,8727.66415057823,0.346000000005006
30,13,6743.39615629525,0.342999999993481
30,14,6733.93619226712,0.345000000001164
30,15,5610.16980535459,0.343999999997322
30,16,7700.41417802082,0.338999999992666
30,17,11837.3554701479,0.388000000006286
30,18,9334.48864045596,0.377999999996973
30,19,9948.64461771652,0.376000000003842
30,20,10912.5851285675,0.376999999993131
30,21,5853.72981952802,0.36699999999837
30,22,7648.86514116787,0.373000000006869
30,23,11814.4692911834,0.381999999997788
30,24,10009.4995316419,0.377000000007683
30,25,9252.97496552535,0.375
30,26,9710.6251519013,0.376999999993131
30,27,8069.95996508538,0.375
30,28,11863.9713276253,0.376999999993131
30,29,5826.54349996154,0.370000000009895
30,30,12799.9370128908,0.381000000008498
