App - Financius
Scenario - write_transactions
Level - 1sec
Measure - EuclideanDistance
Test Statistic - Mann-Whitney U Test
Effect Size Measure - Simple Difference:Kerby
Alpha Level - 0.05


"Before.Version","After.Version","Diff","Direction","P.Value","Simple.Diff","Within.Diffs.Mean","Within.Diffs.SD","Between.Diffs.Mean","Between.Diffs.SD","Runtime"
"0.12.1","0.13.0",FALSE,NA,0,0.138,2706.704,619.007,2872.503,682.204,1.053
"0.13.0","0.14.0",FALSE,NA,0.05,0.056,2718.587,629.992,3060.518,1782.423,1.202
"0.14.0","0.15.0",TRUE,"POSITIVE",0,0.836,3394.752,2453.284,5066.438,1110.079,1.112
