App - SimpleCalendar
Scenario - make_events
Length - 5sec
Measure - MinJumpCost
Before Version - 5379244
After Version - b2fe795


"Before.Trace.ID1","Before.Trace.ID2","Difference","Runtime"
1,2,387.341278381294,0.0599999999976717
1,3,2.2582752438962,0.0390000000043074
1,4,27.9343182805914,0.0509999999922002
1,5,436.2767760256,0.0500000000029104
1,6,527.049530340458,0.0449999999982538
1,7,505.421032052389,0.0449999999982538
1,8,7.59669076000462,0.0470000000059372
1,9,9767.71090820212,0.0270000000018626
1,10,3561.53238674102,0.0389999999897555
1,11,1203.43602759354,0.0350000000034925
1,12,146.345557992562,0.0390000000043074
1,13,4165.43256710925,0.0449999999982538
1,14,570.283081223426,0.0319999999919673
1,15,921.157262115429,0.0420000000012806
1,16,1964.52335509983,0.0339999999996508
1,17,10960.9529853465,0.0310000000026776
1,18,2696.73452384127,0.0250000000087311
1,19,2579.93131324866,0.0380000000004657
1,20,10053.9495767378,0.0439999999944121
1,21,4833.00488391279,0.0430000000051223
1,22,2877.10753033871,0.0489999999990687
1,23,5550.61889438679,0.0359999999927823
1,24,6142.1935325801,0.0339999999996508
1,25,47971.7546319052,0.0380000000004657
1,26,12687.7979398089,0.0420000000012806
1,27,38537.0673740079,0.047999999995227
1,28,1649.39686733188,0.0320000000065193
1,29,6378.36006132348,0.0470000000059372
1,30,8961.77938930983,0.0599999999976717
2,3,73.9530220642608,0.0409999999974389
2,4,10.0659117250144,0.0310000000026776
2,5,2094.03067505462,0.0590000000083819
2,6,194.5118816419,0.0390000000043074
2,7,0.18259487998393,0.0409999999974389
2,8,317.549777945851,0.0579999999899883
2,9,1727.59471537488,0.0339999999996508
2,10,13171.0866857915,0.0480000000097789
2,11,1303.67205007783,0.0289999999949941
2,12,5.76771931933013,0.0439999999944121
2,13,11621.0678297976,0.0470000000059372
2,14,0.254876196658354,0.0339999999996508
2,15,1954.03372378775,0.0529999999998836
2,16,110.931791145943,0.032999999995809
2,17,1156.77910397284,0.036999999996624
2,18,1951.81669050211,0.0320000000065193
2,19,2122.8078096952,0.0389999999897555
2,20,4619.75135147284,0.0420000000012806
2,21,95.0875478252301,0.0339999999996508
2,22,4270.81340722781,0.0350000000034925
2,23,11184.5772713658,0.0399999999935972
2,24,3240.11057425659,0.0310000000026776
2,25,5204.5807213605,0.0350000000034925
2,26,10040.4140244622,0.032999999995809
2,27,6952.89061470228,0.044000000008964
2,28,3033.47406309291,0.0449999999982538
2,29,14145.6521179528,0.036999999996624
2,30,39294.954217643,0.0489999999990687
3,4,155.112485155042,0.0299999999988358
3,5,3930.72925483215,0.0890000000072177
3,6,325.5528559461,0.0269999999873107
3,7,193.510182636581,0.0460000000020955
3,8,14.4233843330361,0.0310000000026776
3,9,671.963530332623,0.0259999999980209
3,10,6517.8231093592,0.044000000008964
3,11,831.356756610847,0.021999999997206
3,12,66.1480475568053,0.0249999999941792
3,13,3849.44661891238,0.0390000000043074
3,14,2.89672317397672,0.0270000000018626
3,15,2279.15455399994,0.0370000000111759
3,16,0.0306771228029653,0.0279999999911524
3,17,2329.55428616064,0.0370000000111759
3,18,795.372175129054,0.0199999999895226
3,19,666.663766240464,0.0310000000026776
3,20,8233.08870566907,0.0310000000026776
3,21,0.00114644694357474,0.036999999996624
3,22,4472.90081403586,0.0380000000004657
3,23,7801.69067669813,0.032999999995809
3,24,3605.4693189355,0.032999999995809
3,25,5663.1062312779,0.0630000000091968
3,26,10712.1851501236,0.0429999999905704
3,27,11598.7664346357,0.021999999997206
3,28,2572.94350524515,0.0299999999988358
3,29,4599.19891250198,0.0510000000067521
3,30,8251.54244669167,0.032999999995809
4,5,16447.1012586271,0.0510000000067521
4,6,44.5091732554218,0.0319999999919673
4,7,1215.32717823058,0.0410000000119908
4,8,187.886352244813,0.0439999999944121
4,9,832.768100564582,0.0299999999988358
4,10,23409.5373840342,0.0519999999960419
4,11,1478.54344011352,0.0339999999996508
4,12,130.666751690048,0.0270000000018626
4,13,17799.0564209099,0.0489999999990687
4,14,6184.49455875341,0.033000000010361
4,15,0.363689247129469,0.036999999996624
4,16,1281.37516110361,0.0289999999949941
4,17,1546.81707652284,0.0320000000065193
4,18,687.683004139065,0.0240000000048894
4,19,1332.2583258185,0.047999999995227
4,20,3777.30464276291,0.0430000000051223
4,21,3.18426861973682,0.0360000000073342
4,22,10997.0156833481,0.0349999999889405
4,23,5712.46599786934,0.0390000000043074
4,24,6785.34012175965,0.0200000000040745
4,25,16231.2818705432,0.0450000000128057
4,26,3680.54718592543,0.0409999999974389
4,27,5059.2709163592,0.047999999995227
4,28,9364.2315493807,0.0380000000004657
4,29,25303.5796558285,0.0339999999996508
4,30,53934.6156280576,0.0500000000029104
5,6,1083.05162291867,0.0420000000012806
5,7,3351.20429362133,0.0389999999897555
5,8,172.638163168423,0.0480000000097789
5,9,40.1134841468279,0.0259999999980209
5,10,904.584371844324,0.0439999999944121
5,11,133.587727600266,0.0289999999949941
5,12,2939.58855533605,0.0299999999988358
5,13,0.0567367984197189,0.0600000000122236
5,14,7.58421493467239,0.0310000000026776
5,15,92.9414714273431,0.036999999996624
5,16,5.61190600829383,0.0360000000073342
5,17,0.912788428239497,0.036999999996624
5,18,1162.9223750114,0.0400000000081491
5,19,277.806281916644,0.0429999999905704
5,20,3584.55068395572,0.0460000000020955
5,21,1565.15119003964,0.0470000000059372
5,22,25.0366141689045,0.0259999999980209
5,23,200.235320488548,0.0339999999996508
5,24,160.131556414236,0.0399999999935972
5,25,0.000267137708904957,0.0210000000079162
5,26,5207.19067136598,0.0270000000018626
5,27,1027.29425157385,0.0389999999897555
5,28,128.788011566115,0.0429999999905704
5,29,1523.29186874502,0.044000000008964
5,30,1087.46279760304,0.0469999999913853
6,7,53.8478176460473,0.0470000000059372
6,8,386.815320240895,0.0489999999990687
6,9,1741.18700684586,0.0390000000043074
6,10,9143.02799129469,0.0470000000059372
6,11,117.234287108232,0.0449999999982538
6,12,16.1980231671888,0.0409999999974389
6,13,1462.26496478906,0.0409999999974389
6,14,314.495754177467,0.0409999999974389
6,15,399.158603211408,0.0310000000026776
6,16,0.0303929661868923,0.0270000000018626
6,17,890.4858463032,0.0540000000037253
6,18,617.022325537202,0.0279999999911524
6,19,6.44819576542616,0.0339999999996508
6,20,13052.3798216395,0.0439999999944121
6,21,420.848506193403,0.0370000000111759
6,22,2297.60042252193,0.0299999999988358
6,23,8200.39254708154,0.0409999999974389
6,24,3965.73699130316,0.036999999996624
6,25,4042.87727005708,0.0460000000020955
6,26,10511.8299447682,0.0420000000012806
6,27,4686.14561478913,0.0390000000043074
6,28,1761.78022503895,0.0399999999935972
6,29,10758.5969644325,0.0389999999897555
6,30,30811.395472419,0.0480000000097789
7,8,1.44790559391755,0.0800000000017462
7,9,755.266842234621,0.0500000000029104
7,10,3064.58087109574,0.0630000000091968
7,11,721.951386803891,0.0359999999927823
7,12,171.808921195895,0.0519999999960419
7,13,5069.7945699464,0.06600000000617
7,14,435.703975497607,0.0460000000020955
7,15,1309.71034130405,0.0549999999930151
7,16,1185.33741728376,0.0390000000043074
7,17,1702.30557537475,0.0449999999982538
7,18,522.061807132433,0.047999999995227
7,19,1113.78412310033,0.0470000000059372
7,20,7362.90315623673,0.0359999999927823
7,21,668.155494276414,0.055000000007567
7,22,1761.16089336929,0.0469999999913853
7,23,8224.15194964535,0.0430000000051223
7,24,2859.17125471539,0.0350000000034925
7,25,4262.20065778895,0.0359999999927823
7,26,6669.96818289869,0.0310000000026776
7,27,2855.08120153915,0.0420000000012806
7,28,2569.19227316066,0.0460000000020955
7,29,12744.3967928812,0.0409999999974389
7,30,8279.24069375227,0.0669999999954598
8,9,795.66535372743,0.0299999999988358
8,10,1794.09584352323,0.0299999999988358
8,11,279.022736935314,0.0470000000059372
8,12,74.5747645792842,0.032999999995809
8,13,178.491185863961,0.0310000000026776
8,14,30.7930582469527,0.0289999999949941
8,15,2135.35968285139,0.0270000000018626
8,16,1116.18783469558,0.032999999995809
8,17,914.235297096942,0.0299999999988358
8,18,116.371507457492,0.0240000000048894
8,19,0.241756088680248,0.0359999999927823
8,20,1739.01223264998,0.0339999999996508
8,21,122.683560181973,0.0310000000026776
8,22,1173.44661132407,0.0259999999980209
8,23,2286.39077064018,0.036999999996624
8,24,2631.39476106347,0.0270000000018626
8,25,7166.58088427642,0.0489999999990687
8,26,7035.0924182984,0.0380000000004657
8,27,6314.97805502422,0.0290000000095461
8,28,565.271821994643,0.0279999999911524
8,29,3487.7127536064,0.0249999999941792
8,30,2524.22400367446,0.0339999999996508
9,10,14.6596637991767,0.0320000000065193
9,11,1633.25294847644,0.0299999999988358
9,12,52.150719984755,0.0359999999927823
9,13,149.357848034226,0.0300000000133878
9,14,612.694776562379,0.0349999999889405
9,15,838.226656178049,0.0299999999988358
9,16,2107.57101483013,0.0310000000026776
9,17,3.0144509892618,0.032999999995809
9,18,1.00338802377483,0.0280000000057044
9,19,169.210569592404,0.0309999999881256
9,20,2142.67674948717,0.0320000000065193
9,21,514.027526277685,0.0289999999949941
9,22,0.154141036785354,0.0320000000065193
9,23,1261.09853283714,0.0319999999919673
9,24,0.870486696057923,0.0250000000087311
9,25,1754.30635000796,0.0299999999988358
9,26,666.914365522516,0.0310000000026776
9,27,941.874930436426,0.0380000000004657
9,28,0.278428743493206,0.0389999999897555
9,29,134.080713693553,0.0280000000057044
9,30,10126.1713485682,0.0420000000012806
10,11,225.853953763443,0.0359999999927823
10,12,9890.82631629151,0.0510000000067521
10,13,135.360835245362,0.0420000000012806
10,14,700.991306203659,0.0390000000043074
10,15,80.6777002900689,0.0320000000065193
10,16,0.0535325600835498,0.0420000000012806
10,17,2.45829331041128,0.032999999995809
10,18,86.5021630250958,0.0339999999996508
10,19,1.32555061323338,0.0360000000073342
10,20,558.253720304502,0.0299999999988358
10,21,2988.95564237727,0.0519999999960419
10,22,370.814914303728,0.036999999996624
10,23,353.587326723005,0.032999999995809
10,24,125.187429973849,0.0310000000026776
10,25,239.187296511544,0.033000000010361
10,26,298.852419614125,0.0279999999911524
10,27,29.3789165274311,0.0350000000034925
10,28,263.500287527621,0.0449999999982538
10,29,450.953033294165,0.0380000000004657
10,30,607.597272498678,0.0449999999982538
11,12,189.931372495182,0.0380000000004657
11,13,118.65077096287,0.0399999999935972
11,14,35.3752787675275,0.0380000000004657
11,15,339.865158892348,0.0390000000043074
11,16,20.9728750904302,0.0430000000051223
11,17,200.749640660949,0.0359999999927823
11,18,2.37060660191912,0.032999999995809
11,19,1.78966261765235,0.0360000000073342
11,20,7584.00062648542,0.0359999999927823
11,21,41.133718438104,0.0310000000026776
11,22,486.310507293724,0.021999999997206
11,23,20.152655970452,0.0299999999988358
11,24,339.543191918988,0.032999999995809
11,25,321.587915306897,0.0560000000114087
11,26,3945.96395593282,0.0399999999935972
11,27,1375.70808129073,0.0319999999919673
11,28,333.328260154704,0.0360000000073342
11,29,1013.88196514977,0.0310000000026776
11,30,1519.77902956384,0.0749999999970896
12,13,254.597313880926,0.0469999999913853
12,14,115.403495109719,0.0310000000026776
12,15,1.47293640566369,0.0380000000004657
12,16,813.566565824298,0.047999999995227
12,17,525.441801161547,0.0289999999949941
12,18,410.932528959513,0.0289999999949941
12,19,41.5491253600014,0.0529999999998836
12,20,1827.88236799522,0.0420000000012806
12,21,351.288382077747,0.0400000000081491
12,22,2942.71546075354,0.0319999999919673
12,23,8747.85988844919,0.0339999999996508
12,24,331.81261027345,0.0240000000048894
12,25,16193.1170425996,0.0390000000043074
12,26,6344.25493652553,0.0449999999982538
12,27,4430.40506166887,0.0309999999881256
12,28,2082.92056051825,0.044000000008964
12,29,571.493199488647,0.0310000000026776
12,30,24257.4678489586,0.0389999999897555
13,14,467.710871486197,0.0390000000043074
13,15,307.429608065605,0.0489999999990687
13,16,10.234954246078,0.047999999995227
13,17,100.683454541271,0.0529999999998836
13,18,348.022473857068,0.0410000000119908
13,19,1705.51160261575,0.0510000000067521
13,20,3254.31559375304,0.0349999999889405
13,21,560.6460694948,0.0529999999998836
13,22,45.1143807392931,0.0420000000012806
13,23,771.698060621532,0.0280000000057044
13,24,172.03690366419,0.0299999999988358
13,25,2396.69884920263,0.0449999999982538
13,26,223.448998856126,0.0380000000004657
13,27,954.026671284125,0.0500000000029104
13,28,3.46078168372778,0.0439999999944121
13,29,221.539321807993,0.0409999999974389
13,30,2114.80713113846,0.0460000000020955
14,15,0.0201380190487103,0.0310000000026776
14,16,7.91488546573992,0.0399999999935972
14,17,20.3233114994381,0.0360000000073342
14,18,739.14863070085,0.0259999999980209
14,19,1231.83938179162,0.0460000000020955
14,20,4692.15480475373,0.0409999999974389
14,21,7.07743719511549,0.0310000000026776
14,22,7.40619853646097,0.0249999999941792
14,23,647.993960080386,0.0310000000026776
14,24,952.212077038314,0.0280000000057044
14,25,2612.10841109276,0.0389999999897555
14,26,2333.22991932179,0.0310000000026776
14,27,4366.23598600377,0.036999999996624
14,28,1382.44752128568,0.0449999999982538
14,29,1415.60037745685,0.036999999996624
14,30,6913.01068726458,0.0480000000097789
15,16,36.1155199472842,0.0379999999859137
15,17,65.6289175680263,0.0450000000128057
15,18,203.370267382382,0.0429999999905704
15,19,548.414629421643,0.0420000000012806
15,20,2839.09669031091,0.0299999999988358
15,21,539.900660240067,0.036999999996624
15,22,178.697377430835,0.044000000008964
15,23,156.910395563975,0.0350000000034925
15,24,265.64858000548,0.0320000000065193
15,25,373.304034324053,0.0549999999930151
15,26,3250.51155829582,0.0290000000095461
15,27,930.780756226815,0.0360000000073342
15,28,0.601278308509841,0.0380000000004657
15,29,91.8325324179562,0.047999999995227
15,30,5620.24648407748,0.0350000000034925
16,17,103.170103633764,0.0399999999935972
16,18,0.676008395017254,0.0310000000026776
16,19,2.4044412119732,0.0370000000111759
16,20,0.716696722702904,0.0489999999990687
16,21,0.843301065625948,0.0319999999919673
16,22,2.61150303793998,0.0280000000057044
16,23,1420.21454081645,0.0319999999919673
16,24,42.34941376077,0.0310000000026776
16,25,698.694319443436,0.0280000000057044
16,26,1517.43351343206,0.0549999999930151
16,27,581.232771219358,0.0360000000073342
16,28,753.866990031749,0.0519999999960419
16,29,1764.09205835567,0.0380000000004657
16,30,8829.00289184174,0.032999999995809
17,18,422.8757887196,0.0310000000026776
17,19,127.121528427277,0.0319999999919673
17,20,3881.58020739381,0.0350000000034925
17,21,380.289421190238,0.0299999999988358
17,22,2.32450578942171,0.0299999999988358
17,23,763.260411623814,0.0320000000065193
17,24,263.148177207345,0.0249999999941792
17,25,167.161404611201,0.0280000000057044
17,26,2603.71348458709,0.0299999999988358
17,27,335.079943532598,0.0449999999982538
17,28,1.64707220770569,0.0449999999982538
17,29,47.0194285446715,0.0420000000012806
17,30,8190.01148716633,0.0270000000018626
18,19,119.03055760009,0.0319999999919673
18,20,850.237939135391,0.0299999999988358
18,21,64.3325178736396,0.033000000010361
18,22,11.5908648124396,0.0269999999873107
18,23,10.3658193848508,0.0380000000004657
18,24,48.584414194151,0.0200000000040745
18,25,1190.86608627237,0.0310000000026776
18,26,730.511457882489,0.0270000000018626
18,27,282.656412980121,0.0629999999946449
18,28,242.721379377108,0.0439999999944121
18,29,34.4227139679627,0.033000000010361
18,30,7148.34579569101,0.0420000000012806
19,20,1683.07819180903,0.036999999996624
19,21,33.2996043399362,0.032999999995809
19,22,36.6788627180667,0.0310000000026776
19,23,46.9769959877359,0.0270000000018626
19,24,25.397950384551,0.0399999999935972
19,25,7.39690462964863,0.0270000000018626
19,26,1080.58135466803,0.0409999999974389
19,27,33.8094762817238,0.036999999996624
19,28,1108.4959334753,0.033000000010361
19,29,71.7935070314477,0.0310000000026776
19,30,2949.61050837618,0.0599999999976717
20,21,8044.9973410646,0.0299999999988358
20,22,1592.60606407005,0.0409999999974389
20,23,106.250485432778,0.0289999999949941
20,24,172.367846983978,0.0210000000079162
20,25,94.8404413402651,0.0299999999988358
20,26,14.6565371588142,0.0449999999982538
20,27,149.436597517412,0.0310000000026776
20,28,73.7534737790443,0.0399999999935972
20,29,989.238388808962,0.0470000000059372
20,30,9.6095674455653,0.0469999999913853
21,22,283.034258626191,0.0350000000034925
21,23,2294.72914960488,0.0270000000018626
21,24,784.979895932088,0.0489999999990687
21,25,1681.88422661301,0.0409999999974389
21,26,2007.0969005693,0.0339999999996508
21,27,3343.93201987834,0.0420000000012806
21,28,50.8817127974033,0.0469999999913853
21,29,898.103816633718,0.0520000000105938
21,30,6399.53290854751,0.0579999999899883
22,23,535.08693028946,0.036999999996624
22,24,39.1307327730016,0.0220000000117579
22,25,6.62576133788931,0.036999999996624
22,26,1498.02407815321,0.0319999999919673
22,27,766.52291820146,0.0350000000034925
22,28,181.155982792606,0.032999999995809
22,29,0.0866460292744056,0.0390000000043074
22,30,1911.36042034159,0.0399999999935972
23,24,149.322312268837,0.0230000000010477
23,25,255.055410851067,0.0360000000073342
23,26,330.157575412565,0.0289999999949941
23,27,7.32158416678959,0.0390000000043074
23,28,211.63991860521,0.0269999999873107
23,29,99.8326074946143,0.033000000010361
23,30,96.9782795794502,0.0319999999919673
24,25,83.2986131351668,0.0280000000057044
24,26,63.4166705398836,0.0279999999911524
24,27,0.485034795420113,0.0310000000026776
24,28,277.802809384617,0.0510000000067521
24,29,5.57977915155819,0.0289999999949941
24,30,3046.74534514825,0.0409999999974389
25,26,208.463169149522,0.0299999999988358
25,27,0.17311945650983,0.0250000000087311
25,28,685.720393555742,0.0500000000029104
25,29,52.543852207334,0.0460000000020955
25,30,45.5028630080622,0.0349999999889405
26,27,70.2845412435043,0.0390000000043074
26,28,2010.58249821938,0.0470000000059372
26,29,572.303364001453,0.0259999999980209
26,30,68.0124664968223,0.0420000000012806
27,28,679.660598199616,0.0399999999935972
27,29,0.313125366543278,0.0399999999935972
27,30,405.475169440291,0.0460000000020955
28,29,4.01742744212032,0.0480000000097789
28,30,2016.88007024072,0.047999999995227
29,30,1104.44003215706,0.0390000000043074


"After.Trace.ID","Before.Trace.ID","Difference","Runtime"
1,1,1244.41199193644,0.0449999999982538
1,2,105.771401662407,0.0380000000004657
1,3,1829.50084619212,0.0380000000004657
1,4,0.00567163131299257,0.0399999999935972
1,5,384.714480234908,0.0449999999982538
1,6,1013.20184937908,0.0310000000026776
1,7,215.419037852015,0.0580000000045402
1,8,397.709803973426,0.0289999999949941
1,9,1.87785881837627,0.0449999999982538
1,10,34.1403890233618,0.0640000000130385
1,11,818.047534259461,0.0289999999949941
1,12,62.5335699037315,0.0489999999990687
1,13,68.3841437003212,0.0639999999984866
1,14,807.741106029613,0.036999999996624
1,15,87.9776978988945,0.0280000000057044
1,16,730.113885557186,0.036999999996624
1,17,100.106600790321,0.0409999999974389
1,18,283.114882536161,0.0360000000073342
1,19,47.5535876139934,0.0380000000004657
1,20,710.64905394218,0.0299999999988358
1,21,294.59190104996,0.036999999996624
1,22,149.565056784184,0.0359999999927823
1,23,178.765685865521,0.0270000000018626
1,24,495.78348177849,0.032999999995809
1,25,549.575353955172,0.044000000008964
1,26,1464.8075721945,0.0359999999927823
1,27,45.0208677483945,0.0990000000019791
1,28,708.509740584048,0.0339999999996508
1,29,116.828493105371,0.0430000000051223
1,30,4786.43122773179,0.0359999999927823
2,1,644.573859712408,0.0280000000057044
2,2,37.3208860791802,0.0230000000010477
2,3,302.673751070716,0.0279999999911524
2,4,0.112260167266104,0.0299999999988358
2,5,341.177288411438,0.0240000000048894
2,6,312.907216805986,0.0299999999988358
2,7,234.534131077796,0.0350000000034925
2,8,5.7140683573976,0.0319999999919673
2,9,505.583352547623,0.0210000000079162
2,10,10.0605148192011,0.0299999999988358
2,11,422.293143357013,0.0289999999949941
2,12,2.35661694602576,0.032999999995809
2,13,365.258883451178,0.0449999999982538
2,14,95.8431529752572,0.0310000000026776
2,15,726.185408654981,0.0290000000095461
2,16,436.666784413699,0.0359999999927823
2,17,416.999146651109,0.0280000000057044
2,18,0.35637705780045,0.021999999997206
2,19,365.532387134855,0.0350000000034925
2,20,4634.47297199433,0.047999999995227
2,21,867.74835978526,0.0310000000026776
2,22,450.40063528372,0.0249999999941792
2,23,1163.77241782264,0.0360000000073342
2,24,1462.14498745513,0.0249999999941792
2,25,878.38036774982,0.0289999999949941
2,26,4769.6579388476,0.0320000000065193
2,27,1082.49667392761,0.0289999999949941
2,28,1.73752767816074,0.0350000000034925
2,29,565.62997367074,0.036999999996624
2,30,5174.3297898857,0.047999999995227
3,1,8902.35603030866,0.0420000000012806
3,2,15183.2870714792,0.033000000010361
3,3,6795.39405327916,0.0350000000034925
3,4,30030.4718454162,0.0429999999905704
3,5,1006.29946747181,0.047999999995227
3,6,11180.2877974761,0.0460000000020955
3,7,16016.443839188,0.0470000000059372
3,8,3860.24289260988,0.0310000000026776
3,9,534.545074958165,0.0399999999935972
3,10,402.270597483324,0.0389999999897555
3,11,1925.32302564659,0.0410000000119908
3,12,7562.04159250841,0.0309999999881256
3,13,839.785885363378,0.0430000000051223
3,14,1741.83283349855,0.0610000000015134
3,15,10.973454204511,0.0470000000059372
3,16,1320.57916048636,0.0379999999859137
3,17,705.154303292322,0.0410000000119908
3,18,1.0875029142862,0.0299999999988358
3,19,184.0618713736,0.0559999999968568
3,20,125.542248132846,0.0409999999974389
3,21,1040.25052422173,0.036999999996624
3,22,171.455453558237,0.0489999999990687
3,23,0.292626904006899,0.0350000000034925
3,24,86.6042453305582,0.0259999999980209
3,25,178.90268982995,0.0540000000037253
3,26,1472.0013002663,0.0469999999913853
3,27,110.083201661457,0.0390000000043074
3,28,160.092075142849,0.0399999999935972
3,29,10.075362481904,0.0320000000065193
3,30,1678.75831984465,0.0510000000067521
4,1,1440.61915060875,0.0429999999905704
4,2,17.4127183314188,0.0380000000004657
4,3,880.624419500195,0.0380000000004657
4,4,756.20995675515,0.047999999995227
4,5,109.527846939943,0.0310000000026776
4,6,179.798618921826,0.0420000000012806
4,7,16.7637090438592,0.05899999999383
4,8,0.143718460774358,0.032999999995809
4,9,586.34239900255,0.0690000000031432
4,10,2602.30116363271,0.0380000000004657
4,11,1.82365888316819,0.0280000000057044
4,12,438.135106362687,0.0379999999859137
4,13,22.2043705600737,0.0500000000029104
4,14,433.248561013129,0.0370000000111759
4,15,134.945914922511,0.0399999999935972
4,16,38.2319219291934,0.0509999999922002
4,17,30.7135359821432,0.0420000000012806
4,18,16.5654795420503,0.0339999999996508
4,19,141.723752318293,0.0420000000012806
4,20,868.105613784908,0.032999999995809
4,21,361.542366057238,0.0460000000020955
4,22,1395.62567305178,0.032999999995809
4,23,2573.32793170904,0.0350000000034925
4,24,572.766170983075,0.0310000000026776
4,25,152.753730634515,0.0439999999944121
4,26,4477.39341164194,0.0400000000081491
4,27,3582.75813564928,0.0380000000004657
4,28,48.6862443227477,0.05899999999383
4,29,1443.8486845193,0.055000000007567
4,30,2116.34793417354,0.0359999999927823
5,1,1377.57265060017,0.032999999995809
5,2,40.3395759423373,0.0480000000097789
5,3,1401.19848645026,0.0319999999919673
5,4,486.989526440483,0.0350000000034925
5,5,59.4264170224797,0.032999999995809
5,6,101.28262715398,0.088000000003376
5,7,134.198913368682,0.0399999999935972
5,8,872.558191385622,0.0319999999919673
5,9,296.496446270179,0.0350000000034925
5,10,708.531779643487,0.0339999999996508
5,11,0.183757533128512,0.0280000000057044
5,12,451.53574841115,0.0339999999996508
5,13,2110.56603849931,0.0360000000073342
5,14,0.182773241679256,0.032999999995809
5,15,510.893077336853,0.0310000000026776
5,16,91.1562177562454,0.0470000000059372
5,17,242.056965193219,0.0319999999919673
5,18,65.0618850718111,0.0360000000073342
5,19,315.084113083021,0.0289999999949941
5,20,601.431097427624,0.0339999999996508
5,21,80.2680835303986,0.0439999999944121
5,22,229.090061610785,0.0390000000043074
5,23,3288.64717664331,0.0299999999988358
5,24,865.460170316767,0.0470000000059372
5,25,0.26806519987402,0.0230000000010477
5,26,5255.69930234933,0.0359999999927823
5,27,95.6218062239181,0.0320000000065193
5,28,1.15053209148775,0.0380000000004657
5,29,111.769804420169,0.0380000000004657
5,30,14194.8528266099,0.0429999999905704
6,1,880.92488190411,0.036999999996624
6,2,702.874782731035,0.044000000008964
6,3,71.3683765816423,0.0399999999935972
6,4,257.577479951716,0.044000000008964
6,5,74.7138476896804,0.0429999999905704
6,6,305.946407518695,0.0380000000004657
6,7,366.12925332405,0.0460000000020955
6,8,278.084475432312,0.0350000000034925
6,9,53.961422167243,0.0439999999944121
6,10,9925.7745385085,0.0620000000053551
6,11,445.417906213937,0.0289999999949941
6,12,348.097180559179,0.0399999999935972
6,13,2071.40293147028,0.0700000000069849
6,14,150.27885510574,0.0399999999935972
6,15,386.401246154812,0.0400000000081491
6,16,686.93175507265,0.0359999999927823
6,17,73.5107526225515,0.0420000000012806
6,18,23.2950591697106,0.0429999999905704
6,19,787.871535492362,0.0489999999990687
6,20,709.951543949251,0.0260000000125729
6,21,322.113510347585,0.0659999999916181
6,22,3449.4823410548,0.0480000000097789
6,23,7325.62514938959,0.0359999999927823
6,24,2385.548033833,0.0310000000026776
6,25,2222.25175692219,0.0460000000020955
6,26,3779.64383289197,0.0380000000004657
6,27,2348.86793710485,0.0639999999984866
6,28,540.262258795097,0.032999999995809
6,29,8965.3422387579,0.0540000000037253
6,30,17579.9547099887,0.0619999999908032
7,1,2444.81920725298,0.0390000000043074
7,2,1319.8274499601,0.0439999999944121
7,3,708.220108816634,0.0340000000142027
7,4,6254.963252882,0.047999999995227
7,5,584.799449718291,0.0489999999990687
7,6,419.620049836574,0.069999999992433
7,7,1060.62535775381,0.0410000000119908
7,8,362.273562019856,0.0480000000097789
7,9,305.47953700077,0.0309999999881256
7,10,492.658332302257,0.0460000000020955
7,11,17.2222061256268,0.0390000000043074
7,12,790.440323080394,0.0320000000065193
7,13,415.732364600936,0.0389999999897555
7,14,16.824603849656,0.0510000000067521
7,15,960.767981147641,0.0289999999949941
7,16,7.13975790850052,0.0390000000043074
7,17,182.961577170938,0.0279999999911524
7,18,1357.18412585092,0.0290000000095461
7,19,1283.77452489344,0.0429999999905704
7,20,4524.90960948825,0.0310000000026776
7,21,24.2138858801206,0.0460000000020955
7,22,522.669005264448,0.0339999999996508
7,23,714.115301362488,0.0400000000081491
7,24,723.294382638717,0.0420000000012806
7,25,2402.09680363991,0.036999999996624
7,26,3397.92232567113,0.0579999999899883
7,27,3552.7356758981,0.0460000000020955
7,28,128.159091317159,0.0310000000026776
7,29,2030.39869822848,0.0350000000034925
7,30,1507.71516790918,0.0449999999982538
8,1,4250.73368055674,0.0289999999949941
8,2,521.015106866407,0.032999999995809
8,3,1709.36582682944,0.0320000000065193
8,4,12117.3346849519,0.036999999996624
8,5,8.93609117548749,0.0280000000057044
8,6,74.4739535901792,0.0350000000034925
8,7,6996.23907127299,0.036999999996624
8,8,1478.46846837379,0.0259999999980209
8,9,101.638298201909,0.0240000000048894
8,10,252.741273625017,0.0380000000004657
8,11,289.222413590244,0.0279999999911524
8,12,3703.01771043683,0.0280000000057044
8,13,54.241327409113,0.036999999996624
8,14,317.94278482417,0.0679999999993015
8,15,1069.87175188496,0.0299999999988358
8,16,98.435026749359,0.0320000000065193
8,17,24.2794803297148,0.0279999999911524
8,18,7.78963705082623,0.0290000000095461
8,19,83.6057239264612,0.0389999999897555
8,20,1339.72710832784,0.0230000000010477
8,21,29.087240265911,0.0350000000034925
8,22,5.92626720411673,0.0339999999996508
8,23,643.80959799114,0.036999999996624
8,24,0.957930549049457,0.0230000000010477
8,25,421.370627413645,0.0310000000026776
8,26,2476.51782949783,0.0239999999903375
8,27,1341.6964574736,0.0390000000043074
8,28,44.5734718923729,0.032999999995809
8,29,0.00971109670710961,0.0350000000034925
8,30,3997.81985361945,0.0350000000034925
9,1,0.623500973717558,0.0319999999919673
9,2,0.517860346262673,0.0410000000119908
9,3,160.84582522719,0.0299999999988358
9,4,16.3752151444432,0.032999999995809
9,5,482.510931696496,0.0489999999990687
9,6,1.56589718635894,0.0360000000073342
9,7,39.1874587244331,0.0579999999899883
9,8,30.1955372678481,0.0290000000095461
9,9,729.507001682504,0.0309999999881256
9,10,10379.583313548,0.0400000000081491
9,11,45.5242864678838,0.032999999995809
9,12,4.96800424950425,0.0430000000051223
9,13,26.5674651199205,0.0319999999919673
9,14,12.6870155637707,0.036999999996624
9,15,0.341547243287054,0.0320000000065193
9,16,188.691447673133,0.0289999999949941
9,17,2297.58459676511,0.0489999999990687
9,18,48.1729849949313,0.0339999999996508
9,19,403.906404654265,0.0339999999996508
9,20,5481.47838876631,0.0409999999974389
9,21,471.606280831576,0.0430000000051223
9,22,2927.64301126207,0.021999999997206
9,23,7859.70253803783,0.0280000000057044
9,24,2349.61022356723,0.0249999999941792
9,25,3432.46049937947,0.0400000000081491
9,26,2720.46517706005,0.0459999999875436
9,27,5179.69853124395,0.0370000000111759
9,28,1581.10346570316,0.0549999999930151
9,29,10600.945657258,0.0380000000004657
9,30,22494.341439947,0.0559999999968568
10,1,877.358251530939,0.036999999996624
10,2,0.584634232128389,0.0380000000004657
10,3,368.517037857032,0.0320000000065193
10,4,16.4504872435404,0.0469999999913853
10,5,3665.46816109952,0.0370000000111759
10,6,7.69095096635011,0.0480000000097789
10,7,658.311776492911,0.0410000000119908
10,8,581.934576817998,0.0339999999996508
10,9,1870.31091186346,0.0339999999996508
10,10,0.185834651432318,0.0409999999974389
10,11,411.29130040776,0.0380000000004657
10,12,22.2178575654031,0.032999999995809
10,13,4118.83994054023,0.0439999999944121
10,14,0.511869285286602,0.0380000000004657
10,15,3073.90287933491,0.033000000010361
10,16,1076.1117633902,0.0349999999889405
10,17,1378.48708822465,0.033000000010361
10,18,195.745104217832,0.032999999995809
10,19,1577.65057120896,0.0540000000037253
10,20,2143.61955420724,0.0350000000034925
10,21,518.2853672391,0.0469999999913853
10,22,5.48144991429616,0.0390000000043074
10,23,7798.11919996325,0.0380000000004657
10,24,1483.88232809796,0.036999999996624
10,25,2538.1762643236,0.0510000000067521
10,26,6100.7047590443,0.0439999999944121
10,27,5232.57852106618,0.0540000000037253
10,28,2001.35582709636,0.0359999999927823
10,29,2509.64444460487,0.0480000000097789
10,30,9497.61037162277,0.0339999999996508
11,1,3408.70263719434,0.0409999999974389
11,2,0.0153744541427824,0.0299999999988358
11,3,1915.37180370858,0.0310000000026776
11,4,975.319451812042,0.0460000000020955
11,5,258.714943353302,0.0430000000051223
11,6,374.666751397215,0.0339999999996508
11,7,155.421368491013,0.0529999999998836
11,8,448.22486156756,0.0380000000004657
11,9,0.0468308800222275,0.0519999999960419
11,10,88.5885126479557,0.0460000000020955
11,11,108.051625021648,0.0399999999935972
11,12,216.293527502699,0.0310000000026776
11,13,93.4843127800663,0.0539999999891734
11,14,582.01995986403,0.055000000007567
11,15,141.785787647181,0.0430000000051223
11,16,74.2799082690457,0.0349999999889405
11,17,937.268925466804,0.0470000000059372
11,18,337.35452752513,0.0280000000057044
11,19,457.582036955939,0.0299999999988358
11,20,5742.21229521028,0.0529999999998836
11,21,22.3601431718127,0.0439999999944121
11,22,188.801431956566,0.0639999999984866
11,23,1403.5479168895,0.077000000004773
11,24,360.942917485351,0.0429999999905704
11,25,216.270711756069,0.0260000000125729
11,26,562.376954361781,0.044000000008964
11,27,290.672588116918,0.0519999999960419
11,28,95.6136109819266,0.0280000000057044
11,29,2299.41610111398,0.036999999996624
11,30,11534.8579749428,0.0299999999988358
12,1,1572.10806159001,0.0399999999935972
12,2,8806.81413164149,0.0480000000097789
12,3,3955.54555798944,0.036999999996624
12,4,8979.27481075862,0.0549999999930151
12,5,29.8087117109624,0.0470000000059372
12,6,6191.09244393259,0.0390000000043074
12,7,1318.31899530856,0.0549999999930151
12,8,763.213824678366,0.0339999999996508
12,9,147.380722086551,0.0350000000034925
12,10,314.725370596194,0.0389999999897555
12,11,97.9619380093579,0.0320000000065193
12,12,213.204160114945,0.0360000000073342
12,13,112.465040262829,0.0430000000051223
12,14,415.814733033661,0.0459999999875436
12,15,410.189023946469,0.0410000000119908
12,16,347.575808346212,0.0349999999889405
12,17,124.060334778386,0.0310000000026776
12,18,140.957177654043,0.0409999999974389
12,19,159.605650061296,0.044000000008964
12,20,1487.16850855221,0.0289999999949941
12,21,706.830931418618,0.036999999996624
12,22,284.366747933893,0.0250000000087311
12,23,24.6948160410111,0.0279999999911524
12,24,16.816284896064,0.0230000000010477
12,25,148.810615869056,0.0409999999974389
12,26,858.221987866225,0.0409999999974389
12,27,536.592780644314,0.0610000000015134
12,28,110.378345294866,0.0339999999996508
12,29,485.109212966316,0.0350000000034925
12,30,1162.98240167775,0.0430000000051223
13,1,3658.12311160515,0.0280000000057044
13,2,4829.41672772412,0.032999999995809
13,3,4780.33218252762,0.0320000000065193
13,4,4937.4203919554,0.0429999999905704
13,5,83.6280969741547,0.0409999999974389
13,6,4041.94883050999,0.0360000000073342
13,7,7916.16042440815,0.0399999999935972
13,8,1030.80287165118,0.0380000000004657
13,9,21.926653799384,0.0339999999996508
13,10,795.538054503269,0.0370000000111759
13,11,1.41524854444065,0.0449999999982538
13,12,3060.40803146581,0.0289999999949941
13,13,12.2215574933627,0.0510000000067521
13,14,468.962980606598,0.0359999999927823
13,15,180.421951196167,0.0360000000073342
13,16,7.61904811707766,0.0309999999881256
13,17,25.3602921255202,0.0400000000081491
13,18,38.9661109164333,0.0270000000018626
13,19,269.471511194011,0.0299999999988358
13,20,4663.17637674636,0.0270000000018626
13,21,132.632857912162,0.0349999999889405
13,22,22.1973184650269,0.0449999999982538
13,23,166.720277826855,0.0210000000079162
13,24,142.463018233653,0.032999999995809
13,25,3.94167168850767,0.0200000000040745
13,26,3705.25595533424,0.0289999999949941
13,27,247.869015234884,0.032999999995809
13,28,1.81688971927847,0.0320000000065193
13,29,52.7610637020276,0.032999999995809
13,30,593.417569265677,0.0350000000034925
14,1,107.641978016969,0.0679999999993015
14,2,380.271650029688,0.0389999999897555
14,3,41.8595610150603,0.0380000000004657
14,4,430.561258885985,0.0570000000006985
14,5,12162.2398743921,0.0399999999935972
14,6,152.011271639958,0.0710000000108266
14,7,158.170088128882,0.0429999999905704
14,8,94.8493127364783,0.044000000008964
14,9,552.978070189316,0.0359999999927823
14,10,18007.5504289387,0.0390000000043074
14,11,2249.72917805261,0.0449999999982538
14,12,244.602348838318,0.0400000000081491
14,13,9682.61200086822,0.0419999999867287
14,14,682.326994904034,0.0380000000004657
14,15,2701.41604672034,0.0320000000065193
14,16,1441.84707699278,0.0489999999990687
14,17,1703.50202491195,0.0289999999949941
14,18,2611.9632018032,0.0299999999988358
14,19,621.05187884776,0.0409999999974389
14,20,13510.7575507258,0.0360000000073342
14,21,649.194051606998,0.0429999999905704
14,22,6515.18669723658,0.0320000000065193
14,23,15364.5162133083,0.0449999999982538
14,24,6479.95951694608,0.0380000000004657
14,25,2602.04823582445,0.0359999999927823
14,26,4811.1094641098,0.0450000000128057
14,27,9946.72119638631,0.0409999999974389
14,28,3259.59725089767,0.0399999999935972
14,29,18129.4055203037,0.0430000000051223
14,30,41417.0394526051,0.0559999999968568
15,1,155.622159700445,0.0409999999974389
15,2,45.0948390929199,0.0829999999987194
15,3,31.2152139722201,0.033000000010361
15,4,665.611371247505,0.047999999995227
15,5,0.0538965219417353,0.0460000000020955
15,6,414.217794135476,0.0409999999974389
15,7,6.99870353207422,0.0359999999927823
15,8,3.84626785745168,0.0290000000095461
15,9,110.512925785166,0.0399999999935972
15,10,5064.09245834546,0.0320000000065193
15,11,55.2438443395022,0.0270000000018626
15,12,0.110489476582536,0.0299999999988358
15,13,28.0988167315301,0.0299999999988358
15,14,19.9663751287413,0.0320000000065193
15,15,2412.6377023614,0.0430000000051223
15,16,370.972953291665,0.032999999995809
15,17,118.647534741784,0.0280000000057044
15,18,650.198402852656,0.0289999999949941
15,19,452.066996310192,0.0230000000010477
15,20,3959.63877790757,0.0389999999897555
15,21,3.95015661171695,0.0380000000004657
15,22,545.400964558649,0.0310000000026776
15,23,4731.66731996716,0.0299999999988358
15,24,3132.5244090162,0.0420000000012806
15,25,9018.13625497092,0.0519999999960419
15,26,3105.13795963065,0.0449999999982538
15,27,2769.76504483773,0.0480000000097789
15,28,272.466849060253,0.0399999999935972
15,29,2126.74270965491,0.0380000000004657
15,30,19368.0901441759,0.0350000000034925
16,1,589.34065502466,0.0610000000015134
16,2,8.815641728092,0.0339999999996508
16,3,2187.98089870491,0.0420000000012806
16,4,4882.33864532706,0.0390000000043074
16,5,2.73370976491228,0.0500000000029104
16,6,1061.1827495229,0.0419999999867287
16,7,2293.09603068594,0.0480000000097789
16,8,1952.22760921141,0.032999999995809
16,9,40.2099405760675,0.0249999999941792
16,10,33.0274943960509,0.0580000000045402
16,11,1128.29253158806,0.036999999996624
16,12,0.0165498416299346,0.0230000000010477
16,13,517.149000555842,0.0489999999990687
16,14,915.74682683127,0.0370000000111759
16,15,1158.50086560739,0.047999999995227
16,16,145.201592633076,0.0339999999996508
16,17,231.95651862776,0.032999999995809
16,18,48.1332787887356,0.0320000000065193
16,19,550.263915035008,0.0279999999911524
16,20,5657.75874224052,0.0380000000004657
16,21,533.606391076116,0.0390000000043074
16,22,173.160657259086,0.0269999999873107
16,23,1457.47916087225,0.0259999999980209
16,24,3.71964184073915,0.0339999999996508
16,25,2930.95455226113,0.0439999999944121
16,26,0.566524071176937,0.0390000000043074
16,27,43.0035815256944,0.0380000000004657
16,28,302.646986289832,0.0319999999919673
16,29,1725.019120826,0.0360000000073342
16,30,7742.0329300195,0.0489999999990687
17,1,367.047533436906,0.0350000000034925
17,2,840.055252216047,0.0390000000043074
17,3,44.4266076520315,0.0430000000051223
17,4,299.239753710909,0.0350000000034925
17,5,1705.65451646497,0.0510000000067521
17,6,713.817614283811,0.0409999999974389
17,7,438.144275714124,0.0420000000012806
17,8,25.3902522246268,0.0360000000073342
17,9,2064.65861761411,0.033000000010361
17,10,11723.3295156722,0.0380000000004657
17,11,1944.12492590432,0.0449999999982538
17,12,555.656276062594,0.0409999999974389
17,13,2272.74019641727,0.0519999999960419
17,14,454.021779556614,0.0420000000012806
17,15,1850.04622011315,0.0270000000018626
17,16,792.754341202072,0.0350000000034925
17,17,3508.58381350485,0.0359999999927823
17,18,1175.28512653343,0.0339999999996508
17,19,2300.73700603722,0.0420000000012806
17,20,1062.92789999935,0.0279999999911524
17,21,1299.05765504752,0.0380000000004657
17,22,8844.86325477794,0.0350000000034925
17,23,15345.9875359618,0.036999999996624
17,24,5548.80329758459,0.0290000000095461
17,25,5297.67189018568,0.0359999999927823
17,26,3523.57192518506,0.0430000000051223
17,27,5591.16964253718,0.0409999999974389
17,28,3782.23342017007,0.0310000000026776
17,29,16832.9452140282,0.0400000000081491
17,30,37211.4098374133,0.0390000000043074
18,1,65.0454544552469,0.0419999999867287
18,2,2.16915018082043,0.0410000000119908
18,3,172.104827729857,0.0449999999982538
18,4,1565.15407182622,0.0439999999944121
18,5,472.007129855052,0.0500000000029104
18,6,2.69313697567321,0.05899999999383
18,7,652.413548766614,0.0470000000059372
18,8,129.530576869419,0.0409999999974389
18,9,2378.17426203963,0.0509999999922002
18,10,8946.11330176351,0.0620000000053551
18,11,695.156735299298,0.06600000000617
18,12,9.95817598650105,0.0380000000004657
18,13,743.14094187777,0.0570000000006985
18,14,618.857596362248,0.033000000010361
18,15,3489.10770154865,0.0339999999996508
18,16,1597.85865681652,0.0429999999905704
18,17,2552.68567157263,0.0420000000012806
18,18,51.7537390016233,0.0380000000004657
18,19,2421.68581412159,0.0460000000020955
18,20,2933.78839791693,0.0339999999996508
18,21,926.44138887099,0.0399999999935972
18,22,3281.07521864728,0.0320000000065193
18,23,3164.93823186571,0.0349999999889405
18,24,2991.01100658406,0.0390000000043074
18,25,0.0184092127238419,0.0270000000018626
18,26,1718.31950220704,0.0359999999927823
18,27,4070.74920673241,0.0489999999990687
18,28,2672.6706808908,0.0409999999974389
18,29,10165.1610551978,0.0420000000012806
18,30,25848.3515814722,0.0620000000053551
19,1,9326.70259527824,0.032999999995809
19,2,2403.4087452555,0.0339999999996508
19,3,61.6605436797627,0.055000000007567
19,4,6997.77085073861,0.0259999999980209
19,5,153.857479783819,0.0499999999883585
19,6,2326.64079139495,0.0410000000119908
19,7,602.63048513082,0.0460000000020955
19,8,1315.49195931351,0.0389999999897555
19,9,14.7536367573707,0.0409999999974389
19,10,760.632725141505,0.0400000000081491
19,11,342.691140826925,0.0339999999996508
19,12,2071.90863025478,0.0319999999919673
19,13,298.66282962713,0.0470000000059372
19,14,252.173319761103,0.0310000000026776
19,15,12.5733095184798,0.047999999995227
19,16,45.2755603300849,0.0449999999982538
19,17,367.131253806772,0.0339999999996508
19,18,45.1776627069184,0.0280000000057044
19,19,25.4585969389792,0.036999999996624
19,20,5837.23400377953,0.0310000000026776
19,21,70.7623250606711,0.0390000000043074
19,22,1772.44465603123,0.0339999999996508
19,23,100.754470482688,0.0420000000012806
19,24,472.442440967459,0.0399999999935972
19,25,914.71313950176,0.0420000000012806
19,26,1494.57595669642,0.0380000000004657
19,27,479.938893438583,0.0399999999935972
19,28,12.6596993302,0.044000000008964
19,29,85.0729130251157,0.0349999999889405
19,30,1172.20004429234,0.0320000000065193
20,1,1.79601311647135,0.0420000000012806
20,2,142.095712526279,0.06600000000617
20,3,203.552359084235,0.0400000000081491
20,4,154.801857301311,0.0499999999883585
20,5,16994.5638062464,0.0400000000081491
20,6,679.301519391211,0.0599999999976717
20,7,162.393624926908,0.0510000000067521
20,8,1297.67918560316,0.0500000000029104
20,9,1053.38485266538,0.0449999999982538
20,10,26780.1371070279,0.055000000007567
20,11,2071.1760733528,0.0339999999996508
20,12,134.30058435848,0.0500000000029104
20,13,17542.9621768246,0.0629999999946449
20,14,5129.56849963325,0.0399999999935972
20,15,3222.31292582476,0.0480000000097789
20,16,1629.09687526214,0.0410000000119908
20,17,6735.25139133595,0.036999999996624
20,18,1286.05381909164,0.047999999995227
20,19,2518.73919695514,0.0570000000006985
20,20,14055.3818894594,0.0409999999974389
20,21,2657.38455355505,0.0510000000067521
20,22,8843.17232118852,0.0349999999889405
20,23,18012.7642814675,0.0360000000073342
20,24,4524.32892938755,0.0519999999960419
20,25,15226.4618356107,0.0360000000073342
20,26,12405.0406511432,0.05899999999383
20,27,11586.3305916293,0.0610000000015134
20,28,8941.42787405551,0.0509999999922002
20,29,22720.7361241066,0.044000000008964
20,30,48589.2953228946,0.0599999999976717
21,1,288.886866717286,0.0259999999980209
21,2,2.12463609750448,0.0339999999996508
21,3,6.90375062413382,0.0209999999933643
21,4,2.44312512754615,0.0420000000012806
21,5,3197.73264591148,0.0259999999980209
21,6,0.391997855499253,0.032999999995809
21,7,193.403056386503,0.0410000000119908
21,8,36.6521650125103,0.0380000000004657
21,9,350.967672460797,0.0249999999941792
21,10,3615.33976641322,0.0390000000043074
21,11,262.650327038555,0.0289999999949941
21,12,48.4609510568345,0.0409999999974389
21,13,888.161207510434,0.077000000004773
21,14,0.100754022752356,0.0239999999903375
21,15,721.409926544721,0.0259999999980209
21,16,10.9442138237016,0.033000000010361
21,17,464.734689447657,0.033000000010361
21,18,13.1901352235843,0.0199999999895226
21,19,1093.1535765903,0.0290000000095461
21,20,1178.21907963533,0.0319999999919673
21,21,0.521381516264143,0.0289999999949941
21,22,1673.95090180307,0.0270000000018626
21,23,5952.3051612958,0.0380000000004657
21,24,1778.50946910653,0.0320000000065193
21,25,3605.13023098505,0.0310000000026776
21,26,3946.86348230419,0.0409999999974389
21,27,4320.76682919711,0.0380000000004657
21,28,1805.2912158733,0.032999999995809
21,29,8499.35776430334,0.0249999999941792
21,30,12217.3380864968,0.0620000000053551
22,1,5709.31076882605,0.0380000000004657
22,2,29696.0937587912,0.0509999999922002
22,3,9251.89969749356,0.0310000000026776
22,4,16531.5919085403,0.0529999999998836
22,5,772.690016946767,0.047999999995227
22,6,20435.3540165579,0.0480000000097789
22,7,18913.4332758745,0.0319999999919673
22,8,4247.50735027453,0.0370000000111759
22,9,928.061569167002,0.0269999999873107
22,10,239.57622727396,0.0310000000026776
22,11,270.409651916229,0.0310000000026776
22,12,14473.4311264024,0.036999999996624
22,13,1079.68971784631,0.0280000000057044
22,14,776.749534680434,0.0339999999996508
22,15,1745.04716553551,0.0310000000026776
22,16,6296.48824330588,0.0339999999996508
22,17,5496.65931987168,0.0299999999988358
22,18,34.8257794956832,0.0299999999988358
22,19,1457.14458185343,0.0270000000018626
22,20,12.703826673472,0.0349999999889405
22,21,8278.62246784904,0.0350000000034925
22,22,67.8937606640853,0.021999999997206
22,23,95.4817388849349,0.0290000000095461
22,24,440.278596136049,0.0290000000095461
22,25,4.07896219159681,0.0239999999903375
22,26,1.01923531234379,0.0380000000004657
22,27,230.028722173342,0.0410000000119908
22,28,1436.58184112319,0.036999999996624
22,29,0.893065487553563,0.0300000000133878
22,30,175.085009245576,0.0449999999982538
23,1,4147.83485310642,0.0299999999988358
23,2,1846.03792905054,0.036999999996624
23,3,3564.48841925541,0.036999999996624
23,4,1639.26107372768,0.0480000000097789
23,5,167.228809779521,0.0459999999875436
23,6,997.658675269587,0.0400000000081491
23,7,1076.16145870919,0.0509999999922002
23,8,1098.17821209456,0.0360000000073342
23,9,592.000554147213,0.0390000000043074
23,10,369.82197880681,0.0499999999883585
23,11,45.8442845607973,0.0280000000057044
23,12,3.14795933294619,0.0409999999974389
23,13,157.492069859722,0.0580000000045402
23,14,132.459367006024,0.0350000000034925
23,15,171.109315421957,0.0570000000006985
23,16,0.339456912985745,0.036999999996624
23,17,23.3777807300065,0.036999999996624
23,18,3.64966583186692,0.0270000000018626
23,19,794.924010258106,0.0420000000012806
23,20,202.443293094531,0.0359999999927823
23,21,202.325522395851,0.05899999999383
23,22,0.417755678464316,0.0310000000026776
23,23,1354.30169163354,0.0350000000034925
23,24,55.8364819254949,0.032999999995809
23,25,0.00113748062762367,0.0299999999988358
23,26,2814.14789758171,0.036999999996624
23,27,1629.17192709993,0.0420000000012806
23,28,34.2574052371387,0.0409999999974389
23,29,290.972794957916,0.0420000000012806
23,30,5723.30767403635,0.0620000000053551
24,1,723.49694540332,0.0339999999996508
24,2,5.52069010232516,0.0299999999988358
24,3,627.683529441505,0.0270000000018626
24,4,1449.40605199233,0.0469999999913853
24,5,1482.87094178046,0.0299999999988358
24,6,827.748010080622,0.047999999995227
24,7,179.74534974795,0.0360000000073342
24,8,153.057616168229,0.0349999999889405
24,9,990.887206118506,0.0270000000018626
24,10,1899.32963222256,0.0500000000029104
24,11,9.56337654667871,0.0270000000018626
24,12,293.281048648115,0.0310000000026776
24,13,198.695560012142,0.0390000000043074
24,14,180.869435284059,0.0309999999881256
24,15,663.979646204911,0.0420000000012806
24,16,1645.82902727912,0.0280000000057044
24,17,401.52371934399,0.0249999999941792
24,18,312.512061920996,0.0270000000018626
24,19,660.998236869538,0.0409999999974389
24,20,2958.97441260612,0.0460000000020955
24,21,1.03736247187525,0.0390000000043074
24,22,287.273335959904,0.0279999999911524
24,23,5790.61835719158,0.0340000000142027
24,24,1351.94660849022,0.0349999999889405
24,25,3791.61693485366,0.0320000000065193
24,26,5272.77943777281,0.0230000000010477
24,27,1996.13418253698,0.0409999999974389
24,28,810.415585012708,0.032999999995809
24,29,999.315838797998,0.0679999999993015
24,30,20656.2126228741,0.0460000000020955
25,1,528.868053712627,0.047999999995227
25,2,6.01622038170547,0.0490000000136206
25,3,22.7960200892701,0.0409999999974389
25,4,764.015333227974,0.0499999999883585
25,5,158.914581507219,0.0410000000119908
25,6,178.559023204257,0.0420000000012806
25,7,30.9472809147027,0.0509999999922002
25,8,895.87335504341,0.047999999995227
25,9,3096.9820559568,0.0339999999996508
25,10,10774.1911866605,0.055000000007567
25,11,657.414012669416,0.0449999999982538
25,12,78.2031720125948,0.0390000000043074
25,13,5969.04351919567,0.047999999995227
25,14,573.456444958045,0.0420000000012806
25,15,464.039640850562,0.0519999999960419
25,16,1789.97433930673,0.032999999995809
25,17,2406.80762377863,0.0390000000043074
25,18,1205.60055256743,0.0549999999930151
25,19,1275.17940514889,0.0450000000128057
25,20,16829.3549999231,0.0449999999982538
25,21,990.996025138425,0.0579999999899883
25,22,3066.36156253666,0.0299999999988358
25,23,8363.71489929453,0.0300000000133878
25,24,4087.77382966911,0.036999999996624
25,25,12441.0750358422,0.0389999999897555
25,26,4794.35812138088,0.044000000008964
25,27,12918.8595287641,0.0489999999990687
25,28,1827.97884377497,0.0339999999996508
25,29,12096.589872145,0.0420000000012806
25,30,17668.4268753232,0.069999999992433
26,1,8309.02204285957,0.0339999999996508
26,2,3162.01231158551,0.0360000000073342
26,3,7997.45786416843,0.0489999999990687
26,4,6526.95240495304,0.0469999999913853
26,5,2294.1449869197,0.0310000000026776
26,6,5621.17715065589,0.0470000000059372
26,7,2746.5258818933,0.0529999999998836
26,8,361.318718965054,0.0350000000034925
26,9,931.110838950414,0.0299999999988358
26,10,140.628135195177,0.0290000000095461
26,11,1557.11559469377,0.033000000010361
26,12,102.815674975266,0.0420000000012806
26,13,1246.24848836048,0.0509999999922002
26,14,3109.12912094014,0.0359999999927823
26,15,559.364830587504,0.0370000000111759
26,16,0.184672479376657,0.0269999999873107
26,17,1192.81745875111,0.0339999999996508
26,18,1.30425254694715,0.0290000000095461
26,19,94.605699988065,0.0350000000034925
26,20,31.9302557822573,0.0270000000018626
26,21,296.891923969438,0.0559999999968568
26,22,725.6876924273,0.0250000000087311
26,23,21.1854012157124,0.05899999999383
26,24,488.567375320064,0.0350000000034925
26,25,5.82045856802146,0.0519999999960419
26,26,635.78887587348,0.036999999996624
26,27,1.98820838810147,0.0430000000051223
26,28,521.559043323027,0.0319999999919673
26,29,43.070946298631,0.0300000000133878
26,30,213.700213589086,0.0399999999935972
27,1,17547.1957938415,0.0519999999960419
27,2,47811.2297477048,0.0380000000004657
27,3,14012.4053605876,0.0390000000043074
27,4,29247.7470076315,0.0359999999927823
27,5,4873.01706916305,0.0390000000043074
27,6,38886.9987541837,0.0380000000004657
27,7,39920.5633941651,0.0409999999974389
27,8,3976.13460082748,0.0299999999988358
27,9,2143.9065539887,0.0339999999996508
27,10,0.000157098889333699,0.0259999999980209
27,11,4290.42428987619,0.033000000010361
27,12,3565.96008786518,0.0359999999927823
27,13,5562.72717221963,0.0399999999935972
27,14,509.61240975854,0.0300000000133878
27,15,6980.37570109655,0.044000000008964
27,16,1576.48332365522,0.032999999995809
27,17,394.484461737056,0.0380000000004657
27,18,10130.7420684178,0.0259999999980209
27,19,3913.18623631258,0.0280000000057044
27,20,25.0380584326945,0.032999999995809
27,21,9723.73341031962,0.0449999999982538
27,22,2074.35721642729,0.0430000000051223
27,23,430.757163907185,0.0409999999974389
27,24,1492.30371898129,0.05899999999383
27,25,639.684231429389,0.033000000010361
27,26,83.4724558555438,0.047999999995227
27,27,1136.02242987916,0.0319999999919673
27,28,3104.2588814283,0.0430000000051223
27,29,19.1463548057719,0.0269999999873107
27,30,951.690117255683,0.0490000000136206
28,1,2511.44881701898,0.0409999999974389
28,2,1585.24058622373,0.0349999999889405
28,3,2404.51592316673,0.0480000000097789
28,4,1183.70443119529,0.0709999999962747
28,5,0.566044984419626,0.032999999995809
28,6,1299.81646949266,0.0270000000018626
28,7,1856.29241947386,0.0350000000034925
28,8,2199.45176714704,0.0510000000067521
28,9,5.81749558371276,0.0269999999873107
28,10,1.99751660085986,0.032999999995809
28,11,155.917392619439,0.0200000000040745
28,12,909.809145894809,0.0299999999988358
28,13,51.074030227002,0.0420000000012806
28,14,52.1599406738557,0.0310000000026776
28,15,0.994753659599751,0.0270000000018626
28,16,3.96069316049192,0.0269999999873107
28,17,0.309124484213206,0.0260000000125729
28,18,41.2705924533581,0.0239999999903375
28,19,26.0426951255279,0.0280000000057044
28,20,3711.19397540928,0.0209999999933643
28,21,137.398164600619,0.0299999999988358
28,22,75.4282362534716,0.0339999999996508
28,23,471.236650420087,0.0240000000048894
28,24,252.458634162374,0.0259999999980209
28,25,646.947794054502,0.0280000000057044
28,26,1764.19777485069,0.0289999999949941
28,27,172.329871587096,0.0350000000034925
28,28,2.61664830453181,0.0359999999927823
28,29,907.550474195684,0.0350000000034925
28,30,6261.08930582967,0.0439999999944121
29,1,1365.38552661929,0.055000000007567
29,2,1631.58939937817,0.0529999999998836
29,3,1675.02912244266,0.0429999999905704
29,4,10453.6746574987,0.0320000000065193
29,5,662.234609211935,0.0300000000133878
29,6,7.75741884171246,0.0459999999875436
29,7,513.763143445306,0.0339999999996508
29,8,695.218858863454,0.0310000000026776
29,9,0.520581248732302,0.0240000000048894
29,10,2.38533919936215,0.0339999999996508
29,11,291.243638859575,0.0439999999944121
29,12,4465.97604460977,0.0360000000073342
29,13,660.19973933424,0.0409999999974389
29,14,586.956619895328,0.0420000000012806
29,15,1051.80937933097,0.0359999999927823
29,16,255.419575214625,0.0339999999996508
29,17,618.945339165583,0.0289999999949941
29,18,278.080703501101,0.033000000010361
29,19,2083.735354128,0.0439999999944121
29,20,8747.42743830358,0.0380000000004657
29,21,80.3392840016928,0.0430000000051223
29,22,782.276598490261,0.036999999996624
29,23,2539.52295354607,0.0320000000065193
29,24,1046.11418795067,0.0359999999927823
29,25,5857.89356796939,0.0399999999935972
29,26,6338.08088540428,0.0360000000073342
29,27,4999.49051636874,0.0410000000119908
29,28,285.158140796551,0.0380000000004657
29,29,13.3830063704692,0.0380000000004657
29,30,572.698662265517,0.0399999999935972
30,1,184.105305496837,0.0390000000043074
30,2,29.123196720907,0.0310000000026776
30,3,55.8355193022885,0.0339999999996508
30,4,861.992120239612,0.0359999999927823
30,5,2510.34523674855,0.0409999999974389
30,6,141.254384193036,0.0460000000020955
30,7,230.794648063916,0.0439999999944121
30,8,517.149116868799,0.0299999999988358
30,9,449.508614859495,0.044000000008964
30,10,5189.80812804493,0.0349999999889405
30,11,62.220996704608,0.0380000000004657
30,12,29.3190062512509,0.0320000000065193
30,13,7.63913950647024,0.0240000000048894
30,14,2.69258512408225,0.0390000000043074
30,15,376.548293072911,0.047999999995227
30,16,125.189965446359,0.0259999999980209
30,17,698.534960151962,0.0340000000142027
30,18,1406.63647512366,0.0299999999988358
30,19,3.52125983674628,0.0360000000073342
30,20,2590.53716151057,0.0489999999990687
30,21,173.370719327489,0.032999999995809
30,22,3169.91227142859,0.0409999999974389
30,23,7512.73441646684,0.0320000000065193
30,24,2129.4052423288,0.0279999999911524
30,25,817.934947289362,0.0400000000081491
30,26,3774.27435460384,0.0310000000026776
30,27,346.847827535757,0.0249999999941792
30,28,929.666916534864,0.0540000000037253
30,29,3215.96143030176,0.0399999999935972
30,30,16131.3815571141,0.0540000000037253
