App - Shortyz
Scenario - download_puzzles
Length - 1sec
Measure - MinJumpCost
Before Version - 4.0.0_b
After Version - 4.0.2_b_m


"Before.Trace.ID1","Before.Trace.ID2","Difference","Runtime"
1,2,46.1433391516171,0.0419999999999163
1,3,291.332106116572,0.0199999999999818
1,4,192.421910771423,0.0210000000001855
1,5,6762.33621125095,0.0349999999998545
1,6,2950.12975070839,0.0370000000002619
1,7,11599.8003873164,0.0199999999999818
1,8,4179.52821882549,0.0210000000001855
1,9,19.5783272193425,0.0219999999999345
1,10,16497.366816083,0.0259999999998399
1,11,71105.4756114893,0.0250000000000909
1,12,0.000781802044464647,0.0180000000000291
1,13,1305.00168387959,0.0170000000002801
1,14,1003.28195523014,0.0279999999997926
1,15,8376.27232562022,0.0239999999998872
1,16,12.0486010937561,0.0190000000002328
1,17,1065.64875814523,0.0419999999999163
1,18,843.356253949574,0.0279999999997926
1,19,0.00926565940941276,0.0199999999999818
1,20,567.553185555015,0.0249999999996362
1,21,0.385949544853277,0.0169999999998254
1,22,1361.65282638789,0.0289999999999964
1,23,224.722921813674,0.0300000000002001
1,24,1251.97410587208,0.0270000000000437
1,25,17243.3495096093,0.0300000000002001
1,26,2971.63788290684,0.0299999999997453
1,27,30783.9868472318,0.0300000000002001
1,28,1983.38290434288,0.0199999999999818
1,29,159.307392934966,0.0270000000000437
1,30,101.162935685979,0.0239999999998872
2,3,2049.16288176966,0.0239999999998872
2,4,130.62371063454,0.0320000000001528
2,5,1379.29922831854,0.0380000000000109
2,6,4147.78894767211,0.0289999999999964
2,7,1.07932141850043,0.0280000000002474
2,8,23323.1877220605,0.0239999999998872
2,9,5434.15552337282,0.031999999999698
2,10,32109.0607322604,0.0350000000003092
2,11,38620.2307359438,0.0380000000000109
2,12,13045.4904770541,0.0369999999998072
2,13,5380.27249792952,0.0230000000001382
2,14,673.122053669955,0.0250000000000909
2,15,11105.2780525254,0.0259999999998399
2,16,26.5755522161635,0.0320000000001528
2,17,1567.35051620961,0.0169999999998254
2,18,2331.40941956201,0.0380000000000109
2,19,3508.62190390492,0.0219999999999345
2,20,2.97392719541463,0.0380000000000109
2,21,3450.64895564992,0.0209999999997308
2,22,684.239668600196,0.0289999999999964
2,23,29913.6136109883,0.0260000000002947
2,24,295.06612011926,0.0309999999999491
2,25,47246.010693356,0.0389999999997599
2,26,7088.84845266352,0.0700000000001637
2,27,36144.1248831557,0.0279999999997926
2,28,4784.22427262961,0.0270000000000437
2,29,47.7830098515013,0.0250000000000909
2,30,5.9039323602563,0.0219999999999345
3,4,1809.07998578882,0.0300000000002001
3,5,11.8215753109928,0.0219999999999345
3,6,1129.33403812113,0.0279999999997926
3,7,132.162412005676,0.024000000000342
3,8,45040.6670019058,0.0309999999999491
3,9,468.253778245559,0.0270000000000437
3,10,10179.9583340384,0.0409999999997126
3,11,5610.78497276221,0.0260000000002947
3,12,0.062867286652588,0.0309999999999491
3,13,1679.81803071007,0.0180000000000291
3,14,9369.93870098053,0.0320000000001528
3,15,12254.5230932775,0.0309999999999491
3,16,4619.21446270506,0.0239999999998872
3,17,160.278452744524,0.0270000000000437
3,18,3414.68580163205,0.0340000000001055
3,19,6870.56587474333,0.0329999999999018
3,20,632.016406385263,0.0250000000000909
3,21,48.6694153287831,0.0369999999998072
3,22,2838.10666960598,0.0250000000000909
3,23,26007.0282344778,0.0369999999998072
3,24,600.587942705332,0.0349999999998545
3,25,5020.62049104642,0.0239999999998872
3,26,1270.89412062314,0.0329999999999018
3,27,8749.95826206636,0.0480000000002292
3,28,11905.3356760148,0.0409999999997126
3,29,0.057439844542466,0.0279999999997926
3,30,1571.17964435993,0.0230000000001382
4,5,4525.56688349292,0.0299999999997453
4,6,537.985083791795,0.0310000000004038
4,7,0.000208367750589288,0.0229999999996835
4,8,882.317449256433,0.024000000000342
4,9,0.00344516183061699,0.0219999999999345
4,10,6110.62104114838,0.031999999999698
4,11,1761.6062797891,0.0280000000002474
4,12,22.124922594166,0.0169999999998254
4,13,5964.33960854751,0.0219999999999345
4,14,118.602424892051,0.0250000000000909
4,15,41129.8708393622,0.0329999999999018
4,16,8398.97342084094,0.0270000000000437
4,17,2.07234862995331,0.031999999999698
4,18,5313.83329447694,0.0320000000001528
4,19,15892.6296275086,0.0270000000000437
4,20,7876.98263729763,0.0309999999999491
4,21,2779.80284807249,0.0230000000001382
4,22,4401.76042734212,0.0309999999999491
4,23,83.6604961873797,0.0289999999999964
4,24,13.3963300496053,0.0309999999999491
4,25,4350.00752039956,0.0259999999998399
4,26,5342.82451436544,0.0340000000001055
4,27,6769.17947161472,0.0320000000001528
4,28,20500.0408950523,0.0340000000001055
4,29,0.00226090658978468,0.0199999999999818
4,30,631.370195069714,0.0309999999999491
5,6,4126.76653988493,0.0279999999997926
5,7,4828.34456745535,0.0280000000002474
5,8,598.732387261431,0.0199999999999818
5,9,1001.92415861876,0.0479999999997744
5,10,5203.37678610609,0.0250000000000909
5,11,0.0257102462923425,0.0190000000002328
5,12,6320.97403593148,0.0270000000000437
5,13,288.987159359647,0.0210000000001855
5,14,0.00100483585865957,0.0199999999999818
5,15,165.285412761686,0.0259999999998399
5,16,3715.77216003477,0.0629999999996471
5,17,2189.22330289279,0.0250000000000909
5,18,150.193722540478,0.0270000000000437
5,19,1595.46440684848,0.0349999999998545
5,20,1059.83499108447,0.0489999999999782
5,21,4870.58292392205,0.0289999999999964
5,22,1995.74621993489,0.0380000000000109
5,23,4166.09749593961,0.0210000000001855
5,24,1986.78940349892,0.0369999999998072
5,25,2.55209313723576,0.0300000000002001
5,26,0.528055890857621,0.0409999999997126
5,27,15504.5250335699,0.0459999999998217
5,28,2249.60099029924,0.0320000000001528
5,29,1490.0070507746,0.0259999999998399
5,30,0.982394120893881,0.0250000000000909
6,7,5449.2175390138,0.0369999999998072
6,8,15677.1129932715,0.0399999999999636
6,9,538.806084246066,0.0269999999995889
6,10,4240.56030495612,0.0320000000001528
6,11,10072.5438659139,0.0300000000002001
6,12,2070.62742296463,0.0410000000001673
6,13,0.308541846745623,0.0259999999998399
6,14,92.9376101763601,0.0309999999999491
6,15,53853.2300218825,0.0310000000004038
6,16,15552.1554060497,0.0289999999999964
6,17,215.900832707297,0.0199999999999818
6,18,3136.27541174718,0.0279999999997926
6,19,883.487851887831,0.0250000000000909
6,20,1740.19451212402,0.0209999999997308
6,21,31.0471620901156,0.0340000000001055
6,22,644.439850265821,0.0219999999999345
6,23,10974.3779426589,0.0440000000003238
6,24,608.135464522098,0.0279999999997926
6,25,2587.80189932518,0.0329999999999018
6,26,7976.10379094925,0.0320000000001528
6,27,11180.6884942037,0.0369999999998072
6,28,14624.6232480583,0.0309999999999491
6,29,3789.23037980114,0.0430000000001201
6,30,1011.53521808043,0.0540000000000873
7,8,24723.4466052095,0.0360000000000582
7,9,2868.54254896545,0.0289999999999964
7,10,22018.8592481934,0.0239999999998872
7,11,52327.4892162567,0.0309999999999491
7,12,13412.9550328035,0.0280000000002474
7,13,5806.48013420275,0.0239999999998872
7,14,248.913021420092,0.0300000000002001
7,15,19806.672838862,0.0369999999998072
7,16,1422.49090534737,0.0360000000000582
7,17,453.920102841798,0.0340000000001055
7,18,3780.09430763689,0.0259999999998399
7,19,10271.3777867396,0.0300000000002001
7,20,2123.82705994308,0.0409999999997126
7,21,114.802426842132,0.0270000000000437
7,22,1161.24857658247,0.0320000000001528
7,23,378.254290647427,0.031999999999698
7,24,1475.43041377939,0.0480000000002292
7,25,28488.4931558678,0.0320000000001528
7,26,877.013629147551,0.0389999999997599
7,27,13648.6920145263,0.0619999999998981
7,28,12722.6510168099,0.0330000000003565
7,29,69.6807290789716,0.0270000000000437
7,30,3214.77691174721,0.0329999999999018
8,9,4075.35674260285,0.0230000000001382
8,10,1273.16990886453,0.0360000000000582
8,11,9.25358411038707,0.024000000000342
8,12,17034.5985074705,0.0549999999998363
8,13,3071.48930313636,0.0219999999999345
8,14,7.35277578472628,0.0340000000001055
8,15,10127.8433357209,0.0389999999997599
8,16,2563.8052072035,0.0199999999999818
8,17,38216.4924755244,0.0300000000002001
8,18,1035.38325672949,0.0239999999998872
8,19,4427.30558247798,0.0340000000001055
8,20,33.9366141275525,0.0219999999999345
8,21,3093.21507236117,0.0419999999999163
8,22,6679.51805743981,0.0410000000001673
8,23,241.227284262289,0.0729999999998654
8,24,26020.1337018415,0.0420000000003711
8,25,0.0570912565877091,0.0339999999996508
8,26,93651.7441494566,0.0410000000001673
8,27,115.002791492644,0.0279999999997926
8,28,31055.219740712,0.0260000000002947
8,29,5531.50655974477,0.0259999999998399
8,30,4183.0429827653,0.0360000000000582
9,10,5971.92625918033,0.0309999999999491
9,11,3060.86176741814,0.0230000000001382
9,12,18083.5728171717,0.0209999999997308
9,13,4230.90447689142,0.0260000000002947
9,14,59.1175931087509,0.0210000000001855
9,15,9902.548831856,0.0219999999999345
9,16,2098.55114642228,0.0579999999999927
9,17,861.805962337779,0.0190000000002328
9,18,619.662392348192,0.0219999999999345
9,19,2142.85530737298,0.0299999999997453
9,20,10.5374983258682,0.0320000000001528
9,21,790.91243165851,0.0270000000000437
9,22,52.9302077491751,0.0320000000001528
9,23,1359.80388894729,0.0320000000001528
9,24,24.2903634253659,0.0380000000000109
9,25,18346.1724108626,0.0300000000002001
9,26,1113.61007648506,0.0430000000001201
9,27,10345.641539393,0.0199999999999818
9,28,8014.84895635314,0.0300000000002001
9,29,9704.06417921656,0.0230000000001382
9,30,1856.38617700114,0.0289999999999964
10,11,36.1352045587066,0.0470000000000255
10,12,2734.63408966352,0.0430000000001201
10,13,25434.9595215694,0.0360000000000582
10,14,698.991655247346,0.0249999999996362
10,15,140431.335367355,0.0250000000000909
10,16,1465.65451357354,0.0399999999999636
10,17,16987.4829722668,0.0380000000000109
10,18,22033.9805715597,0.0300000000002001
10,19,38440.4475183064,0.0270000000000437
10,20,388.447912688501,0.0360000000000582
10,21,7966.98350268104,0.0379999999995562
10,22,14096.6141455365,0.0360000000000582
10,23,8841.67162069658,0.0479999999997744
10,24,9784.26213118689,0.0380000000000109
10,25,1105.89012572753,0.0370000000002619
10,26,121651.174340405,0.0309999999999491
10,27,403.165566524158,0.055000000000291
10,28,36070.7598562245,0.0419999999999163
10,29,32750.2385249297,0.0250000000000909
10,30,25449.1458330156,0.0299999999997453
11,12,9666.49946277086,0.0280000000002474
11,13,4275.69783247108,0.0199999999999818
11,14,20962.3103183355,0.0320000000001528
11,15,102582.617631534,0.0289999999999964
11,16,97039.0439802587,0.0239999999998872
11,17,31881.8488976398,0.0420000000003711
11,18,4206.17586499919,0.0359999999996035
11,19,2462.14787765181,0.0250000000000909
11,20,200.57453325148,0.0320000000001528
11,21,8040.19738287841,0.0209999999997308
11,22,442.527357313052,0.0230000000001382
11,23,9439.45548816919,0.0540000000000873
11,24,4893.5521100567,0.0559999999995853
11,25,77.0657969244323,0.0270000000000437
11,26,139126.464739937,0.0280000000002474
11,27,40.8920104461368,0.0270000000000437
11,28,403.132959957352,0.0349999999998545
11,29,47207.3213051531,0.0250000000000909
11,30,25561.7829598356,0.0250000000000909
12,13,7839.02781477066,0.0239999999998872
12,14,376.620261702698,0.0220000000003893
12,15,104721.539385717,0.0239999999998872
12,16,28274.0509475377,0.0239999999998872
12,17,13292.1766435202,0.0309999999999491
12,18,20792.4183753176,0.0230000000001382
12,19,29972.6070695949,0.0309999999999491
12,20,4572.77354254401,0.0320000000001528
12,21,181.821641096519,0.0369999999998072
12,22,13271.0172953543,0.0349999999998545
12,23,7306.6467964003,0.05600000000004
12,24,7925.05243280636,0.0270000000000437
12,25,18.402244162412,0.0340000000001055
12,26,2814.21407216079,0.0280000000002474
12,27,27.8608147781443,0.0389999999997599
12,28,15611.8123381213,0.0430000000001201
12,29,7940.46796391124,0.0229999999996835
12,30,1531.63075287465,0.0360000000000582
13,14,4688.68815501233,0.0210000000001855
13,15,5439.19639551579,0.0229999999996835
13,16,4.08609186038865,0.0219999999999345
13,17,1919.73603691061,0.0230000000001382
13,18,50.9571725166338,0.0239999999998872
13,19,89.7780714656117,0.0219999999999345
13,20,2.67659497550427,0.0209999999997308
13,21,115.113130899819,0.0180000000000291
13,22,4081.13674679538,0.0199999999999818
13,23,7838.58301631823,0.0259999999998399
13,24,2024.40285891203,0.0320000000001528
13,25,7490.72164242146,0.0299999999997453
13,26,1012.70078139988,0.0229999999996835
13,27,3468.79574748022,0.0289999999999964
13,28,3199.44706031802,0.0200000000004366
13,29,562.071261598309,0.0279999999997926
13,30,24.3674294340479,0.0180000000000291
14,15,13922.7574284445,0.0270000000000437
14,16,3627.0846859214,0.0270000000000437
14,17,0.00564098161958662,0.0230000000001382
14,18,2805.64542560562,0.0720000000001164
14,19,2224.8335899331,0.0219999999999345
14,20,301.852061839689,0.0289999999999964
14,21,4972.66601833128,0.0259999999998399
14,22,246.110498221371,0.0309999999999491
14,23,1406.8640137014,0.0540000000000873
14,24,153.938623480943,0.0340000000001055
14,25,3101.90877295965,0.0250000000000909
14,26,6029.09068965684,0.0309999999999491
14,27,7054.08199787759,0.0399999999999636
14,28,1653.57072087325,0.0340000000001055
14,29,3469.66525495077,0.0229999999996835
14,30,1913.33399118198,0.024000000000342
15,16,6660.39610383531,0.0270000000000437
15,17,5830.05704381765,0.0300000000002001
15,18,4192.28019538356,0.0229999999996835
15,19,1186.45320469786,0.0360000000000582
15,20,0.108440470856178,0.0189999999997781
15,21,8090.9714443509,0.0210000000001855
15,22,30638.9158096392,0.0320000000001528
15,23,56297.5543978765,0.0349999999998545
15,24,35137.9830964038,0.0400000000004184
15,25,144827.579028498,0.031999999999698
15,26,2526.37287774282,0.0360000000000582
15,27,130634.84623679,0.0349999999998545
15,28,481.80689956766,0.0270000000000437
15,29,7781.16057685742,0.0369999999998072
15,30,9267.73960637351,0.0440000000003238
16,17,28.8730603309535,0.0259999999998399
16,18,124.948989855147,0.0199999999999818
16,19,8306.35903360654,0.0349999999998545
16,20,1328.16687093855,0.0250000000000909
16,21,1279.88167594256,0.0280000000002474
16,22,2471.33894242932,0.0229999999996835
16,23,53319.1030060686,0.0299999999997453
16,24,2485.40125924674,0.0489999999999782
16,25,58816.0349947464,0.0280000000002474
16,26,457.032034783102,0.0390000000002146
16,27,21488.8585418751,0.0250000000000909
16,28,3055.11036987367,0.0219999999999345
16,29,543.74946852963,0.0270000000000437
16,30,214.643980514586,0.0250000000000909
17,18,4043.26854066456,0.0269999999995889
17,19,699.769742227246,0.0180000000000291
17,20,28.5460337820194,0.0260000000002947
17,21,34.5790800681125,0.0189999999997781
17,22,287.807350826478,0.0350000000003092
17,23,34342.2258156928,0.0339999999996508
17,24,551.264433745828,0.0380000000000109
17,25,10904.9768031441,0.0410000000001673
17,26,619.861815247483,0.0300000000002001
17,27,23391.4377131983,0.031999999999698
17,28,10833.4417670584,0.0419999999999163
17,29,559.516180149746,0.0280000000002474
17,30,747.421672675183,0.0329999999999018
18,19,372.671703140368,0.0270000000000437
18,20,42.9726765054225,0.0279999999997926
18,21,727.275984094354,0.0190000000002328
18,22,3302.58389039512,0.0209999999997308
18,23,2922.73883918298,0.0279999999997926
18,24,3202.6245808543,0.0329999999999018
18,25,27081.5416993059,0.0300000000002001
18,26,302.980886449717,0.0349999999998545
18,27,23940.7090573456,0.0259999999998399
18,28,1505.39761343194,0.0200000000004366
18,29,1131.73791977318,0.0249999999996362
18,30,669.457118805594,0.0260000000002947
19,20,2650.58634827324,0.0259999999998399
19,21,3361.71933677866,0.0250000000000909
19,22,6333.17185087708,0.024000000000342
19,23,8266.34297735097,0.0350000000003092
19,24,6459.32533888674,0.031999999999698
19,25,26823.0099632324,0.0280000000002474
19,26,4444.54734997263,0.0270000000000437
19,27,44402.7555669503,0.031999999999698
19,28,0.359577206257919,0.0219999999999345
19,29,697.307330459884,0.0250000000000909
19,30,4454.86921033734,0.0509999999999309
20,21,442.381190439533,0.0270000000000437
20,22,0.100710774346068,0.0250000000000909
20,23,1.79917921849534,0.0270000000000437
20,24,8.95181894126113,0.0399999999999636
20,25,3754.94267790249,0.0289999999999964
20,26,185.068840126386,0.0250000000000909
20,27,11225.9898945408,0.0259999999998399
20,28,1531.78699983899,0.0260000000002947
20,29,0.0200411266635076,0.0189999999997781
20,30,152.224445020416,0.0320000000001528
21,22,549.21476943665,0.0229999999996835
21,23,8064.94434445679,0.0420000000003711
21,24,261.059337904607,0.0279999999997926
21,25,10189.1168678838,0.0340000000001055
21,26,2739.8310655842,0.0219999999999345
21,27,0.49390649612096,0.0309999999999491
21,28,9691.35885978584,0.0259999999998399
21,29,0.0338230500312034,0.0250000000000909
21,30,2364.42301138649,0.0230000000001382
22,23,4309.912754175,0.0380000000000109
22,24,371.876605611707,0.0360000000000582
22,25,24798.876758265,0.0270000000000437
22,26,0.447593554706318,0.0349999999998545
22,27,18321.0107410739,0.0279999999997926
22,28,6359.51482215368,0.0200000000004366
22,29,22.7528901326475,0.0229999999996835
22,30,675.767973895838,0.0260000000002947
23,24,4933.23736565545,0.0489999999999782
23,25,6445.10950377707,0.0549999999998363
23,26,47159.6547683438,0.0340000000001055
23,27,4923.80807321511,0.0479999999997744
23,28,30636.2367938991,0.0460000000002765
23,29,5181.57750181833,0.0289999999999964
23,30,46.4391383822563,0.0399999999999636
24,25,6598.69418575939,0.0370000000002619
24,26,1145.8232279474,0.0380000000000109
24,27,3063.45691390752,0.0239999999998872
24,28,12287.1296470366,0.0259999999998399
24,29,713.775547947323,0.0320000000001528
24,30,4888.27284647787,0.0399999999999636
25,26,118721.485247461,0.0340000000001055
25,27,1862.43505684164,0.0239999999998872
25,28,14724.5541359024,0.0299999999997453
25,29,30999.9302553796,0.0309999999999491
25,30,21498.0558364626,0.0350000000003092
26,27,106526.74405741,0.0359999999996035
26,28,1528.80101212097,0.0260000000002947
26,29,1730.49008950438,0.0279999999997926
26,30,0.417409043096525,0.0289999999999964
27,28,37487.6835932041,0.0289999999999964
27,29,26105.8707864303,0.0670000000000073
27,30,3160.00828612491,0.0309999999999491
28,29,12189.6677091061,0.0210000000001855
28,30,1013.61404545942,0.0199999999999818
29,30,2810.03539681669,0.0210000000001855


"After.Trace.ID","Before.Trace.ID","Difference","Runtime"
1,1,2511.03440721694,0.0229999999996835
1,2,2268.97582014435,0.0199999999999818
1,3,5117.75546828409,0.024000000000342
1,4,7417.4051332353,0.0239999999998872
1,5,496.147856275829,0.0239999999998872
1,6,10598.8108908463,0.0239999999998872
1,7,1331.52411541985,0.0380000000000109
1,8,3165.73350942967,0.0340000000001055
1,9,1672.9598345025,0.0270000000000437
1,10,18.363764510775,0.0229999999996835
1,11,3526.93172637951,0.0219999999999345
1,12,8914.87663421445,0.0230000000001382
1,13,244.188907091147,0.0210000000001855
1,14,9560.78860545166,0.0250000000000909
1,15,6521.08294976499,0.0359999999996035
1,16,1892.30731486994,0.0260000000002947
1,17,7794.10753029591,0.0189999999997781
1,18,59.0164535400397,0.0219999999999345
1,19,3.73510820189478,0.0210000000001855
1,20,67.735205910458,0.0219999999999345
1,21,0.22152417129936,0.0349999999998545
1,22,1244.04162035771,0.0260000000002947
1,23,7179.2711420756,0.0250000000000909
1,24,5308.65916653975,0.0329999999999018
1,25,14600.8829482384,0.0320000000001528
1,26,747.929985907638,0.0279999999997926
1,27,12591.265809535,0.0270000000000437
1,28,1493.01750657403,0.0250000000000909
1,29,14784.0596183599,0.0249999999996362
1,30,1359.45264594219,0.0270000000000437
2,1,31351.649375183,0.0289999999999964
2,2,36631.7090845591,0.0340000000001055
2,3,21964.3787797834,0.0270000000000437
2,4,3489.67782760727,0.0199999999999818
2,5,21064.5700768043,0.0470000000000255
2,6,43753.4175051798,0.0320000000001528
2,7,13303.773868728,0.0349999999998545
2,8,38749.7991194395,0.0369999999998072
2,9,60848.4238793513,0.0440000000003238
2,10,140577.687256994,0.0299999999997453
2,11,176643.786849704,0.0380000000000109
2,12,69268.303937312,0.0360000000000582
2,13,903.065030110478,0.0210000000001855
2,14,16210.6540247924,0.0340000000001055
2,15,837.775555892635,0.0349999999998545
2,16,13219.3586731876,0.0279999999997926
2,17,2852.03449601089,0.0250000000000909
2,18,0.296576644732093,0.0299999999997453
2,19,11895.8511080544,0.0399999999999636
2,20,21047.3660894262,0.0399999999999636
2,21,20024.3704980633,0.0299999999997453
2,22,19236.1652818731,0.0570000000002437
2,23,14413.602126177,0.0250000000000909
2,24,52752.2635583252,0.031999999999698
2,25,90950.1129652557,0.0380000000000109
2,26,1575.91650369004,0.0360000000000582
2,27,68137.0377314629,0.0230000000001382
2,28,4998.96092944269,0.0309999999999491
2,29,11619.0885020745,0.0289999999999964
2,30,2230.82625989355,0.0360000000000582
3,1,24285.7003597641,0.0259999999998399
3,2,50515.5502742398,0.0250000000000909
3,3,18.2491227006667,0.0250000000000909
3,4,2814.36508520104,0.0249999999996362
3,5,447.200483613202,0.0270000000000437
3,6,26700.7366039547,0.0309999999999491
3,7,15286.3031140347,0.0320000000001528
3,8,289.112522911454,0.0339999999996508
3,9,1710.5193704543,0.0280000000002474
3,10,3117.51071042243,0.031999999999698
3,11,781.77374560168,0.0280000000002474
3,12,2641.17885647535,0.0349999999998545
3,13,1150.0148299626,0.0199999999999818
3,14,1461.10664977683,0.0260000000002947
3,15,164740.109116631,0.0429999999996653
3,16,64438.3675869291,0.0220000000003893
3,17,8317.80544439162,0.0329999999999018
3,18,25349.5593930097,0.0259999999998399
3,19,44706.2444983864,0.0239999999998872
3,20,6492.96862323227,0.0250000000000909
3,21,8207.25545610803,0.0370000000002619
3,22,20337.5935957692,0.0299999999997453
3,23,2744.57877433998,0.0300000000002001
3,24,27698.1738103973,0.031999999999698
3,25,6599.13045902891,0.0300000000002001
3,26,40550.098024706,0.0270000000000437
3,27,368.346363035809,0.0380000000000109
3,28,40185.8516682813,0.0230000000001382
3,29,27791.8946326259,0.0309999999999491
3,30,29444.9889307238,0.0280000000002474
4,1,5341.16102721725,0.0189999999997781
4,2,13115.6170587541,0.0329999999999018
4,3,12816.6603971796,0.0270000000000437
4,4,27233.7412915133,0.0350000000003092
4,5,2346.03115761222,0.0340000000001055
4,6,16340.5181305228,0.0320000000001528
4,7,12771.9616189742,0.0269999999995889
4,8,17518.407706408,0.0310000000004038
4,9,3345.56436776521,0.0239999999998872
4,10,34330.2583434079,0.0349999999998545
4,11,62157.9574023391,0.0360000000000582
4,12,47215.8308263124,0.0340000000001055
4,13,3621.72546725301,0.031999999999698
4,14,7872.7708568113,0.0280000000002474
4,15,1334.76573222914,0.0299999999997453
4,16,4692.09587434101,0.0199999999999818
4,17,9920.93594423913,0.0419999999999163
4,18,908.750850448271,0.0219999999999345
4,19,495.823385132582,0.0190000000002328
4,20,6881.10604868082,0.0270000000000437
4,21,11028.3369502529,0.0169999999998254
4,22,0.383964554809249,0.0489999999999782
4,23,12323.2423122993,0.0270000000000437
4,24,11796.8532803994,0.0230000000001382
4,25,37134.1929353656,0.0369999999998072
4,26,2611.61569819808,0.0419999999999163
4,27,47625.9965966244,0.0380000000000109
4,28,248.08797758715,0.0380000000000109
4,29,13357.2902954513,0.0230000000001382
4,30,6977.94435159401,0.0289999999999964
5,1,4325.11833625075,0.0309999999999491
5,2,2990.47580613963,0.06899999999996
5,3,5323.32077869445,0.0380000000000109
5,4,10104.8137596282,0.0329999999999018
5,5,16051.7828924104,0.0390000000002146
5,6,7187.41405496031,0.0419999999999163
5,7,8327.07670987042,0.0340000000001055
5,8,5209.26443865648,0.0340000000001055
5,9,19088.2738409583,0.0369999999998072
5,10,4475.13553860853,0.0329999999999018
5,11,3220.30921162081,0.0370000000002619
5,12,36.4660983591798,0.0270000000000437
5,13,14362.5990143574,0.0250000000000909
5,14,4775.32634105121,0.0300000000002001
5,15,37071.7752482301,0.0329999999999018
5,16,5450.25985873395,0.0390000000002146
5,17,187.908519737803,0.0219999999999345
5,18,256.079428169945,0.0349999999998545
5,19,17130.6810308619,0.0389999999997599
5,20,0.0228559896747666,0.0190000000002328
5,21,3205.80589955171,0.0419999999999163
5,22,874.987412157406,0.0369999999998072
5,23,39647.4011317785,0.0399999999999636
5,24,4137.28766891916,0.0380000000000109
5,25,2992.9788694759,0.0370000000002619
5,26,19592.4024369608,0.031999999999698
5,27,485.621104935947,0.0470000000000255
5,28,23826.1983545773,0.0369999999998072
5,29,9958.41981718884,0.0380000000000109
5,30,18724.7967263383,0.0470000000000255
6,1,2379.3014291137,0.0340000000001055
6,2,4283.55476024249,0.0369999999998072
6,3,14916.0304194692,0.0180000000000291
6,4,14783.1524079371,0.0390000000002146
6,5,356.223315631885,0.0329999999999018
6,6,11774.2257871083,0.0250000000000909
6,7,4650.61705143784,0.0309999999999491
6,8,12948.9666188597,0.0510000000003856
6,9,13.7489546221264,0.0369999999998072
6,10,32362.1810486499,0.0289999999999964
6,11,9061.05714767466,0.0419999999999163
6,12,2620.13164360995,0.0399999999999636
6,13,498.50632674843,0.0229999999996835
6,14,11818.2193530144,0.024000000000342
6,15,2070.90454706631,0.0259999999998399
6,16,7040.39475536383,0.0229999999996835
6,17,5707.0355670467,0.0210000000001855
6,18,9.80060187800333,0.0230000000001382
6,19,6.22441571176332,0.0279999999997926
6,20,234.019020474756,0.0270000000000437
6,21,37.1669324280333,0.0300000000002001
6,22,7822.80342571893,0.0239999999998872
6,23,11555.6817323639,0.0360000000000582
6,24,8079.14401337482,0.0309999999999491
6,25,500.271303809804,0.0299999999997453
6,26,624.399079546545,0.0279999999997926
6,27,34692.2846247515,0.0330000000003565
6,28,2642.4710989386,0.0239999999998872
6,29,5799.5035052355,0.0430000000001201
6,30,1889.54585634256,0.0509999999999309
7,1,12230.0312465876,0.0340000000001055
7,2,2808.51425810379,0.0279999999997926
7,3,4113.45711879533,0.0350000000003092
7,4,3667.39385345983,0.0250000000000909
7,5,2421.83520282877,0.0320000000001528
7,6,15368.2147687595,0.0340000000001055
7,7,2606.19331721061,0.0459999999998217
7,8,652.137809949351,0.0600000000004002
7,9,957.136924996148,0.0359999999996035
7,10,30459.1627813529,0.0350000000003092
7,11,53474.0747586236,0.0479999999997744
7,12,906.809577175799,0.0370000000002619
7,13,989.92594319422,0.0309999999999491
7,14,4735.07219784973,0.0409999999997126
7,15,4687.28895527062,0.0330000000003565
7,16,4955.30852488788,0.0259999999998399
7,17,4285.14321471509,0.0239999999998872
7,18,1613.52662698454,0.0210000000001855
7,19,3342.66946063957,0.0340000000001055
7,20,975.523388425619,0.0349999999998545
7,21,1.76526600052971,0.0520000000001346
7,22,206.405971458481,0.0349999999998545
7,23,1.77353907178301,0.0430000000001201
7,24,4767.05731731598,0.0309999999999491
7,25,12668.8786918091,0.0329999999999018
7,26,1509.21434457697,0.0349999999998545
7,27,27035.3499106834,0.0480000000002292
7,28,7728.91928820887,0.0279999999997926
7,29,3454.45310214441,0.0300000000002001
7,30,1030.83353875878,0.0260000000002947
8,1,3610.00959220836,0.0199999999999818
8,2,3201.75951920334,0.0250000000000909
8,3,2077.07114902794,0.0189999999997781
8,4,80.5031337163064,0.0259999999998399
8,5,215.604644225542,0.0180000000000291
8,6,1990.34395282682,0.0300000000002001
8,7,527.27427291313,0.0329999999999018
8,8,1269.22978959777,0.0289999999999964
8,9,3057.10311627635,0.0309999999999491
8,10,11338.1481576108,0.0340000000001055
8,11,1130.9706760262,0.0250000000000909
8,12,14886.5017663612,0.0340000000001055
8,13,224.897359315696,0.0169999999998254
8,14,903.400270936186,0.0250000000000909
8,15,25644.228755721,0.0299999999997453
8,16,851.19160715689,0.0230000000001382
8,17,1396.32763787223,0.0239999999998872
8,18,20.9819981250172,0.0230000000001382
8,19,9101.27686629414,0.0320000000001528
8,20,5.7364936285625,0.0239999999998872
8,21,1911.97524683632,0.0219999999999345
8,22,335.841681275792,0.0300000000002001
8,23,2774.15017553074,0.0299999999997453
8,24,421.061404428079,0.0219999999999345
8,25,15640.7509356511,0.0300000000002001
8,26,471.556981878992,0.0239999999998872
8,27,12853.185654606,0.0280000000002474
8,28,3479.25770132874,0.0199999999999818
8,29,96.6693421926399,0.0270000000000437
8,30,263.075367243121,0.0300000000002001
9,1,163.500415829732,0.0229999999996835
9,2,642.53192980583,0.0280000000002474
9,3,0.304646890288399,0.0349999999998545
9,4,356.705637327721,0.0720000000001164
9,5,80.5023545256128,0.0199999999999818
9,6,10282.8906910426,0.0279999999997926
9,7,331.355549773789,0.024000000000342
9,8,11182.8944768015,0.0519999999996799
9,9,4033.81397611333,0.0300000000002001
9,10,9922.70799598853,0.0270000000000437
9,11,15677.9306033606,0.0230000000001382
9,12,5011.05456886967,0.031999999999698
9,13,5098.97888946485,0.0199999999999818
9,14,1871.18047119322,0.0360000000000582
9,15,2615.25816692298,0.0300000000002001
9,16,8561.00258595402,0.0229999999996835
9,17,1403.65303735833,0.0289999999999964
9,18,519.681348385569,0.0270000000000437
9,19,11434.7290377396,0.0309999999999491
9,20,0.448686742108515,0.0300000000002001
9,21,3462.97764165932,0.0279999999997926
9,22,531.100228640395,0.0220000000003893
9,23,12241.0697390816,0.0419999999999163
9,24,2032.28146796394,0.0370000000002619
9,25,10747.7074667115,0.0259999999998399
9,26,1780.7581368375,0.0329999999999018
9,27,12915.7052694804,0.0189999999997781
9,28,21.746842921319,0.0309999999999491
9,29,2420.63421723262,0.0259999999998399
9,30,1820.86418981934,0.0330000000003565
10,1,4196.1962193453,0.0229999999996835
10,2,2952.48597672406,0.0320000000001528
10,3,1148.14663619246,0.0259999999998399
10,4,4536.52255159655,0.0320000000001528
10,5,1669.25122881901,0.0329999999999018
10,6,2.20477405692049,0.0430000000001201
10,7,367.992845547985,0.0500000000001819
10,8,1256.10101633011,0.0369999999998072
10,9,952.223850599448,0.0340000000001055
10,10,19110.5202886595,0.0289999999999964
10,11,6724.89410787019,0.0279999999997926
10,12,7949.03711989896,0.0309999999999491
10,13,0.0438874919247519,0.0320000000001528
10,14,53.9725890481774,0.0349999999998545
10,15,5.97699744641155,0.0470000000000255
10,16,341.154062013574,0.0309999999999491
10,17,4971.90801661613,0.0300000000002001
10,18,196.008042171028,0.0249999999996362
10,19,7403.02630147646,0.0340000000001055
10,20,1749.20964590125,0.0300000000002001
10,21,672.519444547362,0.0239999999998872
10,22,1331.07584363358,0.0260000000002947
10,23,73.1850835843497,0.0349999999998545
10,24,1477.12773502854,0.0360000000000582
10,25,4670.15871118468,0.0380000000000109
10,26,2562.17415589296,0.0270000000000437
10,27,8656.11757509098,0.0340000000001055
10,28,6089.90347350202,0.0249999999996362
10,29,13.4583003024122,0.0330000000003565
10,30,2168.90085591262,0.0380000000000109
11,1,3570.76722337605,0.0239999999998872
11,2,7303.90387790658,0.0349999999998545
11,3,7273.05166176081,0.0239999999998872
11,4,10415.3448818526,0.024000000000342
11,5,2803.17768853794,0.0339999999996508
11,6,17771.6623306778,0.0350000000003092
11,7,3777.62909543597,0.0540000000000873
11,8,63759.3558254311,0.0470000000000255
11,9,75.6660873871322,0.0349999999998545
11,10,52204.0565623627,0.043999999999869
11,11,56689.9627320475,0.0370000000002619
11,12,47354.5397596947,0.0380000000000109
11,13,2682.84429188529,0.0209999999997308
11,14,2465.22858377727,0.0390000000002146
11,15,1761.07070273493,0.0429999999996653
11,16,3062.63009268508,0.0289999999999964
11,17,4208.28794301226,0.0230000000001382
11,18,2619.83445899411,0.0229999999996835
11,19,3123.86671418439,0.0300000000002001
11,20,646.269933135237,0.0309999999999491
11,21,260.640159792481,0.0270000000000437
11,22,2506.32625770747,0.0309999999999491
11,23,24418.9701628278,0.0309999999999491
11,24,1604.96479965221,0.0459999999998217
11,25,61760.7636583865,0.0410000000001673
11,26,136.128606915772,0.0250000000000909
11,27,84614.9937483408,0.0369999999998072
11,28,4555.11395440766,0.0419999999999163
11,29,2681.2024595192,0.0349999999998545
11,30,1448.37049424394,0.0440000000003238
12,1,11651.0629282743,0.0219999999999345
12,2,9855.40556289777,0.0360000000000582
12,3,22858.3319795618,0.0300000000002001
12,4,25636.3163417696,0.0459999999998217
12,5,233.669124778392,0.0340000000001055
12,6,18923.6454529043,0.0320000000001528
12,7,18690.5894817675,0.0389999999997599
12,8,20964.7576482173,0.0350000000003092
12,9,33.2091512521997,0.0270000000000437
12,10,29093.8361890897,0.044999999999618
12,11,64143.9898540486,0.0330000000003565
12,12,4159.25238070336,0.0419999999999163
12,13,3903.90235057665,0.0340000000001055
12,14,18208.4564477374,0.0299999999997453
12,15,6.69216989245541,0.0239999999998872
12,16,6403.04523097601,0.0270000000000437
12,17,13757.9286992115,0.0270000000000437
12,18,5170.07660328829,0.0189999999997781
12,19,2715.4673667687,0.0309999999999491
12,20,4127.13179535576,0.0270000000000437
12,21,12747.5560680319,0.0309999999999491
12,22,8897.33258531306,0.024000000000342
12,23,21894.7129829228,0.0309999999999491
12,24,5417.27801850573,0.0360000000000582
12,25,27723.8418338526,0.0349999999998545
12,26,811.818738928071,0.0250000000000909
12,27,15064.4392043968,0.031999999999698
12,28,422.096081900401,0.0370000000002619
12,29,9504.4211875767,0.0219999999999345
12,30,1884.28648916513,0.0349999999998545
13,1,9018.34884492378,0.0270000000000437
13,2,223.358349743542,0.0250000000000909
13,3,4932.9910419623,0.031999999999698
13,4,1216.20507399421,0.0280000000002474
13,5,95.825826449132,0.0270000000000437
13,6,3267.56672009635,0.0779999999999745
13,7,659.62149387859,0.0309999999999491
13,8,2237.61472685062,0.0440000000003238
13,9,2956.0272601606,0.0239999999998872
13,10,30037.4229949669,0.0470000000000255
13,11,289.139608007814,0.0180000000000291
13,12,30138.1539360112,0.031999999999698
13,13,36.2027759858025,0.0300000000002001
13,14,3048.98060530717,0.0279999999997926
13,15,5958.96726746144,0.0210000000001855
13,16,143.266918635372,0.0230000000001382
13,17,2831.83961066308,0.0199999999999818
13,18,16.8835336469874,0.0279999999997926
13,19,2402.22076825185,0.0280000000002474
13,20,10.0457057640027,0.0199999999999818
13,21,4917.59569831922,0.0280000000002474
13,22,1364.86535833833,0.0209999999997308
13,23,2748.96991623237,0.0289999999999964
13,24,765.791199133055,0.024000000000342
13,25,32138.3309389361,0.0459999999998217
13,26,962.16697975865,0.0330000000003565
13,27,9433.54255155201,0.0249999999996362
13,28,1671.89275103263,0.0480000000002292
13,29,2518.89485998344,0.0289999999999964
13,30,1.65811586107587,0.0189999999997781
14,1,262.119402959737,0.0199999999999818
14,2,47.7612220486336,0.0340000000001055
14,3,921.330518125454,0.0399999999999636
14,4,2555.80083386934,0.0219999999999345
14,5,4489.3301326837,0.0330000000003565
14,6,411.466766371816,0.0519999999996799
14,7,413.806222359723,0.0510000000003856
14,8,85.2769587682074,0.0380000000000109
14,9,66.2894081344359,0.0329999999999018
14,10,317.491484605222,0.0360000000000582
14,11,11305.0028460498,0.0389999999997599
14,12,362.292282159795,0.0329999999999018
14,13,3503.5971033461,0.0289999999999964
14,14,149.743660301466,0.0350000000003092
14,15,7390.92717549693,0.0329999999999018
14,16,635.757051379107,0.0270000000000437
14,17,1799.98379773764,0.024000000000342
14,18,813.104769071257,0.0259999999998399
14,19,39.3796119220116,0.0279999999997926
14,20,66.2669350692239,0.0310000000004038
14,21,800.813273739148,0.0299999999997453
14,22,156.706728151944,0.0309999999999491
14,23,620.015379519698,0.0430000000001201
14,24,281.578674886636,0.0419999999999163
14,25,12406.5117266878,0.0380000000000109
14,26,938.880189829505,0.0250000000000909
14,27,493.474555001066,0.0430000000001201
14,28,7520.60880136787,0.0329999999999018
14,29,405.315054301808,0.0349999999998545
14,30,1131.98396914629,0.0250000000000909
15,1,8.08529946199782,0.0380000000000109
15,2,86.9342003359607,0.0289999999999964
15,3,3350.94132099356,0.0280000000002474
15,4,1351.82585761968,0.0239999999998872
15,5,188.986549376971,0.0180000000000291
15,6,5311.55564852319,0.031999999999698
15,7,251.203164524943,0.0420000000003711
15,8,45585.7285775138,0.0329999999999018
15,9,1677.67368977889,0.0180000000000291
15,10,34985.2852778361,0.0309999999999491
15,11,1911.85479894977,0.0250000000000909
15,12,4548.85218020219,0.0239999999998872
15,13,1474.31935996216,0.0219999999999345
15,14,942.135494158635,0.0369999999998072
15,15,11756.103941691,0.0309999999999491
15,16,170.656292008337,0.0329999999999018
15,17,5219.7359892847,0.0340000000001055
15,18,1688.73828782326,0.0280000000002474
15,19,9208.68468018888,0.0399999999999636
15,20,67.6007914456929,0.0219999999999345
15,21,143.655507776156,0.0360000000000582
15,22,243.32065876258,0.0210000000001855
15,23,7628.49878446353,0.0459999999998217
15,24,1551.88355671151,0.0460000000002765
15,25,51155.1092137811,0.0329999999999018
15,26,1619.00352125182,0.0309999999999491
15,27,22669.1242368298,0.0419999999999163
15,28,10058.9826472786,0.0370000000002619
15,29,93.5009941099364,0.0259999999998399
15,30,5393.26047709291,0.0279999999997926
16,1,3308.3689781259,0.0190000000002328
16,2,6094.5527557181,0.0199999999999818
16,3,40.0542319431525,0.0320000000001528
16,4,16538.6512262404,0.0309999999999491
16,5,422.189947342189,0.0339999999996508
16,6,1107.68531286275,0.0310000000004038
16,7,5121.48493763391,0.0289999999999964
16,8,4244.05406782925,0.0339999999996508
16,9,142.249428735487,0.0250000000000909
16,10,172.545374105605,0.0410000000001673
16,11,59894.4285578901,0.0419999999999163
16,12,43353.4857336928,0.0349999999998545
16,13,3173.27307046358,0.0250000000000909
16,14,10196.8059240627,0.0340000000001055
16,15,495.326423813648,0.0329999999999018
16,16,4180.83657906101,0.0270000000000437
16,17,4882.34073751267,0.0309999999999491
16,18,427.364343330103,0.0219999999999345
16,19,624.120074160806,0.0300000000002001
16,20,935.748373782911,0.0419999999999163
16,21,8933.43070747084,0.0369999999998072
16,22,9009.48710553342,0.0270000000000437
16,23,309.078259968905,0.0350000000003092
16,24,14639.1857293433,0.0399999999999636
16,25,17776.3653638325,0.0430000000001201
16,26,354.973302512528,0.0270000000000437
16,27,4013.75611822867,0.0369999999998072
16,28,3896.96030104757,0.0349999999998545
16,29,4763.49255911312,0.0190000000002328
16,30,730.827934661573,0.0309999999999491
17,1,0.460284967967452,0.0219999999999345
17,2,10236.1010851916,0.0309999999999491
17,3,25730.8879879822,0.0309999999999491
17,4,0.0110824598558946,0.0199999999999818
17,5,0.209608204020761,0.0280000000002474
17,6,100140.713045989,0.031999999999698
17,7,34312.4418300849,0.0370000000002619
17,8,20934.7154150438,0.0389999999997599
17,9,0.231587878066719,0.0230000000001382
17,10,8783.2294829948,0.0720000000001164
17,11,111905.065864188,0.0250000000000909
17,12,9627.42635573999,0.0340000000001055
17,13,894.727963775529,0.0180000000000291
17,14,15594.4955277244,0.0360000000000582
17,15,4.67994848919676,0.0239999999998872
17,16,7678.41935757287,0.0259999999998399
17,17,14081.8531145149,0.0220000000003893
17,18,6299.54382060699,0.0199999999999818
17,19,0.199909534244581,0.0219999999999345
17,20,15999.2842463732,0.0259999999998399
17,21,57628.5856599639,0.0259999999998399
17,22,0.199666038443018,0.0199999999999818
17,23,21190.6523034921,0.0250000000000909
17,24,48125.3351907271,0.0260000000002947
17,25,75225.3154188493,0.0249999999996362
17,26,6028.49854877195,0.0350000000003092
17,27,10643.1149415555,0.0270000000000437
17,28,7.31544299826168,0.0419999999999163
17,29,14368.9059272392,0.0180000000000291
17,30,5335.58314851524,0.0300000000002001
18,1,38275.6227647327,0.0289999999999964
18,2,11.5422424946665,0.0299999999997453
18,3,0.0613483759476062,0.0220000000003893
18,4,15.442676705846,0.0280000000002474
18,5,14.501514091592,0.0249999999996362
18,6,8989.47416327835,0.0350000000003092
18,7,20541.9480057749,0.0259999999998399
18,8,5253.92303100326,0.056999999999789
18,9,23106.1298778509,0.0270000000000437
18,10,902.827012547237,0.0399999999999636
18,11,192.836688691604,0.0369999999998072
18,12,3708.0437590423,0.0300000000002001
18,13,13728.4051980837,0.0279999999997926
18,14,735.134958235188,0.055000000000291
18,15,182809.294861709,0.0299999999997453
18,16,66866.9139329572,0.0340000000001055
18,17,14752.0711006917,0.0329999999999018
18,18,13.1801832417622,0.0289999999999964
18,19,40232.2779026101,0.0279999999997926
18,20,6838.43017480028,0.0300000000002001
18,21,6133.44951597922,0.0479999999997744
18,22,17704.0706946309,0.0399999999999636
18,23,2764.29566021283,0.0639999999998508
18,24,11862.481027009,0.0450000000000728
18,25,188.592136449421,0.0320000000001528
18,26,104749.216325355,0.0329999999999018
18,27,1019.24510785197,0.043999999999869
18,28,41685.9649692047,0.024000000000342
18,29,28954.5526469754,0.0309999999999491
18,30,565.736492952065,0.0470000000000255
19,1,1537.55835289335,0.0239999999998872
19,2,10014.4546092895,0.031999999999698
19,3,13371.9781122731,0.0289999999999964
19,4,12473.9593702297,0.0250000000000909
19,5,1836.19122890398,0.0369999999998072
19,6,0.00363672275354867,0.0330000000003565
19,7,5731.03600389502,0.0299999999997453
19,8,91872.7390313603,0.0410000000001673
19,9,9344.68708366993,0.0250000000000909
19,10,66372.4696394835,0.0349999999998545
19,11,108522.501860529,0.0329999999999018
19,12,23598.2562824099,0.0289999999999964
19,13,1301.10774827899,0.0180000000000291
19,14,11796.4282184749,0.0349999999998545
19,15,2328.916744506,0.0260000000002947
19,16,1044.87463049404,0.0299999999997453
19,17,6723.42754850352,0.0289999999999964
19,18,5.91569764620767,0.0210000000001855
19,19,82.2398232926545,0.0219999999999345
19,20,1143.67531248734,0.0289999999999964
19,21,9422.51507885729,0.0289999999999964
19,22,4634.82322143072,0.0309999999999491
19,23,13751.2653079501,0.0309999999999491
19,24,4527.27657780433,0.0300000000002001
19,25,23914.3438175357,0.0270000000000437
19,26,1.15068719345182,0.0230000000001382
19,27,58678.476917807,0.0339999999996508
19,28,348.635979080956,0.0289999999999964
19,29,2908.90989835267,0.0260000000002947
19,30,2135.0549196589,0.0349999999998545
20,1,3575.77191744308,0.0199999999999818
20,2,13837.681482969,0.0300000000002001
20,3,37.4124808477943,0.0239999999998872
20,4,124.110634265457,0.0360000000000582
20,5,16645.8110597294,0.0470000000000255
20,6,3319.99656913953,0.0459999999998217
20,7,6799.60334892436,0.0300000000002001
20,8,13.4043825940104,0.0369999999998072
20,9,72.1532441169633,0.0250000000000909
20,10,15047.1310743448,0.0430000000001201
20,11,12882.4629269355,0.0380000000000109
20,12,12.5246336823677,0.0369999999998072
20,13,3372.89914001728,0.0259999999998399
20,14,117.341612282423,0.0330000000003565
20,15,47090.7560958395,0.0280000000002474
20,16,12657.0590238747,0.0329999999999018
20,17,231.576659411812,0.0270000000000437
20,18,6859.71706984821,0.0250000000000909
20,19,31.2056399866038,0.0269999999995889
20,20,12.8452384649733,0.0270000000000437
20,21,68.7208025150087,0.0350000000003092
20,22,1207.08534343546,0.0380000000000109
20,23,7743.26160638042,0.0429999999996653
20,24,21554.3109712417,0.0390000000002146
20,25,8.92669831275599,0.0389999999997599
20,26,28795.1465132406,0.0260000000002947
20,27,2.21992459886736,0.0380000000000109
20,28,11271.351371834,0.0339999999996508
20,29,1873.80176934983,0.0360000000000582
20,30,5662.18820821592,0.0489999999999782
21,1,475.831296292808,0.0320000000001528
21,2,160.092967800684,0.0270000000000437
21,3,3101.40143612126,0.0309999999999491
21,4,846.235546123475,0.0329999999999018
21,5,1356.04010626601,0.0389999999997599
21,6,365.142360657911,0.0410000000001673
21,7,78.2614685576092,0.0329999999999018
21,8,1802.62885527644,0.0320000000001528
21,9,122.21718189025,0.0309999999999491
21,10,11846.3834423663,0.0300000000002001
21,11,8879.01413503328,0.0399999999999636
21,12,640.561326637986,0.0339999999996508
21,13,987.246479229333,0.0600000000004002
21,14,1059.91751341026,0.0299999999997453
21,15,15803.0600548296,0.043999999999869
21,16,1564.85324226953,0.024000000000342
21,17,9.83007057725174,0.0249999999996362
21,18,970.969967760982,0.024000000000342
21,19,7794.98198996015,0.0419999999999163
21,20,1098.45553040464,0.0250000000000909
21,21,328.240531993911,0.0250000000000909
21,22,15.5654593420537,0.0320000000001528
21,23,5249.02422807872,0.0419999999999163
21,24,2.34952967793241,0.0389999999997599
21,25,3688.40578558787,0.0380000000000109
21,26,1963.31950459369,0.0260000000002947
21,27,6012.17922591616,0.0309999999999491
21,28,15258.4767199635,0.0279999999997926
21,29,335.788405837749,0.0390000000002146
21,30,1814.39468044182,0.0340000000001055
22,1,2379.3386581605,0.0289999999999964
22,2,1034.95226384353,0.0380000000000109
22,3,4284.03569623093,0.0359999999996035
22,4,11668.9289979835,0.0380000000000109
22,5,1002.66226389117,0.0300000000002001
22,6,15742.9702793056,0.0300000000002001
22,7,705.519734104862,0.0429999999996653
22,8,122066.517206657,0.05600000000004
22,9,7589.17614847963,0.0340000000001055
22,10,62026.1085896074,0.043999999999869
22,11,94355.6431952458,0.0389999999997599
22,12,16567.0736578462,0.0399999999999636
22,13,2694.17260878393,0.0329999999999018
22,14,2400.0679691798,0.0339999999996508
22,15,1810.58699045744,0.0260000000002947
22,16,22.0120629868144,0.0279999999997926
22,17,1469.37821723264,0.0280000000002474
22,18,1417.23340786704,0.0219999999999345
22,19,217.329250675466,0.0320000000001528
22,20,1183.8158593023,0.0209999999997308
22,21,294.607803156661,0.043999999999869
22,22,12.1822154566319,0.0380000000000109
22,23,42913.3728199325,0.0509999999999309
22,24,11504.7193339341,0.0309999999999491
22,25,48857.3539691562,0.0450000000000728
22,26,56.136181868327,0.0380000000000109
22,27,94087.5129375804,0.0380000000000109
22,28,5341.77407006369,0.0239999999998872
22,29,8.38151621487335,0.0370000000002619
22,30,518.956094429726,0.0250000000000909
23,1,97.0009165512078,0.0349999999998545
23,2,78.8780356292645,0.0199999999999818
23,3,125.831260970638,0.0180000000000291
23,4,4880.83767958558,0.0350000000003092
23,5,8.80517962096654,0.0210000000001855
23,6,4080.0008377191,0.0479999999997744
23,7,390.155537436936,0.0270000000000437
23,8,259.394246348526,0.0370000000002619
23,9,1627.41885470557,0.0199999999999818
23,10,6181.2142198416,0.0309999999999491
23,11,1039.7298622554,0.0239999999998872
23,12,7573.53543087012,0.0399999999999636
23,13,27.5414954607152,0.0309999999999491
23,14,489.86967854627,0.0239999999998872
23,15,6931.43182768899,0.0330000000003565
23,16,109.725488874228,0.0169999999998254
23,17,213.54407427428,0.0300000000002001
23,18,2034.21946219171,0.0259999999998399
23,19,4574.15880551389,0.0289999999999964
23,20,104.058685380675,0.0300000000002001
23,21,1152.5415322439,0.0429999999996653
23,22,4867.01722855346,0.0219999999999345
23,23,1957.57981112207,0.0380000000000109
23,24,10.6240163634418,0.0289999999999964
23,25,1687.78329037837,0.0340000000001055
23,26,785.959308215257,0.0270000000000437
23,27,18611.2313567581,0.0199999999999818
23,28,4088.86155438689,0.0360000000000582
23,29,8373.8750176024,0.0349999999998545
23,30,51.0811678134053,0.0309999999999491
24,1,6398.86255586458,0.0250000000000909
24,2,6138.14794148344,0.0329999999999018
24,3,2803.52445169256,0.0309999999999491
24,4,9748.02139729427,0.0300000000002001
24,5,903.964786952473,0.0339999999996508
24,6,20133.0932184775,0.0320000000001528
24,7,4794.9800209357,0.0399999999999636
24,8,43071.8189682761,0.0399999999999636
24,9,808.797284640789,0.0309999999999491
24,10,45553.6775740936,0.0380000000000109
24,11,88558.8685361002,0.0380000000000109
24,12,48175.1724647388,0.0380000000000109
24,13,481.815259366661,0.0220000000003893
24,14,11343.3547992576,0.0429999999996653
24,15,1371.34885401702,0.0270000000000437
24,16,1658.22788466202,0.0239999999998872
24,17,9350.94870767903,0.0289999999999964
24,18,847.80858072951,0.0230000000001382
24,19,4832.47630691797,0.0289999999999964
24,20,473.323303217837,0.0299999999997453
24,21,5990.78967415564,0.0380000000000109
24,22,9165.30836693372,0.0280000000002474
24,23,12.0487122826419,0.043999999999869
24,24,11150.1449140884,0.0509999999999309
24,25,79598.4516748093,0.0390000000002146
24,26,89.6538574245069,0.0249999999996362
24,27,51556.3867668046,0.0440000000003238
24,28,0.00152657070364545,0.0219999999999345
24,29,2972.01725741889,0.0299999999997453
24,30,1095.93042085794,0.0260000000002947
25,1,1034.60390696412,0.0230000000001382
25,2,3854.76570976154,0.0309999999999491
25,3,29.9031308170827,0.0229999999996835
25,4,572.253466539106,0.0230000000001382
25,5,34.6292213227804,0.0269999999995889
25,6,10779.4916582776,0.0310000000004038
25,7,1045.79990903603,0.0329999999999018
25,8,9012.48382031534,0.0530000000003383
25,9,1288.52644267308,0.0209999999997308
25,10,10220.2650288338,0.0289999999999964
25,11,1364.0140417694,0.0210000000001855
25,12,9038.41321349957,0.0289999999999964
25,13,14.4882191905972,0.0169999999998254
25,14,316.023337327219,0.0199999999999818
25,15,1196.90222758558,0.0590000000001965
25,16,370.570858100441,0.0180000000000291
25,17,3624.64691787739,0.0239999999998872
25,18,2.89630156142292,0.0210000000001855
25,19,1330.36966355096,0.0320000000001528
25,20,10.7348435048,0.0239999999998872
25,21,4.16176773969408,0.0270000000000437
25,22,4834.01772274564,0.0270000000000437
25,23,3185.20388628788,0.0279999999997926
25,24,3976.62105479402,0.024000000000342
25,25,15030.7999012693,0.0279999999997926
25,26,16.8683794881022,0.0230000000001382
25,27,17119.7940134971,0.0289999999999964
25,28,0.235586641464484,0.031999999999698
25,29,7598.26696153299,0.0250000000000909
25,30,172.55371420787,0.0280000000002474
26,1,26029.7622464378,0.0309999999999491
26,2,23453.9616502018,0.0259999999998399
26,3,13929.8218577557,0.0250000000000909
26,4,9602.6024658267,0.0180000000000291
26,5,22244.4895818255,0.0309999999999491
26,6,31984.9382723325,0.0369999999998072
26,7,19281.8344699167,0.0280000000002474
26,8,61784.4368667524,0.0320000000001528
26,9,13220.7430636459,0.0360000000000582
26,10,43961.0406461651,0.0310000000004038
26,11,63518.8392469429,0.0299999999997453
26,12,33936.3935351887,0.0259999999998399
26,13,13782.8626530417,0.0210000000001855
26,14,13207.2859409887,0.0329999999999018
26,15,3501.3665231988,0.0350000000003092
26,16,7482.01383013796,0.0189999999997781
26,17,25766.2905795227,0.0270000000000437
26,18,15272.768514746,0.0219999999999345
26,19,2259.0663908413,0.0239999999998872
26,20,16873.3410500277,0.0310000000004038
26,21,1309.92257100591,0.0199999999999818
26,22,18437.0600288658,0.0320000000001528
26,23,38683.2286599252,0.0409999999997126
26,24,13960.1841987521,0.0370000000002619
26,25,51355.1857903297,0.0259999999998399
26,26,9134.03266042998,0.0239999999998872
26,27,1521.87067117142,0.0279999999997926
26,28,9399.96575477556,0.0250000000000909
26,29,1105.97694031696,0.0370000000002619
26,30,18435.3534462896,0.0329999999999018
27,1,6553.8127878501,0.0180000000000291
27,2,6949.77753390723,0.0389999999997599
27,3,5661.31966808946,0.0170000000002801
27,4,22075.4228336725,0.0250000000000909
27,5,1998.59168480515,0.0519999999996799
27,6,518.223750064018,0.0289999999999964
27,7,2044.09587727585,0.0430000000001201
27,8,10808.6207578015,0.0369999999998072
27,9,841.32452638104,0.0350000000003092
27,10,6072.06471726417,0.0309999999999491
27,11,14955.768869797,0.0279999999997926
27,12,20050.0018735535,0.0280000000002474
27,13,4112.39754105633,0.0180000000000291
27,14,1700.96327890104,0.0199999999999818
27,15,1.04841269517206,0.0320000000001528
27,16,5064.00045449891,0.0230000000001382
27,17,3645.78069869364,0.0259999999998399
27,18,2150.57369013721,0.0239999999998872
27,19,0.654611724238147,0.0230000000001382
27,20,1670.67746873666,0.0309999999999491
27,21,7694.89980010191,0.0309999999999491
27,22,4351.74257027814,0.0270000000000437
27,23,8142.38389023929,0.0210000000001855
27,24,9863.21073788115,0.031999999999698
27,25,3652.25986347909,0.0210000000001855
27,26,8186.3605625981,0.0230000000001382
27,27,21383.0257372444,0.0280000000002474
27,28,1759.72017498782,0.0209999999997308
27,29,6001.30996442155,0.0260000000002947
27,30,8151.4984510564,0.0320000000001528
28,1,4373.17654804256,0.0250000000000909
28,2,505.469292185798,0.0380000000000109
28,3,1531.7579052191,0.0249999999996362
28,4,1661.69448890723,0.0250000000000909
28,5,3271.78199110653,0.0340000000001055
28,6,3410.1525448708,0.0419999999999163
28,7,178.361368721118,0.0329999999999018
28,8,54702.2185005837,0.0459999999998217
28,9,4321.64094017448,0.0419999999999163
28,10,12022.2049013338,0.0320000000001528
28,11,38532.850821183,0.0370000000002619
28,12,4068.13803675516,0.0359999999996035
28,13,349.172687442987,0.0190000000002328
28,14,202.42204061779,0.0430000000001201
28,15,20053.3081334068,0.0329999999999018
28,16,1203.61688582001,0.0230000000001382
28,17,492.478592894386,0.0210000000001855
28,18,2349.99187877862,0.0249999999996362
28,19,13203.7935071186,0.0310000000004038
28,20,879.525266624113,0.0279999999997926
28,21,3542.01233749651,0.0360000000000582
28,22,214.042092104571,0.0389999999997599
28,23,2297.43664471162,0.0380000000000109
28,24,3367.86426619861,0.0390000000002146
28,25,29840.1502432955,0.0390000000002146
28,26,5381.78205330412,0.0289999999999964
28,27,22724.1260868168,0.0320000000001528
28,28,6106.83969858368,0.0229999999996835
28,29,12.5137178291013,0.0330000000003565
28,30,822.836605510435,0.0349999999998545
29,1,612.52796056463,0.0230000000001382
29,2,1135.23573643106,0.0279999999997926
29,3,2803.87352798809,0.0349999999998545
29,4,1226.78040138619,0.0369999999998072
29,5,24.694841924364,0.0260000000002947
29,6,293.033462108932,0.0299999999997453
29,7,905.517013855208,0.024000000000342
29,8,21435.8489127646,0.0389999999997599
29,9,75.7133236569567,0.0219999999999345
29,10,18681.4256117949,0.0280000000002474
29,11,32827.9858164796,0.0249999999996362
29,12,605.577183699005,0.0310000000004038
29,13,813.824591888631,0.0180000000000291
29,14,1619.26680042776,0.031999999999698
29,15,4619.9972595394,0.0309999999999491
29,16,1.94382430086388,0.0230000000001382
29,17,2710.09808542492,0.0210000000001855
29,18,58.7800740637049,0.0229999999996835
29,19,6103.73474372991,0.0280000000002474
29,20,1.16814766033107,0.0219999999999345
29,21,634.459052634124,0.0289999999999964
29,22,950.541033327574,0.0230000000001382
29,23,1724.0694141044,0.0239999999998872
29,24,96.2622103806895,0.0289999999999964
29,25,19064.3533139453,0.0239999999998872
29,26,448.780180052475,0.0280000000002474
29,27,16522.2626843049,0.0309999999999491
29,28,2.89298249630647,0.0219999999999345
29,29,2057.56440583574,0.0239999999998872
29,30,117.584289117451,0.0579999999999927
30,1,106.558133496946,0.0300000000002001
30,2,292.487110926708,0.0229999999996835
30,3,2782.14773241283,0.0280000000002474
30,4,1583.50644992831,0.0279999999997926
30,5,1956.0589123569,0.0270000000000437
30,6,800.152869160282,0.0350000000003092
30,7,0.799571360510936,0.0249999999996362
30,8,200.654456645105,0.0450000000000728
30,9,336.896090065678,0.0300000000002001
30,10,14749.2229423934,0.0280000000002474
30,11,19368.4889822641,0.031999999999698
30,12,3864.52634652839,0.0250000000000909
30,13,623.950359523894,0.0219999999999345
30,14,4616.13218716865,0.0440000000003238
30,15,28983.865014629,0.0309999999999491
30,16,399.926888785062,0.0259999999998399
30,17,4754.00941733279,0.0259999999998399
30,18,3918.06066570024,0.0330000000003565
30,19,1034.53353292577,0.0309999999999491
30,20,59.5480411269137,0.0299999999997453
30,21,1118.48580621518,0.0380000000000109
30,22,0.150102076153583,0.0340000000001055
30,23,17759.4079776899,0.0349999999998545
30,24,2838.58544137967,0.0400000000004184
30,25,22296.289104899,0.0289999999999964
30,26,792.444638370305,0.0269999999995889
30,27,16656.9196276612,0.0330000000003565
30,28,31.532478486645,0.0289999999999964
30,29,19025.3999924237,0.0429999999996653
30,30,396.208283915266,0.0280000000002474
