Trial,Energy (J)
1,79.47829161588389
2,74.37451676351199
3,76.73975161205242
4,72.6830008459681
5,74.58603404611978
6,74.76319288857218
7,78.57269802085997
8,73.70764354411212
9,76.23185582506778
10,75.82429930694386
11,77.02504346859612
12,77.21831186292789
13,78.71516197932011
14,73.84088907100009
15,77.83525362459608
16,73.79203342144805
17,81.18039623108405
18,74.99915988838401
19,74.70651514442818
20,78.30480205337996
21,78.67613463157164
22,76.2201000265558
23,76.96844465372006
24,74.22206685750433
25,78.03803225599593
26,77.21468609575152
27,80.4658226241802
28,83.62576594342012
29,76.5665733010716
30,78.13307354747214
