Trial,Energy (J)
1,149.88463973968302
2,126.74630193238748
3,143.93254261929155
4,143.69527584271978
5,141.58636249574306
6,127.61705539672755
7,134.03156363426365
8,126.23263580159544
9,134.43244097244005
10,143.76439683241168
11,128.41070967848765
12,148.26069196417512
13,157.16787575456422
14,137.2325178014682
15,127.5242203580285
16,142.36209462973167
17,108.36174202869985
18,140.07006019533958
19,134.77635326013188
20,136.34897747849942
21,155.11725960475238
22,135.9873286360918
23,127.26524352524365
24,159.57191464166516
25,134.84635687369152
26,132.70150228842778
27,140.34494098142778
28,145.40351769783933
29,140.53227144097613
30,139.61840501747258
