Var (s),Version,Trial,Port
5,v3,1,1
5,v3,2,1
5,v3,3,1
5,v3,4,1
5,v3,5,1
5,v3,6,1
5,v3,7,1
5,v3,8,1
5,v3,9,1
5,v3,10,1
5,v3,11,1
5,v3,12,1
5,v3,13,1
5,v3,14,1
5,v3,15,1
5,v3,16,1
5,v3,17,1
5,v3,18,1
5,v3,19,1
5,v3,20,1
5,v3,21,1
5,v3,22,1
5,v3,23,1
5,v3,24,1
5,v3,25,1
5,v3,26,1
5,v3,27,1
5,v3,28,1
5,v3,29,1
5,v3,30,1
5,v1,1,1
5,v1,2,1
5,v1,3,1
5,v1,4,1
5,v1,5,1
5,v1,6,1
5,v1,7,1
5,v1,8,1
5,v1,9,1
5,v1,10,1
5,v1,11,1
5,v1,12,1
5,v1,13,1
5,v1,14,1
5,v1,15,1
5,v1,16,1
5,v1,17,1
5,v1,18,1
5,v1,19,1
5,v1,20,1
5,v1,21,1
5,v1,22,1
5,v1,23,1
5,v1,24,1
5,v1,25,1
5,v1,26,1
5,v1,27,1
5,v1,28,1
5,v1,29,1
5,v1,30,1
5,v4,1,1
5,v4,2,1
5,v4,3,1
5,v4,4,1
5,v4,5,1
5,v4,6,1
5,v4,7,1
5,v4,8,1
5,v4,9,1
5,v4,10,1
5,v4,11,1
5,v4,12,1
5,v4,13,1
5,v4,14,1
5,v4,15,1
5,v4,16,1
5,v4,17,1
5,v4,18,1
5,v4,19,1
5,v4,20,1
5,v4,21,1
5,v4,22,1
5,v4,23,1
5,v4,24,1
5,v4,25,1
5,v4,26,1
5,v4,27,1
5,v4,28,1
5,v4,29,1
5,v4,30,1
5,v2,1,1
5,v2,2,1
5,v2,3,1
5,v2,4,1
5,v2,5,1
5,v2,6,1
5,v2,7,1
5,v2,8,1
5,v2,9,1
5,v2,10,1
5,v2,11,1
5,v2,12,1
5,v2,13,1
5,v2,14,1
5,v2,15,1
5,v2,16,1
5,v2,17,1
5,v2,18,1
5,v2,19,1
5,v2,20,1
5,v2,21,1
5,v2,22,1
5,v2,23,1
5,v2,24,1
5,v2,25,1
5,v2,26,1
5,v2,27,1
5,v2,28,1
5,v2,29,1
5,v2,30,1
0,v3,1,1
0,v3,2,1
0,v3,3,1
0,v3,4,1
0,v3,5,1
0,v3,6,1
0,v3,7,1
0,v3,8,1
0,v3,9,1
0,v3,10,1
0,v3,11,1
0,v3,12,1
0,v3,13,1
0,v3,14,1
0,v3,15,1
0,v3,16,1
0,v3,17,1
0,v3,18,1
0,v3,19,1
0,v3,20,1
0,v3,21,1
0,v3,22,1
0,v3,23,1
0,v3,24,1
0,v3,25,1
0,v3,26,1
0,v3,27,1
0,v3,28,1
0,v3,29,1
0,v3,30,1
0,v1,1,1
0,v1,2,1
0,v1,3,1
0,v1,4,1
0,v1,5,1
0,v1,6,1
0,v1,7,1
0,v1,8,1
0,v1,9,1
0,v1,10,1
0,v1,11,1
0,v1,12,1
0,v1,13,1
0,v1,14,1
0,v1,15,1
0,v1,16,1
0,v1,17,1
0,v1,18,1
0,v1,19,1
0,v1,20,1
0,v1,21,1
0,v1,22,1
0,v1,23,1
0,v1,24,1
0,v1,25,1
0,v1,26,1
0,v1,27,1
0,v1,28,1
0,v1,29,1
0,v1,30,1
0,v4,1,1
0,v4,2,1
0,v4,3,1
0,v4,4,1
0,v4,5,1
0,v4,6,1
0,v4,7,1
0,v4,8,1
0,v4,9,1
0,v4,10,1
0,v4,11,1
0,v4,12,1
0,v4,13,1
0,v4,14,1
0,v4,15,1
0,v4,16,1
0,v4,17,1
0,v4,18,1
0,v4,19,1
0,v4,20,1
0,v4,21,1
0,v4,22,1
0,v4,23,1
0,v4,24,1
0,v4,25,1
0,v4,26,1
0,v4,27,1
0,v4,28,1
0,v4,29,1
0,v4,30,1
0,v2,1,1
0,v2,2,1
0,v2,3,1
0,v2,4,1
0,v2,5,1
0,v2,6,1
0,v2,7,1
0,v2,8,1
0,v2,9,1
0,v2,10,1
0,v2,11,1
0,v2,12,1
0,v2,13,1
0,v2,14,1
0,v2,15,1
0,v2,16,1
0,v2,17,1
0,v2,18,1
0,v2,19,1
0,v2,20,1
0,v2,21,1
0,v2,22,1
0,v2,23,1
0,v2,24,1
0,v2,25,1
0,v2,26,1
0,v2,27,1
0,v2,28,1
0,v2,29,1
0,v2,30,1
10,v3,1,1
10,v3,2,1
10,v3,3,1
10,v3,4,1
10,v3,5,1
10,v3,6,1
10,v3,7,1
10,v3,8,1
10,v3,9,1
10,v3,10,1
10,v3,11,1
10,v3,12,1
10,v3,13,1
10,v3,14,1
10,v3,15,1
10,v3,16,1
10,v3,17,1
10,v3,18,1
10,v3,19,1
10,v3,20,1
10,v3,21,1
10,v3,22,1
10,v3,23,1
10,v3,24,1
10,v3,25,1
10,v3,26,1
10,v3,27,1
10,v3,28,1
10,v3,29,1
10,v3,30,1
10,v1,1,1
10,v1,2,1
10,v1,3,1
10,v1,4,1
10,v1,5,1
10,v1,6,1
10,v1,7,1
10,v1,8,1
10,v1,9,1
10,v1,10,1
10,v1,11,1
10,v1,12,1
10,v1,13,1
10,v1,14,1
10,v1,15,1
10,v1,16,1
10,v1,17,1
10,v1,18,1
10,v1,19,1
10,v1,20,1
10,v1,21,1
10,v1,22,1
10,v1,23,1
10,v1,24,1
10,v1,25,1
10,v1,26,1
10,v1,27,1
10,v1,28,1
10,v1,29,1
10,v1,30,1
10,v4,1,1
10,v4,2,1
10,v4,3,1
10,v4,4,1
10,v4,5,1
10,v4,6,1
10,v4,7,1
10,v4,8,1
10,v4,9,1
10,v4,10,1
10,v4,11,1
10,v4,12,1
10,v4,13,1
10,v4,14,1
10,v4,15,1
10,v4,16,1
10,v4,17,1
10,v4,18,1
10,v4,19,1
10,v4,20,1
10,v4,21,1
10,v4,22,1
10,v4,23,1
10,v4,24,1
10,v4,25,1
10,v4,26,1
10,v4,27,1
10,v4,28,1
10,v4,29,1
10,v4,30,1
10,v2,1,1
10,v2,2,1
10,v2,3,1
10,v2,4,1
10,v2,5,1
10,v2,6,1
10,v2,7,1
10,v2,8,1
10,v2,9,1
10,v2,10,1
10,v2,11,1
10,v2,12,1
10,v2,13,1
10,v2,14,1
10,v2,15,1
10,v2,16,1
10,v2,17,1
10,v2,18,1
10,v2,19,1
10,v2,20,1
10,v2,21,1
10,v2,22,1
10,v2,23,1
10,v2,24,1
10,v2,25,1
10,v2,26,1
10,v2,27,1
10,v2,28,1
10,v2,29,1
10,v2,30,1
1,v3,1,1
1,v3,2,1
1,v3,3,1
1,v3,4,1
1,v3,5,1
1,v3,6,1
1,v3,7,1
1,v3,8,1
1,v3,9,1
1,v3,10,1
1,v3,11,1
1,v3,12,1
1,v3,13,1
1,v3,14,1
1,v3,15,1
1,v3,16,1
1,v3,17,1
1,v3,18,1
1,v3,19,1
1,v3,20,1
1,v3,21,1
1,v3,22,1
1,v3,23,1
1,v3,24,1
1,v3,25,1
1,v3,26,1
1,v3,27,1
1,v3,28,1
1,v3,29,1
1,v3,30,1
1,v1,1,1
1,v1,2,1
1,v1,3,1
1,v1,4,1
1,v1,5,1
1,v1,6,1
1,v1,7,1
1,v1,8,1
1,v1,9,1
1,v1,10,1
1,v1,11,1
1,v1,12,1
1,v1,13,1
1,v1,14,1
1,v1,15,1
1,v1,16,1
1,v1,17,1
1,v1,18,1
1,v1,19,1
1,v1,20,1
1,v1,21,1
1,v1,22,1
1,v1,23,1
1,v1,24,1
1,v1,25,1
1,v1,26,1
1,v1,27,1
1,v1,28,1
1,v1,29,1
1,v1,30,1
1,v4,1,1
1,v4,2,1
1,v4,3,1
1,v4,4,1
1,v4,5,1
1,v4,6,1
1,v4,7,1
1,v4,8,1
1,v4,9,1
1,v4,10,1
1,v4,11,1
1,v4,12,1
1,v4,13,1
1,v4,14,1
1,v4,15,1
1,v4,16,1
1,v4,17,1
1,v4,18,1
1,v4,19,1
1,v4,20,1
1,v4,21,1
1,v4,22,1
1,v4,23,1
1,v4,24,1
1,v4,25,1
1,v4,26,1
1,v4,27,1
1,v4,28,1
1,v4,29,1
1,v4,30,1
1,v2,1,1
1,v2,2,1
1,v2,3,1
1,v2,4,1
1,v2,5,1
1,v2,6,1
1,v2,7,1
1,v2,8,1
1,v2,9,1
1,v2,10,1
1,v2,11,1
1,v2,12,1
1,v2,13,1
1,v2,14,1
1,v2,15,1
1,v2,16,1
1,v2,17,1
1,v2,18,1
1,v2,19,1
1,v2,20,1
1,v2,21,1
1,v2,22,1
1,v2,23,1
1,v2,24,1
1,v2,25,1
1,v2,26,1
1,v2,27,1
1,v2,28,1
1,v2,29,1
1,v2,30,1
