App - ConnectBot
Scenario - ssh_shell
Level - 1sec
Measure - EDRDistance
Test Statistic - Mann-Whitney U Test
Effect Size Measure - Simple Difference:Kerby
Alpha Level - 0.05


"Before.Version","After.Version","Diff","Direction","P.Value","Simple.Diff","Within.Diffs.Mean","Within.Diffs.SD","Between.Diffs.Mean","Between.Diffs.SD","Runtime"
"1.8.3","1.8.4",FALSE,NA,0,0.28,1729.874,8.906,1735.106,11.094,341.565
"1.8.4","1.8.5",FALSE,NA,1,-0.169,1738.076,11.465,1735.068,11.044,341.75
"1.8.5","1.8.6",FALSE,NA,0.572,-0.006,1730.593,7.909,1730.291,8.509,342.688
