"Before.Trace.ID1","Before.Trace.ID2","Difference","Runtime"
1,2,4.36975577366994e-05,0.00200000000040745
1,3,7.91882935446964e-07,0.00200000000040745
1,4,7.3951152203322e-05,0.00100000000020373
1,5,2.3669506278301e-05,0.00200000000040745
1,6,1.54830837331144e-05,0.000999999998384737
1,7,6.68137550660086e-05,0.00200000000040745
1,8,2.54073666009491e-05,0.00200000000040745
1,9,3.08189994308039e-05,0.00100000000020373
1,10,4.71620632579439e-05,0.00200000000040745
1,11,1.31583637468236e-05,0.00100000000020373
1,12,1.72817713109952e-05,0.00199999999858846
1,13,4.06720160379681e-05,0.00100000000020373
1,14,2.84926953949549e-05,0.00100000000020373
1,15,1.89860097361549e-05,0.00200000000040745
1,16,4.19943193623595e-05,0.00100000000020373
1,17,8.52317680922754e-05,0.00199999999858846
1,18,6.41631627462669e-05,0.00100000000020373
1,19,6.80866957067927e-05,0.00100000000020373
1,20,7.71578950895524e-05,0.00200000000040745
1,21,3.60572987189167e-05,0.00100000000020373
1,22,3.60551519495989e-06,0.00200000000040745
1,23,3.3708791670195e-05,0.00199999999858846
1,24,3.23766019995064e-05,0.00100000000020373
1,25,8.1664233313905e-05,0.00200000000040745
1,26,2.60060540390183e-05,0.00100000000020373
1,27,5.78552503247565e-05,0.00200000000040745
1,28,5.2333777164959e-05,0.00100000000020373
1,29,1.20374121667099e-05,0.00100000000020373
1,30,9.11807062526915e-05,0.00200000000040745
2,3,4.29056748012524e-05,0.00100000000020373
2,4,3.02535944666227e-05,0.00200000000040745
2,5,2.00280514583984e-05,0.00100000000020373
2,6,2.8214474003585e-05,0.000999999998384737
2,7,2.31161973293093e-05,0.00200000000040745
2,8,6.91049243376485e-05,0.00100000000020373
2,9,1.28785583058955e-05,0.00200000000040745
2,10,9.08596209946433e-05,0.00100000000020373
2,11,5.68559214835229e-05,0.00100000000020373
2,12,2.64157864257042e-05,0.00199999999858846
2,13,3.02554169873126e-06,0.00100000000020373
2,14,1.52048623417445e-05,0.00200000000040745
2,15,6.26835674728543e-05,0.00499999999919964
2,16,1.70323837433983e-06,0.00200000000040745
2,17,4.1534210355576e-05,0.00100000000020373
2,18,2.04656050095675e-05,0.00100000000020373
2,19,2.43891379700933e-05,0.00200000000040745
2,20,3.3460337352853e-05,0.00100000000020373
2,21,7.64025901778265e-06,0.00199999999858846
2,22,4.73030729316593e-05,0.00100000000020373
2,23,9.98876606650434e-06,0.00200000000040745
2,24,7.60741597362058e-05,0.00200000000040745
2,25,3.79666755772057e-05,0.00100000000020373
2,26,1.7691503697681e-05,0.00199999999858846
2,27,1.41576925880571e-05,0.00100000000020373
2,28,8.63621942825965e-06,0.00200000000040745
2,29,3.16601455699894e-05,0.00100000000020373
2,30,4.74831485159921e-05,0.00100000000020373
3,4,7.31592692678751e-05,0.00199999999858846
3,5,2.2877623342854e-05,0.00100000000020373
3,6,1.46912007976674e-05,0.00200000000040745
3,7,6.60218721305617e-05,0.00100000000020373
3,8,2.61992495363961e-05,0.00200000000040745
3,9,3.00271164953569e-05,0.00100000000020373
3,10,4.79539461933909e-05,0.000999999998384737
3,11,1.39502466822705e-05,0.00200000000040745
3,12,1.64898883755482e-05,0.00100000000020373
3,13,3.98801331025211e-05,0.00200000000040745
3,14,2.7700812459508e-05,0.00100000000020373
3,15,1.97778926716019e-05,0.00200000000040745
3,16,4.12024364269126e-05,0.00199999999858846
3,17,8.44398851568284e-05,0.00100000000020373
3,18,6.33712798108199e-05,0.00200000000040745
3,19,6.72948127713457e-05,0.00100000000020373
3,20,7.63660121541054e-05,0.00200000000040745
3,21,3.52654157834698e-05,0.00100000000020373
3,22,4.39739813040685e-06,0.00100000000020373
3,23,3.29169087347481e-05,0.00200000000040745
3,24,3.31684849349534e-05,0.00100000000020373
3,25,8.08723503784581e-05,0.00200000000040745
3,26,2.52141711035714e-05,0.00200000000040745
3,27,5.70633673893095e-05,0.000999999998384737
3,28,5.15418942295121e-05,0.00200000000040745
3,29,1.1245529231263e-05,0.00100000000020373
3,30,9.03888233172445e-05,0.00200000000040745
4,5,5.0281645925021e-05,0.00100000000020373
4,6,5.84680684702077e-05,0.00100000000020373
4,7,7.13739713731343e-06,0.00199999999858846
4,8,9.93585188042712e-05,0.00100000000020373
4,9,4.31321527725181e-05,0.00200000000040745
4,10,0.000121113215461266,0.00100000000020373
4,11,8.71095159501456e-05,0.00100000000020373
4,12,5.66693808923269e-05,0.00199999999858846
4,13,3.32791361653539e-05,0.00100000000020373
4,14,4.54584568083671e-05,0.00200000000040745
4,15,9.2937161939477e-05,0.00100000000020373
4,16,3.19568328409625e-05,0.00100000000020373
4,17,1.12806158889533e-05,0.00200000000040745
4,18,9.78798945705517e-06,0.000999999998384737
4,19,5.86445649652934e-06,0.00200000000040745
4,20,3.20674288623035e-06,0.00100000000020373
4,21,3.78938534844053e-05,0.00200000000040745
4,22,7.75566673982819e-05,0.00200000000040745
4,23,4.0242360533127e-05,0.00100000000020373
4,24,0.000106327754202828,0.00199999999858846
4,25,7.713081110583e-06,0.00100000000020373
4,26,4.79450981643037e-05,0.00600000000122236
4,27,1.60959018785656e-05,0.00199999999858846
4,28,2.1617375038363e-05,0.00100000000020373
4,29,6.19137400366121e-05,0.00200000000040745
4,30,1.72295540493694e-05,0.00200000000040745
5,6,8.18642254518664e-06,0.00100000000020373
5,7,4.31442487877076e-05,0.00199999999858846
5,8,4.90768728792501e-05,0.00100000000020373
5,9,7.14949315250291e-06,0.00200000000040745
5,10,7.08315695362449e-05,0.00100000000020373
5,11,3.68278700251246e-05,0.00100000000020373
5,12,6.38773496730582e-06,0.00200000000040745
5,13,1.70025097596671e-05,0.000999999998384737
5,14,4.82318911665391e-06,0.00200000000040745
5,15,4.26555160144559e-05,0.00100000000020373
5,16,1.83248130840585e-05,0.00200000000040745
5,17,6.15622618139744e-05,0.00100000000020373
5,18,4.04936564679659e-05,0.00100000000020373
5,19,4.44171894284917e-05,0.00199999999858846
5,20,5.34883888112514e-05,0.00100000000020373
5,21,1.23877924406157e-05,0.00200000000040745
5,22,2.72750214732609e-05,0.00100000000020373
5,23,1.0039285391894e-05,0.00200000000040745
5,24,5.60461082778074e-05,0.00199999999858846
5,25,5.7994727035604e-05,0.00100000000020373
5,26,2.33654776071734e-06,0.00200000000040745
5,27,3.41857440464555e-05,0.00100000000020373
5,28,2.8664270886658e-05,0.00200000000040745
5,29,1.16320941115911e-05,0.00100000000020373
5,30,6.75111999743905e-05,0.00199999999858846
6,7,5.13306713328943e-05,0.00200000000040745
6,8,4.08904503340635e-05,0.00100000000020373
6,9,1.53359156976896e-05,0.00200000000040745
6,10,6.26451469910583e-05,0.00100000000020373
6,11,2.86414474799379e-05,0.00199999999858846
6,12,1.79868757788082e-06,0.00200000000040745
6,13,2.51889323048538e-05,0.00100000000020373
6,14,1.30096116618406e-05,0.00200000000040745
6,15,3.44690934692693e-05,0.00100000000020373
6,16,2.65112356292452e-05,0.00200000000040745
6,17,6.9748684359161e-05,0.00199999999858846
6,18,4.86800790131525e-05,0.00100000000020373
6,19,5.26036119736784e-05,0.00200000000040745
6,20,6.1674811356438e-05,0.00100000000020373
6,21,2.05742149858024e-05,0.00200000000040745
6,22,1.90885989280742e-05,0.00199999999858846
6,23,1.82257079370807e-05,0.00100000000020373
6,24,4.78596857326208e-05,0.00200000000040745
6,25,6.61811495807907e-05,0.00100000000020373
6,26,1.0522970305904e-05,0.00200000000040745
6,27,4.23721665916421e-05,0.00200000000040745
6,28,3.68506934318447e-05,0.000999999998384737
6,29,3.44567156640441e-06,0.00200000000040745
6,30,7.56976225195771e-05,0.00100000000020373
7,8,9.22211216669577e-05,0.00200000000040745
7,9,3.59947556352047e-05,0.00200000000040745
7,10,0.000113975818323953,0.00100000000020373
7,11,7.99721188128322e-05,0.00199999999858846
7,12,4.95319837550134e-05,0.00100000000020373
7,13,2.61417390280405e-05,0.00200000000040745
7,14,3.83210596710537e-05,0.00100000000020373
7,15,8.57997648021636e-05,0.00100000000020373
7,16,2.48194357036491e-05,0.00199999999858846
7,17,1.84180130262668e-05,0.00100000000020373
7,18,2.65059231974174e-06,0.00600000000122236
7,19,1.27294064078409e-06,0.00199999999858846
7,20,1.03441400235438e-05,0.00100000000020373
7,21,3.07564563470919e-05,0.00200000000040745
7,22,7.04192702609685e-05,0.00100000000020373
7,23,3.31049633958136e-05,0.00200000000040745
7,24,9.9190357065515e-05,0.00100000000020373
7,25,1.48504782478964e-05,0.000999999998384737
7,26,4.08077010269903e-05,0.00200000000040745
7,27,8.95850474125215e-06,0.00100000000020373
7,28,1.44799779010496e-05,0.00200000000040745
7,29,5.47763428992987e-05,0.00100000000020373
7,30,2.43669511866829e-05,0.00200000000040745
8,9,5.6226366031753e-05,0.00199999999858846
8,10,2.17546966569948e-05,0.00100000000020373
8,11,1.22490028541256e-05,0.00200000000040745
8,12,4.26891379119443e-05,0.00100000000020373
8,13,6.60793826389172e-05,0.00200000000040745
8,14,5.3900061995904e-05,0.00100000000020373
8,15,6.42135686479417e-06,0.00199999999858846
8,16,6.74016859633086e-05,0.00200000000040745
8,17,0.000110639134693225,0.00100000000020373
8,18,8.9570529347216e-05,0.00200000000040745
8,19,9.34940623077418e-05,0.00100000000020373
8,20,0.000102565261690502,0.00199999999858846
8,21,6.14646653198658e-05,0.00100000000020373
8,22,2.18018514059892e-05,0.00200000000040745
8,23,5.91161582711441e-05,0.00200000000040745
8,24,6.96923539855732e-06,0.00100000000020373
8,25,0.000107071599914854,0.00200000000040745
8,26,5.14134206399675e-05,0.000999999998384737
8,27,8.32626169257056e-05,0.00200000000040745
8,28,7.77411437659081e-05,0.00200000000040745
8,29,3.74447787676591e-05,0.00100000000020373
8,30,0.000116588072853641,0.00200000000040745
9,10,7.79810626887478e-05,0.00100000000020373
9,11,4.39773631776275e-05,0.00199999999858846
9,12,1.35372281198087e-05,0.00100000000020373
9,13,9.8530166071642e-06,0.00100000000020373
9,14,2.32630403584899e-06,0.00200000000040745
9,15,4.98050091669588e-05,0.00100000000020373
9,16,1.11753199315556e-05,0.00199999999858846
9,17,5.44127686614715e-05,0.00100000000020373
9,18,3.3344163315463e-05,0.00100000000020373
9,19,3.72676962759888e-05,0.00200000000040745
9,20,4.63388956587485e-05,0.00100000000020373
9,21,5.23829928811281e-06,0.00199999999858846
9,22,3.44245146257638e-05,0.00100000000020373
9,23,2.88979223939112e-06,0.00100000000020373
9,24,6.31956014303103e-05,0.00200000000040745
9,25,5.08452338831011e-05,0.00100000000020373
9,26,4.81294539178556e-06,0.00200000000040745
9,27,2.70362508939526e-05,0.000999999998384737
9,28,2.15147777341551e-05,0.00200000000040745
9,29,1.8781587264094e-05,0.00200000000040745
9,30,6.03617068218876e-05,0.00100000000020373
10,11,3.40036995111204e-05,0.00200000000040745
10,12,6.44438345689391e-05,0.00100000000020373
10,13,8.7834079295912e-05,0.00100000000020373
10,14,7.56547586528988e-05,0.00200000000040745
10,15,2.8176053521789e-05,0.00100000000020373
10,16,8.91563826203035e-05,0.00200000000040745
10,17,0.000132393831350219,0.00100000000020373
10,18,0.000111325226004211,0.00199999999858846
10,19,0.000115248758964737,0.00200000000040745
10,20,0.000124319958347496,0.00500000000101863
10,21,8.32193619768606e-05,0.00199999999858846
10,22,4.3556548062984e-05,0.00100000000020373
10,23,8.08708549281389e-05,0.00100000000020373
10,24,1.47854612584375e-05,0.00200000000040745
10,25,0.000128826296571849,0.00100000000020373
10,26,7.31681172969623e-05,0.00200000000040745
10,27,0.0001050173135827,0.000999999998384737
10,28,9.94958404229029e-05,0.00200000000040745
10,29,5.91994754246539e-05,0.00200000000040745
10,30,0.000138342769510635,0.00100000000020373
11,12,3.04401350578187e-05,0.00200000000040745
11,13,5.38303797847917e-05,0.00100000000020373
11,14,4.16510591417785e-05,0.00199999999858846
11,15,5.82764598933139e-06,0.00100000000020373
11,16,5.51526831091831e-05,0.00200000000040745
11,17,9.83901318390989e-05,0.00200000000040745
11,18,7.73215264930904e-05,0.00100000000020373
11,19,8.12450594536163e-05,0.00199999999858846
11,20,9.0316258836376e-05,0.00100000000020373
11,21,4.92156624657403e-05,0.00200000000040745
11,22,9.55284855186367e-06,0.00100000000020373
11,23,4.68671554170186e-05,0.00100000000020373
11,24,1.92182382526829e-05,0.00200000000040745
11,25,9.48225970607286e-05,0.000999999998384737
11,26,3.91644177858419e-05,0.00200000000040745
11,27,7.101361407158e-05,0.00100000000020373
11,28,6.54921409117826e-05,0.00200000000040745
11,29,2.51957759135335e-05,0.00200000000040745
11,30,0.000104339069999515,0.00100000000020373
12,13,2.33902447269729e-05,0.00199999999858846
12,14,1.12109240839597e-05,0.00100000000020373
12,15,3.62677810471501e-05,0.00200000000040745
12,16,2.47125480513644e-05,0.00100000000020373
12,17,6.79499967812802e-05,0.00200000000040745
12,18,4.68813914352717e-05,0.00199999999858846
12,19,5.08049243957975e-05,0.00100000000020373
12,20,5.98761237785572e-05,0.00200000000040745
12,21,1.87755274079215e-05,0.00100000000020373
12,22,2.08872865059551e-05,0.00200000000040745
12,23,1.64270203591999e-05,0.00200000000040745
12,24,4.96583733105016e-05,0.000999999998384737
12,25,6.43824620029099e-05,0.00200000000040745
12,26,8.72428272802317e-06,0.00100000000020373
12,27,4.05734790137613e-05,0.00200000000040745
12,28,3.50520058539638e-05,0.00200000000040745
12,29,5.24435914428523e-06,0.00100000000020373
12,30,7.38989349416963e-05,0.00199999999858846
13,14,1.21793206430132e-05,0.00100000000020373
13,15,5.9658025774123e-05,0.00200000000040745
13,16,1.32230332439143e-06,0.00200000000040745
13,17,4.45597520543073e-05,0.00100000000020373
13,18,2.34911467082988e-05,0.00199999999858846
13,19,2.74146796688246e-05,0.00100000000020373
13,20,3.64858790515843e-05,0.00200000000040745
13,21,4.61471731905139e-06,0.00200000000040745
13,22,4.4277531232928e-05,0.00100000000020373
13,23,6.96322436777308e-06,0.00199999999858846
13,24,7.30486180374745e-05,0.00100000000020373
13,25,4.09922172759369e-05,0.00200000000040745
13,26,1.46659619989498e-05,0.00200000000040745
13,27,1.71832342867884e-05,0.00100000000020373
13,28,1.16617611269909e-05,0.00200000000040745
13,29,2.86346038712582e-05,0.000999999998384737
13,30,5.05086902147234e-05,0.00600000000122236
14,15,4.74787051311099e-05,0.00200000000040745
14,16,1.35016239674046e-05,0.000999999998384737
14,17,5.67390726973205e-05,0.00200000000040745
14,18,3.5670467351312e-05,0.00100000000020373
14,19,3.95940003118378e-05,0.00200000000040745
14,20,4.86651996945975e-05,0.00200000000040745
14,21,7.5646033239618e-06,0.00100000000020373
14,22,3.20982105899148e-05,0.00199999999858846
14,23,5.21609627524011e-06,0.00100000000020373
14,24,6.08692973944613e-05,0.00200000000040745
14,25,5.31715379189501e-05,0.00100000000020373
14,26,2.48664135593657e-06,0.00100000000020373
14,27,2.93625549298016e-05,0.00199999999858846
14,28,2.38410817700041e-05,0.00100000000020373
14,29,1.6455283228245e-05,0.00200000000040745
14,30,6.26880108577366e-05,0.00100000000020373
15,16,6.09803290985145e-05,0.00200000000040745
15,17,0.00010421777782843,0.00100000000020373
15,18,8.31491724824218e-05,0.000999999998384737
15,19,8.70727054429477e-05,0.00200000000040745
15,20,9.61439048257073e-05,0.00100000000020373
15,21,5.50433084550717e-05,0.00200000000040745
15,22,1.53804945411951e-05,0.00100000000020373
15,23,5.269480140635e-05,0.00200000000040745
15,24,1.33905922633515e-05,0.000999999998384737
15,25,0.00010065024305006,0.00100000000020373
15,26,4.49920637751733e-05,0.00200000000040745
15,27,7.68412600609114e-05,0.00100000000020373
15,28,7.1319786901114e-05,0.00200000000040745
15,29,3.10234219028649e-05,0.00100000000020373
15,30,0.000110166715988846,0.00199999999858846
16,17,4.32374487299159e-05,0.00200000000040745
16,18,2.21688433839073e-05,0.00100000000020373
16,19,2.60923763444332e-05,0.00200000000040745
16,20,3.51635757271929e-05,0.00100000000020373
16,21,5.93702064344281e-06,0.00199999999858846
16,22,4.55998345573194e-05,0.00200000000040745
16,23,8.28552769216451e-06,0.00100000000020373
16,24,7.4370921361866e-05,0.00200000000040745
16,25,3.96699139515455e-05,0.00100000000020373
16,26,1.59882653233412e-05,0.00200000000040745
16,27,1.58609309623969e-05,0.00199999999858846
16,28,1.03394578025995e-05,0.00100000000020373
16,29,2.99569071956496e-05,0.00200000000040745
16,30,4.91863868903319e-05,0.00100000000020373
17,18,2.10686053460085e-05,0.00200000000040745
17,19,1.71450723854827e-05,0.00199999999858846
17,20,8.073873002723e-06,0.00100000000020373
17,21,4.91744693733587e-05,0.00200000000040745
17,22,8.88372832872353e-05,0.00100000000020373
17,23,5.15229764220804e-05,0.00200000000040745
17,24,0.000117608370091782,0.00200000000040745
17,25,3.56753477837035e-06,0.000999999998384737
17,26,5.92257140532571e-05,0.00200000000040745
17,27,2.73765177675189e-05,0.00100000000020373
17,28,3.28979909273164e-05,0.00200000000040745
17,29,7.31943559255654e-05,0.00200000000040745
17,30,5.94893816041608e-06,0.00100000000020373
18,19,3.92353296052583e-06,0.00199999999858846
18,20,1.29947323432855e-05,0.00100000000020373
18,21,2.81058640273502e-05,0.00200000000040745
18,22,6.77686779412268e-05,0.00200000000040745
18,23,3.04543710760719e-05,0.00100000000020373
18,24,9.65397647457733e-05,0.00599999999940337
18,25,1.75010705676382e-05,0.00100000000020373
18,26,3.81571087072485e-05,0.00200000000040745
18,27,6.30791242151041e-06,0.000999999998384737
18,28,1.18293855813079e-05,0.00100000000020373
18,29,5.21257505795569e-05,0.00200000000040745
18,30,2.70175435064246e-05,0.00100000000020373
19,20,9.07119938275969e-06,0.00200000000040745
19,21,3.2029396987876e-05,0.00100000000020373
19,22,7.16922109017526e-05,0.00199999999858846
19,23,3.43779040365977e-05,0.00200000000040745
19,24,0.000100463297706299,0.00100000000020373
19,25,1.35775376071123e-05,0.00200000000040745
19,26,4.20806416677744e-05,0.00100000000020373
19,27,1.02314453820362e-05,0.00199999999858846
19,28,1.57529185418337e-05,0.00100000000020373
19,29,5.60492835400828e-05,0.00100000000020373
19,30,2.30940105458988e-05,0.00200000000040745
20,21,4.11005963706357e-05,0.00100000000020373
20,22,8.07634102845123e-05,0.00200000000040745
20,23,4.34491034193574e-05,0.000999999998384737
20,24,0.000109534497089059,0.00200000000040745
20,25,4.50633822435265e-06,0.00100000000020373
20,26,5.11518410505341e-05,0.00100000000020373
20,27,1.93026447647959e-05,0.00200000000040745
20,28,2.48241179245934e-05,0.00100000000020373
20,29,6.51204829228424e-05,0.00199999999858846
20,30,1.40228111631391e-05,0.00100000000020373
21,22,3.96628139138766e-05,0.00200000000040745
21,23,2.34850704872169e-06,0.00200000000040745
21,24,6.84339007184231e-05,0.00100000000020373
21,25,4.56069345949883e-05,0.00199999999858846
21,26,1.00512446798984e-05,0.00100000000020373
21,27,2.17979516058397e-05,0.00200000000040745
21,28,1.62764784460423e-05,0.00100000000020373
21,29,2.40198865522068e-05,0.00100000000020373
21,30,5.51234075337748e-05,0.00200000000040745
22,23,3.73143068651549e-05,0.000999999998384737
22,24,2.87710868045465e-05,0.00200000000040745
22,25,8.52697485088649e-05,0.00100000000020373
22,26,2.96115692339782e-05,0.00100000000020373
22,27,6.14607655197164e-05,0.00200000000040745
22,28,5.59392923599189e-05,0.00100000000020373
22,29,1.56429273616698e-05,0.00199999999858846
22,30,9.47862214476514e-05,0.00100000000020373
23,24,6.60853936697015e-05,0.00100000000020373
23,25,4.795544164371e-05,0.00200000000040745
23,26,7.70273763117668e-06,0.00100000000020373
23,27,2.41464586545614e-05,0.00199999999858846
23,28,1.8624985494764e-05,0.00100000000020373
23,29,2.16713795034851e-05,0.00200000000040745
23,30,5.74719145824965e-05,0.00200000000040745
24,25,0.000114040835313411,0.00100000000020373
24,26,5.83826560385248e-05,0.00200000000040745
24,27,9.02318523242629e-05,0.000999999998384737
24,28,8.47103791644654e-05,0.00200000000040745
24,29,4.44140141662164e-05,0.00200000000040745
24,30,0.000123557308252198,0.00100000000020373
25,26,5.56581792748867e-05,0.00200000000040745
25,27,2.38089829891486e-05,0.00100000000020373
25,28,2.9330456148946e-05,0.00199999999858846
25,29,6.96268211471951e-05,0.00200000000040745
25,30,9.51647293878644e-06,0.00100000000020373
26,27,3.18491962857381e-05,0.00200000000040745
26,28,2.63277231259407e-05,0.00100000000020373
26,29,1.39686418723084e-05,0.00599999999940337
26,30,6.51746522136731e-05,0.00200000000040745
27,28,5.52147315979745e-06,0.00100000000020373
27,29,4.58178381580465e-05,0.00199999999858846
27,30,3.3325455927935e-05,0.00100000000020373
28,29,4.02963649982491e-05,0.00200000000040745
28,30,3.88469290877325e-05,0.00200000000040745
29,30,7.91432940859815e-05,0.00100000000020373


"After.Trace.ID","Before.Trace.ID","Difference","Runtime"
1,1,0.0498703276786928,0.00199999999858846
1,2,0.0498389129446437,0.00200000000040745
1,3,0.0498697582193161,0.00200000000040745
1,4,0.0498171740974665,0.00100000000020373
1,5,0.0498533090702087,0.00100000000020373
1,6,0.0498591945747994,0.00199999999858846
1,7,0.0498223019032442,0.00200000000040745
1,8,0.0498886018622444,0.00100000000020373
1,9,0.0498481695816509,0.00200000000040745
1,10,0.0499042538340787,0.00200000000040745
1,11,0.0498797910183704,0.000999999998384737
1,12,0.0498579013799197,0.00100000000020373
1,13,0.049841087448877,0.00200000000040745
1,14,0.0498498418154586,0.00200000000040745
1,15,0.0498839827278797,0.00100000000020373
1,16,0.0498401370778323,0.00199999999858846
1,17,0.0498090706384918,0.00200000000040745
1,18,0.0498242063260262,0.00100000000020373
1,19,0.0498213873329928,0.00100000000020373
1,20,0.0498148703998286,0.00200000000040745
1,21,0.0498444042895174,0.00199999999858846
1,22,0.0498729205559013,0.00100000000020373
1,23,0.0498460923646489,0.00100000000020373
1,24,0.0498936155584586,0.00200000000040745
1,25,0.0498116332524531,0.00200000000040745
1,26,0.0498516293637022,0.00100000000020373
1,27,0.0498287387692601,0.00199999999858846
1,28,0.0498327064469312,0.00200000000040745
1,29,0.0498616719824018,0.00200000000040745
1,30,0.0498047977017089,0.00100000000020373
2,1,0.000103054136745162,0.00200000000040745
2,2,5.93565790084627e-05,0.000999999998384737
2,3,0.000102262253809715,0.00100000000020373
2,4,2.910298454184e-05,0.00200000000040745
2,5,7.93846304668611e-05,0.00100000000020373
2,6,8.75710530120477e-05,0.00200000000040745
2,7,3.62403816791534e-05,0.00100000000020373
2,8,0.000128461503346111,0.00199999999858846
2,9,7.22351373143582e-05,0.00200000000040745
2,10,0.000150216200003106,0.00100000000020373
2,11,0.000116212500491986,0.00200000000040745
2,12,8.57723654341669e-05,0.00100000000020373
2,13,6.2382120707194e-05,0.00199999999858846
2,14,7.45614413502071e-05,0.00200000000040745
2,15,0.000122040146481317,0.00100000000020373
2,16,6.10598173828025e-05,0.00200000000040745
2,17,1.78223686528867e-05,0.00499999999919964
2,18,3.88909739988952e-05,0.00100000000020373
2,19,3.49674410383694e-05,0.00200000000040745
2,20,2.58962416556097e-05,0.00100000000020373
2,21,6.69968380262453e-05,0.00199999999858846
2,22,0.000106659651940122,0.00100000000020373
2,23,6.9345345074967e-05,0.00200000000040745
2,24,0.000135430738744668,0.00200000000040745
2,25,2.1389903431257e-05,0.00100000000020373
2,26,7.70480827061437e-05,0.00200000000040745
2,27,4.51988864204056e-05,0.000999999998384737
2,28,5.0720359580203e-05,0.00200000000040745
2,29,9.10167245784521e-05,0.00100000000020373
2,30,1.18734304924706e-05,0.00100000000020373
3,1,8.18227815142514e-05,0.00200000000040745
3,2,3.8125223777552e-05,0.00100000000020373
3,3,8.10308985788044e-05,0.00199999999858846
3,4,7.87162931092933e-06,0.00100000000020373
3,5,5.81532752359504e-05,0.00200000000040745
3,6,6.6339697781137e-05,0.00200000000040745
3,7,1.50090264482428e-05,0.00100000000020373
3,8,0.0001072301481152,0.00199999999858846
3,9,5.10037820834475e-05,0.00100000000020373
3,10,0.000128984844772195,0.00200000000040745
3,11,9.49811452610749e-05,0.00100000000020373
3,12,6.45410102032562e-05,0.00200000000040745
3,13,4.11507654762833e-05,0.00200000000040745
3,14,5.33300861192965e-05,0.000999999998384737
3,15,0.000100808791250406,0.00200000000040745
3,16,3.98284621518918e-05,0.00100000000020373
3,17,3.40898657802402e-06,0.00200000000040745
3,18,1.76596187679845e-05,0.00200000000040745
3,19,1.37360858074587e-05,0.00100000000020373
3,20,4.66488642469898e-06,0.00199999999858846
3,21,4.57654827953347e-05,0.00100000000020373
3,22,8.54282967092113e-05,0.00200000000040745
3,23,4.81139898440563e-05,0.00100000000020373
3,24,0.000114199383513758,0.00100000000020373
3,25,1.58548200346331e-07,0.00199999999858846
3,26,5.5816727475233e-05,0.00100000000020373
3,27,2.39675311894949e-05,0.00200000000040745
3,28,2.94890043492924e-05,0.00100000000020373
3,29,6.97853693475414e-05,0.00100000000020373
3,30,9.3579247384401e-06,0.00200000000040745
4,1,0.000109926027002327,0.000999999998384737
4,2,6.62284692656279e-05,0.00200000000040745
4,3,0.00010913414406688,0.00100000000020373
4,4,3.59748747990052e-05,0.00100000000020373
4,5,8.62565207240262e-05,0.00200000000040745
4,6,9.44429432692129e-05,0.00100000000020373
4,7,4.31122719363186e-05,0.00199999999858846
4,8,0.000135333393603276,0.00100000000020373
4,9,7.91070275715233e-05,0.00100000000020373
4,10,0.000157088090260271,0.00200000000040745
4,11,0.000123084390749151,0.00100000000020373
4,12,9.26442556913321e-05,0.00199999999858846
4,13,6.92540109643591e-05,0.00100000000020373
4,14,8.14333316073723e-05,0.00200000000040745
4,15,0.000128912036738482,0.00200000000040745
4,16,6.79317076399677e-05,0.00100000000020373
4,17,2.46942589100518e-05,0.00200000000040745
4,18,4.57628642560604e-05,0.000999999998384737
4,19,4.18393312955345e-05,0.00200000000040745
4,20,3.27681319127748e-05,0.00200000000040745
4,21,7.38687282834105e-05,0.00499999999919964
4,22,0.000113531542197287,0.00200000000040745
4,23,7.62172353321322e-05,0.00100000000020373
4,24,0.000142302629001834,0.00200000000040745
4,25,2.82617936884222e-05,0.00200000000040745
4,26,8.39199729633089e-05,0.000999999998384737
4,27,5.20707766775708e-05,0.00200000000040745
4,28,5.75922498373682e-05,0.00100000000020373
4,29,9.78886148356173e-05,0.00200000000040745
4,30,1.87453207496358e-05,0.00200000000040745
5,1,0.000273538452004729,0.00100000000020373
5,2,0.00022984089426803,0.00199999999858846
5,3,0.000272746569069282,0.00100000000020373
5,4,0.000199587299801407,0.00200000000040745
5,5,0.000249868945726428,0.00100000000020373
5,6,0.000258055368271615,0.00100000000020373
5,7,0.00020672469693872,0.00199999999858846
5,8,0.000298945818605678,0.00100000000020373
5,9,0.000242719452573925,0.00200000000040745
5,10,0.000320700515262673,0.00100000000020373
5,11,0.000286696815751553,0.00200000000040745
5,12,0.000256256680693734,0.00100000000020373
5,13,0.000232866435966761,0.000999999998384737
5,14,0.000245045756609774,0.00200000000040745
5,15,0.000292524461740884,0.00100000000020373
5,16,0.00023154413264237,0.00200000000040745
5,17,0.000188306683912454,0.00100000000020373
5,18,0.000209375289258462,0.00200000000040745
5,19,0.000205451756297936,0.00199999999858846
5,20,0.000196380556915177,0.00100000000020373
5,21,0.000237481153285812,0.00200000000040745
5,22,0.000277143967199689,0.00100000000020373
5,23,0.000239829660334534,0.00200000000040745
5,24,0.000305915054004235,0.00100000000020373
5,25,0.000191874218690824,0.00100000000020373
5,26,0.000247532397965711,0.00200000000040745
5,27,0.000215683201679973,0.00100000000020373
5,28,0.00022120467483977,0.00200000000040745
5,29,0.000261501039838019,0.00200000000040745
5,30,0.000182357745752038,0.000999999998384737
6,1,5.84483353894827e-05,0.00200000000040745
6,2,1.47507776527833e-05,0.00100000000020373
6,3,5.76564524540357e-05,0.00200000000040745
6,4,1.55028168138394e-05,0.00100000000020373
6,5,3.47788291111817e-05,0.00100000000020373
6,6,4.29652516563683e-05,0.00199999999858846
6,7,8.36541967652593e-06,0.00100000000020373
6,8,8.38557019904318e-05,0.00200000000040745
6,9,2.76293359586788e-05,0.00100000000020373
6,10,0.000105610398647427,0.00100000000020373
6,11,7.16066991363062e-05,0.00199999999858846
6,12,4.11665640784875e-05,0.00100000000020373
6,13,1.77763193515146e-05,0.00200000000040745
6,14,2.99556399945278e-05,0.00100000000020373
6,15,7.74343451256376e-05,0.00100000000020373
6,16,1.64540160271232e-05,0.00200000000040745
6,17,2.67834327027927e-05,0.000999999998384737
6,18,5.71482735678419e-06,0.00200000000040745
6,19,9.63836031731002e-06,0.00100000000020373
6,20,1.87095597000697e-05,0.00100000000020373
6,21,2.2391036670566e-05,0.00200000000040745
6,22,6.20538505844426e-05,0.00100000000020373
6,23,2.47395437192877e-05,0.00199999999858846
6,24,9.08249373889891e-05,0.00200000000040745
6,25,2.32158979244224e-05,0.00500000000101863
6,26,3.24422813504643e-05,0.00199999999858846
6,27,5.93085064726218e-07,0.00100000000020373
6,28,6.11455822452367e-06,0.00200000000040745
6,29,4.64109232227727e-05,0.00100000000020373
6,30,3.27323708632088e-05,0.00100000000020373
7,1,2.38848539527714e-05,0.00199999999858846
7,2,6.75824116894708e-05,0.00100000000020373
7,3,2.46767368882184e-05,0.00200000000040745
7,4,9.78360061560934e-05,0.00100000000020373
7,5,4.75543602310724e-05,0.00200000000040745
7,6,3.93679376858858e-05,0.00200000000040745
7,7,9.069860901878e-05,0.000999999998384737
7,8,1.52251264817771e-06,0.00200000000040745
7,9,5.47038533835753e-05,0.00100000000020373
7,10,2.32772093051725e-05,0.00200000000040745
7,11,1.07264902059478e-05,0.00100000000020373
7,12,4.11666252637666e-05,0.000999999998384737
7,13,6.45568699907395e-05,0.00200000000040745
7,14,5.23775493477263e-05,0.00100000000020373
7,15,4.89884421661646e-06,0.00200000000040745
7,16,6.58791733151309e-05,0.00100000000020373
7,17,0.000109116622045047,0.00200000000040745
7,18,8.80480166990383e-05,0.00199999999858846
7,19,9.19715496595641e-05,0.00100000000020373
7,20,0.000101042749042324,0.00200000000040745
7,21,5.99421526716881e-05,0.00100000000020373
7,22,2.02793387578115e-05,0.00200000000040745
7,23,5.75936456229664e-05,0.00100000000020373
7,24,8.49174804673503e-06,0.00100000000020373
7,25,0.000105549087266676,0.00200000000040745
7,26,4.98909079917897e-05,0.00100000000020373
7,27,8.17401042775279e-05,0.00200000000040745
7,28,7.62186311177304e-05,0.00100000000020373
7,29,3.59222661194813e-05,0.00199999999858846
7,30,0.000115065560205463,0.00200000000040745
8,1,4.07215167991248e-05,0.00100000000020373
8,2,2.97604093757453e-06,0.00200000000040745
8,3,3.99296338636779e-05,0.00100000000020373
8,4,3.32296354041972e-05,0.00200000000040745
8,5,1.70520105208238e-05,0.00199999999858846
8,6,2.52384330660105e-05,0.00100000000020373
8,7,2.60922382668838e-05,0.00200000000040745
8,8,6.61288834000739e-05,0.00100000000020373
8,9,9.90251736832093e-06,0.00200000000040745
8,10,8.78835800570688e-05,0.00199999999858846
8,11,5.38798805459484e-05,0.00100000000020373
8,12,2.34397454881297e-05,0.00200000000040745
8,13,4.95007611567289e-08,0.00100000000020373
8,14,1.22288214041699e-05,0.00200000000040745
8,15,5.97075265352798e-05,0.00200000000040745
8,16,1.2728025632347e-06,0.000999999998384737
8,17,4.45102512931506e-05,0.00200000000040745
8,18,2.3441645947142e-05,0.00100000000020373
8,19,2.73651789076679e-05,0.00200000000040745
8,20,3.64363782904276e-05,0.00200000000040745
8,21,4.66421808020812e-06,0.00100000000020373
8,22,4.43270319940847e-05,0.00199999999858846
8,23,7.01272512892981e-06,0.00100000000020373
8,24,7.30981187986313e-05,0.00200000000040745
8,25,4.09427165147802e-05,0.00200000000040745
8,26,1.47154627601065e-05,0.00100000000020373
8,27,1.71337335256316e-05,0.00199999999858846
8,28,1.16122603658342e-05,0.00100000000020373
8,29,2.86841046324149e-05,0.00600000000122236
8,30,5.04591894535666e-05,0.00199999999858846
9,1,4.89605938557292e-05,0.00100000000020373
9,2,5.26303611902978e-06,0.00200000000040745
9,3,4.81687109202822e-05,0.00100000000020373
9,4,2.49905583475929e-05,0.00200000000040745
9,5,2.52910875774282e-05,0.00200000000040745
9,6,3.34775101226148e-05,0.000999999998384737
9,7,1.78531612102795e-05,0.00200000000040745
9,8,7.43679604566783e-05,0.00100000000020373
9,9,1.81415944249252e-05,0.00200000000040745
9,10,9.61226571136731e-05,0.00100000000020373
9,11,6.21189576025527e-05,0.00200000000040745
9,12,3.1678822544734e-05,0.00199999999858846
9,13,8.28857781776104e-06,0.00100000000020373
9,14,2.04678984607742e-05,0.00200000000040745
9,15,6.79466035918841e-05,0.00100000000020373
9,16,6.96627449336962e-06,0.00200000000040745
9,17,3.62711742365462e-05,0.00100000000020373
9,18,1.52025688905377e-05,0.00100000000020373
9,19,1.91261018510636e-05,0.00200000000040745
9,20,2.81973012338232e-05,0.00100000000020373
9,21,1.29032951368124e-05,0.00200000000040745
9,22,5.2566109050689e-05,0.00100000000020373
9,23,1.52518021855341e-05,0.00199999999858846
9,24,8.13371958552356e-05,0.00200000000040745
9,25,3.27036394581759e-05,0.00100000000020373
9,26,2.29545398167108e-05,0.00200000000040745
9,27,8.89465646902732e-06,0.00100000000020373
9,28,3.37318330922987e-06,0.00199999999858846
9,29,3.69231816890192e-05,0.00100000000020373
9,30,4.22201123969623e-05,0.00200000000040745
10,1,8.26238269058255e-05,0.00200000000040745
10,2,3.89262691691261e-05,0.00100000000020373
10,3,8.18319439703785e-05,0.00200000000040745
10,4,8.67267470250344e-06,0.000999999998384737
10,5,5.89543206275245e-05,0.00200000000040745
10,6,6.71407431727111e-05,0.00200000000040745
10,7,1.58100718398169e-05,0.00100000000020373
10,8,0.000108031193506775,0.00200000000040745
10,9,5.18048274750216e-05,0.00100000000020373
10,10,0.000129785890163769,0.00199999999858846
10,11,9.5782190652649e-05,0.00200000000040745
10,12,6.53420555948303e-05,0.00100000000020373
10,13,4.19518108678574e-05,0.00200000000040745
10,14,5.41311315108706e-05,0.00100000000020373
10,15,0.00010160983664198,0.00199999999858846
10,16,4.06295075434659e-05,0.00200000000040745
10,17,2.60794118644991e-06,0.00100000000020373
10,18,1.84606641595586e-05,0.00200000000040745
10,19,1.45371311990328e-05,0.00100000000020373
10,20,5.46593181627308e-06,0.00200000000040745
10,21,4.65665281869088e-05,0.00199999999858846
10,22,8.62293421007854e-05,0.00100000000020373
10,23,4.89150352356305e-05,0.00200000000040745
10,24,0.000115000428905332,0.00100000000020373
10,25,9.59593591920438e-07,0.00200000000040745
10,26,5.66177728668071e-05,0.00199999999858846
10,27,2.4768576581069e-05,0.00100000000020373
10,28,3.02900497408665e-05,0.00200000000040745
10,29,7.05864147391155e-05,0.00100000000020373
10,30,8.556879346866e-06,0.00200000000040745
11,1,6.04295685983081e-05,0.00200000000040745
11,2,1.67320108616087e-05,0.000999999998384737
11,3,5.96376856628611e-05,0.00600000000122236
11,4,1.3521583605014e-05,0.00200000000040745
11,5,3.67600623200071e-05,0.000999999998384737
11,6,4.49464848651937e-05,0.00200000000040745
11,7,6.38418646770056e-06,0.00100000000020373
11,8,8.58369351992572e-05,0.00200000000040745
11,9,2.96105691675042e-05,0.00100000000020373
11,10,0.000107591631856252,0.00100000000020373
11,11,7.35879323451316e-05,0.00199999999858846
11,12,4.31477972873129e-05,0.00100000000020373
11,13,1.975755256034e-05,0.00200000000040745
11,14,3.19368732033531e-05,0.00100000000020373
11,15,7.9415578334463e-05,0.00200000000040745
11,16,1.84352492359485e-05,0.00100000000020373
11,17,2.48021994939673e-05,0.00100000000020373
11,18,3.73359414795882e-06,0.00200000000040745
11,19,7.65712710848465e-06,0.00100000000020373
11,20,1.67283264912443e-05,0.00200000000040745
11,21,2.43722698793913e-05,0.00100000000020373
11,22,6.40350837932679e-05,0.00199999999858846
11,23,2.6720776928113e-05,0.00200000000040745
11,24,9.28061705978145e-05,0.00100000000020373
11,25,2.1234664715597e-05,0.00200000000040745
11,26,3.44235145592897e-05,0.00100000000020373
11,27,2.57431827355159e-06,0.00200000000040745
11,28,8.09579143334904e-06,0.000999999998384737
11,29,4.83921564315981e-05,0.00100000000020373
11,30,3.07511376543834e-05,0.00200000000040745
12,1,3.13563234753955e-05,0.00100000000020373
12,2,1.23412342613038e-05,0.00200000000040745
12,3,3.05644405399486e-05,0.00100000000020373
12,4,4.25948287279265e-05,0.00199999999858846
12,5,7.68681719709452e-06,0.00200000000040745
12,6,1.58732397422812e-05,0.00100000000020373
12,7,3.54574315906131e-05,0.00200000000040745
12,8,5.67636900763446e-05,0.00100000000020373
12,9,5.37324044591614e-07,0.00199999999858846
12,10,7.85183867333394e-05,0.00200000000040745
12,11,4.45146872222191e-05,0.00100000000020373
12,12,1.40745521644003e-05,0.00200000000040745
12,13,9.31569256257259e-06,0.00100000000020373
12,14,2.86362808044061e-06,0.00199999999858846
12,15,5.03423332115505e-05,0.00200000000040745
12,16,1.0637995886964e-05,0.00100000000020373
12,17,5.38754446168799e-05,0.00200000000040745
12,18,3.28068392708714e-05,0.00100000000020373
12,19,3.67303722313972e-05,0.00200000000040745
12,20,4.58015716141569e-05,0.000999999998384737
12,21,4.7009752435212e-06,0.00100000000020373
12,22,3.49618386703554e-05,0.00200000000040745
12,23,2.35246819479951e-06,0.00100000000020373
12,24,6.37329254749019e-05,0.00200000000040745
12,25,5.03079098385095e-05,0.00100000000020373
12,26,5.35026943637718e-06,0.00100000000020373
12,27,2.64989268493609e-05,0.00200000000040745
12,28,2.09774536895635e-05,0.00100000000020373
12,29,1.93189113086856e-05,0.00200000000040745
12,30,5.9824382777296e-05,0.00100000000020373
13,1,0.000100352942722925,0.000999999998384737
13,2,5.66553849862261e-05,0.00200000000040745
13,3,9.95610597874785e-05,0.00100000000020373
13,4,2.64017905196035e-05,0.00200000000040745
13,5,7.66834364446245e-05,0.00100000000020373
13,6,8.48698589898111e-05,0.00100000000020373
13,7,3.35391876569169e-05,0.00599999999940337
13,8,0.000125760309323875,0.00100000000020373
13,9,6.95339432921216e-05,0.00200000000040745
13,10,0.000147515005980869,0.000999999998384737
13,11,0.000113511306469749,0.00100000000020373
13,12,8.30711714119303e-05,0.00200000000040745
13,13,5.96809266849574e-05,0.00100000000020373
13,14,7.18602473279706e-05,0.00200000000040745
13,15,0.00011933895245908,0.00100000000020373
13,16,5.8358623360566e-05,0.00199999999858846
13,17,1.51211746306501e-05,0.00200000000040745
13,18,3.61897799766586e-05,0.00100000000020373
13,19,3.22662470161328e-05,0.00200000000040745
13,20,2.31950476333731e-05,0.00100000000020373
13,21,6.42956440040088e-05,0.00199999999858846
13,22,0.000103958457917885,0.00100000000020373
13,23,6.66441510527305e-05,0.00100000000020373
13,24,0.000132729544722432,0.00200000000040745
13,25,1.86887094090205e-05,0.00100000000020373
13,26,7.43468886839072e-05,0.00200000000040745
13,27,4.2497692398169e-05,0.000999999998384737
13,28,4.80191655579665e-05,0.00200000000040745
13,29,8.83155305562155e-05,0.00100000000020373
13,30,9.17223647023402e-06,0.00100000000020373
14,1,2.52084957514942e-05,0.00200000000040745
14,2,1.84890619852052e-05,0.00100000000020373
14,3,2.44166128160472e-05,0.00199999999858846
14,4,4.87426564518278e-05,0.00100000000020373
14,5,1.5389894731932e-06,0.00200000000040745
14,6,9.72541201837984e-06,0.00200000000040745
14,7,4.16052593145144e-05,0.00100000000020373
14,8,5.06158623524433e-05,0.00199999999858846
14,9,5.61050367930971e-06,0.00100000000020373
14,10,7.23705590094381e-05,0.00200000000040745
14,11,3.83668594983178e-05,0.00100000000020373
14,12,7.92672444049902e-06,0.00100000000020373
14,13,1.54635202864739e-05,0.00200000000040745
14,14,3.28419964346072e-06,0.000999999998384737
14,15,4.41945054876491e-05,0.00200000000040745
14,16,1.67858236108653e-05,0.00100000000020373
14,17,6.00232723407812e-05,0.00100000000020373
14,18,3.89546669947727e-05,0.00200000000040745
14,19,4.28781999552985e-05,0.00100000000020373
14,20,5.19493993380582e-05,0.00199999999858846
14,21,1.08488029674225e-05,0.00100000000020373
14,22,2.88140109464541e-05,0.00100000000020373
14,23,8.50029591870083e-06,0.00200000000040745
14,24,5.75850977510006e-05,0.00100000000020373
14,25,5.64557375624108e-05,0.00199999999858846
14,26,7.97558287524147e-07,0.00100000000020373
14,27,3.26467545732623e-05,0.00100000000020373
14,28,2.71252814134648e-05,0.00200000000040745
14,29,1.31710835847842e-05,0.00100000000020373
14,30,6.59722105011973e-05,0.00199999999858846
15,1,6.32212503124396e-05,0.00100000000020373
15,2,1.95236925757403e-05,0.00200000000040745
15,3,6.24293673769927e-05,0.00200000000040745
15,4,1.07299018908824e-05,0.00100000000020373
15,5,3.95517440341386e-05,0.00200000000040745
15,6,4.77381665793253e-05,0.000999999998384737
15,7,3.59250475356898e-06,0.00200000000040745
15,8,8.86286169133887e-05,0.00200000000040745
15,9,3.24022508816357e-05,0.00100000000020373
15,10,0.000110383313570384,0.00200000000040745
15,11,7.63796140592632e-05,0.00100000000020373
15,12,4.59394790014445e-05,0.00200000000040745
15,13,2.25492342744715e-05,0.00200000000040745
15,14,3.47285549174847e-05,0.00100000000020373
15,15,8.22072600485946e-05,0.00199999999858846
15,16,2.12269309500801e-05,0.00100000000020373
15,17,2.20105177798358e-05,0.00200000000040745
15,18,9.41912433827241e-07,0.00200000000040745
15,19,4.86544539435307e-06,0.00100000000020373
15,20,1.39366447771128e-05,0.00199999999858846
15,21,2.71639515935229e-05,0.00100000000020373
15,22,6.68267655073995e-05,0.00200000000040745
15,23,2.95124586422446e-05,0.00100000000020373
15,24,9.55978523119461e-05,0.00200000000040745
15,25,1.84429830014654e-05,0.00200000000040745
15,26,3.72151962734213e-05,0.000999999998384737
15,27,5.36599998768317e-06,0.00200000000040745
15,28,1.08874731474806e-05,0.00100000000020373
15,29,5.11838381457297e-05,0.00200000000040745
15,30,2.79594559402518e-05,0.00100000000020373
16,1,5.35036854065751e-06,0.00100000000020373
16,2,3.83471891960419e-05,0.00199999999858846
16,3,4.55848560521055e-06,0.00100000000020373
16,4,6.86007836626645e-05,0.00200000000040745
16,5,1.83191377376435e-05,0.00100000000020373
16,6,1.01327151924568e-05,0.00200000000040745
16,7,6.14633865253511e-05,0.00199999999858846
16,8,3.07577351416066e-05,0.00100000000020373
16,9,2.54686308901464e-05,0.00200000000040745
16,10,5.25124317986014e-05,0.00100000000020373
16,11,1.85087322874811e-05,0.00200000000040745
16,12,1.19314027703377e-05,0.00100000000020373
16,13,3.53216474973106e-05,0.00199999999858846
16,14,2.31423268542974e-05,0.00200000000040745
16,15,2.43363782768125e-05,0.00100000000020373
16,16,3.6643950821702e-05,0.00200000000040745
16,17,7.98813995516179e-05,0.00100000000020373
16,18,5.88127942056094e-05,0.00200000000040745
16,19,6.27363271661352e-05,0.00199999999858846
16,20,7.18075265488949e-05,0.00100000000020373
16,21,3.07069301782592e-05,0.00200000000040745
16,22,8.9558837356174e-06,0.00100000000020373
16,23,2.83584231295375e-05,0.00200000000040745
16,24,3.77269705401639e-05,0.00199999999858846
16,25,7.63138647732475e-05,0.00100000000020373
16,26,2.06556854983608e-05,0.00200000000040745
16,27,5.2504881784099e-05,0.00100000000020373
16,28,4.69834086243015e-05,0.00200000000040745
16,29,6.68704362605244e-06,0.00200000000040745
16,30,8.5830337712034e-05,0.000999999998384737
17,1,0.000182342238457367,0.00200000000040745
17,2,0.000138644680720668,0.00100000000020373
17,3,0.00018155035552192,0.00200000000040745
17,4,0.000108391086254045,0.00200000000040745
17,5,0.000158672732179066,0.00100000000020373
17,6,0.000166859154724253,0.00199999999858846
17,7,0.000115528483391358,0.00100000000020373
17,8,0.000207749605058316,0.00200000000040745
17,9,0.000151523239026563,0.00200000000040745
17,10,0.000229504301715311,0.00100000000020373
17,11,0.000195500602204191,0.00199999999858846
17,12,0.000165060467146372,0.00100000000020373
17,13,0.000141670222419399,0.00200000000040745
17,14,0.000153849543062412,0.00499999999919964
17,15,0.000201328248193522,0.00100000000020373
17,16,0.000140347919095007,0.00200000000040745
17,17,9.71104703650916e-05,0.00100000000020373
17,18,0.0001181790757111,0.00200000000040745
17,19,0.000114255542750574,0.00100000000020373
17,20,0.000105184343367815,0.00100000000020373
17,21,0.00014628493973845,0.00200000000040745
17,22,0.000185947753652327,0.00100000000020373
17,23,0.000148633446787172,0.00200000000040745
17,24,0.000214718840456873,0.00100000000020373
17,25,0.000100678005143462,0.00199999999858846
17,26,0.000156336184418349,0.00200000000040745
17,27,0.00012448698813261,0.00100000000020373
17,28,0.000130008461292408,0.00200000000040745
17,29,0.000170304826290657,0.00100000000020373
17,30,9.11615322046755e-05,0.00200000000040745
18,1,1.51362785510978e-05,0.000999999998384737
18,2,5.88338362877971e-05,0.00100000000020373
18,3,1.59281614865447e-05,0.00200000000040745
18,4,8.90874307544198e-05,0.00100000000020373
18,5,3.88057848293988e-05,0.00200000000040745
18,6,3.06193622842121e-05,0.00100000000020373
18,7,8.19500336171064e-05,0.00199999999858846
18,8,1.02710880498513e-05,0.00200000000040745
18,9,4.59552779819017e-05,0.00100000000020373
18,10,3.20257847068461e-05,0.00200000000040745
18,11,1.97791480427423e-06,0.00100000000020373
18,12,3.2418049862093e-05,0.00199999999858846
18,13,5.58082945890659e-05,0.00100000000020373
18,14,4.36289739460527e-05,0.00100000000020373
18,15,3.84973118505716e-06,0.00200000000040745
18,16,5.71305979134573e-05,0.00100000000020373
18,17,0.000100368046643373,0.00200000000040745
18,18,7.92994412973647e-05,0.000999999998384737
18,19,8.32229742578905e-05,0.00200000000040745
18,20,9.22941736406502e-05,0.00200000000040745
18,21,5.11935772700145e-05,0.00100000000020373
18,22,1.15307633561379e-05,0.00200000000040745
18,23,4.88450702212928e-05,0.00100000000020373
18,24,1.72403234484086e-05,0.00199999999858846
18,25,9.68005118650028e-05,0.00200000000040745
18,26,4.11423325901161e-05,0.00100000000020373
18,27,7.29915288758543e-05,0.00200000000040745
18,28,6.74700557160568e-05,0.00100000000020373
18,29,2.71736907178077e-05,0.00199999999858846
18,30,0.000106316984803789,0.00200000000040745
19,1,0.000128020878077728,0.00100000000020373
19,2,0.000171718435814427,0.00200000000040745
19,3,0.000128812761013175,0.00100000000020373
19,4,0.00020197203028105,0.00200000000040745
19,5,0.000151690384356029,0.000999999998384737
19,6,0.000143503961810842,0.00100000000020373
19,7,0.000194834633143737,0.00200000000040745
19,8,0.000102613511476779,0.00100000000020373
19,9,0.000158839877508532,0.00200000000040745
19,10,8.08588148197842e-05,0.00100000000020373
19,11,0.000114862514330905,0.00100000000020373
19,12,0.000145302649388723,0.00200000000040745
19,13,0.000168692894115696,0.00100000000020373
19,14,0.000156513573472683,0.00200000000040745
19,15,0.000109034868341573,0.00200000000040745
19,16,0.000170015197440088,0.000999999998384737
19,17,0.000213252646170004,0.00200000000040745
19,18,0.000192184040823995,0.00500000000101863
19,19,0.000196107573784521,0.00199999999858846
19,20,0.000205178773167281,0.00200000000040745
19,21,0.000164078176796645,0.00100000000020373
19,22,0.000124415362882768,0.00200000000040745
19,23,0.000161729669747923,0.00100000000020373
19,24,9.56442760782217e-05,0.00200000000040745
19,25,0.000209685111391633,0.00199999999858846
19,26,0.000154026932116746,0.00100000000020373
19,27,0.000185876128402485,0.00200000000040745
19,28,0.000180354655242687,0.00100000000020373
19,29,0.000140058290244438,0.00200000000040745
19,30,0.00021920158433042,0.000999999998384737
20,1,4.0230955505538e-05,0.00200000000040745
20,2,3.46660223116135e-06,0.00200000000040745
20,3,3.9439072570091e-05,0.00100000000020373
20,4,3.3720196697784e-05,0.00200000000040745
20,5,1.6561449227237e-05,0.00100000000020373
20,6,2.47478717724237e-05,0.00199999999858846
20,7,2.65827995604706e-05,0.00100000000020373
20,8,6.56383221064871e-05,0.00100000000020373
20,9,9.41195607473411e-06,0.00200000000040745
20,10,8.73930187634819e-05,0.00100000000020373
20,11,5.33893192523616e-05,0.00199999999858846
20,12,2.29491841945428e-05,0.00100000000020373
20,13,4.41060532430093e-07,0.00200000000040745
20,14,1.17382601105831e-05,0.00200000000040745
20,15,5.9216965241693e-05,0.00100000000020373
20,16,1.76336385682152e-06,0.00200000000040745
20,17,4.50008125867374e-05,0.000999999998384737
20,18,2.39322072407289e-05,0.00200000000040745
20,19,2.78557402012547e-05,0.00100000000020373
20,20,3.69269395840144e-05,0.00100000000020373
20,21,4.17365678662129e-06,0.00200000000040745
20,22,4.38364707004979e-05,0.00100000000020373
20,23,6.52216383534299e-06,0.00199999999858846
20,24,7.26075575050444e-05,0.00100000000020373
20,25,4.1433277808367e-05,0.00200000000040745
20,26,1.42249014665197e-05,0.00200000000040745
20,27,1.76242948192185e-05,0.00100000000020373
20,28,1.2102821659421e-05,0.00199999999858846
20,29,2.81935433388281e-05,0.00100000000020373
20,30,5.09497507471535e-05,0.00100000000020373
21,1,0.000106282822798898,0.00200000000040745
21,2,6.25852650621983e-05,0.00100000000020373
21,3,0.000105490939863451,0.00200000000040745
21,4,3.23316705955756e-05,0.000999999998384737
21,5,8.26133165205967e-05,0.00200000000040745
21,6,9.07997390657833e-05,0.00200000000040745
21,7,3.94690677328891e-05,0.00100000000020373
21,8,0.000131690189399847,0.00200000000040745
21,9,7.54638233680938e-05,0.00100000000020373
21,10,0.000153444886056842,0.00199999999858846
21,11,0.000119441186545721,0.00200000000040745
21,12,8.90010514879025e-05,0.00100000000020373
21,13,6.56108067609296e-05,0.00200000000040745
21,14,7.77901274039428e-05,0.00100000000020373
21,15,0.000125268832535053,0.00199999999858846
21,16,6.42885034365381e-05,0.00200000000040745
21,17,2.10510547066223e-05,0.00100000000020373
21,18,4.21196600526308e-05,0.00200000000040745
21,19,3.8196127092105e-05,0.00100000000020373
21,20,2.91249277093453e-05,0.00200000000040745
21,21,7.02255240799809e-05,0.00199999999858846
21,22,0.000109888337993858,0.0100000000002183
21,23,7.25740311287026e-05,0.00100000000020373
21,24,0.000138659424798404,0.00200000000040745
21,25,2.46185894849926e-05,0.00200000000040745
21,26,8.02767687598793e-05,0.00100000000020373
21,27,4.84275724741412e-05,0.00199999999858846
21,28,5.39490456339387e-05,0.00100000000020373
21,29,9.42454106321877e-05,0.00200000000040745
21,30,1.51021165462062e-05,0.00200000000040745
22,1,2.61324569416077e-05,0.00100000000020373
22,2,1.75651007950917e-05,0.00199999999858846
22,3,2.53405740061607e-05,0.00100000000020373
22,4,4.78186952617143e-05,0.00200000000040745
22,5,2.46295066330671e-06,0.00100000000020373
22,6,1.06493732084934e-05,0.00100000000020373
22,7,4.06812981244009e-05,0.00200000000040745
22,8,5.15398235425568e-05,0.000999999998384737
22,9,4.6865424891962e-06,0.00200000000040745
22,10,7.32945201995516e-05,0.00100000000020373
22,11,3.92908206884313e-05,0.00200000000040745
22,12,8.85068563061253e-06,0.00200000000040745
22,13,1.45395590963604e-05,0.000999999998384737
22,14,2.36023845334721e-06,0.00200000000040745
22,15,4.51184666777626e-05,0.00100000000020373
22,16,1.58618624207518e-05,0.00200000000040745
22,17,5.90993111506677e-05,0.00100000000020373
22,18,3.80307058046592e-05,0.00100000000020373
22,19,4.1954238765185e-05,0.00199999999858846
22,20,5.10254381479447e-05,0.00100000000020373
22,21,9.92484177730901e-06,0.00200000000040745
22,22,2.97379721365676e-05,0.00100000000020373
22,23,7.57633472858732e-06,0.00100000000020373
22,24,5.85090589411141e-05,0.00199999999858846
22,25,5.55317763722973e-05,0.00100000000020373
22,26,1.26402902589362e-07,0.00200000000040745
22,27,3.17227933831488e-05,0.00100000000020373
22,28,2.62013202233513e-05,0.00100000000020373
22,29,1.40950447748978e-05,0.00200000000040745
22,30,6.50482493110838e-05,0.000999999998384737
23,1,1.78252732562223e-05,0.00200000000040745
23,2,2.58722844804771e-05,0.00200000000040745
23,3,1.70333903207753e-05,0.00100000000020373
23,4,5.61258789470997e-05,0.00200000000040745
23,5,5.8442330220787e-06,0.00100000000020373
23,6,2.34218952310794e-06,0.00199999999858846
23,7,4.89884818097863e-05,0.00200000000040745
23,8,4.32326398571714e-05,0.00100000000020373
23,9,1.29937261745816e-05,0.00200000000040745
23,10,6.49873365141662e-05,0.00100000000020373
23,11,3.09836370030458e-05,0.00199999999858846
23,12,5.43501945227121e-07,0.00200000000040745
23,13,2.28467427817458e-05,0.00100000000020373
23,14,1.06674221387326e-05,0.00200000000040745
23,15,3.68112829923772e-05,0.00100000000020373
23,16,2.41690461061372e-05,0.00100000000020373
23,17,6.74064948360531e-05,0.00199999999858846
23,18,4.63378894900446e-05,0.00100000000020373
23,19,5.02614224505704e-05,0.00200000000040745
23,20,5.93326218333301e-05,0.00100000000020373
23,21,1.82320254626944e-05,0.00100000000020373
23,22,2.14307884511822e-05,0.00199999999858846
23,23,1.58835184139727e-05,0.00100000000020373
23,24,5.02018752557287e-05,0.00200000000040745
23,25,6.38389600576827e-05,0.00100000000020373
23,26,8.18078078279605e-06,0.00499999999919964
23,27,4.00299770685342e-05,0.00200000000040745
23,28,3.45085039087367e-05,0.00100000000020373
23,29,5.78786108951235e-06,0.00200000000040745
23,30,7.33554329964692e-05,0.00200000000040745
24,1,6.03342273172158e-05,0.000999999998384737
24,2,1.66366695805165e-05,0.00200000000040745
24,3,5.95423443817689e-05,0.00100000000020373
24,4,1.36169248861062e-05,0.00200000000040745
24,5,3.66647210389148e-05,0.00100000000020373
24,6,4.48511435841015e-05,0.00100000000020373
24,7,6.47952774879279e-06,0.00199999999858846
24,8,8.57415939181649e-05,0.00100000000020373
24,9,2.95152278864119e-05,0.00200000000040745
24,10,0.00010749629057516,0.00100000000020373
24,11,7.34925910640394e-05,0.00200000000040745
24,12,4.30524560062207e-05,0.00199999999858846
24,13,1.96622112792477e-05,0.00100000000020373
24,14,3.18415319222609e-05,0.00200000000040745
24,15,7.93202370533708e-05,0.00100000000020373
24,16,1.83399079548563e-05,0.00200000000040745
24,17,2.48975407750596e-05,0.00100000000020373
24,18,3.82893542905105e-06,0.000999999998384737
24,19,7.75246838957688e-06,0.00200000000040745
24,20,1.68236677723366e-05,0.00100000000020373
24,21,2.42769285982991e-05,0.00200000000040745
24,22,6.39397425121757e-05,0.00100000000020373
24,23,2.66254356470208e-05,0.00200000000040745
24,24,9.27108293167223e-05,0.00199999999858846
24,25,2.13300059966892e-05,0.00100000000020373
24,26,3.43281732781975e-05,0.00200000000040745
24,27,2.47897699245936e-06,0.00100000000020373
24,28,8.00045015225681e-06,0.00200000000040745
24,29,4.82968151505059e-05,0.00199999999858846
24,30,3.08464789354757e-05,0.00100000000020373
25,1,9.11426120464576e-07,0.00200000000040745
25,2,4.27861316162348e-05,0.00100000000020373
25,3,1.19543185017612e-07,0.00200000000040745
25,4,7.30397260828575e-05,0.00199999999858846
25,5,2.27580801578364e-05,0.00100000000020373
25,6,1.45716576126498e-05,0.00200000000040745
25,7,6.5902328945544e-05,0.00100000000020373
25,8,2.63187927214137e-05,0.00200000000040745
25,9,2.99075733103393e-05,0.00200000000040745
25,10,4.80734893784085e-05,0.000999999998384737
25,11,1.40697898672881e-05,0.00200000000040745
25,12,1.63703451905306e-05,0.00100000000020373
25,13,3.97605899175035e-05,0.00200000000040745
25,14,2.75812692744903e-05,0.00200000000040745
25,15,1.98974358566195e-05,0.00100000000020373
25,16,4.1082893241895e-05,0.00199999999858846
25,17,8.43203419718108e-05,0.00100000000020373
25,18,6.32517366258023e-05,0.00200000000040745
25,19,6.71752695863281e-05,0.00200000000040745
25,20,7.62464689690878e-05,0.00100000000020373
25,21,3.51458725984521e-05,0.00199999999858846
25,22,4.51694131542446e-06,0.00100000000020373
25,23,3.27973655497305e-05,0.00100000000020373
25,24,3.3288028119971e-05,0.00200000000040745
25,25,8.07528071934405e-05,0.00100000000020373
25,26,2.50946279185538e-05,0.00200000000040745
25,27,5.69438242042919e-05,0.000999999998384737
25,28,5.14223510444944e-05,0.00100000000020373
25,29,1.11259860462454e-05,0.00200000000040745
25,30,9.02692801322269e-05,0.00100000000020373
26,1,1.95935317915952e-05,0.00599999999940337
26,2,2.41040259451042e-05,0.00100000000020373
26,3,1.88016488561482e-05,0.00100000000020373
26,4,5.43576204117269e-05,0.00200000000040745
26,5,4.07597448670582e-06,0.00100000000020373
26,6,4.11044805848082e-06,0.00199999999858846
26,7,4.72202232744134e-05,0.00100000000020373
26,8,4.50008983925443e-05,0.00200000000040745
26,9,1.12254676392087e-05,0.00200000000040745
26,10,6.67555950495391e-05,0.00100000000020373
26,11,3.27518955384187e-05,0.00199999999858846
26,12,2.3117604806e-06,0.00100000000020373
26,13,2.10784842463729e-05,0.00200000000040745
26,14,8.89916360335974e-06,0.00200000000040745
26,15,3.85795415277501e-05,0.00100000000020373
26,16,2.24007875707644e-05,0.00200000000040745
26,17,6.56382363006802e-05,0.000999999998384737
26,18,4.45696309546717e-05,0.00200000000040745
26,19,4.84931639151975e-05,0.00100000000020373
26,20,5.75643632979572e-05,0.00200000000040745
26,21,1.64637669273215e-05,0.00200000000040745
26,22,2.31990469865551e-05,0.00100000000020373
26,23,1.41152598785999e-05,0.00199999999858846
26,24,5.19701337911016e-05,0.00100000000020373
26,25,6.20707015223099e-05,0.00200000000040745
26,26,6.41252224742317e-06,0.00200000000040745
26,27,3.82617185331613e-05,0.00100000000020373
26,28,3.27402453733638e-05,0.00199999999858846
26,29,7.55611962488523e-06,0.00100000000020373
26,30,7.15871744610963e-05,0.00200000000040745
27,1,6.61647436730473e-05,0.00100000000020373
27,2,2.24671859363479e-05,0.00100000000020373
27,3,6.53728607376003e-05,0.00200000000040745
27,4,7.78640853027479e-06,0.000999999998384737
27,5,4.24952373947463e-05,0.00200000000040745
27,6,5.06816599399329e-05,0.00100000000020373
27,7,6.49011392961363e-07,0.00200000000040745
27,8,9.15721102739964e-05,0.00200000000040745
27,9,3.53457442422433e-05,0.00100000000020373
27,10,0.000113326806930991,0.00199999999858846
27,11,7.93231074198708e-05,0.00100000000020373
27,12,4.88829723620521e-05,0.00100000000020373
27,13,2.54927276350791e-05,0.00200000000040745
27,14,3.76720482780923e-05,0.00100000000020373
27,15,8.51507534092022e-05,0.00199999999858846
27,16,2.41704243106877e-05,0.00200000000040745
27,17,1.90670244192281e-05,0.00100000000020373
27,18,2.00158092678038e-06,0.00200000000040745
27,19,1.92195203374546e-06,0.00100000000020373
27,20,1.09931514165051e-05,0.00199999999858846
27,21,3.01074449541305e-05,0.00200000000040745
27,22,6.97702588680071e-05,0.00100000000020373
27,23,3.24559520028522e-05,0.00200000000040745
27,24,9.85413456725537e-05,0.00100000000020373
27,25,1.54994896408578e-05,0.00200000000040745
27,26,4.01586896340289e-05,0.00199999999858846
27,27,8.30949334829079e-06,0.00100000000020373
27,28,1.38309665080882e-05,0.00200000000040745
27,29,5.41273315063373e-05,0.00100000000020373
27,30,2.50159625796442e-05,0.00200000000040745
28,1,4.20110702737952e-05,0.00199999999858846
28,2,1.68648746290412e-06,0.00100000000020373
28,3,4.12191873383483e-05,0.00200000000040745
28,4,3.19400819295268e-05,0.00100000000020373
28,5,1.83415639954942e-05,0.00599999999940337
28,6,2.65279865406809e-05,0.00200000000040745
28,7,2.48026847922134e-05,0.00100000000020373
28,8,6.74184368747444e-05,0.00200000000040745
28,9,1.11920708429913e-05,0.00100000000020373
28,10,8.91731335317392e-05,0.00199999999858846
28,11,5.51694340206188e-05,0.00200000000040745
28,12,2.47292989628001e-05,0.00100000000020373
28,13,1.33905423582714e-06,0.00200000000040745
28,14,1.35183748788403e-05,0.00100000000020373
28,15,6.09970800099502e-05,0.00200000000040745
28,16,1.67509114357145e-08,0.000999999998384737
28,17,4.32206978184801e-05,0.00100000000020373
28,18,2.21520924724716e-05,0.00200000000040745
28,19,2.60756254329975e-05,0.00100000000020373
28,20,3.51468248157571e-05,0.00200000000040745
28,21,5.95377155487853e-06,0.00100000000020373
28,22,4.56165854687551e-05,0.00199999999858846
28,23,8.30227860360022e-06,0.00200000000040745
28,24,7.43876722733017e-05,0.00100000000020373
28,25,3.96531630401098e-05,0.00200000000040745
28,26,1.60050162347769e-05,0.00100000000020373
28,27,1.58441800509612e-05,0.00199999999858846
28,28,1.03227068911638e-05,0.00100000000020373
28,29,2.99736581070853e-05,0.00100000000020373
28,30,4.91696359788962e-05,0.00200000000040745
29,1,6.07834154269238e-05,0.00100000000020373
29,2,1.70858576902244e-05,0.00200000000040745
29,3,5.99915324914768e-05,0.000999999998384737
29,4,1.31677367763983e-05,0.00200000000040745
29,5,3.71139091486228e-05,0.00200000000040745
29,6,4.53003316938094e-05,0.00100000000020373
29,7,6.03033963908484e-06,0.00200000000040745
29,8,8.61907820278729e-05,0.00100000000020373
29,9,2.99644159961199e-05,0.00199999999858846
29,10,0.000107945478684868,0.00200000000040745
29,11,7.39417791737473e-05,0.00100000000020373
29,12,4.35016441159286e-05,0.00200000000040745
29,13,2.01113993889557e-05,0.00100000000020373
29,14,3.22907200319689e-05,0.00199999999858846
29,15,7.97694251630787e-05,0.00200000000040745
29,16,1.87890960645642e-05,0.00100000000020373
29,17,2.44483526653516e-05,0.00200000000040745
29,18,3.3797473193431e-06,0.00100000000020373
29,19,7.30328027986893e-06,0.00100000000020373
29,20,1.63744796626286e-05,0.00199999999858846
29,21,2.47261167080071e-05,0.00100000000020373
29,22,6.43889306218837e-05,0.00200000000040745
29,23,2.70746237567288e-05,0.00100000000020373
29,24,9.31600174264302e-05,0.00100000000020373
29,25,2.08808178869813e-05,0.00199999999858846
29,26,3.47773613879054e-05,0.00100000000020373
29,27,2.92816510216731e-06,0.00200000000040745
29,28,8.44963826196476e-06,0.00100000000020373
29,29,4.87460032602138e-05,0.00100000000020373
29,30,3.03972908257677e-05,0.00199999999858846
30,1,4.99186019056186e-05,0.00100000000020373
30,2,6.22104416891922e-06,0.00200000000040745
30,3,4.91267189701716e-05,0.00100000000020373
30,4,2.40325502977035e-05,0.00100000000020373
30,5,2.62490956273176e-05,0.00200000000040745
30,6,3.44355181725042e-05,0.000999999998384737
30,7,1.689515316039e-05,0.00200000000040745
30,8,7.53259685065677e-05,0.00100000000020373
30,9,1.90996024748147e-05,0.00499999999919964
30,10,9.70806651635625e-05,0.00200000000040745
30,11,6.30769656524421e-05,0.00100000000020373
30,12,3.26368305946234e-05,0.00200000000040745
30,13,9.24658586765048e-06,0.00100000000020373
30,14,2.14259065106637e-05,0.00100000000020373
30,15,6.89046116417735e-05,0.00199999999858846
30,16,7.92428254325905e-06,0.00100000000020373
30,17,3.53131661866568e-05,0.00200000000040745
30,18,1.42445608406483e-05,0.00100000000020373
30,19,1.81680938011741e-05,0.00200000000040745
30,20,2.72392931839338e-05,0.00199999999858846
30,21,1.38613031867019e-05,0.00100000000020373
30,22,5.35241171005785e-05,0.00200000000040745
30,23,1.62098102354236e-05,0.00100000000020373
30,24,8.2295203905125e-05,0.00200000000040745
30,25,3.17456314082865e-05,0.00100000000020373
30,26,2.39125478666002e-05,0.000999999998384737
30,27,7.93664841913788e-06,0.00200000000040745
30,28,2.41517525934043e-06,0.00100000000020373
30,29,3.78811897389086e-05,0.00200000000040745
30,30,4.12621043470729e-05,0.00100000000020373
