App - ConnectBot
Scenario - connect_ssh
Length - 10sec
Measure - MinJumpCost
Before Version - 1.8.3_b
After Version - 1.8.6_b


"Before.Trace.ID1","Before.Trace.ID2","Difference","Runtime"
1,2,34.9440543672097,0.0400000000008731
1,3,45743.9343570722,0.0380000000004657
1,4,262248.664892654,0.0509999999994761
1,5,337461.474946868,0.0620000000017171
1,6,299913.613679565,0.0509999999994761
1,7,90845.3012170293,0.0509999999994761
1,8,134.178984737496,0.242999999998574
1,9,54646.7010972866,0.0669999999990978
1,10,51.378461501071,0.0720000000001164
1,11,355625.689329999,0.0390000000006694
1,12,342282.798551999,0.0640000000021246
1,13,274920.107493245,0.0560000000004948
1,14,943803.880790939,0.0559999999968568
1,15,113.907873171427,0.0620000000017171
1,16,682561.150980031,0.0669999999990978
1,17,30340.5691984239,0.0339999999996508
1,18,328389.881733222,0.0460000000020955
1,19,397562.013051395,0.0399999999972351
1,20,45295.4551890236,0.055000000000291
1,21,4064.0400461966,0.0560000000004948
1,22,635.381537638642,0.118000000002212
1,23,41.2256734752458,0.0469999999986612
1,24,434158.950041492,0.0400000000008731
1,25,178909.027506431,0.0529999999998836
1,26,38936.9300683923,0.0629999999982829
1,27,847796.891481908,0.055000000000291
1,28,310589.139484292,0.0400000000008731
1,29,13037.9349595362,0.0509999999994761
1,30,22933.4270385,0.069999999999709
2,3,387.060766261135,0.0659999999988941
2,4,2033.1322775919,0.0590000000011059
2,5,206803.544298335,0.0540000000000873
2,6,41793.3798839776,0.0560000000004948
2,7,146014.795320044,0.0639999999984866
2,8,93762.1232828375,0.0529999999998836
2,9,65346.4611465081,0.0420000000012806
2,10,11360.5451542375,0.0449999999982538
2,11,47194.5836887621,0.0500000000029104
2,12,162394.598160034,0.0370000000002619
2,13,18161.4285566201,0.0559999999968568
2,14,1508.01630711638,0.069999999999709
2,15,233076.65925636,0.044000000001688
2,16,200116.509637077,0.0570000000006985
2,17,7205.00388721514,0.0400000000008731
2,18,93284.9856168773,0.0379999999968277
2,19,27322.7276891298,0.0540000000000873
2,20,8711.78902774299,0.0529999999998836
2,21,3967.75331016638,0.0570000000006985
2,22,13210.7149800395,0.0319999999992433
2,23,30274.4102596059,0.0500000000029104
2,24,42371.6063706448,0.0529999999998836
2,25,79.0368622993674,0.0509999999994761
2,26,38301.208350797,0.0669999999990978
2,27,4603.95245740766,0.0460000000020955
2,28,5413.42298718266,0.0600000000013097
2,29,12312.8520985739,0.0679999999993015
2,30,110085.129054575,0.0630000000019209
3,4,204528.524761944,0.130999999997584
3,5,42688.5228920055,0.0490000000027067
3,6,133474.779015862,0.055000000000291
3,7,365757.0830624,0.0929999999971187
3,8,137023.470701968,0.0370000000002619
3,9,78581.4741073643,0.0290000000022701
3,10,216.143741810561,0.0429999999978463
3,11,29851.5337384756,0.0519999999996799
3,12,73092.8676103732,0.0380000000004657
3,13,13269.9887130389,0.227999999999156
3,14,100510.751601364,0.0670000000027358
3,15,461867.833032398,0.0689999999995052
3,16,281973.872597338,0.0419999999976426
3,17,35388.1139204943,0.0310000000026776
3,18,66222.7492339441,0.0489999999990687
3,19,35587.5268136329,0.120999999999185
3,20,457.328383352098,0.101000000002387
3,21,98354.0461193819,0.0940000000009604
3,22,2783.12892893135,0.0509999999994761
3,23,21422.8939995363,0.0280000000020664
3,24,47092.9378543605,0.0669999999990978
3,25,122773.071191197,0.211999999999534
3,26,247.767969525049,0.184000000001106
3,27,75902.4854682619,0.0709999999999127
3,28,37450.7913123897,0.0590000000011059
3,29,17540.2603367939,0.0540000000000873
3,30,101339.343018287,0.22899999999936
4,5,125004.893443865,0.0609999999978754
4,6,217053.243787357,0.055000000000291
4,7,658775.714742344,0.0869999999995343
4,8,12.280797633338,0.0290000000022701
4,9,223613.706259525,0.0459999999984575
4,10,15.3843828090357,0.055000000000291
4,11,8068.69387361449,0.0540000000000873
4,12,272.253233221906,0.069999999999709
4,13,55573.4844844,0.10399999999936
4,14,22212.9161558839,0.0509999999994761
4,15,601444.564907037,0.0960000000013679
4,16,123874.005490886,0.0560000000004948
4,17,144090.724087501,0.0489999999990687
4,18,99656.1585336119,0.0430000000014843
4,19,191.768491572487,0.0749999999970896
4,20,195451.308230442,0.0650000000023283
4,21,427971.029789872,0.0629999999982829
4,22,103216.475281041,0.0310000000026776
4,23,59228.2434892536,0.0370000000002619
4,24,41007.046258094,0.0760000000009313
4,25,7723.06091913014,0.224000000001979
4,26,199590.386885484,0.0939999999973224
4,27,2279.67402059644,0.0630000000019209
4,28,1782.41224030961,0.0669999999990978
4,29,276665.985048227,0.0659999999988941
4,30,304205.773833976,0.193000000002939
5,6,18244.4816977369,0.0839999999989232
5,7,9743.34806753429,0.055000000000291
5,8,300689.367040369,0.058999999997468
5,9,747850.432195412,0.0510000000031141
5,10,364361.925170371,0.0989999999983411
5,11,4202.4969485969,0.077000000001135
5,12,10027.7141001394,0.316999999999098
5,13,32303.020397537,0.0679999999993015
5,14,15904.6186775335,0.0730000000003201
5,15,106229.021844359,0.0580000000009022
5,16,21422.0160281262,0.0580000000009022
5,17,284486.037684781,0.0489999999990687
5,18,2420.8643400809,0.0469999999986612
5,19,76227.7550840088,0.0709999999999127
5,20,29518.1375668784,0.0839999999989232
5,21,794.952492188239,0.0610000000015134
5,22,461889.137832272,0.0529999999998836
5,23,241531.281865429,0.0349999999998545
5,24,132.846646561072,0.0649999999986903
5,25,27879.1549751341,0.0530000000035216
5,26,23369.3372865183,0.0599999999976717
5,27,8214.35616606479,0.0509999999994761
5,28,287.119809089118,0.066000000002532
5,29,1060.84001528172,0.0859999999993306
5,30,248205.205866827,0.0599999999976717
6,7,406738.535839699,0.0680000000029395
6,8,123673.103280062,0.0679999999993015
6,9,364483.816186888,0.0529999999998836
6,10,78808.558607018,0.121999999999389
6,11,15860.6442143334,0.0620000000017171
6,12,18053.2478535968,0.0839999999989232
6,13,74014.1343296653,0.0469999999986612
6,14,108261.307573312,0.0560000000004948
6,15,432402.327892089,0.0600000000013097
6,16,10447.2557689558,0.105999999999767
6,17,472786.232308292,0.0349999999998545
6,18,67455.100342009,0.04399999999805
6,19,18945.3752330861,0.0630000000019209
6,20,133822.666375526,0.0799999999981083
6,21,61322.9080314778,0.0360000000000582
6,22,393008.002582027,0.0620000000017171
6,23,288291.943354366,0.0370000000002619
6,24,1405.29645719763,0.0839999999989232
6,25,176117.646920843,0.0469999999986612
6,26,73801.0361575633,0.0840000000025611
6,27,65.8644270908543,0.0560000000004948
6,28,34139.9998508274,0.0619999999980791
6,29,39361.2631850836,0.0620000000017171
6,30,416984.097782802,0.0399999999972351
7,8,268739.003806381,0.0509999999994761
7,9,29572.626390064,0.0470000000022992
7,10,11303.5482284757,0.0740000000005239
7,11,143807.425885824,0.0839999999989232
7,12,403.07086736353,0.0590000000011059
7,13,590672.4228981,0.0779999999977008
7,14,66710.1538984292,0.163000000000466
7,15,41346.4741080026,0.364000000001397
7,16,2992.08940048615,0.0669999999990978
7,17,204963.146544609,0.0370000000002619
7,18,146281.797248999,0.125
7,19,636839.061454333,0.123999999999796
7,20,57875.5955074475,0.313999999998487
7,21,97715.6958034975,0.305000000000291
7,22,3744.01923081844,0.0400000000008731
7,23,16243.9465362142,0.0370000000002619
7,24,84358.2465339294,0.194999999999709
7,25,827031.497735339,0.08100000000195
7,26,174963.092389988,0.159999999999854
7,27,543413.925326037,0.193999999999505
7,28,58595.7952021566,0.125
7,29,112111.420702871,0.0740000000005239
7,30,47521.900073406,0.0829999999987194
8,9,565209.397090452,0.0709999999999127
8,10,154.057883765602,0.0750000000007276
8,11,192.002408338564,0.0570000000006985
8,12,133759.056265132,0.0540000000000873
8,13,98.8442682484777,0.0730000000003201
8,14,207667.872496508,0.0390000000006694
8,15,420524.128874393,0.0750000000007276
8,16,335337.474573264,0.0930000000007567
8,17,21796.2994413539,0.0370000000002619
8,18,307114.249190536,0.0570000000006985
8,19,253135.263582435,0.0390000000006694
8,20,51253.0680743883,0.0820000000021537
8,21,81650.7205227472,0.0720000000001164
8,22,143535.041939723,0.069999999999709
8,23,38601.3491869418,0.0370000000002619
8,24,128.960512323594,0.0509999999994761
8,25,4186.66116231945,0.0579999999972642
8,26,7701.20256573331,0.0650000000023283
8,27,345271.054183638,0.0540000000000873
8,28,8996.40947875788,0.0629999999982829
8,29,27076.4276956382,0.0590000000011059
8,30,213408.735980579,0.0659999999988941
9,10,37065.5808249429,0.0840000000025611
9,11,258844.499106596,0.0380000000004657
9,12,239284.245857643,0.0430000000014843
9,13,298908.092776947,0.0519999999996799
9,14,653406.038210718,0.0420000000012806
9,15,74131.1895374219,0.0459999999984575
9,16,957504.963113181,0.0540000000000873
9,17,1305.45016152215,0.055000000000291
9,18,321756.7292225,0.0410000000010768
9,19,699914.665835026,0.032999999999447
9,20,171864.447056229,0.0499999999992724
9,21,63.0219107510871,0.0339999999996508
9,22,126895.526488522,0.265999999999622
9,23,39666.5016361548,0.0470000000022992
9,24,493671.64684391,0.0639999999984866
9,25,354055.496798789,0.032999999999447
9,26,3063.67008598542,0.0560000000004948
9,27,472404.357925229,0.0529999999998836
9,28,198667.594307333,0.0499999999992724
9,29,210686.676820879,0.0529999999998836
9,30,339.561651663864,0.0750000000007276
10,11,87667.7731549658,0.0679999999993015
10,12,103.801462880449,0.109000000000378
10,13,80863.7210959653,0.047999999998865
10,14,524753.715014764,0.0430000000014843
10,15,24332.6317581808,0.0610000000015134
10,16,160854.954458455,0.0759999999972933
10,17,14212.7181405334,0.0370000000002619
10,18,226150.929961559,0.0790000000015425
10,19,194298.572158453,0.0489999999990687
10,20,140.930752449295,0.0659999999988941
10,21,81.1638250068169,0.044000000001688
10,22,6424.25639396648,0.0669999999990978
10,23,68538.3231336881,0.0450000000018917
10,24,32180.9550313858,0.0910000000003492
10,25,5.13756024892165,0.0470000000022992
10,26,1368.89949576495,0.0629999999982829
10,27,493341.71956557,0.055000000000291
10,28,236748.224246065,0.069999999999709
10,29,59093.3101558,0.0800000000017462
10,30,829.770731565458,0.0459999999984575
11,12,122.729765091974,0.0849999999991269
11,13,17292.4397610323,0.0600000000013097
11,14,80789.007365834,0.0649999999986903
11,15,410961.085184926,0.0830000000023574
11,16,34601.31055277,0.058999999997468
11,17,75768.0386574624,0.0500000000029104
11,18,56815.0264734692,0.0849999999991269
11,19,119930.855928627,0.0649999999986903
11,20,38120.9566671353,0.0859999999993306
11,21,113798.715815709,0.104000000002998
11,22,335725.091045689,0.0429999999978463
11,23,49639.7402930805,0.0360000000000582
11,24,45327.0739259365,0.0950000000011642
11,25,10994.0292048853,0.080999999998312
11,26,77816.0846152682,0.104999999999563
11,27,154898.445589514,0.0669999999990978
11,28,26275.6994260027,0.254000000000815
11,29,22718.0435136707,0.205000000001746
11,30,2794.66101487739,0.0540000000000873
12,13,4935.69741837071,0.0740000000005239
12,14,99100.7061274782,0.10399999999936
12,15,83266.2320236986,0.0819999999985157
12,16,22200.6619900838,0.0580000000009022
12,17,200203.898518847,0.04399999999805
12,18,37321.2593733979,0.0510000000031141
12,19,5930.6868944908,0.0679999999993015
12,20,31474.7628422027,0.0789999999979045
12,21,52379.4260929416,0.0480000000025029
12,22,166278.486988049,0.0389999999970314
12,23,76238.1255919013,0.0420000000012806
12,24,81041.3010784667,0.047999999998865
12,25,13.225916421747,0.0420000000012806
12,26,34118.2655730828,0.0519999999996799
12,27,157498.679928414,0.0590000000011059
12,28,10802.2015774866,0.0829999999987194
12,29,33126.2112431069,0.105999999999767
12,30,854.969669604058,0.0829999999987194
13,14,25952.886188095,0.092000000000553
13,15,617814.633232493,0.0750000000007276
13,16,936.816829039639,0.0580000000009022
13,17,812.27606611917,0.0649999999986903
13,18,16029.9545446955,0.0940000000009604
13,19,4331.92088272783,0.147000000000844
13,20,13.4983153486913,0.0679999999993015
13,21,193114.307610556,0.0730000000003201
13,22,70234.0279382901,0.0509999999994761
13,23,36.270022445891,0.0390000000006694
13,24,9498.9518838915,0.0730000000003201
13,25,12259.2124945818,0.112999999997555
13,26,5616.04324889351,0.189000000002125
13,27,40486.6805653671,0.0799999999981083
13,28,9.46168158230036,0.0650000000023283
13,29,189979.446077609,0.0519999999996799
13,30,34895.2543827601,0.192999999999302
14,15,97761.6144491038,0.138999999999214
14,16,48172.9076887177,0.0459999999984575
14,17,446128.004564964,0.0580000000009022
14,18,229.87649596063,0.194999999999709
14,19,23645.6180989346,0.069999999999709
14,20,43037.1817965331,0.163000000000466
14,21,34322.4061910208,0.136000000002241
14,22,209680.334578995,0.0389999999970314
14,23,349980.930242685,0.0490000000027067
14,24,6772.91285925272,0.235000000000582
14,25,31590.879348383,0.0649999999986903
14,26,76672.2231675365,0.110000000000582
14,27,10558.1361702077,0.126000000000204
14,28,25.9272096597297,0.0849999999991269
14,29,392565.733502743,0.0969999999979336
14,30,72226.6699749589,0.0709999999999127
15,16,275690.668344146,0.0370000000002619
15,17,298161.531297288,0.0290000000022701
15,18,181161.175949234,0.113999999997759
15,19,19313.4045885429,0.11200000000099
15,20,58940.9607809296,0.350999999998749
15,21,138769.577154046,0.349000000001979
15,22,13826.9711951615,0.0400000000008731
15,23,33436.8238503776,0.04399999999805
15,24,103.431556660438,0.138999999999214
15,25,764467.698931188,0.0670000000027358
15,26,228332.070966422,0.154999999998836
15,27,9024.6987756425,0.201000000000931
15,28,257228.990967884,0.0689999999995052
15,29,165682.664056705,0.0839999999989232
15,30,95833.1133647664,0.0910000000003492
16,17,769325.902151412,0.047999999998865
16,18,18780.0456010743,0.0310000000026776
16,19,26291.0076792582,0.0390000000006694
16,20,200038.619599122,0.0790000000015425
16,21,203104.591579997,0.0529999999998836
16,22,924928.434196574,0.0519999999996799
16,23,631523.087736212,0.0730000000003201
16,24,78.9818765940636,0.069999999999709
16,25,66241.6100350265,0.0519999999996799
16,26,307.957298981683,0.0720000000001164
16,27,41457.8285878512,0.0679999999993015
16,28,37630.677723909,0.0489999999990687
16,29,51959.5684410862,0.0510000000031141
16,30,40188.3946399994,0.0489999999990687
17,18,223169.949635406,0.0400000000008731
17,19,343531.239642723,0.0289999999986321
17,20,15443.1949646658,0.0499999999992724
17,21,9878.435259634,0.032999999999447
17,22,3703.75463744855,0.0570000000006985
17,23,30841.0941800125,0.278999999998632
17,24,221491.519746392,0.066000000002532
17,25,80533.3848538526,0.0459999999984575
17,26,3942.34470014185,0.0659999999988941
17,27,613355.320438172,0.0450000000018917
17,28,195821.508080194,0.0489999999990687
17,29,9699.19708929208,0.0349999999998545
17,30,82722.97555434,0.0430000000014843
18,19,27284.746759486,0.0720000000001164
18,20,64526.9828149608,0.135999999998603
18,21,35632.8472061345,0.0960000000013679
18,22,164476.637947943,0.0509999999994761
18,23,160046.449696208,0.0339999999996508
18,24,1285.34721997833,0.212999999999738
18,25,30782.0573028444,0.0570000000006985
18,26,18805.4020920943,0.0849999999991269
18,27,49435.8212220857,0.0790000000015425
18,28,13190.2467454991,0.109999999996944
18,29,157.059460378089,0.0900000000001455
18,30,182012.545134572,0.0780000000013388
19,20,326641.824566711,0.0940000000009604
19,21,274679.421230813,0.140999999999622
19,22,195782.785065501,0.0349999999998545
19,23,168505.110618579,0.0360000000000582
19,24,25.0509508623266,0.080999999998312
19,25,991.899194826885,0.0910000000003492
19,26,16152.9640783652,0.255000000001019
19,27,18840.6028615969,0.092000000000553
19,28,3050.37008628735,0.0669999999990978
19,29,478189.040673701,0.0620000000017171
19,30,187474.99976127,0.0989999999983411
20,21,7837.39390624784,0.183000000000902
20,22,39.0438337088362,0.0499999999992724
20,23,7932.45244125775,0.0400000000008731
20,24,45967.7852431731,0.172999999998865
20,25,229854.89112772,0.0839999999989232
20,26,52150.6514561415,0.130000000001019
20,27,149372.573037625,0.223000000001775
20,28,10383.5402853973,0.102999999999156
20,29,139.895534074978,0.10399999999936
20,30,37407.0344916751,0.0950000000011642
21,22,5564.5515791359,0.036999999996624
21,23,14464.6166662849,0.0460000000020955
21,24,91596.0253621828,0.154999999998836
21,25,241230.223313687,0.077000000001135
21,26,29509.2188933924,0.165000000000873
21,27,1305.78032696227,0.32300000000032
21,28,4841.61931340727,0.0799999999981083
21,29,3876.09562911706,0.077000000001135
21,30,30235.5277335478,0.102999999999156
22,23,34947.2796833457,0.047999999998865
22,24,174585.54158311,0.0519999999996799
22,25,197357.2936598,0.044000000001688
22,26,17092.4775067538,0.0580000000009022
22,27,257316.308862535,0.0489999999990687
22,28,225092.976290119,0.0390000000006694
22,29,30.5557631835984,0.0570000000006985
22,30,92454.4571909448,0.0459999999984575
23,24,130755.954589858,0.0420000000012806
23,25,9702.20328918583,0.0380000000004657
23,26,78968.5708027768,0.0459999999984575
23,27,199910.382486975,0.0259999999980209
23,28,82287.3095650094,0.0290000000022701
23,29,4752.87458720684,0.0419999999976426
23,30,2690.93992738197,0.0410000000010768
24,25,28.9737639265479,0.0679999999993015
24,26,38486.8343422986,0.143000000000029
24,27,33400.4866525827,0.149000000001251
24,28,46595.4304724507,0.10399999999936
24,29,148.070276909026,0.0910000000003492
24,30,313632.988278115,0.0730000000003201
25,26,262634.18296279,0.0889999999999418
25,27,1166.90744769011,0.0669999999990978
25,28,82603.2533115592,0.132000000001426
25,29,240545.251031916,0.0489999999990687
25,30,226930.688564257,0.157999999999447
26,27,69759.2978069125,0.163000000000466
26,28,34155.047586483,0.0790000000015425
26,29,22929.8660411601,0.0959999999977299
26,30,64489.639420422,0.22700000000259
27,28,62139.2592093614,0.0799999999981083
27,29,525481.712169781,0.077000000001135
27,30,207402.101416685,0.0509999999994761
28,29,54872.6763350296,0.360000000000582
28,30,183023.169185706,0.0509999999994761
29,30,48724.334031148,0.0910000000003492


"After.Trace.ID","Before.Trace.ID","Difference","Runtime"
1,1,463123.700315907,0.0540000000000873
1,2,2368.5541685728,0.0499999999992724
1,3,84809.7761257947,0.04399999999805
1,4,26984.6522542981,0.044000000001688
1,5,66860.0433661066,0.0740000000005239
1,6,749.877788504633,0.138999999999214
1,7,51813.1520254302,0.0610000000015134
1,8,142183.922708277,0.0779999999977008
1,9,264972.993433936,0.0669999999990978
1,10,127974.823220674,0.0680000000029395
1,11,25259.1756790044,0.0669999999990978
1,12,22432.1889454947,0.055000000000291
1,13,111.413691690282,0.0489999999990687
1,14,3302.16199925396,0.0450000000018917
1,15,420527.553349009,0.0379999999968277
1,16,55718.494162405,0.180000000000291
1,17,163880.782671974,0.0360000000000582
1,18,12669.4900437332,0.0450000000018917
1,19,17612.7124959135,0.0579999999972642
1,20,11076.9067164669,0.077000000001135
1,21,13198.894373931,0.055000000000291
1,22,225719.561381545,0.0560000000004948
1,23,267870.934904541,0.0469999999986612
1,24,1898.15646747298,0.0590000000011059
1,25,262180.38012809,0.0610000000015134
1,26,71144.8610625716,0.0519999999996799
1,27,303064.840785263,0.0599999999976717
1,28,53511.6216334087,0.0740000000005239
1,29,105768.579185459,0.0800000000017462
1,30,347808.134668194,0.0579999999972642
2,1,522.057847144686,0.0519999999996799
2,2,14073.221375754,0.0500000000029104
2,3,1935.80120227788,0.0379999999968277
2,4,282702.137019045,0.0310000000026776
2,5,393430.418338383,0.0829999999987194
2,6,858508.651464233,0.0459999999984575
2,7,54249.2461900469,0.0460000000020955
2,8,320445.118755995,0.0989999999983411
2,9,5897.54449426509,0.0870000000031723
2,10,54195.7391932548,0.047999999998865
2,11,184594.306992067,0.0279999999984284
2,12,386001.820548249,0.0380000000004657
2,13,193760.228411336,0.0590000000011059
2,14,456815.555872373,0.0449999999982538
2,15,123613.486809738,0.066000000002532
2,16,449454.476849093,0.0429999999978463
2,17,2782.72091329039,0.0790000000015425
2,18,275821.694931114,0.032999999999447
2,19,456120.232047038,0.0289999999986321
2,20,1600.12476749209,0.0460000000020955
2,21,19337.6160659149,0.0349999999998545
2,22,89211.6987458146,0.0900000000001455
2,23,1109.32790813424,0.0839999999989232
2,24,258003.629636771,0.0469999999986612
2,25,289715.820451238,0.0310000000026776
2,26,13082.7934325271,0.0499999999992724
2,27,437080.503713541,0.0360000000000582
2,28,214878.115471311,0.0299999999988358
2,29,45.4414730237325,0.0370000000002619
2,30,36232.9272774535,0.0489999999990687
3,1,7985.43469285499,0.0290000000022701
3,2,45.2166583160405,0.0629999999982829
3,3,13053.4258320642,0.0519999999996799
3,4,20777.7482404757,0.0400000000008731
3,5,69206.4280223929,0.0370000000002619
3,6,229324.618849904,0.0449999999982538
3,7,160014.122245711,0.0480000000025029
3,8,19330.4286097919,0.0360000000000582
3,9,700.25163534674,0.0389999999970314
3,10,17.1296731015372,0.0400000000008731
3,11,14163.4809273587,0.032999999999447
3,12,33391.8144191164,0.0320000000028813
3,13,2703.63372904533,0.0309999999990396
3,14,270492.150368041,0.0299999999988358
3,15,16812.4820041214,0.0380000000004657
3,16,339159.607871213,0.047999999998865
3,17,14228.4198826121,0.0339999999996508
3,18,47736.3414588959,0.0400000000008731
3,19,96272.805526924,0.0450000000018917
3,20,22330.3386132535,0.0379999999968277
3,21,14955.284855534,0.0360000000000582
3,22,19563.1070620117,0.0300000000024738
3,23,96737.8689189961,0.0279999999984284
3,24,378739.369217909,0.047999999998865
3,25,104470.288952408,0.0480000000025029
3,26,125.556661676418,0.047999999998865
3,27,87787.5591917392,0.0469999999986612
3,28,176139.369429262,0.0470000000022992
3,29,24176.4525707114,0.0370000000002619
3,30,129997.165916921,0.0360000000000582
4,1,125.719246248408,0.0639999999984866
4,2,21833.82894604,0.0529999999998836
4,3,9940.60270077648,0.0540000000000873
4,4,441278.480591359,0.0430000000014843
4,5,339763.811194016,0.055000000000291
4,6,242547.847562634,0.104999999999563
4,7,50978.0450558798,0.0859999999993306
4,8,633.800039851499,0.0910000000003492
4,9,120978.008619125,0.0869999999995343
4,10,51049.0857151849,0.0999999999985448
4,11,122111.932947235,0.0790000000015425
4,12,567531.750406132,0.118999999998778
4,13,185774.294048826,0.0529999999998836
4,14,407758.159775016,0.0460000000020955
4,15,136832.299082015,0.0469999999986612
4,16,6130.52912341644,0.171999999998661
4,17,110428.731685484,0.0499999999992724
4,18,186661.589163725,0.0390000000006694
4,19,534215.980837287,0.0570000000006985
4,20,54045.7895859399,0.0540000000000873
4,21,6051.49028039835,0.0669999999990978
4,22,12824.352531059,0.0689999999995052
4,23,31.1849663942276,0.0889999999999418
4,24,173025.513039595,0.120000000002619
4,25,328249.84344824,0.0609999999978754
4,26,141287.214631035,0.127000000000407
4,27,677598.794337558,0.055000000000291
4,28,270872.977396949,0.0560000000004948
4,29,30603.6015767019,0.0600000000013097
4,30,133430.483470178,0.0540000000000873
5,1,18794.8581611001,0.0540000000000873
5,2,29221.5304385732,0.0539999999964493
5,3,34.3950949212556,0.0500000000029104
5,4,138831.358056137,0.0390000000006694
5,5,466098.348921403,0.0769999999974971
5,6,15565.329558807,0.350000000002183
5,7,45199.2143440901,0.0649999999986903
5,8,155315.1180666,0.0829999999987194
5,9,34305.9591265977,0.0430000000014843
5,10,82.2362715619936,0.159999999999854
5,11,437658.091086503,0.0669999999990978
5,12,406190.979816531,0.0950000000011642
5,13,278317.266275039,0.055000000000291
5,14,200585.512036407,0.0560000000004948
5,15,2550.54514243431,0.0409999999974389
5,16,87268.4346222315,0.11200000000099
5,17,27247.4764223397,0.0420000000012806
5,18,147410.144788207,0.0579999999972642
5,19,276597.123317145,0.0610000000015134
5,20,158917.582899659,0.0629999999982829
5,21,48973.7990049526,0.044000000001688
5,22,1656.60955207027,0.0469999999986612
5,23,51316.6290903749,0.0460000000020955
5,24,119916.105883113,0.0609999999978754
5,25,386222.588784087,0.0560000000004948
5,26,916.118914366619,0.066000000002532
5,27,144659.30344785,0.0729999999966822
5,28,454663.813978145,0.069999999999709
5,29,80509.0525149663,0.0690000000031432
5,30,4825.10189931034,0.0939999999973224
6,1,183676.547151303,0.066000000002532
6,2,2919.57577016304,0.0489999999990687
6,3,59.4988928132469,0.0529999999998836
6,4,68213.3112091682,0.0469999999986612
6,5,77.9048487119996,0.141999999999825
6,6,11567.8460390704,0.0480000000025029
6,7,15604.453360674,0.0649999999986903
6,8,102008.335679184,0.0509999999994761
6,9,248007.145954389,0.0370000000002619
6,10,236485.78499595,0.138999999999214
6,11,49720.6835755857,0.164000000000669
6,12,1466.51344906082,0.168000000001484
6,13,44764.7792672902,0.0639999999984866
6,14,108.083282985135,0.100999999998749
6,15,235931.531265074,0.0910000000003492
6,16,261.922621336751,0.0600000000013097
6,17,732.156324713062,0.047999999998865
6,18,144359.530028497,0.109000000000378
6,19,92063.0473929816,0.0849999999991269
6,20,2408.59458243861,0.08100000000195
6,21,189.671212820278,0.0649999999986903
6,22,42509.9594472214,0.0570000000006985
6,23,2019.58658466907,0.0319999999992433
6,24,144180.419036497,0.0709999999999127
6,25,21905.7134264342,0.0499999999992724
6,26,78703.4823242038,0.0740000000005239
6,27,312169.860081523,0.0650000000023283
6,28,173568.333101952,0.102999999999156
6,29,609.608008259002,0.113999999997759
6,30,58551.2060397317,0.066000000002532
7,1,251741.038729982,0.0459999999984575
7,2,4901.0670693154,0.0560000000004948
7,3,17.9985812839201,0.0600000000013097
7,4,772.667711108161,0.0579999999972642
7,5,74367.0113440545,0.0380000000004657
7,6,4384.46038028207,0.0339999999996508
7,7,523834.510229714,0.0519999999996799
7,8,359.181588981097,0.0490000000027067
7,9,239984.35748805,0.0229999999974098
7,10,54942.3349619906,0.0370000000002619
7,11,4441.40326637119,0.0600000000013097
7,12,13.8586609361786,0.0319999999992433
7,13,15868.6695450465,0.0720000000001164
7,14,57857.0081169281,0.0529999999998836
7,15,548243.08504732,0.0600000000013097
7,16,106888.195347056,0.0410000000010768
7,17,31135.1389802859,0.0339999999996508
7,18,129471.840302576,0.080999999998312
7,19,3061.78028828868,0.044000000001688
7,20,104752.648131514,0.0339999999996508
7,21,295937.924858255,0.0449999999982538
7,22,92920.5650172163,0.032999999999447
7,23,1530.6300405156,0.0290000000022701
7,24,20153.3269072589,0.0429999999978463
7,25,106.240925813117,0.0679999999993015
7,26,109047.751574691,0.0610000000015134
7,27,28714.9877958748,0.0499999999992724
7,28,3554.03843204141,0.032999999999447
7,29,312179.030619017,0.0349999999998545
7,30,609619.043806946,0.0640000000021246
8,1,257300.348961226,0.0449999999982538
8,2,32638.3264544858,0.0360000000000582
8,3,24684.9017915426,0.0349999999998545
8,4,8570.51131713601,0.0470000000022992
8,5,47655.421285479,0.055000000000291
8,6,424.152437300615,0.0540000000000873
8,7,140210.775957501,0.0769999999974971
8,8,616665.252143227,0.0540000000000873
8,9,382917.838309934,0.0380000000004657
8,10,798934.182903687,0.0450000000018917
8,11,132969.187344911,0.0749999999970896
8,12,116409.530214163,0.0630000000019209
8,13,49371.6723793613,0.101999999998952
8,14,64.9060976827829,0.110000000000582
8,15,171798.926671596,0.0560000000004948
8,16,11835.7565215445,0.0449999999982538
8,17,655426.000517864,0.0650000000023283
8,18,8578.3060709894,0.22099999999773
8,19,12564.1248103569,0.0830000000023574
8,20,87527.8631789781,0.0789999999979045
8,21,126662.032767828,0.055000000000291
8,22,517368.425650641,0.0509999999994761
8,23,431650.711443426,0.0410000000010768
8,24,9950.01317385734,0.122999999999593
8,25,50955.2217033153,0.0449999999982538
8,26,54786.0026979764,0.0640000000021246
8,27,34.5991745107297,0.0750000000007276
8,28,252.494162073983,0.0959999999977299
8,29,205793.86672884,0.125
8,30,17303.9501031946,0.0400000000008731
9,1,218722.345597563,0.0669999999990978
9,2,25710.3639397622,0.0670000000027358
9,3,88145.0119220105,0.0539999999964493
9,4,202240.228605918,0.0540000000000873
9,5,10082.5993673342,0.123000000003231
9,6,4333.01369509091,0.118999999998778
9,7,5174.35182278497,0.0669999999990978
9,8,21810.2121322986,0.0630000000019209
9,9,172908.620158612,0.0579999999972642
9,10,54988.1617062629,0.282000000002881
9,11,42539.1234026894,0.105999999999767
9,12,142.486597500417,0.15599999999904
9,13,111791.687310408,0.0629999999982829
9,14,261141.68270521,0.0900000000001455
9,15,2854.74632995804,0.0610000000015134
9,16,80107.9479472008,0.0750000000007276
9,17,70220.8973476452,0.0489999999990687
9,18,121423.252352656,0.0560000000004948
9,19,90734.8004077985,0.0429999999978463
9,20,6993.07803718578,0.0580000000009022
9,21,23719.9529296988,0.0659999999988941
9,22,105848.388938047,0.0529999999998836
9,23,53.3357573428542,0.0349999999998545
9,24,250280.16868571,0.0940000000009604
9,25,142561.557663934,0.0560000000004948
9,26,31765.7131838216,0.121999999999389
9,27,623960.798380047,0.0600000000013097
9,28,167477.338485143,0.0639999999984866
9,29,240.708060212155,0.111000000000786
9,30,100677.536966279,0.0740000000005239
10,1,41844.2709264504,0.0360000000000582
10,2,101461.96565015,0.0529999999998836
10,3,108795.351500122,0.0760000000009313
10,4,131555.209911526,0.0649999999986903
10,5,268204.665991424,0.0679999999993015
10,6,9360.79003181943,0.0540000000000873
10,7,65184.4476854617,0.338999999999942
10,8,121125.872150981,0.0469999999986612
10,9,5080.24926219111,0.0490000000027067
10,10,1617.42183905377,0.0629999999982829
10,11,16089.2199258486,0.0730000000003201
10,12,3876.05333046932,0.105999999999767
10,13,56.0767879998814,0.0679999999993015
10,14,3970.3013462477,0.195999999999913
10,15,98241.3177479789,0.268000000000029
10,16,28092.022074805,0.0480000000025029
10,17,463.253358792262,0.0509999999994761
10,18,15441.6303031041,0.206999999998516
10,19,540386.717186188,0.0800000000017462
10,20,25239.4692353911,0.219999999997526
10,21,6230.50677999666,0.208000000002357
10,22,27417.9220789959,0.0409999999974389
10,23,118145.176940595,0.0360000000000582
10,24,6913.96806505201,0.275000000001455
10,25,44.9818539433329,0.0859999999993306
10,26,51129.667986367,0.164000000000669
10,27,58.8865836724691,0.0970000000015716
10,28,5434.42637671123,0.0989999999983411
10,29,80.0095220674154,0.100999999998749
10,30,167.12393288346,0.0709999999999127
11,1,10506.8586874073,0.0430000000014843
11,2,154845.28135916,0.0590000000011059
11,3,103355.686386403,0.0619999999980791
11,4,267253.396336803,0.0600000000013097
11,5,120432.922153519,0.118999999998778
11,6,126755.989791397,0.0640000000021246
11,7,4006.21986757286,0.0689999999995052
11,8,102098.413944925,0.0529999999998836
11,9,10564.8556469893,0.0469999999986612
11,10,35.5659759152775,0.106999999999971
11,11,301.3447857225,0.17699999999968
11,12,120065.597620224,0.119000000002416
11,13,237684.387583964,0.0519999999996799
11,14,492438.623157562,0.0739999999968859
11,15,14221.3258774464,0.0709999999999127
11,16,133877.758175761,0.115000000001601
11,17,57502.4820347551,0.0309999999990396
11,18,765617.737945788,0.0610000000015134
11,19,475834.163749784,0.0600000000013097
11,20,90876.1379722571,0.0759999999972933
11,21,53560.3454801242,0.10399999999936
11,22,84766.054204909,0.0410000000010768
11,23,1925.77280688302,0.032999999999447
11,24,728601.294239438,0.0800000000017462
11,25,4.93724482020085,0.0619999999980791
11,26,67240.7709128622,0.0709999999999127
11,27,1034505.85089289,0.0800000000017462
11,28,318768.374559949,0.126000000000204
11,29,70106.6401260266,0.16899999999805
11,30,40.9447506661581,0.0590000000011059
12,1,240664.770722311,0.0360000000000582
12,2,91820.2016597141,0.0590000000011059
12,3,88171.5169743853,0.310999999997875
12,4,83.0947832474202,0.141999999999825
12,5,0.409272193988313,0.0349999999998545
12,6,18167.3341777665,0.0570000000006985
12,7,838116.452547371,0.08100000000195
12,8,169.806698608072,0.0759999999972933
12,9,412000.928636539,0.0420000000012806
12,10,83331.729426621,0.055000000000291
12,11,1160.94787077193,0.055000000000291
12,12,51.8356487864144,0.0400000000008731
12,13,35151.3221270744,0.13799999999901
12,14,1987.12277463558,0.0720000000001164
12,15,737438.283726631,0.0679999999993015
12,16,28988.7199845723,0.047999999998865
12,17,109356.372494843,0.0509999999994761
12,18,35.6273485202782,0.0490000000027067
12,19,1883.24762238583,0.108000000000175
12,20,184790.475092798,0.0769999999974971
12,21,353997.67719678,0.0760000000009313
12,22,172159.290178756,0.0370000000002619
12,23,44039.3396702986,0.047999999998865
12,24,43233.3016421952,0.0869999999995343
12,25,4534.53098946017,0.278000000002066
12,26,246412.327738101,0.100999999998749
12,27,13063.7779192589,0.0669999999990978
12,28,2108.50257467806,0.0830000000023574
12,29,428233.693728747,0.0449999999982538
12,30,290838.140784962,0.170000000001892
13,1,79364.6397322491,0.0499999999992724
13,2,224719.974093619,0.0489999999990687
13,3,200506.984799369,0.0849999999991269
13,4,183913.296607488,0.055000000000291
13,5,34011.1293087599,0.0990000000019791
13,6,501214.926701817,0.0419999999976426
13,7,809.832025714612,0.213999999999942
13,8,255394.04368327,0.044000000001688
13,9,9019.3008111507,0.0459999999984575
13,10,13178.3253400309,0.066000000002532
13,11,194651.477256596,0.117999999998574
13,12,257577.581443098,0.077000000001135
13,13,228505.604087754,0.0720000000001164
13,14,539992.660022438,0.153999999998632
13,15,18281.8796339893,0.179000000000087
13,16,30444.3765089735,0.0669999999990978
13,17,218068.345425966,0.0370000000002619
13,18,453860.553858513,0.21900000000096
13,19,657206.234040122,0.0980000000017753
13,20,59.5830559702318,0.159000000003289
13,21,2673.87569355091,0.135999999998603
13,22,3549.49659290657,0.0380000000004657
13,23,16334.7156472983,0.0360000000000582
13,24,530616.628765167,0.148000000001048
13,25,450549.019447683,0.0649999999986903
13,26,98059.5762580488,0.11200000000099
13,27,754289.015138838,0.0949999999975262
13,28,130257.459196335,0.140999999999622
13,29,707.176962576071,0.152000000001863
13,30,13181.1221042522,0.0900000000001455
14,1,28136.3436120632,0.047999999998865
14,2,88.2331056145318,0.0349999999998545
14,3,78659.6537693488,0.0470000000022992
14,4,154144.712218484,0.0569999999970605
14,5,583108.630306297,0.0840000000025611
14,6,313797.120465505,0.113999999997759
14,7,60393.4670167284,0.044000000001688
14,8,55144.026613891,0.102999999999156
14,9,83338.0470073709,0.0580000000009022
14,10,726.483810763949,0.0999999999985448
14,11,374094.835484391,0.0620000000017171
14,12,351249.410413444,0.0910000000003492
14,13,202284.944440611,0.0469999999986612
14,14,778540.541941349,0.0709999999999127
14,15,17.3379066409338,0.04399999999805
14,16,391538.542413634,0.138000000002648
14,17,6812.97777942287,0.0659999999988941
14,18,521966.709452177,0.0420000000012806
14,19,174438.994889209,0.0819999999985157
14,20,92827.5875284907,0.0560000000004948
14,21,3014.73635411426,0.04399999999805
14,22,20031.5448105609,0.055000000000291
14,23,19694.788426586,0.044000000001688
14,24,270129.177766056,0.0489999999990687
14,25,383053.634602998,0.0509999999994761
14,26,5842.92520323915,0.0570000000006985
14,27,246595.804601397,0.0430000000014843
14,28,142406.431570641,0.0540000000000873
14,29,145906.214245865,0.0599999999976717
14,30,27983.3333069411,0.0620000000017171
15,1,138692.35818451,0.0730000000003201
15,2,61388.4643601628,0.0509999999994761
15,3,4038.04849414606,0.047999999998865
15,4,2168.49211948099,0.0469999999986612
15,5,29.2622627279067,0.0730000000003201
15,6,61.3789431080179,0.0590000000011059
15,7,364921.102383407,0.0339999999996508
15,8,29.9034701889739,0.0590000000011059
15,9,8911.39287807788,0.032999999999447
15,10,69141.0141240432,0.0599999999976717
15,11,39485.5094170418,0.0490000000027067
15,12,36946.8781126301,0.0449999999982538
15,13,50562.0529928153,0.0509999999994761
15,14,373.768071770402,0.0590000000011059
15,15,70.0547276830228,0.055000000000291
15,16,199403.047719925,0.0600000000013097
15,17,234663.688169668,0.134999999998399
15,18,3613.40711771407,0.0370000000002619
15,19,84957.3972009787,0.0509999999994761
15,20,68876.9134796369,0.032999999999447
15,21,269593.368220135,0.0309999999990396
15,22,49327.4988694351,0.0580000000009022
15,23,248307.273396698,0.106999999999971
15,24,5784.96199045102,0.0489999999990687
15,25,30663.1668930946,0.0260000000016589
15,26,10.7896449770069,0.044000000001688
15,27,479.391531464519,0.0529999999998836
15,28,1098.37365690741,0.0459999999984575
15,29,201470.307420287,0.0339999999996508
15,30,256643.968837646,0.0450000000018917
16,1,229537.795075655,0.0370000000002619
16,2,97720.5664950857,0.0480000000025029
16,3,23651.9505104801,0.0779999999977008
16,4,147709.290461646,0.0529999999998836
16,5,6921.94332645774,0.0529999999998836
16,6,71535.475586738,0.0490000000027067
16,7,49459.5877387655,0.347999999998137
16,8,340.196081184393,0.044000000001688
16,9,242738.767009565,0.0449999999982538
16,10,279051.616188934,0.0420000000012806
16,11,18692.3556839955,0.0669999999990978
16,12,13722.1522995042,0.0540000000000873
16,13,16020.6822282296,0.0730000000003201
16,14,17647.3423155269,0.247999999999593
16,15,61847.6267173764,0.212999999999738
16,16,3871.15742673092,0.044000000001688
16,17,815.768482351455,0.0560000000004948
16,18,8549.15145524262,0.101999999998952
16,19,58273.9038952235,0.123999999999796
16,20,30325.8225921638,0.28099999999904
16,21,28491.8309024476,0.218000000000757
16,22,235.9441192387,0.0289999999986321
16,23,403.825658662689,0.0240000000012515
16,24,29209.3862323159,0.24199999999837
16,25,99594.0832243124,0.0650000000023283
16,26,33326.2087111669,0.129999999997381
16,27,251.170117653304,0.123999999999796
16,28,20512.922493177,0.0780000000013388
16,29,50314.9894677651,0.077000000001135
16,30,33815.1744426303,0.0730000000003201
17,1,540069.595554922,0.0679999999993015
17,2,211600.040432239,0.0509999999994761
17,3,77467.8821472561,0.0380000000004657
17,4,6086.03886254702,0.0299999999988358
17,5,2049.12937696485,0.0469999999986612
17,6,40.3735844815966,0.115000000001601
17,7,119878.230013998,0.0499999999992724
17,8,175363.353288011,0.0859999999993306
17,9,996487.779419664,0.0380000000004657
17,10,8052.09934578925,0.0780000000013388
17,11,948.160615307828,0.04399999999805
17,12,15400.360800704,0.0509999999994761
17,13,37220.7299193116,0.0490000000027067
17,14,39.6963304061936,0.0360000000000582
17,15,57039.2904668734,0.0509999999994761
17,16,37078.4074839562,0.092000000000553
17,17,503463.160523868,0.0549999999966531
17,18,11961.2009219454,0.0510000000031141
17,19,12721.1374996323,0.0319999999992433
17,20,73939.7414646734,0.0509999999994761
17,21,4758.87561291704,0.0279999999984284
17,22,285286.451320775,0.0430000000014843
17,23,185388.149906301,0.0319999999992433
17,24,72368.1443105214,0.0309999999990396
17,25,35789.7239439532,0.0529999999998836
17,26,52.5264669548967,0.0450000000018917
17,27,114094.664084647,0.0420000000012806
17,28,15485.9841803396,0.0619999999980791
17,29,152459.086803462,0.0390000000006694
17,30,10835.3885752823,0.0339999999996508
18,1,430869.899914619,0.0669999999990978
18,2,5166.62763911938,0.0319999999992433
18,3,34835.8562708558,0.0460000000020955
18,4,2122.17532094447,0.0519999999996799
18,5,38296.468527012,0.0750000000007276
18,6,8511.95136507259,0.218000000000757
18,7,415454.856880374,0.0599999999976717
18,8,43.7991262132988,0.0470000000022992
18,9,36.6919544798433,0.0509999999994761
18,10,61775.0480371973,0.136999999998807
18,11,9463.85166576869,0.0509999999994761
18,12,3050.45688407107,0.0709999999999127
18,13,1440.30405132987,0.0380000000004657
18,14,186600.555913137,0.0790000000015425
18,15,10220.3940283044,0.0469999999986612
18,16,18001.5231244197,0.0829999999987194
18,17,275592.820974615,0.0380000000004657
18,18,21.2055069238044,0.0400000000008731
18,19,35309.4506634558,0.0429999999978463
18,20,40006.0716433104,0.033000000003085
18,21,2646.90699477307,0.0449999999982538
18,22,295910.747985888,0.0560000000004948
18,23,78.3066303441933,0.0360000000000582
18,24,98834.0288019407,0.0469999999986612
18,25,250330.201915545,0.0430000000014843
18,26,45250.4921019417,0.0570000000006985
18,27,229214.356938895,0.0489999999990687
18,28,1036.60524893768,0.055000000000291
18,29,27738.1830362286,0.0509999999994761
18,30,309208.741041176,0.0489999999990687
19,1,263078.265655179,0.0509999999994761
19,2,9446.83373496601,0.0689999999995052
19,3,194245.23392089,0.216000000000349
19,4,12125.3855842398,0.20600000000195
19,5,277704.269768311,0.0580000000009022
19,6,161.187885098976,0.058999999997468
19,7,1048928.54824147,0.0730000000003201
19,8,330425.413953037,0.0669999999990978
19,9,644059.987184679,0.0349999999998545
19,10,215439.945193233,0.0590000000011059
19,11,480639.002125639,0.0459999999984575
19,12,89413.7635987387,0.0540000000000873
19,13,139967.539620079,0.115000000001601
19,14,708.113934665595,0.0639999999984866
19,15,1071002.93848537,0.0680000000029395
19,16,18451.2880091515,0.058999999997468
19,17,531562.27146758,0.0490000000027067
19,18,219202.261904021,0.0709999999999127
19,19,56327.4258546249,0.0869999999995343
19,20,383079.80396793,0.0740000000005239
19,21,557758.40062895,0.0609999999978754
19,22,346987.922494195,0.0380000000004657
19,23,233292.337511691,0.0580000000009022
19,24,110031.934823352,0.0529999999998836
19,25,27438.3287943732,0.151999999998225
19,26,378547.189114661,0.105999999999767
19,27,794.751000428245,0.0529999999998836
19,28,247818.405994989,0.0600000000013097
19,29,483433.954698266,0.04399999999805
19,30,379031.963726117,0.18500000000131
20,1,6072.59674953845,0.0990000000019791
20,2,47307.2504672034,0.0449999999982538
20,3,59072.2210795997,0.0400000000008731
20,4,550368.617434295,0.0360000000000582
20,5,664504.876106288,0.055000000000291
20,6,379895.078185365,0.069999999999709
20,7,11.4235277019593,0.0599999999976717
20,8,34693.9263564187,0.0750000000007276
20,9,191735.644842308,0.0630000000019209
20,10,15694.2315318432,0.0679999999993015
20,11,302785.243031503,0.04399999999805
20,12,223451.420124362,0.0580000000009022
20,13,329890.284069297,0.0839999999989232
20,14,565282.207892865,0.0300000000024738
20,15,29197.373998258,0.0609999999978754
20,16,298346.568303068,0.0740000000005239
20,17,2.26431798504856,0.0489999999990687
20,18,508255.831092682,0.0610000000015134
20,19,734759.03205438,0.0450000000018917
20,20,68943.9768429935,0.047999999998865
20,21,23504.4532806913,0.0400000000008731
20,22,33425.0480046548,0.069999999999709
20,23,19.729563700285,0.0929999999971187
20,24,594389.250108836,0.0470000000022992
20,25,570510.766197124,0.0370000000002619
20,26,24858.6858090197,0.047999999998865
20,27,840465.40523011,0.0420000000012806
20,28,677591.070499458,0.0509999999994761
20,29,1495.70942791772,0.047999999998865
20,30,39141.9531578577,0.0590000000011059
21,1,1711.79425040268,0.0859999999993306
21,2,4949.08293936097,0.0689999999995052
21,3,85176.016688261,0.0420000000012806
21,4,219015.975418039,0.0349999999998545
21,5,221670.66254975,0.0669999999990978
21,6,331296.179773112,0.125
21,7,68229.1103665224,0.069999999999709
21,8,17.3894507271547,0.0819999999985157
21,9,84007.7816191171,0.044000000001688
21,10,7543.95402977495,0.092000000000553
21,11,316532.027455917,0.0720000000001164
21,12,379711.955669344,0.0750000000007276
21,13,157784.355712149,0.0379999999968277
21,14,508439.961514311,0.0700000000033469
21,15,135060.921983583,0.0740000000005239
21,16,263453.010302225,0.189000000002125
21,17,30575.5838858436,0.0419999999976426
21,18,395710.420663597,0.0500000000029104
21,19,210948.550590722,0.0499999999992724
21,20,72389.2361225357,0.0869999999995343
21,21,1289.88180598826,0.0560000000004948
21,22,2155.38854193416,0.0570000000006985
21,23,1806.48504216005,0.0339999999996508
21,24,277929.178268314,0.0649999999986903
21,25,261629.672288059,0.0580000000009022
21,26,22947.006395288,0.0679999999993015
21,27,639593.456383294,0.0509999999994761
21,28,225048.642466418,0.0689999999995052
21,29,85328.5854697831,0.0750000000007276
21,30,15452.5173833741,0.0590000000011059
22,1,1755.03624375388,0.0999999999985448
22,2,53271.8707395821,0.0529999999998836
22,3,124118.5396456,0.0659999999988941
22,4,690300.63741019,0.0580000000009022
22,5,303315.142927918,0.127000000000407
22,6,79417.7545284285,0.117999999998574
22,7,1185.64681236371,0.066000000002532
22,8,200291.320618547,0.0659999999988941
22,9,4450.73737298924,0.0610000000015134
22,10,63936.5900668214,0.462999999999738
22,11,144127.066117595,0.0969999999979336
22,12,29.3217021322111,0.126000000000204
22,13,131902.658164631,0.0689999999995052
22,14,380542.279157684,0.0849999999991269
22,15,17.6180394953999,0.077000000001135
22,16,105950.649633792,0.0790000000015425
22,17,71723.9292457065,0.047999999998865
22,18,678346.990546013,0.0659999999988941
22,19,482684.918308943,0.0580000000009022
22,20,135073.470990238,0.0819999999985157
22,21,110844.620966413,0.0590000000011059
22,22,123871.292140607,0.0560000000004948
22,23,3832.10409711964,0.0339999999996508
22,24,112.435728115025,0.0519999999996799
22,25,390584.129032141,0.055000000000291
22,26,90966.2551895206,0.0900000000001455
22,27,832670.789904514,0.0730000000003201
22,28,284462.17720969,0.0970000000015716
22,29,51281.6767140623,0.0869999999995343
22,30,1418.75515638871,0.0900000000001455
23,1,318468.779753601,0.0349999999998545
23,2,1002.53245328543,0.058999999997468
23,3,89767.5850134426,0.291000000001077
23,4,190.138911027018,0.17699999999968
23,5,761.170662223749,0.0509999999994761
23,6,37.8287362423546,0.0430000000014843
23,7,753447.366583128,0.0900000000001455
23,8,65907.3857648276,0.0339999999996508
23,9,694074.291890777,0.0269999999982247
23,10,123163.497662356,0.0450000000018917
23,11,3087.1543115978,0.0529999999998836
23,12,13991.2659012828,0.0629999999982829
23,13,99544.8555634761,0.128000000000611
23,14,38735.2809008414,0.0760000000009313
23,15,848634.602638776,0.0540000000000873
23,16,39143.7126014581,0.0519999999996799
23,17,264917.81550434,0.0289999999986321
23,18,160.47439770589,0.0540000000000873
23,19,15977.2589342687,0.105999999999767
23,20,304982.66998074,0.08100000000195
23,21,552794.76418775,0.0720000000001164
23,22,186205.576097232,0.0279999999984284
23,23,130599.638614202,0.0280000000020664
23,24,1563.03564286996,0.069999999999709
23,25,4489.44706309039,0.264999999999418
23,26,395897.261011248,0.108000000000175
23,27,7151.84332342061,0.0689999999995052
23,28,17512.120438326,0.110000000000582
23,29,238914.661140171,0.0730000000003201
23,30,296464.167963332,0.162000000000262
24,1,760291.189590338,0.0409999999974389
24,2,8679.67307597355,0.0470000000022992
24,3,89736.3366183061,0.0469999999986612
24,4,105022.638023814,0.047999999998865
24,5,134.687689924878,0.17699999999968
24,6,19645.1677611537,0.0600000000013097
24,7,384033.592882672,0.0679999999993015
24,8,312732.012436557,0.0480000000025029
24,9,618717.335406999,0.0459999999984575
24,10,200936.684504686,0.0900000000001455
24,11,1996.7669812138,0.108000000000175
24,12,47620.7081363063,0.159999999999854
24,13,40200.0577564394,0.0469999999986612
24,14,32825.8763719657,0.0689999999995052
24,15,51722.7162439926,0.0470000000022992
24,16,32074.6045592149,0.0679999999993015
24,17,385170.02817678,0.0469999999986612
24,18,20101.3565517035,0.0790000000015425
24,19,60166.2116395047,0.0609999999978754
24,20,55777.0540361424,0.0690000000031432
24,21,72481.6606572895,0.0739999999968859
24,22,431502.653242878,0.0430000000014843
24,23,223835.468719025,0.0289999999986321
24,24,130.3326062798,0.0680000000029395
24,25,3085.03142042483,0.0759999999972933
24,26,22594.6854960659,0.0680000000029395
24,27,58430.6858482744,0.0509999999994761
24,28,4879.18704619466,0.0979999999981374
24,29,18529.7801038222,0.100000000002183
24,30,246305.176231454,0.058999999997468
25,1,30968.5198327595,0.0529999999998836
25,2,103221.620749627,0.0360000000000582
25,3,140242.864463202,0.0650000000023283
25,4,197941.199000348,0.0649999999986903
25,5,170870.43472631,0.0889999999999418
25,6,47855.0510358768,0.0859999999993306
25,7,21788.1944440085,0.0659999999988941
25,8,32693.8436252729,0.0790000000015425
25,9,6184.46750595904,0.0390000000006694
25,10,646.970565739932,0.0839999999989232
25,11,10428.3803348582,0.283999999999651
25,12,69765.4762166461,0.117000000002008
25,13,418796.635284589,0.0609999999978754
25,14,604488.920651391,0.0849999999991269
25,15,24587.4435938128,0.088000000003376
25,16,235954.553980089,0.047999999998865
25,17,69990.0061980826,0.0400000000008731
25,18,206078.95491938,0.0839999999989232
25,19,526.114126911962,0.11200000000099
25,20,197245.681502897,0.0849999999991269
25,21,83343.9138292859,0.0889999999999418
25,22,40019.1019990163,0.0410000000010768
25,23,127270.344235044,0.036999999996624
25,24,481247.054172918,0.0620000000017171
25,25,180203.966211606,0.0489999999990687
25,26,55889.2365306414,0.0840000000025611
25,27,223011.130413945,0.0629999999982829
25,28,286709.204905176,0.212999999999738
25,29,152135.751320721,0.225000000002183
25,30,25.8104368773633,0.0669999999990978
26,1,176708.973157606,0.0449999999982538
26,2,54473.4686271667,0.0590000000011059
26,3,27700.488034978,0.0639999999984866
26,4,98223.386339491,0.0590000000011059
26,5,83045.3857007806,0.0960000000013679
26,6,2028.06208214618,0.112999999997555
26,7,264615.305390265,0.0889999999999418
26,8,2141.06728482186,0.0760000000009313
26,9,328272.801578594,0.0370000000002619
26,10,15230.7886097162,0.34400000000096
26,11,17344.5974224768,0.0900000000001455
26,12,1553.53624021197,0.135999999998603
26,13,5671.5031567513,0.0499999999992724
26,14,182062.026997842,0.0450000000018917
26,15,80051.0313117669,0.0540000000000873
26,16,5441.70468420499,0.0910000000003492
26,17,97662.284393486,0.0399999999972351
26,18,42980.0977670574,0.0510000000031141
26,19,228102.972170113,0.0620000000017171
26,20,14677.1267934661,0.0509999999994761
26,21,78131.782508121,0.0750000000007276
26,22,207372.718098416,0.0429999999978463
26,23,9430.04015019943,0.0370000000002619
26,24,131294.457852502,0.0740000000005239
26,25,35558.9084811787,0.044000000001688
26,26,11437.581642048,0.108000000000175
26,27,164596.337686478,0.0509999999994761
26,28,17.1009721358701,0.0940000000009604
26,29,3387.3417964125,0.069999999999709
26,30,147718.178331387,0.0559999999968568
27,1,1076243.67217325,0.0480000000025029
27,2,12856.0571410346,0.0419999999976426
27,3,299336.884219762,0.0470000000022992
27,4,82746.4817698166,0.0489999999990687
27,5,130539.693759018,0.0580000000009022
27,6,170779.549595294,0.0529999999998836
27,7,246618.22395096,0.047999999998865
27,8,661966.498130122,0.047999999998865
27,9,345905.821874317,0.0500000000029104
27,10,379648.998608731,0.0579999999972642
27,11,97.0378127902813,0.194999999999709
27,12,106746.957619295,0.0820000000021537
27,13,2406.41244878085,0.0849999999991269
27,14,3410.91151080394,0.0630000000019209
27,15,223602.688043853,0.032999999999447
27,16,235.580844551244,0.0339999999996508
27,17,731405.46999729,0.0409999999974389
27,18,26954.163597393,0.055000000000291
27,19,3830.52562894857,0.0360000000000582
27,20,14654.8440940335,0.0529999999998836
27,21,135607.050880287,0.0370000000002619
27,22,859393.577584016,0.0529999999998836
27,23,269180.559497353,0.0430000000014843
27,24,21.8689416216035,0.0540000000000873
27,25,118305.116863704,0.0370000000002619
27,26,114805.183945888,0.0580000000009022
27,27,21858.9867909594,0.058999999997468
27,28,70.695572752857,0.131000000001222
27,29,35662.9574268791,0.0979999999981374
27,30,137675.911348499,0.0420000000012806
28,1,2809.71887428492,0.092000000000553
28,2,82039.3041217062,0.0519999999996799
28,3,15224.611344228,0.0360000000000582
28,4,10967.090632114,0.044000000001688
28,5,284807.396700553,0.058999999997468
28,6,403291.782583924,0.0620000000017171
28,7,261967.815935091,0.0370000000002619
28,8,38159.9245605164,0.0839999999989232
28,9,3208.88364798551,0.187999999998283
28,10,15704.3029764198,0.055000000000291
28,11,34217.7043040132,0.0490000000027067
28,12,41962.4369645332,0.0599999999976717
28,13,2147.78141757584,0.0670000000027358
28,14,306259.314848673,0.0580000000009022
28,15,9.83635605557871,0.0430000000014843
28,16,676078.366493085,0.069999999999709
28,17,76761.9098248295,0.0659999999988941
28,18,5.35551819330515,0.0230000000010477
28,19,293763.375925772,0.0489999999990687
28,20,53239.0724380893,0.0669999999990978
28,21,6007.95700076753,0.0590000000011059
28,22,3613.67522675809,0.149000000001251
28,23,5111.14073821777,0.0709999999999127
28,24,43517.2744146222,0.0360000000000582
28,25,611.296654011617,0.032999999999447
28,26,8357.52176800869,0.0579999999972642
28,27,476716.752747212,0.0410000000010768
28,28,109221.501536783,0.0519999999996799
28,29,6608.21448617171,0.0780000000013388
28,30,123058.98830405,0.0629999999982829
29,1,46026.4637275956,0.0290000000022701
29,2,130272.624196058,0.19800000000032
29,3,123.507801193528,0.0579999999972642
29,4,164333.54104423,0.08100000000195
29,5,32.2993064277168,0.0570000000006985
29,6,386439.114227361,0.058999999997468
29,7,40147.6244396568,0.0480000000025029
29,8,210368.477396803,0.04399999999805
29,9,15086.7721602992,0.0450000000018917
29,10,4310.85791220941,0.0390000000006694
29,11,267698.083152647,0.0419999999976426
29,12,218790.29719653,0.0610000000015134
29,13,124187.930571987,0.0570000000006985
29,14,354405.958353927,0.0790000000015425
29,15,48710.3891046018,0.047999999998865
29,16,13.7462052126497,0.0380000000004657
29,17,71070.9410641984,0.0360000000000582
29,18,119230.652458956,0.0390000000006694
29,19,8781.02799442063,0.0410000000010768
29,20,23442.8291028905,0.0469999999986612
29,21,6476.54235727708,0.04399999999805
29,22,932.233669827321,0.033000000003085
29,23,10642.0759155907,0.032999999999447
29,24,87263.2132400842,0.0709999999999127
29,25,234343.998699135,0.058999999997468
29,26,10.8216372787331,0.0720000000001164
29,27,346673.482846037,0.0529999999998836
29,28,240553.446937645,0.0610000000015134
29,29,7691.50097190208,0.0679999999993015
29,30,1016.7230843127,0.0679999999993015
30,1,25368.6123099752,0.0869999999995343
30,2,758.495828789418,0.0720000000001164
30,3,6601.82416450278,0.0260000000016589
30,4,29082.470743248,0.0519999999996799
30,5,875.302953654077,0.0580000000009022
30,6,208081.865835954,0.0519999999996799
30,7,421675.698358905,0.0410000000010768
30,8,10654.5025455364,0.069999999999709
30,9,2628.24924527573,0.157999999999447
30,10,38178.4716686932,0.0380000000004657
30,11,16930.1341531356,0.0579999999972642
30,12,98653.491649245,0.0510000000031141
30,13,67571.8381844582,0.058999999997468
30,14,723.379941213706,0.055000000000291
30,15,80.8333716286432,0.0649999999986903
30,16,398024.007997222,0.0690000000031432
30,17,396342.825509716,0.0429999999978463
30,18,780.738171960013,0.0250000000014552
30,19,146818.987504056,0.0419999999976426
30,20,32312.1320060192,0.0529999999998836
30,21,17892.1500595134,0.0490000000027067
30,22,8401.49182847616,0.191999999999098
30,23,191617.241545239,0.0430000000014843
30,24,205010.699239996,0.0469999999986612
30,25,3958.19852047918,0.0509999999994761
30,26,51544.0478040704,0.0489999999990687
30,27,418919.201067892,0.0390000000006694
30,28,8446.50379595127,0.0529999999998836
30,29,76936.6059573124,0.0460000000020955
30,30,326376.386676995,0.0469999999986612
