App - Financius
Scenario - write_transactions
Level - 0sec
Measure - ARPicDistance
Test Statistic - Mann-Whitney U Test
Effect Size Measure - Simple Difference:Kerby
Alpha Level - 0.05


"Before.Version","After.Version","Diff","Direction","P.Value","Simple.Diff","Within.Diffs.Mean","Within.Diffs.SD","Between.Diffs.Mean","Between.Diffs.SD","Runtime"
"0.12.1","0.13.0",FALSE,NA,0,0.288,0.007,0.016,0.019,0.024,3.628
"0.13.0","0.14.0",FALSE,NA,1,-0.115,0.028,0.025,0.023,0.025,3.668
"0.14.0","0.15.0",FALSE,NA,0,0.171,0.018,0.024,0.024,0.025,3.678
