"Before.Version","After.Version","Diff","Direction","P.Value","Simple.Diff","Within.Diffs.Mean","Within.Diffs.SD","Between.Diffs.Mean","Between.Diffs.SD","Runtime"
"v1","v2",FALSE,NA,0,0.338,1741.8,8.477,1745.176,6.55,333.254
"v2","v3",FALSE,NA,0,0.12,1745.825,5.547,1747.631,2.473,333.402
"v3","v4",FALSE,NA,0,0.364,1731.694,10.896,1738.148,8.97,360.24
