"Before.Trace.ID1","Before.Trace.ID2","Difference","Runtime"
1,2,154303.372665221,0.150999999998021
1,3,175196.604022686,0.150999999998021
1,4,146901.829939994,0.150000000008731
1,5,146842.15211225,0.150999999998021
1,6,151851.831511261,0.150999999998021
1,7,145808.07397138,0.150999999998021
1,8,165315.130469998,0.150000000008731
1,9,172948.408066101,0.150000000008731
1,10,168375.912140106,0.150999999998021
1,11,157220.454759807,0.150999999998021
1,12,153437.000677376,0.149999999994179
1,13,147976.53974132,0.151000000012573
1,14,153846.216849327,0.150999999998021
1,15,175185.484249131,0.150999999998021
1,16,164790.672953152,0.149999999994179
1,17,130494.023778985,0.150999999998021
1,18,155309.555714262,0.151000000012573
1,19,135894.929972653,0.149999999994179
1,20,171879.738977006,0.149999999994179
1,21,150487.288178939,0.150999999998021
1,22,159267.750008431,0.150999999998021
1,23,152001.516427794,0.150000000008731
1,24,134387.471015183,0.150000000008731
1,25,151421.250745409,0.150999999998021
1,26,171838.26358872,0.150999999998021
1,27,157162.362289657,0.150000000008731
1,28,155330.559094076,0.150000000008731
1,29,170420.543791534,0.150999999998021
1,30,171323.680441084,0.150999999998021
2,3,166161.153892736,0.149999999994179
2,4,146313.61139369,0.149999999994179
2,5,149697.840165582,0.151000000012573
2,6,150534.427260028,0.150999999998021
2,7,163709.037029271,0.149999999994179
2,8,148297.901264281,0.149999999994179
2,9,160398.439233884,0.150999999998021
2,10,153348.863455054,0.150000000008731
2,11,131251.495609204,0.149999999994179
2,12,144648.011343376,0.150999999998021
2,13,145584.10188081,0.150999999998021
2,14,162674.889974338,0.150000000008731
2,15,170429.910077133,0.150000000008731
2,16,146427.313279937,0.150999999998021
2,17,148707.865558153,0.150999999998021
2,18,173388.093502141,0.149999999994179
2,19,147619.064636086,0.150000000008731
2,20,157345.559906151,0.150999999998021
2,21,138571.426297067,0.150999999998021
2,22,107558.193472891,0.150999999998021
2,23,168070.996905605,0.149999999994179
2,24,170104.494854087,0.150000000008731
2,25,166037.431656487,0.150999999998021
2,26,171946.497989423,0.149999999994179
2,27,167261.623043136,0.149999999994179
2,28,166946.788750208,0.150999999998021
2,29,158396.457394424,0.150999999998021
2,30,157747.547206148,0.150000000008731
3,4,157017.016997867,0.149999999994179
3,5,162178.886820408,0.150999999998021
3,6,162633.805284192,0.150000000008731
3,7,161530.752330112,0.150000000008731
3,8,172178.391920139,0.150999999998021
3,9,169458.653003523,0.150999999998021
3,10,160661.286904205,0.149999999994179
3,11,169956.647588066,0.149999999994179
3,12,147570.805800674,0.151000000012573
3,13,165220.857683716,0.150999999998021
3,14,167188.319591001,0.149999999994179
3,15,136528.834428915,0.149999999994179
3,16,168530.430694299,0.150999999998021
3,17,173583.360722956,0.150000000008731
3,18,168446.708906996,0.149999999994179
3,19,95583.4070757909,0.150999999998021
3,20,165698.305056155,0.149999999994179
3,21,165938.259787652,0.150000000008731
3,22,164300.035540717,0.150999999998021
3,23,163373.35781685,0.150999999998021
3,24,173644.953412486,0.149999999994179
3,25,161607.434586786,0.150999999998021
3,26,171880.693483788,0.151000000012573
3,27,167494.379194974,0.149999999994179
3,28,146768.17426779,0.149999999994179
3,29,143706.634734142,0.150999999998021
3,30,154257.639589758,0.150999999998021
4,5,136523.024855871,0.150000000008731
4,6,126554.841838228,0.149999999994179
4,7,166018.458845213,0.150999999998021
4,8,147577.00320895,0.150999999998021
4,9,152960.120570383,0.150000000008731
4,10,155321.679679952,0.150999999998021
4,11,146879.122466714,0.150999999998021
4,12,143959.776792135,0.150999999998021
4,13,132940.964922023,0.149999999994179
4,14,147320.535637846,0.151000000012573
4,15,158724.026681274,0.150999999998021
4,16,145962.914656519,0.149999999994179
4,17,152920.662990337,0.149999999994179
4,18,154448.424719906,0.150999999998021
4,19,136371.952678687,0.150999999998021
4,20,157852.958690294,0.151000000012573
4,21,129789.278308529,0.150999999998021
4,22,140889.418402368,0.150999999998021
4,23,147916.642145863,0.150999999998021
4,24,157594.660237393,0.150999999998021
4,25,150176.191481767,0.150999999998021
4,26,171750.904912218,0.150000000008731
4,27,153759.095759113,0.150999999998021
4,28,140162.349578598,0.150999999998021
4,29,152469.218030056,0.149999999994179
4,30,157704.227436487,0.149999999994179
5,6,141488.001636638,0.151000000012573
5,7,163051.102993095,0.150999999998021
5,8,144146.730726204,0.149999999994179
5,9,150640.655999977,0.150999999998021
5,10,136889.831324153,0.150999999998021
5,11,144321.338513083,0.150000000008731
5,12,136046.587252077,0.149999999994179
5,13,130297.336966623,0.150999999998021
5,14,159931.499441659,0.150000000008731
5,15,161563.256790614,0.150000000008731
5,16,146687.300901519,0.150999999998021
5,17,104189.594565828,0.150999999998021
5,18,151091.500974233,0.149999999994179
5,19,135063.969290937,0.149999999994179
5,20,156480.520204724,0.151000000012573
5,21,150488.403750521,0.150999999998021
5,22,129457.071962491,0.149999999994179
5,23,132182.124881987,0.150999999998021
5,24,156499.383820925,0.150999999998021
5,25,150835.412847181,0.151000000012573
5,26,167447.098259391,0.150999999998021
5,27,141091.305595808,0.150999999998021
5,28,146840.709642301,0.149999999994179
5,29,148124.698401566,0.150999999998021
5,30,150277.930767301,0.150999999998021
6,7,165972.538692578,0.150000000008731
6,8,143801.566387859,0.150999999998021
6,9,153259.644750296,0.150999999998021
6,10,156618.869202881,0.150999999998021
6,11,150702.113460064,0.150000000008731
6,12,152570.999309906,0.150999999998021
6,13,130783.698510699,0.150999999998021
6,14,151930.39326,0.149999999994179
6,15,169025.58332206,0.149999999994179
6,16,139641.406517162,0.151000000012573
6,17,155422.052732642,0.149999999994179
6,18,146129.171101246,0.150999999998021
6,19,138688.157694749,0.150999999998021
6,20,165637.673804705,0.151000000012573
6,21,134401.879503369,0.149999999994179
6,22,147542.145114752,0.149999999994179
6,23,146485.053147272,0.150999999998021
6,24,138939.21170088,0.150999999998021
6,25,154775.385385738,0.150000000008731
6,26,167799.671518072,0.149999999994179
6,27,152445.567054894,0.150999999998021
6,28,140711.56552404,0.150999999998021
6,29,146737.537276489,0.150000000008731
6,30,158807.287655765,0.150000000008731
7,8,172953.905273004,0.150999999998021
7,9,173104.085194255,0.150999999998021
7,10,172517.758072964,0.149999999994179
7,11,170069.894821152,0.150000000008731
7,12,154542.274955122,0.150999999998021
7,13,163816.434040468,0.149999999994179
7,14,172712.894982914,0.149999999994179
7,15,167900.589582321,0.150999999998021
7,16,173277.293610271,0.150999999998021
7,17,157867.48609412,0.150000000008731
7,18,176258.524762416,0.149999999994179
7,19,149758.682602937,0.150999999998021
7,20,172035.41610516,0.150999999998021
7,21,173149.91822926,0.150000000008731
7,22,171761.96831428,0.150000000008731
7,23,166798.93767947,0.150999999998021
7,24,157626.793198831,0.150999999998021
7,25,153866.174684059,0.150000000008731
7,26,171993.940716873,0.150000000008731
7,27,173252.259210114,0.150999999998021
7,28,157837.06325303,0.150999999998021
7,29,161505.896709911,0.150999999998021
7,30,170603.394610316,0.149999999994179
8,9,124846.78077119,0.151000000012573
8,10,152132.532625731,0.150999999998021
8,11,147608.115836229,0.149999999994179
8,12,151939.116147337,0.149999999994179
8,13,133197.461455766,0.150999999998021
8,14,158610.274598575,0.151000000012573
8,15,172886.072155377,0.149999999994179
8,16,143658.264137443,0.149999999994179
8,17,168306.299255858,0.150999999998021
8,18,168234.558116748,0.150999999998021
8,19,158975.825637346,0.150000000008731
8,20,141385.345247086,0.150000000008731
8,21,159927.056908906,0.150999999998021
8,22,146890.061544571,0.150999999998021
8,23,161416.481815581,0.150999999998021
8,24,172922.508236231,0.150000000008731
8,25,157137.30866629,0.150999999998021
8,26,163114.634462663,0.150999999998021
8,27,162854.324052307,0.150999999998021
8,28,170447.019219835,0.149999999994179
8,29,156573.874663357,0.151000000012573
8,30,155069.546253549,0.150999999998021
9,10,152779.4317785,0.149999999994179
9,11,152198.906209585,0.149999999994179
9,12,158043.204021589,0.150999999998021
9,13,137736.784679817,0.151000000012573
9,14,145195.924490631,0.149999999994179
9,15,171807.398832404,0.149999999994179
9,16,137766.009056869,0.150999999998021
9,17,167959.553258413,0.150999999998021
9,18,170465.834526936,0.150000000008731
9,19,163545.175429425,0.150999999998021
9,20,161722.792338236,0.150999999998021
9,21,156856.411132933,0.149999999994179
9,22,151120.898943092,0.150000000008731
9,23,163057.762827346,0.150999999998021
9,24,172811.14564764,0.150999999998021
9,25,165945.063254138,0.149999999994179
9,26,153685.448787853,0.149999999994179
9,27,145484.945422724,0.151000000012573
9,28,169274.844024811,0.149999999994179
9,29,160736.074669974,0.149999999994179
9,30,152999.654844745,0.150999999998021
10,11,148406.408955254,0.150999999998021
10,12,149341.444975936,0.150000000008731
10,13,150777.262360924,0.150000000008731
10,14,163805.828792704,0.150999999998021
10,15,170571.414815592,0.150999999998021
10,16,151210.000362033,0.150000000008731
10,17,159747.010471799,0.150000000008731
10,18,138541.239467585,0.150999999998021
10,19,157741.360309974,0.150999999998021
10,20,153551.445103196,0.149999999994179
10,21,172381.723651944,0.149999999994179
10,22,133419.173325628,0.151000000012573
10,23,164963.452378536,0.150999999998021
10,24,172486.361036192,0.150999999998021
10,25,162392.578560428,0.149999999994179
10,26,170446.202320117,0.149999999994179
10,27,144636.433249094,0.150000000008731
10,28,161623.474548709,0.150999999998021
10,29,161211.100637686,0.150999999998021
10,30,146687.402715211,0.149999999994179
11,12,154979.008732326,0.150999999998021
11,13,139713.690791099,0.151000000012573
11,14,154252.281814204,0.149999999994179
11,15,170002.061703525,0.149999999994179
11,16,138067.220244211,0.150999999998021
11,17,148379.552533856,0.150999999998021
11,18,168669.39707477,0.150000000008731
11,19,147014.352966148,0.150000000008731
11,20,145596.260652772,0.150999999998021
11,21,146095.13630499,0.150999999998021
11,22,144330.469582127,0.150000000008731
11,23,169939.552691314,0.150999999998021
11,24,170038.49778438,0.150999999998021
11,25,162205.734815902,0.149999999994179
11,26,169339.814688321,0.149999999994179
11,27,155728.629579411,0.150999999998021
11,28,169982.917472616,0.151000000012573
11,29,158467.997690546,0.149999999994179
11,30,159200.369705894,0.149999999994179
12,13,150131.801966766,0.150999999998021
12,14,166627.186167557,0.150000000008731
12,15,156114.118941104,0.150000000008731
12,16,149863.791143786,0.150999999998021
12,17,163128.946649888,0.150999999998021
12,18,172204.20448797,0.149999999994179
12,19,136755.777023146,0.150000000008731
12,20,160752.820331456,0.150999999998021
12,21,159443.820388872,0.150999999998021
12,22,147262.568388524,0.149999999994179
12,23,150843.430977871,0.150999999998021
12,24,162887.169016676,0.151000000012573
12,25,141492.675090922,0.150999999998021
12,26,170444.952309992,0.149999999994179
12,27,158825.842773224,0.149999999994179
12,28,137523.606552905,0.150999999998021
12,29,138008.865270544,0.151000000012573
12,30,153476.354336864,0.149999999994179
13,14,145207.443774706,0.149999999994179
13,15,167756.173649681,0.150999999998021
13,16,136864.983343293,0.150999999998021
13,17,149380.201127323,0.150000000008731
13,18,151886.354443903,0.150000000008731
13,19,139385.829860206,0.150999999998021
13,20,155973.781577886,0.150999999998021
13,21,142341.129049047,0.150000000008731
13,22,134140.747592645,0.150999999998021
13,23,137352.840900204,0.150999999998021
13,24,151302.8682975,0.149999999994179
13,25,161106.34229314,0.149999999994179
13,26,162919.492971543,0.150999999998021
13,27,143470.731238291,0.151000000012573
13,28,154874.70220927,0.149999999994179
13,29,159307.970082585,0.150999999998021
13,30,152887.384226951,0.150999999998021
14,15,169709.644100888,0.150000000008731
14,16,138942.546738651,0.150999999998021
14,17,149426.002029716,0.150999999998021
14,18,151042.010695391,0.149999999994179
14,19,151757.193675496,0.149999999994179
14,20,171928.274147615,0.151000000012573
14,21,149674.833956762,0.150999999998021
14,22,159274.1661187,0.149999999994179
14,23,173173.199638801,0.150999999998021
14,24,161414.365170397,0.150999999998021
14,25,162599.435983137,0.150000000008731
14,26,163701.695266739,0.150999999998021
14,27,145637.605221116,0.150999999998021
14,28,165789.053510015,0.150000000008731
14,29,166954.742697843,0.150999999998021
14,30,156715.064165491,0.150999999998021
15,16,169664.434616767,0.149999999994179
15,17,173628.774838415,0.149999999994179
15,18,166993.33695536,0.150999999998021
15,19,159130.159138972,0.150000000008731
15,20,164859.927872075,0.149999999994179
15,21,173869.835279076,0.150999999998021
15,22,170387.934572134,0.150999999998021
15,23,167448.911781222,0.150000000008731
15,24,175903.309167744,0.150999999998021
15,25,172729.896245458,0.150999999998021
15,26,171926.107599246,0.149999999994179
15,27,170287.360694667,0.149999999994179
15,28,158547.472920665,0.151000000012573
15,29,155382.589405169,0.149999999994179
15,30,171200.880566004,0.149999999994179
16,17,161096.776653354,0.150999999998021
16,18,159589.346625566,0.150000000008731
16,19,154629.780921452,0.150000000008731
16,20,153102.994375051,0.150999999998021
16,21,150027.212104938,0.150999999998021
16,22,139480.329781395,0.149999999994179
16,23,165622.394797108,0.151000000012573
16,24,156969.489932167,0.150999999998021
16,25,160028.557470426,0.149999999994179
16,26,148202.36416475,0.150999999998021
16,27,145903.02104157,0.150999999998021
16,28,165578.227006356,0.150000000008731
16,29,160987.035288021,0.150999999998021
16,30,151320.228869177,0.149999999994179
17,18,154096.242701634,0.149999999994179
17,19,144515.73092358,0.151000000012573
17,20,171962.002012413,0.149999999994179
17,21,155006.882519904,0.149999999994179
17,22,150896.771377635,0.150999999998021
17,23,167244.430577408,0.150999999998021
17,24,155631.079823964,0.150000000008731
17,25,159762.2736291,0.150999999998021
17,26,171920.526624126,0.150999999998021
17,27,142439.807578615,0.150000000008731
17,28,169910.006374764,0.150999999998021
17,29,170502.80682694,0.149999999994179
17,30,158253.560328639,0.150999999998021
18,19,156277.556089885,0.150999999998021
18,20,171860.925869494,0.150000000008731
18,21,148775.677402669,0.150999999998021
18,22,142268.205470185,0.150999999998021
18,23,150291.969422177,0.149999999994179
18,24,153806.418838746,0.151000000012573
18,25,163657.97364497,0.150999999998021
18,26,161781.67820725,0.149999999994179
18,27,134167.232187256,0.150999999998021
18,28,149206.078511699,0.150999999998021
18,29,170401.730684022,0.150000000008731
18,30,158408.891163533,0.150999999998021
19,20,168030.7646205,0.150999999998021
19,21,136002.057800295,0.149999999994179
19,22,152063.347638935,0.151000000012573
19,23,142388.315628719,0.150999999998021
19,24,142516.835379689,0.150999999998021
19,25,139320.40539947,0.149999999994179
19,26,171922.509483662,0.150999999998021
19,27,163900.92693989,0.150000000008731
19,28,136212.436723359,0.150000000008731
19,29,147156.176354734,0.150999999998021
19,30,159595.784498948,0.149999999994179
20,21,171899.381684139,0.150000000008731
20,22,149804.044264958,0.150999999998021
20,23,171905.073975321,0.149999999994179
20,24,172004.019068387,0.149999999994179
20,25,166527.441203917,0.150999999998021
20,26,101806.384269681,0.150000000008731
20,27,166946.221024244,0.150999999998021
20,28,171948.438756624,0.149999999994179
20,29,166667.844241209,0.149999999994179
20,30,170241.300317858,0.151000000012573
21,22,157366.214282372,0.149999999994179
21,23,149234.761511143,0.149999999994179
21,24,153667.183269296,0.150999999998021
21,25,169567.868776647,0.150000000008731
21,26,170642.311217616,0.150999999998021
21,27,161769.088185918,0.150999999998021
21,28,155940.202050514,0.149999999994179
21,29,157306.577013516,0.150999999998021
21,30,165268.304374134,0.151000000012573
22,23,152197.721543894,0.149999999994179
22,24,166844.170660961,0.150999999998021
22,25,164474.942067546,0.150000000008731
22,26,169014.233268244,0.150000000008731
22,27,136200.853962345,0.150999999998021
22,28,161301.064934188,0.149999999994179
22,29,158833.348583193,0.150999999998021
22,30,153114.045395198,0.150000000008731
23,24,147186.967262925,0.150000000008731
23,25,147440.62617752,0.150999999998021
23,26,168128.21048972,0.149999999994179
23,27,154585.945596029,0.150000000008731
23,28,142737.306957683,0.150999999998021
23,29,145377.216928404,0.149999999994179
23,30,162591.455661342,0.150999999998021
24,25,159579.589194866,0.150999999998021
24,26,171962.543680101,0.150000000008731
24,27,167093.922292145,0.150999999998021
24,28,142047.614042767,0.149999999994179
24,29,157726.227412361,0.149999999994179
24,30,164351.991819743,0.151000000012573
25,26,166684.978658949,0.149999999994179
25,27,164577.918436953,0.150999999998021
25,28,147808.282016824,0.150999999998021
25,29,154080.127546256,0.150000000008731
25,30,145803.76763061,0.150999999998021
26,27,155423.630143056,0.149999999994179
26,28,171906.963368337,0.150999999998021
26,29,165198.463370559,0.150000000008731
26,30,167625.864737259,0.150000000008731
27,28,171625.451340874,0.150999999998021
27,29,165483.978899865,0.149999999994179
27,30,161815.821793899,0.151000000012573
28,29,138867.643120468,0.149999999994179
28,30,155972.212313914,0.149999999994179
29,30,148306.001217842,0.150999999998021


"After.Trace.ID","Before.Trace.ID","Difference","Runtime"
1,1,154948.261133086,0.149999999994179
1,2,149938.665671966,0.151000000012573
1,3,161818.931716787,0.150999999998021
1,4,130990.471769073,0.150999999998021
1,5,141748.213254222,0.150999999998021
1,6,79356.8469356359,0.149999999994179
1,7,164507.938171418,0.150999999998021
1,8,152525.879292779,0.151000000012573
1,9,163384.99992087,0.150999999998021
1,10,165965.07748053,0.149999999994179
1,11,156008.727333848,0.149999999994179
1,12,150063.807365301,0.150999999998021
1,13,135949.480991622,0.151000000012573
1,14,159073.784452428,0.149999999994179
1,15,160700.236723036,0.149999999994179
1,16,145988.22956903,0.150999999998021
1,17,160258.952461638,0.150999999998021
1,18,153952.396841801,0.150000000008731
1,19,133383.939417782,0.150000000008731
1,20,170935.887031402,0.150999999998021
1,21,129008.016182057,0.150999999998021
1,22,149782.685286478,0.150000000008731
1,23,142919.032135892,0.150000000008731
1,24,138754.161613753,0.150999999998021
1,25,164892.699780456,0.150999999998021
1,26,171861.855137345,0.149999999994179
1,27,166062.820676862,0.150999999998021
1,28,144001.153680564,0.151000000012573
1,29,139915.843875455,0.150999999998021
1,30,161108.463362314,0.149999999994179
2,1,168035.259547264,0.150999999998021
2,2,155229.990462819,0.150999999998021
2,3,169626.460435906,0.150000000008731
2,4,153767.103573142,0.149999999994179
2,5,156890.341137082,0.150999999998021
2,6,145196.465058747,0.150999999998021
2,7,169739.707668992,0.150000000008731
2,8,137343.103415714,0.150000000008731
2,9,153795.959364335,0.150999999998021
2,10,153715.769343698,0.150999999998021
2,11,137457.856934619,0.149999999994179
2,12,156201.301949678,0.151000000012573
2,13,137614.262105814,0.150999999998021
2,14,158776.912467649,0.150999999998021
2,15,169671.874551365,0.149999999994179
2,16,143365.788513007,0.150999999998021
2,17,157469.253028274,0.151000000012573
2,18,165411.974314292,0.150999999998021
2,19,156787.841381506,0.149999999994179
2,20,142314.899828663,0.149999999994179
2,21,166135.909603074,0.150999999998021
2,22,156244.291092487,0.150999999998021
2,23,169609.365539154,0.150000000008731
2,24,168551.418248992,0.150999999998021
2,25,156633.630676756,0.150999999998021
2,26,161375.696935735,0.150000000008731
2,27,160578.200012641,0.150000000008731
2,28,167263.824704078,0.150999999998021
2,29,157223.980115257,0.150999999998021
2,30,151803.326085678,0.150999999998021
3,1,161509.532980498,0.150999999998021
3,2,155339.059593831,0.150000000008731
3,3,160440.872012857,0.150999999998021
3,4,147182.757310935,0.150999999998021
3,5,134667.17675771,0.150999999998021
3,6,146187.432065173,0.149999999994179
3,7,173090.025394779,0.151000000012573
3,8,157073.564703039,0.150999999998021
3,9,168430.6170112,0.149999999994179
3,10,145760.365661674,0.149999999994179
3,11,163615.551656613,0.150999999998021
3,12,136490.400819877,0.150000000008731
3,13,148532.8598841,0.149999999994179
3,14,162991.678071725,0.150999999998021
3,15,171770.833938624,0.149999999994179
3,16,151852.02875798,0.150000000008731
3,17,162787.75060447,0.150999999998021
3,18,145678.448681114,0.150999999998021
3,19,151947.058095208,0.149999999994179
3,20,169131.682475776,0.150999999998021
3,21,148678.20151357,0.151000000012573
3,22,137147.817084725,0.149999999994179
3,23,142562.432979325,0.149999999994179
3,24,157387.820458404,0.150999999998021
3,25,168238.646578609,0.150000000008731
3,26,162221.653319227,0.150000000008731
3,27,143030.556835657,0.150999999998021
3,28,144646.178425721,0.149999999994179
3,29,151788.395056033,0.149999999994179
3,30,162976.703213877,0.151000000012573
4,1,164559.58453064,0.150999999998021
4,2,159601.876548144,0.149999999994179
4,3,169717.804489863,0.150999999998021
4,4,155525.925657611,0.150999999998021
4,5,148919.033364657,0.149999999994179
4,6,157489.665935721,0.150000000008731
4,7,169831.051722949,0.150999999998021
4,8,147438.220649287,0.149999999994179
4,9,153942.790579027,0.149999999994179
4,10,147680.295363911,0.150999999998021
4,11,144767.221980762,0.151000000012573
4,12,163728.800056904,0.149999999994179
4,13,145652.402387345,0.150999999998021
4,14,169723.909765404,0.150999999998021
4,15,169763.218605321,0.150000000008731
4,16,151788.242640055,0.150999999998021
4,17,160362.976669351,0.150999999998021
4,18,155958.133025405,0.149999999994179
4,19,162357.968618983,0.149999999994179
4,20,145381.418598035,0.151000000012573
4,21,164806.409808332,0.149999999994179
4,22,142136.821203357,0.149999999994179
4,23,162939.966947211,0.150999999998021
4,24,169799.654686176,0.150999999998021
4,25,169786.825437506,0.150000000008731
4,26,157690.501215176,0.150999999998021
4,27,151676.495615516,0.150999999998021
4,28,169614.989845192,0.149999999994179
4,29,164710.997515348,0.151000000012573
4,30,166863.65766451,0.150999999998021
5,1,172897.869374271,0.149999999994179
5,2,151283.229109692,0.150999999998021
5,3,166789.174926554,0.150000000008731
5,4,146941.684181216,0.150000000008731
5,5,153025.75705807,0.150999999998021
5,6,163163.368475804,0.150999999998021
5,7,173053.546502425,0.149999999994179
5,8,165343.165450426,0.151000000012573
5,9,172984.15096121,0.149999999994179
5,10,165521.382126777,0.149999999994179
5,11,158262.260492477,0.150999999998021
5,12,152849.89593536,0.150999999998021
5,13,154202.762467022,0.150000000008731
5,14,170127.130135551,0.150999999998021
5,15,157703.521363513,0.149999999994179
5,16,166411.792035342,0.149999999994179
5,17,168559.714254401,0.151000000012573
5,18,172879.05626676,0.149999999994179
5,19,161891.201527616,0.150999999998021
5,20,156901.599636331,0.150999999998021
5,21,165855.895335063,0.150000000008731
5,22,158814.745033966,0.150000000008731
5,23,172311.916916877,0.150999999998021
5,24,173022.149465653,0.149999999994179
5,25,173009.320216983,0.150000000008731
5,26,172030.52441049,0.150999999998021
5,27,168001.13734678,0.149999999994179
5,28,172891.17959963,0.150999999998021
5,29,160019.449232354,0.150999999998021
5,30,168801.070255383,0.150000000008731
6,1,153860.141416426,0.150999999998021
6,2,172536.705709497,0.150999999998021
6,3,165476.11130961,0.149999999994179
6,4,145902.279376273,0.151000000012573
6,5,149675.002676569,0.150999999998021
6,6,135508.665289037,0.149999999994179
6,7,174894.740764587,0.149999999994179
6,8,169104.626727117,0.150999999998021
6,9,168657.431325002,0.150000000008731
6,10,158436.18595125,0.150000000008731
6,11,169982.79070731,0.150999999998021
6,12,160858.562865038,0.149999999994179
6,13,154061.841656477,0.151000000012573
6,14,163295.057930496,0.150999999998021
6,15,171947.709221004,0.149999999994179
6,16,159760.952353069,0.150999999998021
6,17,156130.840535174,0.150999999998021
6,18,136198.781002436,0.150000000008731
6,19,151523.349372452,0.150000000008731
6,20,171948.311991318,0.150999999998021
6,21,158078.37987528,0.149999999994179
6,22,154000.0718897,0.151000000012573
6,23,151164.436231125,0.149999999994179
6,24,144333.902021922,0.149999999994179
6,25,162934.521200269,0.150999999998021
6,26,168362.613769089,0.150000000008731
6,27,148310.847636427,0.150000000008731
6,28,142658.549960113,0.150999999998021
6,29,155722.363262014,0.149999999994179
6,30,158650.308690353,0.149999999994179
7,1,169387.055853741,0.151000000012573
7,2,148836.651067678,0.149999999994179
7,3,135226.984018487,0.149999999994179
7,4,148315.981749018,0.150999999998021
7,5,138992.385986341,0.150000000008731
7,6,158043.304545758,0.150000000008731
7,7,166760.470408912,0.150999999998021
7,8,157340.279889417,0.150999999998021
7,9,163651.094398715,0.149999999994179
7,10,140902.331171445,0.151000000012573
7,11,158147.812130291,0.150999999998021
7,12,121516.173566053,0.149999999994179
7,13,159289.211020469,0.150999999998021
7,14,168066.695326709,0.150999999998021
7,15,155045.664510868,0.151000000012573
7,16,158665.154051467,0.149999999994179
7,17,167507.181132981,0.150999999998021
7,18,162337.576038794,0.150999999998021
7,19,148448.95937304,0.150999999998021
7,20,163377.169880446,0.150000000008731
7,21,162411.194801894,0.150999999998021
7,22,145135.963259017,0.149999999994179
7,23,151726.948070812,0.149999999994179
7,24,165907.590361206,0.151000000012573
7,25,156064.476527427,0.149999999994179
7,26,168368.896519091,0.149999999994179
7,27,165919.523265267,0.150999999998021
7,28,139686.781352933,0.150000000008731
7,29,133809.885491381,0.150000000008731
7,30,144815.651310141,0.150999999998021
8,1,169823.589268435,0.149999999994179
8,2,166046.350463231,0.149999999994179
8,3,170248.908890038,0.151000000012573
8,4,161373.160907576,0.149999999994179
8,5,155737.341790238,0.149999999994179
8,6,167607.889253497,0.150999999998021
8,7,171426.482845368,0.150000000008731
8,8,171226.437715985,0.150999999998021
8,9,160438.583526495,0.149999999994179
8,10,166044.635506986,0.149999999994179
8,11,151004.982242166,0.150999999998021
8,12,167684.182832277,0.150000000008731
8,13,156657.479356355,0.150999999998021
8,14,166131.431824566,0.150999999998021
8,15,171358.649727741,0.150000000008731
8,16,159239.426087967,0.150000000008731
8,17,166736.436812034,0.150999999998021
8,18,162293.552739768,0.149999999994179
8,19,166809.999783061,0.150999999998021
8,20,162359.433618529,0.150999999998021
8,21,156403.577015517,0.150000000008731
8,22,145657.6942363,0.150999999998021
8,23,158379.068207505,0.150999999998021
8,24,167062.43384185,0.150000000008731
8,25,171125.864954007,0.150999999998021
8,26,149715.448820702,0.149999999994179
8,27,153162.092610025,0.149999999994179
8,28,171339.505496832,0.150999999998021
8,29,166097.045966515,0.150000000008731
8,30,165211.279429451,0.150000000008731
9,1,166216.784405139,0.150999999998021
9,2,153165.627206454,0.149999999994179
9,3,168111.132168651,0.151000000012573
9,4,148893.974822924,0.150999999998021
9,5,135841.62843521,0.149999999994179
9,6,150381.341805387,0.150999999998021
9,7,169887.924283744,0.150000000008731
9,8,135654.991141958,0.150000000008731
9,9,149539.997114613,0.150999999998021
9,10,135020.278973478,0.149999999994179
9,11,145859.58423654,0.149999999994179
9,12,146017.031563247,0.151000000012573
9,13,134965.371732252,0.150999999998021
9,14,167718.294386285,0.149999999994179
9,15,169667.909828364,0.150999999998021
9,16,152317.304545659,0.150000000008731
9,17,160509.020291981,0.150999999998021
9,18,148050.330824863,0.150999999998021
9,19,159512.391223307,0.149999999994179
9,20,150497.787276276,0.150999999998021
9,21,162316.579508925,0.151000000012573
9,22,125926.547263476,0.149999999994179
9,23,152225.593635117,0.150999999998021
9,24,169856.527246972,0.150000000008731
9,25,165281.113435924,0.150000000008731
9,26,168195.721915254,0.150999999998021
9,27,149378.588149763,0.149999999994179
9,28,158246.578644992,0.149999999994179
9,29,151468.216761951,0.150999999998021
9,30,156523.844863968,0.150000000008731
10,1,171719.153267668,0.150999999998021
10,2,166377.244828211,0.149999999994179
10,3,149313.53079005,0.151000000012573
10,4,161407.605660733,0.149999999994179
10,5,162791.844115741,0.149999999994179
10,6,171381.338883394,0.150999999998021
10,7,170707.002525113,0.150000000008731
10,8,172203.183436717,0.150999999998021
10,9,173041.029673695,0.149999999994179
10,10,169717.887094023,0.149999999994179
10,11,167205.522835291,0.150999999998021
10,12,149967.89329294,0.150000000008731
10,13,167247.033145052,0.150999999998021
10,14,164703.576292719,0.149999999994179
10,15,172166.206827154,0.149999999994179
10,16,159926.796996661,0.151000000012573
10,17,171813.412199766,0.149999999994179
10,18,172935.934979245,0.150999999998021
10,19,162316.755350023,0.150000000008731
10,20,172029.691080466,0.150999999998021
10,21,168233.253016625,0.149999999994179
10,22,163887.486989902,0.150999999998021
10,23,164535.390713408,0.150999999998021
10,24,173079.028178138,0.150000000008731
10,25,165104.71027304,0.150999999998021
10,26,171296.329666708,0.149999999994179
10,27,165499.857633103,0.150999999998021
10,28,167031.044580301,0.150000000008731
10,29,156265.985654995,0.149999999994179
10,30,163886.432547056,0.150999999998021
11,1,169209.245726184,0.150000000008731
11,2,173763.166282814,0.150999999998021
11,3,173237.64981168,0.149999999994179
11,4,166758.588914677,0.150999999998021
11,5,162987.341443581,0.150000000008731
11,6,158907.519281317,0.150000000008731
11,7,177065.915640957,0.149999999994179
11,8,172821.876738296,0.149999999994179
11,9,156943.366058737,0.150999999998021
11,10,170430.805469351,0.150000000008731
11,11,169937.866286444,0.150999999998021
11,12,173418.308498204,0.149999999994179
11,13,159716.728994714,0.149999999994179
11,14,156310.740465983,0.151000000012573
11,15,169924.306961108,0.149999999994179
11,16,154365.570895642,0.150999999998021
11,17,170418.663770306,0.150000000008731
11,18,148717.495439231,0.150000000008731
11,19,168288.549767749,0.149999999994179
11,20,171903.387570452,0.150999999998021
11,21,164452.249670842,0.150999999998021
11,22,162830.826646246,0.151000000012573
11,23,153952.663963437,0.149999999994179
11,24,164422.412015443,0.149999999994179
11,25,169948.017371501,0.150999999998021
11,26,151618.929728637,0.150000000008731
11,27,155250.793327801,0.150000000008731
11,28,161446.502184173,0.150999999998021
11,29,170444.192384979,0.150999999998021
11,30,173369.956618278,0.150000000008731
12,1,174253.141995357,0.150999999998021
12,2,163834.789756647,0.150999999998021
12,3,138736.530574488,0.150999999998021
12,4,156086.866452277,0.149999999994179
12,5,161350.656146357,0.150999999998021
12,6,156806.186704561,0.151000000012573
12,7,161691.335264013,0.150999999998021
12,8,166614.002818309,0.149999999994179
12,9,165613.449578602,0.150999999998021
12,10,172081.699401842,0.150999999998021
12,11,169181.675300519,0.150000000008731
12,12,154657.477419058,0.149999999994179
12,13,158542.838157874,0.150999999998021
12,14,163341.829261246,0.150999999998021
12,15,168451.583903194,0.150000000008731
12,16,159747.174625533,0.150999999998021
12,17,173682.864607529,0.150999999998021
12,18,165956.778664966,0.150999999998021
12,19,151823.101022651,0.149999999994179
12,20,172021.672756647,0.151000000012573
12,21,156947.495608006,0.150999999998021
12,22,156808.697168791,0.149999999994179
12,23,154932.547550689,0.149999999994179
12,24,168517.755205815,0.150999999998021
12,25,155010.525634926,0.150999999998021
12,26,171980.197368361,0.151000000012573
12,27,168288.7008164,0.149999999994179
12,28,148394.725778622,0.149999999994179
12,29,148617.741102589,0.150999999998021
12,30,153717.131831022,0.150999999998021
13,1,164105.10696203,0.150000000008731
13,2,143859.121472467,0.149999999994179
13,3,162723.303092974,0.150999999998021
13,4,150871.825355131,0.150999999998021
13,5,155021.92186428,0.150999999998021
13,6,144720.299842258,0.150000000008731
13,7,172560.1318628,0.149999999994179
13,8,156295.984301275,0.150999999998021
13,9,156847.132081399,0.150999999998021
13,10,146147.456493966,0.150999999998021
13,11,162511.779504111,0.150999999998021
13,12,143661.146546898,0.150000000008731
13,13,145835.837037854,0.149999999994179
13,14,161731.598896075,0.150999999998021
13,15,170078.424083207,0.150999999998021
13,16,150802.272580075,0.150000000008731
13,17,133594.877103683,0.150000000008731
13,18,139975.336116346,0.150999999998021
13,19,162310.972547585,0.150999999998021
13,20,169091.19097022,0.150999999998021
13,21,152142.7247802,0.150000000008731
13,22,130294.842910129,0.150000000008731
13,23,155185.575580602,0.150999999998021
13,24,164346.176957511,0.150999999998021
13,25,164547.045965831,0.149999999994179
13,26,169747.379283022,0.150000000008731
13,27,152407.58766018,0.150999999998021
13,28,158972.8676251,0.150999999998021
13,29,157471.145777639,0.149999999994179
13,30,156969.896675574,0.149999999994179
14,1,168606.479593003,0.151000000012573
14,2,164456.576720328,0.150999999998021
14,3,159660.336471915,0.150999999998021
14,4,168519.120916502,0.149999999994179
14,5,156220.362567752,0.150999999998021
14,6,161929.552989721,0.150999999998021
14,7,168762.156721157,0.151000000012573
14,8,152540.372383868,0.149999999994179
14,9,156582.279251056,0.149999999994179
14,10,158782.630250575,0.150999999998021
14,11,160765.691072405,0.150999999998021
14,12,153158.624453297,0.151000000012573
14,13,161777.863865914,0.149999999994179
14,14,168655.014763612,0.149999999994179
14,15,168694.32360353,0.150999999998021
14,16,163243.940809658,0.150999999998021
14,17,168688.74262841,0.150999999998021
14,18,168587.666485492,0.151000000012573
14,19,168690.725487946,0.149999999994179
14,20,162241.726269261,0.150999999998021
14,21,168626.122300137,0.149999999994179
14,22,163571.086742393,0.149999999994179
14,23,157567.860385682,0.150000000008731
14,24,168580.337698428,0.150999999998021
14,25,159480.700673027,0.150999999998021
14,26,168613.698898196,0.149999999994179
14,27,168718.445177929,0.149999999994179
14,28,160467.092106636,0.150999999998021
14,29,138915.324969537,0.151000000012573
14,30,147433.48630385,0.150999999998021
15,1,171389.285728478,0.149999999994179
15,2,153175.354378435,0.149999999994179
15,3,166207.078211387,0.150999999998021
15,4,167331.18516276,0.151000000012573
15,5,163755.751907084,0.149999999994179
15,6,171343.150732149,0.149999999994179
15,7,171544.962856632,0.150999999998021
15,8,161280.407390886,0.150000000008731
15,9,169363.082935762,0.150000000008731
15,10,155403.977843096,0.150999999998021
15,11,162759.333019079,0.150999999998021
15,12,153069.550487383,0.149999999994179
15,13,171408.546405648,0.150000000008731
15,14,171437.820899087,0.150999999998021
15,15,168174.903030764,0.150999999998021
15,16,170764.732649211,0.149999999994179
15,17,171471.548763885,0.150999999998021
15,18,171370.472620967,0.151000000012573
15,19,169010.372089218,0.149999999994179
15,20,160794.86235351,0.149999999994179
15,21,171408.928435611,0.150999999998021
15,22,164386.756736004,0.150999999998021
15,23,171414.620726794,0.150000000008731
15,24,171513.56581986,0.150000000008731
15,25,171500.73657119,0.150999999998021
15,26,171396.50503367,0.150999999998021
15,27,170108.755909427,0.150000000008731
15,28,171457.985508096,0.150000000008731
15,29,163890.094316116,0.150999999998021
15,30,167793.034981068,0.150999999998021
16,1,143125.284627859,0.149999999994179
16,2,149237.516313157,0.150999999998021
16,3,149735.601320232,0.151000000012573
16,4,131203.399978569,0.150999999998021
16,5,133887.824999434,0.149999999994179
16,6,148732.047243395,0.149999999994179
16,7,169663.052854208,0.150999999998021
16,8,159149.501668314,0.150000000008731
16,9,160049.012620508,0.150999999998021
16,10,135107.845178945,0.150999999998021
16,11,152049.268444741,0.149999999994179
16,12,143410.433842417,0.149999999994179
16,13,142093.248747095,0.151000000012573
16,14,151098.856878106,0.150999999998021
16,15,163781.926131825,0.149999999994179
16,16,152192.286793239,0.149999999994179
16,17,142473.872048663,0.150999999998021
16,18,136077.958881363,0.150999999998021
16,19,133269.305764837,0.151000000012573
16,20,156924.668677738,0.149999999994179
16,21,152675.695433523,0.150999999998021
16,22,129146.575597277,0.150999999998021
16,23,148559.582545303,0.150000000008731
16,24,157166.157559256,0.150000000008731
16,25,99277.8623294205,0.150999999998021
16,26,170562.82791763,0.150999999998021
16,27,139076.871611367,0.149999999994179
16,28,143282.624323195,0.151000000012573
16,29,157092.404092207,0.150999999998021
16,30,152426.049827664,0.149999999994179
17,1,154593.972726835,0.149999999994179
17,2,145924.765495517,0.150999999998021
17,3,171173.702116433,0.151000000012573
17,4,146253.839336583,0.149999999994179
17,5,125185.721512572,0.149999999994179
17,6,150496.020470705,0.150999999998021
17,7,161595.098296324,0.150999999998021
17,8,149073.08462889,0.150000000008731
17,9,157904.64073497,0.149999999994179
17,10,152416.413268298,0.150999999998021
17,11,145458.729046359,0.149999999994179
17,12,136713.587763102,0.150000000008731
17,13,136085.944072036,0.150999999998021
17,14,166182.432608978,0.150999999998021
17,15,171408.992576053,0.149999999994179
17,16,159109.416710011,0.149999999994179
17,17,150567.117023139,0.151000000012573
17,18,168111.330800039,0.150999999998021
17,19,144660.718760138,0.149999999994179
17,20,171888.627183955,0.150999999998021
17,21,159897.611008572,0.150999999998021
17,22,139792.893968653,0.150000000008731
17,23,143346.124652144,0.150000000008731
17,24,156584.704235603,0.150999999998021
17,25,158625.43739191,0.150999999998021
17,26,171988.115259162,0.150000000008731
17,27,162818.222923003,0.150999999998021
17,28,154595.648024372,0.149999999994179
17,29,152074.115226735,0.149999999994179
17,30,154941.53611441,0.150999999998021
18,1,175120.581978701,0.150999999998021
18,2,173153.36309622,0.150000000008731
18,3,142591.202137033,0.150999999998021
18,4,165327.00246267,0.150999999998021
18,5,166372.203907283,0.150000000008731
18,6,159415.176004754,0.150999999998021
18,7,151906.599120661,0.150999999998021
18,8,172764.635995933,0.149999999994179
18,9,172914.815917184,0.150999999998021
18,10,170474.138027688,0.150999999998021
18,11,169880.625544081,0.150000000008731
18,12,158109.212274655,0.150999999998021
18,13,170654.413339941,0.149999999994179
18,14,173799.640199219,0.150000000008731
18,15,153701.886518179,0.150999999998021
18,16,170276.68076919,0.149999999994179
18,17,173507.338678971,0.149999999994179
18,18,170103.710382686,0.150999999998021
18,19,161770.325689806,0.150000000008731
18,20,171846.146828088,0.149999999994179
18,21,171720.364565723,0.150999999998021
18,22,171875.437490861,0.149999999994179
18,23,161072.491071269,0.151000000012573
18,24,167076.74926648,0.150999999998021
18,25,150858.114598346,0.149999999994179
18,26,171804.671439802,0.150999999998021
18,27,172504.447375025,0.150999999998021
18,28,141960.912054943,0.150000000008731
18,29,152523.153774143,0.150999999998021
18,30,151606.27825208,0.149999999994179
19,1,170128.176718443,0.149999999994179
19,2,156864.751541387,0.151000000012573
19,3,154682.125400793,0.150999999998021
19,4,148802.203440175,0.149999999994179
19,5,131179.010422438,0.149999999994179
19,6,146265.518031401,0.150999999998021
19,7,171547.298829742,0.151000000012573
19,8,143707.958783911,0.149999999994179
19,9,153153.535157776,0.150999999998021
19,10,138343.25881041,0.150999999998021
19,11,158195.63386638,0.150000000008731
19,12,139598.507336185,0.150999999998021
19,13,140774.498003051,0.149999999994179
19,14,168846.277129084,0.149999999994179
19,15,162314.633493056,0.150999999998021
19,16,157601.929834962,0.150000000008731
19,17,171473.884736995,0.149999999994179
19,18,154555.248018737,0.150999999998021
19,19,154192.715142341,0.149999999994179
19,20,157589.99396026,0.150000000008731
19,21,163289.153994137,0.150999999998021
19,22,141189.860365757,0.149999999994179
19,23,140460.193841732,0.149999999994179
19,24,160803.879917813,0.150999999998021
19,25,158704.536701047,0.150000000008731
19,26,164078.632138318,0.149999999994179
19,27,162912.550878723,0.150999999998021
19,28,143758.960947334,0.150999999998021
19,29,131323.821220623,0.150000000008731
19,30,147237.069336829,0.150999999998021
20,1,156974.384464564,0.150999999998021
20,2,140587.418176086,0.149999999994179
20,3,163614.79849658,0.150999999998021
20,4,134659.24216182,0.151000000012573
20,5,123957.325633835,0.150999999998021
20,6,135440.544520936,0.149999999994179
20,7,169716.255201075,0.150999999998021
20,8,140555.627843645,0.150999999998021
20,9,151053.48527409,0.150000000008731
20,10,134817.936135894,0.150999999998021
20,11,141015.444191035,0.150999999998021
20,12,132235.377040538,0.149999999994179
20,13,135264.921750368,0.151000000012573
20,14,165119.456297924,0.150999999998021
20,15,159212.674383334,0.149999999994179
20,16,146042.76205623,0.150999999998021
20,17,158328.30974067,0.150999999998021
20,18,158169.672934869,0.150000000008731
20,19,139300.956062532,0.149999999994179
20,20,155503.813489825,0.150999999998021
20,21,153794.579742525,0.149999999994179
20,22,137089.735798492,0.150000000008731
20,23,138745.362936765,0.150999999998021
20,24,156983.173087188,0.149999999994179
20,25,153091.564001313,0.149999999994179
20,26,168295.550607893,0.150999999998021
20,27,158205.093152047,0.150000000008731
20,28,146821.640838154,0.149999999994179
20,29,138882.997273761,0.150999999998021
20,30,153310.440099149,0.150000000008731
21,1,163830.179854367,0.150000000008731
21,2,149516.783805833,0.150999999998021
21,3,162225.269072579,0.149999999994179
21,4,150188.517666778,0.149999999994179
21,5,112638.683434099,0.150999999998021
21,6,148796.644313949,0.150000000008731
21,7,173773.406177345,0.150999999998021
21,8,157454.657251069,0.150999999998021
21,9,153790.195120365,0.150000000008731
21,10,132665.427763226,0.150000000008731
21,11,149007.681587561,0.150999999998021
21,12,149647.985477908,0.149999999994179
21,13,153232.973552799,0.149999999994179
21,14,164976.931391553,0.150999999998021
21,15,172868.895570393,0.150000000008731
21,16,148189.821843555,0.150999999998021
21,17,173647.21084286,0.150999999998021
21,18,145379.897962012,0.150000000008731
21,19,155105.288406806,0.150999999998021
21,20,159379.91484998,0.150999999998021
21,21,161162.89549075,0.149999999994179
21,22,142541.42784291,0.150999999998021
21,23,158701.667408557,0.150000000008731
21,24,164724.918198267,0.150000000008731
21,25,167743.665844628,0.150999999998021
21,26,161860.348095285,0.149999999994179
21,27,147551.513851738,0.151000000012573
21,28,156440.190586705,0.150999999998021
21,29,153936.289801469,0.149999999994179
21,30,157771.080697434,0.150999999998021
22,1,151461.016801799,0.150000000008731
22,2,173835.52412919,0.150000000008731
22,3,153498.813796881,0.150999999998021
22,4,159788.936487075,0.149999999994179
22,5,158065.519479337,0.150999999998021
22,6,165470.848904527,0.151000000012573
22,7,149112.723939011,0.149999999994179
22,8,172894.234584671,0.150999999998021
22,9,173044.414505922,0.150000000008731
22,10,172458.087384632,0.150999999998021
22,11,170010.224132819,0.149999999994179
22,12,158636.243985191,0.149999999994179
22,13,164780.140650154,0.150999999998021
22,14,168944.504033924,0.150000000008731
22,15,168840.263811838,0.150000000008731
22,16,173217.622921939,0.150999999998021
22,17,171501.749308933,0.149999999994179
22,18,155747.710768417,0.151000000012573
22,19,156526.519646948,0.149999999994179
22,20,171975.745416827,0.149999999994179
22,21,160449.878738436,0.150999999998021
22,22,167473.591706019,0.150000000008731
22,23,140778.100053305,0.150999999998021
22,24,144153.50343107,0.149999999994179
22,25,165865.638463353,0.149999999994179
22,26,171934.270028541,0.150999999998021
22,27,172963.201260979,0.150000000008731
22,28,139182.750907318,0.150999999998021
22,29,154512.063235781,0.150999999998021
22,30,169001.692825091,0.149999999994179
23,1,158684.699846563,0.151000000012573
23,2,172681.4165049,0.149999999994179
23,3,170688.123091442,0.150999999998021
23,4,80382.6664532159,0.150999999998021
23,5,148698.447862557,0.150000000008731
23,6,145082.554751561,0.150999999998021
23,7,161792.928367812,0.150999999998021
23,8,170455.330161512,0.149999999994179
23,9,168663.992790353,0.150999999998021
23,10,172422.974319789,0.150000000008731
23,11,169975.111067977,0.150999999998021
23,12,141661.459594505,0.150999999998021
23,13,156398.628630394,0.150000000008731
23,14,163690.648108219,0.150999999998021
23,15,160907.55536531,0.149999999994179
23,16,169673.089746681,0.150999999998021
23,17,173601.824202867,0.150000000008731
23,18,158068.413854526,0.150000000008731
23,19,159787.633996179,0.150999999998021
23,20,171940.632351984,0.149999999994179
23,21,149018.257673562,0.149999999994179
23,22,159872.324094329,0.151000000012573
23,23,135674.335738885,0.149999999994179
23,24,152175.419375847,0.150999999998021
23,25,151846.888691678,0.150000000008731
23,26,170411.809372213,0.150999999998021
23,27,166816.792638049,0.150999999998021
23,28,130057.085198841,0.149999999994179
23,29,140338.308880001,0.150999999998021
23,30,166944.079945674,0.150000000008731
24,1,159632.955728169,0.150000000008731
24,2,169688.797199757,0.150999999998021
24,3,141658.275297596,0.149999999994179
24,4,146633.575342421,0.151000000012573
24,5,159689.978873359,0.149999999994179
24,6,148034.250462551,0.150999999998021
24,7,159444.282068271,0.150999999998021
24,8,172322.242624163,0.150000000008731
24,9,169733.747738353,0.150999999998021
24,10,163836.01478695,0.149999999994179
24,11,169949.650732844,0.149999999994179
24,12,151276.170826813,0.150999999998021
24,13,160519.981690111,0.150000000008731
24,14,166799.668867553,0.150999999998021
24,15,155903.719555299,0.150999999998021
24,16,169798.360121537,0.149999999994179
24,17,171936.682132387,0.151000000012573
24,18,147455.632694282,0.149999999994179
24,19,147833.558316173,0.150999999998021
24,20,171915.172016852,0.150000000008731
24,21,156308.363064383,0.150000000008731
24,22,159472.795866617,0.150999999998021
24,23,155585.689408561,0.149999999994179
24,24,150489.804227786,0.150999999998021
24,25,163149.12315994,0.150000000008731
24,26,171873.696628566,0.150000000008731
24,27,170799.912861436,0.150999999998021
24,28,135082.163060637,0.149999999994179
24,29,143990.143369303,0.151000000012573
24,30,159615.057916989,0.149999999994179
25,1,170398.64956765,0.149999999994179
25,2,158378.394511947,0.150999999998021
25,3,168256.395335549,0.150000000008731
25,4,140562.451072051,0.150999999998021
25,5,154951.876063919,0.149999999994179
25,6,128511.660479408,0.149999999994179
25,7,171761.462686652,0.150000000008731
25,8,140462.578535155,0.150000000008731
25,9,158922.886271074,0.150999999998021
25,10,159575.908431272,0.149999999994179
25,11,160036.437124117,0.151000000012573
25,12,159833.830559738,0.150999999998021
25,13,136431.067379699,0.149999999994179
25,14,166256.464975219,0.150999999998021
25,15,174977.438139154,0.150000000008731
25,16,147973.691528641,0.150999999998021
25,17,168393.452627837,0.149999999994179
25,18,148137.406668261,0.149999999994179
25,19,156952.956333019,0.150999999998021
25,20,164108.798561411,0.150000000008731
25,21,107495.159182419,0.149999999994179
25,22,156196.418013825,0.149999999994179
25,23,157227.35750415,0.149999999994179
25,24,155727.853276414,0.151000000012573
25,25,155714.338551799,0.149999999994179
25,26,169683.680955742,0.150999999998021
25,27,164596.05752002,0.150000000008731
25,28,152343.032912529,0.150000000008731
25,29,150370.510392845,0.150999999998021
25,30,147727.870474263,0.149999999994179
26,1,163918.254410795,0.150999999998021
26,2,160299.822379135,0.150000000008731
26,3,162672.201078036,0.150000000008731
26,4,137235.473838479,0.150999999998021
26,5,148009.579193257,0.149999999994179
26,6,138128.708607459,0.151000000012573
26,7,174987.858795233,0.149999999994179
26,8,141698.671752412,0.150999999998021
26,9,142585.395174974,0.149999999994179
26,10,147368.866983548,0.150000000008731
26,11,149891.035030596,0.150999999998021
26,12,164087.437237012,0.149999999994179
26,13,127915.695259224,0.150999999998021
26,14,134101.986765229,0.150000000008731
26,15,169210.971319706,0.150000000008731
26,16,137192.148827012,0.150999999998021
26,17,154943.6449493,0.149999999994179
26,18,138624.043143994,0.151000000012573
26,19,152688.061761395,0.149999999994179
26,20,150901.641300885,0.150999999998021
26,21,154870.906925051,0.149999999994179
26,22,138685.981153059,0.150000000008731
26,23,168934.347417174,0.150999999998021
26,24,161126.400271125,0.149999999994179
26,25,157372.48233726,0.149999999994179
26,26,144527.705878652,0.150999999998021
26,27,137837.62759421,0.150000000008731
26,28,161833.188324204,0.150999999998021
26,29,162944.41897023,0.149999999994179
26,30,141954.836379511,0.149999999994179
27,1,153169.058172302,0.151000000012573
27,2,168581.843850448,0.149999999994179
27,3,149014.737454062,0.150999999998021
27,4,146027.166854682,0.150999999998021
27,5,149829.250510848,0.150000000008731
27,6,154879.664664019,0.150999999998021
27,7,157326.165002535,0.149999999994179
27,8,171941.781224907,0.149999999994179
27,9,169007.946602824,0.150999999998021
27,10,156902.050170518,0.150000000008731
27,11,169955.293575066,0.150999999998021
27,12,141453.818825993,0.149999999994179
27,13,159485.02031855,0.151000000012573
27,14,165291.183374429,0.149999999994179
27,15,167096.817557343,0.150999999998021
27,16,163764.491560279,0.150999999998021
27,17,167233.868753937,0.150000000008731
27,18,143101.744142005,0.150999999998021
27,19,145840.061281269,0.149999999994179
27,20,171920.814859074,0.150999999998021
27,21,159549.749335719,0.150000000008731
27,22,151897.179734001,0.150000000008731
27,23,146751.655579887,0.150999999998021
27,24,151727.899289509,0.149999999994179
27,25,145310.786376514,0.151000000012573
27,26,171879.339470787,0.149999999994179
27,27,160285.148396857,0.150999999998021
27,28,40762.6319557498,0.149999999994179
27,29,154609.1224287,0.150000000008731
27,30,160375.725262313,0.149999999994179
28,1,175214.0523702,0.149999999994179
28,2,171661.396334833,0.150000000008731
28,3,171931.663028727,0.150000000008731
28,4,156483.870578703,0.150999999998021
28,5,154888.385647012,0.149999999994179
28,6,143699.080619903,0.150999999998021
28,7,175538.973941971,0.150000000008731
28,8,172714.695146196,0.150000000008731
28,9,169831.176578843,0.149999999994179
28,10,162055.030550045,0.150999999998021
28,11,169974.09593558,0.150000000008731
28,12,162310.702307858,0.150999999998021
28,13,161963.906625569,0.149999999994179
28,14,174113.983485491,0.149999999994179
28,15,174214.7559085,0.151000000012573
28,16,172356.477103202,0.149999999994179
28,17,172891.948905243,0.150999999998021
28,18,141591.903879044,0.150000000008731
28,19,168188.82904054,0.150999999998021
28,20,171939.617219588,0.149999999994179
28,21,149812.574804897,0.150999999998021
28,22,157422.839766794,0.150000000008731
28,23,144197.914782808,0.150999999998021
28,24,161885.794640257,0.149999999994179
28,25,167207.259590823,0.150999999998021
28,26,169071.259310439,0.150000000008731
28,27,162481.639570534,0.150000000008731
28,28,142512.376511333,0.150999999998021
28,29,149876.572211134,0.149999999994179
28,30,166207.497575406,0.150999999998021
29,1,166281.772120944,0.150000000008731
29,2,173697.615472485,0.150999999998021
29,3,164642.199331417,0.149999999994179
29,4,170032.164849925,0.151000000012573
29,5,169043.418643168,0.149999999994179
29,6,168660.050682962,0.150999999998021
29,7,154922.589738332,0.149999999994179
29,8,172756.325927966,0.150000000008731
29,9,172906.505849217,0.150999999998021
29,10,172320.178727927,0.149999999994179
29,11,169872.315476114,0.150999999998021
29,12,159390.144357819,0.150000000008731
29,13,173041.48068919,0.150000000008731
29,14,174867.050672003,0.149999999994179
29,15,176212.905049946,0.149999999994179
29,16,172021.348276891,0.151000000012573
29,17,173499.028611004,0.149999999994179
29,18,172614.829311411,0.150999999998021
29,19,168135.689914374,0.149999999994179
29,20,171837.836760122,0.151000000012573
29,21,170926.215663098,0.149999999994179
29,22,172429.052836185,0.150999999998021
29,23,157225.893115392,0.150000000008731
29,24,164746.80099123,0.150000000008731
29,25,165180.367489701,0.150999999998021
29,26,171796.361371836,0.149999999994179
29,27,173054.679865077,0.150999999998021
29,28,144232.925876668,0.150000000008731
29,29,163493.508663965,0.150999999998021
29,30,173304.405807948,0.149999999994179
30,1,172749.367463847,0.150999999998021
30,2,166361.366801252,0.150000000008731
30,3,161014.384519594,0.150999999998021
30,4,160911.777020888,0.149999999994179
30,5,158037.447425692,0.149999999994179
30,6,157088.637044612,0.151000000012573
30,7,172905.044592,0.149999999994179
30,8,87196.6258452476,0.150999999998021
30,9,160209.11350433,0.150000000008731
30,10,152793.612298655,0.150999999998021
30,11,170027.074608511,0.149999999994179
30,12,153423.941080978,0.150999999998021
30,13,167163.514163272,0.150000000008731
30,14,172797.902634456,0.150999999998021
30,15,172837.211474373,0.149999999994179
30,16,166406.734327116,0.150999999998021
30,17,172831.630499253,0.150000000008731
30,18,158736.650222444,0.150000000008731
30,19,172833.613358789,0.149999999994179
30,20,167558.232924108,0.149999999994179
30,21,165543.106188618,0.150000000008731
30,22,155496.197531142,0.150000000008731
30,23,166042.160852776,0.150999999998021
30,24,172873.647555228,0.149999999994179
30,25,164900.898560935,0.151000000012573
30,26,161688.388977489,0.149999999994179
30,27,170507.840793881,0.150999999998021
30,28,157901.744413715,0.150000000008731
30,29,144939.375992222,0.150999999998021
30,30,163145.971236522,0.149999999994179
