"Before.Trace.ID1","Before.Trace.ID2","Difference","Runtime"
1,2,1082.42965421373,0.00900000000547152
1,3,1610.77675169446,0.00600000000849832
1,4,66.2676839015401,0.00699999999778811
1,5,116.223181019801,0.0120000000024447
1,6,2987.27783826626,0.00600000000849832
1,7,522.791579359833,0.00800000000162981
1,8,7208.32227386325,0.0079999999870779
1,9,2149.14319765964,0.00600000000849832
1,10,210.25973596925,0.00699999999778811
1,11,1473.50276564386,0.00999999999476131
1,12,591.715714142526,0.00900000000547152
1,13,833.42142411522,0.00800000000162981
1,14,4887.85866063702,0.0059999999939464
1,15,1883.94655856514,0.00699999999778811
1,16,860.539063490239,0.0100000000093132
1,17,22393.9335002863,0.00399999998626299
1,18,22.9217408501112,0.0100000000093132
1,19,21.1884185724566,0.00699999999778811
1,20,924.662108411853,0.00900000000547152
1,21,276.105038380627,0.0059999999939464
1,22,1028.3501058721,0.00500000000465661
1,23,4361.940371493,0.00699999999778811
1,24,149.310004352855,0.00699999999778811
1,25,2371.06722462533,0.0059999999939464
1,26,14.0929997008794,0.00800000000162981
1,27,50612.2716533265,0.00500000000465661
1,28,5349.17935750065,0.00500000000465661
1,29,6614.04530097476,0.00800000000162981
1,30,6559.08960196103,0.00699999999778811
2,3,1022.79902076756,0.00699999999778811
2,4,0.639979074624155,0.00800000000162981
2,5,127.689206525518,0.00999999999476131
2,6,1323.97327720573,0.00699999999778811
2,7,5.62600213606813,0.00800000000162981
2,8,3253.33191266574,0.00600000000849832
2,9,400.170366337397,0.0079999999870779
2,10,160.64318744318,0.00900000000547152
2,11,241.480433075993,0.00699999999778811
2,12,14.5970940818909,0.00600000000849832
2,13,350.166901860061,0.00800000000162981
2,14,1011.16936751105,0.00699999999778811
2,15,1691.33152397253,0.00800000000162981
2,16,197.114159193192,0.010999999998603
2,17,22232.2013376356,0.00700000001234002
2,18,34.4415486870116,0.00699999999778811
2,19,22.6134461708247,0.00800000000162981
2,20,866.491374621328,0.0059999999939464
2,21,364.137977492336,0.00699999999778811
2,22,338.491355209379,0.00800000000162981
2,23,1080.17942985482,0.00699999999778811
2,24,5.88509290721453,0.00800000000162981
2,25,1567.52886583385,0.00600000000849832
2,26,372.300145286615,0.0049999999901047
2,27,37052.2969606543,0.00500000000465661
2,28,1350.28664120485,0.00999999999476131
2,29,558.068572559187,0.00600000000849832
2,30,257.772578873383,0.0049999999901047
3,4,2108.60496072599,0.00800000000162981
3,5,828.071024337175,0.00900000000547152
3,6,1873.48493892872,0.00699999999778811
3,7,838.279629895159,0.00800000000162981
3,8,102.349688115743,0.00800000000162981
3,9,269.681885068483,0.00699999999778811
3,10,350.217684791146,0.0059999999939464
3,11,117.002465611101,0.00700000001234002
3,12,355.091030667891,0.00399999998626299
3,13,2.68082803850346,0.00700000001234002
3,14,1174.76343859811,0.0079999999870779
3,15,65.3454563966816,0.00500000000465661
3,16,1.93301160137936,0.00500000000465661
3,17,29799.350758247,0.0059999999939464
3,18,1601.80458548594,0.00900000000547152
3,19,361.929658851676,0.0059999999939464
3,20,2251.55756824716,0.00600000000849832
3,21,9.41523400540233,0.0059999999939464
3,22,569.184669805731,0.0139999999955762
3,23,460.855910240734,0.00800000000162981
3,24,571.831809963563,0.00600000000849832
3,25,159.793791812096,0.0059999999939464
3,26,1934.40030619186,0.00600000000849832
3,27,40316.6243728719,0.0049999999901047
3,28,381.492036580888,0.00900000000547152
3,29,1759.24642715009,0.00800000000162981
3,30,2244.65056143693,0.00699999999778811
4,5,3128.86942194584,0.00900000000547152
4,6,3107.39000921516,0.0049999999901047
4,7,87.0928909574852,0.0059999999939464
4,8,731.745381184728,0.00700000001234002
4,9,0.0197817487715271,0.0049999999901047
4,10,1953.37711285453,0.0059999999939464
4,11,1280.66179470352,0.00600000000849832
4,12,17.8489219436641,0.0059999999939464
4,13,475.315806156325,0.00699999999778811
4,14,8.98458606399556,0.00500000000465661
4,15,891.776956536384,0.0059999999939464
4,16,1194.79471508185,0.00800000000162981
4,17,20966.5132850092,0.00500000000465661
4,18,25.5410676603354,0.0059999999939464
4,19,110.845067437381,0.00600000000849832
4,20,2342.18307799059,0.00699999999778811
4,21,1435.51079246697,0.00699999999778811
4,22,18.1604216544703,0.00500000000465661
4,23,1142.35952655724,0.00999999999476131
4,24,8.69328893597167,0.00699999999778811
4,25,51.4963195431497,0.0059999999939464
4,26,2.24710487806016,0.00600000000849832
4,27,26332.3636465922,0.00699999999778811
4,28,3271.13845453585,0.0059999999939464
4,29,4.49568340850527,0.00600000000849832
4,30,2551.58154254431,0.0059999999939464
5,6,8.51019334141542,0.00800000000162981
5,7,151.694326401688,0.00699999999778811
5,8,5.01766906131219,0.00500000000465661
5,9,710.929313533984,0.0059999999939464
5,10,44.7973597839922,0.00900000000547152
5,11,884.552924267972,0.00699999999778811
5,12,7.58486945443581,0.00600000000849832
5,13,762.906532667353,0.00699999999778811
5,14,2.28082703760804,0.00800000000162981
5,15,10.0961895145238,0.00699999999778811
5,16,4.08558369384287,0.00800000000162981
5,17,24328.4585088147,0.0049999999901047
5,18,3817.71721974654,0.0100000000093132
5,19,0.484379775097122,0.00699999999778811
5,20,8.89594062837407,0.0059999999939464
5,21,587.815954783109,0.00900000000547152
5,22,731.516632208937,0.00699999999778811
5,23,69.1889624069515,0.00699999999778811
5,24,1025.79142914261,0.00500000000465661
5,25,8.39705881564646,0.00900000000547152
5,26,2272.51406611682,0.0049999999901047
5,27,29288.5147169344,0.00400000000081491
5,28,405.951599675331,0.00800000000162981
5,29,60.452684380179,0.0059999999939464
5,30,1081.0659223897,0.00500000000465661
6,7,530.322207871606,0.00600000000849832
6,8,123.225214740327,0.00699999999778811
6,9,1058.6919032245,0.00400000000081491
6,10,256.828872158927,0.00800000000162981
6,11,436.558107046541,0.0059999999939464
6,12,42.5699510799298,0.0059999999939464
6,13,1394.308059951,0.0100000000093132
6,14,96.3137233572344,0.00800000000162981
6,15,23.6375451832349,0.00500000000465661
6,16,410.39765972011,0.00699999999778811
6,17,21429.8027945419,0.00699999999778811
6,18,2981.4327388176,0.00900000000547152
6,19,1158.50476585729,0.0059999999939464
6,20,1056.20622025058,0.00800000000162981
6,21,258.348855320423,0.00800000000162981
6,22,110.167656940307,0.00900000000547152
6,23,2771.517700546,0.00699999999778811
6,24,1174.04879681145,0.00800000000162981
6,25,294.795248269419,0.00699999999778811
6,26,0.0765886371902824,0.00500000000465661
6,27,54105.3108189584,0.0049999999901047
6,28,87.839252708156,0.00800000000162981
6,29,377.135360851585,0.0120000000024447
6,30,2308.67693849544,0.00699999999778811
7,8,390.518135844417,0.00500000000465661
7,9,62.866788172758,0.0049999999901047
7,10,60.5847007946264,0.00500000000465661
7,11,1.98383910939812,0.00699999999778811
7,12,6.3134371635371,0.0059999999939464
7,13,61.0718996411301,0.00800000000162981
7,14,2845.63000673071,0.00400000000081491
7,15,759.965000995195,0.0059999999939464
7,16,10.0511648200487,0.00600000000849832
7,17,23546.1499401946,0.00400000000081491
7,18,50.0498588081152,0.0059999999939464
7,19,3.67617550321601,0.00699999999778811
7,20,8328.54895320468,0.0059999999939464
7,21,392.355131606199,0.00800000000162981
7,22,3269.719867547,0.00699999999778811
7,23,4137.18956318585,0.00600000000849832
7,24,4.03856446356193,0.00699999999778811
7,25,1.2925954823036,0.00699999999778811
7,26,176.984932666932,0.00699999999778811
7,27,29198.4974127877,0.00500000000465661
7,28,1882.76771804458,0.00800000000162981
7,29,4617.17686404223,0.00800000000162981
7,30,4607.22592886485,0.00699999999778811
8,9,15.3020082651159,0.00800000000162981
8,10,11.2076240599782,0.0049999999901047
8,11,1352.62630603134,0.00400000000081491
8,12,566.580475116062,0.00500000000465661
8,13,25.9489736938304,0.0049999999901047
8,14,44.8610879895555,0.00699999999778811
8,15,229.718955125629,0.00600000000849832
8,16,567.298858814905,0.00699999999778811
8,17,24100.2378760105,0.00500000000465661
8,18,3871.97892235043,0.0089999999909196
8,19,49.6899604122408,0.00600000000849832
8,20,211.038421002267,0.00699999999778811
8,21,136.23542359318,0.00400000000081491
8,22,1819.11430620389,0.0049999999901047
8,23,990.017021902015,0.00500000000465661
8,24,645.194411814687,0.00500000000465661
8,25,4.51933436216247,0.0049999999901047
8,26,768.923789506387,0.00500000000465661
8,27,39806.9123566627,0.00600000000849832
8,28,0.455934631697223,0.00400000000081491
8,29,274.785916949119,0.00699999999778811
8,30,1977.48376329548,0.0059999999939464
9,10,305.525657957345,0.00600000000849832
9,11,565.469352053261,0.0059999999939464
9,12,604.008526598761,0.00699999999778811
9,13,2.2760884918157,0.00699999999778811
9,14,6.22153253837969,0.00800000000162981
9,15,959.768186116898,0.00600000000849832
9,16,2499.94022381788,0.0079999999870779
9,17,19905.1148435262,0.00500000000465661
9,18,589.628303227356,0.00699999999778811
9,19,60.0567302364007,0.00600000000849832
9,20,16.3263362880665,0.0049999999901047
9,21,6.06465467329014,0.00500000000465661
9,22,565.599285513073,0.00699999999778811
9,23,1042.45552487682,0.00800000000162981
9,24,0.329642557087835,0.00500000000465661
9,25,1012.71012808531,0.00699999999778811
9,26,0.00338075983562457,0.00500000000465661
9,27,32529.7949689022,0.0049999999901047
9,28,210.334775564301,0.00400000000081491
9,29,114.93605843558,0.00800000000162981
9,30,3741.55767616179,0.0059999999939464
10,11,855.513573403292,0.00600000000849832
10,12,255.501157190168,0.00800000000162981
10,13,53.6138875366016,0.00699999999778811
10,14,49.091124611078,0.00699999999778811
10,15,18.1080073271838,0.0059999999939464
10,16,437.287600366456,0.00699999999778811
10,17,24572.0844489654,0.00700000001234002
10,18,2130.03329038672,0.0079999999870779
10,19,863.315713103342,0.00500000000465661
10,20,2439.86420803245,0.00500000000465661
10,21,139.546200627199,0.0059999999939464
10,22,391.712200924174,0.00800000000162981
10,23,1134.85087127136,0.00699999999778811
10,24,739.762245843936,0.00500000000465661
10,25,451.071014995884,0.0120000000024447
10,26,1238.32460058055,0.00699999999778811
10,27,31635.0110956374,0.0029999999969732
10,28,1.51809616101009,0.00699999999778811
10,29,2431.60575524185,0.0059999999939464
10,30,3520.66524502779,0.00500000000465661
11,12,540.341977671571,0.00600000000849832
11,13,106.312997929032,0.0059999999939464
11,14,1081.92145028684,0.00500000000465661
11,15,979.227750972565,0.0089999999909196
11,16,2.09474029382019,0.00600000000849832
11,17,18203.3524981771,0.0049999999901047
11,18,345.058464193592,0.00900000000547152
11,19,2.37086464224376,0.00699999999778811
11,20,5793.55617261988,0.00800000000162981
11,21,145.021783231976,0.00800000000162981
11,22,9.44825428167686,0.00400000000081491
11,23,1112.22399485041,0.0059999999939464
11,24,4.91618410649088,0.0059999999939464
11,25,0.245822585360711,0.00500000000465661
11,26,28.1069285614004,0.00400000000081491
11,27,36471.5423451753,0.00500000000465661
11,28,414.738966230462,0.00400000000081491
11,29,3197.85969743674,0.0059999999939464
11,30,443.699743465118,0.00699999999778811
12,13,1.419804339585,0.00800000000162981
12,14,2436.06008080899,0.00600000000849832
12,15,1829.95619738456,0.00500000000465661
12,16,34.5628165179546,0.0059999999939464
12,17,39607.936370679,0.00600000000849832
12,18,115.386409166294,0.00699999999778811
12,19,4.02754068342427,0.00699999999778811
12,20,5147.95791635522,0.0059999999939464
12,21,15.4209225061159,0.00699999999778811
12,22,10.0713910104599,0.00500000000465661
12,23,3029.88370224086,0.00800000000162981
12,24,124.295921598485,0.00800000000162981
12,25,784.494180629184,0.00800000000162981
12,26,241.1612413344,0.0059999999939464
12,27,33363.5404158219,0.00699999999778811
12,28,502.151023951911,0.00800000000162981
12,29,6222.17578945298,0.00500000000465661
12,30,124.950147690154,0.00699999999778811
13,14,1850.60966310479,0.00900000000547152
13,15,4.03500926662236,0.0059999999939464
13,16,186.094554947005,0.00699999999778811
13,17,20999.8532841743,0.00500000000465661
13,18,219.611454711164,0.010999999998603
13,19,255.312385655712,0.00699999999778811
13,20,23.9563826139691,0.00500000000465661
13,21,0.656374913518394,0.0089999999909196
13,22,145.812304625488,0.00700000001234002
13,23,0.139545277129301,0.00699999999778811
13,24,177.263382192194,0.0059999999939464
13,25,1432.11073770738,0.00800000000162981
13,26,65.1720041230167,0.00999999999476131
13,27,36553.7639410738,0.00600000000849832
13,28,400.279425174177,0.00699999999778811
13,29,1018.6832342213,0.00800000000162981
13,30,844.121562785754,0.00800000000162981
14,15,194.28085994566,0.00699999999778811
14,16,1002.93330805305,0.0059999999939464
14,17,27681.561998893,0.00300000001152512
14,18,4655.51826134184,0.0079999999870779
14,19,1888.82986721282,0.00500000000465661
14,20,4.12571595290216,0.00699999999778811
14,21,866.670663033795,0.00699999999778811
14,22,1524.19481690936,0.00500000000465661
14,23,1219.26170791823,0.00800000000162981
14,24,2198.21282788148,0.00500000000465661
14,25,99.5883032860003,0.00800000000162981
14,26,0.628748646652518,0.0079999999870779
14,27,40435.2609887902,0.00400000000081491
14,28,1025.51576480098,0.00600000000849832
14,29,73.5320577989458,0.0059999999939464
14,30,20.1671685560616,0.00400000000081491
15,16,620.909263611385,0.0100000000093132
15,17,5769.46396348245,0.0059999999939464
15,18,3143.43463074314,0.00999999999476131
15,19,1145.74532313892,0.00699999999778811
15,20,566.114042748335,0.00800000000162981
15,21,721.738304355566,0.00500000000465661
15,22,1399.3024567047,0.0059999999939464
15,23,233.361925597839,0.00600000000849832
15,24,441.845556892893,0.00699999999778811
15,25,168.205713183959,0.0049999999901047
15,26,2793.77838130104,0.00400000000081491
15,27,56672.6816975952,0.00600000000849832
15,28,241.918616483256,0.0059999999939464
15,29,717.644388370175,0.00699999999778811
15,30,2008.51902038757,0.00500000000465661
16,17,28780.141924566,0.00699999999778811
16,18,237.150491921374,0.00800000000162981
16,19,210.035523817911,0.00800000000162981
16,20,1.13393010756298,0.00800000000162981
16,21,52.6019899360472,0.00500000000465661
16,22,9.55762019115492,0.0049999999901047
16,23,0.040062580968098,0.00699999999778811
16,24,129.494255436148,0.00700000001234002
16,25,3172.47955262926,0.0059999999939464
16,26,1150.86303652715,0.00699999999778811
16,27,58587.2384646103,0.0059999999939464
16,28,188.971379837785,0.00700000001234002
16,29,837.64822034323,0.00800000000162981
16,30,3888.7754990216,0.0059999999939464
17,18,21667.3652332653,0.00500000000465661
17,19,22264.2967494252,0.00400000000081491
17,20,25495.4423543086,0.00300000001152512
17,21,20472.3373048298,0.0059999999939464
17,22,23850.0641807215,0.0029999999969732
17,23,36765.1978721383,0.00600000000849832
17,24,15941.3633420448,0.00400000000081491
17,25,22479.3919866373,0.00399999998626299
17,26,16970.2421047278,0.00400000000081491
17,27,220.641754915763,0.0100000000093132
17,28,25099.4238000003,0.0059999999939464
17,29,18901.7906287809,0.00699999999778811
17,30,39697.5106750026,0.00300000001152512
18,19,1.67503719203213,0.0059999999939464
18,20,8317.610741224,0.010999999998603
18,21,632.206846933196,0.00699999999778811
18,22,160.532958028083,0.00699999999778811
18,23,5895.50617200571,0.00600000000849832
18,24,81.0579194198853,0.00999999999476131
18,25,2088.25313830404,0.00699999999778811
18,26,3.27410219710902,0.00800000000162981
18,27,36760.6306365386,0.00600000000849832
18,28,2232.79515923101,0.00999999999476131
18,29,7271.00012613095,0.00999999999476131
18,30,9094.13517331089,0.00800000000162981
19,20,1265.74986237659,0.00699999999778811
19,21,19.5711576199783,0.00900000000547152
19,22,92.788868477413,0.0059999999939464
19,23,1211.14879237473,0.00600000000849832
19,24,5.79157287978157,0.0059999999939464
19,25,1846.56020348162,0.00800000000162981
19,26,867.649528432909,0.00699999999778811
19,27,28051.4695929701,0.00500000000465661
19,28,908.084408394791,0.00699999999778811
19,29,1477.95967067455,0.00800000000162981
19,30,189.941257804799,0.00500000000465661
20,21,88.2472413004797,0.00400000000081491
20,22,321.999628824789,0.00699999999778811
20,23,245.078542251899,0.0089999999909196
20,24,123.41441561026,0.00500000000465661
20,25,663.677639460642,0.00699999999778811
20,26,1640.68390960595,0.00699999999778811
20,27,39222.2864539435,0.00700000001234002
20,28,1421.02361590457,0.00699999999778811
20,29,33.8327116692915,0.0059999999939464
20,30,209.110758606387,0.00999999999476131
21,22,790.580836392384,0.00700000001234002
21,23,925.893621995649,0.0059999999939464
21,24,339.652834051622,0.0059999999939464
21,25,880.899016402005,0.00300000001152512
21,26,257.687262301779,0.0059999999939464
21,27,30102.5529408785,0.00400000000081491
21,28,107.040823752667,0.00699999999778811
21,29,1506.69487679921,0.00699999999778811
21,30,162.362154102996,0.00400000000081491
22,23,2529.53176543237,0.00699999999778811
22,24,9.73266183973279,0.00500000000465661
22,25,660.270052913862,0.0059999999939464
22,26,0.0528126250333319,0.0059999999939464
22,27,42132.0447952058,0.00500000000465661
22,28,902.014360511566,0.00699999999778811
22,29,1692.3099889315,0.00800000000162981
22,30,3953.74386094421,0.00500000000465661
23,24,1630.31948735792,0.0049999999901047
23,25,360.065241061786,0.00500000000465661
23,26,51.1731369307142,0.00699999999778811
23,27,55798.9135152718,0.00500000000465661
23,28,1367.26843870884,0.00699999999778811
23,29,149.647614497933,0.00500000000465661
23,30,573.928405305026,0.0089999999909196
24,25,3.50929536805988,0.00400000000081491
24,26,9.06803293045511,0.00500000000465661
24,27,32663.4626489452,0.0049999999901047
24,28,618.668118150295,0.00800000000162981
24,29,162.195545139122,0.00600000000849832
24,30,2140.11292285228,0.0049999999901047
25,26,603.536702078567,0.00500000000465661
25,27,27451.8702214855,0.0029999999969732
25,28,599.368688975771,0.00500000000465661
25,29,720.690824375948,0.00699999999778811
25,30,2567.26776160767,0.0059999999939464
26,27,24244.4937179648,0.00699999999778811
26,28,813.224425841311,0.00600000000849832
26,29,1751.51778230039,0.0059999999939464
26,30,1523.65586741177,0.00699999999778811
27,28,58824.459618721,0.00700000001234002
27,29,30442.694509966,0.0049999999901047
27,30,62654.0857116995,0.00500000000465661
28,29,38.1323369756475,0.00700000001234002
28,30,2230.28621720161,0.0059999999939464
29,30,3.46874972542172,0.00800000000162981


"After.Trace.ID","Before.Trace.ID","Difference","Runtime"
1,1,2726.17027786821,0.00500000000465661
1,2,1854.3349404568,0.00699999999778811
1,3,258.044773298201,0.00500000000465661
1,4,1997.67621613778,0.00699999999778811
1,5,1405.31378748613,0.00500000000465661
1,6,398.864868874549,0.0049999999901047
1,7,67.2763341790594,0.00600000000849832
1,8,1.8351378671476,0.00400000000081491
1,9,2276.36533955776,0.00500000000465661
1,10,8.65586044715164,0.0059999999939464
1,11,1155.72938755117,0.00700000001234002
1,12,1416.09859755487,0.0049999999901047
1,13,1031.74254509087,0.00400000000081491
1,14,58.6208765064234,0.00600000000849832
1,15,2156.27133895959,0.0059999999939464
1,16,1108.92423908901,0.0059999999939464
1,17,23826.5442270532,0.00800000000162981
1,18,6317.53771527001,0.00500000000465661
1,19,5.39523706293102,0.0059999999939464
1,20,0.167994306165063,0.00600000000849832
1,21,0.88495967219627,0.0059999999939464
1,22,1726.44814479215,0.00500000000465661
1,23,807.983963823553,0.00699999999778811
1,24,825.862626354412,0.00500000000465661
1,25,347.684079930151,0.00699999999778811
1,26,751.483463384605,0.0059999999939464
1,27,53382.6301550428,0.00500000000465661
1,28,1509.98101187613,0.00699999999778811
1,29,2.19347956668282,0.00500000000465661
1,30,465.954129733615,0.0079999999870779
2,1,10350.0482708864,0.00600000000849832
2,2,36.8285271405577,0.0049999999901047
2,3,1446.37076384497,0.00800000000162981
2,4,1442.36155739654,0.00699999999778811
2,5,1297.46905075249,0.00800000000162981
2,6,89.9163992060644,0.00900000000547152
2,7,32.3279933903617,0.0059999999939464
2,8,38.2501396707769,0.0059999999939464
2,9,2418.41655910827,0.00699999999778811
2,10,1754.45104324231,0.0130000000062864
2,11,20.4509305383486,0.0059999999939464
2,12,3491.58434118871,0.00800000000162981
2,13,858.715741780124,0.00600000000849832
2,14,234.264819972068,0.00500000000465661
2,15,502.914639332223,0.0059999999939464
2,16,3378.2746919838,0.00600000000849832
2,17,28210.3495567916,0.00400000000081491
2,18,3722.14139227187,0.00800000000162981
2,19,991.679454789916,0.0059999999939464
2,20,135.948665114162,0.00600000000849832
2,21,1626.18685159561,0.00999999999476131
2,22,2622.9046424856,0.00800000000162981
2,23,6.64776558656919,0.0059999999939464
2,24,18.3765214278981,0.00600000000849832
2,25,44.3637644264112,0.00699999999778811
2,26,213.035123441934,0.0049999999901047
2,27,43462.8405883795,0.00600000000849832
2,28,1129.01548658771,0.0059999999939464
2,29,341.433745856331,0.00800000000162981
2,30,576.558519233603,0.00699999999778811
3,1,135.021537101551,0.00900000000547152
3,2,300.813624578448,0.0059999999939464
3,3,1837.00415801625,0.00699999999778811
3,4,75.7857787560359,0.00699999999778811
3,5,3969.06308660829,0.00600000000849832
3,6,2310.58471176485,0.00800000000162981
3,7,260.488349506024,0.0049999999901047
3,8,3344.97471185917,0.0029999999969732
3,9,775.257754483541,0.00699999999778811
3,10,3586.14447749477,0.00600000000849832
3,11,933.695423304034,0.00699999999778811
3,12,826.768450916739,0.00800000000162981
3,13,743.465068777683,0.00900000000547152
3,14,3787.56678548943,0.0079999999870779
3,15,4029.13451449958,0.00500000000465661
3,16,1683.46156273257,0.00800000000162981
3,17,35555.4165504827,0.00500000000465661
3,18,19.726787690032,0.0049999999901047
3,19,348.702691442347,0.00600000000849832
3,20,6399.68923762622,0.0059999999939464
3,21,258.191219797476,0.00600000000849832
3,22,784.45148965303,0.0059999999939464
3,23,5883.7603734798,0.0059999999939464
3,24,239.630826139312,0.00800000000162981
3,25,2449.45541959606,0.00600000000849832
3,26,13.0456917414999,0.0049999999901047
3,27,25442.9677080124,0.00500000000465661
3,28,2316.46471971909,0.00699999999778811
3,29,8009.69403892194,0.00699999999778811
3,30,9007.63762766856,0.00600000000849832
4,1,240.20885899085,0.00699999999778811
4,2,1311.08323949935,0.00800000000162981
4,3,2161.98550027385,0.00699999999778811
4,4,258.149622589502,0.00699999999778811
4,5,8767.32993478802,0.00900000000547152
4,6,3978.19197942061,0.00800000000162981
4,7,3295.99749703169,0.0059999999939464
4,8,14584.2485329685,0.00500000000465661
4,9,163.91875645152,0.00699999999778811
4,10,10902.1062135102,0.0059999999939464
4,11,945.061237029841,0.00500000000465661
4,12,4309.58384996746,0.0059999999939464
4,13,5521.98423112759,0.00700000001234002
4,14,3607.28132121151,0.00699999999778811
4,15,3870.65446473268,0.0059999999939464
4,16,1992.47349529597,0.00699999999778811
4,17,16294.441061887,0.00300000001152512
4,18,1351.84229157553,0.0089999999909196
4,19,2662.91165552564,0.00600000000849832
4,20,11008.4167092097,0.0079999999870779
4,21,7736.08531260979,0.00800000000162981
4,22,762.93322154886,0.00800000000162981
4,23,897.691871465803,0.00800000000162981
4,24,0.836985617242129,0.00699999999778811
4,25,11190.8526100988,0.00400000000081491
4,26,790.645531142967,0.00600000000849832
4,27,25497.0238000096,0.00400000000081491
4,28,10258.8762024332,0.0059999999939464
4,29,8912.71767150266,0.00900000000547152
4,30,3063.51233172508,0.0059999999939464
5,1,258.611893045132,0.00699999999778811
5,2,184.044788994673,0.00800000000162981
5,3,457.080124395225,0.0059999999939464
5,4,1208.26251448318,0.00600000000849832
5,5,1381.95666751474,0.0059999999939464
5,6,0.126304018002705,0.00600000000849832
5,7,134.773983937244,0.0059999999939464
5,8,819.873304439146,0.00600000000849832
5,9,12.4020446030443,0.0059999999939464
5,10,934.822261832985,0.00400000000081491
5,11,100.435401314444,0.00500000000465661
5,12,335.395964740953,0.0049999999901047
5,13,178.279742821104,0.0059999999939464
5,14,2179.51404999658,0.00500000000465661
5,15,743.595244973655,0.00800000000162981
5,16,183.940402507371,0.00900000000547152
5,17,22922.7049029635,0.00400000000081491
5,18,43.3817994011774,0.00500000000465661
5,19,300.296616136403,0.00999999999476131
5,20,4577.9546557348,0.00999999999476131
5,21,204.601687889537,0.00700000001234002
5,22,55.5177718849779,0.0059999999939464
5,23,2582.25934158143,0.00699999999778811
5,24,6.54146790889295,0.00600000000849832
5,25,903.421200014087,0.0049999999901047
5,26,738.325473922907,0.00699999999778811
5,27,41884.8399373617,0.00600000000849832
5,28,1187.5992202028,0.0059999999939464
5,29,3411.28392035586,0.00800000000162981
5,30,125.875559209957,0.00900000000547152
6,1,6.21782673117442,0.0059999999939464
6,2,155.813916965177,0.010999999998603
6,3,1843.91622555167,0.00500000000465661
6,4,6.74672536609431,0.00800000000162981
6,5,0.717794806666508,0.0059999999939464
6,6,978.861979770721,0.00699999999778811
6,7,249.740332028767,0.00500000000465661
6,8,3649.24711708278,0.0049999999901047
6,9,1491.1244569177,0.00600000000849832
6,10,2883.80692945346,0.0059999999939464
6,11,86.4877526817428,0.00400000000081491
6,12,0.286446357366194,0.00800000000162981
6,13,867.982747962794,0.00800000000162981
6,14,1891.28040736371,0.0059999999939464
6,15,2396.71659346471,0.0049999999901047
6,16,314.544882217046,0.00900000000547152
6,17,17700.0165075755,0.0029999999969732
6,18,48.2486146209577,0.00600000000849832
6,19,10.3137267502916,0.00699999999778811
6,20,16155.0998191327,0.0089999999909196
6,21,2027.73713929554,0.00600000000849832
6,22,285.812867150117,0.00699999999778811
6,23,17.0139333173792,0.00500000000465661
6,24,399.328249839339,0.0059999999939464
6,25,3873.89778199732,0.00400000000081491
6,26,866.009332683858,0.0049999999901047
6,27,29132.6221041553,0.00300000001152512
6,28,3415.49750044913,0.00699999999778811
6,29,1935.43247202454,0.0059999999939464
6,30,5585.37431288928,0.00600000000849832
7,1,358.810295101486,0.0049999999901047
7,2,96.7616365344109,0.00600000000849832
7,3,930.623596824875,0.0049999999901047
7,4,195.363022652392,0.00600000000849832
7,5,26.0871472300098,0.00800000000162981
7,6,49.4999460702722,0.00699999999778811
7,7,0.570709088591497,0.0049999999901047
7,8,559.381029985565,0.00400000000081491
7,9,3282.71092934897,0.00700000001234002
7,10,407.413745979527,0.0049999999901047
7,11,2835.6838501918,0.00500000000465661
7,12,1916.36149097616,0.0059999999939464
7,13,1635.13753159931,0.00600000000849832
7,14,155.666108059804,0.00699999999778811
7,15,1583.98135111066,0.00800000000162981
7,16,2950.53982251185,0.00500000000465661
7,17,17862.2221601077,0.0059999999939464
7,18,2929.81660372802,0.00699999999778811
7,19,546.793062518818,0.00500000000465661
7,20,29.9785169876775,0.00800000000162981
7,21,0.77797780382313,0.00699999999778811
7,22,2142.14498499582,0.0059999999939464
7,23,0.494910547308898,0.00800000000162981
7,24,230.029461288788,0.00800000000162981
7,25,99.588947447707,0.00800000000162981
7,26,249.891669118139,0.0059999999939464
7,27,42241.1793887788,0.00500000000465661
7,28,642.753805180275,0.00500000000465661
7,29,12.9504940014604,0.00400000000081491
7,30,1.65471898524997,0.00500000000465661
8,1,25.9097483096416,0.00900000000547152
8,2,1973.59875077933,0.00800000000162981
8,3,1790.48292923943,0.0079999999870779
8,4,1.37557147575384,0.00700000001234002
8,5,6746.16084336427,0.00699999999778811
8,6,2482.46243369036,0.00800000000162981
8,7,64.020109537735,0.010999999998603
8,8,7419.36546846072,0.00500000000465661
8,9,2960.48734214309,0.00699999999778811
8,10,4239.07511912248,0.00600000000849832
8,11,309.261416809069,0.0059999999939464
8,12,2651.35823608871,0.00600000000849832
8,13,3024.27798840711,0.00800000000162981
8,14,2076.11239671483,0.00999999999476131
8,15,3069.56334222489,0.00700000001234002
8,16,1223.33738352603,0.00800000000162981
8,17,36462.9590119035,0.0049999999901047
8,18,129.340232813692,0.010999999998603
8,19,1819.26001919162,0.0059999999939464
8,20,11136.9845556342,0.00600000000849832
8,21,2120.26564822507,0.00800000000162981
8,22,672.454931346772,0.0059999999939464
8,23,5340.11020724286,0.00600000000849832
8,24,3870.36076206687,0.0079999999870779
8,25,2837.66582429257,0.00500000000465661
8,26,461.0424053312,0.00699999999778811
8,27,46983.2716988056,0.00500000000465661
8,28,6774.23898623747,0.0059999999939464
8,29,9104.69040427329,0.00800000000162981
8,30,8723.60719158182,0.00500000000465661
9,1,1.75541962612275,0.0059999999939464
9,2,7.09066112390175,0.00800000000162981
9,3,2264.76979298527,0.00999999999476131
9,4,55.359328562879,0.00900000000547152
9,5,401.015999249016,0.00500000000465661
9,6,3441.37360648683,0.00800000000162981
9,7,105.698843817286,0.0059999999939464
9,8,892.839396415472,0.00699999999778811
9,9,1637.59909345062,0.00900000000547152
9,10,2762.75333135135,0.00699999999778811
9,11,1320.36248518602,0.00699999999778811
9,12,244.206481491169,0.00699999999778811
9,13,1448.49183980825,0.00699999999778811
9,14,668.365129837454,0.00800000000162981
9,15,2224.30882832153,0.0049999999901047
9,16,1628.12595135786,0.0100000000093132
9,17,15658.0671631021,0.0049999999901047
9,18,58.7384242599057,0.00600000000849832
9,19,400.209620719327,0.0059999999939464
9,20,25.2157141599926,0.00800000000162981
9,21,727.266664725256,0.00500000000465661
9,22,1395.05859602857,0.00699999999778811
9,23,1156.01703116075,0.00800000000162981
9,24,910.310130298361,0.00500000000465661
9,25,155.857761184213,0.00699999999778811
9,26,64.7127383142146,0.0089999999909196
9,27,32766.0421904029,0.00700000001234002
9,28,1053.42639987962,0.0049999999901047
9,29,632.060475557952,0.00800000000162981
9,30,2386.99857021911,0.00699999999778811
10,1,29.6500567172248,0.00800000000162981
10,2,527.553385008833,0.00699999999778811
10,3,2965.54480057026,0.0120000000024447
10,4,390.604622307813,0.00699999999778811
10,5,527.135749303635,0.00800000000162981
10,6,2775.37507361594,0.0059999999939464
10,7,35.8325422362657,0.00800000000162981
10,8,3820.66219867887,0.00800000000162981
10,9,1713.66486843752,0.0059999999939464
10,10,50.4999581906644,0.00500000000465661
10,11,2296.09344773392,0.0059999999939464
10,12,143.282971604586,0.00699999999778811
10,13,2076.22646103399,0.00700000001234002
10,14,4149.36910758857,0.00800000000162981
10,15,3695.77986628218,0.0059999999939464
10,16,1905.44048789273,0.0059999999939464
10,17,17312.9264516352,0.00699999999778811
10,18,119.93540411149,0.00900000000547152
10,19,790.307231105328,0.00900000000547152
10,20,10128.074830828,0.00699999999778811
10,21,3077.74910013889,0.00900000000547152
10,22,889.598531294927,0.0079999999870779
10,23,584.540579357391,0.00500000000465661
10,24,1895.69769824816,0.0059999999939464
10,25,3514.97529266913,0.00600000000849832
10,26,0.341307185434934,0.0059999999939464
10,27,48676.8430829593,0.00699999999778811
10,28,3928.31922318209,0.00600000000849832
10,29,7952.63689862729,0.00800000000162981
10,30,10474.6494935292,0.0059999999939464
11,1,2537.4944798516,0.00699999999778811
11,2,60.8241799710616,0.00600000000849832
11,3,318.850733023311,0.0079999999870779
11,4,1329.88296537618,0.00500000000465661
11,5,939.050604218239,0.00500000000465661
11,6,6.9941974065428,0.0049999999901047
11,7,1132.30236248242,0.00900000000547152
11,8,257.398366459317,0.0049999999901047
11,9,1392.41190812077,0.00800000000162981
11,10,1.94119183586273,0.00500000000465661
11,11,1315.84057968841,0.00500000000465661
11,12,0.501642049478839,0.0049999999901047
11,13,442.44718229268,0.00800000000162981
11,14,5.44915684933359,0.00500000000465661
11,15,111.788330951008,0.00800000000162981
11,16,4462.27319894146,0.00699999999778811
11,17,30613.4704478875,0.00400000000081491
11,18,1386.36788512577,0.00700000001234002
11,19,16.7977989876992,0.00699999999778811
11,20,227.010974177386,0.0049999999901047
11,21,1121.41584635787,0.00500000000465661
11,22,1926.41627194358,0.00900000000547152
11,23,153.457960271497,0.00699999999778811
11,24,2124.94465527829,0.0059999999939464
11,25,182.641609489935,0.00500000000465661
11,26,2276.16086274396,0.0049999999901047
11,27,59695.1260677044,0.00500000000465661
11,28,52.3179206367829,0.00800000000162981
11,29,860.90192200511,0.00699999999778811
11,30,191.914069549758,0.00500000000465661
12,1,1411.74201216413,0.00800000000162981
12,2,807.108149289805,0.00699999999778811
12,3,0.465553463062644,0.00999999999476131
12,4,1557.06493281912,0.00800000000162981
12,5,331.157493927599,0.0059999999939464
12,6,1241.04861603127,0.0100000000093132
12,7,475.225773001005,0.00500000000465661
12,8,2.45410370326763,0.00399999998626299
12,9,48.0713097653932,0.00700000001234002
12,10,376.763698524941,0.00800000000162981
12,11,467.67395896399,0.010999999998603
12,12,12.9444757199802,0.0059999999939464
12,13,262.060556368543,0.00699999999778811
12,14,408.118979848748,0.00600000000849832
12,15,735.307768956302,0.0049999999901047
12,16,65.1360039665191,0.0100000000093132
12,17,18763.3609115482,0.00800000000162981
12,18,445.16702629976,0.00699999999778811
12,19,633.581197298098,0.0059999999939464
12,20,4359.31854502981,0.00699999999778811
12,21,14.5183633724841,0.00500000000465661
12,22,100.372369649972,0.00699999999778811
12,23,1157.65726590992,0.00400000000081491
12,24,67.221716873784,0.0059999999939464
12,25,1041.29281275754,0.00400000000081491
12,26,0.230164850925768,0.00500000000465661
12,27,30229.6762185914,0.00699999999778811
12,28,651.091132269618,0.00800000000162981
12,29,3825.26969226727,0.0079999999870779
12,30,2444.55979755792,0.00700000001234002
13,1,519.396820343861,0.00999999999476131
13,2,275.526847320906,0.0059999999939464
13,3,2019.01005713807,0.00600000000849832
13,4,166.926109208734,0.00699999999778811
13,5,2897.79513287393,0.00699999999778811
13,6,2553.46451617944,0.00800000000162981
13,7,98.5242227088608,0.00500000000465661
13,8,0.694384429547205,0.00700000001234002
13,9,1365.8122340706,0.0079999999870779
13,10,1467.15240131814,0.00600000000849832
13,11,343.453461524305,0.0059999999939464
13,12,562.577927186749,0.00900000000547152
13,13,1460.04128210234,0.00900000000547152
13,14,20.7863422935093,0.0079999999870779
13,15,2288.77483528988,0.00600000000849832
13,16,2154.76284184885,0.0089999999909196
13,17,23164.4614155409,0.00600000000849832
13,18,177.258907662749,0.00699999999778811
13,19,309.035710661626,0.00699999999778811
13,20,7465.74241564105,0.00800000000162981
13,21,1598.31428035105,0.00800000000162981
13,22,367.668473417928,0.00699999999778811
13,23,4773.55478955074,0.00900000000547152
13,24,268.465903184476,0.0059999999939464
13,25,2527.81284214115,0.00800000000162981
13,26,4.14592467935904,0.00500000000465661
13,27,29961.4424045492,0.00800000000162981
13,28,2287.70768052225,0.00699999999778811
13,29,881.090348991668,0.00800000000162981
13,30,2259.76103303096,0.0059999999939464
14,1,2262.23832812114,0.00800000000162981
14,2,587.142527983158,0.00999999999476131
14,3,111.869032202751,0.00600000000849832
14,4,2215.57402601177,0.00699999999778811
14,5,1507.88038518443,0.0059999999939464
14,6,3.68289474212544,0.00699999999778811
14,7,1485.07660241039,0.00600000000849832
14,8,4.11205069043694,0.0059999999939464
14,9,41.5142758546338,0.00600000000849832
14,10,174.525195261096,0.0059999999939464
14,11,436.651916533,0.00699999999778811
14,12,1601.75652023697,0.0100000000093132
14,13,0.228161311366631,0.0079999999870779
14,14,618.215724391569,0.00500000000465661
14,15,492.572020460091,0.00900000000547152
14,16,1397.25223271665,0.00699999999778811
14,17,25216.5080748107,0.0059999999939464
14,18,412.278493080149,0.0100000000093132
14,19,195.470168871514,0.0089999999909196
14,20,0.710237891109137,0.00800000000162981
14,21,35.0628314317421,0.00600000000849832
14,22,563.994472201985,0.0049999999901047
14,23,4.71564070252004,0.00600000000849832
14,24,599.388224065078,0.0059999999939464
14,25,54.5577840168131,0.00800000000162981
14,26,1689.54160278626,0.00400000000081491
14,27,40365.2686416658,0.0049999999901047
14,28,562.699645118205,0.00600000000849832
14,29,2367.47211114605,0.00699999999778811
14,30,2358.3645821681,0.0059999999939464
15,1,1368.67163731611,0.00600000000849832
15,2,24.7365595289775,0.00699999999778811
15,3,505.723779904312,0.00800000000162981
15,4,643.900124240382,0.0079999999870779
15,5,1590.00731548344,0.00500000000465661
15,6,1823.40275446098,0.00600000000849832
15,7,0.450405801989533,0.00400000000081491
15,8,1395.16313985198,0.0049999999901047
15,9,220.590354398102,0.00699999999778811
15,10,1278.53347852899,0.00400000000081491
15,11,291.310435048381,0.00500000000465661
15,12,1349.55097130634,0.00699999999778811
15,13,324.841788464338,0.00900000000547152
15,14,629.174756468886,0.00699999999778811
15,15,1423.69450251899,0.00900000000547152
15,16,33.0574403283336,0.00699999999778811
15,17,22161.7329130289,0.00400000000081491
15,18,41.4708508458602,0.00699999999778811
15,19,30.6838814462318,0.00999999999476131
15,20,408.068178111358,0.00900000000547152
15,21,163.102861039684,0.00699999999778811
15,22,156.440522198121,0.0059999999939464
15,23,3602.93747772166,0.00500000000465661
15,24,137.651435775276,0.0059999999939464
15,25,2629.52295448475,0.00600000000849832
15,26,258.539279314361,0.00500000000465661
15,27,32798.5485418594,0.0059999999939464
15,28,2925.55961160425,0.0059999999939464
15,29,2.86473068640765,0.00600000000849832
15,30,3505.34825644048,0.0049999999901047
16,1,4415.89282199507,0.00800000000162981
16,2,428.319408475396,0.0100000000093132
16,3,243.992158163346,0.00699999999778811
16,4,1014.32366932332,0.0089999999909196
16,5,428.209173175563,0.00700000001234002
16,6,200.117323716954,0.00699999999778811
16,7,28.9347079523815,0.00699999999778811
16,8,658.045724986226,0.00500000000465661
16,9,98.0206894259923,0.00699999999778811
16,10,2.5091644485745,0.00800000000162981
16,11,561.930059774602,0.00600000000849832
16,12,940.933759164717,0.0089999999909196
16,13,104.974053529976,0.00699999999778811
16,14,47.3641085059613,0.00699999999778811
16,15,13.1384283729845,0.00700000001234002
16,16,780.952400193871,0.00699999999778811
16,17,26571.7415958043,0.00699999999778811
16,18,1541.18170900718,0.0059999999939464
16,19,604.0596213437,0.00800000000162981
16,20,539.366868211569,0.0059999999939464
16,21,217.983376032361,0.00700000001234002
16,22,0.37768303099938,0.0059999999939464
16,23,1380.17636062926,0.0059999999939464
16,24,596.272501210399,0.00700000001234002
16,25,1181.46596864533,0.00699999999778811
16,26,1758.89081198279,0.0049999999901047
16,27,54129.8770165644,0.00500000000465661
16,28,233.992155437712,0.00699999999778811
16,29,328.861493629242,0.00699999999778811
16,30,1459.70281842422,0.00500000000465661
17,1,620.513664868427,0.00699999999778811
17,2,352.207444062281,0.00800000000162981
17,3,155.753111736093,0.00500000000465661
17,4,1190.17528896467,0.0059999999939464
17,5,1162.06246362193,0.00699999999778811
17,6,2142.10680426556,0.00699999999778811
17,7,1070.48710112699,0.00500000000465661
17,8,537.055785475025,0.0059999999939464
17,9,3.48387522769204,0.00500000000465661
17,10,2232.84987072171,0.00500000000465661
17,11,698.542467966349,0.0049999999901047
17,12,3423.53836728149,0.00600000000849832
17,13,462.967643503301,0.00800000000162981
17,14,1.7086142333202,0.00699999999778811
17,15,1620.80889265642,0.00400000000081491
17,16,3810.44802013668,0.0059999999939464
17,17,20253.9469777384,0.00400000000081491
17,18,8236.81930083257,0.0059999999939464
17,19,92.1152701119032,0.00699999999778811
17,20,0.119459996167141,0.00400000000081491
17,21,138.489448644322,0.00400000000081491
17,22,3182.92995534801,0.00500000000465661
17,23,10.3294679993586,0.00699999999778811
17,24,190.228192663845,0.00600000000849832
17,25,1047.91582144888,0.00999999999476131
17,26,1908.97236403278,0.00699999999778811
17,27,70854.0424587626,0.00699999999778811
17,28,2261.520317261,0.00500000000465661
17,29,93.8144911562352,0.0059999999939464
17,30,109.069925892002,0.00500000000465661
18,1,102.221477816743,0.0059999999939464
18,2,0.689751674268659,0.00900000000547152
18,3,9.1011159729358,0.00500000000465661
18,4,743.572974682697,0.00999999999476131
18,5,1250.13786684462,0.00800000000162981
18,6,5.44148328997987,0.00699999999778811
18,7,22.8864641425914,0.00699999999778811
18,8,1075.81383480796,0.00699999999778811
18,9,0.0613892313852508,0.00800000000162981
18,10,403.753287558847,0.00800000000162981
18,11,66.1432886395683,0.00699999999778811
18,12,567.114475662263,0.00800000000162981
18,13,24.0738429921278,0.00699999999778811
18,14,1391.72253603764,0.00700000001234002
18,15,659.615485271428,0.0059999999939464
18,16,0.234619713431094,0.00699999999778811
18,17,34389.2665157751,0.00800000000162981
18,18,93.6598252601833,0.00800000000162981
18,19,10.1769784563882,0.0059999999939464
18,20,426.010273856104,0.00900000000547152
18,21,1125.17950272318,0.00699999999778811
18,22,405.027600284622,0.00699999999778811
18,23,2982.87066897202,0.0059999999939464
18,24,126.875272127058,0.00900000000547152
18,25,1.68319261706829,0.00699999999778811
18,26,968.310117377886,0.0089999999909196
18,27,69053.5680091006,0.00600000000849832
18,28,1058.23352404034,0.0059999999939464
18,29,834.662716478081,0.00800000000162981
18,30,4592.8965836962,0.00500000000465661
19,1,714.690060304899,0.00699999999778811
19,2,285.302903021623,0.00699999999778811
19,3,1691.04889147193,0.00800000000162981
19,4,16.1062398799629,0.00900000000547152
19,5,1567.60288834696,0.00699999999778811
19,6,1969.78291871885,0.00999999999476131
19,7,33.1834733781642,0.00600000000849832
19,8,24.6253102924439,0.0059999999939464
19,9,6.62140227876209,0.0059999999939464
19,10,910.170100642578,0.00400000000081491
19,11,617.364080699917,0.00800000000162981
19,12,717.09805769951,0.00900000000547152
19,13,1017.97886930005,0.00999999999476131
19,14,1065.50494575501,0.0059999999939464
19,15,1986.51548641664,0.00500000000465661
19,16,1199.59383668724,0.00800000000162981
19,17,23249.9980160757,0.00400000000081491
19,18,69.3725213294474,0.00699999999778811
19,19,16.891969670326,0.0120000000024447
19,20,992.301970909055,0.00699999999778811
19,21,707.051883292214,0.00500000000465661
19,22,786.728054797039,0.00800000000162981
19,23,26.3878019948931,0.0089999999909196
19,24,10.2714897402773,0.00800000000162981
19,25,0.530318972399406,0.00500000000465661
19,26,0.176232762037869,0.0059999999939464
19,27,57528.6848350167,0.00699999999778811
19,28,1759.73529735025,0.00800000000162981
19,29,2043.45399184996,0.00800000000162981
19,30,2057.91747921671,0.00500000000465661
20,1,616.90345874676,0.0059999999939464
20,2,3.00845839731878,0.00500000000465661
20,3,3819.48368075473,0.0059999999939464
20,4,1159.2057651418,0.00800000000162981
20,5,332.502747741061,0.00699999999778811
20,6,214.20311320729,0.00600000000849832
20,7,2229.33458002366,0.00699999999778811
20,8,433.799571824308,0.00699999999778811
20,9,912.162273139558,0.00500000000465661
20,10,2118.14004614342,0.00400000000081491
20,11,1236.1105649883,0.0059999999939464
20,12,1949.03686297803,0.00500000000465661
20,13,2178.80026267466,0.00699999999778811
20,14,156.517394648795,0.0059999999939464
20,15,0.00760587003177696,0.00700000001234002
20,16,2371.95073609788,0.0059999999939464
20,17,32735.3863381137,0.00400000000081491
20,18,119.008160872467,0.00699999999778811
20,19,0.165602352902029,0.00800000000162981
20,20,17930.7992162898,0.0059999999939464
20,21,52.6988718203051,0.0120000000024447
20,22,1942.3586789838,0.00500000000465661
20,23,7964.73565257009,0.0059999999939464
20,24,3518.15975013903,0.00800000000162981
20,25,3258.36086860429,0.00400000000081491
20,26,1049.6971978615,0.0059999999939464
20,27,20990.7955636798,0.00600000000849832
20,28,4543.78733370446,0.0049999999901047
20,29,6812.31371022626,0.00800000000162981
20,30,886.942473512896,0.00800000000162981
21,1,10.6499967382992,0.00699999999778811
21,2,614.760202814183,0.00900000000547152
21,3,535.008176840562,0.0059999999939464
21,4,2.96032684559887,0.00700000001234002
21,5,2597.95507992928,0.0079999999870779
21,6,657.083048632061,0.00800000000162981
21,7,24.6121010499811,0.0100000000093132
21,8,1392.97620309665,0.00400000000081491
21,9,907.138215095482,0.0079999999870779
21,10,2589.18853912696,0.00500000000465661
21,11,338.811988498968,0.00699999999778811
21,12,134.158576131345,0.010999999998603
21,13,516.884074892417,0.00800000000162981
21,14,1903.90763735391,0.00699999999778811
21,15,0.0797724501332406,0.00699999999778811
21,16,458.594450608773,0.00900000000547152
21,17,22053.7587014078,0.00500000000465661
21,18,15.2229917204273,0.00800000000162981
21,19,84.324278263503,0.0079999999870779
21,20,1279.99911093336,0.00900000000547152
21,21,1571.13587574275,0.0059999999939464
21,22,0.680699323996205,0.00600000000849832
21,23,3226.12337160488,0.00800000000162981
21,24,94.1806568590485,0.00999999999476131
21,25,135.993894446289,0.00900000000547152
21,26,1.48599480855816,0.0059999999939464
21,27,29761.4279052296,0.00500000000465661
21,28,2310.49972715134,0.00999999999476131
21,29,803.148938010845,0.00900000000547152
21,30,663.223528154244,0.0089999999909196
22,1,422.463416780284,0.00900000000547152
22,2,53.6287348606412,0.00800000000162981
22,3,1024.85082068159,0.00800000000162981
22,4,3.51244148139331,0.00699999999778811
22,5,2265.4835743191,0.00999999999476131
22,6,1283.59095708206,0.00700000001234002
22,7,246.484410718878,0.0049999999901047
22,8,241.833464308502,0.00600000000849832
22,9,1065.76591017375,0.0079999999870779
22,10,1554.86591939805,0.00700000001234002
22,11,61.1358119722329,0.00699999999778811
22,12,341.566574893705,0.0059999999939464
22,13,379.061229455885,0.00699999999778811
22,14,20.038599173133,0.00800000000162981
22,15,5.18829654544238,0.00500000000465661
22,16,1653.66993353294,0.00900000000547152
22,17,24383.4679791588,0.00400000000081491
22,18,981.56050211386,0.00699999999778811
22,19,440.904467571724,0.00800000000162981
22,20,707.662150391489,0.00900000000547152
22,21,766.85180195923,0.00699999999778811
22,22,492.25733396447,0.0059999999939464
22,23,1404.20706332208,0.0100000000093132
22,24,18.6008466172033,0.0089999999909196
22,25,112.483074258193,0.00800000000162981
22,26,0.958995945331399,0.00800000000162981
22,27,27034.8363980175,0.00600000000849832
22,28,980.39769156944,0.00699999999778811
22,29,962.049838492567,0.00699999999778811
22,30,1646.49339855623,0.00800000000162981
23,1,1276.24710905453,0.00800000000162981
23,2,367.958063741327,0.00800000000162981
23,3,1660.06789939104,0.00800000000162981
23,4,10.3987333788099,0.00999999999476131
23,5,407.461196007325,0.00800000000162981
23,6,1285.80078578127,0.00699999999778811
23,7,251.247177792308,0.00699999999778811
23,8,70.6726794673632,0.0059999999939464
23,9,22.2255329405672,0.00700000001234002
23,10,2603.73747605946,0.00800000000162981
23,11,225.34462453893,0.00699999999778811
23,12,2046.26105040058,0.00999999999476131
23,13,51.7270359390349,0.00900000000547152
23,14,932.84644611824,0.00699999999778811
23,15,2342.89678985021,0.0059999999939464
23,16,29.5327598434023,0.0100000000093132
23,17,14125.7569949615,0.00400000000081491
23,18,231.372151179776,0.0059999999939464
23,19,50.5942423077747,0.00800000000162981
23,20,7563.60070595193,0.00500000000465661
23,21,1586.57246394387,0.0089999999909196
23,22,211.328956882704,0.00699999999778811
23,23,4453.93178992131,0.00699999999778811
23,24,383.250107299606,0.00800000000162981
23,25,1850.23058954443,0.00600000000849832
23,26,1629.26446668167,0.00999999999476131
23,27,31371.2032026764,0.00900000000547152
23,28,2278.02778661147,0.00699999999778811
23,29,1132.9329287563,0.00800000000162981
23,30,1192.38685797236,0.00699999999778811
24,1,14696.5599852616,0.0059999999939464
24,2,2070.03081542229,0.00600000000849832
24,3,3317.38844988252,0.00999999999476131
24,4,1895.01522270037,0.00500000000465661
24,5,2526.69159901625,0.00800000000162981
24,6,3472.94638699448,0.00800000000162981
24,7,5140.34300768891,0.0059999999939464
24,8,27.3222234277288,0.00500000000465661
24,9,1739.73702137958,0.0059999999939464
24,10,3024.66252051173,0.0059999999939464
24,11,9.77045346728583,0.00500000000465661
24,12,18.9550358232117,0.00600000000849832
24,13,165.797474187942,0.0049999999901047
24,14,246.391142793105,0.00600000000849832
24,15,1369.80031858456,0.00400000000081491
24,16,6438.32044926187,0.00800000000162981
24,17,17403.9722062931,0.0049999999901047
24,18,8499.83312603588,0.00800000000162981
24,19,763.421796172254,0.0059999999939464
24,20,468.474564109785,0.00600000000849832
24,21,650.290047475383,0.0049999999901047
24,22,3924.08563543601,0.00500000000465661
24,23,977.162040169482,0.010999999998603
24,24,660.721702542194,0.00500000000465661
24,25,187.511814378281,0.0049999999901047
24,26,1744.14951935022,0.00699999999778811
24,27,28497.7358131839,0.00400000000081491
24,28,2326.59841434537,0.00800000000162981
24,29,28.0665406728766,0.00600000000849832
24,30,397.406279796067,0.0059999999939464
25,1,308.84304899415,0.00800000000162981
25,2,965.138456886567,0.00800000000162981
25,3,83.5587190482233,0.0059999999939464
25,4,183.139297232172,0.00699999999778811
25,5,499.874247996651,0.00600000000849832
25,6,831.248459281622,0.00699999999778811
25,7,1115.56462421847,0.0089999999909196
25,8,883.448501929538,0.00600000000849832
25,9,2574.02457824091,0.00400000000081491
25,10,55.7072147196829,0.0059999999939464
25,11,34.7549264623414,0.0059999999939464
25,12,964.190571929052,0.00500000000465661
25,13,2426.52085608414,0.0160000000032596
25,14,1097.61901133389,0.0059999999939464
25,15,580.705722840612,0.00500000000465661
25,16,277.102506681542,0.0130000000062864
25,17,23600.2946824355,0.00400000000081491
25,18,695.43059073153,0.00699999999778811
25,19,1348.32169758978,0.00699999999778811
25,20,529.294533848664,0.00699999999778811
25,21,153.867522955606,0.00699999999778811
25,22,2.59900241622353,0.00800000000162981
25,23,1191.2786843219,0.0049999999901047
25,24,1624.77185466643,0.00400000000081491
25,25,639.444836819638,0.00700000001234002
25,26,197.043407705746,0.0059999999939464
25,27,29681.0673165686,0.00400000000081491
25,28,93.2867295102902,0.00400000000081491
25,29,3076.56562257603,0.00699999999778811
25,30,1872.30469148165,0.0059999999939464
26,1,16.8328594204743,0.00500000000465661
26,2,306.193788355914,0.0059999999939464
26,3,2996.87683379503,0.00699999999778811
26,4,260.119722037074,0.0110000000131549
26,5,3157.7579474571,0.0079999999870779
26,6,2529.44078563341,0.00800000000162981
26,7,152.796769217265,0.00800000000162981
26,8,2079.20223530025,0.00900000000547152
26,9,946.831198288746,0.00400000000081491
26,10,1267.44989503243,0.0049999999901047
26,11,617.171822296712,0.00800000000162981
26,12,444.264837163429,0.00500000000465661
26,13,541.264187671425,0.00999999999476131
26,14,152.039488337603,0.00699999999778811
26,15,1678.14109921829,0.00700000001234002
26,16,604.376940759291,0.00999999999476131
26,17,17146.4586338498,0.00800000000162981
26,18,1.19008382528497,0.00800000000162981
26,19,50.0950232149081,0.00699999999778811
26,20,0.322796437843906,0.0059999999939464
26,21,14.5684938475159,0.00500000000465661
26,22,953.537475504799,0.00400000000081491
26,23,5056.41056414851,0.0059999999939464
26,24,285.768236824948,0.00600000000849832
26,25,2618.95324319664,0.00399999998626299
26,26,4.54750043838164,0.00700000001234002
26,27,47855.3760082299,0.0089999999909196
26,28,3079.0208803703,0.00500000000465661
26,29,2187.75084298728,0.00900000000547152
26,30,7417.76272153144,0.0059999999939464
27,1,0.238326521720656,0.00500000000465661
27,2,563.775362693132,0.00600000000849832
27,3,742.740545730862,0.00699999999778811
27,4,608.041365837135,0.0059999999939464
27,5,2349.92878600922,0.00699999999778811
27,6,0.9789946181572,0.00699999999778811
27,7,237.450065846353,0.00800000000162981
27,8,2264.78441176494,0.00500000000465661
27,9,843.88451353422,0.00800000000162981
27,10,675.395242241761,0.0059999999939464
27,11,756.521038402865,0.00800000000162981
27,12,703.376435662787,0.00600000000849832
27,13,717.36604684949,0.00699999999778811
27,14,0.0786664772566643,0.00800000000162981
27,15,3.28923971277672,0.00699999999778811
27,16,1240.44935761597,0.0089999999909196
27,17,16496.370243942,0.00600000000849832
27,18,1139.91051383424,0.0059999999939464
27,19,762.271470762565,0.00900000000547152
27,20,4119.5373116853,0.0059999999939464
27,21,1146.93596529782,0.00699999999778811
27,22,546.403469932853,0.00800000000162981
27,23,3777.55852508683,0.0049999999901047
27,24,470.051673181817,0.00600000000849832
27,25,76.9199729891847,0.00699999999778811
27,26,3294.15218887525,0.00800000000162981
27,27,24418.6408458836,0.00500000000465661
27,28,2075.28854048576,0.0089999999909196
27,29,3827.56102111428,0.00800000000162981
27,30,7820.23963277721,0.00600000000849832
28,1,49.501834586025,0.0089999999909196
28,2,107.421830492329,0.00699999999778811
28,3,1946.01139985522,0.00699999999778811
28,4,86.6558714277046,0.00600000000849832
28,5,2918.20593673364,0.00699999999778811
28,6,1549.65209186903,0.00400000000081491
28,7,161.685210794013,0.00900000000547152
28,8,3012.1285607365,0.00400000000081491
28,9,16.1037197102759,0.0049999999901047
28,10,0.707685366023823,0.00699999999778811
28,11,279.109765102051,0.00700000001234002
28,12,0.354377130495096,0.00699999999778811
28,13,64.6941957502417,0.0089999999909196
28,14,3423.98494792562,0.00699999999778811
28,15,2424.99770359308,0.00600000000849832
28,16,1258.60468369689,0.0059999999939464
28,17,18481.3914637715,0.00600000000849832
28,18,0.11075021827848,0.00800000000162981
28,19,0.163060270702972,0.00600000000849832
28,20,7900.47225796809,0.00699999999778811
28,21,1614.48995393989,0.0059999999939464
28,22,1102.80371513822,0.00800000000162981
28,23,2049.40437167213,0.00699999999778811
28,24,12.6505022925271,0.00600000000849832
28,25,1345.22100293657,0.0059999999939464
28,26,127.846576327945,0.00600000000849832
28,27,30161.3990877701,0.0059999999939464
28,28,3556.02697742757,0.00900000000547152
28,29,6582.01701615998,0.0049999999901047
28,30,3028.68386554821,0.0100000000093132
29,1,2195.42963381038,0.00800000000162981
29,2,225.147523269142,0.010999999998603
29,3,60.4289483897929,0.00699999999778811
29,4,49.4163885971277,0.00800000000162981
29,5,558.273116406026,0.00800000000162981
29,6,572.441276487926,0.0089999999909196
29,7,1098.69665578988,0.00600000000849832
29,8,34.2524542740412,0.00699999999778811
29,9,1136.41769287019,0.00800000000162981
29,10,466.746646343678,0.00800000000162981
29,11,653.506444733987,0.00699999999778811
29,12,4287.72549177584,0.00800000000162981
29,13,140.302268986124,0.0089999999909196
29,14,668.797823022017,0.00800000000162981
29,15,13.9550036536143,0.00500000000465661
29,16,633.037214776629,0.0120000000024447
29,17,11146.7907808349,0.0049999999901047
29,18,1773.61689649038,0.00600000000849832
29,19,837.717909857882,0.0089999999909196
29,20,1965.77691004176,0.00800000000162981
29,21,22.9202822556956,0.00699999999778811
29,22,0.919973998248821,0.00500000000465661
29,23,1099.04716042409,0.0059999999939464
29,24,131.826914679177,0.00600000000849832
29,25,161.348549966502,0.0059999999939464
29,26,0.853764173637046,0.00800000000162981
29,27,55027.646075959,0.00800000000162981
29,28,423.830784805037,0.00800000000162981
29,29,362.915292119828,0.00800000000162981
29,30,2342.85935171816,0.0059999999939464
30,1,297.387075646641,0.00699999999778811
30,2,411.587755939879,0.010999999998603
30,3,1311.99441093389,0.00699999999778811
30,4,1190.46749315656,0.0100000000093132
30,5,1690.11115809673,0.0049999999901047
30,6,2147.77231914686,0.00600000000849832
30,7,31.337815755161,0.00800000000162981
30,8,226.328096054616,0.0059999999939464
30,9,17.6592667195156,0.00500000000465661
30,10,1163.60672661876,0.00699999999778811
30,11,25.8248134694286,0.00400000000081491
30,12,293.688785761319,0.00699999999778811
30,13,145.812998338306,0.00999999999476131
30,14,176.43361712563,0.00800000000162981
30,15,1910.34932532054,0.00600000000849832
30,16,899.929279123644,0.00699999999778811
30,17,17058.8089994125,0.00400000000081491
30,18,48.1240797318061,0.0079999999870779
30,19,2228.09780152229,0.00700000001234002
30,20,1800.78119055914,0.00800000000162981
30,21,1512.69601734707,0.0089999999909196
30,22,1133.43711740369,0.00500000000465661
30,23,49.9965917175958,0.0059999999939464
30,24,211.98687887305,0.00500000000465661
30,25,188.107016096784,0.0059999999939464
30,26,64.5343154661359,0.00500000000465661
30,27,32173.3041835836,0.00500000000465661
30,28,1634.66000801281,0.00800000000162981
30,29,831.006511535739,0.0079999999870779
30,30,929.006862932649,0.00700000001234002
