App - AnExplorer
Scenario - explore_files
Length - 5sec
Measure - EDRDistance
Before Version - 419112b
After Version - 53086f3


"Before.Trace.ID1","Before.Trace.ID2","Difference","Runtime"
1,2,1748,0.358000000000175
1,3,1742,0.248999999999796
1,4,1745,0.253999999999905
1,5,1748,0.252999999999702
1,6,1748,0.253000000000611
1,7,1748,0.251000000000204
1,8,1748,0.252999999999702
1,9,1747,0.252999999999702
1,10,1748,0.253000000000611
1,11,1748,0.251999999999498
1,12,1749,0.251000000000204
1,13,1746,0.253999999999905
1,14,1747,0.251999999999498
1,15,1745,0.253000000000611
1,16,1746,0.252999999999702
1,17,1748,0.251000000000204
1,18,1749,0.253999999999905
1,19,1745,0.252999999999702
1,20,1748,0.252999999999702
1,21,1749,0.25
1,22,1748,0.252999999999702
1,23,1749,0.253000000000611
1,24,1749,0.252999999999702
1,25,1746,0.253999999999905
1,26,1749,0.251000000000204
1,27,1747,0.252999999999702
1,28,1745,0.252000000000407
1,29,1742,0.252999999999702
1,30,1749,0.253999999999905
2,3,1744,0.251000000000204
2,4,1746,0.252999999999702
2,5,1747,0.253000000000611
2,6,1745,0.252999999999702
2,7,1748,0.251000000000204
2,8,1748,0.251999999999498
2,9,1749,0.253999999999905
2,10,1747,0.253000000000611
2,11,1749,0.252999999999702
2,12,1749,0.251999999999498
2,13,1748,0.253000000000611
2,14,1747,0.251999999999498
2,15,1747,0.253000000000611
2,16,1746,0.253999999999905
2,17,1748,0.251000000000204
2,18,1749,0.252999999999702
2,19,1748,0.253999999999905
2,20,1747,0.252999999999702
2,21,1746,0.251000000000204
2,22,1743,0.252999999999702
2,23,1748,0.253999999999905
2,24,1748,0.252000000000407
2,25,1747,0.252999999999702
2,26,1748,0.252000000000407
2,27,1745,0.252999999999702
2,28,1747,0.252000000000407
2,29,1740,0.252999999999702
2,30,1749,0.252999999999702
3,4,1737,0.252000000000407
3,5,1747,0.252999999999702
3,6,1742,0.253000000000611
3,7,1747,0.252000000000407
3,8,1748,0.25
3,9,1748,0.252999999999702
3,10,1745,0.252999999999702
3,11,1748,0.253000000000611
3,12,1749,0.252999999999702
3,13,1749,0.252000000000407
3,14,1747,0.252999999999702
3,15,1748,0.251000000000204
3,16,1745,0.252999999999702
3,17,1749,0.252999999999702
3,18,1749,0.251000000000204
3,19,1749,0.252999999999702
3,20,1744,0.253000000000611
3,21,1749,0.252999999999702
3,22,1748,0.251000000000204
3,23,1749,0.252999999999702
3,24,1749,0.252999999999702
3,25,1749,0.253000000000611
3,26,1748,0.252999999999702
3,27,1749,0.251000000000204
3,28,1746,0.252999999999702
3,29,1744,0.251999999999498
3,30,1749,0.254000000000815
4,5,1748,0.252999999999702
4,6,1741,0.251000000000204
4,7,1746,0.252999999999702
4,8,1748,0.252999999999702
4,9,1749,0.253999999999905
4,10,1748,0.25
4,11,1747,0.253000000000611
4,12,1749,0.251999999999498
4,13,1749,0.253000000000611
4,14,1748,0.253000000000611
4,15,1749,0.251000000000204
4,16,1743,0.252999999999702
4,17,1747,0.252999999999702
4,18,1749,0.252999999999702
4,19,1740,0.253000000000611
4,20,1744,0.251999999999498
4,21,1748,0.253000000000611
4,22,1749,0.252999999999702
4,23,1749,0.252999999999702
4,24,1749,0.25
4,25,1746,0.252999999999702
4,26,1747,0.252000000000407
4,27,1747,0.252999999999702
4,28,1747,0.253999999999905
4,29,1742,0.251000000000204
4,30,1748,0.252999999999702
5,6,1748,0.252000000000407
5,7,1748,0.252999999999702
5,8,1749,0.253000000000611
5,9,1748,0.250999999999294
5,10,1747,0.253000000000611
5,11,1749,0.253999999999905
5,12,1749,0.252999999999702
5,13,1746,0.251000000000204
5,14,1749,0.252999999999702
5,15,1739,0.253999999999905
5,16,1744,0.253000000000611
5,17,1749,0.252999999999702
5,18,1748,0.250999999999294
5,19,1743,0.253000000000611
5,20,1748,0.251999999999498
5,21,1749,0.253999999999905
5,22,1743,0.253000000000611
5,23,1749,0.251000000000204
5,24,1749,0.253000000000611
5,25,1746,0.252999999999702
5,26,1741,0.252000000000407
5,27,1745,0.25
5,28,1747,0.253000000000611
5,29,1747,0.252999999999702
5,30,1749,0.253999999999905
6,7,1741,0.252000000000407
6,8,1748,0.251999999999498
6,9,1749,0.253000000000611
6,10,1748,0.251999999999498
6,11,1748,0.252999999999702
6,12,1749,0.253000000000611
6,13,1749,0.251000000000204
6,14,1749,0.252999999999702
6,15,1749,0.251999999999498
6,16,1744,0.252999999999702
6,17,1749,0.251000000000204
6,18,1744,0.253000000000611
6,19,1747,0.252999999999702
6,20,1747,0.252999999999702
6,21,1747,0.253999999999905
6,22,1749,0.251000000000204
6,23,1749,0.252999999999702
6,24,1748,0.253000000000611
6,25,1748,0.251999999999498
6,26,1748,0.253999999999905
6,27,1748,0.251000000000204
6,28,1747,0.253000000000611
6,29,1744,0.252999999999702
6,30,1749,0.253999999999905
7,8,1748,0.25
7,9,1749,0.253999999999905
7,10,1749,0.252999999999702
7,11,1749,0.252000000000407
7,12,1749,0.252999999999702
7,13,1749,0.251000000000204
7,14,1748,0.252999999999702
7,15,1746,0.252000000000407
7,16,1744,0.252999999999702
7,17,1749,0.253999999999905
7,18,1749,0.251000000000204
7,19,1746,0.252999999999702
7,20,1747,0.253000000000611
7,21,1746,0.252999999999702
7,22,1748,0.25
7,23,1747,0.252000000000407
7,24,1747,0.252000000000407
7,25,1749,0.253999999999905
7,26,1748,0.252999999999702
7,27,1749,0.252000000000407
7,28,1748,0.252999999999702
7,29,1747,0.251999999999498
7,30,1749,0.254000000000815
8,9,1746,0.252999999999702
8,10,1747,0.251999999999498
8,11,1744,0.253000000000611
8,12,1749,0.252999999999702
8,13,1745,0.252999999999702
8,14,1749,0.25
8,15,1743,0.253000000000611
8,16,1749,0.252999999999702
8,17,1746,0.252999999999702
8,18,1749,0.253999999999905
8,19,1749,0.252000000000407
8,20,1747,0.252999999999702
8,21,1749,0.251000000000204
8,22,1749,0.252999999999702
8,23,1749,0.253000000000611
8,24,1749,0.250999999999294
8,25,1747,0.253000000000611
8,26,1745,0.252999999999702
8,27,1748,0.252999999999702
8,28,1749,0.251000000000204
8,29,1748,0.252999999999702
8,30,1748,0.253000000000611
9,10,1747,0.252999999999702
9,11,1749,0.253999999999905
9,12,1749,0.251000000000204
9,13,1748,0.252999999999702
9,14,1748,0.251000000000204
9,15,1746,0.252999999999702
9,16,1748,0.254000000000815
9,17,1748,0.250999999999294
9,18,1748,0.253000000000611
9,19,1749,0.252999999999702
9,20,1747,0.251999999999498
9,21,1749,0.25
9,22,1747,0.252999999999702
9,23,1748,0.253000000000611
9,24,1749,0.252999999999702
9,25,1748,0.252000000000407
9,26,1747,0.252000000000407
9,27,1747,0.252999999999702
9,28,1748,0.251000000000204
9,29,1747,0.252999999999702
9,30,1749,0.253999999999905
10,11,1741,0.251000000000204
10,12,1748,0.253999999999905
10,13,1748,0.253999999999905
10,14,1747,0.253000000000611
10,15,1747,0.251000000000204
10,16,1747,0.252999999999702
10,17,1743,0.252999999999702
10,18,1748,0.253000000000611
10,19,1749,0.252999999999702
10,20,1748,0.251999999999498
10,21,1749,0.253000000000611
10,22,1749,0.251000000000204
10,23,1748,0.253000000000611
10,24,1748,0.253999999999905
10,25,1743,0.251999999999498
10,26,1745,0.253000000000611
10,27,1747,0.252999999999702
10,28,1746,0.253999999999905
10,29,1747,0.25
10,30,1749,0.252999999999702
11,12,1749,0.253999999999905
11,13,1740,0.253000000000611
11,14,1746,0.251999999999498
11,15,1749,0.252000000000407
11,16,1748,0.252999999999702
11,17,1749,0.251000000000204
11,18,1747,0.253999999999905
11,19,1749,0.252999999999702
11,20,1747,0.252000000000407
11,21,1748,0.252999999999702
11,22,1747,0.252999999999702
11,23,1749,0.253000000000611
11,24,1748,0.25
11,25,1742,0.252999999999702
11,26,1745,0.253999999999905
11,27,1749,0.253000000000611
11,28,1744,0.252999999999702
11,29,1748,0.251999999999498
11,30,1748,0.253000000000611
12,13,1749,0.251999999999498
12,14,1749,0.253000000000611
12,15,1749,0.253999999999905
12,16,1749,0.251999999999498
12,17,1748,0.253000000000611
12,18,1749,0.252999999999702
12,19,1749,0.252999999999702
12,20,1749,0.25
12,21,1749,0.252999999999702
12,22,1749,0.252999999999702
12,23,1749,0.254000000000815
12,24,1749,0.252999999999702
12,25,1749,0.251000000000204
12,26,1749,0.252999999999702
12,27,1748,0.252000000000407
12,28,1749,0.252000000000407
12,29,1749,0.252999999999702
12,30,1748,0.252000000000407
13,14,1746,0.253999999999905
13,15,1746,0.252999999999702
13,16,1749,0.252999999999702
13,17,1747,0.251000000000204
13,18,1747,0.252999999999702
13,19,1749,0.253000000000611
13,20,1748,0.252999999999702
13,21,1746,0.252999999999702
13,22,1749,0.252000000000407
13,23,1747,0.252999999999702
13,24,1742,0.252000000000407
13,25,1746,0.252999999999702
13,26,1747,0.252999999999702
13,27,1747,0.252000000000407
13,28,1741,0.252999999999702
13,29,1748,0.252999999999702
13,30,1749,0.253000000000611
14,15,1749,0.25
14,16,1747,0.252999999999702
14,17,1748,0.252999999999702
14,18,1743,0.252999999999702
14,19,1746,0.253999999999905
14,20,1747,0.251000000000204
14,21,1749,0.253999999999905
14,22,1749,0.252000000000407
14,23,1744,0.253999999999905
14,24,1748,0.251999999999498
14,25,1746,0.251000000000204
14,26,1747,0.252999999999702
14,27,1748,0.252999999999702
14,28,1747,0.254000000000815
14,29,1747,0.25
14,30,1747,0.252999999999702
15,16,1748,0.253999999999905
15,17,1748,0.252999999999702
15,18,1749,0.253000000000611
15,19,1746,0.251999999999498
15,20,1746,0.253000000000611
15,21,1749,0.251999999999498
15,22,1748,0.252999999999702
15,23,1749,0.253000000000611
15,24,1749,0.251000000000204
15,25,1746,0.253999999999905
15,26,1749,0.252999999999702
15,27,1749,0.251999999999498
15,28,1746,0.251000000000204
15,29,1748,0.252999999999702
15,30,1749,0.253000000000611
16,17,1747,0.252000000000407
16,18,1747,0.252999999999702
16,19,1746,0.252000000000407
16,20,1742,0.252999999999702
16,21,1745,0.252000000000407
16,22,1748,0.253999999999905
16,23,1749,0.252999999999702
16,24,1748,0.251000000000204
16,25,1748,0.253999999999905
16,26,1746,0.252999999999702
16,27,1746,0.253000000000611
16,28,1743,0.25
16,29,1743,0.253999999999905
16,30,1749,0.252999999999702
17,18,1749,0.252999999999702
17,19,1749,0.253000000000611
17,20,1749,0.251999999999498
17,21,1749,0.253000000000611
17,22,1748,0.251999999999498
17,23,1749,0.252999999999702
17,24,1748,0.253000000000611
17,25,1747,0.251999999999498
17,26,1746,0.253000000000611
17,27,1748,0.253000000000611
17,28,1747,0.252999999999702
17,29,1747,0.25
17,30,1749,0.252999999999702
18,19,1748,0.252999999999702
18,20,1749,0.253000000000611
18,21,1744,0.253999999999905
18,22,1748,0.251000000000204
18,23,1742,0.253000000000611
18,24,1748,0.251999999999498
18,25,1748,0.252000000000407
18,26,1749,0.253999999999905
18,27,1748,0.251000000000204
18,28,1746,0.252999999999702
18,29,1749,0.252999999999702
18,30,1749,0.253000000000611
19,20,1747,0.25
19,21,1748,0.252999999999702
19,22,1749,0.252999999999702
19,23,1749,0.253000000000611
19,24,1749,0.252999999999702
19,25,1748,0.250999999999294
19,26,1740,0.252000000000407
19,27,1747,0.251999999999498
19,28,1747,0.253000000000611
19,29,1749,0.252999999999702
19,30,1749,0.251999999999498
20,21,1749,0.254000000000815
20,22,1748,0.252999999999702
20,23,1749,0.252999999999702
20,24,1749,0.25
20,25,1749,0.253000000000611
20,26,1748,0.252999999999702
20,27,1745,0.252999999999702
20,28,1740,0.252000000000407
20,29,1743,0.250999999999294
20,30,1749,0.252999999999702
21,22,1749,0.252000000000407
21,23,1746,0.253999999999905
21,24,1744,0.252999999999702
21,25,1749,0.252000000000407
21,26,1749,0.253999999999905
21,27,1749,0.253999999999905
21,28,1749,0.253000000000611
21,29,1749,0.25
21,30,1749,0.252999999999702
22,23,1749,0.252999999999702
22,24,1749,0.252999999999702
22,25,1746,0.253999999999905
22,26,1749,0.251000000000204
22,27,1749,0.253999999999905
22,28,1748,0.251000000000204
22,29,1749,0.252999999999702
22,30,1749,0.253000000000611
23,24,1742,0.251000000000204
23,25,1749,0.253000000000611
23,26,1748,0.252999999999702
23,27,1748,0.251999999999498
23,28,1748,0.251000000000204
23,29,1749,0.252999999999702
23,30,1749,0.252000000000407
24,25,1749,0.252999999999702
24,26,1749,0.251999999999498
24,27,1749,0.251000000000204
24,28,1749,0.252999999999702
24,29,1749,0.252000000000407
24,30,1749,0.252999999999702
25,26,1741,0.253999999999905
25,27,1746,0.252000000000407
25,28,1748,0.253999999999905
25,29,1743,0.252999999999702
25,30,1746,0.252999999999702
26,27,1747,0.25
26,28,1747,0.253000000000611
26,29,1746,0.252999999999702
26,30,1747,0.252999999999702
27,28,1745,0.253000000000611
27,29,1737,0.250999999999294
27,30,1749,0.253000000000611
28,29,1743,0.251999999999498
28,30,1749,0.252999999999702
29,30,1748,0.253000000000611


"After.Trace.ID","Before.Trace.ID","Difference","Runtime"
1,1,1743,0.222999999999956
1,2,1747,0.254000000000815
1,3,1749,0.253999999999905
1,4,1747,0.252999999999702
1,5,1744,0.248999999999796
1,6,1748,0.253000000000611
1,7,1747,0.253999999999905
1,8,1744,0.252999999999702
1,9,1747,0.251000000000204
1,10,1749,0.252999999999702
1,11,1746,0.252999999999702
1,12,1748,0.251000000000204
1,13,1745,0.253999999999905
1,14,1747,0.251000000000204
1,15,1745,0.252999999999702
1,16,1748,0.252999999999702
1,17,1749,0.253000000000611
1,18,1748,0.252999999999702
1,19,1748,0.25
1,20,1748,0.253999999999905
1,21,1749,0.253000000000611
1,22,1746,0.252999999999702
1,23,1749,0.250999999999294
1,24,1749,0.253000000000611
1,25,1748,0.252999999999702
1,26,1744,0.251000000000204
1,27,1747,0.253999999999905
1,28,1740,0.251000000000204
1,29,1747,0.253999999999905
1,30,1749,0.252999999999702
2,1,1748,0.253000000000611
2,2,1745,0.252999999999702
2,3,1748,0.25
2,4,1747,0.252999999999702
2,5,1745,0.252999999999702
2,6,1747,0.253000000000611
2,7,1748,0.251000000000204
2,8,1749,0.252000000000407
2,9,1747,0.252999999999702
2,10,1747,0.251000000000204
2,11,1749,0.252999999999702
2,12,1749,0.252000000000407
2,13,1749,0.252999999999702
2,14,1745,0.253999999999905
2,15,1747,0.252999999999702
2,16,1748,0.253000000000611
2,17,1744,0.25
2,18,1746,0.252999999999702
2,19,1748,0.253999999999905
2,20,1748,0.253000000000611
2,21,1749,0.251999999999498
2,22,1748,0.251999999999498
2,23,1747,0.254000000000815
2,24,1749,0.250999999999294
2,25,1746,0.252000000000407
2,26,1744,0.250999999999294
2,27,1742,0.253000000000611
2,28,1747,0.252999999999702
2,29,1744,0.252999999999702
2,30,1749,0.252999999999702
3,1,1748,0.25
3,2,1747,0.252000000000407
3,3,1749,0.252999999999702
3,4,1745,0.252999999999702
3,5,1749,0.252000000000407
3,6,1749,0.252999999999702
3,7,1749,0.252999999999702
3,8,1748,0.251000000000204
3,9,1747,0.252999999999702
3,10,1749,0.252000000000407
3,11,1749,0.252999999999702
3,12,1749,0.253999999999905
3,13,1749,0.253000000000611
3,14,1749,0.252999999999702
3,15,1748,0.25
3,16,1749,0.252999999999702
3,17,1749,0.252000000000407
3,18,1749,0.252000000000407
3,19,1748,0.251000000000204
3,20,1748,0.252999999999702
3,21,1748,0.253999999999905
3,22,1749,0.251000000000204
3,23,1749,0.252999999999702
3,24,1749,0.252000000000407
3,25,1748,0.252999999999702
3,26,1749,0.253999999999905
3,27,1748,0.252999999999702
3,28,1749,0.253000000000611
3,29,1749,0.25
3,30,1746,0.252999999999702
4,1,1749,0.252999999999702
4,2,1748,0.253000000000611
4,3,1749,0.251999999999498
4,4,1749,0.253000000000611
4,5,1748,0.253000000000611
4,6,1749,0.251999999999498
4,7,1749,0.253000000000611
4,8,1749,0.250999999999294
4,9,1748,0.252999999999702
4,10,1749,0.253000000000611
4,11,1744,0.252999999999702
4,12,1747,0.252000000000407
4,13,1748,0.249000000000706
4,14,1748,0.253000000000611
4,15,1747,0.252999999999702
4,16,1749,0.252999999999702
4,17,1748,0.251000000000204
4,18,1749,0.252999999999702
4,19,1749,0.253000000000611
4,20,1749,0.250999999999294
4,21,1749,0.253000000000611
4,22,1749,0.251000000000204
4,23,1749,0.253999999999905
4,24,1749,0.252000000000407
4,25,1749,0.252999999999702
4,26,1749,0.252999999999702
4,27,1748,0.25
4,28,1749,0.253999999999905
4,29,1749,0.252000000000407
4,30,1748,0.252999999999702
5,1,1749,0.252000000000407
5,2,1749,0.252999999999702
5,3,1749,0.252999999999702
5,4,1749,0.251000000000204
5,5,1749,0.252999999999702
5,6,1749,0.251000000000204
5,7,1749,0.251999999999498
5,8,1748,0.252000000000407
5,9,1748,0.253000000000611
5,10,1749,0.252999999999702
5,11,1746,0.248999999999796
5,12,1746,0.252999999999702
5,13,1749,0.253999999999905
5,14,1749,0.253000000000611
5,15,1749,0.251999999999498
5,16,1749,0.253000000000611
5,17,1748,0.252999999999702
5,18,1749,0.251999999999498
5,19,1749,0.253000000000611
5,20,1749,0.250999999999294
5,21,1749,0.253000000000611
5,22,1745,0.252999999999702
5,23,1749,0.252999999999702
5,24,1749,0.253000000000611
5,25,1749,0.25
5,26,1748,0.251999999999498
5,27,1748,0.252999999999702
5,28,1749,0.252000000000407
5,29,1749,0.251000000000204
5,30,1749,0.252999999999702
6,1,1749,0.252999999999702
6,2,1749,0.252000000000407
6,3,1749,0.252999999999702
6,4,1749,0.252000000000407
6,5,1749,0.252999999999702
6,6,1749,0.252999999999702
6,7,1749,0.253000000000611
6,8,1749,0.253000000000611
6,9,1749,0.25
6,10,1749,0.252999999999702
6,11,1749,0.252999999999702
6,12,1746,0.253999999999905
6,13,1749,0.251000000000204
6,14,1749,0.253000000000611
6,15,1748,0.253999999999905
6,16,1749,0.250999999999294
6,17,1746,0.253000000000611
6,18,1749,0.251999999999498
6,19,1749,0.253000000000611
6,20,1749,0.252999999999702
6,21,1749,0.252999999999702
6,22,1748,0.253000000000611
6,23,1749,0.25
6,24,1749,0.253999999999905
6,25,1749,0.252999999999702
6,26,1747,0.252999999999702
6,27,1749,0.251000000000204
6,28,1749,0.253999999999905
6,29,1748,0.253000000000611
6,30,1748,0.251999999999498
7,1,1749,0.252999999999702
7,2,1742,0.252000000000407
7,3,1743,0.252999999999702
7,4,1746,0.253000000000611
7,5,1747,0.252999999999702
7,6,1745,0.252999999999702
7,7,1742,0.25
7,8,1748,0.253000000000611
7,9,1749,0.252999999999702
7,10,1743,0.252999999999702
7,11,1749,0.252000000000407
7,12,1749,0.251999999999498
7,13,1749,0.252000000000407
7,14,1747,0.251000000000204
7,15,1749,0.252999999999702
7,16,1745,0.251000000000204
7,17,1749,0.253999999999905
7,18,1749,0.252999999999702
7,19,1742,0.252999999999702
7,20,1748,0.253000000000611
7,21,1749,0.25
7,22,1748,0.252999999999702
7,23,1748,0.252999999999702
7,24,1748,0.253000000000611
7,25,1748,0.252999999999702
7,26,1746,0.252999999999702
7,27,1745,0.253000000000611
7,28,1746,0.251999999999498
7,29,1749,0.252000000000407
7,30,1749,0.251999999999498
8,1,1748,0.253999999999905
8,2,1743,0.253000000000611
8,3,1744,0.251999999999498
8,4,1744,0.252999999999702
8,5,1746,0.25
8,6,1748,0.253000000000611
8,7,1749,0.252999999999702
8,8,1747,0.252999999999702
8,9,1748,0.252000000000407
8,10,1747,0.252999999999702
8,11,1747,0.253000000000611
8,12,1749,0.251999999999498
8,13,1749,0.253000000000611
8,14,1747,0.251999999999498
8,15,1745,0.252999999999702
8,16,1748,0.253999999999905
8,17,1748,0.253000000000611
8,18,1749,0.251999999999498
8,19,1749,0.25
8,20,1746,0.253000000000611
8,21,1749,0.252999999999702
8,22,1749,0.252999999999702
8,23,1749,0.251000000000204
8,24,1749,0.252999999999702
8,25,1745,0.253000000000611
8,26,1743,0.251000000000204
8,27,1746,0.252999999999702
8,28,1746,0.251999999999498
8,29,1746,0.253000000000611
8,30,1749,0.251999999999498
9,1,1745,0.252999999999702
9,2,1749,0.254000000000815
9,3,1746,0.25
9,4,1747,0.251999999999498
9,5,1747,0.253999999999905
9,6,1749,0.252000000000407
9,7,1749,0.251999999999498
9,8,1744,0.253000000000611
9,9,1743,0.252999999999702
9,10,1744,0.252000000000407
9,11,1746,0.252999999999702
9,12,1749,0.251000000000204
9,13,1749,0.253999999999905
9,14,1746,0.252999999999702
9,15,1748,0.252999999999702
9,16,1749,0.253999999999905
9,17,1745,0.249000000000706
9,18,1749,0.252999999999702
9,19,1747,0.252999999999702
9,20,1749,0.252999999999702
9,21,1749,0.252000000000407
9,22,1748,0.252999999999702
9,23,1749,0.253999999999905
9,24,1749,0.251000000000204
9,25,1743,0.252000000000407
9,26,1745,0.251000000000204
9,27,1743,0.253999999999905
9,28,1747,0.253000000000611
9,29,1746,0.252999999999702
9,30,1749,0.252999999999702
10,1,1746,0.25
10,2,1743,0.252999999999702
10,3,1742,0.253000000000611
10,4,1737,0.252999999999702
10,5,1748,0.252000000000407
10,6,1747,0.252000000000407
10,7,1743,0.252999999999702
10,8,1748,0.252000000000407
10,9,1749,0.252999999999702
10,10,1748,0.252000000000407
10,11,1749,0.252999999999702
10,12,1749,0.253999999999905
10,13,1747,0.251999999999498
10,14,1749,0.253999999999905
10,15,1748,0.251000000000204
10,16,1748,0.253000000000611
10,17,1749,0.252999999999702
10,18,1749,0.252999999999702
10,19,1743,0.252000000000407
10,20,1739,0.252999999999702
10,21,1749,0.252999999999702
10,22,1748,0.252000000000407
10,23,1748,0.253999999999905
10,24,1748,0.251000000000204
10,25,1748,0.252999999999702
10,26,1746,0.252999999999702
10,27,1746,0.253000000000611
10,28,1744,0.253000000000611
10,29,1746,0.25
10,30,1749,0.252999999999702
11,1,1746,0.252999999999702
11,2,1746,0.253999999999905
11,3,1742,0.252000000000407
11,4,1738,0.252999999999702
11,5,1749,0.253000000000611
11,6,1747,0.251999999999498
11,7,1743,0.253000000000611
11,8,1749,0.250999999999294
11,9,1746,0.253999999999905
11,10,1749,0.253000000000611
11,11,1748,0.252999999999702
11,12,1749,0.252999999999702
11,13,1749,0.25
11,14,1744,0.253000000000611
11,15,1747,0.252999999999702
11,16,1735,0.252999999999702
11,17,1748,0.252000000000407
11,18,1746,0.251999999999498
11,19,1745,0.253000000000611
11,20,1749,0.250999999999294
11,21,1745,0.253000000000611
11,22,1749,0.250999999999294
11,23,1749,0.253000000000611
11,24,1749,0.252999999999702
11,25,1745,0.252999999999702
11,26,1748,0.252999999999702
11,27,1746,0.248999999999796
11,28,1747,0.253000000000611
11,29,1741,0.253999999999905
11,30,1748,0.252999999999702
12,1,1745,0.251000000000204
12,2,1746,0.253999999999905
12,3,1745,0.252999999999702
12,4,1747,0.251000000000204
12,5,1746,0.252999999999702
12,6,1746,0.252000000000407
12,7,1749,0.252999999999702
12,8,1747,0.253000000000611
12,9,1748,0.252999999999702
12,10,1749,0.252999999999702
12,11,1749,0.25
12,12,1749,0.253999999999905
12,13,1749,0.252000000000407
12,14,1748,0.252999999999702
12,15,1746,0.251000000000204
12,16,1749,0.253999999999905
12,17,1749,0.252999999999702
12,18,1748,0.251000000000204
12,19,1749,0.252999999999702
12,20,1745,0.252000000000407
12,21,1749,0.252999999999702
12,22,1749,0.253999999999905
12,23,1749,0.253000000000611
12,24,1749,0.252999999999702
12,25,1748,0.248999999999796
12,26,1748,0.252999999999702
12,27,1745,0.253000000000611
12,28,1746,0.252999999999702
12,29,1747,0.252000000000407
12,30,1749,0.252999999999702
13,1,1747,0.252999999999702
13,2,1747,0.251000000000204
13,3,1741,0.252999999999702
13,4,1745,0.251000000000204
13,5,1748,0.252999999999702
13,6,1748,0.253000000000611
13,7,1749,0.252999999999702
13,8,1745,0.252999999999702
13,9,1748,0.248999999999796
13,10,1746,0.253000000000611
13,11,1746,0.252999999999702
13,12,1749,0.252999999999702
13,13,1746,0.252000000000407
13,14,1747,0.252999999999702
13,15,1746,0.252999999999702
13,16,1749,0.251000000000204
13,17,1745,0.252999999999702
13,18,1748,0.251000000000204
13,19,1747,0.252999999999702
13,20,1748,0.252999999999702
13,21,1749,0.254000000000815
13,22,1748,0.252999999999702
13,23,1749,0.25
13,24,1749,0.252999999999702
13,25,1738,0.253000000000611
13,26,1742,0.252999999999702
13,27,1746,0.251999999999498
13,28,1747,0.253000000000611
13,29,1748,0.253999999999905
13,30,1749,0.251000000000204
14,1,1744,0.252999999999702
14,2,1747,0.252999999999702
14,3,1747,0.252000000000407
14,4,1744,0.251999999999498
14,5,1743,0.252999999999702
14,6,1749,0.254000000000815
14,7,1748,0.25
14,8,1747,0.252999999999702
14,9,1748,0.251999999999498
14,10,1748,0.252999999999702
14,11,1745,0.251000000000204
14,12,1749,0.252999999999702
14,13,1749,0.253000000000611
14,14,1749,0.250999999999294
14,15,1744,0.253999999999905
14,16,1748,0.252000000000407
14,17,1749,0.252999999999702
14,18,1749,0.252000000000407
14,19,1747,0.252999999999702
14,20,1745,0.252999999999702
14,21,1746,0.25
14,22,1749,0.253000000000611
14,23,1747,0.252000000000407
14,24,1749,0.252999999999702
14,25,1745,0.252000000000407
14,26,1743,0.251999999999498
14,27,1746,0.253000000000611
14,28,1738,0.251999999999498
14,29,1747,0.253000000000611
14,30,1749,0.251999999999498
15,1,1737,0.253999999999905
15,2,1745,0.253999999999905
15,3,1749,0.253000000000611
15,4,1749,0.252999999999702
15,5,1749,0.25
15,6,1748,0.252999999999702
15,7,1749,0.253999999999905
15,8,1749,0.252000000000407
15,9,1749,0.252000000000407
15,10,1749,0.251999999999498
15,11,1749,0.252999999999702
15,12,1749,0.251000000000204
15,13,1744,0.252000000000407
15,14,1743,0.251000000000204
15,15,1748,0.253999999999905
15,16,1748,0.253000000000611
15,17,1749,0.252999999999702
15,18,1748,0.252999999999702
15,19,1749,0.25
15,20,1748,0.253999999999905
15,21,1742,0.253000000000611
15,22,1749,0.252999999999702
15,23,1742,0.251999999999498
15,24,1748,0.254000000000815
15,25,1747,0.251999999999498
15,26,1748,0.251999999999498
15,27,1749,0.252000000000407
15,28,1749,0.251000000000204
15,29,1748,0.252999999999702
15,30,1749,0.252999999999702
16,1,1749,0.253000000000611
16,2,1748,0.253999999999905
16,3,1749,0.25
16,4,1749,0.252999999999702
16,5,1749,0.252000000000407
16,6,1749,0.252999999999702
16,7,1748,0.251999999999498
16,8,1749,0.253000000000611
16,9,1749,0.253999999999905
16,10,1749,0.251000000000204
16,11,1749,0.253999999999905
16,12,1749,0.251999999999498
16,13,1744,0.253000000000611
16,14,1746,0.252999999999702
16,15,1749,0.252999999999702
16,16,1749,0.252000000000407
16,17,1749,0.249000000000706
16,18,1744,0.252999999999702
16,19,1749,0.253999999999905
16,20,1747,0.252999999999702
16,21,1743,0.252000000000407
16,22,1749,0.252999999999702
16,23,1744,0.253000000000611
16,24,1745,0.251999999999498
16,25,1749,0.252999999999702
16,26,1749,0.251000000000204
16,27,1749,0.252000000000407
16,28,1749,0.253999999999905
16,29,1746,0.252999999999702
16,30,1749,0.252999999999702
17,1,1748,0.25
17,2,1749,0.252000000000407
17,3,1749,0.252999999999702
17,4,1748,0.253999999999905
17,5,1748,0.251000000000204
17,6,1749,0.252999999999702
17,7,1749,0.253000000000611
17,8,1746,0.251000000000204
17,9,1746,0.253000000000611
17,10,1748,0.250999999999294
17,11,1745,0.253000000000611
17,12,1745,0.252999999999702
17,13,1749,0.252999999999702
17,14,1749,0.253000000000611
17,15,1748,0.25
17,16,1748,0.251999999999498
17,17,1749,0.253999999999905
17,18,1749,0.253000000000611
17,19,1749,0.250999999999294
17,20,1748,0.253000000000611
17,21,1749,0.252999999999702
17,22,1748,0.252000000000407
17,23,1749,0.252999999999702
17,24,1749,0.252000000000407
17,25,1749,0.252999999999702
17,26,1749,0.252999999999702
17,27,1748,0.252999999999702
17,28,1749,0.253000000000611
17,29,1749,0.248999999999796
17,30,1748,0.252999999999702
18,1,1749,0.253000000000611
18,2,1749,0.253000000000611
18,3,1749,0.250999999999294
18,4,1749,0.253000000000611
18,5,1747,0.252999999999702
18,6,1749,0.252000000000407
18,7,1749,0.252999999999702
18,8,1748,0.251999999999498
18,9,1749,0.253000000000611
18,10,1747,0.253999999999905
18,11,1749,0.252999999999702
18,12,1749,0.253000000000611
18,13,1749,0.25
18,14,1749,0.253999999999905
18,15,1749,0.252999999999702
18,16,1749,0.252999999999702
18,17,1746,0.252000000000407
18,18,1748,0.251999999999498
18,19,1749,0.253000000000611
18,20,1749,0.251999999999498
18,21,1749,0.252999999999702
18,22,1747,0.252000000000407
18,23,1749,0.252999999999702
18,24,1749,0.253000000000611
18,25,1749,0.252999999999702
18,26,1748,0.252999999999702
18,27,1749,0.249000000000706
18,28,1749,0.253000000000611
18,29,1748,0.252999999999702
18,30,1748,0.253999999999905
19,1,1742,0.251000000000204
19,2,1744,0.252999999999702
19,3,1747,0.252999999999702
19,4,1747,0.251000000000204
19,5,1742,0.253000000000611
19,6,1747,0.251999999999498
19,7,1747,0.252999999999702
19,8,1748,0.252000000000407
19,9,1747,0.252999999999702
19,10,1748,0.252999999999702
19,11,1749,0.249000000000706
19,12,1749,0.252000000000407
19,13,1748,0.252999999999702
19,14,1749,0.252999999999702
19,15,1743,0.252000000000407
19,16,1744,0.252000000000407
19,17,1746,0.252999999999702
19,18,1749,0.251000000000204
19,19,1746,0.252999999999702
19,20,1744,0.251000000000204
19,21,1748,0.252999999999702
19,22,1748,0.252999999999702
19,23,1749,0.253000000000611
19,24,1749,0.252999999999702
19,25,1749,0.248999999999796
19,26,1748,0.253999999999905
19,27,1749,0.252999999999702
19,28,1742,0.253000000000611
19,29,1742,0.251999999999498
19,30,1749,0.252999999999702
20,1,1749,0.253000000000611
20,2,1749,0.250999999999294
20,3,1748,0.253000000000611
20,4,1748,0.251999999999498
20,5,1748,0.253000000000611
20,6,1749,0.252999999999702
20,7,1747,0.252999999999702
20,8,1742,0.253000000000611
20,9,1746,0.25
20,10,1738,0.253999999999905
20,11,1749,0.252999999999702
20,12,1748,0.252999999999702
20,13,1742,0.253000000000611
20,14,1746,0.253999999999905
20,15,1745,0.252999999999702
20,16,1746,0.251000000000204
20,17,1746,0.253999999999905
20,18,1748,0.251999999999498
20,19,1747,0.253000000000611
20,20,1749,0.252999999999702
20,21,1749,0.252000000000407
20,22,1748,0.253999999999905
20,23,1748,0.248999999999796
20,24,1749,0.253999999999905
20,25,1746,0.252999999999702
20,26,1747,0.253000000000611
20,27,1745,0.251999999999498
20,28,1743,0.252000000000407
20,29,1746,0.251999999999498
20,30,1749,0.251000000000204
21,1,1746,0.253999999999905
21,2,1747,0.251999999999498
21,3,1743,0.253000000000611
21,4,1745,0.251999999999498
21,5,1749,0.253999999999905
21,6,1744,0.253000000000611
21,7,1746,0.248999999999796
21,8,1749,0.252999999999702
21,9,1746,0.252999999999702
21,10,1749,0.254000000000815
21,11,1749,0.250999999999294
21,12,1749,0.252000000000407
21,13,1749,0.252999999999702
21,14,1748,0.251999999999498
21,15,1746,0.252000000000407
21,16,1746,0.251000000000204
21,17,1749,0.252999999999702
21,18,1746,0.252999999999702
21,19,1745,0.253000000000611
21,20,1745,0.252999999999702
21,21,1749,0.25
21,22,1749,0.252999999999702
21,23,1749,0.253000000000611
21,24,1748,0.252999999999702
21,25,1746,0.250999999999294
21,26,1746,0.253000000000611
21,27,1747,0.252999999999702
21,28,1743,0.251000000000204
21,29,1742,0.252999999999702
21,30,1748,0.251000000000204
22,1,1744,0.252999999999702
22,2,1742,0.252999999999702
22,3,1747,0.252000000000407
22,4,1740,0.253999999999905
22,5,1747,0.25
22,6,1746,0.252999999999702
22,7,1747,0.253000000000611
22,8,1749,0.252999999999702
22,9,1749,0.251000000000204
22,10,1749,0.252999999999702
22,11,1747,0.252999999999702
22,12,1749,0.252000000000407
22,13,1749,0.252999999999702
22,14,1749,0.251000000000204
22,15,1746,0.252999999999702
22,16,1743,0.253999999999905
22,17,1749,0.253999999999905
22,18,1749,0.253000000000611
22,19,1748,0.25
22,20,1745,0.252999999999702
22,21,1749,0.252999999999702
22,22,1749,0.254000000000815
22,23,1749,0.251999999999498
22,24,1749,0.252999999999702
22,25,1749,0.253000000000611
22,26,1749,0.251999999999498
22,27,1748,0.253000000000611
22,28,1746,0.250999999999294
22,29,1746,0.253000000000611
22,30,1749,0.252999999999702
23,1,1744,0.252999999999702
23,2,1740,0.253000000000611
23,3,1740,0.25
23,4,1738,0.252999999999702
23,5,1745,0.252999999999702
23,6,1746,0.253000000000611
23,7,1747,0.250999999999294
23,8,1748,0.253000000000611
23,9,1749,0.252999999999702
23,10,1749,0.251000000000204
23,11,1748,0.252999999999702
23,12,1749,0.251000000000204
23,13,1749,0.252999999999702
23,14,1747,0.253999999999905
23,15,1743,0.252999999999702
23,16,1747,0.252000000000407
23,17,1749,0.248999999999796
23,18,1749,0.253999999999905
23,19,1745,0.252999999999702
23,20,1744,0.253000000000611
23,21,1747,0.250999999999294
23,22,1749,0.252000000000407
23,23,1749,0.251999999999498
23,24,1749,0.251000000000204
23,25,1748,0.252999999999702
23,26,1747,0.251000000000204
23,27,1747,0.253999999999905
23,28,1745,0.252999999999702
23,29,1735,0.252999999999702
23,30,1749,0.252000000000407
24,1,1747,0.248999999999796
24,2,1748,0.252999999999702
24,3,1749,0.253999999999905
24,4,1747,0.253000000000611
24,5,1740,0.250999999999294
24,6,1748,0.253000000000611
24,7,1748,0.252000000000407
24,8,1744,0.251000000000204
24,9,1747,0.252999999999702
24,10,1741,0.251999999999498
24,11,1745,0.253000000000611
24,12,1749,0.252999999999702
24,13,1746,0.252999999999702
24,14,1749,0.252000000000407
24,15,1738,0.25
24,16,1746,0.252999999999702
24,17,1745,0.252999999999702
24,18,1749,0.253000000000611
24,19,1749,0.251999999999498
24,20,1737,0.252999999999702
24,21,1749,0.252999999999702
24,22,1746,0.251000000000204
24,23,1749,0.253000000000611
24,24,1749,0.251000000000204
24,25,1746,0.252999999999702
24,26,1745,0.254000000000815
24,27,1744,0.252999999999702
24,28,1744,0.252999999999702
24,29,1749,0.25
24,30,1749,0.252999999999702
25,1,1748,0.253999999999905
25,2,1747,0.253000000000611
25,3,1749,0.251000000000204
25,4,1738,0.252999999999702
25,5,1747,0.252999999999702
25,6,1745,0.251000000000204
25,7,1748,0.252999999999702
25,8,1748,0.252000000000407
25,9,1748,0.252999999999702
25,10,1744,0.252000000000407
25,11,1748,0.253999999999905
25,12,1749,0.252999999999702
25,13,1748,0.248999999999796
25,14,1748,0.252999999999702
25,15,1744,0.253999999999905
25,16,1747,0.253000000000611
25,17,1747,0.251999999999498
25,18,1747,0.253999999999905
25,19,1744,0.253000000000611
25,20,1747,0.251999999999498
25,21,1748,0.253000000000611
25,22,1748,0.250999999999294
25,23,1749,0.253000000000611
25,24,1749,0.253999999999905
25,25,1747,0.252999999999702
25,26,1742,0.251999999999498
25,27,1743,0.25
25,28,1746,0.253000000000611
25,29,1745,0.251999999999498
25,30,1748,0.252999999999702
26,1,1748,0.251000000000204
26,2,1748,0.252999999999702
26,3,1745,0.253000000000611
26,4,1749,0.251000000000204
26,5,1745,0.253000000000611
26,6,1749,0.251999999999498
26,7,1749,0.252999999999702
26,8,1747,0.253000000000611
26,9,1745,0.253000000000611
26,10,1743,0.252999999999702
26,11,1749,0.248999999999796
26,12,1749,0.253999999999905
26,13,1749,0.252000000000407
26,14,1747,0.252999999999702
26,15,1746,0.252000000000407
26,16,1749,0.251999999999498
26,17,1747,0.252999999999702
26,18,1749,0.251000000000204
26,19,1749,0.252999999999702
26,20,1747,0.251000000000204
26,21,1749,0.253000000000611
26,22,1747,0.252999999999702
26,23,1749,0.253999999999905
26,24,1749,0.252999999999702
26,25,1747,0.25
26,26,1747,0.253000000000611
26,27,1749,0.252999999999702
26,28,1747,0.253999999999905
26,29,1749,0.252000000000407
26,30,1749,0.252999999999702
27,1,1745,0.253999999999905
27,2,1742,0.251000000000204
27,3,1745,0.252999999999702
27,4,1747,0.251000000000204
27,5,1747,0.252999999999702
27,6,1745,0.252999999999702
27,7,1749,0.253000000000611
27,8,1749,0.253999999999905
27,9,1748,0.25
27,10,1748,0.252999999999702
27,11,1749,0.252999999999702
27,12,1749,0.253000000000611
27,13,1746,0.251999999999498
27,14,1747,0.253000000000611
27,15,1742,0.252999999999702
27,16,1746,0.251000000000204
27,17,1747,0.253000000000611
27,18,1747,0.250999999999294
27,19,1747,0.254000000000815
27,20,1741,0.252999999999702
27,21,1749,0.252999999999702
27,22,1749,0.253000000000611
27,23,1748,0.248999999999796
27,24,1749,0.252999999999702
27,25,1748,0.252999999999702
27,26,1735,0.252999999999702
27,27,1747,0.252000000000407
27,28,1743,0.252999999999702
27,29,1745,0.252999999999702
27,30,1748,0.251000000000204
28,1,1745,0.253000000000611
28,2,1729,0.251999999999498
28,3,1739,0.253999999999905
28,4,1736,0.253000000000611
28,5,1748,0.252999999999702
28,6,1746,0.252999999999702
28,7,1749,0.248999999999796
28,8,1749,0.254000000000815
28,9,1749,0.252999999999702
28,10,1748,0.252999999999702
28,11,1748,0.252000000000407
28,12,1749,0.252999999999702
28,13,1749,0.252999999999702
28,14,1748,0.251000000000204
28,15,1747,0.253000000000611
28,16,1745,0.250999999999294
28,17,1748,0.252999999999702
28,18,1749,0.253000000000611
28,19,1744,0.252999999999702
28,20,1749,0.252999999999702
28,21,1747,0.25
28,22,1749,0.252999999999702
28,23,1749,0.252000000000407
28,24,1749,0.252999999999702
28,25,1747,0.251000000000204
28,26,1747,0.252999999999702
28,27,1741,0.252999999999702
28,28,1747,0.251000000000204
28,29,1745,0.252999999999702
28,30,1749,0.252000000000407
29,1,1745,0.252999999999702
29,2,1736,0.252999999999702
29,3,1748,0.253000000000611
29,4,1746,0.252999999999702
29,5,1746,0.25
29,6,1749,0.252999999999702
29,7,1748,0.253000000000611
29,8,1749,0.252999999999702
29,9,1747,0.251000000000204
29,10,1740,0.252999999999702
29,11,1747,0.252999999999702
29,12,1749,0.251000000000204
29,13,1744,0.252999999999702
29,14,1745,0.252000000000407
29,15,1742,0.252999999999702
29,16,1748,0.252999999999702
29,17,1744,0.253999999999905
29,18,1749,0.253000000000611
29,19,1741,0.25
29,20,1746,0.252999999999702
29,21,1749,0.252999999999702
29,22,1745,0.253000000000611
29,23,1749,0.251999999999498
29,24,1748,0.253000000000611
29,25,1746,0.253999999999905
29,26,1745,0.251000000000204
29,27,1740,0.252000000000407
29,28,1742,0.251999999999498
29,29,1741,0.253000000000611
29,30,1749,0.252999999999702
30,1,1736,0.253999999999905
30,2,1747,0.253999999999905
30,3,1742,0.25
30,4,1744,0.253000000000611
30,5,1744,0.252999999999702
30,6,1748,0.252999999999702
30,7,1748,0.252000000000407
30,8,1749,0.253999999999905
30,9,1748,0.252999999999702
30,10,1749,0.252000000000407
30,11,1749,0.251999999999498
30,12,1749,0.251000000000204
30,13,1749,0.252999999999702
30,14,1740,0.252999999999702
30,15,1747,0.253999999999905
30,16,1746,0.253000000000611
30,17,1749,0.25
30,18,1749,0.252999999999702
30,19,1743,0.253999999999905
30,20,1742,0.252000000000407
30,21,1747,0.251999999999498
30,22,1743,0.253000000000611
30,23,1749,0.252999999999702
30,24,1749,0.251000000000204
30,25,1746,0.252999999999702
30,26,1749,0.251000000000204
30,27,1743,0.253999999999905
30,28,1745,0.252999999999702
30,29,1746,0.253999999999905
30,30,1748,0.252999999999702
