App - SimpleCalendar
Scenario - make_events
Level - 0sec
Measure - MinJumpCost
Test Statistic - Mann-Whitney U Test
Effect Size Measure - Simple Difference:Kerby
Alpha Level - 0.05


"Before.Version","After.Version","Diff","Direction","P.Value","Simple.Diff","Within.Diffs.Mean","Within.Diffs.SD","Between.Diffs.Mean","Between.Diffs.SD","Runtime"
"5379244","b2fe795",FALSE,NA,0.013,0.075,1601.997,2679.372,1951.689,2725.632,52.895
"8003feb","5379244",FALSE,NA,0,0.2,1533.426,2007.722,2795.508,3554.56,51.34
"b2fe795","fd2ec79",FALSE,NA,0.02,0.069,1362.013,1913.237,1781.173,3096.777,52.698
