App - Minetest
Scenario - play_game
Length - 1sec
Measure - MinJumpCost
Before Version - 0.4.12
After Version - 0.4.13


"Before.Trace.ID1","Before.Trace.ID2","Difference","Runtime"
1,2,1654.38946462642,0.122999999999593
1,3,311.568508537618,0.247999999999593
1,4,1517.00006867212,0.47400000000016
1,5,52.3659971835831,0.173000000000684
1,6,38177.7259304556,0.0730000000003201
1,7,38130.3516364977,0.0769999999993161
1,8,3301.88770038064,0.282999999999447
1,9,29668.4352838175,0.127000000000407
1,10,59530.3521336932,0.0740000000005239
1,11,24272.8462786209,0.166999999999462
1,12,82952.2246616598,0.066000000000713
1,13,61946.7213316971,0.0630000000001019
1,14,70596.407971584,0.0900000000001455
1,15,92.4584854734387,0.0499999999992724
1,16,80719.9463915964,0.0580000000009022
1,17,82990.1230038125,0.0790000000015425
1,18,74310.5879109492,0.0599999999994907
1,19,51500.1441461125,0.0599999999994907
1,20,15469.3919214678,0.201000000000931
1,21,7253.33153731855,0.0599999999994907
1,22,2677.11312029566,0.130999999999403
1,23,67171.7359364014,0.0900000000001455
1,24,1419.45857943076,0.386000000000422
1,25,95028.6456764706,0.0450000000000728
1,26,751.895692302253,0.0779999999995198
1,27,62100.8286502887,0.0450000000000728
1,28,7123.09667002638,0.296000000000276
1,29,7375.42765195396,0.0910000000003492
1,30,76594.2950651862,0.0759999999991123
2,3,421.725966686468,0.149999999999636
2,4,26.0340950552726,0.110000000000582
2,5,12877.9079800799,0.204999999999927
2,6,93513.0419145132,0.0650000000005093
2,7,31708.1160679823,0.0539999999982683
2,8,32647.6784956304,0.161000000000058
2,9,89620.3013869867,0.081000000000131
2,10,126562.359564295,0.0570000000006985
2,11,73743.0029098885,0.0910000000003492
2,12,119816.563364953,0.0519999999996799
2,13,168032.948246407,0.069999999999709
2,14,110356.861186877,0.0630000000001019
2,15,164794.80828026,0.0529999999998836
2,16,87.9139064152628,0.0349999999998545
2,17,135561.618608226,0.0540000000000873
2,18,174015.866998187,0.0509999999994761
2,19,47792.821337121,0.0450000000000728
2,20,49519.226490286,0.0850000000009459
2,21,30001.7042246589,0.206000000000131
2,22,9376.50913472084,0.332000000000335
2,23,113264.013628015,0.0569999999988795
2,24,31856.3318994476,0.109000000000378
2,25,136794.189217634,0.0380000000004657
2,26,795.698403448623,0.206000000000131
2,27,197606.913695299,0.0389999999988504
2,28,52140.059301089,0.102000000000771
2,29,18976.7306933868,0.058999999999287
2,30,55780.9039695048,0.0460000000002765
3,4,313.478372667047,0.208000000000538
3,5,5880.27013413861,0.230999999999767
3,6,39178.2824217485,0.0669999999990978
3,7,37514.2122237666,0.0730000000003201
3,8,5711.89436484546,0.486000000000786
3,9,41465.9207574576,0.0899999999983265
3,10,88643.6395766899,0.0590000000011059
3,11,47236.5373890998,0.112999999999374
3,12,79425.780038011,0.0560000000004948
3,13,117806.65147512,0.0560000000004948
3,14,42144.7871848304,0.0609999999996944
3,15,160163.421398401,0.0540000000000873
3,16,179412.145543941,0.0559999999986758
3,17,113695.615545858,0.0709999999999127
3,18,143861.264365805,0.0540000000000873
3,19,106725.502757829,0.0609999999996944
3,20,26997.7677348496,0.179000000000087
3,21,4503.35983910631,0.0610000000015134
3,22,6328.93252309318,0.171999999998661
3,23,83639.8533514844,0.0680000000011205
3,24,15908.1251832408,0.233000000000175
3,25,118410.048060332,0.0399999999990541
3,26,2942.0077502081,0.100000000000364
3,27,141.726051237315,0.0360000000000582
3,28,34706.4566171918,0.15099999999984
3,29,35878.8530244035,0.0750000000007276
3,30,78714.2629048481,0.0559999999986758
4,5,2066.03545879425,0.131000000001222
4,6,134.353269398739,0.069999999999709
4,7,53467.2034718856,0.0849999999991269
4,8,3901.07866543665,0.230000000001382
4,9,41123.6482631085,0.146999999999025
4,10,55271.158919266,0.081000000000131
4,11,29174.4416682124,0.19800000000032
4,12,84118.7647323775,0.0669999999990978
4,13,91818.0573152877,0.0680000000011205
4,14,71911.1989662426,0.0949999999993452
4,15,141354.746830439,0.0730000000003201
4,16,80732.0972166697,0.0509999999994761
4,17,101198.522684033,0.0910000000003492
4,18,117437.055954492,0.069999999999709
4,19,48618.6159917981,0.0709999999999127
4,20,1866.39923733737,0.315000000000509
4,21,10305.8244080189,0.0529999999998836
4,22,11525.1427457506,0.129000000000815
4,23,68262.2494253814,0.104000000001179
4,24,2634.22830800646,0.371999999999389
4,25,58900.6801137922,0.0529999999998836
4,26,5014.50697834992,0.081000000000131
4,27,142033.167377097,0.0529999999998836
4,28,18723.511061061,0.379000000000815
4,29,21125.0770605379,0.107999999998356
4,30,87637.6539670566,0.0710000000017317
5,6,15290.7411802058,0.0599999999994907
5,7,86.4261506539236,0.0630000000001019
5,8,69.4791919030624,0.221999999999753
5,9,30069.594166413,0.0839999999989232
5,10,79819.5997630928,0.0640000000003056
5,11,19750.8733668447,0.0910000000003492
5,12,88854.779074753,0.0560000000004948
5,13,89224.2470916674,0.0569999999988795
5,14,77657.0678855856,0.0640000000003056
5,15,126679.882541788,0.0560000000004948
5,16,24384.7136074074,0.0429999999996653
5,17,100146.745067165,0.066000000000713
5,18,22884.5047374507,0.0429999999996653
5,19,1987.95191661146,0.0429999999996653
5,20,27634.1390352989,0.114999999999782
5,21,1621.89696083004,0.0859999999993306
5,22,59.5710654903326,0.304000000000087
5,23,79616.1725697552,0.0670000000009168
5,24,1169.85763339932,0.173000000000684
5,25,147737.047116322,0.0399999999990541
5,26,20.6381726933748,0.115999999999985
5,27,159650.016562503,0.043999999999869
5,28,1070.47101848186,0.132999999999811
5,29,68263.8395332699,0.0850000000009459
5,30,80823.3197446241,0.0569999999988795
6,7,1180.68445577293,0.384000000000015
6,8,2778.69927392207,0.0600000000013097
6,9,1363.03420046949,0.135999999998603
6,10,6343.41754089275,0.252000000000407
6,11,21.028448551985,0.081000000000131
6,12,10403.6529449516,0.354999999999563
6,13,723.826906093351,0.206000000000131
6,14,305.918388244598,0.206000000000131
6,15,11.0473129287925,0.138000000000829
6,16,12545.1891223306,0.130999999999403
6,17,2096.04707909911,0.425999999999476
6,18,16199.6083581066,0.265999999999622
6,19,82.0030622912212,0.169000000001688
6,20,30.6051664910891,0.0789999999997235
6,21,13702.5406081617,0.032999999999447
6,22,1311.66460311287,0.0519999999996799
6,23,90.6778873749737,0.222999999999956
6,24,6822.42464832663,0.0760000000009313
6,25,15.4544041282709,0.0739999999987049
6,26,3294.78077848192,0.0490000000008877
6,27,23612.3385774861,0.0669999999990978
6,28,6192.75048962229,0.0840000000007421
6,29,225.772725164015,0.236999999999171
6,30,1166.60235741692,0.326000000000931
7,8,5357.71652216367,0.0709999999999127
7,9,80.8162755487868,0.168999999999869
7,10,11798.3870842312,0.238999999999578
7,11,8.05872953665172,0.101000000000568
7,12,33.682907587541,0.236999999999171
7,13,98.9667643955925,0.145000000000437
7,14,1827.06356871435,0.326999999999316
7,15,1128.37818933548,0.139000000001033
7,16,9729.62834433797,0.108000000000175
7,17,8849.6461621191,0.421000000000276
7,18,14108.8900791066,0.143999999998414
7,19,1506.84394666007,0.137000000000626
7,20,81.5825454159694,0.0680000000011205
7,21,21466.6416004633,0.0419999999994616
7,22,846.555864801963,0.0730000000003201
7,23,2186.12453946794,0.266999999999825
7,24,333.586460233727,0.0749999999989086
7,25,42338.3509607091,0.0760000000009313
7,26,5725.15715073225,0.0429999999996653
7,27,113.27970374109,0.0630000000001019
7,28,4467.86240762758,0.113999999999578
7,29,3135.54060219832,0.183999999999287
7,30,90.9229095975132,0.207000000000335
8,9,1653.47440925187,0.0979999999999563
8,10,75.790899786233,0.0529999999998836
8,11,4252.63796637612,0.115999999999985
8,12,28932.3783245366,0.103000000000975
8,13,3.41548782764279,0.0469999999986612
8,14,50089.0854607209,0.0760000000009313
8,15,60947.3718107084,0.0609999999996944
8,16,25850.1890424231,0.0519999999996799
8,17,10448.9966959849,0.058999999999287
8,18,20251.1721710504,0.0490000000008877
8,19,14022.358230661,0.0609999999996944
8,20,11054.3980381394,0.139999999999418
8,21,6843.62967338303,0.0840000000007421
8,22,21.6440178218349,0.164000000000669
8,23,14758.62580016,0.0709999999999127
8,24,209.33790286066,0.236999999999171
8,25,46654.8141754294,0.0540000000000873
8,26,80.9110290961539,0.0849999999991269
8,27,55536.3981770571,0.0480000000006839
8,28,25.3981150206322,0.194999999999709
8,29,75.7815705615649,0.0910000000003492
8,30,3317.99904815377,0.0599999999994907
9,10,18244.8291019905,0.207000000000335
9,11,490.071532702766,0.193999999999505
9,12,18131.3330920156,0.110000000000582
9,13,6428.87230542563,0.0910000000003492
9,14,17682.7238235108,0.290999999999258
9,15,15023.6079999574,0.0930000000007567
9,16,17108.2170214591,0.0749999999989086
9,17,17033.8605660966,0.14600000000064
9,18,12800.914032626,0.0910000000003492
9,19,27.3531723765664,0.0830000000005384
9,20,6.19435428161853,0.105999999999767
9,21,25085.0960210542,0.0450000000000728
9,22,7.42444122877771,0.0709999999999127
9,23,8113.07332567255,0.226999999998952
9,24,5261.29242584533,0.123000000001412
9,25,48696.3393110192,0.0599999999994907
9,26,1459.30736972675,0.0429999999996653
9,27,10.2090852854508,0.0560000000004948
9,28,4112.85387355886,0.229999999999563
9,29,112.041579497638,0.409999999999854
9,30,4743.18187084177,0.118999999998778
10,11,18403.8908372609,0.116000000001804
10,12,1174.82534869281,0.26299999999901
10,13,2857.65926214875,0.110999999998967
10,14,3168.9633905307,0.281000000000859
10,15,3509.37664760051,0.125
10,16,216.114698797746,0.110999999998967
10,17,2359.94439192996,0.28400000000147
10,18,1492.54365413013,0.0959999999995489
10,19,1581.23297880442,0.191999999999098
10,20,70.9505176231855,0.0630000000001019
10,21,489.789467402905,0.0419999999994616
10,22,34517.5457557832,0.0560000000004948
10,23,10874.4222058853,0.265999999999622
10,24,40388.9748852227,0.0760000000009313
10,25,2257.27485036794,0.069999999999709
10,26,49051.4368485567,0.0490000000008877
10,27,4546.97838029039,0.0619999999998981
10,28,10326.4161127218,0.0859999999993306
10,29,21066.4982322625,0.229999999999563
10,30,3552.71221335316,0.15099999999984
11,12,4184.37118457235,0.0760000000009313
11,13,3183.508638829,0.0669999999990978
11,14,8026.29744568835,0.108000000000175
11,15,548.115975633922,0.0680000000011205
11,16,1273.80236261714,0.0669999999990978
11,17,4058.15472858487,0.125
11,18,13686.0705790786,0.0630000000001019
11,19,41.5662933761698,0.066000000000713
11,20,405.632341410383,0.167000000001281
11,21,2.1571610768576,0.0360000000000582
11,22,1805.37353336419,0.101999999998952
11,23,5428.31997815167,0.127000000000407
11,24,8643.97078148183,0.167999999999665
11,25,23756.5151500128,0.0450000000000728
11,26,10546.2053050808,0.0670000000009168
11,27,1742.51903095182,0.0450000000000728
11,28,172.811359559935,0.236999999999171
11,29,2246.53081308891,0.152000000000044
11,30,1250.74039588847,0.0799999999999272
12,13,838.735250920811,0.230999999999767
12,14,194.217135740319,0.165000000000873
12,15,461.169692113181,0.252999999998792
12,16,2523.30974548687,0.213999999999942
12,17,35.6779106841349,0.290000000000873
12,18,1136.85505288679,0.325000000000728
12,19,650.451677206598,0.351999999998952
12,20,828.057602337739,0.0590000000011059
12,21,5131.56154011734,0.0420000000012806
12,22,5.81548051712676,0.0450000000000728
12,23,156.592135811996,0.162000000000262
12,24,34703.3756816062,0.0659999999988941
12,25,23609.3334134478,0.113999999999578
12,26,31387.3716322573,0.0500000000010914
12,27,141.048751842413,0.106999999999971
12,28,5.63935138074513,0.0599999999994907
12,29,66.2945432622301,0.140999999999622
12,30,3463.18994519272,0.435999999999694
13,14,462.803671889496,0.129000000000815
13,15,1926.98025989767,0.322000000000116
13,16,1659.72435702307,0.304000000000087
13,17,28.2502079578715,0.168999999999869
13,18,1745.55594360847,0.394999999998618
13,19,1308.43511719769,0.445000000001528
13,20,853.237413672016,0.0460000000002765
13,21,31180.8457637458,0.0510000000012951
13,22,5522.71435141966,0.0569999999988795
13,23,83.5527823257582,0.111000000000786
13,24,6203.17026934165,0.058999999999287
13,25,10792.2513850477,0.156000000000859
13,26,16267.0946982829,0.043999999999869
13,27,89.9737224452307,0.0889999999999418
13,28,8381.52274152073,0.0759999999991123
13,29,11.5651457724502,0.149999999999636
13,30,1602.20025952134,0.338999999999942
14,15,1981.89814067125,0.0960000000013679
14,16,331.922904602228,0.0729999999985012
14,17,333.340339085796,0.264000000001033
14,18,679.401097652946,0.0939999999991414
14,19,719.228843726975,0.110000000000582
14,20,6.17662885522025,0.0599999999994907
14,21,4949.19572238214,0.0320000000010623
14,22,14125.850285739,0.0569999999988795
14,23,3987.26700250889,0.282000000001062
14,24,8.2788950757616,0.0609999999996944
14,25,2705.90112812887,0.058999999999287
14,26,59.3280504683683,0.0360000000000582
14,27,2099.27510996158,0.0490000000008877
14,28,31275.1740573212,0.0979999999999563
14,29,10622.1810090293,0.358999999998559
14,30,372.640333997066,0.143000000000029
15,16,227.924879214109,0.340000000000146
15,17,41.7020239175847,0.167000000001281
15,18,645.129057598092,0.412999999998647
15,19,983.843688087585,0.554000000000087
15,20,914.010080433591,0.0520000000014988
15,21,24700.3264190089,0.0319999999992433
15,22,100.533524581757,0.0619999999998981
15,23,15837.8440927669,0.118000000000393
15,24,8794.54503803705,0.0599999999994907
15,25,30855.7487454233,0.153000000000247
15,26,17702.8162734616,0.0489999999990687
15,27,62.3548393400873,0.109000000000378
15,28,2649.05930539154,0.102000000000771
15,29,2730.98860817353,0.118000000000393
15,30,2004.50479985262,0.286999999998443
16,17,111.801161614415,0.106000000001586
16,18,109.273058846066,0.260999999998603
16,19,57.8508952798409,0.314000000000306
16,20,100.050509459119,0.0450000000000728
16,21,5142.07813910112,0.0319999999992433
16,22,8.63409420738781,0.0290000000004511
16,23,25.1805457999158,0.0789999999997235
16,24,12624.1764089262,0.0590000000011059
16,25,16432.8793255376,0.214999999998327
16,26,18309.3347817058,0.0420000000012806
16,27,3436.33587351458,0.132999999999811
16,28,14091.352764149,0.058999999999287
16,29,16822.6625267032,0.104999999999563
16,30,66.3658447919626,0.21900000000096
17,18,198.758181170477,0.212999999999738
17,19,24.8029253775381,0.180000000000291
17,20,7222.89846720141,0.0659999999988941
17,21,3.55912786934775,0.0450000000000728
17,22,5935.41214163072,0.055000000000291
17,23,175.749167786178,0.305000000000291
17,24,23016.1675755664,0.0799999999999272
17,25,5737.52277860154,0.0840000000007421
17,26,41613.9621472182,0.0489999999990687
17,27,368.386628296388,0.0650000000005093
17,28,21916.3042652902,0.0889999999999418
17,29,15111.0772992879,0.221999999999753
17,30,251.741222709995,0.199999999998909
18,19,1353.26597264982,0.524000000001251
18,20,592.301103672722,0.0469999999986612
18,21,5374.6252207148,0.0420000000012806
18,22,12917.6147263371,0.0499999999992724
18,23,31.3171705307355,0.108000000000175
18,24,12730.2294073029,0.058999999999287
18,25,12926.564573896,0.136000000000422
18,26,28723.3564598817,0.0389999999988504
18,27,449.123992814143,0.0870000000013533
18,28,13484.893339899,0.0730000000003201
18,29,31059.7142515027,0.140999999999622
18,30,276.313417069371,0.397999999999229
19,20,1755.79859814605,0.0480000000006839
19,21,17430.3011159156,0.0319999999992433
19,22,4998.29035206937,0.0570000000006985
19,23,6174.3783055129,0.100999999998749
19,24,22299.1151694254,0.0640000000003056
19,25,21480.7595184593,0.139000000001033
19,26,54.4175033197376,0.0319999999992433
19,27,7304.64770749786,0.122999999999593
19,28,6225.82715496782,0.0720000000001164
19,29,12484.5652869286,0.136000000000422
19,30,8852.97697191432,0.341000000000349
20,21,2777.9898576489,0.043999999999869
20,22,6764.70614338651,0.102999999999156
20,23,840.92860265549,0.0769999999993161
20,24,8174.67874743845,0.233000000000175
20,25,21123.7860443371,0.0529999999998836
20,26,3.24791799632469,0.0429999999996653
20,27,380.142684175549,0.0460000000002765
20,28,3682.17868357342,0.27599999999984
20,29,3623.41673859084,0.0969999999997526
20,30,61.4994881003845,0.0950000000011642
21,22,339.292551735024,0.154999999998836
21,23,567.230162875741,0.0420000000012806
21,24,8374.86001383047,0.0519999999996799
21,25,1021.00203892442,0.0360000000000582
21,26,3782.48402508705,0.0630000000001019
21,27,157.666034990891,0.0370000000002619
21,28,10529.8148904756,0.0659999999988941
21,29,348.369936102428,0.0360000000000582
21,30,4394.11625150314,0.0390000000006694
22,23,2480.6883967648,0.0609999999996944
22,24,89.7288230166292,0.130999999999403
22,25,13806.7575687144,0.0429999999996653
22,26,1306.96216886561,0.135000000000218
22,27,2035.68115665555,0.0360000000000582
22,28,13.2195497760192,0.104000000001179
22,29,976.936761667446,0.0659999999988941
22,30,2435.01063196919,0.0529999999998836
23,24,15237.5216393981,0.0870000000013533
23,25,11898.2151348767,0.0630000000001019
23,26,20079.7496031091,0.0529999999998836
23,27,288.56373579102,0.0599999999994907
23,28,10694.0224265654,0.111999999999171
23,29,197.612779066562,0.252000000000407
23,30,41.0247975557729,0.123999999999796
24,25,30770.1669460331,0.055000000000291
24,26,1635.78291303576,0.0769999999993161
24,27,7952.74681893993,0.0460000000002765
24,28,5928.7443687389,0.261000000000422
24,29,6746.50904640301,0.0949999999993452
24,30,5512.66551868022,0.0599999999994907
25,26,36.9408478896571,0.0320000000010623
25,27,9619.52016432938,0.149999999999636
25,28,24642.593514165,0.0570000000006985
25,29,43108.2459978503,0.0799999999999272
25,30,49930.9828611034,0.120999999999185
26,27,18633.9524208193,0.0320000000010623
26,28,1160.80463187791,0.0669999999990978
26,29,2957.27833699009,0.0519999999996799
26,30,7825.17857426647,0.0420000000012806
27,28,11617.0797394228,0.0429999999996653
27,29,110.641377380755,0.0689999999995052
27,30,2093.91517969332,0.0740000000005239
28,29,121.610363410911,0.128999999998996
28,30,10157.514832457,0.0830000000005384
29,30,407.081427581648,0.174999999999272


"After.Trace.ID","Before.Trace.ID","Difference","Runtime"
1,1,37786.8314937209,0.0820000000003347
1,2,123284.224862918,0.0509999999994761
1,3,22449.730203101,0.0789999999997235
1,4,92223.6369627055,0.0840000000007421
1,5,95170.8775294824,0.0659999999988941
1,6,1788.51861752438,0.445999999999913
1,7,5124.35502332322,0.374000000001615
1,8,2831.20473839582,0.0779999999995198
1,9,15.8327990627462,0.136000000000422
1,10,18628.6184200966,0.206999999998516
1,11,32.2259365004157,0.0760000000009313
1,12,176.347160848877,0.333000000000538
1,13,624.338591033553,0.179000000000087
1,14,974.021615350594,0.18999999999869
1,15,2008.28826845858,0.145000000000437
1,16,85.1351979527405,0.114999999999782
1,17,4008.97261838334,0.318999999999505
1,18,2994.2456984032,0.155000000000655
1,19,7402.06117147235,0.174000000000888
1,20,7452.02370372676,0.0639999999984866
1,21,33369.7750067394,0.0450000000000728
1,22,9618.87294878557,0.0570000000006985
1,23,38.8769496039659,0.233000000000175
1,24,18007.5699561682,0.117000000000189
1,25,24825.4224339581,0.0910000000003492
1,26,28179.7997686341,0.0509999999994761
1,27,5234.8694038769,0.0759999999991123
1,28,18127.9319769426,0.0830000000005384
1,29,23059.6296714765,0.144000000000233
1,30,430.679956930094,0.246999999999389
2,1,55646.586429894,0.0500000000010914
2,2,167862.296570559,0.0419999999994616
2,3,156695.706567245,0.0429999999996653
2,4,141209.101134851,0.0540000000000873
2,5,130059.884549785,0.0450000000000728
2,6,58.2915879320427,0.0769999999993161
2,7,54567.0043969974,0.106000000001586
2,8,63263.0381245998,0.0429999999996653
2,9,45070.5396098762,0.069999999999709
2,10,3.41556853242753,0.0630000000001019
2,11,32382.236101595,0.058999999999287
2,12,30939.8476623063,0.159999999999854
2,13,51.3068393995781,0.305000000000291
2,14,73.4303483533646,0.0670000000009168
2,15,1514.71646341962,0.247999999999593
2,16,3343.47389076776,0.288000000000466
2,17,19706.8617131559,0.0819999999985157
2,18,334.339986236666,0.286000000000058
2,19,105.562400525541,0.254000000000815
2,20,34331.704378181,0.0450000000000728
2,21,764.475686837646,0.0270000000000437
2,22,56734.2115797021,0.0529999999998836
2,23,50160.967374128,0.0799999999999272
2,24,119574.376023634,0.0569999999988795
2,25,471.885468904629,0.19300000000112
2,26,75529.4536818357,0.0399999999990541
2,27,4229.5635821449,0.077000000001135
2,28,63122.1664085995,0.0599999999994907
2,29,72661.783883219,0.0869999999995343
2,30,26124.8337935609,0.228000000000975
3,1,118935.658356816,0.0399999999990541
3,2,158324.031762569,0.0390000000006694
3,3,198411.844346676,0.0360000000000582
3,4,200869.173217055,0.0429999999996653
3,5,265932.382801078,0.0460000000002765
3,6,71563.4130863618,0.0560000000004948
3,7,52265.2502978226,0.0509999999994761
3,8,117828.591522691,0.0460000000002765
3,9,59472.0449847626,0.0389999999988504
3,10,25411.1112066992,0.0490000000008877
3,11,44106.3797681032,0.0360000000000582
3,12,70604.7461227155,0.0730000000003201
3,13,86789.2690461049,0.0799999999999272
3,14,12028.517483262,0.0509999999994761
3,15,32128.2770867022,0.0869999999995343
3,16,48714.2499418289,0.0840000000007421
3,17,30213.6536226945,0.0559999999986758
3,18,47687.2186130344,0.0740000000005239
3,19,55048.6622793122,0.069999999999709
3,20,4.37860772749747,0.0360000000000582
3,21,214.013885302959,0.0470000000004802
3,22,71987.998272175,0.0370000000002619
3,23,36623.619052529,0.0450000000000728
3,24,87730.7514984876,0.0399999999990541
3,25,125.194029060789,0.135000000000218
3,26,100220.241740076,0.0380000000004657
3,27,61.8859404090242,0.189000000000306
3,28,83119.769404549,0.0450000000000728
3,29,104093.519958367,0.0529999999998836
3,30,53167.9281483356,0.058999999999287
4,1,116245.373860288,0.0529999999998836
4,2,182451.615319748,0.043999999999869
4,3,63.4142808107549,0.0349999999998545
4,4,151385.626787471,0.0500000000010914
4,5,61538.3934419868,0.0450000000000728
4,6,60.4926954313995,0.0769999999993161
4,7,177.273682225804,0.0840000000007421
4,8,89170.3034755518,0.047999999998865
4,9,61125.2122728061,0.0670000000009168
4,10,19.7494022946582,0.102999999999156
4,11,43422.4400730661,0.0709999999999127
4,12,26502.1305534102,0.152000000000044
4,13,23159.1273461686,0.185999999999694
4,14,1855.46104728769,0.077000000001135
4,15,13774.0591584156,0.25
4,16,2085.87667199135,0.283999999999651
4,17,9.78679282387438,0.0739999999987049
4,18,20048.7294401056,0.261000000000422
4,19,20342.7930059982,0.220999999999549
4,20,38560.4666449507,0.0520000000014988
4,21,1905.02907810102,0.0319999999992433
4,22,13242.1515970413,0.0419999999994616
4,23,27483.2295968529,0.0840000000007421
4,24,74687.8202503174,0.0579999999990832
4,25,2115.06276804814,0.351000000000568
4,26,51046.9194331716,0.0360000000000582
4,27,899.014353529648,0.104999999999563
4,28,38257.3306156408,0.0519999999996799
4,29,64679.1456556677,0.0670000000009168
4,30,17905.3596839777,0.138999999999214
5,1,162276.463114406,0.0429999999996653
5,2,247703.962725422,0.0480000000006839
5,3,218440.208224905,0.0399999999990541
5,4,207257.769748085,0.0450000000000728
5,5,144617.161531015,0.0360000000000582
5,6,85612.3480465005,0.0590000000011059
5,7,91723.4722788777,0.0659999999988941
5,8,165110.254848842,0.0429999999996653
5,9,129862.76271707,0.0560000000004948
5,10,43355.1619151248,0.0560000000004948
5,11,51904.948734957,0.0499999999992724
5,12,50787.9582664187,0.0740000000005239
5,13,64794.9487843916,0.0869999999995343
5,14,22208.2963766775,0.0529999999998836
5,15,65734.2334106668,0.0940000000009604
5,16,43615.7328051384,0.119999999998981
5,17,63143.2177917076,0.066000000000713
5,18,18759.118956182,0.0869999999995343
5,19,40.8614741132683,0.0900000000001455
5,20,58107.3733850542,0.0390000000006694
5,21,23540.2663591694,0.0370000000002619
5,22,69690.7292211706,0.0429999999996653
5,23,61862.8856724721,0.0599999999994907
5,24,159245.519814924,0.0450000000000728
5,25,15259.1976366609,0.144000000000233
5,26,111375.238649658,0.0289999999986321
5,27,13483.3760582565,0.307000000000698
5,28,96625.2556417425,0.0360000000000582
5,29,97199.9790758513,0.0529999999998836
5,30,76802.124059421,0.0740000000005239
6,1,632.783895799814,0.138999999999214
6,2,58510.0886264872,0.0680000000011205
6,3,12.1310926156314,0.108000000000175
6,4,2032.99680325857,0.18199999999888
6,5,35181.796990982,0.081000000000131
6,6,4779.69282127456,0.0830000000005384
6,7,3740.13204339866,0.0869999999995343
6,8,24.8676575938961,0.120999999999185
6,9,24.9761347991908,0.153000000000247
6,10,260.006011318755,0.132999999999811
6,11,5879.08916265878,0.175000000001091
6,12,2455.89321757997,0.058999999999287
6,13,4390.4426793377,0.0560000000004948
6,14,17.5903541640713,0.121999999999389
6,15,5233.01251389912,0.0490000000008877
6,16,2207.26289453216,0.0460000000002765
6,17,3286.65367540069,0.0869999999995343
6,18,3193.01235386442,0.0509999999994761
6,19,5415.15844244224,0.0470000000004802
6,20,2952.80773139941,0.148999999999432
6,21,5.53993496478565,0.0380000000004657
6,22,15107.3175932222,0.069999999999709
6,23,136.182681612572,0.0940000000009604
6,24,1153.55987138744,0.145999999998821
6,25,1099.999408893,0.0429999999996653
6,26,23401.4888405804,0.0560000000004948
6,27,10326.7020589086,0.0320000000010623
6,28,2746.77019777514,0.154999999998836
6,29,757.180047758086,0.134000000000015
6,30,2546.22929035123,0.0640000000003056
7,1,60956.2307918339,0.0670000000009168
7,2,91298.4306458922,0.0529999999998836
7,3,76888.6275916542,0.0879999999997381
7,4,64364.223215803,0.0820000000003347
7,5,67181.2354438401,0.0909999999985303
7,6,976.691490803723,0.191000000000713
7,7,1061.06356843124,0.161000000000058
7,8,56704.3192866125,0.0759999999991123
7,9,1513.6506639895,0.200000000000728
7,10,3454.6947703323,0.139999999999418
7,11,68.2998423572794,0.121999999999389
7,12,3873.62654839432,0.0950000000011642
7,13,283.303368694274,0.081000000000131
7,14,5075.58101208483,0.209999999999127
7,15,63.6624466486176,0.0779999999995198
7,16,6256.14832201581,0.0630000000001019
7,17,592.583423854995,0.21100000000115
7,18,282.212804805731,0.0799999999999272
7,19,658.468401162342,0.0779999999995198
7,20,19123.5179552396,0.102000000000771
7,21,1540.95006826581,0.0319999999992433
7,22,25747.0953029752,0.0509999999994761
7,23,1794.08903385256,0.226000000000568
7,24,27275.3577125943,0.105999999999767
7,25,244.445708545724,0.0599999999994907
7,26,62344.8735981521,0.0580000000009022
7,27,1574.21232910824,0.0499999999992724
7,28,110.211918205568,0.0940000000009604
7,29,1773.87295272255,0.208999999998923
7,30,17.8613313174314,0.0740000000005239
8,1,326.227665097908,0.225000000000364
8,2,85.2963367218382,0.0630000000001019
8,3,18.5504337144825,0.121999999999389
8,4,2668.25947169834,0.190000000000509
8,5,23421.5535815736,0.0979999999999563
8,6,42.1853802388553,0.0679999999993015
8,7,653.532549450427,0.0799999999999272
8,8,171.772169110085,0.163000000000466
8,9,173.621377214295,0.141999999999825
8,10,7335.5350162045,0.108000000000175
8,11,1052.59317362804,0.260000000000218
8,12,20.9156819760389,0.0669999999990978
8,13,354.758639996096,0.0630000000001019
8,14,2494.21658939528,0.0979999999999563
8,15,557.452353105222,0.0460000000002765
8,16,31.000703041513,0.0419999999994616
8,17,21.7497389443129,0.0789999999997235
8,18,48.7152124832546,0.0590000000011059
8,19,959.597617460152,0.0630000000001019
8,20,4021.85728012215,0.211999999999534
8,21,592.088027460549,0.0429999999996653
8,22,6334.28231971273,0.123999999999796
8,23,899.917796554624,0.0789999999997235
8,24,1100.64637519053,0.20299999999952
8,25,10588.8381202142,0.0460000000002765
8,26,30906.2793862773,0.0630000000001019
8,27,446.246615491051,0.0480000000006839
8,28,5293.24471899213,0.181000000000495
8,29,1139.20463710333,0.114999999999782
8,30,211.115140463077,0.0630000000001019
9,1,111725.421307762,0.0559999999986758
9,2,154892.912285664,0.0420000000012806
9,3,156326.31834687,0.0529999999998836
9,4,150376.794660654,0.0729999999985012
9,5,57279.6590083643,0.0450000000000728
9,6,31636.4704280483,0.15900000000147
9,7,34300.7376805659,0.115999999999985
9,8,94304.7139821315,0.054999999998472
9,9,80638.4634104032,0.0889999999999418
9,10,15.2670453173584,0.0990000000001601
9,11,24837.760123263,0.0560000000004948
9,12,25.4120324428618,0.121999999999389
9,13,8979.11702847693,0.311999999999898
9,14,109.795988342962,0.0830000000005384
9,15,6461.61719309996,0.186999999999898
9,16,5672.16942178313,0.216000000000349
9,17,33.2585853561954,0.115999999999985
9,18,3519.77284557604,0.198999999998705
9,19,1679.55268768068,0.208000000000538
9,20,15898.4264270772,0.0460000000002765
9,21,4367.95485676569,0.0319999999992433
9,22,62007.3424234848,0.0520000000014988
9,23,2513.03259831424,0.0869999999995343
9,24,64825.8232225757,0.0559999999986758
9,25,885.791792904089,0.319000000001324
9,26,43665.4485597893,0.0450000000000728
9,27,4997.03564798806,0.0969999999997526
9,28,26684.1167631411,0.0659999999988941
9,29,62447.7575459618,0.0959999999995489
9,30,18092.9347955522,0.153000000000247
10,1,70362.5344465549,0.0870000000013533
10,2,76470.873141506,0.0529999999998836
10,3,84210.9008419393,0.0659999999988941
10,4,69111.4104791597,0.0860000000011496
10,5,11866.473099136,0.0739999999987049
10,6,270.306002361121,0.221000000001368
10,7,2564.05042067637,0.283999999999651
10,8,13389.7324243115,0.0730000000003201
10,9,12181.269252661,0.229000000001179
10,10,3169.21823908473,0.207000000000335
10,11,65.4877416954926,0.113999999999578
10,12,65.1774902749685,0.144999999998618
10,13,38.1189692417141,0.117000000000189
10,14,3921.78797174969,0.195999999999913
10,15,61.1389872054714,0.0979999999999563
10,16,210.905283948492,0.092000000000553
10,17,143.392172872528,0.298000000000684
10,18,1071.18996878901,0.112999999999374
10,19,32.7512709125038,0.122999999999593
10,20,4368.60141941806,0.0799999999999272
10,21,7188.88460649496,0.0390000000006694
10,22,17343.6955403586,0.0799999999999272
10,23,628.430838525638,0.490999999999985
10,24,15185.8015812054,0.0900000000001455
10,25,18.4909271959292,0.058999999999287
10,26,29224.0820942136,0.0460000000002765
10,27,167.337456283217,0.0670000000009168
10,28,37950.8252490176,0.105999999999767
10,29,38.1930625621958,0.289999999999054
10,30,29.2418230688005,0.128000000000611
11,1,226665.009811639,0.0529999999998836
11,2,225373.42390184,0.0360000000000582
11,3,178420.91021049,0.0360000000000582
11,4,253896.919206188,0.0529999999998836
11,5,96642.0712294874,0.0370000000002619
11,6,52529.4602757113,0.0689999999995052
11,7,38205.5897598747,0.0709999999999127
11,8,51026.7844358059,0.0429999999996653
11,9,38256.9678011958,0.055000000000291
11,10,16601.9628497381,0.0850000000009459
11,11,27089.1864923059,0.0429999999996653
11,12,18199.4075194489,0.0759999999991123
11,13,22471.5067341829,0.0900000000001455
11,14,6450.96480242197,0.0490000000008877
11,15,23364.803355394,0.111999999999171
11,16,28856.8202833577,0.125
11,17,12999.0745551301,0.0659999999988941
11,18,12671.7459536603,0.0889999999999418
11,19,38574.9385288445,0.0930000000007567
11,20,17414.6361195898,0.0409999999992579
11,21,139.442401846674,0.0290000000004511
11,22,16586.8074736954,0.0360000000000582
11,23,28784.7819409066,0.0560000000004948
11,24,90492.94020292,0.0470000000004802
11,25,1551.90457948781,0.175999999999476
11,26,120581.431282651,0.032999999999447
11,27,7948.08978476605,0.295000000000073
11,28,72491.5065536685,0.0529999999998836
11,29,73402.9346544645,0.0560000000004948
11,30,30520.122898202,0.0819999999985157
12,1,15531.4338007545,0.055000000000291
12,2,211613.518329107,0.0529999999998836
12,3,149892.64994415,0.0460000000002765
12,4,92434.5547469623,0.0609999999996944
12,5,112636.075107513,0.0609999999996944
12,6,14335.629739137,0.106999999999971
12,7,4323.89830699285,0.117000000000189
12,8,47925.6791725766,0.0689999999995052
12,9,59816.7470553057,0.0950000000011642
12,10,98335.9877491343,0.121999999999389
12,11,40567.669609574,0.0619999999998981
12,12,35679.6827692143,0.154000000000451
12,13,2271.33963773634,0.203999999999724
12,14,60599.6032894731,0.0769999999993161
12,15,201.244447261298,0.293000000001484
12,16,11717.784048214,0.284999999999854
12,17,14737.6749659422,0.128999999998996
12,18,1105.6544503306,0.215000000000146
12,19,3964.62507739138,0.239999999999782
12,20,26671.9773010868,0.0540000000000873
12,21,78774.5092600093,0.0320000000010623
12,22,10006.239340111,0.0599999999994907
12,23,760.361162031524,0.0910000000003492
12,24,63995.4009622399,0.0669999999990978
12,25,53828.1750946593,0.273999999999432
12,26,13.5758224963689,0.0350000000016735
12,27,223.71129025664,0.15599999999904
12,28,973.478130817797,0.0879999999997381
12,29,2503.05395594283,0.0969999999997526
12,30,14476.3941068499,0.153000000000247
13,1,72.0230001402804,0.114999999999782
13,2,73072.1610115918,0.0709999999999127
13,3,76.4749213064103,0.0840000000007421
13,4,245.267065085396,0.153000000000247
13,5,47301.3074836512,0.0779999999995198
13,6,350.406730778457,0.104999999999563
13,7,39.538544002916,0.0910000000003492
13,8,32101.2109692553,0.121999999999389
13,9,4023.90434442662,0.233000000000175
13,10,2260.09491125108,0.137000000000626
13,11,3631.71695615752,0.191999999999098
13,12,609.537545882091,0.0740000000005239
13,13,1087.85489713621,0.0630000000001019
13,14,644.647160957678,0.162000000000262
13,15,3013.01335137388,0.0669999999990978
13,16,940.417120483321,0.0460000000002765
13,17,52.0453008873116,0.104000000001179
13,18,76.8345071127729,0.0659999999988941
13,19,297.007206871023,0.0630000000001019
13,20,397.140401177605,0.145000000000437
13,21,3802.70726964033,0.0489999999990687
13,22,11569.9190627387,0.070000000001528
13,23,225.323564737844,0.152999999998428
13,24,24.4145913681042,0.122000000001208
13,25,1402.93387769452,0.0429999999996653
13,26,26672.6503747253,0.0709999999999127
13,27,470.020784030397,0.0460000000002765
13,28,1312.2510907234,0.145000000000437
13,29,2930.40467966152,0.171999999998661
13,30,15.5008451570019,0.0600000000013097
14,1,129979.68245641,0.0709999999999127
14,2,177961.884869215,0.0360000000000582
14,3,165311.669908585,0.0709999999999127
14,4,140230.07778632,0.0749999999989086
14,5,140452.848919415,0.0490000000008877
14,6,96.1708780965664,0.112999999999374
14,7,39701.2682241643,0.119000000000597
14,8,45207.6339943765,0.0599999999994907
14,9,24487.8410650804,0.0709999999999127
14,10,7.3302293722994,0.101000000000568
14,11,23792.3204859351,0.0599999999994907
14,12,141.961923402867,0.161000000000058
14,13,1575.72324663573,0.272999999999229
14,14,5.57753093701177,0.0750000000007276
14,15,5467.78319659056,0.210999999999331
14,16,4183.84176337701,0.256000000001222
14,17,85.0337869783046,0.0939999999991414
14,18,4696.43258773671,0.195999999999913
14,19,2138.60735594027,0.23700000000099
14,20,17829.6139197799,0.0749999999989086
14,21,715.633323261638,0.0290000000004511
14,22,41561.3540445763,0.066000000000713
14,23,9578.2907144527,0.120999999999185
14,24,43051.3758910867,0.0669999999990978
14,25,10666.5598003538,0.165000000000873
14,26,32049.4255296015,0.0529999999998836
14,27,1081.10239677004,0.0799999999999272
14,28,53475.7635684926,0.0560000000004948
14,29,37981.0325818499,0.0869999999995343
14,30,3591.3348702445,0.218999999999141
15,1,163531.203270073,0.0580000000009022
15,2,194494.024093916,0.0450000000000728
15,3,82158.7009189712,0.0519999999996799
15,4,88856.0469862544,0.0599999999994907
15,5,37603.5723796279,0.0500000000010914
15,6,44165.3711727494,0.110999999998967
15,7,11791.6064612026,0.105999999999767
15,8,66491.9787391344,0.0540000000000873
15,9,9.42413603416546,0.0610000000015134
15,10,227.928173223833,0.0979999999999563
15,11,24362.4449978102,0.0779999999995198
15,12,14.2352269855283,0.136000000000422
15,13,1289.43298924209,0.218999999999141
15,14,914.300085660848,0.0830000000005384
15,15,8009.55862002584,0.242999999998574
15,16,4111.79648659251,0.267000000001644
15,17,166.276823564544,0.119999999998981
15,18,702.631637838771,0.281000000000859
15,19,4570.34551743924,0.31499999999869
15,20,107.72267569479,0.0519999999996799
15,21,1795.17932419034,0.0410000000010768
15,22,16457.3186377091,0.0540000000000873
15,23,25760.907896527,0.0789999999997235
15,24,30330.4243909523,0.0569999999988795
15,25,17964.2508378127,0.213000000001557
15,26,34670.037451335,0.0389999999988504
15,27,875.779239215715,0.19800000000032
15,28,41198.9712193734,0.0619999999998981
15,29,17207.9421371047,0.0760000000009313
15,30,4976.17521839081,0.162000000000262
16,1,34846.0156731815,0.0420000000012806
16,2,320.320533089976,0.0350000000016735
16,3,97352.2544379783,0.0469999999986612
16,4,136764.685093979,0.0590000000011059
16,5,114436.266159098,0.043999999999869
16,6,27594.1713927463,0.0779999999995198
16,7,23891.8103117135,0.0759999999991123
16,8,72301.0790117419,0.055000000000291
16,9,1710.77323171289,0.0590000000011059
16,10,93.5975457528833,0.0689999999995052
16,11,20924.6659147793,0.0450000000000728
16,12,48.980897029632,0.0889999999999418
16,13,13250.0447121043,0.108000000000175
16,14,138.724371965536,0.0689999999995052
16,15,4315.82305607239,0.164999999999054
16,16,5554.85181499385,0.201000000000931
16,17,29.8054710359342,0.0730000000003201
16,18,43.9283084963782,0.130999999999403
16,19,1478.70319997002,0.137000000000626
16,20,47.1895818956745,0.0640000000003056
16,21,813.203382877146,0.0319999999992433
16,22,10584.3689624335,0.0499999999992724
16,23,63.1444409089069,0.0670000000009168
16,24,2496.12786876313,0.0460000000002765
16,25,4904.33395949002,0.319999999999709
16,26,111.107277142482,0.032999999999447
16,27,5224.77169878578,0.377000000000407
16,28,8174.48066423252,0.0580000000009022
16,29,21117.5276629175,0.107999999998356
16,30,109.978874002773,0.0970000000015716
17,1,61491.1817584409,0.058999999999287
17,2,144698.479953981,0.0499999999992724
17,3,132830.545315737,0.0520000000014988
17,4,127152.043309213,0.0750000000007276
17,5,106179.664331671,0.055000000000291
17,6,1278.28975055731,0.346999999999753
17,7,26268.8349072796,0.215000000000146
17,8,21358.3827725207,0.0560000000004948
17,9,33277.621657666,0.109999999998763
17,10,1305.90009319667,0.137000000000626
17,11,6974.24867952692,0.0789999999997235
17,12,6721.25609153639,0.225000000000364
17,13,2210.12853771536,0.322000000000116
17,14,79.2941384964048,0.113999999999578
17,15,183.347471279941,0.256999999999607
17,16,331.659250018466,0.156000000000859
17,17,816.801508757354,0.324999999998909
17,18,427.026859851435,0.420000000000073
17,19,164.17279289395,0.334000000000742
17,20,2258.69773300061,0.0489999999990687
17,21,10622.9226645945,0.0390000000006694
17,22,6165.18189872971,0.0490000000008877
17,23,163.825730632334,0.18999999999869
17,24,46642.3947566553,0.0630000000001019
17,25,12485.4601552148,0.101000000000568
17,26,31270.7698187302,0.0519999999996799
17,27,9.47990933302613,0.0850000000009459
17,28,30107.6772184024,0.0729999999985012
17,29,24408.9873497925,0.179000000000087
17,30,7493.95136290886,0.274000000001251
18,1,89516.3137572275,0.0599999999994907
18,2,213347.214059579,0.0579999999990832
18,3,152340.640772615,0.0529999999998836
18,4,144709.059700551,0.0600000000013097
18,5,131467.88450733,0.0469999999986612
18,6,48097.7685337864,0.128000000000611
18,7,39564.9274467817,0.110000000000582
18,8,83886.6265553539,0.0569999999988795
18,9,25135.6083118784,0.0670000000009168
18,10,129.550371020667,0.0869999999995343
18,11,18365.9503426092,0.069999999999709
18,12,17101.7602899653,0.132000000001426
18,13,14973.6800117098,0.238999999999578
18,14,1534.90349081788,0.0840000000007421
18,15,2278.42502873849,0.234000000000378
18,16,3837.88830648918,0.219999999999345
18,17,7854.10768316498,0.135000000000218
18,18,608.662877018859,0.216000000000349
18,19,111.938167664381,0.233000000000175
18,20,7476.93033773449,0.0489999999990687
18,21,2528.23052161009,0.033000000001266
18,22,26372.0456089669,0.0459999999984575
18,23,21127.7711934803,0.0799999999999272
18,24,24611.0864882042,0.0529999999998836
18,25,6270.64872576319,0.228000000000975
18,26,35269.3235384742,0.0460000000002765
18,27,5054.58063145049,0.132999999999811
18,28,65600.2227921195,0.0969999999997526
18,29,53960.562014993,0.0990000000001601
18,30,20582.9717757455,0.149999999999636
19,1,163982.452206852,0.058999999999287
19,2,169508.605800548,0.0450000000000728
19,3,155479.379186367,0.0460000000002765
19,4,164956.787943228,0.0519999999996799
19,5,68313.1527342092,0.0450000000000728
19,6,25968.810628028,0.0799999999999272
19,7,63166.8122206599,0.127000000000407
19,8,141159.101453932,0.0560000000004948
19,9,34542.794954238,0.0749999999989086
19,10,8.24294078318889,0.0740000000005239
19,11,55810.2641699709,0.077000000001135
19,12,23.3257670633396,0.0900000000001455
19,13,126.609866637763,0.158000000001266
19,14,3950.37017993148,0.069999999999709
19,15,1206.59729169016,0.221999999999753
19,16,1571.72977732897,0.248999999999796
19,17,5275.89582244167,0.100000000000364
19,18,47.9022910744188,0.199000000000524
19,19,108.507074992373,0.18999999999869
19,20,22000.3860437023,0.0510000000012951
19,21,3657.424542406,0.0320000000010623
19,22,45530.8899651201,0.047999999998865
19,23,11241.9804581035,0.077000000001135
19,24,102662.778270628,0.0650000000005093
19,25,6088.02045324448,0.226999999998952
19,26,53253.1524024574,0.0419999999994616
19,27,54.1937348427234,0.111000000000786
19,28,42145.6783317757,0.066000000000713
19,29,62387.3906265559,0.0849999999991269
19,30,21625.264697249,0.131999999999607
20,1,49.7136668250349,0.0360000000000582
20,2,170901.965853593,0.043999999999869
20,3,183366.028705746,0.055000000000291
20,4,136680.612760828,0.058999999999287
20,5,99129.1668615385,0.0429999999996653
20,6,67.8228457396535,0.0840000000007421
20,7,49935.4400696557,0.1299999999992
20,8,49344.0802327758,0.0560000000004948
20,9,99.6480675405468,0.0599999999994907
20,10,8570.07865071015,0.121000000001004
20,11,44883.0775757642,0.0599999999994907
20,12,11309.6550976138,0.129000000000815
20,13,656.247418050705,0.242000000000189
20,14,77.6676638903652,0.066000000000713
20,15,3415.73918742221,0.208000000000538
20,16,5671.74011840622,0.162000000000262
20,17,26816.6929364449,0.0839999999989232
20,18,2021.76679957559,0.202000000001135
20,19,726.097876486682,0.219999999999345
20,20,49240.8236449776,0.0360000000000582
20,21,11053.9605114174,0.0319999999992433
20,22,40025.6895984545,0.0450000000000728
20,23,49513.75798757,0.0709999999999127
20,24,48314.2588044929,0.0500000000010914
20,25,80.5736319367653,0.222999999999956
20,26,56085.7292476881,0.0369999999984429
20,27,1195.35191409239,0.0670000000009168
20,28,27941.0962471325,0.0730000000003201
20,29,81.946033701444,0.0469999999986612
20,30,21163.6275048379,0.164000000000669
21,1,107470.494217528,0.0740000000005239
21,2,41023.3989717807,0.0450000000000728
21,3,127476.500490583,0.0620000000017171
21,4,50052.8833832764,0.070000000001528
21,5,3646.80321823697,0.0459999999984575
21,6,20106.5742419762,0.267000000001644
21,7,4773.22240683355,0.214999999998327
21,8,2389.8290893535,0.0600000000013097
21,9,5951.94472690145,0.108000000000175
21,10,2188.22439143036,0.184999999999491
21,11,728.406417783195,0.0849999999991269
21,12,2005.59646877074,0.3700000000008
21,13,4256.16569876908,0.259000000000015
21,14,539.382453779232,0.149999999999636
21,15,5859.23590720348,0.20299999999952
21,16,1896.7920794947,0.293000000001484
21,17,172.935344032543,0.218999999999141
21,18,8368.14809634979,0.231999999999971
21,19,7183.4555835111,0.242000000000189
21,20,211.942826786939,0.0730000000003201
21,21,16175.7701507387,0.0409999999992579
21,22,1101.80966246293,0.058999999999287
21,23,27.506962908993,0.142000000001644
21,24,6814.10750793535,0.0620000000017171
21,25,4370.09071918318,0.178999999998268
21,26,23457.0063472846,0.055000000000291
21,27,750.251164027322,0.134000000000015
21,28,14166.2795293472,0.0740000000005239
21,29,15835.3509558219,0.1299999999992
21,30,4261.63209567443,0.2450000000008
22,1,62621.3371896786,0.043999999999869
22,2,173014.447609922,0.0429999999996653
22,3,101.447530127438,0.0320000000010623
22,4,137798.317698306,0.0559999999986758
22,5,209630.115985642,0.0450000000000728
22,6,66142.1623363231,0.0820000000003347
22,7,28343.1041325349,0.0830000000005384
22,8,45543.1743933079,0.0529999999998836
22,9,15793.7014460721,0.058999999999287
22,10,28.8381455482755,0.0730000000003201
22,11,8347.23924515648,0.0540000000000873
22,12,11.0445880927658,0.0760000000009313
22,13,55.8995794032528,0.0929999999989377
22,14,61.2977066542133,0.066000000000713
22,15,10095.9438535744,0.181000000000495
22,16,14490.8750752669,0.210999999999331
22,17,12.9149543036752,0.0650000000005093
22,18,6120.95777470103,0.1299999999992
22,19,5267.96604348004,0.149999999999636
22,20,6405.2435477929,0.0560000000004948
22,21,9448.14154163162,0.0319999999992433
22,22,10423.8783960103,0.0450000000000728
22,23,22747.4208568373,0.0619999999998981
22,24,23232.552098235,0.0470000000004802
22,25,6614.35748891182,0.20299999999952
22,26,17.3486672126766,0.0320000000010623
22,27,6722.2052658005,0.216000000000349
22,28,6276.87742693316,0.054999999998472
22,29,32096.6598534514,0.0780000000013388
22,30,28661.6751851126,0.100999999998749
23,1,116041.78439181,0.0560000000004948
23,2,212337.032386478,0.0429999999996653
23,3,185796.936113108,0.0509999999994761
23,4,180920.552635069,0.0529999999998836
23,5,105039.309717633,0.0420000000012806
23,6,60.1609670991976,0.110999999998967
23,7,39690.3354497426,0.106999999999971
23,8,107887.305179767,0.0529999999998836
23,9,8.79639196123284,0.0450000000000728
23,10,11500.2233637416,0.0840000000007421
23,11,29927.4094102808,0.0529999999998836
23,12,22727.9694911436,0.136000000000422
23,13,123.501598972707,0.222999999999956
23,14,10704.0269753221,0.0829999999987194
23,15,3995.2568828097,0.151000000001659
23,16,5199.78289292558,0.186999999999898
23,17,18366.6534723352,0.0969999999997526
23,18,1821.00072907076,0.166999999999462
23,19,241.274569657621,0.236000000000786
23,20,46323.6662771965,0.0469999999986612
23,21,3729.58813772564,0.0320000000010623
23,22,34157.1893643006,0.0450000000000728
23,23,32563.6790976138,0.081000000000131
23,24,76785.8333079831,0.0559999999986758
23,25,9961.84104547422,0.208000000000538
23,26,56770.5603632958,0.0360000000000582
23,27,1475.57323891427,0.167999999999665
23,28,52973.6486233779,0.0519999999996799
23,29,46808.6917461594,0.092000000000553
23,30,40092.6228494824,0.111000000000786
24,1,116229.103071631,0.0610000000015134
24,2,178204.975905557,0.0540000000000873
24,3,185369.732340939,0.054999999998472
24,4,140692.883469945,0.0519999999996799
24,5,140821.470342844,0.0510000000012951
24,6,33301.6961950848,0.147999999999229
24,7,24807.9904912781,0.113999999999578
24,8,62955.4381717614,0.0520000000014988
24,9,63145.7567720229,0.069999999999709
24,10,357.545595120716,0.115999999999985
24,11,34747.0382873176,0.0630000000001019
24,12,13800.9401178385,0.209999999999127
24,13,1447.44561526198,0.246999999999389
24,14,5872.22711895131,0.102000000000771
24,15,6773.25217175691,0.208000000000538
24,16,4172.27302197045,0.183999999999287
24,17,14592.6141890786,0.123999999999796
24,18,4463.50994493392,0.212999999999738
24,19,1968.62972329445,0.2450000000008
24,20,25626.6830070451,0.0460000000002765
24,21,3429.0556288261,0.0339999999996508
24,22,15385.187064871,0.0579999999990832
24,23,13386.9892674074,0.0830000000005384
24,24,30862.7901116954,0.0599999999994907
24,25,3362.36167610034,0.229000000001179
24,26,51471.5557631604,0.0359999999982392
24,27,168.609406058036,0.0850000000009459
24,28,57420.7338030385,0.0640000000003056
24,29,58182.2390210173,0.119999999998981
24,30,19704.4100160697,0.227000000000771
25,1,31871.4890698371,0.0529999999998836
25,2,146702.15096979,0.0429999999996653
25,3,49608.526797315,0.0460000000002765
25,4,115079.567545923,0.0540000000000873
25,5,50934.2537656422,0.0460000000002765
25,6,13646.2186097105,0.104999999999563
25,7,7292.65675563693,0.10399999999936
25,8,80075.5832517376,0.0570000000006985
25,9,51206.8628732062,0.069999999999709
25,10,5.16628376683942,0.0670000000009168
25,11,158.807312862685,0.0599999999994907
25,12,18.6131084451755,0.122999999999593
25,13,153.201312861855,0.170000000000073
25,14,147.962524814092,0.081000000000131
25,15,4743.43372428425,0.2450000000008
25,16,2382.17769368307,0.290999999999258
25,17,195.263754888023,0.10399999999936
25,18,9854.17145363588,0.208000000000538
25,19,10504.6728687617,0.186999999999898
25,20,11292.7552553915,0.0570000000006985
25,21,7846.28171707284,0.0319999999992433
25,22,1077.54755534802,0.0460000000002765
25,23,5.91345235746151,0.069999999999709
25,24,65415.2564584759,0.0519999999996799
25,25,12725.4679040118,0.286000000000058
25,26,21000.841856933,0.0429999999996653
25,27,1115.0646688258,0.226000000000568
25,28,7637.53875970228,0.0769999999993161
25,29,21702.3753940315,0.0889999999999418
25,30,194.925903605701,0.118000000000393
26,1,68316.6851184554,0.0460000000002765
26,2,250872.135334754,0.0389999999988504
26,3,223959.550818845,0.0429999999996653
26,4,118521.788951717,0.0460000000002765
26,5,209707.204904552,0.043999999999869
26,6,85457.0504021646,0.0709999999999127
26,7,12634.5783485161,0.0670000000009168
26,8,34738.429439124,0.043999999999869
26,9,19102.6711570459,0.0529999999998836
26,10,11180.4428703464,0.0979999999999563
26,11,14775.7574963455,0.0499999999992724
26,12,26.4483541785964,0.0619999999998981
26,13,50717.557382766,0.0830000000005384
26,14,9069.34112161761,0.0650000000005093
26,15,12705.2480769301,0.125
26,16,24506.2331377013,0.118000000000393
26,17,6327.17419923468,0.0779999999995198
26,18,22090.2927515693,0.0949999999993452
26,19,20898.2474499577,0.0979999999999563
26,20,14554.9385805342,0.0419999999994616
26,21,24056.837094383,0.0410000000010768
26,22,50556.6039670453,0.0560000000004948
26,23,4955.55715099467,0.0599999999994907
26,24,105686.345191609,0.047999999998865
26,25,72.7816543058534,0.177000000001499
26,26,24006.6229481197,0.0319999999992433
26,27,15961.3568231099,0.22400000000016
26,28,36452.4175887356,0.0419999999994616
26,29,56439.4605259017,0.0619999999998981
26,30,17853.0241135382,0.0760000000009313
27,1,182800.340962512,0.0569999999988795
27,2,200022.01225518,0.0400000000008731
27,3,188560.811869792,0.0529999999998836
27,4,186911.973594963,0.0360000000000582
27,5,162480.741472735,0.0399999999990541
27,6,62341.3599295761,0.0730000000003201
27,7,112.859882524994,0.0670000000009168
27,8,122071.733649018,0.043999999999869
27,9,102994.780635699,0.0859999999993306
27,10,19129.6860183483,0.0910000000003492
27,11,63700.0598556077,0.0560000000004948
27,12,38624.0024402189,0.132999999999811
27,13,27449.2504713707,0.184999999999491
27,14,24341.4223715932,0.0740000000005239
27,15,1589.39648779514,0.153000000000247
27,16,2722.90533484254,0.183999999999287
27,17,36463.0049036696,0.0879999999997381
27,18,310.79001128128,0.144000000000233
27,19,31105.9817324647,0.182000000000698
27,20,54176.9399342522,0.0459999999984575
27,21,339.818145583937,0.0290000000004511
27,22,70973.9178110717,0.0429999999996653
27,23,86.0009876148857,0.0500000000010914
27,24,108639.161800339,0.0360000000000582
27,25,6007.11002589424,0.236999999999171
27,26,165793.714258795,0.0489999999990687
27,27,471.966384352233,0.140000000001237
27,28,111326.81415324,0.0489999999990687
27,29,81973.9144862995,0.0830000000005384
27,30,131.287907868105,0.0979999999999563
28,1,166514.638031271,0.0499999999992724
28,2,240628.140950538,0.0390000000006694
28,3,247174.310984502,0.0609999999996944
28,4,114970.429197076,0.0529999999998836
28,5,119561.086831079,0.0400000000008731
28,6,83.8093971009392,0.0489999999990687
28,7,4.50946475328978,0.043999999999869
28,8,137854.548047147,0.0529999999998836
28,9,125418.470353791,0.0670000000009168
28,10,39060.7904676448,0.0730000000003201
28,11,71.7460071920131,0.0459999999984575
28,12,69181.6804469526,0.0969999999997526
28,13,6.38438266811894,0.077000000001135
28,14,21927.967136998,0.0630000000001019
28,15,31.8197419141124,0.110999999998967
28,16,66.8434527026305,0.144000000000233
28,17,19.3828104294764,0.0760000000009313
28,18,72.3840137307588,0.0949999999993452
28,19,7.55197597720057,0.0740000000005239
28,20,45073.5235173322,0.0450000000000728
28,21,80.1324920893488,0.0289999999986321
28,22,90647.9446385428,0.0430000000014843
28,23,43710.5619895401,0.0520000000014988
28,24,95267.3834325862,0.0399999999990541
28,25,700.685122722755,0.165000000000873
28,26,70131.589515026,0.0419999999994616
28,27,4267.4602953323,0.204999999999927
28,28,69805.755759434,0.0640000000003056
28,29,91736.9602032745,0.0739999999987049
28,30,47461.847652514,0.110000000000582
29,1,97717.4724826108,0.0689999999995052
29,2,126646.702007023,0.0630000000001019
29,3,96862.8770370204,0.0600000000013097
29,4,100242.762294366,0.0849999999991269
29,5,92333.3536372033,0.0580000000009022
29,6,10103.3371965523,0.225999999998749
29,7,9157.7650831497,0.248999999999796
29,8,56985.7534100289,0.0709999999999127
29,9,34.83654070474,0.137000000000626
29,10,2797.14680645726,0.216000000000349
29,11,25562.8873306977,0.118000000000393
29,12,3189.67636829741,0.274999999999636
29,13,3319.74928206751,0.136999999998807
29,14,11480.3249328427,0.166000000001077
29,15,8646.07744778601,0.15599999999904
29,16,234.388019600023,0.143000000000029
29,17,5649.2717079103,0.248999999999796
29,18,2487.58826592264,0.180000000000291
29,19,627.366830734284,0.182000000000698
29,20,35144.781685783,0.0659999999988941
29,21,879.704929717996,0.0320000000010623
29,22,17290.2870981193,0.0529999999998836
29,23,7919.31898021054,0.248999999999796
29,24,44108.1564131618,0.069999999999709
29,25,36.6411611440503,0.0740000000005239
29,26,67153.3862421916,0.0450000000000728
29,27,87.7265778380642,0.0649999999986903
29,28,30945.0285785992,0.0850000000009459
29,29,102.741922960033,0.139999999999418
29,30,4574.76105660007,0.184999999999491
30,1,210962.314003479,0.0529999999998836
30,2,260445.056108046,0.0400000000008731
30,3,113901.759969087,0.0450000000000728
30,4,129405.799348454,0.0509999999994761
30,5,180140.399101835,0.043999999999869
30,6,80741.2698950335,0.0859999999993306
30,7,15332.674797228,0.0740000000005239
30,8,10990.814625885,0.0450000000000728
30,9,32326.9407907873,0.0630000000001019
30,10,36.2314652636419,0.0669999999990978
30,11,18796.3138493228,0.0460000000002765
30,12,11075.3419450393,0.114999999999782
30,13,9444.50184047643,0.111000000000786
30,14,565.692129195051,0.0630000000001019
30,15,3354.33606233118,0.132999999999811
30,16,1986.04575221625,0.244999999998981
30,17,1545.04141373639,0.092000000000553
30,18,310.443986019171,0.105999999999767
30,19,14584.0764870737,0.162000000000262
30,20,64.6600411582294,0.0429999999996653
30,21,195.37204539904,0.0320000000010623
30,22,8144.49128560545,0.0459999999984575
30,23,5810.61242727773,0.0709999999999127
30,24,63899.5499140342,0.0520000000014988
30,25,14057.8818443844,0.162999999998647
30,26,45167.6965772646,0.0380000000004657
30,27,4649.74786681416,0.278000000000247
30,28,34869.1559345165,0.055000000000291
30,29,19885.8834441635,0.0720000000001164
30,30,364.198209070765,0.0939999999991414
