"Before.Version","After.Version","Diff","Direction","P.Value","Simple.Diff","Within.Diffs.Mean","Within.Diffs.SD","Between.Diffs.Mean","Between.Diffs.SD","Runtime"
"v1","v2",FALSE,NA,0,0.287,2867.361,883.415,3337.804,860.861,1.066
"v2","v3",TRUE,"NEGATIVE",0,0.998,2895.827,793.41,7021.476,1207.586,1.056
"v3","v4",FALSE,NA,0,0.183,2548.949,642.439,2773.498,689.771,1.02
