"Before.Trace.ID1","Before.Trace.ID2","Difference","Runtime"
1,2,173.980044516253,0.0129999999990105
1,3,3.45391163330912,0.00899999999819556
1,4,1108.73395266901,0.00800000000162981
1,5,337.359259703868,0.0149999999994179
1,6,2434.77095724245,0.010999999998603
1,7,308.60180696623,0.010999999998603
1,8,6528.88413628609,0.00800000000162981
1,9,1051.63611956496,0.0149999999994179
1,10,267.699997394109,0.0160000000032596
1,11,1612.07483577783,0.00400000000081491
1,12,923.549839611631,0.0129999999990105
1,13,1645.54065788644,0.00800000000162981
1,14,989.171597842231,0.011000000005879
1,15,292.514061017783,0.0160000000032596
1,16,3141.44007479908,0.00999999999476131
1,17,8.34715516855111,0.0100000000020373
1,18,1531.31180212824,0.0169999999998254
1,19,1612.563033617,0.00899999999819556
1,20,591.991260545298,0.0160000000032596
1,21,1439.29528222352,0.0129999999990105
1,22,2750.79694994569,0.0140000000028522
1,23,8.03027971459296,0.0139999999955762
1,24,0.586422632320303,0.0100000000020373
1,25,1018.775205474,0.00800000000162981
1,26,412.648211181292,0.00699999999778811
1,27,0.0152902084827051,0.00499999999738066
1,28,1932.61123413629,0.00700000000506407
1,29,1150.95491557748,0.00699999999778811
1,30,833.460485350639,0.011000000005879
2,3,18.2831005936416,0.00899999999819556
2,4,388.606863805996,0.0169999999998254
2,5,265.089203563454,0.0169999999998254
2,6,150.607607384401,0.0120000000024447
2,7,407.802040544604,0.0119999999951688
2,8,1.65147952262053,0.00899999999819556
2,9,61.9946948337791,0.0230000000010477
2,10,136.455324374117,0.0129999999990105
2,11,2023.41440298888,0.0140000000028522
2,12,243.305554792505,0.0190000000002328
2,13,125.2749506317,0.0120000000024447
2,14,154.405401358363,0.0239999999976135
2,15,231.196491884038,0.00899999999819556
2,16,1411.97393025782,0.022000000004482
2,17,34.1911340183318,0.0159999999959837
2,18,736.774777507183,0.0210000000006403
2,19,366.872769999841,0.0100000000020373
2,20,1057.99712441281,0.0120000000024447
2,21,116.98637021984,0.0129999999990105
2,22,203.949349510858,0.0129999999990105
2,23,177.412547469488,0.0129999999990105
2,24,308.835455167462,0.0210000000006403
2,25,400.878670329196,0.0160000000032596
2,26,868.318793267693,0.0100000000020373
2,27,4102.76566788753,0.0169999999998254
2,28,1243.36845866495,0.00899999999819556
2,29,4.75862567494531,0.0129999999990105
2,30,445.863377207197,0.0190000000002328
3,4,505.721366733311,0.00800000000162981
3,5,190.177312257293,0.0129999999990105
3,6,240.124161946396,0.0100000000020373
3,7,30.7485100465609,0.0140000000028522
3,8,3550.3666253173,0.00799999999435386
3,9,128.139462765914,0.0160000000032596
3,10,599.142384262392,0.010999999998603
3,11,982.945571228458,0.00899999999819556
3,12,273.003875966311,0.0150000000066939
3,13,2701.42414439905,0.0059999999939464
3,14,1145.62664250123,0.0129999999990105
3,15,498.326715413929,0.0150000000066939
3,16,51.8902792759645,0.00699999999778811
3,17,869.951463739807,0.00800000000162981
3,18,32.0232225517469,0.00999999999476131
3,19,2901.96987224022,0.00699999999778811
3,20,2466.13587669596,0.0140000000028522
3,21,651.217728889143,0.0139999999955762
3,22,467.574355464466,0.0169999999998254
3,23,201.299758504818,0.00900000000547152
3,24,1.38759575054195,0.0059999999939464
3,25,481.15582613702,0.00500000000465661
3,26,15.5919201595445,0.00500000000465661
3,27,1988.4505216601,0.00799999999435386
3,28,1268.67226410445,0.00600000000122236
3,29,26.4333039369947,0.00500000000465661
3,30,60.9545990160663,0.00899999999819556
4,5,12.2711955190081,0.0159999999959837
4,6,262.546504023865,0.0100000000020373
4,7,289.464633689063,0.0120000000024447
4,8,2296.49989856169,0.00899999999819556
4,9,48.0926120842284,0.0129999999990105
4,10,867.712833751188,0.0129999999990105
4,11,912.60854698272,0.0200000000040745
4,12,174.440875002189,0.00799999999435386
4,13,157.804903064461,0.0140000000028522
4,14,7.63574092552636,0.0129999999990105
4,15,333.826568883532,0.0100000000020373
4,16,335.860912133632,0.0179999999963911
4,17,197.110163305278,0.0130000000062864
4,18,216.042860462928,0.0160000000032596
4,19,3007.25647384778,0.0149999999994179
4,20,519.92149722882,0.010999999998603
4,21,96.6143529824265,0.00899999999819556
4,22,317.297970371235,0.0120000000024447
4,23,1429.31908951782,0.0119999999951688
4,24,41.5310137078036,0.0140000000028522
4,25,230.990263472211,0.0129999999990105
4,26,0.208898685765164,0.0120000000024447
4,27,2670.65567431373,0.0129999999990105
4,28,1443.07067212136,0.00800000000162981
4,29,6.63579820590565,0.010999999998603
4,30,41.7319638873798,0.0140000000028522
5,6,48.7810704925174,0.0159999999959837
5,7,525.218897720651,0.0210000000006403
5,8,1291.0818040989,0.00800000000162981
5,9,812.050632495067,0.0309999999954016
5,10,101.496236327493,0.0190000000002328
5,11,2367.42341760551,0.0120000000024447
5,12,426.338119006667,0.0200000000040745
5,13,2228.34194279189,0.00999999999476131
5,14,27.4070373135621,0.0169999999998254
5,15,235.713915177479,0.0180000000036671
5,16,2080.86737841601,0.00999999999476131
5,17,640.209842434271,0.0120000000024447
5,18,1106.08239273509,0.0129999999990105
5,19,669.008068086185,0.00700000000506407
5,20,207.623926693175,0.0179999999963911
5,21,766.135858667312,0.0149999999994179
5,22,852.777580296484,0.0190000000002328
5,23,43.1070499653273,0.0160000000032596
5,24,1839.45998159667,0.0139999999955762
5,25,1130.57472951312,0.0100000000020373
5,26,6.62765623249825,0.00800000000162981
5,27,5300.45557742517,0.00899999999819556
5,28,2232.55243786855,0.00600000000122236
5,29,16.1439603450238,0.00800000000162981
5,30,656.297904919029,0.0120000000024447
6,7,1554.11437547907,0.0119999999951688
6,8,907.532667018358,0.00900000000547152
6,9,1029.54646526607,0.0159999999959837
6,10,3001.28536357495,0.0120000000024447
6,11,5.57218230059091,0.010999999998603
6,12,1551.98039578541,0.0120000000024447
6,13,950.693416787636,0.010999999998603
6,14,264.33138292728,0.0120000000024447
6,15,330.961173192523,0.00999999999476131
6,16,8.02276460411984,0.0120000000024447
6,17,1547.11621839363,0.0120000000024447
6,18,160.159519753877,0.00999999999476131
6,19,1825.90651690759,0.0130000000062864
6,20,1843.12382300155,0.0129999999990105
6,21,299.859853949965,0.0149999999994179
6,22,247.107200225024,0.0190000000002328
6,23,3373.48469144066,0.0129999999990105
6,24,153.973684746073,0.0119999999951688
6,25,1114.48632361322,0.0140000000028522
6,26,376.191043983108,0.00800000000162981
6,27,0.425362672963509,0.010999999998603
6,28,424.6611468138,0.00899999999819556
6,29,1684.85064680626,0.0100000000020373
6,30,843.091194997228,0.0129999999990105
7,8,2396.26472364632,0.00699999999778811
7,9,219.216255604627,0.0140000000028522
7,10,1233.83439688538,0.0290000000022701
7,11,4776.64043094978,0.00999999999476131
7,12,558.132929807228,0.0180000000036671
7,13,47.6082316426538,0.00699999999778811
7,14,93.2888005022338,0.0120000000024447
7,15,287.958743505087,0.0140000000028522
7,16,1544.14199897061,0.00899999999819556
7,17,6.89938479389421,0.0100000000020373
7,18,1428.26050290094,0.00799999999435386
7,19,9979.92070192607,0.00800000000162981
7,20,141.934724956618,0.0190000000002328
7,21,10.2813833772919,0.0140000000028522
7,22,1596.04200466511,0.0129999999990105
7,23,457.424115625332,0.0210000000006403
7,24,192.029734452642,0.00999999999476131
7,25,198.32987724791,0.00800000000162981
7,26,0.840427849168833,0.00899999999819556
7,27,26127.123903313,0.00900000000547152
7,28,1144.29498566546,0.00899999999819556
7,29,1780.74936946605,0.00899999999819556
7,30,0.772872929034351,0.0100000000020373
8,9,3476.93800804556,0.00800000000162981
8,10,6808.77346279624,0.00699999999778811
8,11,1.25066627890242,0.00600000000122236
8,12,0.389545068635443,0.00600000000122236
8,13,908.106497405164,0.010999999998603
8,14,4214.27000430935,0.0100000000020373
8,15,2691.39569457613,0.00999999999476131
8,16,26.6661682815755,0.0100000000020373
8,17,0.266206668166485,0.00899999999819556
8,18,73.3330531678679,0.0100000000020373
8,19,250.886552135399,0.0100000000020373
8,20,4775.73407108969,0.00899999999819556
8,21,21.513410459375,0.00600000000122236
8,22,357.228380454729,0.010999999998603
8,23,10867.3780092308,0.00699999999778811
8,24,2389.43821726079,0.00900000000547152
8,25,544.410876520871,0.00799999999435386
8,26,2075.15978997933,0.010999999998603
8,27,44.0980972370499,0.00800000000162981
8,28,713.590722794971,0.0140000000028522
8,29,4.01187902785157,0.0149999999994179
8,30,1317.03899190378,0.0100000000020373
9,10,414.042055298657,0.0169999999998254
9,11,3366.49369483041,0.00799999999435386
9,12,381.205511135118,0.0160000000032596
9,13,597.235037898325,0.0129999999990105
9,14,385.942593264931,0.0210000000006403
9,15,109.526420735966,0.0140000000028522
9,16,3094.13754169407,0.00999999999476131
9,17,372.29473755457,0.011000000005879
9,18,1742.45269786158,0.0169999999998254
9,19,11417.5537901227,0.00799999999435386
9,20,706.838317542708,0.0239999999976135
9,21,948.728375357114,0.0169999999998254
9,22,1107.12595810044,0.0169999999998254
9,23,339.2323623258,0.0129999999990105
9,24,12.246254899593,0.0149999999994179
9,25,468.967177832362,0.00900000000547152
9,26,986.115958187236,0.00699999999778811
9,27,2.46220196017299,0.00500000000465661
9,28,3195.98386667753,0.00899999999819556
9,29,2483.80334122325,0.0100000000020373
9,30,1239.49308811672,0.0169999999998254
10,11,25331.6906429432,0.010999999998603
10,12,1529.98992095545,0.0149999999994179
10,13,3249.31118575036,0.0100000000020373
10,14,1214.32361039393,0.0100000000020373
10,15,1398.11299559392,0.0139999999955762
10,16,1640.7508662667,0.0120000000024447
10,17,252.841322994791,0.0119999999951688
10,18,1464.79540670101,0.011000000005879
10,19,3335.60821872797,0.00799999999435386
10,20,630.992822412905,0.0280000000057044
10,21,405.085406901326,0.0139999999955762
10,22,8507.32954507372,0.0180000000036671
10,23,440.710322906906,0.021999999997206
10,24,2383.8546941544,0.010999999998603
10,25,4.88654684836288,0.00900000000547152
10,26,3129.94486736979,0.00999999999476131
10,27,5141.60180304248,0.0100000000020373
10,28,18096.1476682867,0.00800000000162981
10,29,8804.5820117437,0.00800000000162981
10,30,7995.82590836993,0.0139999999955762
11,12,0.948134505288039,0.010999999998603
11,13,101.345658108346,0.0140000000028522
11,14,3315.54064600071,0.010999999998603
11,15,2413.31378712594,0.0149999999994179
11,16,1735.68449661872,0.0160000000032596
11,17,1440.6015982513,0.00899999999819556
11,18,2160.98673922528,0.0160000000032596
11,19,574.082993535538,0.0129999999990105
11,20,5365.14310501456,0.010999999998603
11,21,1560.72739491744,0.00899999999819556
11,22,1171.32134564623,0.00800000000162981
11,23,4937.66377769548,0.0100000000020373
11,24,2597.51022113266,0.0159999999959837
11,25,2538.22994467203,0.0129999999990105
11,26,945.001508132073,0.00699999999778811
11,27,42.7701143569928,0.010999999998603
11,28,685.214722553512,0.00900000000547152
11,29,3.36955750655371,0.00999999999476131
11,30,183.911803396291,0.0129999999990105
12,13,1343.53469204061,0.00900000000547152
12,14,723.736575167445,0.0159999999959837
12,15,66.2282094353784,0.0140000000028522
12,16,2546.2302637528,0.010999999998603
12,17,633.323113493719,0.0160000000032596
12,18,52.1476638718243,0.0119999999951688
12,19,4802.2150868322,0.00600000000122236
12,20,783.180013130523,0.0140000000028522
12,21,1024.93993498986,0.0149999999994179
12,22,1375.44084628036,0.0159999999959837
12,23,1343.00791895905,0.0200000000040745
12,24,95.3006558070839,0.0169999999998254
12,25,33.9164527499113,0.00899999999819556
12,26,148.891039939785,0.00800000000162981
12,27,6314.77215018371,0.00800000000162981
12,28,3456.35813409023,0.00999999999476131
12,29,119.621777362239,0.0100000000020373
12,30,2094.72764569167,0.0129999999990105
13,14,369.312968855873,0.010999999998603
13,15,4.44942164390497,0.00800000000162981
13,16,4240.98046659172,0.0210000000006403
13,17,585.482102936541,0.0120000000024447
13,18,2600.81049244522,0.0139999999955762
13,19,13485.6119486066,0.00999999999476131
13,20,11.5275628232313,0.00900000000547152
13,21,882.348292482688,0.00999999999476131
13,22,317.597630862459,0.011000000005879
13,23,772.292015138603,0.00999999999476131
13,24,898.869746370047,0.0160000000032596
13,25,260.725896603946,0.0179999999963911
13,26,1830.47874567846,0.0160000000032596
13,27,339.65205209471,0.010999999998603
13,28,2492.3976722186,0.010999999998603
13,29,939.228663541873,0.0119999999951688
13,30,905.608349809962,0.0140000000028522
14,15,12.690893089011,0.010999999998603
14,16,2246.66914449424,0.0160000000032596
14,17,247.522550222022,0.021999999997206
14,18,763.006758617251,0.0149999999994179
14,19,3715.03053120622,0.00700000000506407
14,20,109.476562958449,0.0119999999951688
14,21,621.706454603639,0.0100000000020373
14,22,292.909259076928,0.0120000000024447
14,23,1754.82478321021,0.00899999999819556
14,24,567.347113701421,0.0180000000036671
14,25,931.521048049932,0.010999999998603
14,26,406.986121922478,0.00899999999819556
14,27,8557.85801809666,0.010999999998603
14,28,1206.38796037278,0.0100000000020373
14,29,2149.02604191912,0.0140000000028522
14,30,1054.54825257401,0.0190000000002328
15,16,0.148082709266185,0.00699999999778811
15,17,180.589217735503,0.00699999999778811
15,18,1736.6263957861,0.0100000000020373
15,19,12422.4377826338,0.00600000000122236
15,20,387.631801255015,0.0159999999959837
15,21,31.0593805578066,0.011000000005879
15,22,16.6137938540132,0.0129999999990105
15,23,302.489329580659,0.0210000000006403
15,24,32.0550692972596,0.00999999999476131
15,25,4.31240805246542,0.00700000000506407
15,26,715.427900970952,0.00699999999778811
15,27,11591.0729326954,0.00899999999819556
15,28,186.949626557813,0.00700000000506407
15,29,1662.83404599487,0.00799999999435386
15,30,111.481746953091,0.011000000005879
16,17,514.462472626618,0.0179999999963911
16,18,1169.56745471192,0.010999999998603
16,19,1691.69624139529,0.0149999999994179
16,20,1760.40563303416,0.00900000000547152
16,21,1318.49306613082,0.0119999999951688
16,22,409.57106162915,0.0149999999994179
16,23,4717.63016817917,0.011000000005879
16,24,1708.49448341726,0.0229999999937718
16,25,315.181546184865,0.0140000000028522
16,26,0.31229110387648,0.0100000000020373
16,27,3936.74954982854,0.0149999999994179
16,28,0.654730929283259,0.0100000000020373
16,29,5.7901209895849,0.0169999999998254
16,30,779.295961093856,0.0199999999967986
17,18,1008.18662213251,0.0120000000024447
17,19,2131.39406608111,0.00899999999819556
17,20,282.108966587288,0.010999999998603
17,21,988.327062565035,0.0120000000024447
17,22,1144.7807224292,0.0119999999951688
17,23,56.4224160791948,0.0100000000020373
17,24,344.974233197325,0.0169999999998254
17,25,211.189752936408,0.0140000000028522
17,26,293.230325461853,0.010999999998603
17,27,4195.59212648494,0.0100000000020373
17,28,640.425905195761,0.00999999999476131
17,29,61.2116715516687,0.0180000000036671
17,30,399.21623409277,0.0159999999959837
18,19,3329.83733952534,0.0140000000028522
18,20,1823.09981592686,0.0120000000024447
18,21,74.8624530415592,0.0179999999963911
18,22,1889.5074319396,0.0149999999994179
18,23,2158.29335593661,0.00800000000162981
18,24,358.725191360804,0.0200000000040745
18,25,3342.64248565838,0.0149999999994179
18,26,0.273426457574022,0.00899999999819556
18,27,1229.98559313907,0.0120000000024447
18,28,1993.28729866815,0.00699999999778811
18,29,53.150909413448,0.0139999999955762
18,30,976.452066647429,0.0240000000048894
19,20,9784.54826656438,0.00800000000162981
19,21,2472.85229735693,0.0119999999951688
19,22,253.484740623461,0.010999999998603
19,23,29557.8489279084,0.00900000000547152
19,24,4496.91389138322,0.0129999999990105
19,25,2407.11843266757,0.0119999999951688
19,26,485.130296639726,0.011000000005879
19,27,532.999785367826,0.00999999999476131
19,28,1780.06199677106,0.0100000000020373
19,29,1537.57840059731,0.0129999999990105
19,30,1081.59467729545,0.0140000000028522
20,21,534.266111389892,0.0129999999990105
20,22,611.3004448267,0.0199999999967986
20,23,4.36285033922974,0.0180000000036671
20,24,211.803337152097,0.010999999998603
20,25,53.9458809470204,0.0100000000020373
20,26,903.215049768431,0.00600000000122236
20,27,13186.5294557083,0.010999999998603
20,28,956.717560497554,0.00699999999778811
20,29,3206.25771118457,0.00800000000162981
20,30,442.591313247199,0.010999999998603
21,22,234.258670629548,0.0169999999998254
21,23,1085.93753343434,0.0160000000032596
21,24,272.572086059443,0.00999999999476131
21,25,991.217329014396,0.010999999998603
21,26,274.221994614109,0.00999999999476131
21,27,4826.23201004716,0.00800000000162981
21,28,798.693806054159,0.00800000000162981
21,29,1165.2625423508,0.00800000000162981
21,30,3.84077782866515,0.010999999998603
22,23,2330.0737082926,0.0139999999955762
22,24,41.2199924579896,0.0200000000040745
22,25,16.0046828193825,0.0129999999990105
22,26,1794.28338975393,0.00800000000162981
22,27,1774.81728128062,0.0119999999951688
22,28,338.717958002247,0.00700000000506407
22,29,117.971813539928,0.010999999998603
22,30,818.712729122745,0.0139999999955762
23,24,988.739845449737,0.011000000005879
23,25,961.562514856991,0.00999999999476131
23,26,1497.93409009475,0.00800000000162981
23,27,7233.45571144467,0.00699999999778811
23,28,8081.00289447175,0.0100000000020373
23,29,3556.08538819063,0.010999999998603
23,30,2608.67313614335,0.0120000000024447
24,25,100.822103465972,0.0230000000010477
24,26,711.360542889979,0.00800000000162981
24,27,2307.42728325809,0.0149999999994179
24,28,5280.52899067822,0.00800000000162981
24,29,19.4374510158967,0.0139999999955762
24,30,628.978412044475,0.0180000000036671
25,26,1550.07934455883,0.0249999999941792
25,27,329.374639745989,0.011000000005879
25,28,2178.89543730834,0.0190000000002328
25,29,694.019639177819,0.0139999999955762
25,30,396.23137389445,0.0160000000032596
26,27,1420.17707599403,0.00999999999476131
26,28,2012.17376768549,0.0190000000002328
26,29,401.286293650321,0.0120000000024447
26,30,100.486673765364,0.0100000000020373
27,28,92.2143711539512,0.00699999999778811
27,29,2.62691779046978,0.0149999999994179
27,30,3474.95523490611,0.010999999998603
28,29,1159.5712432979,0.0100000000020373
28,30,387.842162250766,0.00799999999435386
29,30,41.4493888255369,0.0100000000020373


"After.Trace.ID","Before.Trace.ID","Difference","Runtime"
1,1,482.051946176298,0.00699999999778811
1,2,3221.7327292911,0.0140000000028522
1,3,5.44434162225377,0.00499999999738066
1,4,8.12895659441912,0.0149999999994179
1,5,368.797676842953,0.00800000000162981
1,6,4085.47145948438,0.0120000000024447
1,7,23010.730979534,0.00799999999435386
1,8,12.1911485243449,0.00800000000162981
1,9,7278.42932747557,0.00800000000162981
1,10,21921.2144787316,0.00899999999819556
1,11,0.186051581829218,0.00900000000547152
1,12,3745.08785930541,0.00499999999738066
1,13,5141.40211705407,0.0100000000020373
1,14,7012.04555040027,0.00899999999819556
1,15,3165.70101928312,0.00800000000162981
1,16,1510.00736647203,0.00899999999819556
1,17,7185.29467425291,0.00800000000162981
1,18,1399.47621890871,0.0129999999990105
1,19,679.257076852792,0.0169999999998254
1,20,9125.1890401622,0.00900000000547152
1,21,2844.55748357901,0.010999999998603
1,22,1315.45782318162,0.00899999999819556
1,23,37844.0797649308,0.00699999999778811
1,24,3046.49398274135,0.0120000000024447
1,25,10813.2035829277,0.0169999999998254
1,26,39.7821645566317,0.010999999998603
1,27,218.572708492743,0.0149999999994179
1,28,761.754065607922,0.00799999999435386
1,29,53.8768617154964,0.0140000000028522
1,30,2468.96475472064,0.00899999999819556
2,1,1828.04273541453,0.00699999999778811
2,2,3626.82945530537,0.0100000000020373
2,3,6306.32065616867,0.00600000000122236
2,4,1351.17464123944,0.00999999999476131
2,5,1253.72348331978,0.0100000000020373
2,6,721.22436823141,0.00899999999819556
2,7,3653.76873151444,0.00700000000506407
2,8,1300.62269362294,0.010999999998603
2,9,5159.46748117464,0.00899999999819556
2,10,14078.2046366441,0.00899999999819556
2,11,199.325087104784,0.00800000000162981
2,12,1024.12334225946,0.00699999999778811
2,13,27.2147325883331,0.0130000000062864
2,14,3030.66343884526,0.00899999999819556
2,15,3943.24948014823,0.00800000000162981
2,16,96.4115665527892,0.010999999998603
2,17,88.4404828080189,0.00699999999778811
2,18,457.263153879723,0.0169999999998254
2,19,541.425910313183,0.0169999999998254
2,20,5920.11741888455,0.00799999999435386
2,21,3693.49413475509,0.00900000000547152
2,22,561.726800593245,0.00999999999476131
2,23,15452.2773623449,0.00800000000162981
2,24,6750.71341428856,0.010999999998603
2,25,10456.9479421338,0.0190000000002328
2,26,958.578592951362,0.0190000000002328
2,27,1713.96925962868,0.0149999999994179
2,28,559.310019214115,0.0200000000040745
2,29,1049.24939635966,0.0179999999963911
2,30,94.8040058847857,0.00800000000162981
3,1,462.814533787129,0.00899999999819556
3,2,474.765709179692,0.0120000000024447
3,3,862.438769211134,0.00499999999738066
3,4,326.864921601557,0.0149999999994179
3,5,1842.74252806691,0.00900000000547152
3,6,1524.87542669786,0.010999999998603
3,7,270.00243872056,0.0100000000020373
3,8,486.509131349773,0.0120000000024447
3,9,85.4067859119494,0.00799999999435386
3,10,3234.25758100651,0.0100000000020373
3,11,5804.15987886292,0.0120000000024447
3,12,69.9620148109902,0.00899999999819556
3,13,428.735781792415,0.0190000000002328
3,14,1084.72082386556,0.0100000000020373
3,15,44.898658510644,0.00699999999778811
3,16,405.42357696224,0.0149999999994179
3,17,569.649757383111,0.0100000000020373
3,18,1286.34535851845,0.0159999999959837
3,19,1694.51220008757,0.0160000000032596
3,20,64.8015860045623,0.00899999999819556
3,21,1371.41995255835,0.00899999999819556
3,22,234.851845248687,0.0100000000020373
3,23,659.06608514606,0.0100000000020373
3,24,1416.72426785556,0.0120000000024447
3,25,2.61739998481387,0.0190000000002328
3,26,1701.95474277769,0.0179999999963911
3,27,475.464146963153,0.0140000000028522
3,28,1100.45894844823,0.0169999999998254
3,29,1151.16776945522,0.0230000000010477
3,30,0.0807543319839386,0.010999999998603
4,1,6112.98811714993,0.00699999999778811
4,2,2523.50083259854,0.0169999999998254
4,3,351.343479481037,0.00600000000122236
4,4,533.925537957468,0.0129999999990105
4,5,2360.64127508323,0.00800000000162981
4,6,28.9441249347101,0.00899999999819556
4,7,2975.15728921155,0.0100000000020373
4,8,0.547879009805089,0.00699999999778811
4,9,4.76285641603465,0.0100000000020373
4,10,8478.07564119579,0.0100000000020373
4,11,701.453224572339,0.00899999999819556
4,12,3175.88321304076,0.010999999998603
4,13,1747.04596534572,0.0120000000024447
4,14,1373.62455846034,0.0229999999937718
4,15,5656.1879066656,0.0130000000062864
4,16,672.368553683228,0.0129999999990105
4,17,3431.75678108,0.0159999999959837
4,18,794.020394005429,0.0179999999963911
4,19,231.500582038169,0.0200000000040745
4,20,2680.8701941159,0.00799999999435386
4,21,953.655411750665,0.0130000000062864
4,22,2829.14898324401,0.00899999999819556
4,23,9097.9479177493,0.0120000000024447
4,24,703.322001525157,0.0119999999951688
4,25,2739.97041520372,0.0140000000028522
4,26,903.490055976823,0.00899999999819556
4,27,87.7527252874022,0.0120000000024447
4,28,12.6139790313716,0.00699999999778811
4,29,116.725662361495,0.0120000000024447
4,30,2185.17925387333,0.0210000000006403
5,1,57.4041843804359,0.010999999998603
5,2,473.700689740385,0.021999999997206
5,3,1.13953606385935,0.0119999999951688
5,4,707.180512680032,0.0180000000036671
5,5,128.890517715839,0.0119999999951688
5,6,1102.09082187563,0.0160000000032596
5,7,504.274380544005,0.010999999998603
5,8,2101.34188218831,0.00899999999819556
5,9,103.035416483065,0.0169999999998254
5,10,18.8066833175019,0.0120000000024447
5,11,1219.97268646127,0.010999999998603
5,12,996.911137779532,0.0140000000028522
5,13,997.855807097537,0.0120000000024447
5,14,567.822554780273,0.0159999999959837
5,15,595.781064842467,0.00899999999819556
5,16,384.296364250682,0.0160000000032596
5,17,621.906174696535,0.0169999999998254
5,18,317.062944358662,0.0199999999967986
5,19,1072.1864455199,0.0140000000028522
5,20,381.191624177758,0.0100000000020373
5,21,219.475846251402,0.0149999999994179
5,22,523.131144088825,0.0169999999998254
5,23,165.038545774628,0.010999999998603
5,24,226.584203384433,0.0149999999994179
5,25,260.961798548659,0.0129999999990105
5,26,117.549799277564,0.0100000000020373
5,27,9965.12210359759,0.0140000000028522
5,28,10.4195436901336,0.00799999999435386
5,29,3874.40614233005,0.0100000000020373
5,30,78.0998310380435,0.0239999999976135
6,1,2779.7209954348,0.00900000000547152
6,2,1388.32769852826,0.00899999999819556
6,3,119.302000615099,0.00600000000122236
6,4,773.77590108028,0.00999999999476131
6,5,2123.05901344681,0.00900000000547152
6,6,1858.95579661696,0.0119999999951688
6,7,1388.65719421348,0.00700000000506407
6,8,7.69456428355043,0.0120000000024447
6,9,3989.86914945873,0.00899999999819556
6,10,8299.23997177658,0.00899999999819556
6,11,245.512633374544,0.0120000000024447
6,12,4136.97192116735,0.00800000000162981
6,13,2000.01192162806,0.0169999999998254
6,14,5842.70213354428,0.010999999998603
6,15,3278.04900472734,0.00800000000162981
6,16,246.177634001401,0.0119999999951688
6,17,1405.1865532182,0.00899999999819556
6,18,2266.74466683858,0.0129999999990105
6,19,1472.01550371081,0.0129999999990105
6,20,2676.86715593772,0.00900000000547152
6,21,1721.32433864798,0.00899999999819556
6,22,597.698121394634,0.00800000000162981
6,23,4271.9281307446,0.00899999999819556
6,24,4842.91902271603,0.010999999998603
6,25,1570.76052743485,0.0129999999990105
6,26,43.9078797917101,0.0169999999998254
6,27,629.594156416249,0.0160000000032596
6,28,1.17603082498072,0.010999999998603
6,29,1270.12674002706,0.0259999999980209
6,30,1449.63591252358,0.0129999999990105
7,1,2325.54345895095,0.0120000000024447
7,2,1267.60356142757,0.0139999999955762
7,3,2271.01692595191,0.00699999999778811
7,4,229.898139401637,0.0120000000024447
7,5,4980.83901710359,0.0100000000020373
7,6,2591.50227886628,0.0149999999994179
7,7,5387.13211590352,0.011000000005879
7,8,2.94362680383517,0.00899999999819556
7,9,9019.37166511367,0.0100000000020373
7,10,20363.1142813974,0.0119999999951688
7,11,213.624458380424,0.010999999998603
7,12,5840.00228916797,0.00600000000122236
7,13,7991.37368756195,0.0100000000020373
7,14,3662.14302045332,0.0120000000024447
7,15,7987.2181593191,0.00899999999819556
7,16,1730.40511426272,0.0120000000024447
7,17,1566.45920093465,0.00999999999476131
7,18,3061.01130697037,0.0120000000024447
7,19,36.4916843939277,0.0159999999959837
7,20,5864.67822508513,0.00800000000162981
7,21,3793.31499063939,0.0129999999990105
7,22,3384.00185802372,0.0149999999994179
7,23,10272.8771991058,0.0100000000020373
7,24,2236.25343113365,0.0120000000024447
7,25,3141.90577239571,0.0149999999994179
7,26,3110.70905543998,0.010999999998603
7,27,7.42149630043374,0.0129999999990105
7,28,776.136423120135,0.010999999998603
7,29,164.611179097607,0.0100000000020373
7,30,2481.37838842728,0.0140000000028522
8,1,734.209451611609,0.00800000000162981
8,2,1561.0587261358,0.0129999999990105
8,3,1378.47639176555,0.00499999999738066
8,4,700.861960957424,0.0129999999990105
8,5,2569.34435189359,0.0120000000024447
8,6,638.535514927615,0.0129999999990105
8,7,3.02620704146398,0.010999999998603
8,8,183.563229284782,0.00899999999819556
8,9,2604.74296836072,0.011000000005879
8,10,12691.0979315405,0.0129999999990105
8,11,1599.76284294459,0.0169999999998254
8,12,450.275526731262,0.00899999999819556
8,13,911.322119782504,0.0239999999976135
8,14,1738.89475909333,0.0100000000020373
8,15,1751.96377912757,0.00699999999778811
8,16,44.6848359280037,0.0200000000040745
8,17,574.423476348708,0.0169999999998254
8,18,2671.38310901342,0.0129999999990105
8,19,760.967045472055,0.0140000000028522
8,20,2165.17635856215,0.00899999999819556
8,21,519.854419429128,0.00900000000547152
8,22,11.0566201480335,0.010999999998603
8,23,2454.20124831342,0.00899999999819556
8,24,1248.09716843068,0.0160000000032596
8,25,2222.09002198515,0.0169999999998254
8,26,153.31963752617,0.0129999999990105
8,27,49.5253813067701,0.0139999999955762
8,28,2.60747769106514,0.011000000005879
8,29,446.5132469333,0.0179999999963911
8,30,833.721599074776,0.010999999998603
9,1,139.235171720315,0.00500000000465661
9,2,3560.86222940363,0.00899999999819556
9,3,6342.89568351362,0.00400000000081491
9,4,2703.37379075315,0.0119999999951688
9,5,398.500779054439,0.00400000000081491
9,6,7037.85885112838,0.00800000000162981
9,7,17097.9655639136,0.0120000000024447
9,8,596.576795721941,0.0149999999994179
9,9,9092.7525246474,0.00600000000122236
9,10,12070.5596100258,0.00799999999435386
9,11,3332.97260431618,0.00800000000162981
9,12,2336.01602541374,0.00600000000122236
9,13,381.31148166304,0.00699999999778811
9,14,4271.99235936814,0.00900000000547152
9,15,9211.33533903151,0.00799999999435386
9,16,4975.89427616381,0.00900000000547152
9,17,9106.97950964175,0.00699999999778811
9,18,10659.5826969996,0.00900000000547152
9,19,1787.58808305543,0.00799999999435386
9,20,6418.58676123536,0.00700000000506407
9,21,8265.11103495075,0.00999999999476131
9,22,6030.54029624269,0.00900000000547152
9,23,146.319349001764,0.00499999999738066
9,24,7070.33868733406,0.0100000000020373
9,25,1538.11402569872,0.00799999999435386
9,26,5391.90690410785,0.0130000000062864
9,27,1758.98505200095,0.0129999999990105
9,28,471.0063510725,0.00699999999778811
9,29,2358.63115713463,0.0190000000002328
9,30,2942.29940565423,0.0100000000020373
10,1,4771.62652644443,0.00699999999778811
10,2,2950.83499172031,0.00699999999778811
10,3,6030.32118473887,0.00500000000465661
10,4,2158.49533172348,0.0129999999990105
10,5,1542.48584749674,0.00800000000162981
10,6,1782.15071447075,0.0119999999951688
10,7,2855.5504329704,0.010999999998603
10,8,50.1581566821352,0.0100000000020373
10,9,4601.75550272288,0.00700000000506407
10,10,10303.234606397,0.00799999999435386
10,11,434.661812111191,0.0100000000020373
10,12,3638.57024051418,0.010999999998603
10,13,1498.93077102038,0.0120000000024447
10,14,2097.85707051483,0.00800000000162981
10,15,3057.67634262082,0.00800000000162981
10,16,409.714694898864,0.0100000000020373
10,17,669.618928385795,0.00799999999435386
10,18,1452.03002154679,0.0100000000020373
10,19,612.260056226168,0.0129999999990105
10,20,3365.81920136709,0.00500000000465661
10,21,3066.29242270818,0.00799999999435386
10,22,863.165689632515,0.0100000000020373
10,23,9218.98229697515,0.0100000000020373
10,24,6412.44469712743,0.00899999999819556
10,25,2113.49774828555,0.010999999998603
10,26,704.756221171914,0.0140000000028522
10,27,1102.86509021269,0.0120000000024447
10,28,74.9237129782803,0.00999999999476131
10,29,2143.86186458409,0.010999999998603
10,30,1240.06835115012,0.00899999999819556
11,1,6542.05582621595,0.00899999999819556
11,2,1530.53999870096,0.00900000000547152
11,3,3833.22514881524,0.00499999999738066
11,4,2245.00111043606,0.010999999998603
11,5,5257.71911548078,0.0100000000020373
11,6,3020.21767858027,0.00899999999819556
11,7,1687.54713926426,0.00899999999819556
11,8,215.48337023084,0.0339999999996508
11,9,3072.18971528479,0.011000000005879
11,10,3951.76483573096,0.00799999999435386
11,11,4.17695920196946,0.00800000000162981
11,12,6314.114882806,0.00699999999778811
11,13,5506.49421503534,0.0120000000024447
11,14,6250.66119748513,0.00999999999476131
11,15,4720.93150106776,0.00700000000506407
11,16,1085.30660429154,0.010999999998603
11,17,843.49499018916,0.0149999999994179
11,18,466.801534741371,0.00600000000122236
11,19,2458.97054113091,0.0129999999990105
11,20,2535.71390299173,0.00800000000162981
11,21,2662.04526331326,0.00799999999435386
11,22,2510.35650065942,0.00900000000547152
11,23,9660.07727099682,0.00999999999476131
11,24,5511.08682664915,0.011000000005879
11,25,2687.62265936037,0.0149999999994179
11,26,4226.7832328533,0.0179999999963911
11,27,590.553363121106,0.00899999999819556
11,28,72.1201480284162,0.0169999999998254
11,29,2842.87347671814,0.0210000000006403
11,30,1308.86445699209,0.00900000000547152
12,1,2811.25666837002,0.0139999999955762
12,2,685.760744696629,0.0169999999998254
12,3,2965.26822191202,0.022000000004482
12,4,372.917775972605,0.010999999998603
12,5,390.131001102122,0.0199999999967986
12,6,328.533686918487,0.0149999999994179
12,7,2048.3558860233,0.010999999998603
12,8,3.79121365255527,0.00499999999738066
12,9,1230.11165919741,0.0169999999998254
12,10,13013.9649530643,0.0100000000020373
12,11,3015.79885222655,0.00800000000162981
12,12,1712.50188563271,0.0190000000002328
12,13,890.68337675197,0.0119999999951688
12,14,1000.80507063914,0.0150000000066939
12,15,444.307444073025,0.0119999999951688
12,16,1122.94211787204,0.0140000000028522
12,17,1690.2245745723,0.0149999999994179
12,18,233.616880032491,0.0120000000024447
12,19,8.3347369551068,0.0129999999990105
12,20,3743.91031872119,0.00999999999476131
12,21,92.1222891361633,0.0149999999994179
12,22,122.568233388767,0.0210000000006403
12,23,3860.43818647857,0.0120000000024447
12,24,507.547577686755,0.0140000000028522
12,25,46.1365513347602,0.0139999999955762
12,26,75.0416179839582,0.00900000000547152
12,27,6106.53984001158,0.0140000000028522
12,28,487.903340875962,0.00999999999476131
12,29,1326.46286765419,0.0120000000024447
12,30,751.206610678233,0.0179999999963911
13,1,480.618096650552,0.00800000000162981
13,2,690.195640363927,0.0129999999990105
13,3,1450.23216223299,0.00700000000506407
13,4,114.587934457678,0.0199999999967986
13,5,2475.02567158166,0.010999999998603
13,6,502.040435196855,0.0100000000020373
13,7,1150.22689708343,0.00800000000162981
13,8,0.410563892673743,0.010999999998603
13,9,205.006355008475,0.00899999999819556
13,10,3581.63785575407,0.00899999999819556
13,11,913.900711201857,0.0170000000071013
13,12,6.64351858061329,0.00699999999778811
13,13,551.983638062879,0.0169999999998254
13,14,14.7852854909501,0.0159999999959837
13,15,435.204266580483,0.00700000000506407
13,16,612.939482221639,0.0199999999967986
13,17,156.07819169916,0.0140000000028522
13,18,10.8575482582535,0.0139999999955762
13,19,2358.92522329972,0.0230000000010477
13,20,264.770715895238,0.00899999999819556
13,21,62.2887258045215,0.0100000000020373
13,22,12.965005191529,0.00899999999819556
13,23,1098.2473218563,0.00899999999819556
13,24,704.824929257988,0.0210000000006403
13,25,400.488150592239,0.0200000000040745
13,26,1201.90776274684,0.0119999999951688
13,27,108.609815428974,0.0259999999980209
13,28,1974.45508537102,0.010999999998603
13,29,1808.43025210277,0.0169999999998254
13,30,84.894712435395,0.0129999999990105
14,1,6404.36876622267,0.010999999998603
14,2,2846.70630094681,0.0200000000040745
14,3,2981.61805671421,0.00800000000162981
14,4,215.650619519746,0.0179999999963911
14,5,6450.41970074517,0.0100000000020373
14,6,3392.22778505458,0.0120000000024447
14,7,4153.34782255785,0.00899999999819556
14,8,2.60089872752349,0.00800000000162981
14,9,10263.4735032538,0.0139999999955762
14,10,110.237507764224,0.00899999999819556
14,11,771.745063637669,0.0160000000032596
14,12,3288.74107397129,0.0100000000020373
14,13,216.117345816978,0.0119999999951688
14,14,4666.92999122653,0.0160000000032596
14,15,7654.4246499428,0.00800000000162981
14,16,1355.38923036473,0.0190000000002328
14,17,1236.78056656619,0.0149999999994179
14,18,847.752777574011,0.0199999999967986
14,19,233.30343472018,0.022000000004482
14,20,12397.6252401163,0.00999999999476131
14,21,4160.62543138273,0.010999999998603
14,22,3041.23725570104,0.011000000005879
14,23,13319.5881053654,0.00999999999476131
14,24,899.226136893715,0.0149999999994179
14,25,436.275307085167,0.0150000000066939
14,26,168.098749562784,0.00899999999819556
14,27,338.243475627162,0.0100000000020373
14,28,1.85103722392823,0.00499999999738066
14,29,2.55094564729386,0.0120000000024447
14,30,1187.19832082231,0.0209999999933643
15,1,1423.44092136447,0.00800000000162981
15,2,2136.56743123166,0.0140000000028522
15,3,1339.48162368449,0.00499999999738066
15,4,0.883992210235263,0.0129999999990105
15,5,1331.40783577527,0.00800000000162981
15,6,4.50606655643695,0.0100000000020373
15,7,358.951422028881,0.00800000000162981
15,8,79.6013048325466,0.010999999998603
15,9,3055.52600206773,0.0100000000020373
15,10,1345.74488983124,0.00800000000162981
15,11,1907.84401543958,0.00899999999819556
15,12,3606.93481104429,0.00800000000162981
15,13,67.4378337264122,0.021999999997206
15,14,1789.94118619703,0.0140000000028522
15,15,61.6952927345028,0.00699999999778811
15,16,18.4243676934266,0.0180000000036671
15,17,847.090892605476,0.010999999998603
15,18,1691.03712911574,0.0139999999955762
15,19,3365.16283794213,0.0149999999994179
15,20,902.209529819229,0.00900000000547152
15,21,557.162040697571,0.00999999999476131
15,22,1696.92037389473,0.00900000000547152
15,23,2692.24996179559,0.00899999999819556
15,24,1675.24488594338,0.010999999998603
15,25,660.984412321356,0.0180000000036671
15,26,111.83521627918,0.0149999999994179
15,27,668.682791283884,0.0210000000006403
15,28,38.1704145169987,0.00999999999476131
15,29,211.941278301345,0.0290000000022701
15,30,325.365796463757,0.0129999999990105
16,1,10155.2597409186,0.00800000000162981
16,2,3334.5037229953,0.010999999998603
16,3,3844.6762982986,0.00699999999778811
16,4,1316.1342020034,0.0120000000024447
16,5,10339.598714548,0.0100000000020373
16,6,2046.1892864316,0.00699999999778811
16,7,2638.40206705163,0.00699999999778811
16,8,21.2134368153128,0.00899999999819556
16,9,9160.01711874579,0.00899999999819556
16,10,11492.5103726262,0.00899999999819556
16,11,763.047293284691,0.0129999999990105
16,12,4527.17210423532,0.00700000000506407
16,13,2932.25004194472,0.0149999999994179
16,14,6585.63962424141,0.00799999999435386
16,15,7781.1531435167,0.00700000000506407
16,16,1610.97802077363,0.0129999999990105
16,17,2893.46982510904,0.00800000000162981
16,18,4012.26124001435,0.0169999999998254
16,19,205.082335287173,0.0139999999955762
16,20,5760.40450907724,0.00800000000162981
16,21,980.481096618293,0.010999999998603
16,22,4543.4608528926,0.010999999998603
16,23,10876.2647513537,0.00800000000162981
16,24,4108.92806692547,0.0129999999990105
16,25,3509.74826330528,0.0149999999994179
16,26,1194.63422585879,0.0120000000024447
16,27,850.726233499805,0.0140000000028522
16,28,946.35674331759,0.00999999999476131
16,29,429.715434217914,0.0169999999998254
16,30,630.992826269296,0.0120000000024447
17,1,3019.12396937907,0.00699999999778811
17,2,6497.83116930997,0.00700000000506407
17,3,2685.07282813709,0.00600000000122236
17,4,5420.30622979005,0.00799999999435386
17,5,6428.62613436261,0.00900000000547152
17,6,5281.15431291648,0.00899999999819556
17,7,3721.98062505281,0.00800000000162981
17,8,1.22511473299788,0.00899999999819556
17,9,13115.1667352085,0.00600000000122236
17,10,37782.6866517872,0.0129999999990105
17,11,1047.38070130631,0.0100000000020373
17,12,8058.75712742917,0.0059999999939464
17,13,14332.2447068344,0.00900000000547152
17,14,6432.63017540867,0.00899999999819556
17,15,9482.9910053041,0.00600000000122236
17,16,5413.57761320275,0.00699999999778811
17,17,2671.45408509126,0.00699999999778811
17,18,6760.23867266736,0.0120000000024447
17,19,1776.92696746973,0.010999999998603
17,20,8563.22357946487,0.00800000000162981
17,21,10467.3379795622,0.010999999998603
17,22,9513.62251747215,0.00899999999819556
17,23,13140.9851624842,0.00800000000162981
17,24,3929.38374795999,0.00699999999778811
17,25,8306.75744659561,0.0140000000028522
17,26,3724.51851553617,0.00899999999819556
17,27,25.4323310636055,0.0149999999994179
17,28,1437.21495328667,0.00899999999819556
17,29,85.4573572813756,0.00800000000162981
17,30,3799.69393750117,0.011000000005879
18,1,7687.57980223043,0.00499999999738066
18,2,3218.61905163577,0.0120000000024447
18,3,2898.50454229461,0.00800000000162981
18,4,87.8827539299253,0.0129999999990105
18,5,8822.30360349361,0.00899999999819556
18,6,1148.55368448274,0.00800000000162981
18,7,763.569407306151,0.00800000000162981
18,8,0.810791358902782,0.0059999999939464
18,9,10.5007855946184,0.00900000000547152
18,10,7489.92387483841,0.0139999999955762
18,11,47.6755996082958,0.0160000000032596
18,12,2456.97095481437,0.00699999999778811
18,13,60.2825311099295,0.0100000000020373
18,14,1126.92029904297,0.00800000000162981
18,15,4649.91529998197,0.00800000000162981
18,16,117.651483188592,0.0169999999998254
18,17,561.151494398011,0.00899999999819556
18,18,3018.26848820103,0.0140000000028522
18,19,1413.96375611768,0.0119999999951688
18,20,3825.82163603334,0.0120000000024447
18,21,3216.02841512733,0.0120000000024447
18,22,5889.58656319327,0.0119999999951688
18,23,4594.83522565187,0.00900000000547152
18,24,1222.61459673276,0.0179999999963911
18,25,114.897124621718,0.0169999999998254
18,26,1764.94509413244,0.010999999998603
18,27,705.664269687023,0.0160000000032596
18,28,221.661595722968,0.00899999999819556
18,29,420.371262958404,0.0100000000020373
18,30,1280.28292630479,0.0129999999990105
19,1,6292.17934534328,0.00600000000122236
19,2,648.187776426176,0.010999999998603
19,3,1546.57046276504,0.00499999999738066
19,4,790.474666746235,0.0120000000024447
19,5,4356.78876314375,0.010999999998603
19,6,1608.70691362552,0.0149999999994179
19,7,5651.68091982071,0.0100000000020373
19,8,381.191672272706,0.00899999999819556
19,9,6702.89393946708,0.0129999999990105
19,10,17905.8260713954,0.0130000000062864
19,11,1088.33589781337,0.00699999999778811
19,12,1186.85609159872,0.0100000000020373
19,13,3317.47231775977,0.00999999999476131
19,14,3196.10918230954,0.010999999998603
19,15,5862.83779705994,0.00899999999819556
19,16,881.426408751485,0.010999999998603
19,17,4195.2823004437,0.0100000000020373
19,18,1099.88018502948,0.0100000000020373
19,19,46.5120550977508,0.0159999999959837
19,20,4132.78606038402,0.00900000000547152
19,21,1768.40835078621,0.010999999998603
19,22,2095.24036648623,0.0159999999959837
19,23,14138.8002521914,0.0100000000020373
19,24,2224.31226611867,0.0120000000024447
19,25,849.430896923753,0.0129999999990105
19,26,353.365559333803,0.00800000000162981
19,27,18.5163955417385,0.0129999999990105
19,28,251.801047822862,0.00800000000162981
19,29,25.5633937184074,0.00999999999476131
19,30,2254.20734943091,0.0100000000020373
20,1,11.6619197765869,0.00800000000162981
20,2,2310.35077008824,0.0149999999994179
20,3,3269.22744927383,0.00800000000162981
20,4,439.07479721694,0.0149999999994179
20,5,3745.75090167725,0.00799999999435386
20,6,0.439173372260282,0.00800000000162981
20,7,6448.7319643672,0.00899999999819556
20,8,41.8898685476359,0.00600000000122236
20,9,1.71537479869976,0.00600000000122236
20,10,24200.7166222848,0.0120000000024447
20,11,77.3643219045141,0.010999999998603
20,12,2815.99819589269,0.00800000000162981
20,13,158.402443162312,0.0119999999951688
20,14,4.41310289792007,0.00600000000122236
20,15,12039.5485536932,0.00700000000506407
20,16,32.8000882071314,0.0179999999963911
20,17,106.039035515818,0.00800000000162981
20,18,2394.04330697977,0.0120000000024447
20,19,310.297877991964,0.0139999999955762
20,20,12875.5979806909,0.00899999999819556
20,21,2827.35649927425,0.0120000000024447
20,22,3219.84349564762,0.0139999999955762
20,23,24742.2645806289,0.00800000000162981
20,24,2872.65094998595,0.0169999999998254
20,25,69.0096693916924,0.0159999999959837
20,26,2490.50564365435,0.00900000000547152
20,27,207.314884433124,0.0139999999955762
20,28,263.798044082903,0.00700000000506407
20,29,25.9178390252316,0.010999999998603
20,30,1273.76406282708,0.0149999999994179
21,1,1191.53763128495,0.0100000000020373
21,2,659.777600017633,0.0199999999967986
21,3,340.962209759423,0.010999999998603
21,4,78.7253791745546,0.0129999999990105
21,5,8.22873757478308,0.0120000000024447
21,6,289.160428742451,0.0120000000024447
21,7,847.208104159508,0.0119999999951688
21,8,6.22243559017849,0.00900000000547152
21,9,534.827402656226,0.0129999999990105
21,10,7623.13537350471,0.010999999998603
21,11,2733.72623364988,0.00899999999819556
21,12,1031.42298777861,0.0120000000024447
21,13,541.073205031639,0.0120000000024447
21,14,94.8457063956782,0.0160000000032596
21,15,675.089841964079,0.010999999998603
21,16,55.1609390950452,0.0129999999990105
21,17,1462.61639240881,0.0120000000024447
21,18,582.303121673421,0.0129999999990105
21,19,3418.76530834585,0.00999999999476131
21,20,377.676625277617,0.00900000000547152
21,21,508.503064030045,0.010999999998603
21,22,223.231458298492,0.00800000000162981
21,23,2181.14742207519,0.00999999999476131
21,24,380.393054559259,0.0120000000024447
21,25,650.104564262222,0.00899999999819556
21,26,10.9034556285212,0.00800000000162981
21,27,639.433415151234,0.00699999999778811
21,28,67.099622403602,0.0100000000020373
21,29,142.812505998127,0.0100000000020373
21,30,613.021546861537,0.0149999999994179
22,1,2300.03554108694,0.00699999999778811
22,2,605.251917369675,0.0200000000040745
22,3,1545.229067703,0.00899999999819556
22,4,434.751805323603,0.0169999999998254
22,5,1670.75657070436,0.0129999999990105
22,6,857.560244664747,0.0129999999990105
22,7,661.680212810228,0.0100000000020373
22,8,5.6342911399157,0.0100000000020373
22,9,2320.35835976283,0.00899999999819556
22,10,14780.5944987596,0.0120000000024447
22,11,1378.40181061922,0.010999999998603
22,12,2412.218615622,0.00799999999435386
22,13,96.3663783552201,0.0140000000028522
22,14,985.063973851459,0.0169999999998254
22,15,1822.12462164458,0.0100000000020373
22,16,191.982800381905,0.0139999999955762
22,17,1322.87991870831,0.0160000000032596
22,18,253.881533018962,0.021999999997206
22,19,1589.03937838158,0.0140000000028522
22,20,1957.47494061743,0.0100000000020373
22,21,30.2635396764498,0.0139999999955762
22,22,727.627958041722,0.0160000000032596
22,23,5761.26847910848,0.0120000000024447
22,24,1841.67050988938,0.0169999999998254
22,25,4466.21372023921,0.0149999999994179
22,26,1.53153971415181,0.00899999999819556
22,27,526.635319215767,0.0120000000024447
22,28,24.3605135497272,0.0100000000020373
22,29,131.319694443216,0.0129999999990105
22,30,223.911227566406,0.0149999999994179
23,1,795.497443433256,0.00899999999819556
23,2,3871.43482925833,0.0160000000032596
23,3,597.332557120431,0.00800000000162981
23,4,11.7448033254115,0.0149999999994179
23,5,293.045694772787,0.0179999999963911
23,6,536.94354998304,0.0120000000024447
23,7,71.5687686942767,0.010999999998603
23,8,0.670853061030104,0.00899999999819556
23,9,4368.5221681062,0.0140000000028522
23,10,6587.14061238488,0.0119999999951688
23,11,2.32214089371978,0.011000000005879
23,12,1380.55108193793,0.0119999999951688
23,13,5716.98426431552,0.0169999999998254
23,14,3418.99221810891,0.0200000000040745
23,15,2504.54192365376,0.0100000000020373
23,16,429.787269852357,0.0149999999994179
23,17,199.561608293477,0.0179999999963911
23,18,1256.35175854398,0.010999999998603
23,19,14.9901045688463,0.0129999999990105
23,20,4605.68952584599,0.0120000000024447
23,21,934.515753737069,0.0120000000024447
23,22,1695.22462971571,0.0129999999990105
23,23,11016.2325917136,0.0100000000020373
23,24,1551.58012743068,0.0139999999955762
23,25,3989.87321465516,0.0100000000020373
23,26,254.310288787457,0.00899999999819556
23,27,4.63091150822118,0.00800000000162981
23,28,1.40193870896673,0.00699999999778811
23,29,67.2096470234641,0.0129999999990105
23,30,1573.87524952078,0.0149999999994179
24,1,3870.53285989789,0.00700000000506407
24,2,4860.07753173361,0.0149999999994179
24,3,2957.34351846588,0.00800000000162981
24,4,260.201644896494,0.0159999999959837
24,5,1111.69526107642,0.0100000000020373
24,6,2668.3002725715,0.0100000000020373
24,7,5512.42957673915,0.00899999999819556
24,8,2.11409937300111,0.00800000000162981
24,9,5156.03646444401,0.010999999998603
24,10,10020.1567879401,0.0120000000024447
24,11,139.462836037924,0.0139999999955762
24,12,2970.92379146989,0.00899999999819556
24,13,14124.2678342459,0.0169999999998254
24,14,9150.67011065974,0.011000000005879
24,15,6142.50436513547,0.00799999999435386
24,16,2030.22950991081,0.0169999999998254
24,17,660.490984425781,0.0130000000062864
24,18,4951.95709595795,0.0169999999998254
24,19,547.272842561436,0.0119999999951688
24,20,8162.10178998874,0.00899999999819556
24,21,3153.97522798166,0.0100000000020373
24,22,2604.80115159673,0.010999999998603
24,23,10480.9171757622,0.00900000000547152
24,24,1811.65199821763,0.0229999999937718
24,25,1039.31442150941,0.0180000000036671
24,26,927.909683099908,0.0120000000024447
24,27,131.96091961158,0.0190000000002328
24,28,1.0880008052225,0.00800000000162981
24,29,0.163038929720481,0.0120000000024447
24,30,1037.5929628247,0.0149999999994179
25,1,2747.09237571113,0.00699999999778811
25,2,3607.25195873804,0.0120000000024447
25,3,839.059408999549,0.00499999999738066
25,4,1120.59767427437,0.0129999999990105
25,5,554.568722460505,0.00899999999819556
25,6,1959.45678482401,0.010999999998603
25,7,14682.4784741117,0.00800000000162981
25,8,581.764947026886,0.0129999999990105
25,9,7889.39574662774,0.00800000000162981
25,10,387.600740947129,0.00899999999819556
25,11,1.43147179745701,0.00900000000547152
25,12,1604.55626020976,0.00699999999778811
25,13,3713.01019401872,0.0210000000006403
25,14,2731.80543067844,0.0100000000020373
25,15,7625.41197385555,0.00899999999819556
25,16,0.0063453880807852,0.00899999999819556
25,17,0.992564929512824,0.00800000000162981
25,18,676.800976787919,0.0100000000020373
25,19,117.165554883704,0.0159999999959837
25,20,9670.99751438643,0.0100000000020373
25,21,1667.21586443497,0.0100000000020373
25,22,1019.96115379132,0.0119999999951688
25,23,29905.9494214175,0.00800000000162981
25,24,3856.61229979111,0.0119999999951688
25,25,21081.7432882653,0.022000000004482
25,26,2134.77894818414,0.0149999999994179
25,27,1325.27049845738,0.0179999999963911
25,28,287.504594484789,0.0149999999994179
25,29,1279.32240139856,0.0259999999980209
25,30,1462.02891045516,0.0130000000062864
26,1,12306.0685798471,0.00799999999435386
26,2,5297.00657903644,0.00800000000162981
26,3,5149.80540775726,0.00600000000122236
26,4,4939.60448176972,0.00800000000162981
26,5,8242.41457593885,0.00899999999819556
26,6,11968.7604740733,0.00800000000162981
26,7,13020.8350807074,0.00699999999778811
26,8,49.9956542932856,0.00600000000122236
26,9,17805.2050325955,0.00600000000122236
26,10,979.21876365984,0.00600000000122236
26,11,5370.9296618515,0.0120000000024447
26,12,9126.30630866873,0.00400000000081491
26,13,35965.2030045762,0.010999999998603
26,14,28360.0077465082,0.00600000000122236
26,15,33164.4728280659,0.00799999999435386
26,16,3518.17041030335,0.00700000000506407
26,17,11694.9596387841,0.00899999999819556
26,18,15522.5188580449,0.0129999999990105
26,19,873.477523661893,0.010999999998603
26,20,0.000378465527126699,0.00300000000424916
26,21,29964.0793875118,0.00999999999476131
26,22,11700.2520959588,0.0100000000020373
26,23,55854.8580924153,0.00500000000465661
26,24,3502.03196542999,0.00699999999778811
26,25,4179.4224974914,0.010999999998603
26,26,652.202315422211,0.0129999999990105
26,27,83.2541408157559,0.0149999999994179
26,28,1298.95353052464,0.00700000000506407
26,29,610.67047358174,0.0149999999994179
26,30,3974.59052111913,0.00999999999476131
27,1,5669.43604442937,0.00900000000547152
27,2,4560.66686216651,0.010999999998603
27,3,6060.679631358,0.00600000000122236
27,4,1807.57086249122,0.0119999999951688
27,5,6851.86773561947,0.00400000000081491
27,6,6200.83267924909,0.00899999999819556
27,7,7638.94041979825,0.00500000000465661
27,8,501.455155443204,0.00899999999819556
27,9,5509.72288103833,0.00600000000122236
27,10,20839.3306863841,0.0100000000020373
27,11,1671.63741262947,0.010999999998603
27,12,4254.45122089114,0.00499999999738066
27,13,3533.87746152933,0.00899999999819556
27,14,8578.8822043413,0.00800000000162981
27,15,6319.99824150276,0.00799999999435386
27,16,3387.32561975107,0.0149999999994179
27,17,6703.8469466164,0.00400000000081491
27,18,4148.11320403271,0.0149999999994179
27,19,1247.08470341096,0.0149999999994179
27,20,7047.68254428423,0.00800000000162981
27,21,4846.32497212246,0.0100000000020373
27,22,8641.34371615481,0.0100000000020373
27,23,15756.440571014,0.00799999999435386
27,24,2899.41478105664,0.011000000005879
27,25,4986.11009980775,0.0139999999955762
27,26,4025.27743942669,0.0169999999998254
27,27,556.292259646892,0.0200000000040745
27,28,18.770069489406,0.010999999998603
27,29,928.586570980537,0.0100000000020373
27,30,516.112430274694,0.00899999999819556
28,1,1659.71724272078,0.00900000000547152
28,2,1905.27700698774,0.00899999999819556
28,3,0.0434958772816803,0.00499999999738066
28,4,893.921762800942,0.0100000000020373
28,5,1339.16892809993,0.00899999999819556
28,6,160.718260640431,0.00800000000162981
28,7,638.050375102294,0.00800000000162981
28,8,263.204847248942,0.00999999999476131
28,9,436.406406905136,0.00600000000122236
28,10,9205.0685317496,0.00800000000162981
28,11,0.541558586966311,0.00999999999476131
28,12,2799.75075527606,0.00899999999819556
28,13,454.847974048569,0.0150000000066939
28,14,483.982886035393,0.00699999999778811
28,15,930.79971139423,0.00699999999778811
28,16,5.00399970794447,0.010999999998603
28,17,2178.47102849383,0.0100000000020373
28,18,1735.01187607978,0.0120000000024447
28,19,211.29669132586,0.0139999999955762
28,20,912.042207467216,0.00800000000162981
28,21,188.105634117642,0.00800000000162981
28,22,188.388745885631,0.00899999999819556
28,23,8235.98877740337,0.00800000000162981
28,24,2179.98810878156,0.00900000000547152
28,25,2784.74246110454,0.0199999999967986
28,26,480.631315674607,0.0180000000036671
28,27,426.339240612335,0.0190000000002328
28,28,1057.9581225568,0.0149999999994179
28,29,898.980617442236,0.0159999999959837
28,30,178.596330416934,0.010999999998603
29,1,1875.23360449484,0.00800000000162981
29,2,224.8521505294,0.0210000000006403
29,3,1766.46052703023,0.00800000000162981
29,4,300.640987455476,0.021999999997206
29,5,2209.30182516906,0.0140000000028522
29,6,1339.59107547831,0.0139999999955762
29,7,107.631908711931,0.0130000000062864
29,8,2702.24783515908,0.00899999999819556
29,9,14.5628092299773,0.0120000000024447
29,10,3367.06262791902,0.010999999998603
29,11,1403.65812640351,0.0159999999959837
29,12,729.782173732714,0.00700000000506407
29,13,191.745393035687,0.0129999999990105
29,14,24.4308496755171,0.0190000000002328
29,15,1661.78474845736,0.00899999999819556
29,16,2381.26312325183,0.0250000000014552
29,17,400.473599214916,0.010999999998603
29,18,1388.40142210117,0.0169999999998254
29,19,10127.5054740954,0.0169999999998254
29,20,953.900742257018,0.0120000000024447
29,21,528.635963012265,0.0139999999955762
29,22,171.904401188839,0.0200000000040745
29,23,297.832560354583,0.00999999999476131
29,24,1588.2863647733,0.0160000000032596
29,25,12.8289471872177,0.0169999999998254
29,26,1381.92952226424,0.00899999999819556
29,27,11401.0566580054,0.0129999999990105
29,28,448.418344009467,0.0100000000020373
29,29,18.9107688331705,0.00899999999819556
29,30,300.750235257549,0.0230000000010477
30,1,10450.6692239767,0.00699999999778811
30,2,4742.60722963405,0.0100000000020373
30,3,2807.71859286504,0.00499999999738066
30,4,6863.07051997882,0.0100000000020373
30,5,7938.1172057759,0.00800000000162981
30,6,9506.81526789203,0.00800000000162981
30,7,10646.834984726,0.00699999999778811
30,8,480.384400243096,0.00699999999778811
30,9,8.03866228459875,0.00500000000465661
30,10,26335.0256475104,0.00999999999476131
30,11,8.33113678987952,0.0100000000020373
30,12,4427.5270244304,0.00600000000122236
30,13,13382.4353777013,0.0100000000020373
30,14,27199.6412543825,0.0139999999955762
30,15,25874.6254119907,0.00900000000547152
30,16,7724.7952148683,0.0129999999990105
30,17,1.6728263525719,0.0139999999955762
30,18,7283.56011458951,0.0160000000032596
30,19,660.893528252768,0.0129999999990105
30,20,16594.8490050356,0.00800000000162981
30,21,22232.0970210346,0.0129999999990105
30,22,11144.2965787644,0.00899999999819556
30,23,38861.1753826941,0.0120000000024447
30,24,43.3382609246294,0.00899999999819556
30,25,80.6233798930512,0.0160000000032596
30,26,405.512820405418,0.00999999999476131
30,27,511.901580377125,0.00800000000162981
30,28,1528.71141301089,0.00499999999738066
30,29,488.36481751335,0.00500000000465661
30,30,16.712180896641,0.0139999999955762
