App - Shortyz
Scenario - download_puzzles
Length - 10sec
Measure - TWED
Before Version - 4.0.2_b_m
After Version - 4.0.5_b_m


"Before.Trace.ID1","Before.Trace.ID2","Difference","Runtime"
1,2,127113.588381932,0.0779999999999745
1,3,143128.543605239,0.0779999999999745
1,4,147469.695414004,0.0789999999999509
1,5,123150.373726565,0.0779999999999745
1,6,147892.585583166,0.0779999999999745
1,7,147745.198808704,0.0780000000002019
1,8,128682.16016647,0.0899999999999181
1,9,138227.940947894,0.0769999999999982
1,10,123601.146601501,0.0769999999999982
1,11,147775.39419073,0.0769999999999982
1,12,147706.741704682,0.0769999999999982
1,13,147725.183308434,0.0779999999999745
1,14,137611.249457628,0.0769999999999982
1,15,129004.232659615,0.0779999999999745
1,16,142970.663826141,0.0779999999999745
1,17,133939.465939201,0.0779999999999745
1,18,147792.324796538,0.0769999999999982
1,19,147575.769099269,0.0769999999999982
1,20,144692.803866103,0.0779999999999745
1,21,120955.566130422,0.0769999999999982
1,22,138896.783434497,0.0779999999999745
1,23,147870.207135869,0.0769999999999982
1,24,147700.116200273,0.0779999999999745
1,25,124624.905529751,0.0769999999999982
1,26,147694.093087006,0.0769999999999982
1,27,141152.256324936,0.0769999999999982
1,28,142301.850947181,0.0779999999999745
1,29,147865.706108971,0.0769999999999982
1,30,130848.549627597,0.0769999999999982
2,3,127121.346227407,0.0779999999999745
2,4,126698.898200347,0.0780000000002019
2,5,123100.077313213,0.0769999999999982
2,6,127121.788369508,0.0779999999999745
2,7,126974.401595047,0.0769999999999982
2,8,127193.818831838,0.0779999999999745
2,9,127155.930145239,0.0769999999999982
2,10,123550.850188148,0.0769999999999982
2,11,127004.596977073,0.0779999999999745
2,12,126935.944491024,0.0769999999999982
2,13,126954.386094777,0.0779999999999745
2,14,126992.115372441,0.0779999999999745
2,15,127303.162216867,0.0769999999999982
2,16,127232.471302023,0.0779999999999745
2,17,127275.858644087,0.0779999999999745
2,18,127021.527582881,0.0780000000002019
2,19,126804.971885611,0.0779999999999745
2,20,126908.482348476,0.0769999999999982
2,21,120905.26971707,0.0769999999999982
2,22,127247.232830998,0.0769999999999982
2,23,127099.409922211,0.0779999999999745
2,24,126929.318986615,0.0769999999999982
2,25,124574.609116399,0.0769999999999982
2,26,126923.295873348,0.0779999999999745
2,27,127161.466817094,0.0779999999999745
2,28,127214.241558577,0.0779999999999745
2,29,127094.908895313,0.0769999999999982
2,30,126876.127096502,0.0779999999999745
3,4,147902.884396471,0.0779999999999745
3,5,123158.13157204,0.0779999999999745
3,6,148325.774565633,0.0769999999999982
3,7,148178.387791171,0.0779999999999745
3,8,128689.918011945,0.0779999999999745
3,9,138235.698793369,0.0779999999999745
3,10,123608.904446976,0.0769999999999982
3,11,148208.583173197,0.0769999999999982
3,12,148139.930687149,0.0780000000002019
3,13,148158.372290901,0.0789999999999509
3,14,137619.007303103,0.0779999999999745
3,15,129011.99050509,0.0769999999999982
3,16,142978.421671616,0.0769999999999982
3,17,133947.223784676,0.0779999999999745
3,18,148225.513779005,0.0769999999999982
3,19,148008.958081736,0.0779999999999745
3,20,144700.561711578,0.0780000000002019
3,21,120963.323975897,0.0779999999999745
3,22,138904.541279972,0.0779999999999745
3,23,148303.396118336,0.0779999999999745
3,24,148133.30518274,0.0779999999999745
3,25,124632.663375226,0.0779999999999745
3,26,148127.282069473,0.0779999999999745
3,27,141160.014170411,0.0779999999999745
3,28,142309.608792656,0.0769999999999982
3,29,148298.895091438,0.0779999999999745
3,30,130856.307473072,0.0779999999999745
4,5,122735.68354498,0.0779999999999745
4,6,150277.807855982,0.0779999999999745
4,7,149510.018898188,0.0779999999999745
4,8,128267.469984884,0.0779999999999745
4,9,137813.250766308,0.0779999999999745
4,10,123186.456419915,0.0830000000000837
4,11,147892.861831105,0.0769999999999982
4,12,147911.719109377,0.0779999999999745
4,13,150110.405581251,0.0779999999999745
4,14,137196.559276043,0.0779999999999745
4,15,128589.54247803,0.0779999999999745
4,16,142555.973644555,0.0769999999999982
4,17,133524.775757615,0.0779999999999745
4,18,150177.547069355,0.0780000000002019
4,19,149960.991372086,0.0779999999999745
4,20,144278.113684517,0.0769999999999982
4,21,120540.875948837,0.0779999999999745
4,22,138482.093252911,0.0769999999999982
4,23,150255.429408686,0.0779999999999745
4,24,150085.33847309,0.0769999999999982
4,25,124210.215348165,0.0789999999999509
4,26,148809.203376626,0.0769999999999982
4,27,140737.566143351,0.0779999999999745
4,28,141887.160765596,0.0769999999999982
4,29,149161.413711136,0.0779999999999745
4,30,130433.859446012,0.0769999999999982
5,6,123158.573714141,0.0780000000002019
5,7,123011.18693968,0.0779999999999745
5,8,123230.604176471,0.0769999999999982
5,9,123192.715489872,0.0769999999999982
5,10,123731.726176342,0.0779999999999745
5,11,123041.382321706,0.0769999999999982
5,12,122972.729835657,0.0779999999999745
5,13,122991.17143941,0.0779999999999745
5,14,123028.900717074,0.0769999999999982
5,15,123339.9475615,0.0769999999999982
5,16,123269.256646656,0.0769999999999982
5,17,123312.64398872,0.0769999999999982
5,18,123058.312927514,0.0779999999999745
5,19,122841.757230244,0.0769999999999982
5,20,122945.267693109,0.0780000000002019
5,21,121118.021814123,0.0779999999999745
5,22,123284.018175632,0.0769999999999982
5,23,123136.195266844,0.0769999999999982
5,24,122966.104331248,0.0779999999999745
5,25,123392.444898631,0.0769999999999982
5,26,122960.081217981,0.0779999999999745
5,27,123198.252161727,0.0779999999999745
5,28,123251.02690321,0.0769999999999982
5,29,123131.694239946,0.0769999999999982
5,30,122912.912441135,0.0780000000002019
6,7,149932.909067349,0.0779999999999745
6,8,128690.360154045,0.0769999999999982
6,9,138236.140935469,0.0769999999999982
6,10,123609.346589076,0.0779999999999745
6,11,148315.752000266,0.0779999999999745
6,12,148334.609278538,0.0779999999999745
6,13,161843.226851389,0.0779999999999745
6,14,137619.449445204,0.0769999999999982
6,15,129012.432647191,0.0779999999999745
6,16,142978.863813716,0.0769999999999982
6,17,133947.665926776,0.0780000000002019
6,18,152563.940701284,0.0779999999999745
6,19,151981.814815046,0.0779999999999745
6,20,144701.003853678,0.0779999999999745
6,21,120963.766117998,0.0779999999999745
6,22,138904.983422072,0.0769999999999982
6,23,161988.250678823,0.0779999999999745
6,24,156422.711584059,0.0779999999999745
6,25,124633.105517327,0.0769999999999982
6,26,149412.115015429,0.0779999999999745
6,27,141160.456312512,0.0780000000002019
6,28,142310.050934757,0.0779999999999745
6,29,149584.303880297,0.0779999999999745
6,30,130856.749615173,0.0779999999999745
7,8,128542.973379584,0.0779999999999745
7,9,138088.754161008,0.0779999999999745
7,10,123461.959814615,0.0779999999999745
7,11,148168.365225805,0.0779999999999745
7,12,148187.222504077,0.0779999999999745
7,13,149765.506792618,0.0769999999999982
7,14,137472.062670743,0.0779999999999745
7,15,128865.04587273,0.0779999999999745
7,16,142831.477039255,0.0779999999999745
7,17,133800.279152315,0.0779999999999745
7,18,149832.648280722,0.0779999999999745
7,19,149616.092583453,0.0779999999999745
7,20,144553.617079217,0.0830000000000837
7,21,120816.379343537,0.0779999999999745
7,22,138757.596647611,0.0769999999999982
7,23,149910.530620053,0.0779999999999745
7,24,149740.439684457,0.0769999999999982
7,25,124485.718742865,0.0769999999999982
7,26,149060.893459974,0.0769999999999982
7,27,141013.069538051,0.0769999999999982
7,28,142162.664160295,0.0779999999999745
7,29,149436.917105836,0.0779999999999745
7,30,130709.362840712,0.0780000000002019
8,9,128724.501929776,0.0769999999999982
8,10,123681.377051407,0.0779999999999745
8,11,128573.16876161,0.0769999999999982
8,12,128504.516275561,0.0769999999999982
8,13,128522.957879314,0.0769999999999982
8,14,128560.687156979,0.0769999999999982
8,15,128871.734001404,0.0769999999999982
8,16,128801.04308656,0.0769999999999982
8,17,128844.430428624,0.0779999999999745
8,18,128590.099367418,0.0769999999999982
8,19,128373.543670149,0.0779999999999745
8,20,128477.054133013,0.0779999999999745
8,21,121035.796580328,0.0779999999999745
8,22,128815.804615536,0.0780000000002019
8,23,128667.981706749,0.0769999999999982
8,24,128497.890771153,0.0779999999999745
8,25,124705.135979657,0.0769999999999982
8,26,128491.867657885,0.0779999999999745
8,27,128730.038601632,0.0779999999999745
8,28,128782.813343115,0.0769999999999982
8,29,128663.480679851,0.0779999999999745
8,30,128444.698881039,0.0769999999999982
9,10,123643.488364807,0.0779999999999745
9,11,138118.949543034,0.0769999999999982
9,12,138050.297056985,0.0769999999999982
9,13,138068.738660738,0.0779999999999745
9,14,137653.591220935,0.0769999999999982
9,15,129046.574422922,0.0769999999999982
9,16,138346.823867984,0.0779999999999745
9,17,133981.807702507,0.0779999999999745
9,18,138135.880148842,0.0779999999999745
9,19,137919.324451573,0.0769999999999982
9,20,138022.834914437,0.0779999999999745
9,21,120997.907893729,0.0769999999999982
9,22,138361.58539696,0.0769999999999982
9,23,138213.762488173,0.0779999999999745
9,24,138043.671552577,0.0779999999999745
9,25,124667.247293058,0.0769999999999982
9,26,138037.648439309,0.0790000000001783
9,27,138275.819383056,0.0779999999999745
9,28,138328.594124539,0.0769999999999982
9,29,138209.261461275,0.0769999999999982
9,30,130890.891390904,0.0779999999999745
10,11,123492.155196641,0.0779999999999745
10,12,123423.502710592,0.0769999999999982
10,13,123441.944314345,0.0769999999999982
10,14,123479.67359201,0.0779999999999745
10,15,123790.720436435,0.0779999999999745
10,16,123720.029521591,0.0769999999999982
10,17,123763.416863655,0.0780000000002019
10,18,123509.085802449,0.0779999999999745
10,19,123292.53010518,0.0789999999999509
10,20,123396.040568044,0.0779999999999745
10,21,121536.918580199,0.0779999999999745
10,22,123734.791050567,0.0779999999999745
10,23,123586.96814178,0.0779999999999745
10,24,123416.877206184,0.0779999999999745
10,25,123843.217773567,0.0780000000002019
10,26,123410.854092916,0.0779999999999745
10,27,123649.025036663,0.0769999999999982
10,28,123701.799778146,0.0769999999999982
10,29,123582.467114882,0.0779999999999745
10,30,123363.68531607,0.0779999999999745
11,12,144330.140524534,0.0779999999999745
11,13,148148.349725535,0.0779999999999745
11,14,137502.258052769,0.0779999999999745
11,15,128895.241254756,0.0770000000002256
11,16,142861.672421281,0.0769999999999982
11,17,133830.474534341,0.0769999999999982
11,18,148215.491213639,0.0779999999999745
11,19,147998.935516369,0.0829999999998563
11,20,144583.812461243,0.0780000000002019
11,21,120846.574725563,0.0769999999999982
11,22,138787.792029637,0.0769999999999982
11,23,148293.37355297,0.0769999999999982
11,24,148123.282617373,0.0769999999999982
11,25,124515.914124891,0.0789999999999509
11,26,148117.259504106,0.0769999999999982
11,27,141043.264920077,0.0779999999999745
11,28,142192.859542321,0.0779999999999745
11,29,148288.872526071,0.0769999999999982
11,30,130739.558222738,0.0769999999999982
12,13,148167.207003807,0.0779999999999745
12,14,137433.60556672,0.0769999999999982
12,15,128826.588768707,0.0779999999999745
12,16,142793.019935232,0.0769999999999982
12,17,133761.822048292,0.0780000000002019
12,18,148234.348491911,0.0769999999999982
12,19,148017.792794642,0.0779999999999745
12,20,144515.159975195,0.0779999999999745
12,21,120777.922239514,0.0779999999999745
12,22,138719.139543588,0.0779999999999745
12,23,148312.230831242,0.0779999999999745
12,24,148142.139895646,0.0779999999999745
12,25,124447.261638843,0.0769999999999982
12,26,148136.116782379,0.0779999999999745
12,27,140974.612434028,0.0769999999999982
12,28,142124.207056273,0.0779999999999745
12,29,148307.729804344,0.0780000000002019
12,30,130670.905736689,0.0769999999999982
13,14,137452.047170473,0.0779999999999745
13,15,128845.03037246,0.0769999999999982
13,16,142811.461538985,0.0779999999999745
13,17,133780.263652045,0.0769999999999982
13,18,152396.538426553,0.0779999999999745
13,19,151814.412540315,0.0769999999999982
13,20,144533.601578947,0.0779999999999745
13,21,120796.363843267,0.0779999999999745
13,22,138737.581147341,0.0779999999999745
13,23,162273.657590106,0.0769999999999982
13,24,156255.309309328,0.0779999999999745
13,25,124465.703242596,0.0780000000002019
13,26,149244.712740698,0.0769999999999982
13,27,140993.054037781,0.0779999999999745
13,28,142142.648660026,0.0779999999999745
13,29,149416.901605566,0.0779999999999745
13,30,130689.347340442,0.0779999999999745
14,15,128882.759650124,0.0779999999999745
14,16,137730.132377719,0.0779999999999745
14,17,133817.992929709,0.0779999999999745
14,18,137519.188658577,0.0780000000002019
14,19,137302.632961307,0.0769999999999982
14,20,137406.143424172,0.0769999999999982
14,21,120834.093120931,0.0779999999999745
14,22,137744.893906694,0.0779999999999745
14,23,137597.070997907,0.0779999999999745
14,24,137426.980062311,0.0769999999999982
14,25,124503.43252026,0.0779999999999745
14,26,137420.956949044,0.0789999999999509
14,27,137659.12789279,0.0779999999999745
14,28,137711.902634273,0.0769999999999982
14,29,137592.569971009,0.0780000000002019
14,30,130727.076618106,0.0779999999999745
15,16,129123.115579706,0.0779999999999745
15,17,129166.50292177,0.0779999999999745
15,18,128912.171860564,0.0779999999999745
15,19,128695.616163294,0.0779999999999745
15,20,128799.126626159,0.0779999999999745
15,21,121145.139965357,0.0769999999999982
15,22,129137.877108682,0.0769999999999982
15,23,128990.054199894,0.0779999999999745
15,24,128819.963264298,0.0779999999999745
15,25,124814.479364686,0.0779999999999745
15,26,128813.940151031,0.0779999999999745
15,27,129052.111094777,0.0779999999999745
15,28,129104.88583626,0.0779999999999745
15,29,128985.553172996,0.0779999999999745
15,30,128766.771374185,0.0779999999999745
16,17,134058.348859291,0.0769999999999982
16,18,142878.603027089,0.0769999999999982
16,19,142662.047329819,0.0819999999998799
16,20,142765.557792684,0.0769999999999982
16,21,121074.449050513,0.0769999999999982
16,22,139015.666354587,0.0780000000002019
16,23,142956.48536642,0.0779999999999745
16,24,142786.394430823,0.0769999999999982
16,25,124743.788449841,0.0779999999999745
16,26,142780.371317556,0.0769999999999982
16,27,141271.139245027,0.0779999999999745
16,28,142420.733867271,0.0769999999999982
16,29,142951.984339521,0.0779999999999745
16,30,130967.432547688,0.0779999999999745
17,18,133847.405140149,0.0769999999999982
17,19,133630.849442879,0.0779999999999745
17,20,133734.359905744,0.0769999999999982
17,21,121117.836392577,0.0779999999999745
17,22,134073.110388267,0.0779999999999745
17,23,133925.287479479,0.0769999999999982
17,24,133755.196543883,0.0780000000002019
17,25,124787.175791906,0.0769999999999982
17,26,133749.173430616,0.0779999999999745
17,27,133987.344374363,0.0769999999999982
17,28,134040.119115845,0.0779999999999745
17,29,133920.786452581,0.0779999999999745
17,30,131010.819889752,0.0779999999999745
18,19,151301.147310999,0.0779999999999745
18,20,144600.743067051,0.0769999999999982
18,21,120863.505331371,0.0779999999999745
18,22,138804.722635445,0.0769999999999982
18,23,152541.562253987,0.0779999999999745
18,24,152371.471318391,0.0780000000002019
18,25,124532.844730699,0.0769999999999982
18,26,149311.854228802,0.0779999999999745
18,27,141060.195525885,0.0779999999999745
18,28,142209.79014813,0.0769999999999982
18,29,149484.04309367,0.0769999999999982
18,30,130756.488828546,0.0779999999999745
19,20,144384.187369782,0.0779999999999745
19,21,120646.949634101,0.0769999999999982
19,22,138588.166938175,0.0769999999999982
19,23,151959.43636775,0.0779999999999745
19,24,151789.345432154,0.0780000000002019
19,25,124316.28903343,0.0779999999999745
19,26,149095.298531532,0.0769999999999982
19,27,140843.639828615,0.0769999999999982
19,28,141993.23445086,0.0779999999999745
19,29,149267.4873964,0.0779999999999745
19,30,130539.933131276,0.0769999999999982
20,21,120750.460096966,0.0779999999999745
20,22,138691.67740104,0.0779999999999745
20,23,144678.625406382,0.0769999999999982
20,24,144508.534470786,0.0779999999999745
20,25,124419.799496295,0.0780000000002019
20,26,144502.511357519,0.0769999999999982
20,27,140947.15029148,0.0779999999999745
20,28,142096.744913725,0.0789999999999509
20,29,144674.124379484,0.0769999999999982
20,30,130643.443594141,0.0779999999999745
21,22,121089.210579488,0.0779999999999745
21,23,120941.387670701,0.0779999999999745
21,24,120771.296735105,0.0779999999999745
21,25,121197.637302488,0.0779999999999745
21,26,120765.273621838,0.0769999999999982
21,27,121003.444565584,0.0769999999999982
21,28,121056.219307067,0.0779999999999745
21,29,120936.886643803,0.0779999999999745
21,30,120718.104844992,0.0779999999999745
22,23,138882.604974775,0.0779999999999745
22,24,138712.514039179,0.0789999999999509
22,25,124758.549978817,0.0769999999999982
22,26,138706.490925912,0.0769999999999982
22,27,138944.661869659,0.0780000000002019
22,28,138997.436611141,0.0779999999999745
22,29,138878.103947877,0.0769999999999982
22,30,130982.194076663,0.0769999999999982
23,24,156400.333136763,0.0769999999999982
23,25,124610.72707003,0.0779999999999745
23,26,149389.736568133,0.0779999999999745
23,27,141138.077865215,0.0789999999999509
23,28,142287.67248746,0.0779999999999745
23,29,149561.925433,0.0769999999999982
23,30,130834.371167876,0.0779999999999745
24,25,124440.636134434,0.0769999999999982
24,26,149219.645632536,0.0779999999999745
24,27,140967.986929619,0.0769999999999982
24,28,142117.581551864,0.0769999999999982
24,29,149391.834497404,0.0769999999999982
24,30,130664.28023228,0.0769999999999982
25,26,124434.613021167,0.0780000000002019
25,27,124672.783964913,0.0769999999999982
25,28,124725.558706396,0.0779999999999745
25,29,124606.226043132,0.0769999999999982
25,30,124387.44424432,0.0779999999999745
26,27,140961.963816352,0.0779999999999745
26,28,142111.558438597,0.0779999999999745
26,29,147466.95706409,0.0769999999999982
26,30,130658.257119013,0.0769999999999982
27,28,141252.909501581,0.0769999999999982
27,29,141133.576838317,0.0779999999999745
27,30,130896.428062759,0.0769999999999982
28,29,142283.171460562,0.0779999999999745
28,30,130949.202804242,0.0769999999999982
29,30,130829.870140978,0.0769999999999982


"After.Trace.ID","Before.Trace.ID","Difference","Runtime"
1,1,146616.870166743,0.0779999999999745
1,2,127034.911088208,0.0779999999999745
1,3,146624.628012218,0.0779999999999745
1,4,146202.179985158,0.0779999999999745
1,5,123071.696432841,0.0780000000002019
1,6,146625.070154319,0.0779999999999745
1,7,146477.683379858,0.0779999999999745
1,8,128603.482872746,0.0779999999999745
1,9,138149.26365417,0.0779999999999745
1,10,123522.469307777,0.0769999999999982
1,11,146507.878761884,0.0779999999999745
1,12,146439.226275835,0.0779999999999745
1,13,146457.667879588,0.0779999999999745
1,14,137532.572163904,0.0780000000002019
1,15,128925.555365891,0.0779999999999745
1,16,142891.986532417,0.0779999999999745
1,17,133860.788645476,0.0779999999999745
1,18,146524.809367692,0.0779999999999745
1,19,146308.253670422,0.0830000000000837
1,20,144614.126572379,0.0779999999999745
1,21,120876.888836698,0.0769999999999982
1,22,138818.106140773,0.0769999999999982
1,23,146602.691707022,0.0779999999999745
1,24,146432.600771426,0.0779999999999745
1,25,124546.228236027,0.0769999999999982
1,26,146426.577658159,0.0769999999999982
1,27,141073.579031212,0.0779999999999745
1,28,142223.173653457,0.0779999999999745
1,29,146598.190680124,0.0769999999999982
1,30,130769.872333873,0.0780000000002019
2,1,123182.910919683,0.0769999999999982
2,2,123132.61450633,0.0769999999999982
2,3,123190.668765158,0.0779999999999745
2,4,122768.220738097,0.0769999999999982
2,5,123192.02871348,0.0779999999999745
2,6,123191.110907259,0.0779999999999745
2,7,123043.724132797,0.0779999999999745
2,8,123263.141369589,0.0779999999999745
2,9,123225.25268299,0.0779999999999745
2,10,123019.529189545,0.0780000000002019
2,11,123073.919514823,0.0779999999999745
2,12,123005.267028775,0.0769999999999982
2,13,123023.708632527,0.0769999999999982
2,14,123061.437910192,0.0779999999999745
2,15,123372.484754617,0.0779999999999745
2,16,123301.793839773,0.0769999999999982
2,17,123345.181181838,0.0779999999999745
2,18,123090.850120631,0.0779999999999745
2,19,122874.294423362,0.0779999999999745
2,20,122977.804886227,0.0779999999999745
2,21,120997.221117337,0.0780000000002019
2,22,123316.555368749,0.0789999999999509
2,23,123168.732459962,0.0779999999999745
2,24,122998.641524366,0.0779999999999745
2,25,123424.982091749,0.0779999999999745
2,26,122992.618411099,0.0779999999999745
2,27,123230.789354845,0.0769999999999982
2,28,123283.564096328,0.0769999999999982
2,29,123164.231433064,0.0779999999999745
2,30,122945.449634252,0.0780000000002019
3,1,132276.437936195,0.0779999999999745
3,2,127175.05455294,0.0779999999999745
3,3,132284.19578167,0.0779999999999745
3,4,131861.74775461,0.0779999999999745
3,5,123211.839897573,0.0779999999999745
3,6,132284.637923771,0.0779999999999745
3,7,132137.25114931,0.0779999999999745
3,8,128743.626337477,0.0780000000002019
3,9,132318.779699502,0.0769999999999982
3,10,123662.612772508,0.0769999999999982
3,11,132167.446531335,0.0779999999999745
3,12,132098.794045287,0.0769999999999982
3,13,132117.23564904,0.0769999999999982
3,14,132154.964926704,0.0769999999999982
3,15,129065.698830623,0.0769999999999982
3,16,132395.320856286,0.0779999999999745
3,17,132438.70819835,0.0780000000002019
3,18,132184.377137144,0.0769999999999982
3,19,131967.821439874,0.0789999999999509
3,20,132071.331902739,0.0779999999999745
3,21,121017.03230143,0.0769999999999982
3,22,132410.082385261,0.0769999999999982
3,23,132262.259476474,0.0769999999999982
3,24,132092.168540878,0.0769999999999982
3,25,124686.371700759,0.0769999999999982
3,26,132086.145427611,0.0769999999999982
3,27,132324.316371357,0.0769999999999982
3,28,132377.09111284,0.0779999999999745
3,29,132257.758449576,0.0779999999999745
3,30,130910.015798605,0.0769999999999982
4,1,147820.725355423,0.0779999999999745
4,2,127049.928141765,0.0779999999999745
4,3,148253.91433789,0.0780000000002019
4,4,147942.58120889,0.0769999999999982
4,5,123086.713486398,0.0779999999999745
4,6,148365.471378051,0.0779999999999745
4,7,148218.08460359,0.0769999999999982
4,8,128618.499926302,0.0779999999999745
4,9,138164.280707726,0.0779999999999745
4,10,123537.486361334,0.0769999999999982
4,11,143925.954293338,0.0779999999999745
4,12,144008.883774567,0.0769999999999982
4,13,148198.06910332,0.0779999999999745
4,14,137547.589217461,0.0769999999999982
4,15,128940.572419448,0.0769999999999982
4,16,142907.003585973,0.0780000000002019
4,17,133875.805699033,0.0779999999999745
4,18,148265.210591424,0.0779999999999745
4,19,148048.654894154,0.0779999999999745
4,20,144629.143625936,0.0769999999999982
4,21,120891.905890255,0.0769999999999982
4,22,138833.123194329,0.0779999999999745
4,23,148343.092930754,0.0779999999999745
4,24,148173.001995158,0.0779999999999745
4,25,124561.245289584,0.0770000000002256
4,26,148166.978881891,0.0779999999999745
4,27,141088.596084769,0.0779999999999745
4,28,142238.190707014,0.0779999999999745
4,29,148338.591903856,0.0779999999999745
4,30,130784.88938743,0.0779999999999745
5,1,135053.866319904,0.0779999999999745
5,2,127026.76422754,0.0779999999999745
5,3,135061.624165379,0.0779999999999745
5,4,134639.176138319,0.0780000000002019
5,5,123063.549572173,0.0779999999999745
5,6,135062.06630748,0.0779999999999745
5,7,134914.679533018,0.0779999999999745
5,8,128595.336012077,0.0779999999999745
5,9,135096.208083211,0.0779999999999745
5,10,123514.322447108,0.0779999999999745
5,11,134944.874915044,0.0779999999999745
5,12,134876.222428996,0.0779999999999745
5,13,134894.664032749,0.0780000000002019
5,14,134932.393310413,0.0779999999999745
5,15,128917.408505223,0.0779999999999745
5,16,135172.749239994,0.0779999999999745
5,17,133852.641784808,0.0779999999999745
5,18,134961.805520853,0.0779999999999745
5,19,134745.249823583,0.0779999999999745
5,20,134848.760286448,0.0789999999999509
5,21,120868.74197603,0.0780000000002019
5,22,135187.51076897,0.0769999999999982
5,23,135039.687860183,0.0769999999999982
5,24,134869.596924587,0.0769999999999982
5,25,124538.081375359,0.0779999999999745
5,26,134863.57381132,0.0769999999999982
5,27,135101.744755066,0.0780000000002019
5,28,135154.519496549,0.0779999999999745
5,29,135035.186833285,0.0769999999999982
5,30,130761.725473205,0.0769999999999982
6,1,130152.574406736,0.0779999999999745
6,2,127367.313245885,0.0779999999999745
6,3,130160.332252211,0.0779999999999745
6,4,129737.884225151,0.0779999999999745
6,5,123404.098590518,0.0779999999999745
6,6,130160.774394312,0.0790000000001783
6,7,130013.38761985,0.0769999999999982
6,8,128935.885030422,0.0779999999999745
6,9,130194.916170043,0.0779999999999745
6,10,123854.871465453,0.0779999999999745
6,11,130043.583001876,0.0779999999999745
6,12,129974.930515828,0.0769999999999982
6,13,129993.372119581,0.0769999999999982
6,14,130031.101397245,0.0779999999999745
6,15,129257.957523568,0.0779999999999745
6,16,130271.457326826,0.0779999999999745
6,17,130314.844668891,0.0780000000002019
6,18,130060.513607685,0.0779999999999745
6,19,129843.957910415,0.0769999999999982
6,20,129947.46837328,0.0779999999999745
6,21,121209.290994375,0.0779999999999745
6,22,130286.218855802,0.0779999999999745
6,23,130138.395947015,0.0769999999999982
6,24,129968.305011419,0.0769999999999982
6,25,124878.630393704,0.0789999999999509
6,26,129962.281898152,0.0779999999999745
6,27,130200.452841898,0.0780000000002019
6,28,130253.227583381,0.0779999999999745
6,29,130133.894920117,0.0779999999999745
6,30,129915.113121305,0.0769999999999982
7,1,128890.789677447,0.0779999999999745
7,2,127126.039972901,0.0779999999999745
7,3,128898.547522922,0.0779999999999745
7,4,128476.099495862,0.0779999999999745
7,5,123162.825317534,0.0779999999999745
7,6,128898.989665023,0.0780000000002019
7,7,128751.602890562,0.0779999999999745
7,8,128694.611757439,0.0779999999999745
7,9,128933.131440754,0.0779999999999745
7,10,123613.59819247,0.0779999999999745
7,11,128781.798272588,0.0789999999999509
7,12,128713.145786539,0.0779999999999745
7,13,128731.587390292,0.0780000000002019
7,14,128769.316667956,0.0779999999999745
7,15,129016.684250584,0.0779999999999745
7,16,129009.672597538,0.0789999999999509
7,17,129053.059939602,0.0779999999999745
7,18,128798.728878396,0.0779999999999745
7,19,128582.173181126,0.0779999999999745
7,20,128685.683643991,0.0780000000002019
7,21,120968.017721391,0.0779999999999745
7,22,129024.434126513,0.0779999999999745
7,23,128876.611217726,0.0769999999999982
7,24,128706.52028213,0.0790000000001783
7,25,124637.35712072,0.0769999999999982
7,26,128700.497168863,0.0779999999999745
7,27,128938.668112609,0.0779999999999745
7,28,128991.442854092,0.0779999999999745
7,29,128872.110190828,0.0779999999999745
7,30,128485.694998709,0.0769999999999982
8,1,145142.56664168,0.0769999999999982
8,2,127140.605032176,0.0779999999999745
8,3,145150.324487155,0.0769999999999982
8,4,144727.876460095,0.0779999999999745
8,5,123177.390376809,0.0780000000002019
8,6,145150.766629256,0.0779999999999745
8,7,145003.379854795,0.0779999999999745
8,8,128709.176816714,0.0779999999999745
8,9,138254.957598138,0.0769999999999982
8,10,123628.163251745,0.0769999999999982
8,11,145033.575236821,0.0769999999999982
8,12,144964.922750772,0.0779999999999745
8,13,144983.364354525,0.0769999999999982
8,14,137638.266107872,0.0769999999999982
8,15,129031.249309859,0.0779999999999745
8,16,142997.680476384,0.0780000000002019
8,17,133966.482589444,0.0769999999999982
8,18,145050.505842629,0.0769999999999982
8,19,144833.950145359,0.0789999999999509
8,20,144719.820516347,0.0779999999999745
8,21,120982.582780666,0.0769999999999982
8,22,138923.80008474,0.0769999999999982
8,23,145128.388181959,0.0779999999999745
8,24,144958.297246363,0.0779999999999745
8,25,124651.922179995,0.0779999999999745
8,26,144952.274133096,0.0780000000002019
8,27,141179.27297518,0.0769999999999982
8,28,142328.867597425,0.0769999999999982
8,29,145123.887155061,0.0779999999999745
8,30,130875.566277841,0.0779999999999745
9,1,147701.434192523,0.0779999999999745
9,2,126930.636978865,0.0789999999999509
9,3,148134.62317499,0.0779999999999745
9,4,150086.65646534,0.0779999999999745
9,5,122967.422323498,0.0780000000002019
9,6,161819.477735477,0.0779999999999745
9,7,149741.757676707,0.0779999999999745
9,8,128499.208763403,0.0779999999999745
9,9,138044.989544827,0.0779999999999745
9,10,123418.195198434,0.0779999999999745
9,11,148124.600609623,0.0779999999999745
9,12,148143.457887896,0.0779999999999745
9,13,163865.28487838,0.0779999999999745
9,14,137428.298054561,0.0780000000002019
9,15,128821.281256548,0.0789999999999509
9,16,142787.712423073,0.0779999999999745
9,17,133756.514536133,0.0779999999999745
9,18,152372.789310641,0.0779999999999745
9,19,151790.663424404,0.0779999999999745
9,20,144509.852463036,0.0779999999999745
9,21,120772.614727355,0.0780000000002019
9,22,138713.832031429,0.0779999999999745
9,23,162249.908474195,0.0829999999998563
9,24,156231.560193417,0.0769999999999982
9,25,124441.954126684,0.0769999999999982
9,26,149220.963624786,0.0780000000002019
9,27,140969.304921869,0.0769999999999982
9,28,142118.899544114,0.0779999999999745
9,29,149393.152489654,0.0769999999999982
9,30,130665.59822453,0.0779999999999745
10,1,142295.077309386,0.0779999999999745
10,2,126957.70003974,0.0769999999999982
10,3,142302.835154861,0.0769999999999982
10,4,141880.3871278,0.0779999999999745
10,5,122994.485384373,0.0769999999999982
10,6,142303.277296961,0.0779999999999745
10,7,142155.8905225,0.0779999999999745
10,8,128526.271824277,0.0769999999999982
10,9,138072.052605701,0.0780000000002019
10,10,123445.258259308,0.0779999999999745
10,11,142186.085904526,0.0779999999999745
10,12,142117.433418477,0.0769999999999982
10,13,142135.87502223,0.0769999999999982
10,14,137455.361115436,0.0789999999999509
10,15,128848.344317423,0.0769999999999982
10,16,142413.960229476,0.0779999999999745
10,17,133783.577597008,0.0779999999999745
10,18,142203.016510334,0.0769999999999982
10,19,141986.460813064,0.0769999999999982
10,20,142089.971275929,0.0779999999999745
10,21,120799.67778823,0.0779999999999745
10,22,138740.895092304,0.0779999999999745
10,23,142280.898849664,0.0779999999999745
10,24,142110.807914068,0.0779999999999745
10,25,124469.017187558,0.0779999999999745
10,26,142104.784800801,0.0779999999999745
10,27,140996.367982744,0.0780000000002019
10,28,142086.577328257,0.0769999999999982
10,29,142276.397822766,0.0769999999999982
10,30,130692.661285405,0.0779999999999745
11,1,146646.487464108,0.0779999999999745
11,2,126959.005356485,0.0779999999999745
11,3,145998.280114925,0.0779999999999745
11,4,146613.364837712,0.0779999999999745
11,5,122995.790701118,0.0779999999999745
11,6,147036.255006873,0.0779999999999745
11,7,146888.868232411,0.0779999999999745
11,8,128527.577141023,0.0779999999999745
11,9,138073.357922447,0.0779999999999745
11,10,123446.563576054,0.0779999999999745
11,11,146919.063614437,0.0779999999999745
11,12,146850.411128389,0.0769999999999982
11,13,146868.852732142,0.0769999999999982
11,14,137456.666432181,0.0769999999999982
11,15,128849.649634168,0.0769999999999982
11,16,142816.080800693,0.0779999999999745
11,17,133784.882913753,0.0779999999999745
11,18,146935.994220246,0.0779999999999745
11,19,146719.438522976,0.0779999999999745
11,20,144538.220840656,0.0789999999999509
11,21,120800.983104975,0.0779999999999745
11,22,138742.200409049,0.0780000000002019
11,23,147013.876559576,0.0839999999998327
11,24,146843.78562398,0.0769999999999982
11,25,124470.322504304,0.0769999999999982
11,26,146837.762510713,0.0769999999999982
11,27,140997.673299489,0.0769999999999982
11,28,142147.267921734,0.0769999999999982
11,29,147009.375532678,0.0769999999999982
11,30,130693.96660215,0.0760000000000218
12,1,147767.793202415,0.0760000000000218
12,2,126996.995988757,0.0769999999999982
12,3,148200.982184882,0.0769999999999982
12,4,149187.47228991,0.0769999999999982
12,5,123033.78133339,0.0769999999999982
12,6,149610.362459072,0.0760000000000218
12,7,149462.97568461,0.0760000000000218
12,8,128565.567773294,0.0769999999999982
12,9,138111.348554718,0.0769999999999982
12,10,123484.554208325,0.0769999999999982
12,11,148190.959619515,0.0770000000002256
12,12,148209.816897787,0.0769999999999982
12,13,149442.96018434,0.0769999999999982
12,14,137494.657064453,0.0769999999999982
12,15,128887.64026644,0.0769999999999982
12,16,142854.071432965,0.0769999999999982
12,17,133822.873546025,0.0769999999999982
12,18,149510.101672444,0.0779999999999745
12,19,149293.545975175,0.0769999999999982
12,20,144576.211472927,0.0779999999999745
12,21,120838.973737247,0.0779999999999745
12,22,138780.191041321,0.0769999999999982
12,23,149587.984011775,0.0769999999999982
12,24,149417.893076179,0.0769999999999982
12,25,124508.313136576,0.0760000000000218
12,26,149287.322634678,0.0769999999999982
12,27,141035.663931761,0.0769999999999982
12,28,142185.258554006,0.0769999999999982
12,29,149459.511499546,0.0769999999999982
12,30,130731.957234422,0.0760000000000218
13,1,147663.206558067,0.0760000000000218
13,2,126892.409344409,0.0769999999999982
13,3,148096.395540534,0.0769999999999982
13,4,150048.428830884,0.0769999999999982
13,5,122929.194689043,0.0769999999999982
13,6,161781.250101022,0.122000000000071
13,7,149703.530042251,0.0889999999999418
13,8,128460.981128947,0.0769999999999982
13,9,138006.761910371,0.0769999999999982
13,10,123379.967563978,0.0779999999999745
13,11,148086.372975168,0.0769999999999982
13,12,148105.23025344,0.0769999999999982
13,13,162452.798714287,0.0769999999999982
13,14,137390.070420105,0.0780000000002019
13,15,128783.053622092,0.0769999999999982
13,16,142749.484788618,0.0769999999999982
13,17,133718.286901678,0.0769999999999982
13,18,152334.561676185,0.0769999999999982
13,19,151752.435789948,0.0769999999999982
13,20,144471.62482858,0.0769999999999982
13,21,120734.3870929,0.0769999999999982
13,22,138675.604396974,0.0769999999999982
13,23,162211.680839739,0.0779999999999745
13,24,156193.332558961,0.0769999999999982
13,25,124403.726492228,0.0769999999999982
13,26,149182.735990331,0.0769999999999982
13,27,140931.077287413,0.0769999999999982
13,28,142080.671909658,0.0769999999999982
13,29,149354.924855199,0.0769999999999982
13,30,130627.370590074,0.0769999999999982
14,1,137108.081946873,0.0769999999999982
14,2,127160.343480351,0.0769999999999982
14,3,137115.839792348,0.0769999999999982
14,4,136693.391765288,0.0769999999999982
14,5,123197.128824984,0.0769999999999982
14,6,137116.281934449,0.0779999999999745
14,7,136968.895159988,0.0760000000000218
14,8,128728.915264888,0.0760000000000218
14,9,137150.42371018,0.0769999999999982
14,10,123647.901699919,0.0769999999999982
14,11,136999.090542014,0.0769999999999982
14,12,136930.438055965,0.0769999999999982
14,13,136948.879659718,0.0769999999999982
14,14,136986.608937382,0.0769999999999982
14,15,129050.987758034,0.0769999999999982
14,16,137226.964866964,0.0779999999999745
14,17,133986.221037619,0.0769999999999982
14,18,137016.021147822,0.0769999999999982
14,19,136799.465450552,0.0769999999999982
14,20,136902.975913417,0.0769999999999982
14,21,121002.321228841,0.0769999999999982
14,22,137241.726395939,0.0779999999999745
14,23,137093.903487152,0.0769999999999982
14,24,136923.812551556,0.0769999999999982
14,25,124671.660628169,0.0769999999999982
14,26,136917.789438289,0.0769999999999982
14,27,137155.960382035,0.0769999999999982
14,28,137208.735123518,0.0769999999999982
14,29,137089.402460254,0.0769999999999982
14,30,130895.304726016,0.0769999999999982
15,1,121678.029468003,0.0769999999999982
15,2,121627.733054651,0.0779999999999745
15,3,121685.787313478,0.0769999999999982
15,4,121263.339286418,0.0769999999999982
15,5,121840.485151704,0.0769999999999982
15,6,121686.229455579,0.0769999999999982
15,7,121538.842681117,0.0769999999999982
15,8,121758.259917909,0.0769999999999982
15,9,121720.37123131,0.0769999999999982
15,10,122259.381917779,0.0769999999999982
15,11,121569.038063143,0.0769999999999982
15,12,121500.385577095,0.0759999999997945
15,13,121518.827180848,0.0769999999999982
15,14,121556.556458512,0.0769999999999982
15,15,121867.603302938,0.0779999999999745
15,16,121796.912388093,0.0769999999999982
15,17,121840.299730158,0.0760000000000218
15,18,121585.968668951,0.0769999999999982
15,19,121369.412971682,0.0769999999999982
15,20,121472.923434547,0.0779999999999745
15,21,120983.931794654,0.0769999999999982
15,22,121811.673917069,0.0769999999999982
15,23,121663.851008282,0.0769999999999982
15,24,121493.760072686,0.0769999999999982
15,25,121920.100640069,0.0769999999999982
15,26,121487.736959419,0.0769999999999982
15,27,121725.907903165,0.0769999999999982
15,28,121778.682644648,0.0779999999999745
15,29,121659.349981384,0.0779999999999745
15,30,121440.568182572,0.0769999999999982
16,1,132132.457474861,0.0769999999999982
16,2,127298.019674209,0.0769999999999982
16,3,132140.215320336,0.0769999999999982
16,4,131717.767293275,0.0769999999999982
16,5,123334.805018842,0.0779999999999745
16,6,132140.657462436,0.0769999999999982
16,7,131993.270687975,0.0769999999999982
16,8,128866.591458746,0.0769999999999982
16,9,132174.799238167,0.0769999999999982
16,10,123785.577893777,0.0769999999999982
16,11,132023.466070001,0.0779999999999745
16,12,131954.813583953,0.0769999999999982
16,13,131973.255187705,0.0769999999999982
16,14,132010.98446537,0.0769999999999982
16,15,129188.663951892,0.0769999999999982
16,16,132251.340394951,0.0769999999999982
16,17,132294.727737015,0.0769999999999982
16,18,132040.396675809,0.0769999999999982
16,19,131823.84097854,0.0769999999999982
16,20,131927.351441404,0.0769999999999982
16,21,121139.997422699,0.0769999999999982
16,22,132266.101923927,0.0769999999999982
16,23,132118.27901514,0.0769999999999982
16,24,131948.188079544,0.0769999999999982
16,25,124809.336822027,0.0769999999999982
16,26,131942.164966277,0.0760000000000218
16,27,132180.335910023,0.0769999999999982
16,28,132233.110651506,0.0760000000000218
16,29,132113.777988242,0.0760000000000218
16,30,131032.980919874,0.0760000000000218
17,1,142539.915902696,0.0769999999999982
17,2,127067.447389181,0.0769999999999982
17,3,142547.673748171,0.0769999999999982
17,4,142125.225721111,0.0769999999999982
17,5,123104.232733815,0.0769999999999982
17,6,142548.115890272,0.0769999999999982
17,7,142400.729115811,0.0780000000002019
17,8,128636.019173719,0.0769999999999982
17,9,138181.799955143,0.0769999999999982
17,10,123555.00560875,0.0769999999999982
17,11,142430.924497837,0.0769999999999982
17,12,142362.272011788,0.0769999999999982
17,13,142380.713615541,0.0769999999999982
17,14,137565.108464877,0.0769999999999982
17,15,128958.091666865,0.0769999999999982
17,16,142658.798822787,0.0769999999999982
17,17,133893.32494645,0.0769999999999982
17,18,142447.855103645,0.0769999999999982
17,19,142231.299406375,0.0769999999999982
17,20,142334.80986924,0.0769999999999982
17,21,120909.425137672,0.0769999999999982
17,22,138850.642441746,0.0779999999999745
17,23,142525.737442975,0.0769999999999982
17,24,142355.646507379,0.0769999999999982
17,25,124578.764537,0.0760000000000218
17,26,142349.623394112,0.0769999999999982
17,27,141106.115332185,0.0769999999999982
17,28,142255.70995443,0.0769999999999982
17,29,142521.236416077,0.0769999999999982
17,30,130802.408634847,0.0769999999999982
18,1,132086.115185842,0.0769999999999982
18,2,127259.841223596,0.0769999999999982
18,3,132093.873031317,0.0769999999999982
18,4,131671.425004256,0.0769999999999982
18,5,123296.626568229,0.0769999999999982
18,6,132094.315173417,0.0769999999999982
18,7,131946.928398956,0.0779999999999745
18,8,128828.413008134,0.0769999999999982
18,9,132128.456949148,0.0769999999999982
18,10,123747.399443165,0.0769999999999982
18,11,131977.123780982,0.0769999999999982
18,12,131908.471294934,0.0769999999999982
18,13,131926.912898686,0.0769999999999982
18,14,131964.642176351,0.0769999999999982
18,15,129150.485501279,0.0769999999999982
18,16,132204.998105932,0.0769999999999982
18,17,132248.385447996,0.0819999999998799
18,18,131994.05438679,0.0769999999999982
18,19,131777.498689521,0.0769999999999982
18,20,131881.009152385,0.0769999999999982
18,21,121101.818972086,0.0769999999999982
18,22,132219.759634908,0.0769999999999982
18,23,132071.936726121,0.0769999999999982
18,24,131901.845790525,0.0769999999999982
18,25,124771.158371415,0.0769999999999982
18,26,131895.822677258,0.0769999999999982
18,27,132133.993621004,0.0769999999999982
18,28,132186.768362487,0.0769999999999982
18,29,132067.435699223,0.0769999999999982
18,30,129799.043610426,0.0759999999997945
19,1,136329.002211338,0.0769999999999982
19,2,127231.297006269,0.0769999999999982
19,3,136336.760056813,0.0769999999999982
19,4,135914.312029753,0.0769999999999982
19,5,123268.082350902,0.0769999999999982
19,6,136337.202198914,0.0769999999999982
19,7,136189.815424453,0.0769999999999982
19,8,128799.868790806,0.0769999999999982
19,9,136371.343974645,0.0770000000002256
19,10,123718.855225837,0.0769999999999982
19,11,136220.010806479,0.0769999999999982
19,12,136151.35832043,0.0769999999999982
19,13,136169.799924183,0.0769999999999982
19,14,136207.529201847,0.0769999999999982
19,15,129121.941283952,0.0769999999999982
19,16,136447.885131429,0.0769999999999982
19,17,134057.174563537,0.0769999999999982
19,18,136236.941412287,0.0760000000000218
19,19,136020.385715017,0.0760000000000218
19,20,136123.896177882,0.0760000000000218
19,21,121073.274754759,0.0760000000000218
19,22,136462.646660404,0.0760000000000218
19,23,136314.823751617,0.0760000000000218
19,24,136144.732816021,0.0769999999999982
19,25,124742.614154088,0.0769999999999982
19,26,136138.709702754,0.0769999999999982
19,27,136376.8806465,0.0769999999999982
19,28,136429.655387983,0.0769999999999982
19,29,136310.322724719,0.0779999999999745
19,30,130966.258251934,0.0769999999999982
20,1,132916.985981063,0.0769999999999982
20,2,127052.411775964,0.0769999999999982
20,3,132924.743826538,0.0769999999999982
20,4,132502.295799477,0.0769999999999982
20,5,123089.197120597,0.0769999999999982
20,6,132925.185968639,0.0769999999999982
20,7,132777.799194177,0.0769999999999982
20,8,128620.983560501,0.0769999999999982
20,9,132959.32774437,0.0769999999999982
20,10,123539.969995532,0.0769999999999982
20,11,132807.994576203,0.0769999999999982
20,12,132739.342090155,0.0769999999999982
20,13,132757.783693908,0.0769999999999982
20,14,132795.512971572,0.0769999999999982
20,15,128943.056053647,0.0769999999999982
20,16,133035.868901153,0.0769999999999982
20,17,133079.256243218,0.0769999999999982
20,18,132824.925182012,0.0769999999999982
20,19,132608.369484742,0.0769999999999982
20,20,132711.879947607,0.0779999999999745
20,21,120894.389524454,0.0769999999999982
20,22,133050.630430129,0.0780000000002019
20,23,132902.807521342,0.0769999999999982
20,24,132732.716585746,0.0819999999998799
20,25,124563.728923783,0.0769999999999982
20,26,132726.693472479,0.0760000000000218
20,27,132964.864416225,0.0760000000000218
20,28,133017.639157708,0.0769999999999982
20,29,132898.306494444,0.0769999999999982
20,30,130787.373021629,0.0769999999999982
21,1,115405.564146029,0.0769999999999982
21,2,115355.267732677,0.0760000000000218
21,3,115413.321991504,0.0769999999999982
21,4,114990.873964444,0.0769999999999982
21,5,115568.01982973,0.0769999999999982
21,6,115413.764133605,0.0769999999999982
21,7,115266.377359144,0.0769999999999982
21,8,115485.794595935,0.0769999999999982
21,9,115447.905909336,0.0769999999999982
21,10,115986.916595806,0.0769999999999982
21,11,115296.57274117,0.0769999999999982
21,12,115227.920255121,0.0769999999999982
21,13,115246.361858874,0.0769999999999982
21,14,115284.091136538,0.0769999999999982
21,15,115595.137980964,0.0769999999999982
21,16,115524.44706612,0.0769999999999982
21,17,115567.834408184,0.0769999999999982
21,18,115313.503346978,0.0769999999999982
21,19,115096.947649708,0.0769999999999982
21,20,115200.458112573,0.0780000000002019
21,21,115259.024876082,0.0769999999999982
21,22,115539.208595095,0.0769999999999982
21,23,115391.385686308,0.0769999999999982
21,24,115221.294750712,0.0769999999999982
21,25,115647.635318095,0.0769999999999982
21,26,115215.271637445,0.0769999999999982
21,27,115453.442581191,0.0769999999999982
21,28,115506.217322674,0.0769999999999982
21,29,115386.88465941,0.0769999999999982
21,30,115168.102860599,0.0769999999999982
22,1,147649.111939555,0.0769999999999982
22,2,126878.314725897,0.0769999999999982
22,3,148082.300922021,0.0779999999999745
22,4,150034.334212371,0.0769999999999982
22,5,122915.10007053,0.0769999999999982
22,6,151613.013856332,0.0769999999999982
22,7,149689.435423738,0.0769999999999982
22,8,128446.886510434,0.0769999999999982
22,9,137992.667291858,0.0769999999999982
22,10,123365.872945465,0.0779999999999745
22,11,148072.278356655,0.0769999999999982
22,12,148091.135634927,0.0769999999999982
22,13,151445.611581601,0.0769999999999982
22,14,137375.975801593,0.0760000000000218
22,15,128768.95900358,0.0769999999999982
22,16,142735.390170105,0.0769999999999982
22,17,133704.192283165,0.0769999999999982
22,18,151512.753069705,0.0769999999999982
22,19,151296.197372435,0.0769999999999982
22,20,144457.530210067,0.0769999999999982
22,21,120720.292474387,0.0769999999999982
22,22,138661.509778461,0.0769999999999982
22,23,151590.635409035,0.0779999999999745
22,24,151420.544473439,0.0769999999999982
22,25,124389.631873716,0.0779999999999745
22,26,149168.641371818,0.0769999999999982
22,27,140916.982668901,0.0769999999999982
22,28,142066.577291146,0.0769999999999982
22,29,149340.830236686,0.0769999999999982
22,30,130613.275971562,0.0820000000001073
23,1,120686.980577264,0.0769999999999982
23,2,120636.684163912,0.0769999999999982
23,3,120694.73842274,0.0769999999999982
23,4,120272.290395679,0.0769999999999982
23,5,120849.436260966,0.0760000000000218
23,6,120695.18056484,0.0760000000000218
23,7,120547.793790379,0.0769999999999982
23,8,120767.21102717,0.0769999999999982
23,9,120729.322340571,0.0769999999999982
23,10,121268.333027041,0.0760000000000218
23,11,120577.989172405,0.0769999999999982
23,12,120509.336686356,0.0769999999999982
23,13,120527.778290109,0.0769999999999982
23,14,120565.507567773,0.0769999999999982
23,15,120876.554412199,0.0760000000000218
23,16,120805.863497355,0.0760000000000218
23,17,120849.250839419,0.0769999999999982
23,18,120594.919778213,0.0769999999999982
23,19,120378.364080943,0.0769999999999982
23,20,120481.874543808,0.0769999999999982
23,21,120540.441307317,0.0779999999999745
23,22,120820.625026331,0.0760000000000218
23,23,120672.802117543,0.0760000000000218
23,24,120502.711181947,0.0760000000000218
23,25,120929.05174933,0.0769999999999982
23,26,120496.68806868,0.0769999999999982
23,27,120734.859012426,0.0769999999999982
23,28,120787.633753909,0.0769999999999982
23,29,120668.301090645,0.0769999999999982
23,30,120449.519291834,0.0769999999999982
24,1,147322.102363104,0.0769999999999982
24,2,126933.145639865,0.0769999999999982
24,3,146199.002593375,0.0769999999999982
24,4,146907.412181518,0.0779999999999745
24,5,122969.930984498,0.0769999999999982
24,6,147330.302350679,0.0769999999999982
24,7,147182.915576218,0.0769999999999982
24,8,128501.717424402,0.0769999999999982
24,9,138047.498205826,0.0769999999999982
24,10,123420.703859433,0.0769999999999982
24,11,147213.110958244,0.0769999999999982
24,12,147144.458472195,0.0769999999999982
24,13,147162.900075948,0.0769999999999982
24,14,137430.806715561,0.0769999999999982
24,15,128823.789917548,0.0769999999999982
24,16,142790.221084073,0.0769999999999982
24,17,133759.023197133,0.0779999999999745
24,18,147230.041564052,0.0769999999999982
24,19,147013.485866783,0.0759999999997945
24,20,144512.361124035,0.0769999999999982
24,21,120775.123388355,0.0769999999999982
24,22,138716.340692429,0.0769999999999982
24,23,147307.923903383,0.0769999999999982
24,24,147137.832967787,0.0769999999999982
24,25,124444.462787684,0.0769999999999982
24,26,147131.809854519,0.0769999999999982
24,27,140971.813582869,0.0769999999999982
24,28,142121.408205114,0.0769999999999982
24,29,147303.422876485,0.0769999999999982
24,30,130668.10688553,0.0779999999999745
25,1,141661.168699147,0.0769999999999982
25,2,127227.139523198,0.0769999999999982
25,3,141668.926544622,0.0769999999999982
25,4,141246.478517562,0.0769999999999982
25,5,123263.924867831,0.0769999999999982
25,6,141669.368686723,0.0769999999999982
25,7,141521.981912262,0.0760000000000218
25,8,128795.711307735,0.0760000000000218
25,9,138341.492089159,0.0769999999999982
25,10,123714.697742766,0.0769999999999982
25,11,141552.177294288,0.0769999999999982
25,12,141483.524808239,0.0769999999999982
25,13,141501.966411992,0.0769999999999982
25,14,137724.800598894,0.0769999999999982
25,15,129117.783800881,0.0769999999999982
25,16,141780.051619238,0.0779999999999745
25,17,134053.017080466,0.0760000000000218
25,18,141569.107900096,0.0760000000000218
25,19,141352.552202826,0.0769999999999982
25,20,141456.062665691,0.0769999999999982
25,21,121069.117271688,0.0769999999999982
25,22,139010.334575762,0.0769999999999982
25,23,141646.990239426,0.0769999999999982
25,24,141476.89930383,0.0769999999999982
25,25,124738.456671016,0.0769999999999982
25,26,141470.876190563,0.0769999999999982
25,27,141265.807466202,0.0769999999999982
25,28,141761.821875792,0.0769999999999982
25,29,141642.489212528,0.0769999999999982
25,30,130962.100768863,0.0769999999999982
26,1,131116.223371948,0.0769999999999982
26,2,127270.983861868,0.0769999999999982
26,3,131123.981217423,0.0769999999999982
26,4,130701.533190362,0.0769999999999982
26,5,123307.769206501,0.0760000000000218
26,6,131124.423359523,0.0760000000000218
26,7,130977.036585062,0.0760000000000218
26,8,128839.555646405,0.0769999999999982
26,9,131158.565135254,0.0779999999999745
26,10,123758.542081436,0.0769999999999982
26,11,131007.231967088,0.0769999999999982
26,12,130938.579481039,0.0769999999999982
26,13,130957.021084792,0.0769999999999982
26,14,130994.750362457,0.0769999999999982
26,15,129161.628139551,0.0769999999999982
26,16,131235.106292038,0.0769999999999982
26,17,131278.493634102,0.0769999999999982
26,18,131024.162572896,0.0769999999999982
26,19,130807.606875627,0.0769999999999982
26,20,130911.117338491,0.0769999999999982
26,21,121112.961610358,0.0769999999999982
26,22,131249.867821014,0.0779999999999745
26,23,131102.044912227,0.0769999999999982
26,24,130931.953976631,0.0779999999999745
26,25,124782.301009686,0.0769999999999982
26,26,130925.930863363,0.0779999999999745
26,27,131164.10180711,0.0769999999999982
26,28,131216.876548593,0.0769999999999982
26,29,131097.543885329,0.0769999999999982
26,30,130878.762086517,0.0769999999999982
27,1,131684.659508188,0.0769999999999982
27,2,127454.28743965,0.0759999999997945
27,3,131692.417353663,0.0769999999999982
27,4,131269.969326602,0.0769999999999982
27,5,123491.072784283,0.0789999999999509
27,6,131692.859495763,0.0769999999999982
27,7,131545.472721302,0.0779999999999745
27,8,129022.859224188,0.0769999999999982
27,9,131727.001271494,0.0769999999999982
27,10,123941.845659219,0.0779999999999745
27,11,131575.668103328,0.0769999999999982
27,12,131507.015617279,0.0769999999999982
27,13,131525.457221032,0.0769999999999982
27,14,131563.186498697,0.0760000000000218
27,15,129344.931717333,0.0760000000000218
27,16,131803.542428278,0.0769999999999982
27,17,131846.929770342,0.0769999999999982
27,18,131592.598709136,0.0769999999999982
27,19,131376.043011866,0.0769999999999982
27,20,131479.553474731,0.0769999999999982
27,21,121296.26518814,0.0769999999999982
27,22,131818.303957254,0.0769999999999982
27,23,131670.481048467,0.0769999999999982
27,24,131500.39011287,0.0769999999999982
27,25,124965.604587469,0.0769999999999982
27,26,131494.366999603,0.0769999999999982
27,27,131732.53794335,0.0769999999999982
27,28,131785.312684832,0.0760000000000218
27,29,131665.980021568,0.0769999999999982
27,30,131189.248685315,0.0769999999999982
28,1,147759.764842434,0.0769999999999982
28,2,126988.967628776,0.0769999999999982
28,3,148192.953824901,0.0769999999999982
28,4,150144.98711525,0.0769999999999982
28,5,123025.752973409,0.0769999999999982
28,6,161057.433051616,0.0769999999999982
28,7,149800.088326617,0.0769999999999982
28,8,128557.539413313,0.0769999999999982
28,9,138103.320194737,0.0769999999999982
28,10,123476.525848344,0.0769999999999982
28,11,148182.931259534,0.0769999999999982
28,12,148201.788537806,0.0769999999999982
28,13,160890.030776885,0.0769999999999982
28,14,137486.628704472,0.0769999999999982
28,15,128879.611906459,0.0779999999999745
28,16,142846.043072984,0.0769999999999982
28,17,133814.845186044,0.0769999999999982
28,18,152431.119960552,0.0769999999999982
28,19,151848.994074314,0.0769999999999982
28,20,144568.183112946,0.0769999999999982
28,21,120830.945377266,0.0779999999999745
28,22,138772.16268134,0.0769999999999982
28,23,161035.054604319,0.0770000000002256
28,24,156289.890843327,0.0769999999999982
28,25,124500.284776595,0.0769999999999982
28,26,149279.294274697,0.0779999999999745
28,27,141027.63557178,0.0769999999999982
28,28,142177.230194025,0.0769999999999982
28,29,149451.483139565,0.0769999999999982
28,30,130723.928874441,0.0769999999999982
29,1,147787.962174962,0.0769999999999982
29,2,127017.164961305,0.0769999999999982
29,3,148221.151157429,0.0769999999999982
29,4,150173.184447779,0.0769999999999982
29,5,123053.950305938,0.0769999999999982
29,6,153767.05013472,0.0769999999999982
29,7,149828.285659146,0.0769999999999982
29,8,128585.736745842,0.0769999999999982
29,9,138131.517527266,0.0769999999999982
29,10,123504.723180873,0.0779999999999745
29,11,148211.128592063,0.0769999999999982
29,12,148229.985870335,0.0769999999999982
29,13,153599.647859989,0.0769999999999982
29,14,137514.826037,0.0779999999999745
29,15,128907.809238988,0.0820000000001073
29,16,142874.240405513,0.0769999999999982
29,17,133843.042518573,0.0769999999999982
29,18,152459.317293081,0.0760000000000218
29,19,151877.191406843,0.0769999999999982
29,20,144596.380445475,0.0760000000000218
29,21,120859.142709795,0.0769999999999982
29,22,138800.360013869,0.0769999999999982
29,23,153744.671687424,0.0769999999999982
29,24,153574.580751828,0.0769999999999982
29,25,124528.482109123,0.0769999999999982
29,26,149307.491607226,0.0769999999999982
29,27,141055.832904308,0.0769999999999982
29,28,142205.427526553,0.0769999999999982
29,29,149479.680472094,0.0769999999999982
29,30,130752.12620697,0.0769999999999982
30,1,133865.733170698,0.0769999999999982
30,2,127516.525842356,0.0769999999999982
30,3,133873.491016173,0.0769999999999982
30,4,133451.042989113,0.0769999999999982
30,5,123553.311186989,0.0769999999999982
30,6,133873.933158274,0.0760000000000218
30,7,133726.546383812,0.0760000000000218
30,8,129085.097626893,0.0769999999999982
30,9,133908.074934005,0.0769999999999982
30,10,124004.084061924,0.0769999999999982
30,11,133756.741765838,0.0769999999999982
30,12,133688.08927979,0.0769999999999982
30,13,133706.530883543,0.0769999999999982
30,14,133744.260161207,0.0769999999999982
30,15,129407.170120039,0.0769999999999982
30,16,133984.616090788,0.0769999999999982
30,17,134028.003432853,0.0779999999999745
30,18,133773.672371647,0.0769999999999982
30,19,133557.116674377,0.0769999999999982
30,20,133660.627137242,0.0769999999999982
30,21,121358.503590846,0.0769999999999982
30,22,133999.377619764,0.0769999999999982
30,23,133851.554710977,0.0769999999999982
30,24,133681.463775381,0.0769999999999982
30,25,125027.842990174,0.121000000000095
30,26,133675.440662114,0.0989999999999327
30,27,133913.61160586,0.0800000000001546
30,28,133966.386347343,0.0769999999999982
30,29,133847.053684079,0.0769999999999982
30,30,131251.487088021,0.0779999999999745
