"Before.Trace.ID1","Before.Trace.ID2","Difference","Runtime"
1,2,2418.6966908873,0.00100000000384171
1,3,3172.42104069539,0
1,4,2963.28191415663,0
1,5,2473.59134385792,0.00100000000384171
1,6,2968.43205455453,0
1,7,1689.9423286219,0.00099999998928979
1,8,2876.43773145582,0.00100000000384171
1,9,2076.33109673149,0
1,10,2378.16100215196,0.00100000000384171
1,11,2742.27074964754,0.00100000000384171
1,12,2134.34904573812,0
1,13,2739.25857903531,0.00099999998928979
1,14,4157.15755739834,0
1,15,2442.37794244623,0
1,16,2626.00858435609,0.00100000000384171
1,17,3028.97891988422,0
1,18,2279.34891658554,0.00100000000384171
1,19,2457.12568348025,0.00099999998928979
1,20,2421.92037537437,0
1,21,1929.11957528727,0.00100000000384171
1,22,3097.55725179445,0.00100000000384171
1,23,2295.87431236405,0
1,24,2633.81107766474,0.00100000000384171
1,25,2830.90683025182,0.00099999998928979
1,26,2135.7668463976,0
1,27,2399.92490773745,0.00100000000384171
1,28,2393.29797984125,0.00100000000384171
1,29,2606.17388372255,0
1,30,2740.22287175237,0.00099999998928979
2,3,3076.61664422989,0.00100000000384171
2,4,1863.20732116203,0
2,5,1697.44057186492,0.00100000000384171
2,6,3424.43647912461,0.00100000000384171
2,7,2353.98934872979,0
2,8,1905.10519287182,0.00099999998928979
2,9,2725.91135698927,0.00100000000384171
2,10,2632.95491923017,0
2,11,2026.15038349482,0.00100000000384171
2,12,2336.85184277852,0.00100000000384171
2,13,3187.40751145725,0
2,14,3574.97164787849,0.00099999998928979
2,15,2462.70777537335,0.00100000000384171
2,16,1888.9161034372,0.0200000000040745
2,17,3421.92699817667,0.00100000000384171
2,18,1810.44088872736,0
2,19,2035.15204554743,0
2,20,2854.699007883,0.00100000000384171
2,21,2410.94120985312,0
2,22,3792.58535367708,0
2,23,1780.52544405325,0.00099999998928979
2,24,1760.51014033825,0
2,25,2896.43937621966,0
2,26,3025.77694677153,0.00100000000384171
2,27,2601.51360218904,0
2,28,2843.88920501186,0.00100000000384171
2,29,2298.88740623773,0.00099999998928979
2,30,2542.46746064816,0
3,4,2573.40027229269,0.00100000000384171
3,5,2914.94980144494,0.00100000000384171
3,6,3219.12567752119,0
3,7,2611.91370812363,0.00100000000384171
3,8,3329.41838753229,0.00099999998928979
3,9,2655.3459322508,0
3,10,2912.29545614855,0.00100000000384171
3,11,3144.17864302241,0.00100000000384171
3,12,2369.5932110984,0
3,13,2857.58566189552,0.00100000000384171
3,14,2810.30750767984,0.00099999998928979
3,15,2865.49723446804,0
3,16,2909.81766854736,0.00100000000384171
3,17,2824.59980774767,0.00100000000384171
3,18,2482.09963154272,0
3,19,2155.0296755116,0.00100000000384171
3,20,2982.54172503222,0
3,21,3138.86814501307,0.00099999998928979
3,22,2624.75104019801,0.00100000000384171
3,23,2561.02942302379,0
3,24,3349.55489166915,0.00100000000384171
3,25,2882.29740030306,0.00099999998928979
3,26,3698.03805982272,0
3,27,2641.71843868112,0.00100000000384171
3,28,3106.36843931804,0.00100000000384171
3,29,2979.01009601008,0
3,30,2729.12627907083,0.00100000000384171
4,5,1519.59648565419,0
4,6,3804.00972426895,0
4,7,2433.94861140225,0.00100000000384171
4,8,2111.6491842955,0
4,9,2249.17981053762,0.00100000000384171
4,10,2083.7759829097,0.00100000000384171
4,11,2364.05569044535,0
4,12,2232.08703917477,0.00099999998928979
4,13,2811.54131294077,0.00100000000384171
4,14,3017.25484837779,0
4,15,1918.97861691316,0.00100000000384171
4,16,2114.2263878571,0
4,17,3186.22018879876,0
4,18,1646.17979946684,0.00099999998928979
4,19,1681.73871562867,0
4,20,3319.79067287335,0.00100000000384171
4,21,2610.529995991,0.00100000000384171
4,22,3709.90314870062,0
4,23,1637.11595935554,0.00100000000384171
4,24,1825.71895881589,0.00099999998928979
4,25,2306.22383466053,0
4,26,3625.29258777858,0.00100000000384171
4,27,2381.4262241515,0.00100000000384171
4,28,3346.94999865592,0
4,29,2458.66933091337,0.00099999998928979
4,30,2814.51247718035,0.00100000000384171
5,6,3665.26716273519,0
5,7,2289.13860015266,0.00100000000384171
5,8,1859.13126249094,0.00100000000384171
5,9,2297.7403871708,0
5,10,2025.11496387472,0.00099999998928979
5,11,2199.20331895119,0.00100000000384171
5,12,2136.49243618921,0
5,13,2721.46115511847,0.00100000000384171
5,14,3415.21589363386,0.00100000000384171
5,15,1853.66412252481,0
5,16,1575.03550762831,0.00099999998928979
5,17,3318.50298926709,0.00100000000384171
5,18,1302.91135737391,0
5,19,1883.83009863015,0.00100000000384171
5,20,2616.29344729725,0.00100000000384171
5,21,1682.60851405244,0
5,22,3759.79197665943,0.0199999999895226
5,23,1454.06534938297,0
5,24,1608.73132746832,0.00100000000384171
5,25,2435.95629292966,0.00099999998928979
5,26,2655.10427715271,0
5,27,2208.36354037632,0.00100000000384171
5,28,2885.80414863546,0.00100000000384171
5,29,2126.28738996177,0
5,30,2598.70435348416,0.00100000000384171
6,7,2945.46176351645,0.00099999998928979
6,8,3358.563619816,0
6,9,3166.73037278293,0.00100000000384171
6,10,3676.65814955388,0.00100000000384171
6,11,4278.01908413442,0
6,12,3168.58853934198,0.00100000000384171
6,13,4610.78942660147,0.00099999998928979
6,14,3152.88312540298,0
6,15,4049.90768086975,0.00100000000384171
6,16,4060.51740250005,0.00100000000384171
6,17,2243.96053446806,0
6,18,3079.51580329623,0.00100000000384171
6,19,3553.60082485337,0.00099999998928979
6,20,2536.73276835498,0
6,21,3617.11437140063,0.00100000000384171
6,22,3762.55304404707,0.00100000000384171
6,23,3147.28012551854,0
6,24,3767.7265891528,0.00100000000384171
6,25,3283.7559671579,0
6,26,3948.08524550636,0
6,27,3323.07446792514,0.00100000000384171
6,28,2494.03257009591,0
6,29,2749.93960120893,0.00100000000384171
6,30,3858.85508597367,0.00099999998928979
7,8,2866.73047867846,0
7,9,1886.12210698168,0.00100000000384171
7,10,2205.88825930137,0.00100000000384171
7,11,2596.70940149507,0
7,12,2153.81861398572,0.00100000000384171
7,13,2828.40213867769,0
7,14,3820.38340423024,0
7,15,2431.07848030696,0.00100000000384171
7,16,2760.02734940818,0
7,17,2517.81918940855,0.00100000000384171
7,18,1956.91205321191,0.00100000000384171
7,19,1921.5485513342,0
7,20,2331.30284004976,0.00099999998928979
7,21,2218.57730605122,0.00100000000384171
7,22,2844.84778103182,0
7,23,1857.14998847941,0.00100000000384171
7,24,2309.87448463519,0
7,25,2569.6546415738,0
7,26,2922.59329782005,0.00099999998928979
7,27,2170.25887468878,0
7,28,2066.91187645991,0.00100000000384171
7,29,2284.5167522477,0.00100000000384171
7,30,2548.71015523581,0
8,9,2836.97699619949,0.00100000000384171
8,10,2780.71278341029,0.00099999998928979
8,11,2930.97363629997,0
8,12,2794.79598158646,0.00100000000384171
8,13,3504.38984589649,0.00100000000384171
8,14,2848.75364553019,0
8,15,2692.54586395064,0.00099999998928979
8,16,2387.07814896035,0
8,17,3531.69829121159,0
8,18,1981.18245514884,0.00100000000384171
8,19,2624.28419758708,0
8,20,3241.08609667013,0
8,21,2714.33287355586,0.00099999998928979
8,22,4089.25188601594,0
8,23,2161.43060267508,0
8,24,2121.06054323873,0.00100000000384171
8,25,2348.10479097666,0
8,26,3293.33762346191,0
8,27,2745.66449256317,0.00099999998928979
8,28,3216.87582844389,0.00100000000384171
8,29,2063.31741496942,0
8,30,2979.52699950485,0.00100000000384171
9,10,1646.83113545353,0.00100000000384171
9,11,2891.79801339088,0
9,12,1949.24049124443,0.00099999998928979
9,13,2399.12463620109,0
9,14,3351.54721084306,0
9,15,2053.80026373264,0.00100000000384171
9,16,2725.62846346969,0.0199999999895226
9,17,2612.5289269598,0.00100000000384171
9,18,1935.94966741369,0.00100000000384171
9,19,2145.04067826023,0
9,20,2962.99567931071,0.00100000000384171
9,21,2291.72110875409,0.00099999998928979
9,22,2873.35462776731,0
9,23,2287.96786285197,0.00100000000384171
9,24,2734.41160692844,0.00100000000384171
9,25,1974.9633864627,0
9,26,3182.36035033133,0.00100000000384171
9,27,1713.82990030267,0
9,28,2685.45161186644,0
9,29,2607.15539821232,0.00100000000384171
9,30,2899.50846315849,0
10,11,2560.88411704086,0
10,12,2354.80682231107,0.00100000000384171
10,13,2463.27105456882,0
10,14,3691.93972177336,0
10,15,1398.6742608198,0.00100000000384171
10,16,2352.76555584481,0
10,17,3076.73618156863,0.00100000000384171
10,18,1657.33802645916,0.00100000000384171
10,19,2147.43842491338,0
10,20,3046.48375148878,0.00099999998928979
10,21,1935.50307718832,0.00100000000384171
10,22,3177.34313895993,0
10,23,2247.95832589108,0.00100000000384171
10,24,2514.46186031608,0.00099999998928979
10,25,2564.09536966489,0
10,26,2948.6418224214,0.00100000000384171
10,27,1848.6629276503,0.00100000000384171
10,28,2813.35003212804,0
10,29,2310.96321580907,0.00100000000384171
10,30,3137.23862227545,0
11,12,2874.78116010559,0
11,13,2664.74764458152,0.00100000000384171
11,14,4323.97252129524,0
11,15,2051.40717480218,0.00100000000384171
11,16,2016.0205352767,0.00100000000384171
11,17,3625.25388901174,0
11,18,2334.15185591772,0.00099999998928979
11,19,1818.78937445923,0.00100000000384171
11,20,3437.79342415314,0
11,21,2539.06890173345,0.00100000000384171
11,22,3258.46167374529,0
11,23,2267.9977684402,0.00100000000384171
11,24,2216.74617036543,0.00099999998928979
11,25,3205.30343768772,0
11,26,3173.33983836682,0.00100000000384171
11,27,2278.40970522157,0.00100000000384171
11,28,3014.7728046555,0
11,29,2748.65710616694,0.00100000000384171
11,30,2336.67468285685,0.00099999998928979
12,13,2497.54048074105,0
12,14,3269.07951438443,0.00100000000384171
12,15,2370.87122629676,0
12,16,2174.33441562267,0
12,17,2948.35057649049,0.00099999998928979
12,18,1731.56133974917,0
12,19,2040.18495918955,0.00100000000384171
12,20,2400.13496339677,0.00100000000384171
12,21,2116.52111919319,0
12,22,3421.65784219838,0.00100000000384171
12,23,2027.70679647415,0.00099999998928979
12,24,2858.35594753898,0
12,25,2766.88151812721,0.00100000000384171
12,26,2567.96077199555,0.00100000000384171
12,27,2173.94226071478,0
12,28,2720.52969605958,0.00100000000384171
12,29,2868.73505036514,0.00099999998928979
12,30,3086.5148513691,0
13,14,4250.29121906817,0.00100000000384171
13,15,2198.47651301736,0.00100000000384171
13,16,2257.30336020923,0
13,17,4153.22649904114,0.00100000000384171
13,18,2657.96383753517,0.00099999998928979
13,19,2413.79655873531,0
13,20,3724.04664103646,0.00100000000384171
13,21,2652.09976193372,0.00100000000384171
13,22,2702.93181772478,0
13,23,3059.60392983399,0.00099999998928979
13,24,3421.86147772918,0.00100000000384171
13,25,3080.22758554523,0
13,26,2924.21740131429,0.0210000000079162
13,27,2243.3417423921,0
13,28,3640.2605316727,0.00099999998928979
13,29,3493.38521270589,0.00100000000384171
13,30,2610.43452855676,0
14,15,3809.85154435867,0.00100000000384171
14,16,3812.85831001697,0.00100000000384171
14,17,3178.05264881249,0
14,18,3009.45138908042,0.00099999998928979
14,19,3554.3551987602,0.00100000000384171
14,20,3760.21787392166,0
14,21,3983.2090945298,0.00100000000384171
14,22,4119.65995315271,0.00100000000384171
14,23,3369.78472141452,0
14,24,3908.98676566433,0.00099999998928979
14,25,2699.36165948891,0.00100000000384171
14,26,4633.36642771252,0
14,27,3343.84827712042,0.00100000000384171
14,28,3900.13404239342,0.00100000000384171
14,29,3305.18798010693,0
14,30,4016.99386525131,0.00099999998928979
15,16,2098.10023361659,0.00100000000384171
15,17,3314.8812803874,0
15,18,2000.59441311896,0.00100000000384171
15,19,1919.8675061746,0.00099999998928979
15,20,3295.06385887963,0
15,21,2110.79209742205,0.00100000000384171
15,22,3345.3614523845,0
15,23,1967.53266674235,0
15,24,2128.15792680914,0.00100000000384171
15,25,2518.40535049079,0
15,26,2937.74898421262,0.00099999998928979
15,27,2191.1004671802,0.00100000000384171
15,28,3225.33876575414,0
15,29,2576.62133788235,0.00100000000384171
15,30,2979.0491891487,0.00100000000384171
16,17,3926.2661721547,0
16,18,1672.21865894777,0.00099999998928979
16,19,2016.7473081692,0
16,20,2956.99533862795,0
16,21,2064.04586951205,0.00100000000384171
16,22,3432.61057032531,0
16,23,2231.73668152656,0.00100000000384171
16,24,2550.24861480202,0.00099999998928979
16,25,3111.51053335962,0
16,26,2398.75983299354,0.00100000000384171
16,27,2294.1629754408,0.00100000000384171
16,28,3070.14690037833,0
16,29,2639.9589744595,0.00099999998928979
16,30,2447.07056934804,0
17,18,2788.46513815503,0
17,19,2782.46722300874,0.00100000000384171
17,20,2873.49134333197,0
17,21,3421.73670989081,0.00100000000384171
17,22,3487.43098951783,0.00099999998928979
17,23,2576.51237832672,0
17,24,3309.7297401979,0.00100000000384171
17,25,2817.78638617801,0.00100000000384171
17,26,4200.96943246524,0
17,27,2766.8887809766,0.00100000000384171
17,28,2508.93441911861,0
17,29,2832.80104146916,0
17,30,3857.54384195675,0.00100000000384171
18,19,1741.39826680001,0
18,20,2353.78994152021,0
18,21,1751.81846282154,0.00100000000384171
18,22,3229.90703724495,0
18,23,1591.12792914213,0.00099999998928979
18,24,2141.08845942708,0.00100000000384171
18,25,2367.87091046589,0
18,26,2685.23313700968,0
18,27,1628.44166271825,0.00100000000384171
18,28,2292.53095659966,0
18,29,1826.33647608346,0
18,30,2671.61229152767,0.00100000000384171
19,20,2936.52471401501,0
19,21,2434.49223184859,0
19,22,3004.22772257644,0.00099999998928979
19,23,1418.76750734883,0
19,24,2171.42513403954,0
19,25,2734.22890157658,0.00100000000384171
19,26,3232.20540025406,0
19,27,1879.4391982976,0
19,28,2743.47639240675,0.00099999998928979
19,29,2502.47629493045,0.0250000000087311
19,30,2372.37076510441,0.00099999998928979
20,21,2175.87095115246,0
20,22,3675.59905290735,0.00100000000384171
20,23,2441.50598120734,0.00100000000384171
20,24,3171.89182955396,0
20,25,3392.92881752651,0.00100000000384171
20,26,2413.85716172664,0.00099999998928979
20,27,2871.51697740936,0
20,28,1923.85095501201,0.00100000000384171
20,29,2661.84266988445,0.00100000000384171
20,30,3262.72477595609,0
21,22,3512.51367887737,0.00099999998928979
21,23,2227.02424040365,0.00100000000384171
21,24,2465.03408016486,0
21,25,2873.82084374395,0.00100000000384171
21,26,1613.58433164472,0.00100000000384171
21,27,2162.55152708818,0
21,28,2571.12658726385,0.00099999998928979
21,29,2460.20330164119,0.00100000000384171
21,30,2822.19279466357,0
22,23,3665.97443581279,0.00100000000384171
22,24,4090.65018795921,0.00100000000384171
22,25,3287.86941374455,0
22,26,3789.82401704896,0.00099999998928979
22,27,2524.70249837421,0.00100000000384171
22,28,3033.94759074428,0
22,29,3298.24622160107,0.00100000000384171
22,30,2643.02118760793,0
23,24,1508.43611757647,0
23,25,2568.11930349926,0.00099999998928979
23,26,3077.89013896722,0
23,27,2338.92645338894,0.00100000000384171
23,28,2575.64135268045,0.00100000000384171
23,29,2056.22314680367,0
23,30,2812.74778118078,0.00099999998928979
24,25,2570.67865880642,0.00100000000384171
24,26,3373.01097357992,0
24,27,2853.6680869738,0.00100000000384171
24,28,3235.00247027726,0
24,29,2257.13339810488,0
24,30,2738.60303408386,0.00099999998928979
25,26,3722.96221875198,0
25,27,2323.349195195,0.00100000000384171
25,28,3261.60964568608,0.00100000000384171
25,29,2602.19645045271,0
25,30,2865.0921978508,0.00100000000384171
26,27,2975.54054716255,0.00099999998928979
26,28,2986.81916306109,0
26,29,3215.73694425738,0.00100000000384171
26,30,3151.05643101214,0.00100000000384171
27,28,2246.12129908605,0
27,29,2357.477158302,0.00100000000384171
27,30,2590.71209709622,0
28,29,2145.38128807503,0.00099999998928979
28,30,3268.46033374558,0.00100000000384171
29,30,2951.4683135148,0


"After.Trace.ID","Before.Trace.ID","Difference","Runtime"
1,1,2780.19246752134,0.00100000000384171
1,2,1542.83656834138,0.00100000000384171
1,3,3309.82441431375,0
1,4,2109.86277422938,0.00100000000384171
1,5,1779.96245558497,0.00099999998928979
1,6,3201.92438143559,0
1,7,2683.19670970937,0.00100000000384171
1,8,1198.18511896449,0.00100000000384171
1,9,2797.48707717212,0
1,10,2754.09928005576,0.00100000000384171
1,11,2713.11423212625,0
1,12,2786.09843427885,0
1,13,3615.49511905724,0.00100000000384171
1,14,3017.12210725056,0
1,15,2797.06460150969,0.00100000000384171
1,16,2257.96059344806,0.00099999998928979
1,17,3331.67978730218,0
1,18,1803.17621958617,0.00100000000384171
1,19,2503.32942757215,0.00100000000384171
1,20,2890.64103504562,0
1,21,2609.15019522373,0.00100000000384171
1,22,3960.37890423902,0.00099999998928979
1,23,2071.87549820308,0
1,24,1997.05343878686,0.00100000000384171
1,25,2563.94919729846,0
1,26,3262.90578838784,0
1,27,2672.15403659511,0.00100000000384171
1,28,2935.42645750772,0
1,29,2127.0466365234,0.00099999998928979
1,30,2773.03505439837,0.00100000000384171
2,1,2382.24221925912,0
2,2,2396.85280894957,0.00100000000384171
2,3,3165.69812681222,0.00100000000384171
2,4,2603.45936695626,0
2,5,2411.26260055525,0.00099999998928979
2,6,4047.74100695671,0.00100000000384171
2,7,2041.24458458359,0
2,8,3464.57802600196,0.00100000000384171
2,9,2357.85450526746,0.00100000000384171
2,10,2368.1446017075,0
2,11,1980.22341697928,0.00099999998928979
2,12,2288.33229945411,0
2,13,2617.7223441315,0
2,14,4470.31026456422,0.00100000000384171
2,15,2415.78610690548,0
2,16,2454.52232096102,0.00099999998928979
2,17,3281.5947628217,0.00100000000384171
2,18,2277.77870335614,0
2,19,1852.07020696729,0.00100000000384171
2,20,2954.76544059598,0.00100000000384171
2,21,2308.73042272072,0
2,22,3318.24393298857,0.00099999998928979
2,23,2367.63143121022,0.00100000000384171
2,24,2754.79248180427,0
2,25,3376.55836507788,0.00100000000384171
2,26,2996.96990052043,0.00100000000384171
2,27,2182.88017703341,0
2,28,2793.13539524973,0
2,29,3244.00597118384,0.00100000000384171
2,30,2802.42200210548,0
3,1,2886.07324063516,0
3,2,2313.59104595262,0.00100000000384171
3,3,2145.37618223239,0
3,4,2091.90577963592,0
3,5,2092.58260661326,0.00100000000384171
3,6,3240.94472854371,0
3,7,2439.9640138792,0
3,8,2634.51155956195,0.00100000000384171
3,9,2116.45698677575,0.0199999999895226
3,10,2235.0059316524,0.00100000000384171
3,11,2347.06130618026,0.00100000000384171
3,12,2386.05338282746,0
3,13,2709.7047664569,0.00099999998928979
3,14,2851.06228361035,0.00100000000384171
3,15,2448.62431300348,0
3,16,2206.44364083028,0.00100000000384171
3,17,2785.21548664897,0.00100000000384171
3,18,1703.70222148686,0
3,19,2025.97982447487,0.00099999998928979
3,20,2745.14052669374,0.00100000000384171
3,21,2476.32132708768,0
3,22,2589.59826597753,0.00100000000384171
3,23,2364.10069791532,0.00100000000384171
3,24,2758.19187075199,0
3,25,2264.03528428731,0.00099999998928979
3,26,3323.26297513279,0.00100000000384171
3,27,1682.33645829568,0
3,28,2476.18548614747,0.00100000000384171
3,29,2298.17075813709,0.00100000000384171
3,30,2358.00498717834,0
4,1,3095.09609211143,0.00099999998928979
4,2,2139.06521588743,0.00100000000384171
4,3,2929.61324358672,0
4,4,2382.23135960655,0.00100000000384171
4,5,2028.89645106198,0
4,6,3589.15036011632,0
4,7,2795.44733091324,0.00100000000384171
4,8,2472.28448336756,0
4,9,2839.89911595614,0.00100000000384171
4,10,2260.68526769584,0.00100000000384171
4,11,2505.65029255956,0
4,12,2701.20072837951,0.00099999998928979
4,13,3154.47522080336,0.00100000000384171
4,14,3250.89101486293,0
4,15,2568.7486739699,0.00100000000384171
4,16,2085.63059925098,0.00100000000384171
4,17,3432.48398915478,0
4,18,1657.55199837805,0.00099999998928979
4,19,2505.72806344087,0
4,20,2616.70270085664,0
4,21,2247.16599441903,0.00100000000384171
4,22,3395.88716357924,0
4,23,2446.32026450489,0.00100000000384171
4,24,2696.31542346386,0.00099999998928979
4,25,3078.24742358722,0
4,26,2919.99668256244,0.00100000000384171
4,27,2203.66589142863,0.00100000000384171
4,28,2549.79655917276,0
4,29,2221.55276086361,0.00100000000384171
4,30,2901.6879390584,0.00099999998928979
5,1,3525.85836090617,0
5,2,3547.4954623727,0.00100000000384171
5,3,1966.20808122988,0
5,4,3181.73729301585,0
5,5,3308.60537795474,0.00099999998928979
5,6,3853.28861382992,0
5,7,3305.29884888406,0
5,8,3501.45852358046,0.00100000000384171
5,9,2865.4537601374,0
5,10,3339.82999124165,0.00100000000384171
5,11,3443.73858390852,0.00099999998928979
5,12,2981.52141862878,0
5,13,2736.7440817739,0.00100000000384171
5,14,2873.29287918172,0.00100000000384171
5,15,3257.69954809764,0
5,16,3118.6966133971,0.00100000000384171
5,17,3591.29275349263,0.00099999998928979
5,18,2969.43987328241,0
5,19,2985.61849358945,0.00100000000384171
5,20,3695.82452091777,0.00100000000384171
5,21,3408.84890741482,0
5,22,2491.420361547,0.00100000000384171
5,23,3486.4225984566,0.00099999998928979
5,24,3922.01558261425,0
5,25,2604.1534833432,0
5,26,3840.65400026747,0.00100000000384171
5,27,2697.16182702244,0
5,28,3667.74517090584,0.00100000000384171
5,29,3595.73638808075,0.00099999998928979
5,30,2625.94046448691,0
6,1,4022.9690320571,0.00100000000384171
6,2,3957.07064616266,0.00100000000384171
6,3,4087.36419593134,0.00099999998928979
6,4,3932.73456722167,0.00100000000384171
6,5,3993.43560982138,0.00100000000384171
6,6,4431.46785537913,0
6,7,3656.74191104292,0.00100000000384171
6,8,4190.38454820326,0.00099999998928979
6,9,3370.28093264744,0
6,10,3272.06534877244,0.00100000000384171
6,11,3275.63513434674,0
6,12,4259.05718448091,0
6,13,3792.15117155366,0.00100000000384171
6,14,4626.65914105799,0
6,15,3832.97919717611,0
6,16,3874.95567067442,0.00100000000384171
6,17,3943.66139337412,0
6,18,3449.95043616625,0
6,19,3463.6795133671,0.00100000000384171
6,20,4419.81468548544,0
6,21,4003.68277052763,0
6,22,2977.49231320071,0.00100000000384171
6,23,4118.69201122673,0
6,24,4283.6963399029,0.00100000000384171
6,25,3873.19758315985,0.00099999998928979
6,26,4642.75858079847,0
6,27,2518.16680024007,0.00100000000384171
6,28,3353.97125423909,0.00100000000384171
6,29,3544.85252149796,0
6,30,3516.98132396837,0.00100000000384171
7,1,11781.7204911469,0.00099999998928979
7,2,12639.4473040182,0
7,3,11062.2703523794,0.00100000000384171
7,4,12411.4797899115,0.00100000000384171
7,5,12759.8665690702,0
7,6,10755.2632773849,0.00100000000384171
7,7,11351.1967471108,0
7,8,12829.1908494821,0
7,9,11242.4259643562,0.00100000000384171
7,10,12391.0961127891,0
7,11,12581.2723558314,0.00100000000384171
7,12,11753.3091952468,0.00100000000384171
7,13,12176.0510737175,0
7,14,11387.7538663955,0.00099999998928979
7,15,12546.0054815983,0.00100000000384171
7,16,13085.4230899806,0
7,17,10474.4852725308,0.00100000000384171
7,18,12358.2401095486,0.00100000000384171
7,19,11955.4491755827,0
7,20,11815.5255765966,0.00099999998928979
7,21,12596.686149547,0.00100000000384171
7,22,10676.2372645074,0
7,23,12203.8107226585,0.00100000000384171
7,24,12674.2515120245,0
7,25,11194.7518893879,0.00099999998928979
7,26,12923.3792126592,0.00100000000384171
7,27,11637.1099573297,0
7,28,11460.2183730145,0.00100000000384171
7,29,12361.5664054907,0.00100000000384171
7,30,11812.3253178123,0
8,1,2701.86170363426,0.00099999998928979
8,2,2184.88663147848,0.00100000000384171
8,3,2900.03042048691,0
8,4,2250.4481098201,0.00100000000384171
8,5,2478.27372220509,0.00100000000384171
8,6,2746.88022129983,0
8,7,2090.40488347859,0.00099999998928979
8,8,2657.86452357035,0.00100000000384171
8,9,2553.62060726665,0
8,10,2937.76152122279,0.00100000000384171
8,11,2980.40067308206,0.00100000000384171
8,12,2556.40698883519,0
8,13,3841.91277446982,0.00099999998928979
8,14,3241.71815625096,0.00100000000384171
8,15,2941.37866243486,0
8,16,3269.70619143808,0.00100000000384171
8,17,2146.87575317262,0.00099999998928979
8,18,2297.25205068599,0
8,19,2211.17598083606,0.00100000000384171
8,20,2862.7496570385,0.00100000000384171
8,21,3074.68286209133,0
8,22,3842.26410416884,0.00100000000384171
8,23,1757.51295708849,0.00099999998928979
8,24,2142.5534942646,0
8,25,2557.60400624385,0.00100000000384171
8,26,3918.33216994084,0.0200000000040745
8,27,2779.13587752007,0.00100000000384171
8,28,2790.01670270345,0.00099999998928979
8,29,2695.94414176409,0
8,30,3175.29826520579,0.00100000000384171
9,1,2770.39198130463,0.00100000000384171
9,2,2448.72742317897,0
9,3,2155.00189037163,0.00100000000384171
9,4,2410.62660107836,0.00099999998928979
9,5,2462.92038294659,0
9,6,4067.54428382139,0.00100000000384171
9,7,2340.1806680208,0.00100000000384171
9,8,3356.97844923414,0
9,9,2610.29781663202,0.00100000000384171
9,10,2815.49620590355,0.00099999998928979
9,11,1975.96397703485,0
9,12,2231.81695920645,0.00100000000384171
9,13,2227.75795613321,0.00100000000384171
9,14,3909.80593398058,0
9,15,2406.18350444068,0.00099999998928979
9,16,2325.0046713042,0.00100000000384171
9,17,3331.85141828016,0
9,18,2399.38653982574,0.00100000000384171
9,19,1737.08163875108,0.00100000000384171
9,20,3110.14751735768,0
9,21,2626.7467095819,0.00099999998928979
9,22,2882.66179970099,0.00100000000384171
9,23,2357.17659940352,0
9,24,2794.66914333379,0.00100000000384171
9,25,2997.01515479308,0
9,26,3225.22270174029,0
9,27,2353.56641710808,0.00099999998928979
9,28,3127.75844806625,0
9,29,3253.39356141201,0.00100000000384171
9,30,2253.12659303169,0.00100000000384171
10,1,3735.16113201455,0
10,2,2198.13195000441,0.00100000000384171
10,3,2984.98740625064,0.00099999998928979
10,4,2033.87389542716,0
10,5,2556.57096712715,0.00100000000384171
10,6,4135.31025541796,0.00100000000384171
10,7,3147.02294951918,0
10,8,2666.52853063878,0.00100000000384171
10,9,3276.35395075805,0
10,10,3331.28001786254,0
10,11,2358.57127338747,0.00100000000384171
10,12,3236.60752519188,0
10,13,3565.24890815274,0.00100000000384171
10,14,3340.61898237011,0.00099999998928979
10,15,3018.50983388976,0
10,16,2724.76992438933,0.00100000000384171
10,17,3485.78104400487,0.00100000000384171
10,18,2632.0819508113,0
10,19,2159.39498873865,0.00100000000384171
10,20,3829.84080472576,0.00099999998928979
10,21,3579.51080772693,0
10,22,3810.93903494783,0.00100000000384171
10,23,2434.57658757378,0
10,24,2514.83555697124,0
10,25,3025.37311952316,0.00100000000384171
10,26,4366.60497444261,0
10,27,2925.25803024268,0.00099999998928979
10,28,3631.47564540162,0.00100000000384171
10,29,3065.19901321263,0
10,30,2781.38755437883,0.00100000000384171
11,1,2853.20841411569,0.00100000000384171
11,2,2502.46578619266,0
11,3,2519.79092852172,0.00099999998928979
11,4,2409.55100579959,0.00100000000384171
11,5,2288.32566556074,0
11,6,3243.48001892918,0.00100000000384171
11,7,2387.1482251675,0.00099999998928979
11,8,2861.75639907854,0
11,9,2402.99714639964,0.00100000000384171
11,10,3044.29794836656,0.00100000000384171
11,11,2703.66765676621,0
11,12,2518.42629070597,0
11,13,3108.16842605563,0.00099999998928979
11,14,3181.56509143134,0
11,15,2862.48913072977,0
11,16,2793.78859453947,0.00100000000384171
11,17,2709.97010485246,0
11,18,2431.69525441046,0.00100000000384171
11,19,2214.0427095475,0.00099999998928979
11,20,2751.02105576078,0.0200000000040745
11,21,2801.99067159907,0.00100000000384171
11,22,3145.94354507528,0.00100000000384171
11,23,2221.30283834893,0
11,24,2537.57874862221,0.00099999998928979
11,25,2212.2008024273,0.00100000000384171
11,26,3540.90885592143,0
11,27,2383.65034583429,0.00100000000384171
11,28,2826.40372094089,0.00100000000384171
11,29,2844.76264746917,0
11,30,2339.00469421857,0.00099999998928979
12,1,2911.544184888,0
12,2,2062.86327428636,0
12,3,2627.22776280763,0.00100000000384171
12,4,2038.90623216777,0
12,5,1710.62409260052,0
12,6,3598.16499223897,0.00100000000384171
12,7,2464.33931168639,0
12,8,2460.95892256009,0
12,9,2676.72132397095,0.00100000000384171
12,10,2488.78874549563,0
12,11,2021.14266893637,0
12,12,2808.80653355829,0.00100000000384171
12,13,3017.3719924172,0
12,14,3363.77227523736,0.00100000000384171
12,15,2146.616036143,0.00100000000384171
12,16,2280.35674754194,0
12,17,3033.94007892416,0.00099999998928979
12,18,1972.89749765897,0.00100000000384171
12,19,2115.51791156774,0
12,20,2814.39343070984,0.00100000000384171
12,21,2363.0493336129,0.00100000000384171
12,22,3250.92494587926,0
12,23,1930.49857907435,0.00099999998928979
12,24,1864.2653329928,0.00100000000384171
12,25,2349.59535848277,0
12,26,3240.41020351978,0.00100000000384171
12,27,2357.99439310545,0
12,28,2795.20402257913,0.00099999998928979
12,29,2124.49355234956,0.00100000000384171
12,30,2331.47113835922,0
13,1,3499.17063445567,0.00100000000384171
13,2,3502.88505253114,0.00100000000384171
13,3,2294.77375304971,0
13,4,3048.36802078804,0.00099999998928979
13,5,3398.04302521929,0.00100000000384171
13,6,3963.36977587391,0
13,7,2940.38259370071,0.00100000000384171
13,8,3728.44261172244,0.00100000000384171
13,9,2763.29488601572,0
13,10,2995.08894224119,0.00099999998928979
13,11,2825.85294177158,0
13,12,3471.73431311427,0
13,13,2729.92528608924,0.00100000000384171
13,14,3620.81124969589,0
13,15,2918.77818739001,0.00100000000384171
13,16,3298.8156666167,0.00099999998928979
13,17,3338.19639649517,0
13,18,3092.51105987301,0.00100000000384171
13,19,2599.93893206091,0.00100000000384171
13,20,3952.96976152726,0
13,21,3615.26876001981,0.00100000000384171
13,22,1665.37034926746,0.00099999998928979
13,23,3304.91686446403,0
13,24,3577.18911585515,0.00100000000384171
13,25,2767.69969788604,0.00100000000384171
13,26,4236.77967710617,0
13,27,2469.54209405204,0.00099999998928979
13,28,3398.53869754002,0.00100000000384171
13,29,3163.48197397928,0
13,30,2436.41924375933,0.00100000000384171
14,1,2779.42486890462,0.00100000000384171
14,2,1498.53134749895,0
14,3,3187.0833147488,0.00099999998928979
14,4,2221.81875765567,0.00100000000384171
14,5,1977.20565251622,0
14,6,3208.68371247078,0.00100000000384171
14,7,2879.836097741,0.00100000000384171
14,8,1368.7858197257,0
14,9,2992.48005483456,0.00099999998928979
14,10,2894.23329114779,0.00100000000384171
14,11,2719.33638625423,0
14,12,2542.40152203415,0.00100000000384171
14,13,3522.64889821347,0.00100000000384171
14,14,2886.48857915183,0.0199999999895226
14,15,2777.61090138063,0.00100000000384171
14,16,2111.84265593508,0
14,17,3425.33610008179,0.00100000000384171
14,18,1922.74240620991,0.00100000000384171
14,19,2546.14594326509,0
14,20,2881.16608679704,0.00099999998928979
14,21,2684.15656044606,0.00100000000384171
14,22,3970.83231085342,0
14,23,2155.60911795607,0.00100000000384171
14,24,2347.96217099304,0.00099999998928979
14,25,2866.13479162271,0
14,26,3044.1396219432,0.00100000000384171
14,27,2776.29220980837,0.00100000000384171
14,28,3005.94451340422,0
14,29,2268.39880515841,0.00100000000384171
14,30,2944.09781146412,0.00099999998928979
15,1,3038.44239833342,0
15,2,1989.02086998246,0.00100000000384171
15,3,3491.5907866479,0.00100000000384171
15,4,2363.14140976511,0
15,5,1710.74667952762,0.00100000000384171
15,6,4031.3159118853,0.00099999998928979
15,7,3021.69950779274,0
15,8,1737.51608877178,0.00100000000384171
15,9,3392.50925093411,0.00100000000384171
15,10,3082.61989607076,0
15,11,2663.03649550327,0.00100000000384171
15,12,3104.03207637451,0
15,13,3382.72287449564,0
15,14,3821.12504060347,0.00100000000384171
15,15,2738.64721787194,0
15,16,2056.33502926021,0.00100000000384171
15,17,4098.06928797133,0.00099999998928979
15,18,2294.43253860852,0
15,19,2558.7219281376,0.00100000000384171
15,20,3197.18893186313,0.00100000000384171
15,21,2642.66196788895,0
15,22,4278.26539552488,0.00100000000384171
15,23,2126.25246397453,0.00099999998928979
15,24,1956.49243478154,0
15,25,3152.7397001017,0.00100000000384171
15,26,3051.00148449321,0
15,27,3132.76818523105,0
15,28,3554.47837388917,0.00100000000384171
15,29,2468.03254947099,0
15,30,2624.44377296611,0.00099999998928979
16,1,2388.89213291108,0.00100000000384171
16,2,2161.89931164861,0
16,3,3207.47443553042,0.00100000000384171
16,4,2238.73080357344,0.00100000000384171
16,5,2303.10369142473,0
16,6,3387.30822403966,0.00099999998928979
16,7,2397.37061727304,0.00100000000384171
16,8,2716.56254347931,0
16,9,2634.22387690536,0.00100000000384171
16,10,2658.5585081776,0
16,11,3215.92854483952,0
16,12,1906.92146447164,0.00099999998928979
16,13,3435.40879384624,0
16,14,3758.80847848911,0.00100000000384171
16,15,2610.76213948291,0.00100000000384171
16,16,2688.47895525497,0
16,17,3135.78413158562,0.00099999998928979
16,18,2120.09082960426,0.00100000000384171
16,19,2381.31051532519,0
16,20,2879.98335086963,0.00100000000384171
16,21,2651.24635971465,0.00100000000384171
16,22,4321.25587685078,0
16,23,1947.23719119485,0.00099999998928979
16,24,2452.78889416725,0.00100000000384171
16,25,3199.28668471149,0
16,26,3206.07497127706,0
16,27,3093.81244566545,0.00100000000384171
16,28,3268.3787320742,0
16,29,3010.27426696752,0
16,30,3624.37727231666,0.00100000000384171
17,1,2068.04277433337,0
17,2,1933.60226838829,0
17,3,2974.14695033375,0.00100000000384171
17,4,2358.73348276451,0
17,5,1818.70641224108,0
17,6,3636.48281947578,0.00100000000384171
17,7,2091.36036598811,0
17,8,2390.08208744497,0.00099999998928979
17,9,2465.50552951037,0.00100000000384171
17,10,1910.98035519603,0
17,11,2112.3915550822,0.00100000000384171
17,12,2272.29564518623,0.00100000000384171
17,13,2464.07729217155,0
17,14,3958.60616303893,0.00099999998928979
17,15,1948.28101344891,0.00100000000384171
17,16,1673.93039731912,0
17,17,3623.08202498249,0.00100000000384171
17,18,1648.19473906614,0
17,19,2222.5996298139,0
17,20,2611.98714004861,0.00099999998928979
17,21,1718.78188361974,0
17,22,3228.39800456264,0
17,23,2153.52026932026,0.00100000000384171
17,24,2375.71064033506,0
17,25,3045.87553031938,0
17,26,2081.34999731367,0.00099999998928979
17,27,2262.31669181993,0
17,28,2467.91125414516,0
17,29,2035.44442596411,0.00100000000384171
17,30,2605.27048841167,0
18,1,2895.64810505113,0.00100000000384171
18,2,2614.72105809471,0.00099999998928979
18,3,2691.93271909417,0
18,4,2397.83425631955,0.00100000000384171
18,5,2427.17709536599,0.00100000000384171
18,6,3713.3402631267,0
18,7,2434.30849503132,0.00099999998928979
18,8,3052.75849543847,0.00100000000384171
18,9,2266.92122795472,0
18,10,2105.79955017242,0.00100000000384171
18,11,2114.84190806151,0.00100000000384171
18,12,2574.86826282828,0
18,13,2437.62956382827,0.00099999998928979
18,14,3655.51801620922,0
18,15,2432.73605833581,0
18,16,2326.21602408207,0.00100000000384171
18,17,3071.0593275656,0
18,18,1916.99253328311,0.00100000000384171
18,19,1872.35274466446,0.00099999998928979
18,20,3126.15765494859,0
18,21,2617.8863017552,0.00100000000384171
18,22,2651.41924685592,0.00100000000384171
18,23,2524.2244530579,0
18,24,2952.77525093401,0.00100000000384171
18,25,2924.50343783532,0.00099999998928979
18,26,3389.31343634967,0
18,27,1378.95015483207,0.00100000000384171
18,28,2643.51966375998,0.00100000000384171
18,29,2585.68471454039,0
18,30,2589.47580850775,0.00100000000384171
19,1,2597.08857815128,0
19,2,1645.92690373881,0.00099999998928979
19,3,3595.69365295584,0.00100000000384171
19,4,2053.08950559252,0
19,5,1501.02463592171,0.00100000000384171
19,6,3861.27091731159,0.00099999998928979
19,7,2478.47056665783,0
19,8,2207.25085514046,0.00100000000384171
19,9,2802.79499446091,0.00100000000384171
19,10,2569.11528413415,0
19,11,2628.97891845158,0.00100000000384171
19,12,2235.51874020697,0.00099999998928979
19,13,3352.04199084496,0
19,14,4076.01720789727,0.00100000000384171
19,15,2471.68129791712,0.00100000000384171
19,16,2042.03296142031,0
19,17,3733.28700106512,0.00100000000384171
19,18,1874.44654319308,0.00099999998928979
19,19,2350.55514316433,0
19,20,2780.17445369396,0.00100000000384171
19,21,2249.72224438671,0.00100000000384171
19,22,4402.55323711413,0
19,23,1761.13467533922,0.00100000000384171
19,24,1856.06977066847,0.00099999998928979
19,25,3240.26862107341,0
19,26,2839.95903811827,0.00100000000384171
19,27,2899.97577202376,0.00100000000384171
19,28,3039.00717731241,0
19,29,2600.83090888559,0.00100000000384171
19,30,3248.60492230816,0.00099999998928979
20,1,2322.06515790402,0.0200000000040745
20,2,1742.02067853895,0.00100000000384171
20,3,3209.10841942684,0
20,4,2184.39574241828,0
20,5,1438.43614007915,0.00100000000384171
20,6,3872.20399209474,0
20,7,2094.51011893814,0
20,8,2520.39823328621,0.00100000000384171
20,9,2695.58166621024,0
20,10,2342.90025599881,0
20,11,1977.67196350955,0.00100000000384171
20,12,2656.11234721255,0
20,13,2960.07094354502,0.00100000000384171
20,14,4150.32423954292,0.00100000000384171
20,15,2158.98222965316,0
20,16,1994.4345438798,0
20,17,3524.14021467162,0.00100000000384171
20,18,1927.70806620728,0
20,19,2243.47841282329,0.00100000000384171
20,20,2566.73119127857,0.00100000000384171
20,21,1675.28383277503,0
20,22,3667.58953824032,0.00099999998928979
20,23,1941.22336783908,0.00100000000384171
20,24,1641.68043573697,0
20,25,2883.71239114607,0.00100000000384171
20,26,2534.39405487518,0.00099999998928979
20,27,2644.13326374102,0
20,28,2793.05929238057,0.00100000000384171
20,29,2296.74968289578,0.00100000000384171
20,30,2386.41789859814,0
21,1,3279.0148120731,0.00100000000384171
21,2,2333.1525847983,0.00099999998928979
21,3,2967.2109954703,0
21,4,2392.79298860225,0.00100000000384171
21,5,2519.31988707062,0.00100000000384171
21,6,3175.47594127867,0
21,7,3145.20983675641,0.00100000000384171
21,8,1877.02825617531,0
21,9,3252.62558097073,0.00099999998928979
21,10,3269.79603709415,0.00100000000384171
21,11,3376.3537881172,0
21,12,2750.63525434883,0.00100000000384171
21,13,3751.33749640756,0.00100000000384171
21,14,2603.64421265959,0
21,15,3313.51305987231,0.00099999998928979
21,16,2621.02113386569,0.00100000000384171
21,17,3454.44651878003,0
21,18,2257.02064787116,0.00100000000384171
21,19,2700.8747479397,0.00100000000384171
21,20,3136.57920482681,0
21,21,3265.06907147531,0.00099999998928979
21,22,4029.41235146456,0
21,23,2490.57301031213,0
21,24,2930.00109417906,0.00100000000384171
21,25,3164.06639280838,0
21,26,3673.70533162521,0.00099999998928979
21,27,3102.64403727377,0.00100000000384171
21,28,3335.03490322304,0
21,29,2524.75891697421,0.00100000000384171
21,30,3229.88327405243,0.00100000000384171
22,1,2961.08167030971,0
22,2,1838.46083471141,0.00099999998928979
22,3,3481.5725048876,0.00100000000384171
22,4,2161.456689755,0
22,5,1699.21521485692,0.00100000000384171
22,6,3611.74933042477,0.00100000000384171
22,7,2687.05382572806,0
22,8,2013.92412556784,0.00099999998928979
22,9,2895.05309050638,0.00100000000384171
22,10,2384.50338174859,0
22,11,2309.16548251089,0.00100000000384171
22,12,3106.48878703158,0.00100000000384171
22,13,3627.82254286852,0
22,14,3662.25460186872,0.00099999998928979
22,15,2388.8836778886,0.00100000000384171
22,16,2438.43386169799,0
22,17,3312.75587040258,0.00100000000384171
22,18,1884.1393295022,0.00099999998928979
22,19,2426.38288969679,0
22,20,2946.58907926679,0.00100000000384171
22,21,2394.13420651063,0.00100000000384171
22,22,4039.45513847964,0
22,23,1879.43145109163,0.00100000000384171
22,24,1671.26471840317,0.00099999998928979
22,25,2867.19568062924,0.0200000000040745
22,26,3323.63691199193,0.00100000000384171
22,27,2601.13826336685,0
22,28,2818.20523145078,0.00100000000384171
22,29,1899.815373069,0.00099999998928979
22,30,3021.0957386203,0
23,1,2745.30969713154,0.00100000000384171
23,2,2239.32149517554,0.00100000000384171
23,3,2925.30810970431,0
23,4,1544.98483851032,0.00100000000384171
23,5,1969.41954523719,0.00099999998928979
23,6,4202.17952698141,0
23,7,2637.41927590617,0.00100000000384171
23,8,2519.73340804659,0.00100000000384171
23,9,2144.78138658009,0
23,10,1938.90235836019,0.00100000000384171
23,11,2449.79155266317,0.00099999998928979
23,12,2174.4819796431,0
23,13,2134.17262519235,0.00100000000384171
23,14,3678.13136687422,0.00100000000384171
23,15,1846.19838685122,0
23,16,1855.86934462038,0.00099999998928979
23,17,3710.43592314412,0.00100000000384171
23,18,1857.60515687282,0
23,19,1793.95111452621,0.00100000000384171
23,20,3667.56874204804,0.00100000000384171
23,21,2621.84178085527,0
23,22,3585.76205528303,0.00099999998928979
23,23,2233.40250944531,0.00100000000384171
23,24,2502.29168237522,0
23,25,2734.86086688275,0.00100000000384171
23,26,3353.08481779088,0
23,27,2271.14164699478,0
23,28,3614.70074748947,0.00099999998928979
23,29,2996.25099476862,0
23,30,2828.41265542279,0.00100000000384171
24,1,3046.59215077607,0.00100000000384171
24,2,3163.01479941046,0
24,3,3503.28338028374,0.00100000000384171
24,4,2785.04817015859,0.00099999998928979
24,5,3285.83443702634,0
24,6,4002.62976964486,0.00100000000384171
24,7,2577.55091052468,0.00100000000384171
24,8,3451.89846744125,0
24,9,2866.91176197706,0.00100000000384171
24,10,3492.73008149724,0
24,11,3548.55225221287,0
24,12,3277.74908203218,0.00100000000384171
24,13,3820.93370160163,0
24,14,4353.59308079463,0.00100000000384171
24,15,3151.64541458416,0.00099999998928979
24,16,3841.50598380929,0
24,17,3463.08599809521,0.00100000000384171
24,18,3414.45985964127,0.00100000000384171
24,19,2819.39909170384,0
24,20,4148.46509277632,0.00100000000384171
24,21,3895.25684336015,0.00099999998928979
24,22,4143.2771624781,0
24,23,2670.3330364168,0.00100000000384171
24,24,2656.6837650336,0
24,25,2945.13358391582,0
24,26,4565.44334537275,0.00100000000384171
24,27,3696.16039477187,0
24,28,4056.02573592808,0.00099999998928979
24,29,3593.15734219276,0.00100000000384171
24,30,3450.85966203171,0
25,1,2376.58219814382,0.00100000000384171
25,2,2808.8409527975,0.00100000000384171
25,3,2795.65668156332,0
25,4,2409.73970434978,0
25,5,2305.78092966795,0.00100000000384171
25,6,4289.90083569629,0
25,7,2380.80401332333,0
25,8,3292.42689749352,0.00099999998928979
25,9,2050.7600336286,0
25,10,1821.40470893269,0
25,11,2389.12425279198,0.00100000000384171
25,12,2145.51429102659,0
25,13,1232.82276153024,0
25,14,4099.14842857727,0.00099999998928979
25,15,1660.38938762912,0
25,16,2038.64260816245,0
25,17,3653.69538877641,0.00100000000384171
25,18,2148.9818233836,0.0200000000040745
25,19,2150.46906452611,0.00099999998928979
25,20,3271.06075615382,0.00100000000384171
25,21,2109.03955389795,0
25,22,2790.93189729452,0.00100000000384171
25,23,2625.07576696489,0.00100000000384171
25,24,2974.11142223804,0
25,25,2903.85667274958,0.00099999998928979
25,26,2660.31784791156,0.00100000000384171
25,27,2075.00981507295,0
25,28,3208.71930640483,0.00100000000384171
25,29,3136.01896967601,0.00100000000384171
25,30,2836.15361062734,0
26,1,2327.10534953994,0.00099999998928979
26,2,1989.0098941089,0.00100000000384171
26,3,2610.64671005495,0
26,4,1646.18677852555,0.00100000000384171
26,5,1781.52983241101,0.00099999998928979
26,6,3533.54376914417,0
26,7,2159.57041624489,0.00100000000384171
26,8,2446.2243544195,0.00100000000384171
26,9,2134.14858751656,0
26,10,2203.26718406228,0.00100000000384171
26,11,2553.57391646793,0.00099999998928979
26,12,1824.10200294103,0
26,13,2903.33034554343,0.00100000000384171
26,14,3483.87401845548,0
26,15,2011.04286563772,0
26,16,2286.26283573557,0.00100000000384171
26,17,2946.56772317146,0
26,18,1813.18418175676,0.00099999998928979
26,19,1605.3200496668,0.00100000000384171
26,20,2897.96884299459,0
26,21,2341.19838764696,0.00100000000384171
26,22,3855.3598816631,0.00100000000384171
26,23,1471.91502623886,0
26,24,2045.33394000976,0.00099999998928979
26,25,2653.59862139875,0.00100000000384171
26,26,3163.07250972593,0
26,27,2509.0335753894,0.00100000000384171
26,28,3161.44776983117,0
26,29,2785.84630176825,0
26,30,2983.03849500991,0.00100000000384171
27,1,1651.19593422396,0
27,2,2098.59218740089,0.00100000000384171
27,3,2865.96072787486,0.00100000000384171
27,4,2156.54489677257,0
27,5,1664.63167322489,0.00099999998928979
27,6,3468.95007075777,0.00100000000384171
27,7,1900.88694294541,0
27,8,2385.23268687369,0.00100000000384171
27,9,2040.58716502117,0.00100000000384171
27,10,1847.22869297572,0
27,11,2569.16771714299,0.00099999998928979
27,12,1640.2346345669,0
27,13,2332.94779321766,0
27,14,3856.36071731219,0.00100000000384171
27,15,1787.57183347535,0
27,16,1886.28164556005,0.00100000000384171
27,17,3358.25676207415,0.00099999998928979
27,18,1632.38167550151,0
27,19,1943.07809302485,0.00100000000384171
27,20,2586.29878131223,0.00100000000384171
27,21,1622.55379327788,0
27,22,3508.73169039663,0.00100000000384171
27,23,1690.32408480707,0.00099999998928979
27,24,2188.10700492626,0
27,25,2749.37175042603,0.00100000000384171
27,26,2180.11271741449,0.00100000000384171
27,27,2246.67105501998,0
27,28,2788.41275671043,0.00099999998928979
27,29,2402.617571794,0.00100000000384171
27,30,2811.32313003137,0
28,1,2291.46318624045,0.00100000000384171
28,2,2030.17779953514,0.00100000000384171
28,3,2918.80127288088,0
28,4,1674.98563168542,0.00099999998928979
28,5,1755.72077836074,0.00100000000384171
28,6,3079.23898039316,0
28,7,2164.7600544457,0.00100000000384171
28,8,1853.74717965057,0.00100000000384171
28,9,2008.75837170364,0
28,10,2137.26755589153,0.00099999998928979
28,11,2857.86928782876,0.00100000000384171
28,12,1978.17217619233,0.0200000000040745
28,13,2976.2963922344,0.00100000000384171
28,14,3093.66694720418,0
28,15,2106.86713624332,0
28,16,2354.25218036586,0.00100000000384171
28,17,2810.65744434322,0
28,18,1655.76925559313,0
28,19,1975.54871855172,0.00100000000384171
28,20,2903.18165749382,0
28,21,2522.30572945015,0
28,22,3802.25418467351,0.00100000000384171
28,23,1485.83839265428,0
28,24,1996.24010534737,0
28,25,2328.94663957286,0.00099999998928979
28,26,3257.78234787843,0
28,27,2380.72705579547,0
28,28,2948.40448935272,0.00100000000384171
28,29,2154.43189853612,0
28,30,3160.08064410589,0
29,1,2462.59744258906,0.00099999998928979
29,2,2539.70298989181,0
29,3,2302.93408214809,0.00100000000384171
29,4,2364.17438452688,0.00100000000384171
29,5,2269.15427860328,0
29,6,4002.12921312416,0.00100000000384171
29,7,2123.52300969568,0.00099999998928979
29,8,3065.90586071071,0
29,9,2314.94131578227,0.00100000000384171
29,10,2103.86198691607,0.00100000000384171
29,11,2239.14960926631,0
29,12,2481.74555995249,0.00100000000384171
29,13,1807.76502085715,0.00099999998928979
29,14,3866.63848967534,0
29,15,2020.39466601209,0.00100000000384171
29,16,2066.82449217738,0.00100000000384171
29,17,3585.40964333003,0
29,18,2186.6934155717,0.00099999998928979
29,19,2093.5167239481,0
29,20,3018.18926041879,0.00100000000384171
29,21,2169.71943088398,0.00100000000384171
29,22,2347.93266728247,0
29,23,2559.49903026321,0.00100000000384171
29,24,2732.57196829615,0.00099999998928979
29,25,2700.26666656512,0
29,26,2712.61130346155,0.00100000000384171
29,27,2279.61519462245,0.00100000000384171
29,28,3009.13247545175,0
29,29,2775.54474053295,0.00100000000384171
29,30,2015.45509375982,0.00099999998928979
30,1,1968.26678939226,0
30,2,2069.37564208895,0.00100000000384171
30,3,3671.19862617477,0
30,4,2357.00365904732,0
30,5,1793.58158355328,0.00100000000384171
30,6,3861.48301085342,0
30,7,2355.23740098694,0.00099999998928979
30,8,2468.93491063465,0.00100000000384171
30,9,2368.07108619262,0
30,10,1873.95995989433,0.00100000000384171
30,11,2480.73217050569,0.00100000000384171
30,12,2469.36557954393,0
30,13,2924.31304905449,0.00099999998928979
30,14,4301.00666293374,0.00100000000384171
30,15,2020.49945501636,0
30,16,2242.7793672385,0.00100000000384171
30,17,3684.90926489133,0.00099999998928979
30,18,1992.78743817851,0
30,19,2468.03275083052,0.00100000000384171
30,20,2993.08001322566,0.00100000000384171
30,21,1684.41234001046,0
30,22,3985.82814013096,0.00100000000384171
30,23,2203.45124778268,0.00099999998928979
30,24,2086.75301390976,0
30,25,3023.23680714416,0.00100000000384171
30,26,2441.85398729674,0.00100000000384171
30,27,2543.48292380612,0
30,28,3065.10484225714,0.00100000000384171
30,29,2495.85294961509,0.00099999998928979
30,30,3035.63796185029,0
