"Before.Trace.ID1","Before.Trace.ID2","Difference","Runtime"
1,2,1639.07652522968,0
1,3,1267.47589958046,0.00100000000020373
1,4,2266.93839953867,0.000999999996565748
1,5,1890.37835871061,0
1,6,2747.11767038756,0.00100000000020373
1,7,1237.6431437159,0.00100000000020373
1,8,1788.47242257116,0
1,9,1580.09226028073,0.00100000000020373
1,10,1332.57680828804,0
1,11,2081.680461657,0.00100000000020373
1,12,1366.91406812298,0.00100000000020373
1,13,1798.55043735718,0
1,14,1052.46987724668,0.00100000000020373
1,15,1828.93586692163,0.00100000000020373
1,16,1984.56918443458,0
1,17,2071.86355340435,0.00100000000020373
1,18,1679.26244029314,0
1,19,2284.55240775541,0.00100000000020373
1,20,1816.55480567256,0.00100000000020373
1,21,2129.2300205322,0
1,22,1401.23637930883,0.00100000000020373
1,23,2803.20250477109,0.00100000000020373
1,24,1460.03864758103,0
1,25,2468.84876839218,0.00100000000020373
1,26,1040.96568652399,0
1,27,2272.51273119522,0.00100000000020373
1,28,1512.58815420923,0.00100000000020373
1,29,1564.26449533893,0
1,30,1522.74222321267,0.00100000000020373
2,3,2332.05056010024,0.000999999996565748
2,4,1886.40638698172,0
2,5,2376.96617255205,0.00100000000020373
2,6,2455.04658968981,0
2,7,1797.75591156159,0.00100000000020373
2,8,1780.40109614396,0.00100000000020373
2,9,2413.00072475168,0
2,10,2045.2711228098,0.00100000000020373
2,11,2727.66372342139,0.00100000000020373
2,12,2145.44448088578,0
2,13,2002.90777887454,0.00100000000020373
2,14,1896.26137056575,0
2,15,2350.84005398838,0.00100000000020373
2,16,2661.88969047295,0.00100000000020373
2,17,2221.7178578169,0
2,18,2277.46571006012,0.00100000000020373
2,19,2519.22895237614,0.00100000000020373
2,20,2034.61808078176,0
2,21,1989.09076707108,0.00100000000020373
2,22,2484.85433146809,0
2,23,2399.7754163033,0.00100000000020373
2,24,1789.67369159729,0.00100000000020373
2,25,2397.66599542465,0
2,26,1695.92992581543,0.00100000000020373
2,27,2781.62614656268,0.00100000000020373
2,28,2106.13743605359,0
2,29,2184.43971094789,0.00100000000020373
2,30,2637.48479919157,0
3,4,2800.418148219,0.00100000000020373
3,5,1404.39159701202,0.000999999996565748
3,6,2680.90428008386,0
3,7,1501.09754466236,0.00100000000020373
3,8,1889.62501316284,0.00100000000020373
3,9,1570.51684761526,0
3,10,1437.54543000426,0.00100000000020373
3,11,1733.73630688204,0.00100000000020373
3,12,932.28468475542,0
3,13,1939.70925387457,0.00100000000020373
3,14,1404.48523452056,0.00100000000020373
3,15,1486.89768819306,0
3,16,1833.0983997288,0.00100000000020373
3,17,2550.4859401809,0
3,18,1992.73664461044,0.00100000000020373
3,19,2457.36018291028,0.00100000000020373
3,20,1886.02438127793,0
3,21,2543.91708494337,0.00100000000020373
3,22,1003.11085098646,0.00100000000020373
3,23,3129.39432721138,0
3,24,1733.26939338451,0.00100000000020373
3,25,2769.76407628453,0.00100000000020373
3,26,1356.92889459095,0
3,27,1977.33563032951,0.00100000000020373
3,28,1695.95667824948,0.00100000000020373
3,29,1109.98871390162,0
3,30,1122.31295010398,0.00899999999819556
4,5,2493.9911034515,0
4,6,2606.23060520126,0.00100000000020373
4,7,2238.54385648992,0
4,8,2176.1162768444,0.00100000000020373
4,9,3101.08994725052,0.00100000000020373
4,10,2750.9138253818,0
4,11,3313.6362374914,0.00100000000020373
4,12,2624.81750210568,0.00100000000020373
4,13,2771.78487077736,0
4,14,2486.57726339118,0.00100000000020373
4,15,2966.6502646854,0
4,16,3140.58545963381,0.00100000000020373
4,17,3124.70804814792,0.00100000000020373
4,18,2991.24550730818,0
4,19,2580.68355840794,0.00100000000020373
4,20,2645.39711662887,0.00100000000020373
4,21,1536.00634056783,0
4,22,2823.21769854697,0.000999999996565748
4,23,2084.33655560308,0
4,24,2397.35605919096,0.00100000000020373
4,25,1944.30698300808,0.00100000000020373
4,26,2246.93969691863,0
4,27,3218.15558070937,0.00100000000020373
4,28,2614.83470228767,0.00100000000020373
4,29,2636.6162084797,0
4,30,3027.90416498213,0.00100000000020373
5,6,2531.90560245875,0
5,7,1745.99806422692,0.00100000000020373
5,8,1389.0864887659,0.00100000000020373
5,9,2148.00307491258,0
5,10,1880.00236297068,0.00100000000020373
5,11,2317.26598501131,0.00100000000020373
5,12,1367.46798141785,0
5,13,2301.74391641708,0.00100000000020373
5,14,1867.15001589248,0
5,15,1924.11056422927,0.00100000000020373
5,16,2351.52383347441,0.00100000000020373
5,17,2651.29578213202,0
5,18,2375.23487222523,0.00100000000020373
5,19,2035.33434912863,0.00100000000020373
5,20,1918.09497802112,0
5,21,2387.27520364749,0.00100000000020373
5,22,1838.29820023574,0
5,23,2535.43215412942,0.00100000000020373
5,24,2122.08041950286,0.00100000000020373
5,25,2408.07744629288,0
5,26,1896.94618432509,0.000999999996565748
5,27,1978.06219173849,0.00100000000020373
5,28,2161.57791383209,0
5,29,1664.66388161702,0.00100000000020373
5,30,1837.57647281318,0
6,7,2835.9020345402,0.00100000000020373
6,8,2516.69435035329,0.00100000000020373
6,9,3081.23079476256,0
6,10,2923.7338968147,0.00100000000020373
6,11,2710.5779109824,0.00100000000020373
6,12,2628.50168808442,0
6,13,2518.65325090134,0.00100000000020373
6,14,2749.27978976555,0
6,15,2559.06481466224,0
6,16,2904.59402197751,0.00100000000020373
6,17,3978.39831871012,0
6,18,3670.85716806277,0.00100000000020373
6,19,3704.95337286763,0.00100000000020373
6,20,2574.32625228219,0
6,21,2271.72567188101,0.00100000000020373
6,22,2714.12411364253,0.00100000000020373
6,23,3053.99338878357,0
6,24,2768.52775404631,0.00100000000020373
6,25,2310.01417158802,0.00100000000020373
6,26,2331.70460989492,0
6,27,2931.63611669329,0.00100000000020373
6,28,3085.28353231746,0
6,29,2709.61199965114,0
6,30,2871.74292648706,0.000999999996565748
7,8,1682.27752775798,0
7,9,1644.05799748121,0.00100000000020373
7,10,1180.6233552573,0.00100000000020373
7,11,2250.4105956047,0
7,12,1542.29604046328,0.00100000000020373
7,13,1563.66512269332,0.00100000000020373
7,14,792.853558277032,0
7,15,1910.82837559302,0.00100000000020373
7,16,2231.89769411645,0.00100000000020373
7,17,2032.70032662533,0.00900000000183354
7,18,1696.28650259764,0
7,19,1754.15832716643,0.00100000000020373
7,20,1751.71964872862,0.00100000000020373
7,21,2210.33934176146,0
7,22,1635.89032287035,0.000999999996565748
7,23,2155.12533586475,0.00100000000020373
7,24,1617.46749672595,0
7,25,2745.07608266687,0.00100000000020373
7,26,1179.57989153369,0
7,27,2386.87844193861,0.00100000000020373
7,28,1212.79469892027,0.00100000000020373
7,29,1812.78564773609,0
7,30,1866.80302090502,0.00100000000020373
8,9,1807.99076537521,0.00100000000020373
8,10,1642.90667001557,0
8,11,2340.68236313519,0.00100000000020373
8,12,1617.15079045078,0
8,13,1861.25636550663,0.00100000000020373
8,14,1772.03298344882,0.00100000000020373
8,15,2172.3520915328,0
8,16,2147.68582924985,0.00100000000020373
8,17,2136.7049339909,0.00100000000020373
8,18,1793.65679871502,0
8,19,2095.06681183783,0.00100000000020373
8,20,1323.96908283718,0
8,21,2451.29193217779,0.00100000000020373
8,22,2123.31425587175,0.00100000000020373
8,23,2404.76289654748,0
8,24,1808.97918596691,0.00100000000020373
8,25,2212.30162092485,0.00100000000020373
8,26,1667.32589133642,0
8,27,1761.86323480468,0.000999999996565748
8,28,1922.45245276532,0
8,29,1709.55282705176,0.00100000000020373
8,30,2125.65358777807,0.00100000000020373
9,10,1100.66510376489,0
9,11,2003.07818281814,0.00100000000020373
9,12,1676.87357930045,0.00100000000020373
9,13,1623.32460071559,0
9,14,1475.9461545081,0.00100000000020373
9,15,1741.79068201306,0
9,16,1161.92114760397,0.00100000000020373
9,17,2133.57527533701,0.00100000000020373
9,18,1463.2292853709,0
9,19,2697.6530050572,0.00100000000020373
9,20,1239.46494069971,0.00100000000020373
9,21,3175.06760759516,0
9,22,1620.43798070986,0.00100000000020373
9,23,3390.65210286333,0
9,24,1728.15118045455,0.00100000000020373
9,25,3181.50669946515,0.00100000000020373
9,26,1552.91493110135,0
9,27,1594.25790581358,0.00100000000020373
9,28,1448.63555670281,0.00100000000020373
9,29,1752.79845785001,0
9,30,1726.90417000789,0.00100000000020373
10,11,1629.51942026782,0
10,12,1482.95622126094,0.00100000000020373
10,13,1182.94037872172,0.00100000000020373
10,14,1165.85544998429,0
10,15,1630.13230822559,0.000999999996565748
10,16,1864.25087768122,0.00100000000020373
10,17,1937.89678170675,0
10,18,1443.83220182595,0.00100000000020373
10,19,2145.05056669961,0.00100000000020373
10,20,1475.66685409611,0
10,21,2679.00609083351,0.00100000000020373
10,22,1759.67280548505,0
10,23,2786.50921784476,0
10,24,1451.12305086081,0.00100000000020373
10,25,2728.78557443139,0
10,26,1091.23664694256,0.00100000000020373
10,27,2007.48946484509,0.00100000000020373
10,28,1572.34416339243,0
10,29,1573.97279985334,0.00100000000020373
10,30,1622.13549132624,0.00100000000020373
11,12,1744.05369657691,0
11,13,1620.46173799564,0.00100000000020373
11,14,2022.08993072654,0.00100000000020373
11,15,1831.72838917519,0
11,16,2284.52208493521,0.00100000000020373
11,17,3188.65024448754,0
11,18,2622.80345673415,0
11,19,3141.24262127828,0.00100000000020373
11,20,2154.94360201254,0
11,21,2925.34730477569,0.00999999999839929
11,22,2053.43147720139,0
11,23,3475.64346447183,0.00100000000020373
11,24,1984.2136493921,0.00100000000020373
11,25,2606.20424203137,0
11,26,1648.418969455,0.00100000000020373
11,27,2277.1556948411,0
11,28,2581.67677765356,0.00100000000020373
11,29,1687.19568764131,0.00100000000020373
11,30,1661.7997822636,0
12,13,1916.25328673566,0.00100000000020373
12,14,1419.2804050318,0.00100000000020373
12,15,1802.36690169648,0
12,16,1824.25948311167,0.00100000000020373
12,17,2486.94641544216,0
12,18,2064.81620988526,0.00100000000020373
12,19,2488.81402196234,0.00100000000020373
12,20,1653.01519043758,0
12,21,2584.98672795908,0.000999999996565748
12,22,1048.99896599307,0.00100000000020373
12,23,3030.22389730266,0
12,24,1346.9489158233,0.00100000000020373
12,25,2430.7933353807,0
12,26,1443.64537979353,0.00100000000020373
12,27,1599.47057062175,0.00100000000020373
12,28,1853.92340033254,0
12,29,818.431775621581,0.00100000000020373
12,30,1459.88253720259,0.00100000000020373
13,14,1483.00828637639,0
13,15,1917.13976910919,0.00100000000020373
13,16,2172.43354845594,0
13,17,2484.99370509991,0.00100000000020373
13,18,2095.01585372881,0.00100000000020373
13,19,2670.95953480965,0
13,20,1615.31649446829,0.00100000000020373
13,21,2637.24865910845,0.00100000000020373
13,22,2128.86793234469,0
13,23,2758.23853821712,0.00100000000020373
13,24,1677.59513763696,0
13,25,2622.38280108493,0.00100000000020373
13,26,1174.63207994483,0.00100000000020373
13,27,2315.09755039899,0
13,28,1967.24319729325,0.00100000000020373
13,29,1997.34615442009,0.00100000000020373
13,30,2106.03847205419,0
14,15,1880.77987775012,0.00100000000020373
14,16,2103.01167893009,0
14,17,2145.40890828857,0.000999999996565748
14,18,1759.65598501845,0.00100000000020373
14,19,2108.84794398739,0
14,20,1739.08918244637,0.00100000000020373
14,21,2281.56748307015,0.00100000000020373
14,22,1412.9441869177,0
14,23,2492.33231874269,0.00100000000020373
14,24,1585.12740095249,0
14,25,2703.14596915293,0.00100000000020373
14,26,1069.45098696577,0.00100000000020373
14,27,2258.00627245386,0
14,28,1360.36990805845,0.00100000000020373
14,29,1776.21408262069,0.00100000000020373
14,30,1653.44226509666,0
15,16,1825.72783159398,0.00100000000020373
15,17,2598.47025260103,0
15,18,2492.04624142404,0
15,19,2676.77000814567,0.00100000000020373
15,20,1897.56505831452,0
15,21,2672.89077596493,0.00100000000020373
15,22,1976.0964204271,0.00100000000020373
15,23,3310.34069579428,0
15,24,1694.21996656682,0.00100000000020373
15,25,2834.19893587017,0.00100000000020373
15,26,1810.81395786113,0
15,27,2267.24494268069,0.00100000000020373
15,28,2257.59014797786,0.00100000000020373
15,29,1738.97352833969,0
15,30,1935.94282778702,0.000999999996565748
16,17,2715.55763275826,0
16,18,2200.75329015179,0
16,19,3233.55681090869,0.00100000000020373
16,20,1282.52188424863,0
16,21,3305.79983602465,0.00100000000020373
16,22,1729.61311791446,0.00100000000020373
16,23,3772.03202712428,0
16,24,1812.2980579497,0.00100000000020373
16,25,3156.4678011532,0.00100000000020373
16,26,2041.55655627149,0
16,27,1284.86507566345,0.00900000000183354
16,28,1949.63754563533,0
16,29,1854.16844796978,0.00100000000020373
16,30,1965.81364134706,0
17,18,1559.94278872318,0
17,19,2113.33132997585,0.00100000000020373
17,20,2187.95107591087,0
17,21,3362.95474072361,0.00100000000020373
17,22,2879.07557531231,0.00100000000020373
17,23,3242.31913863436,0
17,24,2181.04895553643,0.00100000000020373
17,25,3552.96968750717,0
17,26,2460.07246123704,0
17,27,2838.3328733652,0.00100000000020373
17,28,2262.27670212908,0
17,29,2620.83148172042,0.00100000000020373
17,30,2927.44842175575,0.00100000000020373
18,19,2232.3463172531,0
18,20,1797.76542679353,0.00100000000020373
18,21,3188.82322415801,0
18,22,2195.25694951254,0.00100000000020373
18,23,3126.29719834278,0.00100000000020373
18,24,2145.50794114603,0
18,25,3390.63792605593,0.00100000000020373
18,26,1813.11391592891,0.00100000000020373
18,27,2308.96708177046,0
18,28,1376.30896355874,0.00100000000020373
18,29,2068.6760639688,0
18,30,2091.12573596966,0
19,20,2618.32602888458,0.00100000000020373
19,21,2577.90373197274,0
19,22,2914.05532560201,0.000999999996565748
19,23,2053.33903894068,0.00100000000020373
19,24,2589.21895779312,0
19,25,3051.53333095976,0.00100000000020373
19,26,2423.73446879369,0.00100000000020373
19,27,3121.75746376456,0
19,28,2398.30093636173,0.00100000000020373
19,29,2676.84971912784,0
19,30,2625.44442892414,0
20,21,2860.85802207765,0.00100000000020373
20,22,1913.01283102566,0
20,23,2948.39550418598,0.00100000000020373
20,24,1633.1322368095,0.00100000000020373
20,25,2692.1335106323,0
20,26,1676.22815532419,0.00100000000020373
20,27,1249.40877220586,0.00100000000020373
20,28,1710.11234812616,0
20,29,1807.49241355825,0.00100000000020373
20,30,2013.36141020975,0
21,22,2714.64658850078,0
21,23,2027.56111032985,0.00100000000020373
21,24,2562.48530693129,0
21,25,1920.98469165005,0.00100000000020373
21,26,2057.9631543862,0.00100000000020373
21,27,3404.43104992076,0
21,28,2756.93516045146,0.00100000000020373
21,29,2655.16327758476,0.00100000000020373
21,30,2660.18413961947,0
22,23,3315.51787418921,0.000999999996565748
22,24,1788.61495444465,0
22,25,2886.1217384427,0
22,26,1517.72078651735,0.00100000000020373
22,27,1861.28548949481,0
22,28,1613.61829140803,0.00100000000020373
22,29,1350.94508269563,0.00100000000020373
22,30,1437.32944271108,0
23,24,3083.84287015335,0.00100000000020373
23,25,2772.77279876282,0.00100000000020373
23,26,2504.95394666647,0
23,27,3629.66381191201,0.00100000000020373
23,28,2740.77033030741,0.00100000000020373
23,29,3259.26329771465,0
23,30,3169.01746852316,0.00100000000020373
24,25,2278.56883168514,0.00100000000020373
24,26,1555.16558968651,0
24,27,2002.64631706765,0.00100000000020373
24,28,2115.85622896984,0.00100000000020373
24,29,1326.72583614909,0
24,30,2176.54548858924,0.00100000000020373
25,26,2312.85900068431,0
25,27,2923.62675980638,0
25,28,3304.7327396785,0.00100000000020373
25,29,2436.61634950386,0
25,30,2810.17938907583,0.00100000000020373
26,27,2270.46001650902,0.00899999999819556
26,28,1488.39211301684,0.00100000000020373
26,29,1533.42446008602,0
26,30,1508.88501245096,0
27,28,2258.49002993349,0.00100000000020373
27,29,1774.50954417913,0
27,30,2022.01378077952,0.00100000000020373
28,29,1989.2878199969,0.00100000000020373
28,30,1838.50620797326,0
29,30,1595.1588692463,0.00100000000020373


"After.Trace.ID","Before.Trace.ID","Difference","Runtime"
1,1,2145.56878844715,0
1,2,1869.10627874862,0.00100000000020373
1,3,2655.6525713831,0.00100000000020373
1,4,2294.82242473712,0
1,5,2451.67969795418,0.00100000000020373
1,6,3538.09895057489,0.00100000000020373
1,7,1702.08993535047,0
1,8,1850.48320251346,0.00100000000020373
1,9,2343.43359305176,0
1,10,2036.00059841699,0.00100000000020373
1,11,3331.24804191178,0.00100000000020373
1,12,2568.99456097142,0
1,13,2329.95085132019,0.000999999996565748
1,14,2028.95605475511,0.00100000000020373
1,15,2651.14763467323,0
1,16,2871.61576585699,0.00100000000020373
1,17,1461.17940460949,0
1,18,1828.1585487147,0
1,19,1773.53339046601,0.00100000000020373
1,20,2196.37360078478,0
1,21,2741.17540847286,0.00100000000020373
1,22,2871.4660616497,0.00100000000020373
1,23,2358.67248612238,0
1,24,2162.70876677814,0.00100000000020373
1,25,3145.03013643898,0.00100000000020373
1,26,2236.73404787938,0
1,27,2969.92262587195,0.00100000000020373
1,28,2028.11037462142,0.00100000000020373
1,29,2653.05065992882,0
1,30,3056.29206775052,0.00100000000020373
2,1,2747.31676430967,0
2,2,2919.56313503998,0
2,3,2612.38458348551,0.00100000000020373
2,4,3503.70660338702,0
2,5,2527.49810641202,0.00100000000020373
2,6,4098.45595056309,0.00100000000020373
2,7,2329.63676461075,0
2,8,2616.52385648204,0.00100000000020373
2,9,2929.97228324039,0.00100000000020373
2,10,2341.5946292236,0
2,11,3255.71262581788,0.000999999996565748
2,12,2770.26215155857,0.00100000000020373
2,13,2785.87102837436,0
2,14,2621.64528467771,0.00100000000020373
2,15,2687.97821952275,0.00900000000183354
2,16,3586.01548305119,0.00100000000020373
2,17,2110.38878257328,0
2,18,2472.05089383542,0.00100000000020373
2,19,2026.15156344089,0.00100000000020373
2,20,3053.05702760092,0
2,21,3397.62954327085,0.00100000000020373
2,22,3224.55130224165,0.00100000000020373
2,23,3164.75780358869,0
2,24,2766.76278624147,0.00100000000020373
2,25,3764.00636414417,0
2,26,2749.30608989973,0.000999999996565748
2,27,3549.01774507397,0.00100000000020373
2,28,2903.2383495248,0
2,29,2799.46769119649,0.00100000000020373
2,30,3196.0642957546,0.00100000000020373
3,1,1493.50190735495,0
3,2,1891.44719789188,0.00100000000020373
3,3,1707.06052335248,0
3,4,2677.23348963199,0.00100000000020373
3,5,2011.04591223863,0.00100000000020373
3,6,2919.14753179722,0
3,7,1175.47697237048,0.00100000000020373
3,8,1673.41626271592,0.00100000000020373
3,9,1087.79179907631,0
3,10,1092.02651786423,0.00100000000020373
3,11,2280.07775243608,0
3,12,1774.06567852283,0
3,13,1452.47470242706,0.00100000000020373
3,14,1277.49824606235,0
3,15,1533.37336974725,0.00100000000020373
3,16,1705.11386356881,0.00100000000020373
3,17,1705.71889067957,0
3,18,1594.74063393693,0.00100000000020373
3,19,2216.1021146203,0
3,20,1354.44032340601,0
3,21,2775.96794457192,0.00100000000020373
3,22,1907.40069073182,0
3,23,2822.94564736504,0.00100000000020373
3,24,1494.94398036718,0.000999999996565748
3,25,3024.29642431119,0
3,26,1467.71173563024,0.00100000000020373
3,27,2096.67018362637,0
3,28,1416.41846014683,0
3,29,1903.2746287982,0.00100000000020373
3,30,2133.45685367213,0
4,1,2580.67230704332,0.00100000000020373
4,2,2342.61406677243,0.00100000000020373
4,3,3037.92625732188,0
4,4,2413.41673863181,0.00100000000020373
4,5,2664.03761962197,0.00100000000020373
4,6,3386.4671632117,0
4,7,2530.68539259397,0.00100000000020373
4,8,2389.62669180351,0
4,9,2934.39282497015,0.00100000000020373
4,10,2608.73117125046,0.00100000000020373
4,11,3410.86686815763,0
4,12,2932.53169589146,0.00100000000020373
4,13,2825.59391379988,0.00100000000020373
4,14,2704.34653931294,0
4,15,2508.24110896701,0.00100000000020373
4,16,3020.68075306806,0
4,17,2338.27169200151,0
4,18,2981.99945371897,0.00100000000020373
4,19,2245.82030795676,0
4,20,2573.11582664015,0
4,21,2553.95867832048,0.00100000000020373
4,22,3356.60375687732,0
4,23,2867.60104883616,0.000999999996565748
4,24,2278.71801578642,0.00100000000020373
4,25,2606.99186024647,0
4,26,2812.67194343987,0.00100000000020373
4,27,3148.14111141069,0.00100000000020373
4,28,3133.59954303972,0
4,29,2992.946936774,0.00100000000020373
4,30,3340.00834299271,0.00100000000020373
5,1,1839.45948646201,0
5,2,1727.55725556322,0.00100000000020373
5,3,2079.54422671043,0
5,4,1778.24959611199,0
5,5,1709.04670462987,0.00100000000020373
5,6,2456.17727436407,0
5,7,1315.00505528026,0.00100000000020373
5,8,1324.65747001085,0.00100000000020373
5,9,1944.03190854528,0
5,10,1770.62477054157,0.00899999999819556
5,11,2682.55071006805,0
5,12,1874.64155521339,0.00100000000020373
5,13,1908.00160576045,0.00100000000020373
5,14,1551.03316941024,0
5,15,2205.97973221122,0.00100000000020373
5,16,2188.43325601681,0
5,17,2359.33994415911,0.00100000000020373
5,18,2100.60324301407,0.00100000000020373
5,19,1976.11364977856,0
5,20,1499.13616977075,0.00100000000020373
5,21,2153.66922133294,0.00100000000020373
5,22,2100.04947184089,0
5,23,1890.74100408684,0.00100000000020373
5,24,1870.82652990609,0
5,25,2472.81194988391,0.00100000000020373
5,26,1643.29802079877,0.00100000000020373
5,27,2159.07406354649,0
5,28,1589.71327135208,0.00100000000020373
5,29,2088.8259546606,0.00100000000020373
5,30,2321.45038129866,0
6,1,3869.7921802079,0.00100000000020373
6,2,2927.79576089569,0
6,3,4295.01651899011,0.00100000000020373
6,4,3356.17156176562,0.000999999996565748
6,5,3690.4733486852,0
6,6,4456.87838672315,0.00100000000020373
6,7,3585.85613991408,0.00100000000020373
6,8,3197.03498410568,0
6,9,4386.68218286919,0.00100000000020373
6,10,3885.44873670684,0
6,11,4877.63466668488,0.00100000000020373
6,12,4173.75783571218,0.00100000000020373
6,13,4032.30126442428,0
6,14,3903.55084370016,0.00100000000020373
6,15,4383.99088247924,0.00100000000020373
6,16,4870.33145847981,0
6,17,3193.79165410154,0.00100000000020373
6,18,3586.07762424985,0
6,19,3033.12791065834,0.00100000000020373
6,20,3977.72550669849,0.00100000000020373
6,21,3661.52579216873,0
6,22,4645.6117006553,0.00100000000020373
6,23,2931.59400805748,0.00100000000020373
6,24,4061.54999342561,0
6,25,4096.45814107713,0.00100000000020373
6,26,3870.38806632033,0
6,27,4651.89386962277,0
6,28,3855.53989189102,0.00100000000020373
6,29,4200.5804219052,0
6,30,4599.86396732851,0.00100000000020373
7,1,2023.12327143597,0.00100000000020373
7,2,1980.4205094116,0
7,3,1928.19069218965,0.000999999996565748
7,4,2230.34865216206,0.00100000000020373
7,5,1649.16006652029,0
7,6,2590.15573505506,0.00100000000020373
7,7,1897.88341934259,0
7,8,1366.20421500169,0.00100000000020373
7,9,1958.16523439512,0.00100000000020373
7,10,2000.77148508958,0
7,11,2816.66174016511,0.00100000000020373
7,12,1937.38196402119,0.00100000000020373
7,13,2294.11688234669,0
7,14,2151.47032538168,0.00100000000020373
7,15,2070.61649953509,0.00100000000020373
7,16,2031.09203418906,0
7,17,2366.23831394169,0.00100000000020373
7,18,2001.88494151097,0.00100000000020373
7,19,2346.96944958434,0
7,20,1633.21714801333,0.00100000000020373
7,21,2618.92776515411,0
7,22,2223.73054823164,0
7,23,2721.20970301395,0.00100000000020373
7,24,2126.6088884341,0
7,25,2833.44425605768,0.00100000000020373
7,26,1940.23809072775,0.00100000000020373
7,27,2105.77049511476,0
7,28,1725.92596660451,0.00100000000020373
7,29,1880.94675246566,0.00100000000020373
7,30,2332.782725039,0
8,1,3702.68599054892,0.000999999996565748
8,2,2909.57309559368,0.00100000000020373
8,3,3988.36172841707,0
8,4,2175.95155977074,0.00100000000020373
8,5,3241.43326350467,0.00900000000183354
8,6,2893.13751328164,0.00100000000020373
8,7,3314.26126697522,0
8,8,2960.18461559492,0.00100000000020373
8,9,4134.31245880259,0.00100000000020373
8,10,3838.78973650289,0
8,11,4249.8465523141,0.00100000000020373
8,12,3768.38906194303,0
8,13,3570.37600902244,0
8,14,3559.57524222723,0.00100000000020373
8,15,3765.07734872742,0
8,16,4058.0863818841,0.000999999996565748
8,17,4044.80295892034,0.00100000000020373
8,18,4209.4372978336,0
8,19,3280.29263772713,0.00100000000020373
8,20,3338.21987027501,0
8,21,2537.14089530991,0
8,22,4091.00559064533,0.00100000000020373
8,23,2165.17006454715,0
8,24,3542.84223586634,0.00100000000020373
8,25,2805.74908016519,0.00100000000020373
8,26,3505.08474204206,0
8,27,3963.57315568131,0.00100000000020373
8,28,3777.05470044512,0
8,29,3908.43674781089,0
8,30,4159.41463173495,0.00100000000020373
9,1,1401.997174551,0
9,2,1516.95284712003,0.00100000000020373
9,3,1833.40258795408,0.00100000000020373
9,4,1669.98236548566,0
9,5,1674.9965216296,0.00100000000020373
9,6,2634.91177959943,0.00100000000020373
9,7,1334.51225471897,0
9,8,1197.36734125795,0.00100000000020373
9,9,1883.34954256575,0
9,10,1515.58818551384,0.00100000000020373
9,11,2423.93844053017,0.00100000000020373
9,12,1516.08307895059,0
9,13,1858.75863155693,0.00100000000020373
9,14,1478.55585506607,0.000999999996565748
9,15,2046.51747607094,0
9,16,2205.65148615145,0.00100000000020373
9,17,2026.31067780393,0
9,18,1887.29848510214,0.00100000000020373
9,19,1963.93092676424,0.00100000000020373
9,20,1650.78464141635,0
9,21,2033.6913675573,0.00100000000020373
9,22,1935.58711080567,0.00100000000020373
9,23,2321.62870750456,0
9,24,1283.8334358587,0.00100000000020373
9,25,2034.72660182293,0
9,26,1439.58801148908,0.00100000000020373
9,27,2150.89080149297,0.00100000000020373
9,28,1821.31314172898,0
9,29,1590.29201578683,0.00100000000020373
9,30,2222.21110273181,0.00100000000020373
10,1,2780.04397594274,0
10,2,2105.72844237789,0.00100000000020373
10,3,3005.4329602517,0
10,4,2431.54595338935,0
10,5,2575.9336461968,0.00100000000020373
10,6,2859.9520645064,0
10,7,2556.81707874555,0.00100000000020373
10,8,1888.75665355129,0.00100000000020373
10,9,2825.13531296101,0
10,10,2456.0588036399,0.00100000000020373
10,11,3241.95595424731,0.00100000000020373
10,12,2989.95814026706,0
10,13,2433.93991451238,0.000999999996565748
10,14,2839.39018423777,0.00100000000020373
10,15,2754.65161421202,0
10,16,3140.12316858177,0.00100000000020373
10,17,2643.90382731465,0
10,18,2607.34875622064,0
10,19,2651.55454858719,0.00100000000020373
10,20,2401.37266242815,0
10,21,2761.81759524521,0.00100000000020373
10,22,3403.05606213318,0.00100000000020373
10,23,2575.63959749422,0
10,24,2715.66864564907,0.00100000000020373
10,25,2892.36315302511,0.00100000000020373
10,26,2442.93626963489,0
10,27,3156.88691876591,0.00100000000020373
10,28,2766.35612983275,0.00100000000020373
10,29,2858.83742318125,0
10,30,3307.97944994543,0.00899999999819556
11,1,2198.74129876913,0.00100000000020373
11,2,2086.40354617135,0.00100000000020373
11,3,2045.9691847273,0
11,4,2719.41270113388,0.00100000000020373
11,5,1904.14762763878,0.00100000000020373
11,6,2503.81582791865,0
11,7,2003.75627689511,0.00100000000020373
11,8,1530.9523425923,0.00100000000020373
11,9,1691.34074254194,0
11,10,1805.11254307467,0.00100000000020373
11,11,2435.86772212564,0
11,12,1749.94495310869,0
11,13,1891.46284771499,0.00100000000020373
11,14,2055.18466596842,0
11,15,1811.78335753833,0.00100000000020373
11,16,1659.46710863175,0.00100000000020373
11,17,2412.74208483802,0
11,18,2313.85827485915,0.00100000000020373
11,19,2817.27624239133,0
11,20,1242.52390773458,0
11,21,3007.62597650576,0.00100000000020373
11,22,2158.1830017206,0
11,23,3110.97183837024,0.00100000000020373
11,24,1611.72648544801,0.000999999996565748
11,25,2822.42344902069,0
11,26,2010.49502378674,0.00100000000020373
11,27,1586.9181476805,0
11,28,2103.86723486188,0
11,29,1770.60626539911,0.00100000000020373
11,30,2517.36690659609,0
12,1,1487.40031104553,0.00100000000020373
12,2,1935.50679830212,0.00100000000020373
12,3,1442.54340422218,0
12,4,2357.23239857983,0.00100000000020373
12,5,1526.69754993756,0
12,6,2102.7439559653,0
12,7,1410.27595654501,0.00100000000020373
12,8,1274.02576189594,0
12,9,1270.68941250687,0.00100000000020373
12,10,1311.30509527788,0.00100000000020373
12,11,1945.54363819465,0
12,12,1354.65867377548,0.00100000000020373
12,13,1475.03096263815,0
12,14,1348.38275550906,0
12,15,1726.24386692144,0.00100000000020373
12,16,1526.86782406506,0
12,17,2545.65134751717,0.00100000000020373
12,18,1945.12599093459,0.00100000000020373
12,19,2536.41248285582,0
12,20,1127.79418740941,0.00100000000020373
12,21,2402.95430569065,0
12,22,1431.07696708407,0
12,23,2642.63857194214,0.000999999996565748
12,24,1653.2677705438,0
12,25,2445.03545201217,0.00100000000020373
12,26,1151.5109166918,0.00100000000020373
12,27,1532.86902959206,0
12,28,1460.01353614441,0.00100000000020373
12,29,1534.08368643755,0.00100000000020373
12,30,1646.03390681517,0
13,1,1471.84038918987,0.00100000000020373
13,2,1976.86244196801,0
13,3,1254.3595449524,0
13,4,2417.91936588794,0.00100000000020373
13,5,1338.59558177552,0
13,6,2680.44868374409,0.00100000000020373
13,7,1299.64335398855,0.00100000000020373
13,8,1618.28238924556,0
13,9,1931.37214441986,0.00100000000020373
13,10,1354.90190700912,0.00100000000020373
13,11,2023.03977415771,0
13,12,1505.20814291148,0.00100000000020373
13,13,1725.4205878072,0.00100000000020373
13,14,1521.38337946414,0
13,15,1604.71963681174,0.00100000000020373
13,16,2407.74823533962,0
13,17,2224.61828379174,0
13,18,1963.7935502756,0.00100000000020373
13,19,1902.03888678762,0
13,20,2031.81295115458,0
13,21,2195.01625071711,0.000999999996565748
13,22,1879.2828903423,0
13,23,2497.61451570153,0.00100000000020373
13,24,1764.01456656486,0.00100000000020373
13,25,2549.99654679174,0.0689999999995052
13,26,1365.97515796505,0
13,27,2463.65749260337,0.00100000000020373
13,28,1863.57727644834,0.00100000000020373
13,29,1526.66562281128,0
13,30,1860.50149462551,0.00100000000020373
14,1,1625.25826021459,0
14,2,1799.97435238287,0.00100000000020373
14,3,1819.42915653618,0.00100000000020373
14,4,2174.58471550947,0
14,5,1607.18197277857,0.00100000000020373
14,6,2790.55240689691,0.00100000000020373
14,7,1237.28969215328,0
14,8,1266.32532989401,0.00100000000020373
14,9,1628.13735483949,0
14,10,1627.78892202758,0.00100000000020373
14,11,2738.04234338384,0.00100000000020373
14,12,1657.46493425894,0
14,13,1956.42744718038,0.00100000000020373
14,14,1408.50000269163,0.00100000000020373
14,15,2113.07115858055,0
14,16,2024.99177836651,0.00100000000020373
14,17,1951.79609124282,0
14,18,1713.99128618156,0.00100000000020373
14,19,2025.94058289823,0.00100000000020373
14,20,1486.93428959123,0
14,21,2494.25383180668,0.00100000000020373
14,22,1826.16499085842,0
14,23,2450.61209350939,0
14,24,1714.22565795894,0.00100000000020373
14,25,2750.07975877782,0
14,26,1688.56056796477,0.00100000000020373
14,27,1994.94330064623,0.00100000000020373
14,28,1389.29162692281,0
14,29,1848.0440266426,0.00100000000020373
14,30,2267.94294765311,0
15,1,1592.08181880955,0
15,2,1616.20368928492,0.00100000000020373
15,3,1905.42906606051,0
15,4,2305.35560306411,0.00100000000020373
15,5,2071.93460925535,0.00100000000020373
15,6,2650.83208129134,0
15,7,1455.75500840342,0.00100000000020373
15,8,1445.74733054154,0
15,9,1511.96095620059,0
15,10,1089.94603357115,0.00100000000020373
15,11,1949.20075901327,0
15,12,1756.12267864004,0.00100000000020373
15,13,1200.23488213729,0.00100000000020373
15,14,1559.89961623425,0
15,15,1710.11903872199,0.00100000000020373
15,16,1986.77449482838,0.00100000000020373
15,17,1987.27890449802,0
15,18,1772.75639169998,0.00100000000020373
15,19,2324.46769993057,0
15,20,1433.6489610367,0.00100000000020373
15,21,2474.24801606823,0.000999999996565748
15,22,2132.19677104672,0
15,23,2652.44548402714,0.00100000000020373
15,24,1259.40655833401,0.00100000000020373
15,25,2433.50886802465,0
15,26,1274.09807748862,0.00100000000020373
15,27,2169.23579077873,0
15,28,1804.65237302736,0
15,29,1685.93471764995,0.00100000000020373
15,30,2215.97900962442,0
16,1,1649.63213920785,0.00100000000020373
16,2,2005.67166140517,0.00100000000020373
16,3,1838.15599083788,0
16,4,2205.63205308334,0.00100000000020373
16,5,2167.5477312655,0.00100000000020373
16,6,2240.33433842642,0
16,7,1761.82154206237,0.00100000000020373
16,8,2065.97839769043,0.00100000000020373
16,9,1905.59448950524,0
16,10,2092.20234216446,0
16,11,2573.02698578268,0.00100000000020373
16,12,1734.32928274813,0
16,13,2155.29182442135,0.00100000000020373
16,14,1639.06822052401,0.00100000000020373
16,15,2046.63756848498,0
16,16,1698.3939405906,0.00100000000020373
16,17,2929.91671401305,0.00100000000020373
16,18,2492.33575637178,0
16,19,2996.00338922708,0.000999999996565748
16,20,1747.66283562869,0.00100000000020373
16,21,2329.52555489027,0
16,22,1480.24367976866,0.00100000000020373
16,23,2923.09905817279,0.00100000000020373
16,24,1716.91592408674,0
16,25,2621.43583264378,0.00100000000020373
16,26,1620.97254599667,0.00100000000020373
16,27,2114.73599164805,0
16,28,1699.63990944581,0.00100000000020373
16,29,1876.64881564205,0.00100000000020373
16,30,2105.36087719609,0
17,1,3499.33704415704,0.00100000000020373
17,2,3490.43792380835,0.00100000000020373
17,3,3778.64483631648,0
17,4,4327.81084104809,0.00100000000020373
17,5,3977.13370491174,0.00100000000020373
17,6,4831.53593458083,0
17,7,3221.43025398069,0.00100000000020373
17,8,3484.27880447062,0.00100000000020373
17,9,3302.52110369632,0
17,10,2761.64092564873,0.00100000000020373
17,11,3575.51727054053,0.00100000000020373
17,12,3917.23674440811,0
17,13,2915.6185784506,0.00100000000020373
17,14,3379.60733081785,0.00100000000020373
17,15,3373.63669709348,0
17,16,4047.24101406708,0.000999999996565748
17,17,2552.96267077421,0.00100000000020373
17,18,2913.49369452406,0
17,19,3157.89812379352,0.00100000000020373
17,20,3501.26570070356,0.00100000000020373
17,21,4238.71317194454,0
17,22,4293.16966727129,0.00400000000081491
17,23,3956.84150260305,0.00100000000020373
17,24,3387.26026489404,0.00100000000020373
17,25,4436.99579725226,0
17,26,3317.32328716818,0.00100000000020373
17,27,4266.73914343534,0.00100000000020373
17,28,3638.15964777287,0
17,29,3844.02482583491,0.00100000000020373
17,30,3975.81177650151,0
18,1,1615.42626377143,0
18,2,1780.82145664431,0.00100000000020373
18,3,1822.85620988465,0
18,4,2377.00170858503,0.00100000000020373
18,5,1714.01019578342,0.00100000000020373
18,6,2943.78146558491,0
18,7,1454.33390251775,0.00100000000020373
18,8,1097.63250004448,0
18,9,1610.50146389027,0
18,10,1391.04556875712,0.00100000000020373
18,11,2564.13934394709,0
18,12,1723.18088135749,0.00100000000020373
18,13,1832.7601719835,0.00100000000020373
18,14,1620.01986193846,0
18,15,2159.01374933763,0.00100000000020373
18,16,2184.67010006828,0
18,17,1760.14132787054,0
18,18,1362.59240277286,0.00100000000020373
18,19,2034.22499967911,0
18,20,1598.13015547296,0.00100000000020373
18,21,2685.89082398414,0.00100000000020373
18,22,2076.97223822869,0
18,23,2567.351431531,0.00100000000020373
18,24,1770.77655898122,0
18,25,2773.87262479594,0
18,26,1544.74948990513,0.00100000000020373
18,27,2127.37194986497,0
18,28,1558.47679666265,0.00100000000020373
18,29,1760.29580218015,0.00100000000020373
18,30,2222.91818920782,0
19,1,2934.64319408286,0.00100000000020373
19,2,2510.40638887529,0
19,3,3258.4568531902,0
19,4,2602.57049211912,0.00100000000020373
19,5,2809.94397758427,0
19,6,3299.42430968102,0.00100000000020373
19,7,2637.77091097551,0.000999999996565748
19,8,2757.96706276197,0
19,9,3431.90553601686,0.00100000000020373
19,10,2914.21640432358,0
19,11,3531.43057039324,0
19,12,3163.74943257695,0.00100000000020373
19,13,2944.14153251005,0
19,14,2844.73259508103,0.00100000000020373
19,15,2665.4034864839,0.00100000000020373
19,16,3609.03259800984,0
19,17,2818.35236150883,0.00100000000020373
19,18,3536.49660714711,0
19,19,2417.36130757456,0
19,20,3057.7582796082,0.00100000000020373
19,21,2504.61558520696,0
19,22,3631.14016479701,0.00100000000020373
19,23,2681.38860487161,0.00100000000020373
19,24,2592.49499837737,0
19,25,2793.15466470615,0.00100000000020373
19,26,3034.06339194932,0.00100000000020373
19,27,3679.24589214107,0
19,28,3492.89933456514,0.00100000000020373
19,29,3287.78316173819,0.00100000000020373
19,30,3685.30511461701,0
20,1,1489.11732492477,0.00100000000020373
20,2,1395.0390766393,0.00100000000020373
20,3,1851.07417052047,0
20,4,2148.2427713995,0.000999999996565748
20,5,1993.38853273601,0
20,6,2821.12010822138,0
20,7,1189.84860080393,0.00100000000020373
20,8,1364.6111307016,0
20,9,1563.19775560874,0.00100000000020373
20,10,1255.73353622355,0.00100000000020373
20,11,2393.04243993118,0
20,12,1781.05323518977,0.00100000000020373
20,13,1475.92136352836,0.00100000000020373
20,14,1458.09764282889,0
20,15,1903.89200837762,0.00100000000020373
20,16,2035.37786050302,0.00100000000020373
20,17,1640.37613593296,0
20,18,1436.58615001242,0.00100000000020373
20,19,2018.16470155947,0
20,20,1442.12469373321,0.00100000000020373
20,21,2427.96416455998,0.00100000000020373
20,22,2098.8735548452,0
20,23,2436.60934554577,0.00100000000020373
20,24,1423.19914818759,0.00100000000020373
20,25,2695.70361244643,0
20,26,1368.5905280755,0.00100000000020373
20,27,2247.98388973214,0.00100000000020373
20,28,1415.09199515299,0
20,29,1769.58164773533,0.00100000000020373
20,30,2248.77791872444,0
21,1,3496.89780942595,0.00100000000020373
21,2,2833.9695385116,0.000999999996565748
21,3,4038.87162970167,0
21,4,3038.57091804833,0.00100000000020373
21,5,3644.01351044923,0.00100000000020373
21,6,4116.89713805501,0
21,7,3395.12937384802,0.00100000000020373
21,8,3319.5232753869,0.00100000000020373
21,9,4417.06860517034,0
21,10,3814.41511598396,0.00100000000020373
21,11,4610.50052270318,0
21,12,4031.26023587592,0
21,13,3883.74531350893,0.00100000000020373
21,14,3598.6381625316,0
21,15,4320.19724268837,0.00100000000020373
21,16,4944.69572936536,0.00100000000020373
21,17,3535.78668801795,0
21,18,3647.82617170124,0.00400000000081491
21,19,2980.0661533861,0.00100000000020373
21,20,4157.48841998029,0.00100000000020373
21,21,2905.81827484785,0
21,22,4360.22394429705,0.00100000000020373
21,23,2606.78513084767,0.00100000000020373
21,24,4034.128790565,0
21,25,3680.86225936813,0.000999999996565748
21,26,3485.29368481328,0
21,27,4813.93941452837,0.00100000000020373
21,28,3787.10179653497,0.00100000000020373
21,29,4097.61580306429,0
21,30,4230.04692392557,0.00100000000020373
22,1,2036.98441515172,0.00100000000020373
22,2,1965.91385363436,0
22,3,1972.9662938509,0.00100000000020373
22,4,2275.27741711131,0
22,5,1568.16758908923,0.00100000000020373
22,6,2441.68052879536,0.00100000000020373
22,7,1653.31187026204,0
22,8,1379.5270129135,0.00100000000020373
22,9,1874.49995594178,0.00100000000020373
22,10,1790.62799466767,0
22,11,2504.93487084274,0.00100000000020373
22,12,1689.99918263482,0
22,13,1879.12457230586,0.00100000000020373
22,14,1808.37106898165,0.00100000000020373
22,15,1817.77554325414,0
22,16,1967.28766948522,0.00100000000020373
22,17,2316.0824738116,0.00100000000020373
22,18,2342.5529735465,0
22,19,2369.8449289519,0.00100000000020373
22,20,1375.03115427054,0
22,21,2588.45483870687,0.00100000000020373
22,22,2075.71911873516,0.00100000000020373
22,23,2594.08784371018,0
22,24,1582.74099052055,0.000999999996565748
22,25,2546.19555505397,0.00100000000020373
22,26,1918.09188190787,0
22,27,1847.19589503307,0.00100000000020373
22,28,2023.18969710068,0
22,29,1839.45991613189,0.00100000000020373
22,30,2497.26955789204,0.00100000000020373
23,1,3396.92187271556,0
23,2,2939.55429849848,0.00100000000020373
23,3,3434.49790145087,0.00100000000020373
23,4,2704.50017487432,0
23,5,2933.03599396124,0.00100000000020373
23,6,1822.28826084636,0
23,7,3108.6782254913,0
23,8,3035.96585232277,0.00100000000020373
23,9,3878.99477104376,0
23,10,3597.10665242918,0.00100000000020373
23,11,3655.15311502974,0.00100000000020373
23,12,3375.69422734848,0
23,13,3168.02834424784,0.00100000000020373
23,14,3164.01189308312,0
23,15,3469.50997555497,0
23,16,3893.18179939212,0.00100000000020373
23,17,4400.5895649077,0
23,18,4183.61431023367,0.00100000000020373
23,19,3678.55849111378,0.00100000000020373
23,20,3278.59650825493,0
23,21,2356.87525728783,0.00100000000020373
23,22,3416.99414520792,0.000999999996565748
23,23,2391.68580464125,0
23,24,3596.66992069986,0.00100000000020373
23,25,2874.99224208456,0.00100000000020373
23,26,2977.48859636556,0
23,27,3779.59252120161,0.00100000000020373
23,28,3457.01676713911,0.00100000000020373
23,29,3616.31434810018,0
23,30,3563.61540028493,0.00100000000020373
24,1,2136.15891996286,0
24,2,1993.04950365617,0
24,3,2419.81995925061,0.00100000000020373
24,4,2409.21396020668,0
24,5,2081.19930581568,0.00100000000020373
24,6,3398.91938421626,0.00100000000020373
24,7,1642.92827367712,0
24,8,1722.19053179472,0.00100000000020373
24,9,2378.80152621481,0.00100000000020373
24,10,2121.64937434613,0
24,11,3365.8302809929,0.00100000000020373
24,12,2375.62318282994,0
24,13,2503.90670124355,0
24,14,2034.66423313281,0.00100000000020373
24,15,2798.92893308443,0
24,16,2927.78982341072,0.00100000000020373
24,17,1980.16576440352,0.00100000000020373
24,18,1788.72509827221,0
24,19,1894.35749281813,0.00100000000020373
24,20,2253.96242707229,0.000999999996565748
24,21,2770.59786878052,0
24,22,2597.62495531002,0.00100000000020373
24,23,2222.99992631964,0.00100000000020373
24,24,2491.40541677312,0
24,25,3292.66703181465,0.00100000000020373
24,26,2171.57221927589,0
24,27,2849.05613063402,0
24,28,1707.2518241308,0.00100000000020373
24,29,2497.8883059341,0
24,30,2801.89581058798,0.00100000000020373
25,1,3000.27177546138,0.00100000000020373
25,2,2595.53269673933,0
25,3,2893.20087088466,0.00100000000020373
25,4,2394.89875852229,0.00100000000020373
25,5,2180.55034036612,0
25,6,2080.11058299121,0.00100000000020373
25,7,3021.85465471526,0
25,8,2058.64385429201,0
25,9,3212.97448736812,0.00100000000020373
25,10,2974.58609181855,0
25,11,3156.48426089756,0.00100000000020373
25,12,2738.17627568075,0.00100000000020373
25,13,2883.15991765141,0
25,14,3165.41044070598,0.00100000000020373
25,15,2715.60213487918,0.00399999999717693
25,16,3089.84715976723,0.00100000000020373
25,17,3558.36985545475,0
25,18,3490.07302532499,0.00100000000020373
25,19,3260.4587679996,0.00100000000020373
25,20,2590.376940405,0
25,21,2676.57314507553,0.00100000000020373
25,22,3221.28879819513,0
25,23,2986.54511726715,0.00100000000020373
25,24,2757.41060034028,0.00100000000020373
25,25,2159.49251399016,0
25,26,2698.97860515643,0.00100000000020373
25,27,2900.87580909422,0.00100000000020373
25,28,3335.32939160923,0
25,29,2673.38606964732,0.00100000000020373
25,30,3243.38650621843,0
26,1,1250.01160628191,0.00100000000020373
26,2,1975.55931833365,0.00100000000020373
26,3,1441.38367763125,0
26,4,2650.40134467126,0.00100000000020373
26,5,1824.00164287689,0.00100000000020373
26,6,2922.98718022431,0
26,7,1062.13780330301,0.00100000000020373
26,8,1699.14967315771,0
26,9,1323.29984639182,0.00100000000020373
26,10,1194.34253010752,0.000999999996565748
26,11,2345.8273709816,0
26,12,1637.05209938291,0.00100000000020373
26,13,1675.37316163679,0.00100000000020373
26,14,1014.80186513928,0
26,15,1650.9878448764,0.00100000000020373
26,16,2019.03190724168,0
26,17,1795.26535638064,0.00100000000020373
26,18,1559.31640073503,0.00100000000020373
26,19,2114.75874196791,0
26,20,1738.28618629001,0.00100000000020373
26,21,2629.21106256921,0.00100000000020373
26,22,1640.28524585793,0
26,23,2808.7021823213,0.00100000000020373
26,24,1646.53803253773,0
26,25,3005.67432795185,0.00100000000020373
26,26,1389.75861926207,0.00100000000020373
26,27,2292.67261716811,0
26,28,1415.06726825889,0.00100000000020373
26,29,1811.40532802986,0.00100000000020373
26,30,1984.53994735682,0
27,1,1262.42954340688,0.00100000000020373
27,2,1934.34786715399,0
27,3,1544.05902353951,0
27,4,2494.22870195665,0.00100000000020373
27,5,1843.71698812474,0
27,6,2960.95439848414,0.00100000000020373
27,7,956.827629474271,0.00100000000020373
27,8,1666.02077331244,0
27,9,1149.52856979174,0.000999999996565748
27,10,1090.01364269024,0
27,11,2329.51301119202,0
27,12,1609.09192694542,0.00100000000020373
27,13,1683.53780649847,0
27,14,1045.33340201441,0.00100000000020373
27,15,1616.16608012113,0.00100000000020373
27,16,1739.6889099295,0
27,17,1786.55974201921,0.00100000000020373
27,18,1509.31693430562,0.00100000000020373
27,19,1985.10721485583,0
27,20,1450.29090001044,0.00100000000020373
27,21,2563.89909095794,0.00100000000020373
27,22,1639.59225014402,0
27,23,2684.78951742445,0.00100000000020373
27,24,1502.21038382967,0
27,25,2928.17082396769,0
27,26,1411.56292543589,0.00100000000020373
27,27,2052.39801784862,0
27,28,1216.0945508253,0.00100000000020373
27,29,1797.2287529256,0.00100000000020373
27,30,1901.43851048074,0
28,1,2050.14096598668,0.00100000000020373
28,2,2068.76902273002,0.00100000000020373
28,3,1930.66699458674,0
28,4,2602.1010312277,0.00100000000020373
28,5,1973.19847855514,0.00100000000020373
28,6,2165.11815468506,0
28,7,2041.79874475628,0.000999999996565748
28,8,1611.7266157433,0
28,9,1740.61908966201,0
28,10,1611.50968401067,0.00100000000020373
28,11,1748.56121654639,0
28,12,1797.23653141632,0.00100000000020373
28,13,1481.72220029152,0.00100000000020373
28,14,2003.02783735921,0
28,15,1535.49063068196,0.00100000000020373
28,16,1622.98655459527,0.00100000000020373
28,17,2682.03610649092,0
28,18,2386.23958821618,0.00100000000020373
28,19,2786.01749721237,0
28,20,1266.1003567341,0
28,21,2606.73413826098,0.00100000000020373
28,22,2217.00572108232,0
28,23,2946.84016216288,0.00100000000020373
28,24,1540.37571111433,0.00100000000020373
28,25,2286.31907306202,0
28,26,1651.15543770508,0.00100000000020373
28,27,1708.80075938557,0.00100000000020373
28,28,2264.37786144876,0
28,29,1738.0368285428,0.00100000000020373
28,30,2070.13325840863,0
29,1,1448.89620107233,0
29,2,1947.70501607413,0.00100000000020373
29,3,1655.58664277125,0
29,4,2710.28342695643,0.00100000000020373
29,5,1767.28264744306,0.000999999996565748
29,6,3180.14836900291,0
29,7,1295.83706692254,0.00100000000020373
29,8,1429.28066032852,0.00100000000020373
29,9,1373.96311273312,0
29,10,1191.59101385606,0.00100000000020373
29,11,2512.66276603279,0.00400000000081491
29,12,1730.48595118346,0.00100000000020373
29,13,1857.54584868928,0
29,14,1422.78465511648,0.00100000000020373
29,15,1948.11198171155,0
29,16,2127.92313143155,0
29,17,1442.30393012684,0.00100000000020373
29,18,1194.64822774987,0
29,19,1872.84350795312,0.00100000000020373
29,20,1646.65299850115,0.00100000000020373
29,21,2818.01923650389,0
29,22,1996.99967605714,0.00100000000020373
29,23,2778.34637803158,0
29,24,1812.08870086688,0
29,25,3050.53621378846,0.00100000000020373
29,26,1598.6868657009,0
29,27,2197.20953114654,0.00100000000020373
29,28,1490.7924869423,0.000999999996565748
29,29,1846.80680388495,0
29,30,2053.59095411699,0.00100000000020373
30,1,2506.11551661432,0
30,2,2432.99603851552,0
30,3,2880.85613258608,0.00100000000020373
30,4,3147.29527748454,0
30,5,3026.78817685432,0.00100000000020373
30,6,3212.24063813371,0.00100000000020373
30,7,2396.31259508314,0
30,8,2847.45494290996,0.00100000000020373
30,9,2805.65734261394,0
30,10,2321.79108960204,0
30,11,2598.28265123709,0.00100000000020373
30,12,2937.51164429456,0
30,13,2110.41165135346,0.00100000000020373
30,14,2406.22135704009,0.00100000000020373
30,15,2306.14886984869,0
30,16,3151.63491550754,0.00100000000020373
30,17,2711.58599825971,0
30,18,3096.48575614267,0
30,19,2826.86295274757,0.00100000000020373
30,20,2730.24915554736,0
30,21,2810.14215485726,0.00100000000020373
30,22,3256.42026455103,0.00100000000020373
30,23,3184.24222694172,0
30,24,2338.73526798354,0.00100000000020373
30,25,3007.74287088067,0
30,26,2475.28418944546,0
30,27,3443.90144368743,0.000999999996565748
30,28,3121.18324263179,0
30,29,3016.70225798088,0.00100000000020373
30,30,3156.18396161103,0.00100000000020373
