"Before.Trace.ID1","Before.Trace.ID2","Difference","Runtime"
1,2,1780.96032708359,0.00899999999819556
1,3,0.299865215311571,0.00600000000122236
1,4,226.782929972505,0.00799999999799184
1,5,709.814556249282,0.00400000000081491
1,6,4461.04215485424,0.00600000000122236
1,7,26.9441264411469,0.00799999999799184
1,8,126.977668813493,0.00500000000101863
1,9,440.365741766291,0.00500000000101863
1,10,379.556139149444,0.00799999999799184
1,11,782.003804045801,0.00800000000162981
1,12,1027.85102290462,0.00700000000142609
1,13,8.03325502425533,0.00699999999778811
1,14,805.269222754717,0.0120000000024447
1,15,5119.44230167647,0.00999999999839929
1,16,0.820913007625015,0.00899999999819556
1,17,4.6801973421276,0.00400000000081491
1,18,3071.34063055747,0.0120000000024447
1,19,1104.42591589422,0.00799999999799184
1,20,12.2688950601709,0.00600000000122236
1,21,0.0832290375849363,0.00799999999799184
1,22,2.85223517401654,0.00600000000122236
1,23,32.4248557923898,0.00700000000142609
1,24,374.471829520385,0.00999999999839929
1,25,1964.45007974524,0.00800000000162981
1,26,0.000575562514255939,0.0029999999969732
1,27,4783.71186356571,0.00500000000101863
1,28,16.3928460870747,0.00900000000183354
1,29,92.2728538904577,0.00799999999799184
1,30,858.509968610924,0.0149999999994179
2,3,272.927579905273,0.00600000000122236
2,4,718.244869994654,0.00700000000142609
2,5,80.2112932218103,0.00799999999799184
2,6,2090.7768902669,0.00700000000142609
2,7,10.7798896816031,0.00799999999799184
2,8,777.168788985443,0.00600000000122236
2,9,375.084219741262,0.00600000000122236
2,10,2397.27239446138,0.00499999999738066
2,11,17.6608088314264,0.011000000002241
2,12,780.822750520507,0.00699999999778811
2,13,1.45511100385822,0.00600000000122236
2,14,4.90505710659004,0.00700000000142609
2,15,6734.35330768227,0.00699999999778811
2,16,1503.21428625579,0.00700000000142609
2,17,3.03743972426993,0.00599999999758438
2,18,1421.97879600423,0.00700000000142609
2,19,138.954343349693,0.00700000000142609
2,20,0.0212285435166966,0.00499999999738066
2,21,2237.07404930451,0.00400000000081491
2,22,1.27736244049501,0.00800000000162981
2,23,268.574341984878,0.00599999999758438
2,24,76.8779794974036,0.00600000000122236
2,25,941.763015957062,0.00700000000142609
2,26,1.85157454883454,0.00399999999717693
2,27,1.20762069016053,0.00700000000142609
2,28,2416.4160179502,0.0139999999992142
2,29,0.0627399699037877,0.00400000000081491
2,30,11.8413467903584,0.00800000000162981
3,4,3010.00002883096,0.00899999999819556
3,5,1791.78923479138,0.00700000000142609
3,6,2529.1536854371,0.00899999999819556
3,7,1666.9234218585,0.011000000002241
3,8,12.5545219903986,0.00699999999778811
3,9,680.880562439833,0.00800000000162981
3,10,1131.35740620023,0.00599999999758438
3,11,5.11684185546595,0.00800000000162981
3,12,0.0890772167998712,0.00600000000122236
3,13,263.101821987093,0.00699999999778811
3,14,225.884893715586,0.00700000000142609
3,15,3851.94941842535,0.00899999999819556
3,16,163.756532687965,0.00600000000122236
3,17,467.265079992183,0.00500000000101863
3,18,28.4147507714513,0.00599999999758438
3,19,63.6465004811954,0.00800000000162981
3,20,228.567274161596,0.00600000000122236
3,21,0.0322996178347563,0.00599999999758438
3,22,295.735545810085,0.00500000000101863
3,23,134.312210733661,0.00500000000101863
3,24,650.281325157038,0.00799999999799184
3,25,2128.84993525959,0.00700000000142609
3,26,97.9099276765903,0.00500000000101863
3,27,3222.35980497107,0.00699999999778811
3,28,0.0111719740515744,0.00600000000122236
3,29,0.0378377504440892,0.00500000000101863
3,30,0.0675985960530753,0.00699999999778811
4,5,5001.18806835955,0.00500000000101863
4,6,6603.37138537245,0.00400000000081491
4,7,334.789608925896,0.00599999999758438
4,8,1816.43676752299,0.00700000000142609
4,9,141.948141081546,0.00600000000122236
4,10,1951.16725576351,0.00699999999778811
4,11,10238.7773755148,0.011000000002241
4,12,0.712261382716014,0.00599999999758438
4,13,3368.8169545936,0.00600000000122236
4,14,298.424141577389,0.00400000000081491
4,15,12002.1841587058,0.00599999999758438
4,16,4163.91791576827,0.00800000000162981
4,17,1.94448468026221,0.00499999999738066
4,18,444.851585184207,0.0100000000020373
4,19,5457.41987203564,0.00799999999799184
4,20,4.27287679059692,0.00700000000142609
4,21,1696.47228858957,0.00400000000081491
4,22,19.2964995408437,0.00699999999778811
4,23,68.1737834658868,0.00600000000122236
4,24,1207.12928636812,0.00800000000162981
4,25,414.760619707459,0.00799999999799184
4,26,1034.84224353484,0.0129999999990105
4,27,6.07789775695263,0.00600000000122236
4,28,23.4816233836007,0.011000000002241
4,29,558.606425924157,0.00999999999839929
4,30,809.936769199764,0.00899999999819556
5,6,306.756049173529,0.00600000000122236
5,7,3.42038242283845,0.00600000000122236
5,8,0.190577034724783,0.00499999999738066
5,9,1267.43866408316,0.00500000000101863
5,10,9.50542218514904,0.00600000000122236
5,11,1.46521612366503,0.00600000000122236
5,12,415.223987629656,0.00899999999819556
5,13,2592.14440872503,0.00500000000101863
5,14,21.4959574485718,0.00599999999758438
5,15,152.572614665634,0.00700000000142609
5,16,2022.47632377291,0.00600000000122236
5,17,4461.36198086242,0.00399999999717693
5,18,980.916587208267,0.00600000000122236
5,19,1514.78772551743,0.00500000000101863
5,20,156.013924964302,0.00500000000101863
5,21,0.696337463451561,0.00699999999778811
5,22,654.760986806395,0.00600000000122236
5,23,0.809658111049546,0.00400000000081491
5,24,289.518627135842,0.00699999999778811
5,25,4001.77930595181,0.00700000000142609
5,26,2131.81172971822,0.00599999999758438
5,27,4439.92495656076,0.00900000000183354
5,28,6786.79054925201,0.00700000000142609
5,29,23.3771907651416,0.00699999999778811
5,30,391.623770050214,0.00600000000122236
6,7,2031.58618115878,0.00500000000101863
6,8,279.031462485295,0.010999999998603
6,9,1680.33734233563,0.00600000000122236
6,10,479.473269822123,0.00799999999799184
6,11,111.926246090569,0.00400000000081491
6,12,560.588228249408,0.00600000000122236
6,13,1797.90592946609,0.00399999999717693
6,14,687.171422412172,0.00900000000183354
6,15,3588.9205737982,0.00799999999799184
6,16,2080.92444604658,0.00800000000162981
6,17,764.405854950655,0.00700000000142609
6,18,565.021920789943,0.00799999999799184
6,19,952.816062394526,0.00600000000122236
6,20,14.7768937588283,0.00599999999758438
6,21,7344.51090544372,0.00900000000183354
6,22,540.747610699117,0.00800000000162981
6,23,2.38329451064676,0.00400000000081491
6,24,2760.38662846263,0.00500000000101863
6,25,30287.7647951074,0.00999999999839929
6,26,1.29545836831358,0.00500000000101863
6,27,4763.01078748864,0.011000000002241
6,28,3365.2729794015,0.00599999999758438
6,29,199.840569552733,0.00500000000101863
6,30,3579.69289319419,0.00700000000142609
7,8,778.626962810064,0.00499999999738066
7,9,1.67286550709064,0.00900000000183354
7,10,2444.71656919018,0.00899999999819556
7,11,2127.87862627066,0.0139999999992142
7,12,459.061939396964,0.00400000000081491
7,13,0.154965568159593,0.00600000000122236
7,14,140.983905606278,0.00400000000081491
7,15,635.799567967991,0.00699999999778811
7,16,60.1782941442492,0.00600000000122236
7,17,33.8155995084407,0.00500000000101863
7,18,1362.8465753608,0.00899999999819556
7,19,4.99988566709734,0.00500000000101863
7,20,50.5545147685025,0.00300000000061118
7,21,253.757745536545,0.00499999999738066
7,22,5.06295891925155,0.00700000000142609
7,23,1343.97275591433,0.00799999999799184
7,24,0.398690276706397,0.00400000000081491
7,25,26.127675981469,0.00700000000142609
7,26,1.6638543151654,0.00500000000101863
7,27,2514.76271156556,0.00699999999778811
7,28,3742.09180910605,0.00700000000142609
7,29,367.619896545166,0.00699999999778811
7,30,1375.2836096566,0.0120000000024447
8,9,0.226037955873934,0.00499999999738066
8,10,1073.36987335425,0.00500000000101863
8,11,174.40898277376,0.0129999999990105
8,12,254.352298560385,0.0100000000020373
8,13,0.0601077862582455,0.00400000000081491
8,14,51.6137284743627,0.00999999999839929
8,15,434.296108253797,0.00700000000142609
8,16,251.29994216842,0.00499999999738066
8,17,1.46567146794313,0.00800000000162981
8,18,838.751721182166,0.00800000000162981
8,19,2871.55803967303,0.00599999999758438
8,20,743.885454921677,0.00600000000122236
8,21,1.13305764448231,0.00699999999778811
8,22,0.74762121607933,0.00600000000122236
8,23,3101.3752893146,0.00500000000101863
8,24,5.90913768719388,0.00500000000101863
8,25,18.4374153891398,0.00499999999738066
8,26,302.003471407385,0.00500000000101863
8,27,5427.72701848264,0.010999999998603
8,28,1956.43177922795,0.00400000000081491
8,29,724.632415642083,0.00600000000122236
8,30,3.50819251681893,0.00500000000101863
9,10,889.765750928834,0.00700000000142609
9,11,1775.26326947206,0.00800000000162981
9,12,95.2411331661186,0.00799999999799184
9,13,32.780354154266,0.00700000000142609
9,14,195.444932962935,0.00599999999758438
9,15,5642.5160578965,0.00900000000183354
9,16,0.389476047785752,0.00700000000142609
9,17,52.1275349547917,0.00399999999717693
9,18,565.517969381775,0.00600000000122236
9,19,664.404499853399,0.00999999999839929
9,20,16.3099666130605,0.00800000000162981
9,21,3031.94890824968,0.00700000000142609
9,22,1552.09537699766,0.00699999999778811
9,23,189.504012141045,0.00800000000162981
9,24,116.211830377342,0.00599999999758438
9,25,25.6186798121308,0.00500000000101863
9,26,44.957909105232,0.00700000000142609
9,27,6575.13639440294,0.00499999999738066
9,28,373.249919837713,0.00400000000081491
9,29,0.123349668985676,0.00700000000142609
9,30,393.871552549731,0.00500000000101863
10,11,2.58246176420309,0.00499999999738066
10,12,867.867002241788,0.00600000000122236
10,13,0.132477452101361,0.00400000000081491
10,14,370.370418653465,0.0119999999988067
10,15,629.64582339787,0.00700000000142609
10,16,1886.90337758116,0.00499999999738066
10,17,5778.3913497775,0.00700000000142609
10,18,722.693150756524,0.00700000000142609
10,19,1441.70806381578,0.00699999999778811
10,20,1422.71989377268,0.00700000000142609
10,21,1.48743562679942,0.00699999999778811
10,22,1283.01441946479,0.00700000000142609
10,23,11.9360285304187,0.00500000000101863
10,24,143.180623085305,0.00699999999778811
10,25,1020.42324095653,0.00700000000142609
10,26,1308.70109664649,0.00500000000101863
10,27,1.7457376036378,0.00699999999778811
10,28,4973.85415625347,0.00900000000183354
10,29,1047.58458149256,0.00499999999738066
10,30,2330.63234438482,0.00600000000122236
11,12,1637.00337233545,0.00800000000162981
11,13,26.7163457263759,0.00899999999819556
11,14,2249.32498724601,0.0120000000024447
11,15,42.0700586667158,0.00899999999819556
11,16,2476.20135756365,0.00999999999839929
11,17,106.09048855979,0.0100000000020373
11,18,3838.51053364859,0.010999999998603
11,19,4295.28316538213,0.00600000000122236
11,20,900.695085128169,0.00899999999819556
11,21,0.952664102067808,0.00700000000142609
11,22,376.66553293177,0.00900000000183354
11,23,1342.04112984747,0.00399999999717693
11,24,10.7498753073926,0.00900000000183354
11,25,27.0677776196131,0.00899999999819556
11,26,6212.79297142837,0.00700000000142609
11,27,1014.36729368336,0.00700000000142609
11,28,11440.973286061,0.0159999999996217
11,29,4100.76030942334,0.00899999999819556
11,30,3532.89763185404,0.0129999999990105
12,13,5786.57336224235,0.00600000000122236
12,14,9.48043195353374,0.00700000000142609
12,15,1.86225344757315,0.00599999999758438
12,16,6.42110575445381,0.00500000000101863
12,17,635.637761063902,0.00700000000142609
12,18,5.63866999548537,0.00599999999758438
12,19,746.425995037726,0.00500000000101863
12,20,0.615359838827316,0.00500000000101863
12,21,232.807429996187,0.00599999999758438
12,22,217.691562205711,0.00400000000081491
12,23,887.989019650988,0.00800000000162981
12,24,343.993650005916,0.00499999999738066
12,25,12.2024883563043,0.00600000000122236
12,26,890.243719113917,0.00800000000162981
12,27,406.822957634744,0.00599999999758438
12,28,2884.15938173287,0.00700000000142609
12,29,0.0593067435885922,0.00500000000101863
12,30,614.331131920861,0.00699999999778811
13,14,2877.5818839757,0.00700000000142609
13,15,0.225609401356011,0.00600000000122236
13,16,1.81115832138804,0.00599999999758438
13,17,6.19900255767222,0.00700000000142609
13,18,11662.107858387,0.00599999999758438
13,19,63.4619504829215,0.00900000000183354
13,20,37.770724631089,0.00600000000122236
13,21,31.7235008748825,0.00499999999738066
13,22,0.157400275646904,0.00600000000122236
13,23,1383.57157410055,0.00500000000101863
13,24,96.0712669495926,0.00499999999738066
13,25,0.194206621605528,0.00500000000101863
13,26,9389.15073944964,0.011000000002241
13,27,1077.80457870385,0.00599999999758438
13,28,5108.74410640549,0.00600000000122236
13,29,1891.81870219382,0.00600000000122236
13,30,16.4094533321221,0.00799999999799184
14,15,124.560970071083,0.00500000000101863
14,16,513.361380632839,0.00699999999778811
14,17,1250.1995197543,0.00600000000122236
14,18,733.462036440237,0.00700000000142609
14,19,354.446388087075,0.00699999999778811
14,20,4204.83600782837,0.00600000000122236
14,21,457.05903085598,0.00700000000142609
14,22,66.3838419336213,0.00599999999758438
14,23,53.9135638902563,0.00600000000122236
14,24,20.2105102333278,0.00799999999799184
14,25,3.84968986380075,0.00700000000142609
14,26,1.69293552446343,0.00600000000122236
14,27,53.6299956581263,0.00399999999717693
14,28,1963.98178382279,0.00500000000101863
14,29,2201.95362456818,0.00800000000162981
14,30,2274.91942475326,0.00400000000081491
15,16,56.5626683478757,0.00699999999778811
15,17,1.12409198133042,0.00500000000101863
15,18,15.4336376516133,0.00799999999799184
15,19,19.0685280991631,0.00600000000122236
15,20,45.7453825029162,0.00300000000061118
15,21,202.263687105027,0.00700000000142609
15,22,8366.65019185487,0.00999999999839929
15,23,6.57348274595763,0.00600000000122236
15,24,1.09599410287847,0.00699999999778811
15,25,1874.50837765426,0.00800000000162981
15,26,1478.78803392611,0.00599999999758438
15,27,4391.59338653522,0.00700000000142609
15,28,17346.1271540213,0.00800000000162981
15,29,312.222489409229,0.00599999999758438
15,30,4127.47601102496,0.011000000002241
16,17,158.768108099774,0.00799999999799184
16,18,10.3056961328923,0.0120000000024447
16,19,3979.1238015563,0.00899999999819556
16,20,106.002594986015,0.00500000000101863
16,21,57.000084945816,0.00599999999758438
16,22,65.6918065806604,0.00500000000101863
16,23,2149.86632666072,0.00600000000122236
16,24,3.79473809803073,0.00599999999758438
16,25,2544.68325008353,0.00800000000162981
16,26,417.248236892535,0.00400000000081491
16,27,2269.15072223139,0.00699999999778811
16,28,1323.72155694233,0.0100000000020373
16,29,406.322140755174,0.00899999999819556
16,30,0.0960032354688733,0.00600000000122236
17,18,4570.96662730056,0.00500000000101863
17,19,15.1711525302199,0.00400000000081491
17,20,276.941496243752,0.00499999999738066
17,21,86.2987654501958,0.00500000000101863
17,22,68.561851830407,0.00400000000081491
17,23,162.364162327029,0.00399999999717693
17,24,0.451796317955071,0.00500000000101863
17,25,5.01846129012453,0.00500000000101863
17,26,726.217356497481,0.00500000000101863
17,27,4477.32737109368,0.00699999999778811
17,28,3341.72362955717,0.00500000000101863
17,29,8.9748347722824,0.00400000000081491
17,30,3.18310709011332,0.00699999999778811
18,19,9624.55299462929,0.00700000000142609
18,20,1546.40386223174,0.00600000000122236
18,21,4928.88444011581,0.0129999999990105
18,22,1.57862014615076,0.00799999999799184
18,23,2315.86329816523,0.00900000000183354
18,24,740.286373346844,0.00600000000122236
18,25,1632.77702597618,0.00599999999758438
18,26,35.0198846324792,0.00900000000183354
18,27,226.129140438942,0.00599999999758438
18,28,372.757091944461,0.0150000000030559
18,29,68.5396001527406,0.0129999999990105
18,30,82.1164686522682,0.00699999999778811
19,20,184.665825404829,0.00500000000101863
19,21,130.016688203761,0.00700000000142609
19,22,17.8624239661246,0.00599999999758438
19,23,2192.70918545462,0.00600000000122236
19,24,1651.64490092273,0.00500000000101863
19,25,8.09242820585495e-05,0.00500000000101863
19,26,100.619116814753,0.00999999999839929
19,27,3920.2781657702,0.00600000000122236
19,28,6568.51807459028,0.00399999999717693
19,29,6586.9126627922,0.00700000000142609
19,30,3027.31722581271,0.00700000000142609
20,21,7.82964527278885,0.00699999999778811
20,22,3.11323792106585,0.00400000000081491
20,23,1020.23580542784,0.00500000000101863
20,24,7.93811798970144,0.00399999999717693
20,25,396.453343830546,0.00600000000122236
20,26,550.816253452315,0.00500000000101863
20,27,1.1211240148663,0.00699999999778811
20,28,4252.57433117007,0.00700000000142609
20,29,1057.62562303886,0.00400000000081491
20,30,11.8797504514959,0.00599999999758438
21,22,1218.78950987047,0.00600000000122236
21,23,3675.90883461168,0.00600000000122236
21,24,12.7281610105975,0.010999999998603
21,25,818.407562606292,0.00400000000081491
21,26,2.51998106789177,0.00699999999778811
21,27,1611.31096265775,0.00500000000101863
21,28,3.13969876428441,0.00700000000142609
21,29,0.347867583788413,0.00599999999758438
21,30,615.053042608724,0.00900000000183354
22,23,1492.13857993281,0.00899999999819556
22,24,102.52755112459,0.00600000000122236
22,25,138.737904749753,0.00400000000081491
22,26,2.20644435902518,0.00600000000122236
22,27,3.30393000347374,0.00699999999778811
22,28,2642.7165902789,0.00600000000122236
22,29,1302.15748039244,0.00500000000101863
22,30,203.731748781796,0.00899999999819556
23,24,1599.72454017493,0.00600000000122236
23,25,806.686098966935,0.00499999999738066
23,26,3023.76873591429,0.00500000000101863
23,27,655.546173659001,0.00600000000122236
23,28,0.0389835376847595,0.00400000000081491
23,29,872.539314057692,0.00599999999758438
23,30,882.311958690221,0.00600000000122236
24,25,63.2999379727644,0.00500000000101863
24,26,1763.16017072662,0.00499999999738066
24,27,1909.58124848486,0.00700000000142609
24,28,1147.45184854821,0.00700000000142609
24,29,3699.07517672926,0.00599999999758438
24,30,14.9931431087054,0.00800000000162981
25,26,1156.61091956966,0.00799999999799184
25,27,0.111115331492498,0.00600000000122236
25,28,2393.11633837684,0.00600000000122236
25,29,1479.72115871257,0.00399999999717693
25,30,174.567107923907,0.00600000000122236
26,27,415.316395979215,0.00600000000122236
26,28,0.755746717236607,0.00399999999717693
26,29,646.485968730354,0.00600000000122236
26,30,205.873478361642,0.00600000000122236
27,28,626.714495797553,0.00499999999738066
27,29,3376.99408927042,0.00600000000122236
27,30,6019.69121731797,0.00500000000101863
28,29,18.8153889759418,0.00999999999839929
28,30,272.604439296954,0.0130000000026484
29,30,0.509533689565992,0.00899999999819556


"After.Trace.ID","Before.Trace.ID","Difference","Runtime"
1,1,35.5565051104301,0.00800000000162981
1,2,2.34939806082434,0.00499999999738066
1,3,9856.48830303529,0.00500000000101863
1,4,3169.48248779751,0.00500000000101863
1,5,4042.23858775839,0.00499999999738066
1,6,4160.70122627146,0.00700000000142609
1,7,47.4340478246407,0.00500000000101863
1,8,957.747454778138,0.00799999999799184
1,9,1.48987007660979,0.00700000000142609
1,10,0.00145294162943339,0.00300000000061118
1,11,6726.50707536517,0.00499999999738066
1,12,1644.69161964945,0.00800000000162981
1,13,1573.83357209976,0.00600000000122236
1,14,753.198066143572,0.00499999999738066
1,15,7957.47703099133,0.00900000000183354
1,16,72.5995653765792,0.00700000000142609
1,17,5.46964118295759,0.00799999999799184
1,18,8.33813828685134,0.00500000000101863
1,19,47.7155697061199,0.00599999999758438
1,20,573.596310981483,0.00600000000122236
1,21,168.472020781814,0.00500000000101863
1,22,1.37764916713637,0.00500000000101863
1,23,2580.43733184913,0.00399999999717693
1,24,1224.98424518796,0.00400000000081491
1,25,1195.92865997648,0.00700000000142609
1,26,20.0908577491176,0.00699999999778811
1,27,5120.10607499464,0.00800000000162981
1,28,24.9656946487327,0.00699999999778811
1,29,1348.36848401067,0.00600000000122236
1,30,37.7012914795838,0.00700000000142609
2,1,2.85387085525322,0.00699999999778811
2,2,170.370454588037,0.00500000000101863
2,3,9.80115775340992,0.00900000000183354
2,4,122.07716286646,0.00499999999738066
2,5,1003.04256881271,0.00500000000101863
2,6,1980.84037246516,0.00800000000162981
2,7,4735.33023843642,0.00799999999799184
2,8,551.823290760688,0.00600000000122236
2,9,80.0563732133151,0.00400000000081491
2,10,152.756961628937,0.00599999999758438
2,11,7.721475659591,0.00500000000101863
2,12,101.746338316492,0.00500000000101863
2,13,1238.43111250153,0.00499999999738066
2,14,619.17089928316,0.00400000000081491
2,15,947.387372386667,0.00700000000142609
2,16,3.32408671757261,0.00399999999717693
2,17,2.1561270474587,0.00400000000081491
2,18,1939.99642610821,0.00500000000101863
2,19,5.68936188156691,0.00400000000081491
2,20,548.7598284695,0.00799999999799184
2,21,17.7748398560511,0.00400000000081491
2,22,720.720077974538,0.00500000000101863
2,23,5101.72992742578,0.00699999999778811
2,24,5.37346500914808,0.00800000000162981
2,25,2859.31973200181,0.00600000000122236
2,26,3114.63760881488,0.00399999999717693
2,27,5758.54819277851,0.00600000000122236
2,28,910.100927739921,0.00600000000122236
2,29,4606.04678328388,0.00499999999738066
2,30,4.28913812852758,0.00400000000081491
3,1,1.29934797658318,0.00800000000162981
3,2,6.05964603773309,0.00699999999778811
3,3,306.515919798727,0.00500000000101863
3,4,0.651504843955201,0.00400000000081491
3,5,1644.39433017038,0.00499999999738066
3,6,1.59620260643251,0.00600000000122236
3,7,43.0767812856856,0.00600000000122236
3,8,543.681622962035,0.00500000000101863
3,9,0.663213995576893,0.00499999999738066
3,10,691.885033719926,0.00700000000142609
3,11,295.496869203069,0.00699999999778811
3,12,4.75500425437993,0.00500000000101863
3,13,570.307947665513,0.00700000000142609
3,14,79.3237580524063,0.00400000000081491
3,15,361.218537519639,0.00699999999778811
3,16,18.1064570939281,0.00500000000101863
3,17,52.7837736856071,0.00500000000101863
3,18,508.412820999264,0.00499999999738066
3,19,1288.12227106992,0.00500000000101863
3,20,3.16255237209746,0.00700000000142609
3,21,0.381469097611636,0.00499999999738066
3,22,1628.59252088441,0.00500000000101863
3,23,0.160111618945663,0.00400000000081491
3,24,81.1112982407094,0.00500000000101863
3,25,656.1167102977,0.00599999999758438
3,26,161.202775493867,0.00600000000122236
3,27,367.744436319289,0.00600000000122236
3,28,892.644200911175,0.00599999999758438
3,29,4.677232763163,0.00500000000101863
3,30,21.807092990268,0.010999999998603
4,1,724.220519072613,0.00600000000122236
4,2,281.662558941072,0.00400000000081491
4,3,257.446271185319,0.00400000000081491
4,4,1089.00098276736,0.00499999999738066
4,5,630.571408083116,0.00400000000081491
4,6,7133.69386793688,0.00600000000122236
4,7,0.329926111140865,0.00399999999717693
4,8,4.1948815455325,0.00400000000081491
4,9,1666.37811339859,0.00400000000081491
4,10,1791.94133118333,0.00500000000101863
4,11,6237.21009052682,0.0139999999992142
4,12,2600.71687293394,0.00600000000122236
4,13,3956.48864560363,0.00699999999778811
4,14,0.928316788680704,0.00700000000142609
4,15,1509.22073892372,0.00799999999799184
4,16,757.002647845099,0.00400000000081491
4,17,1027.53808857723,0.00500000000101863
4,18,2187.63755349108,0.00300000000061118
4,19,2085.98787829418,0.00399999999717693
4,20,1.00619706996284,0.00400000000081491
4,21,171.095295864171,0.00600000000122236
4,22,239.391550775578,0.00500000000101863
4,23,273.587126370505,0.00599999999758438
4,24,792.924584686205,0.00700000000142609
4,25,549.851847088392,0.00500000000101863
4,26,1386.83304365911,0.00699999999778811
4,27,1.04713289015405,0.00700000000142609
4,28,4015.40512362834,0.00499999999738066
4,29,1498.31475642619,0.00300000000061118
4,30,1437.26937391097,0.00500000000101863
5,1,602.158779117919,0.00700000000142609
5,2,2.43447420900975,0.00599999999758438
5,3,1448.86211645117,0.00700000000142609
5,4,1038.69676918009,0.00400000000081491
5,5,16.8427425856649,0.00599999999758438
5,6,2821.10235572587,0.00600000000122236
5,7,43.1895591689712,0.00500000000101863
5,8,363.750889353397,0.00599999999758438
5,9,1.31448702842343,0.00500000000101863
5,10,174.965644434665,0.00700000000142609
5,11,458.038283153886,0.00899999999819556
5,12,15.3534444227222,0.00600000000122236
5,13,996.893580685754,0.00699999999778811
5,14,18.0828114724411,0.00500000000101863
5,15,1233.04883554593,0.00700000000142609
5,16,37.6448622120275,0.00500000000101863
5,17,1139.28504909602,0.00799999999799184
5,18,1635.27729941869,0.00500000000101863
5,19,2.36167519978269,0.00400000000081491
5,20,1105.49557839333,0.00599999999758438
5,21,942.458156413982,0.00700000000142609
5,22,93.7051798874947,0.00600000000122236
5,23,307.482700779527,0.00499999999738066
5,24,310.144666665369,0.00700000000142609
5,25,1.41959912482128,0.00600000000122236
5,26,627.863734242508,0.00499999999738066
5,27,1602.25786835768,0.00900000000183354
5,28,8263.16516903999,0.00599999999758438
5,29,1762.33178042835,0.00800000000162981
5,30,1.0119336980399,0.00700000000142609
6,1,587.696037533441,0.00899999999819556
6,2,7.21344665323178,0.00899999999819556
6,3,33.2464558343556,0.00600000000122236
6,4,1.14950496239757,0.00400000000081491
6,5,1699.92624650203,0.00799999999799184
6,6,1061.33668733063,0.00500000000101863
6,7,0.512678774503714,0.00500000000101863
6,8,249.20814904191,0.00500000000101863
6,9,3.99246551540182,0.00799999999799184
6,10,2045.20481940955,0.00300000000061118
6,11,8982.85565901497,0.010999999998603
6,12,1713.1584494695,0.00900000000183354
6,13,4102.39071642665,0.00400000000081491
6,14,24.9005509458929,0.00499999999738066
6,15,26.1702889730116,0.00300000000061118
6,16,154.886272550494,0.00400000000081491
6,17,34.3174172902868,0.00400000000081491
6,18,0.189793476916658,0.00499999999738066
6,19,38.8074353468899,0.00500000000101863
6,20,7.62192989397017,0.00600000000122236
6,21,70.4039564073191,0.00699999999778811
6,22,8.04648031989452,0.00600000000122236
6,23,4188.14839319786,0.00600000000122236
6,24,1280.23860511393,0.00699999999778811
6,25,0.331577347011731,0.00600000000122236
6,26,32.1214514516826,0.00400000000081491
6,27,1869.25055786605,0.00499999999738066
6,28,452.545287001342,0.0100000000020373
6,29,1323.11912048338,0.00500000000101863
6,30,612.692363447016,0.00399999999717693
7,1,1.92595116962175,0.00900000000183354
7,2,2308.33048113886,0.00699999999778811
7,3,3.93694299992611,0.00700000000142609
7,4,1.03550986373252,0.00700000000142609
7,5,15.5388631049259,0.00699999999778811
7,6,1276.63563417527,0.00800000000162981
7,7,29.4392409392152,0.00500000000101863
7,8,720.715389738145,0.00599999999758438
7,9,571.453133667326,0.0100000000020373
7,10,3333.05225405242,0.00499999999738066
7,11,7714.23342250973,0.0150000000030559
7,12,85.1878364387515,0.00599999999758438
7,13,43.7287239617527,0.00700000000142609
7,14,1654.20468508929,0.00300000000061118
7,15,5028.8919800444,0.00799999999799184
7,16,246.702303590859,0.00900000000183354
7,17,2.59717523238672,0.00499999999738066
7,18,13.2132927835648,0.00600000000122236
7,19,1583.35006665371,0.00900000000183354
7,20,4137.02447377767,0.00399999999717693
7,21,1665.16488501948,0.00900000000183354
7,22,5.98528429141964,0.00699999999778811
7,23,1110.61084535671,0.00600000000122236
7,24,103.322568948049,0.0149999999994179
7,25,1068.23815540361,0.00700000000142609
7,26,88.8614803047962,0.00600000000122236
7,27,2867.81113347734,0.00500000000101863
7,28,4291.26687142264,0.00800000000162981
7,29,117.112079778718,0.0119999999988067
7,30,5.05095493384823,0.00800000000162981
8,1,301.661928558579,0.00499999999738066
8,2,527.903182585978,0.00500000000101863
8,3,1796.65030768768,0.00600000000122236
8,4,3748.72486649042,0.00699999999778811
8,5,620.036353588919,0.00700000000142609
8,6,4149.35758816566,0.00700000000142609
8,7,247.29653594893,0.00799999999799184
8,8,6.13412419243815,0.00500000000101863
8,9,2.60415878697229,0.00699999999778811
8,10,747.577253866265,0.00700000000142609
8,11,289.752385867072,0.010999999998603
8,12,0.975973673399074,0.00500000000101863
8,13,412.586957891398,0.00500000000101863
8,14,530.324467530352,0.00799999999799184
8,15,2407.06587239823,0.00900000000183354
8,16,318.830164496213,0.00599999999758438
8,17,563.731900619461,0.00500000000101863
8,18,95.3791081142114,0.00400000000081491
8,19,2297.00914343947,0.00700000000142609
8,20,395.956717894332,0.00799999999799184
8,21,1020.58564817013,0.00600000000122236
8,22,1090.2968660765,0.00699999999778811
8,23,1189.72376735908,0.00600000000122236
8,24,196.841775397858,0.00500000000101863
8,25,4.47801656769709,0.00499999999738066
8,26,2042.26936369132,0.00700000000142609
8,27,1149.90456086744,0.00400000000081491
8,28,725.937300701685,0.00600000000122236
8,29,5851.24607903181,0.00699999999778811
8,30,2180.49368846883,0.00600000000122236
9,1,62.1937892913463,0.00599999999758438
9,2,45.9367665792104,0.00400000000081491
9,3,23.4341450324957,0.00800000000162981
9,4,541.682650464389,0.00799999999799184
9,5,737.622030219296,0.00600000000122236
9,6,73.0848881348664,0.00400000000081491
9,7,760.120503895511,0.00599999999758438
9,8,87.152027897306,0.00600000000122236
9,9,17.5681965683576,0.00600000000122236
9,10,320.931222028164,0.00499999999738066
9,11,5711.75455843027,0.0180000000000291
9,12,34.7760350443546,0.00800000000162981
9,13,41.008365487369,0.00500000000101863
9,14,5.82761516968473,0.00799999999799184
9,15,819.896156496248,0.00400000000081491
9,16,11.2303044623185,0.00400000000081491
9,17,2.54583819658466,0.00500000000101863
9,18,971.103944807943,0.00599999999758438
9,19,2201.80116073608,0.00600000000122236
9,20,13.8195209508582,0.00400000000081491
9,21,200.948486579031,0.00599999999758438
9,22,6.09664807101667,0.00800000000162981
9,23,0.891866969152787,0.00699999999778811
9,24,942.466952774546,0.00500000000101863
9,25,4684.36500518001,0.00400000000081491
9,26,554.094277467608,0.00899999999819556
9,27,1395.68601689682,0.00400000000081491
9,28,1486.05375375763,0.00500000000101863
9,29,686.050313519396,0.00400000000081491
9,30,521.009547421369,0.00799999999799184
10,1,0.0382904006746798,0.00500000000101863
10,2,21.2222880344251,0.00500000000101863
10,3,158.51252258541,0.00599999999758438
10,4,263.634234681985,0.00600000000122236
10,5,105.267326543708,0.00900000000183354
10,6,10.5092222082026,0.00799999999799184
10,7,36.2241847560735,0.00700000000142609
10,8,1616.97767718786,0.00699999999778811
10,9,1880.87731000936,0.00500000000101863
10,10,3950.01201691017,0.00800000000162981
10,11,8.26055788716967,0.00799999999799184
10,12,366.101881540594,0.00600000000122236
10,13,1270.73962475243,0.00400000000081491
10,14,599.34307965311,0.00499999999738066
10,15,689.223935383834,0.00700000000142609
10,16,2175.84366501058,0.00699999999778811
10,17,2619.19147730429,0.00500000000101863
10,18,1678.53406496821,0.00700000000142609
10,19,5188.63970192053,0.00599999999758438
10,20,4520.69725741116,0.00600000000122236
10,21,0.904174594555704,0.00800000000162981
10,22,0.0154496326097536,0.00499999999738066
10,23,11.2822536904727,0.00600000000122236
10,24,485.617178512592,0.00400000000081491
10,25,1171.68256173328,0.00500000000101863
10,26,132.960329571147,0.00699999999778811
10,27,1.85408033188223,0.00600000000122236
10,28,952.929832147423,0.00400000000081491
10,29,1.12335691415499,0.00699999999778811
10,30,283.386882956155,0.00500000000101863
11,1,528.854547049932,0.00500000000101863
11,2,1.12663624043399,0.00499999999738066
11,3,1158.69173290969,0.00800000000162981
11,4,2042.98840268791,0.00500000000101863
11,5,293.771732858858,0.00899999999819556
11,6,18.4235709322221,0.00600000000122236
11,7,8.28403264768412,0.00499999999738066
11,8,388.418931248044,0.00800000000162981
11,9,81.2059059682672,0.00700000000142609
11,10,1.59127231449073,0.00499999999738066
11,11,61.399005799226,0.0130000000026484
11,12,9267.47705034357,0.00599999999758438
11,13,2.22402419518738,0.00500000000101863
11,14,962.200171705412,0.00600000000122236
11,15,615.452711268033,0.0029999999969732
11,16,539.868673671421,0.00800000000162981
11,17,7.76302101054735,0.00500000000101863
11,18,4419.49471766866,0.00499999999738066
11,19,806.893765122497,0.00500000000101863
11,20,24.6613510807261,0.00500000000101863
11,21,0.954479189355885,0.00699999999778811
11,22,1720.560215906,0.00400000000081491
11,23,309.53467041239,0.00600000000122236
11,24,475.130589118907,0.00799999999799184
11,25,8683.90224976317,0.00600000000122236
11,26,100.010461481579,0.00400000000081491
11,27,1573.96434490998,0.00799999999799184
11,28,14212.8362347045,0.00600000000122236
11,29,948.634414751157,0.00600000000122236
11,30,1201.12178680058,0.00599999999758438
12,1,1.37266487636292,0.00800000000162981
12,2,2.40418769656336,0.00500000000101863
12,3,41.6788814434717,0.00399999999717693
12,4,2.71118106481322,0.00500000000101863
12,5,3.73249865281692,0.00700000000142609
12,6,13.4258597929664,0.00500000000101863
12,7,2350.27202829816,0.00699999999778811
12,8,542.05989920009,0.00700000000142609
12,9,0.990326376625225,0.00799999999799184
12,10,54.0266297245089,0.00800000000162981
12,11,3504.67969020399,0.00699999999778811
12,12,1191.11540211637,0.00600000000122236
12,13,75.6410426790251,0.00500000000101863
12,14,110.545445874203,0.00899999999819556
12,15,149.214616285301,0.00700000000142609
12,16,223.25563966633,0.00799999999799184
12,17,2708.24323703233,0.00300000000061118
12,18,896.645959754655,0.00400000000081491
12,19,2699.54108362652,0.00600000000122236
12,20,1048.37954537198,0.00699999999778811
12,21,1.15784851715497,0.00700000000142609
12,22,461.632724548197,0.00799999999799184
12,23,1065.1574695325,0.00900000000183354
12,24,5.90825010542683,0.00500000000101863
12,25,3576.14342790255,0.00499999999738066
12,26,0.444506386589304,0.00500000000101863
12,27,0.707073042883214,0.00600000000122236
12,28,6719.21124130484,0.00699999999778811
12,29,3895.34865146998,0.00500000000101863
12,30,277.731286932195,0.00600000000122236
13,1,1.39939724497237,0.00799999999799184
13,2,1343.83752965512,0.00500000000101863
13,3,364.3614699547,0.00700000000142609
13,4,3547.79482119786,0.00699999999778811
13,5,2039.24158541587,0.00800000000162981
13,6,5550.19128196252,0.00799999999799184
13,7,1002.96211786345,0.00500000000101863
13,8,6.26045703168378,0.00600000000122236
13,9,383.47236079259,0.00799999999799184
13,10,431.925232832535,0.00500000000101863
13,11,189.973592458195,0.0149999999994179
13,12,17.382911617439,0.00800000000162981
13,13,540.94190004775,0.00699999999778811
13,14,0.531824007240497,0.00600000000122236
13,15,102.579256805775,0.00600000000122236
13,16,476.376803593412,0.00499999999738066
13,17,94.3905290467212,0.00900000000183354
13,18,4476.25232571724,0.00599999999758438
13,19,0.00427273274064328,0.00400000000081491
13,20,0.0265657548259182,0.00600000000122236
13,21,0.277369628585584,0.00899999999819556
13,22,924.570846157926,0.00600000000122236
13,23,815.090673287583,0.00600000000122236
13,24,4.01507822831159,0.00499999999738066
13,25,46.3078385335848,0.00800000000162981
13,26,1.0330571691704,0.00400000000081491
13,27,2354.33111138223,0.00799999999799184
13,28,3.54822669447786,0.00700000000142609
13,29,2329.86732170568,0.00500000000101863
13,30,0.492394993593758,0.00899999999819556
14,1,200.55765882263,0.00800000000162981
14,2,180.69234252402,0.00699999999778811
14,3,5.35390239866905,0.00500000000101863
14,4,555.254727203664,0.00600000000122236
14,5,158.693274387174,0.00399999999717693
14,6,1298.99720148505,0.00600000000122236
14,7,3.80326627366661,0.00600000000122236
14,8,18.1607849236518,0.00799999999799184
14,9,3.98966023339941,0.00500000000101863
14,10,2688.5665563461,0.0119999999988067
14,11,12.272856059859,0.00800000000162981
14,12,133.640147911307,0.00699999999778811
14,13,90.328761415063,0.00600000000122236
14,14,68.1521228941513,0.00700000000142609
14,15,805.250898473121,0.00999999999839929
14,16,54.4945860561587,0.00500000000101863
14,17,176.316681572068,0.00300000000061118
14,18,371.39779880734,0.00499999999738066
14,19,368.584692839912,0.00400000000081491
14,20,53.9348299997657,0.00700000000142609
14,21,1.54211862931787,0.00599999999758438
14,22,1.66782786672497,0.00500000000101863
14,23,426.665003620767,0.00500000000101863
14,24,6.64603165308069,0.00400000000081491
14,25,1977.0099744378,0.00699999999778811
14,26,235.198457369481,0.00600000000122236
14,27,0.201039534935421,0.00500000000101863
14,28,858.813708469604,0.00499999999738066
14,29,402.57499348744,0.00900000000183354
14,30,412.330391163274,0.00699999999778811
15,1,0.0476918612850282,0.00500000000101863
15,2,69.6218661213858,0.0190000000002328
15,3,133.776415393349,0.00700000000142609
15,4,1868.31720861794,0.00899999999819556
15,5,3702.53770656465,0.00800000000162981
15,6,7282.35769484131,0.00499999999738066
15,7,48.6946791014616,0.0100000000020373
15,8,641.422993509893,0.00700000000142609
15,9,228.654014068447,0.00399999999717693
15,10,1079.14607335142,0.00600000000122236
15,11,15.4788970924223,0.00800000000162981
15,12,1422.26137765437,0.00600000000122236
15,13,287.91888822396,0.00600000000122236
15,14,557.659414711617,0.00899999999819556
15,15,7.38639208438645e-05,0.00300000000061118
15,16,0.532176964280277,0.00600000000122236
15,17,69.832615430643,0.00400000000081491
15,18,20.0245932521091,0.00799999999799184
15,19,730.445286467923,0.00600000000122236
15,20,5.27127592122616,0.00599999999758438
15,21,365.899922177277,0.00600000000122236
15,22,0.938542063714933,0.00600000000122236
15,23,11.1465618574442,0.00400000000081491
15,24,1306.16999937395,0.00499999999738066
15,25,26.4814475748189,0.00800000000162981
15,26,1037.48319888127,0.00899999999819556
15,27,297.503301661939,0.00700000000142609
15,28,1399.01793330614,0.00699999999778811
15,29,341.918661703153,0.00800000000162981
15,30,60.084010117034,0.00800000000162981
16,1,226.055391291191,0.00699999999778811
16,2,24.6832103240535,0.00600000000122236
16,3,695.358634901195,0.00699999999778811
16,4,100.369933914976,0.00500000000101863
16,5,2.83556193810452,0.00400000000081491
16,6,7293.03515718239,0.00600000000122236
16,7,4.66771769875093,0.00499999999738066
16,8,45.4566763148513,0.00400000000081491
16,9,535.274096280241,0.00500000000101863
16,10,281.134811501432,0.00599999999758438
16,11,14696.0135416342,0.011000000002241
16,12,827.983260763981,0.00400000000081491
16,13,2587.28525632857,0.00699999999778811
16,14,506.447065255869,0.00400000000081491
16,15,9361.72622499861,0.00500000000101863
16,16,1439.00333043696,0.00499999999738066
16,17,9.49478326046932,0.00400000000081491
16,18,0.694019252205887,0.00500000000101863
16,19,4042.87455734013,0.00300000000061118
16,20,1923.78393641046,0.00799999999799184
16,21,3312.58228139794,0.00700000000142609
16,22,465.376466105118,0.00500000000101863
16,23,726.827676477362,0.00699999999778811
16,24,6.86442051956151,0.00800000000162981
16,25,7787.24667787799,0.00699999999778811
16,26,140.84078487766,0.00600000000122236
16,27,797.338912849555,0.00600000000122236
16,28,243.436832426887,0.00599999999758438
16,29,0.924962424026048,0.00600000000122236
16,30,1295.58503046403,0.00799999999799184
17,1,27.7956709383309,0.0140000000028522
17,2,2.8219987404493,0.00599999999758438
17,3,698.831584652215,0.00600000000122236
17,4,0.613956688020817,0.00300000000061118
17,5,6702.84872936029,0.00799999999799184
17,6,10523.1724519308,0.00900000000183354
17,7,5736.54030726266,0.00600000000122236
17,8,5.54841378630245,0.00499999999738066
17,9,11.5904283900808,0.00900000000183354
17,10,361.84204093797,0.00699999999778811
17,11,33.4723673141511,0.00600000000122236
17,12,187.618626393799,0.00999999999839929
17,13,4600.73376627801,0.00800000000162981
17,14,754.557397345867,0.00999999999839929
17,15,2.52640742494664,0.00600000000122236
17,16,5675.24423294278,0.00300000000061118
17,17,575.485297843796,0.00700000000142609
17,18,16013.7021548094,0.00799999999799184
17,19,6.51630191418082,0.00700000000142609
17,20,12604.9102382221,0.00499999999738066
17,21,181.497641459591,0.00600000000122236
17,22,0.196945088708453,0.00300000000061118
17,23,2.1641943242832,0.00500000000101863
17,24,243.766148149119,0.00599999999758438
17,25,476.77607947493,0.00500000000101863
17,26,19.709827443412,0.00899999999819556
17,27,351.807004471299,0.00700000000142609
17,28,23964.2161939212,0.0100000000020373
17,29,95.3594118967161,0.00799999999799184
17,30,10973.2865994453,0.00700000000142609
18,1,25.2941383239574,0.00499999999738066
18,2,237.469947725224,0.00600000000122236
18,3,878.374138359667,0.00600000000122236
18,4,1022.03460322869,0.00599999999758438
18,5,506.416803929525,0.00600000000122236
18,6,847.669572959981,0.00600000000122236
18,7,669.555004127273,0.00399999999717693
18,8,2.03466924902602,0.00700000000142609
18,9,5.4196133837198,0.00500000000101863
18,10,614.892574703258,0.00699999999778811
18,11,26702.0754120005,0.0150000000030559
18,12,1609.09645047579,0.00399999999717693
18,13,8982.37487409725,0.00600000000122236
18,14,67.1895226752649,0.00600000000122236
18,15,9066.75875622999,0.00699999999778811
18,16,456.565481518729,0.00500000000101863
18,17,2028.75446435612,0.00899999999819556
18,18,2281.53808750646,0.00700000000142609
18,19,3786.15853173826,0.00600000000122236
18,20,22.6374233707468,0.00499999999738066
18,21,2081.25263666838,0.00600000000122236
18,22,3.14084195588125,0.00500000000101863
18,23,841.552409871354,0.00599999999758438
18,24,102.530514139344,0.00600000000122236
18,25,0.732630324241147,0.00500000000101863
18,26,41.6137753320929,0.00599999999758438
18,27,1294.50183197807,0.00400000000081491
18,28,1143.80357898642,0.00700000000142609
18,29,2341.89075096668,0.00500000000101863
18,30,64.8265183323658,0.00899999999819556
19,1,1529.40449101567,0.00400000000081491
19,2,1243.6901652778,0.00500000000101863
19,3,3731.00127788029,0.00599999999758438
19,4,4012.18972105692,0.00600000000122236
19,5,2425.04013799065,0.00699999999778811
19,6,1000.77510957165,0.00500000000101863
19,7,26502.1973376694,0.00600000000122236
19,8,52.1710911735683,0.00600000000122236
19,9,306.37486550231,0.00599999999758438
19,10,10502.9198165874,0.00500000000101863
19,11,14322.5396036392,0.00600000000122236
19,12,2582.13546082751,0.00399999999717693
19,13,2947.8638889577,0.00600000000122236
19,14,561.199936471918,0.00999999999839929
19,15,0.521756239535153,0.00400000000081491
19,16,561.449981152384,0.00600000000122236
19,17,4051.87216164002,0.00300000000061118
19,18,34225.2357148639,0.00599999999758438
19,19,3014.03463556608,0.00400000000081491
19,20,138.116468378986,0.00400000000081491
19,21,22493.0699500232,0.00799999999799184
19,22,1387.40563798716,0.00400000000081491
19,23,2466.89133533747,0.00700000000142609
19,24,1398.06245755414,0.00500000000101863
19,25,10665.5251219313,0.00699999999778811
19,26,7556.74279009271,0.00700000000142609
19,27,290.880153946087,0.00899999999819556
19,28,11585.6958311238,0.00500000000101863
19,29,7168.3824847407,0.00400000000081491
19,30,1419.06570277129,0.00699999999778811
20,1,749.308797428728,0.0100000000020373
20,2,2841.05467019863,0.00500000000101863
20,3,15.533078945703,0.00699999999778811
20,4,75.3137248925957,0.00500000000101863
20,5,1565.74805947993,0.00599999999758438
20,6,2640.3585603668,0.00800000000162981
20,7,87.9287927440481,0.00600000000122236
20,8,522.848741492641,0.00499999999738066
20,9,16.0179401470499,0.00500000000101863
20,10,750.735821167265,0.00700000000142609
20,11,4799.36021112086,0.0129999999990105
20,12,402.968259900546,0.00800000000162981
20,13,1968.9295396134,0.00699999999778811
20,14,0.145947057715543,0.00500000000101863
20,15,5541.40351576552,0.00400000000081491
20,16,2230.07118042086,0.00799999999799184
20,17,114.928987480885,0.00300000000061118
20,18,0.893172487304694,0.00500000000101863
20,19,150.501236108749,0.00499999999738066
20,20,0.103444982800297,0.00600000000122236
20,21,4360.91061754063,0.00600000000122236
20,22,869.504400258272,0.00599999999758438
20,23,720.235922243285,0.00600000000122236
20,24,455.190578221937,0.00900000000183354
20,25,3986.93164525014,0.00499999999738066
20,26,1453.35156552459,0.00700000000142609
20,27,5371.40358940333,0.00400000000081491
20,28,862.965552927887,0.00899999999819556
20,29,4.71787185743072,0.00600000000122236
20,30,18.8828894986463,0.0139999999992142
21,1,115.374234814538,0.010999999998603
21,2,292.856754940983,0.00800000000162981
21,3,956.338630355651,0.00400000000081491
21,4,15.5823916230314,0.00500000000101863
21,5,5157.00676111959,0.00699999999778811
21,6,1681.83828871185,0.00600000000122236
21,7,283.840547268174,0.00500000000101863
21,8,701.256674680875,0.00799999999799184
21,9,216.311422103334,0.00500000000101863
21,10,2973.3089976299,0.00500000000101863
21,11,5962.05296731489,0.00999999999839929
21,12,1354.03963939573,0.00300000000061118
21,13,11738.5529382375,0.00799999999799184
21,14,1273.14949561939,0.00500000000101863
21,15,11035.5191788662,0.00500000000101863
21,16,0.329913132295146,0.00899999999819556
21,17,1.36709980726736,0.00400000000081491
21,18,0.0256746050317463,0.00500000000101863
21,19,4951.6624305199,0.00499999999738066
21,20,804.798879942759,0.00400000000081491
21,21,3036.76422358137,0.00600000000122236
21,22,0.0603059771798461,0.00599999999758438
21,23,680.435097934029,0.00700000000142609
21,24,80.8506685636959,0.00600000000122236
21,25,1532.22660483997,0.00599999999758438
21,26,533.383880607938,0.00800000000162981
21,27,0.321967571521466,0.0119999999988067
21,28,0.170741767755799,0.00600000000122236
21,29,0.508368935801139,0.00400000000081491
21,30,0.677996165071278,0.00699999999778811
22,1,948.822639536637,0.00600000000122236
22,2,0.358218473432,0.00500000000101863
22,3,0.557303124030736,0.00399999999717693
22,4,2592.45371220534,0.00500000000101863
22,5,709.961595904084,0.0100000000020373
22,6,11.4206420362519,0.00399999999717693
22,7,717.466792800578,0.00500000000101863
22,8,332.106332066889,0.00800000000162981
22,9,725.486805786817,0.00599999999758438
22,10,579.626802006948,0.00500000000101863
22,11,48.101823632156,0.0129999999990105
22,12,155.391388319358,0.00500000000101863
22,13,56.8359150297802,0.00500000000101863
22,14,12.2423079582834,0.00499999999738066
22,15,1.79399722415184,0.00800000000162981
22,16,1319.74945843292,0.00500000000101863
22,17,1673.52173843747,0.00699999999778811
22,18,4660.71477943768,0.00600000000122236
22,19,2104.42924156545,0.00600000000122236
22,20,12.7730945733759,0.00699999999778811
22,21,2525.46878061039,0.00400000000081491
22,22,470.965027371106,0.00600000000122236
22,23,158.976576152794,0.00999999999839929
22,24,505.311306215062,0.00800000000162981
22,25,2819.69878478956,0.00399999999717693
22,26,1139.35934105909,0.00500000000101863
22,27,334.657135928684,0.00600000000122236
22,28,6899.09447757803,0.00699999999778811
22,29,1591.50720757037,0.00400000000081491
22,30,3.4629972680417,0.00700000000142609
23,1,680.669315353545,0.00699999999778811
23,2,3734.86514166554,0.00700000000142609
23,3,1226.19008300422,0.00900000000183354
23,4,31.4440722195373,0.00599999999758438
23,5,178.525909937357,0.00700000000142609
23,6,819.651461668421,0.00699999999778811
23,7,101.511401368597,0.00800000000162981
23,8,0.602532203018056,0.00400000000081491
23,9,1066.9623545407,0.00799999999799184
23,10,1.05717763277935,0.00700000000142609
23,11,1396.53443733022,0.00400000000081491
23,12,1256.48703361836,0.00699999999778811
23,13,1942.36174380187,0.00700000000142609
23,14,1167.65922575455,0.00799999999799184
23,15,573.718273913782,0.00600000000122236
23,16,0.279248157826035,0.00600000000122236
23,17,2095.288803948,0.00599999999758438
23,18,3509.7901045882,0.011000000002241
23,19,3782.5645086802,0.00599999999758438
23,20,1836.6248364583,0.00500000000101863
23,21,206.183791081234,0.00800000000162981
23,22,589.355302019736,0.00699999999778811
23,23,174.010720295465,0.00600000000122236
23,24,691.372040366509,0.00600000000122236
23,25,12112.4227308509,0.00399999999717693
23,26,217.265313769084,0.00500000000101863
23,27,96.6379768799419,0.00600000000122236
23,28,7234.13759109833,0.00799999999799184
23,29,639.969034700309,0.00800000000162981
23,30,1052.05649111924,0.00499999999738066
24,1,0.640348082021521,0.00700000000142609
24,2,1.53685917529366,0.00600000000122236
24,3,0.0133228348109779,0.00499999999738066
24,4,148.411368189745,0.00600000000122236
24,5,1507.62936128921,0.00600000000122236
24,6,20238.2791616829,0.00500000000101863
24,7,62.7916492280873,0.00699999999778811
24,8,149.087082303846,0.00800000000162981
24,9,205.067969913958,0.00499999999738066
24,10,5468.99731805009,0.00400000000081491
24,11,38582.3481303946,0.0169999999998254
24,12,19.8257336665175,0.00600000000122236
24,13,4643.12193589447,0.00500000000101863
24,14,487.53694547831,0.00499999999738066
24,15,7193.4947395788,0.00900000000183354
24,16,554.736211318394,0.00500000000101863
24,17,0.417348769930758,0.00399999999717693
24,18,24.5438317175286,0.00700000000142609
24,19,837.923901303668,0.00500000000101863
24,20,131.761709549486,0.00599999999758438
24,21,379.869312181701,0.00600000000122236
24,22,3076.69815379096,0.00600000000122236
24,23,1585.89462037954,0.00599999999758438
24,24,5.59313915178688,0.00400000000081491
24,25,9686.15971516046,0.00700000000142609
24,26,320.794631051947,0.00599999999758438
24,27,3580.03020867242,0.00800000000162981
24,28,97.8799874823255,0.00600000000122236
24,29,1341.8289825673,0.00999999999839929
24,30,701.632024359815,0.00899999999819556
25,1,695.284073069445,0.00700000000142609
25,2,599.946885413263,0.00400000000081491
25,3,15.7569343088805,0.00400000000081491
25,4,4130.96617049479,0.00599999999758438
25,5,284.308972214741,0.00800000000162981
25,6,13671.4331809794,0.00500000000101863
25,7,577.655472126835,0.00399999999717693
25,8,360.497642482231,0.00500000000101863
25,9,238.065966519186,0.00400000000081491
25,10,1573.97407574649,0.00599999999758438
25,11,25.9690131812192,0.00900000000183354
25,12,138.471962480831,0.00600000000122236
25,13,742.040656509296,0.00599999999758438
25,14,63.0520661113299,0.00700000000142609
25,15,168.54871966478,0.00600000000122236
25,16,31.3051339611856,0.00499999999738066
25,17,4015.02850890335,0.00500000000101863
25,18,2993.35880772397,0.00700000000142609
25,19,1284.28324526058,0.00799999999799184
25,20,105.150600663149,0.00600000000122236
25,21,1.13393381432857,0.00599999999758438
25,22,72.4517326749885,0.00500000000101863
25,23,24.504627411348,0.00700000000142609
25,24,310.437317001774,0.00500000000101863
25,25,537.81700021717,0.00599999999758438
25,26,582.6497188935,0.00600000000122236
25,27,6726.62659852158,0.00500000000101863
25,28,12.6496125244294,0.00599999999758438
25,29,1.45302435053231,0.00500000000101863
25,30,3246.53358532649,0.00500000000101863
26,1,363.988247949509,0.00999999999839929
26,2,143.538611256539,0.00700000000142609
26,3,1770.94534363202,0.010999999998603
26,4,902.02978950286,0.00500000000101863
26,5,459.758961706851,0.00499999999738066
26,6,5377.5449805772,0.00600000000122236
26,7,481.608889421397,0.00400000000081491
26,8,0.709519628252871,0.00400000000081491
26,9,36.6943979479108,0.00399999999717693
26,10,2910.78122030409,0.00600000000122236
26,11,13090.3868465302,0.0129999999990105
26,12,1091.21374219022,0.00800000000162981
26,13,1162.3964085478,0.00799999999799184
26,14,7.59528754036797,0.00600000000122236
26,15,3902.83999041667,0.00400000000081491
26,16,1490.76659338671,0.00999999999839929
26,17,1.04914976990019,0.00500000000101863
26,18,0.0654240011258186,0.00800000000162981
26,19,73.9713564606031,0.00499999999738066
26,20,24.1038431926606,0.00600000000122236
26,21,1229.72037451652,0.00300000000061118
26,22,17.310138846827,0.00500000000101863
26,23,54.1198720809351,0.00500000000101863
26,24,88.8437293437929,0.00600000000122236
26,25,3.83880018194856,0.00500000000101863
26,26,1623.27919875286,0.00799999999799184
26,27,102.606376183486,0.00400000000081491
26,28,934.951195413198,0.00700000000142609
26,29,2007.72334927006,0.00599999999758438
26,30,3861.96651153993,0.00700000000142609
27,1,483.09568086538,0.00599999999758438
27,2,4842.50656589139,0.00800000000162981
27,3,273.887411856834,0.00500000000101863
27,4,61.4055153619837,0.00499999999738066
27,5,948.014528037339,0.00700000000142609
27,6,1858.55070670287,0.00600000000122236
27,7,673.665337668407,0.00399999999717693
27,8,4.07643735913275,0.00600000000122236
27,9,927.14351172155,0.00500000000101863
27,10,385.644948609938,0.00599999999758438
27,11,3324.6187738942,0.011000000002241
27,12,331.779828723774,0.00699999999778811
27,13,158.835527467646,0.00500000000101863
27,14,22.4125737498255,0.00600000000122236
27,15,1650.3038793704,0.00400000000081491
27,16,749.861044299666,0.00599999999758438
27,17,68.3015135953741,0.00600000000122236
27,18,30.5984082969377,0.00600000000122236
27,19,2041.82192996466,0.00599999999758438
27,20,2525.83869857869,0.00800000000162981
27,21,1792.64366245527,0.00599999999758438
27,22,283.511878137642,0.00600000000122236
27,23,834.070226033563,0.00600000000122236
27,24,1992.70647516438,0.00799999999799184
27,25,95.3051350854991,0.00600000000122236
27,26,572.578011146175,0.00400000000081491
27,27,138.349819969548,0.00999999999839929
27,28,3484.03672673175,0.00500000000101863
27,29,0.0370201169934346,0.00599999999758438
27,30,1365.98836045114,0.00700000000142609
28,1,1465.14191350587,0.00700000000142609
28,2,266.706779024823,0.00399999999717693
28,3,1278.09227470359,0.00600000000122236
28,4,1955.08058796269,0.00800000000162981
28,5,2.97992190002323,0.00499999999738066
28,6,0.157405445570175,0.00600000000122236
28,7,577.931411062402,0.00400000000081491
28,8,52.5793591825187,0.00599999999758438
28,9,8.39130285140737,0.00500000000101863
28,10,884.232495641172,0.00600000000122236
28,11,317.876266728555,0.00799999999799184
28,12,206.190801206528,0.00500000000101863
28,13,1079.66924748397,0.00600000000122236
28,14,539.617969347549,0.00599999999758438
28,15,130.53095876293,0.00900000000183354
28,16,1000.0841629152,0.00500000000101863
28,17,1434.11249176782,0.00499999999738066
28,18,1687.47386591491,0.00800000000162981
28,19,36.8353466554122,0.00600000000122236
28,20,662.358496637661,0.00399999999717693
28,21,4.42362222306921,0.0100000000020373
28,22,2798.91893887846,0.00400000000081491
28,23,751.537832411806,0.00599999999758438
28,24,310.176763291757,0.00700000000142609
28,25,322.167207696418,0.00500000000101863
28,26,624.245108257246,0.00399999999717693
28,27,38.3718210621679,0.00400000000081491
28,28,5178.34645604292,0.00400000000081491
28,29,98.9179342538565,0.00499999999738066
28,30,9.16200759973852,0.00500000000101863
29,1,221.734776451571,0.00800000000162981
29,2,246.488658043021,0.00799999999799184
29,3,630.182110905576,0.00500000000101863
29,4,1043.98992588472,0.00600000000122236
29,5,323.154134617805,0.00999999999839929
29,6,3324.68663492404,0.00800000000162981
29,7,80.8480892909497,0.00499999999738066
29,8,161.889613467088,0.00700000000142609
29,9,11.4787701588793,0.00700000000142609
29,10,2315.90755591298,0.00499999999738066
29,11,4.23331198794333,0.00600000000122236
29,12,12.7500655257918,0.00400000000081491
29,13,824.029011576778,0.00799999999799184
29,14,66.5880131123148,0.00600000000122236
29,15,913.290083762864,0.00400000000081491
29,16,53.4126437628709,0.00799999999799184
29,17,2.58105976680534,0.00600000000122236
29,18,1427.70129454263,0.00600000000122236
29,19,2003.33409598177,0.00699999999778811
29,20,4171.06950117962,0.00600000000122236
29,21,327.515476243889,0.00799999999799184
29,22,10.7344140295088,0.00600000000122236
29,23,678.28081583537,0.00600000000122236
29,24,2.67269600965997,0.00599999999758438
29,25,5.02118884355571,0.00700000000142609
29,26,7.84999043249481,0.00500000000101863
29,27,3041.93789908178,0.00599999999758438
29,28,4.14079651159575,0.00600000000122236
29,29,86.6002134520783,0.00600000000122236
29,30,83.9839774785313,0.00999999999839929
30,1,20046.1502560838,0.00700000000142609
30,2,20099.1910499222,0.00799999999799184
30,3,4716.69271601819,0.00800000000162981
30,4,19061.2692823996,0.00500000000101863
30,5,235.047574963605,0.00399999999717693
30,6,36.0798044930994,0.00500000000101863
30,7,13038.1719000628,0.00700000000142609
30,8,1639.15422324313,0.0029999999969732
30,9,9200.30651713696,0.00700000000142609
30,10,4539.17978628325,0.00400000000081491
30,11,132.179409029892,0.00799999999799184
30,12,1799.16187592339,0.00600000000122236
30,13,5491.17716963589,0.00700000000142609
30,14,11719.354611952,0.00699999999778811
30,15,747.101308878397,0.0120000000024447
30,16,10256.7327271827,0.00599999999758438
30,17,3690.7607518353,0.00600000000122236
30,18,42295.9865994703,0.00500000000101863
30,19,249.512324969122,0.00499999999738066
30,20,3004.28114844755,0.00700000000142609
30,21,3339.54137837272,0.00600000000122236
30,22,14938.8136522157,0.00499999999738066
30,23,907.740689093059,0.00700000000142609
30,24,5216.94709758571,0.00500000000101863
30,25,1.97379180017194,0.00499999999738066
30,26,21867.2646231343,0.00500000000101863
30,27,9.03952355683193,0.00300000000061118
30,28,15537.053394986,0.00600000000122236
30,29,6274.36148259844,0.00499999999738066
30,30,18868.351824635,0.00800000000162981
