"Before.Trace.ID1","Before.Trace.ID2","Difference","Runtime"
1,2,731.977621832396,0
1,3,3814.60702675334,0.00100000000384171
1,4,26133.8478621835,0.000999999996565748
1,5,2390.75980025166,0
1,6,2810.17098925012,0.00100000000384171
1,7,5129.53078410817,0.000999999996565748
1,8,2359.2023191417,0
1,9,3818.14885681277,0.000999999996565748
1,10,1436.87608914313,0.00100000000384171
1,11,5846.02128500429,0
1,12,25759.6967372357,0.000999999996565748
1,13,1079.28985911752,0.00100000000384171
1,14,21141.7269377541,0
1,15,4467.45305210602,0.000999999996565748
1,16,617.242599951557,0
1,17,3268.17776838042,0
1,18,4398.21979361252,0.000999999996565748
1,19,15431.1948965297,0
1,20,3722.73238629593,0.00100000000384171
1,21,4482.47048794662,0.000999999996565748
1,22,6361.6094096118,0
1,23,2701.29778005536,0.00100000000384171
1,24,4104.57346261418,0.000999999996565748
1,25,5730.77968680178,0
1,26,5174.06790233945,0.00100000000384171
1,27,26378.0613013067,0.000999999996565748
1,28,3028.58656372486,0
1,29,1968.64305818632,0.00100000000384171
1,30,5520.04423425141,0.000999999996565748
2,3,3264.5070128662,0
2,4,25719.3232679284,0.00100000000384171
2,5,1801.43494398784,0
2,6,2242.06498780339,0
2,7,4621.97013035043,0.000999999996565748
2,8,1777.20256001398,0
2,9,3205.99262834031,0.00100000000384171
2,10,908.684046917782,0.000999999996565748
2,11,5403.02600357985,0
2,12,25334.3304822014,0.00100000000384171
2,13,538.692585386935,0.000999999996565748
2,14,20686.0668085909,0
2,15,3995.8037783211,0.00100000000384171
2,16,945.25336987237,0.000999999996565748
2,17,2831.28250871223,0
2,18,3846.08576279488,0.00100000000384171
2,19,14894.3138465766,0
2,20,3147.2003536877,0
2,21,3877.87389379962,0.00100000000384171
2,22,5886.47531356609,0
2,23,2095.61209359015,0.000999999996565748
2,24,3486.63973447516,0.00100000000384171
2,25,5208.79137214972,0
2,26,4608.89816322551,0.000999999996565748
2,27,26020.5210333788,0.00100000000384171
2,28,2409.78279072664,0
2,29,1905.17596370216,0.000999999996565748
2,30,4930.63684676736,0.00100000000384171
3,4,23817.2936792783,0
3,5,1565.09912808689,0.000999999996565748
3,6,2811.30184052562,0.000999999996565748
3,7,4402.59585895507,0
3,8,1575.26645557126,0.00100000000384171
3,9,2045.53597080309,0
3,10,3093.04176980461,0.000999999996565748
3,11,5386.5565016621,0.00100000000384171
3,12,23258.1762837421,0
3,13,3135.01108443905,0.000999999996565748
3,14,18772.8551076283,0.00100000000384171
3,15,4154.10653517384,0
3,16,4069.28206484329,0.000999999996565748
3,17,3725.90897708929,0.00100000000384171
3,18,3420.57032582752,0
3,19,12238.504710873,0.000999999996565748
3,20,2844.03142829685,0.00100000000384171
3,21,1965.84871236199,0
3,22,5559.7667829336,0.000999999996565748
3,23,2244.21786471619,0
3,24,1567.5382356648,0
3,25,4685.4613133434,0.000999999996565748
3,26,1587.41631959804,0
3,27,24408.2960903562,0.00100000000384171
3,28,2242.98864135629,0.000999999996565748
3,29,3196.64563020421,0
3,30,3347.50722432531,0.00100000000384171
4,5,24656.7965486435,0.000999999996565748
4,6,24427.6303535482,0
4,7,23149.3618600088,0.00100000000384171
4,8,24682.4345655275,0.000999999996565748
4,9,23668.3516310396,0
4,10,25408.4216843742,0.000999999996565748
4,11,23119.4254683371,0
4,12,4550.22519467271,0
4,13,25494.366827222,0.000999999996565748
4,14,7608.33627373336,0
4,15,23645.9348159537,0.00100000000384171
4,16,26325.445431411,0.000999999996565748
4,17,24462.9642030597,0
4,18,23421.0892801469,0.00100000000384171
4,19,15227.8196609671,0.000999999996565748
4,20,23847.3958794815,0
4,21,23164.8619817713,0.00100000000384171
4,22,22568.2534339028,0.000999999996565748
4,23,24380.0850233984,0
4,24,23420.3294647768,0.00100000000384171
4,25,22709.4260211951,0.000999999996565748
4,26,22916.0234727529,0
4,27,5668.08201004102,0.00100000000384171
4,28,24188.363554982,0.000999999996565748
4,29,25933.1864387461,0
4,30,22548.3117287869,0.00699999999778811
5,6,1857.95205198242,0.00100000000384171
5,7,4087.00300060543,0
5,8,259.780240153843,0
5,9,1949.34687697324,0.00100000000384171
5,10,1657.12346040864,0
5,11,5034.44939611875,0.000999999996565748
5,12,24188.3164103374,0.00100000000384171
5,13,1657.24716644355,0
5,14,19610.4948220379,0.000999999996565748
5,15,3622.95495994905,0
5,16,2655.90997075812,0
5,17,2808.03814402616,0.000999999996565748
5,18,3107.95144872591,0
5,19,13439.667136735,0.00100000000384171
5,20,2367.931499483,0.000999999996565748
5,21,2411.93151942333,0
5,22,5376.20286527248,0.00100000000384171
5,23,1288.7920066839,0
5,24,1990.49422848333,0
5,25,4551.41223613126,0.00100000000384171
5,26,2920.65496428846,0
5,27,25108.0785753718,0.000999999996565748
5,28,1527.78848861561,0.00100000000384171
5,29,2253.01825924303,0
5,30,3699.02006851921,0.000999999996565748
6,7,2503.76802569827,0.000999999996565748
6,8,1999.42611586985,0
6,9,1454.01909633584,0.00100000000384171
6,10,1458.16766489703,0
6,11,3361.00266502767,0.000999999996565748
6,12,23984.7263564648,0.00100000000384171
6,13,1835.37076263916,0
6,14,19238.475197314,0.000999999996565748
6,15,1928.98680969897,0
6,16,3032.91025306866,0
6,17,1041.93430568559,0.000999999996565748
6,18,1689.42402783725,0
6,19,13348.2691127145,0.00100000000384171
6,20,1021.56055398011,0.000999999996565748
6,21,2212.17793054293,0
6,22,3804.12342090734,0.00100000000384171
6,23,717.870203188763,0
6,24,2024.54465445595,0
6,25,3077.35099433956,0.00100000000384171
6,26,3625.09902313901,0
6,27,24894.0520046796,0.000999999996565748
6,28,711.28899779529,0.00100000000384171
6,29,3694.76868916875,0
6,30,2906.58301220931,0.000999999996565748
7,8,4227.46840096776,0.00100000000384171
7,9,2487.60536425852,0
7,10,3833.63412863174,0.000999999996565748
7,11,1101.673452468,0
7,12,22713.2884218087,0.000999999996565748
7,13,4213.37184598316,0.00100000000384171
7,14,17788.2145831068,0
7,15,832.059862354648,0.000999999996565748
7,16,5315.92943543329,0.00100000000384171
7,17,2059.15324253522,0
7,18,1095.49722220252,0.000999999996565748
7,19,12191.185788465,0
7,20,1830.6280306228,0
7,21,2756.85479372055,0.000999999996565748
7,22,1420.08824043709,0
7,23,2938.07537439673,0.00100000000384171
7,24,2964.78187341362,0.000999999996565748
7,25,797.088733347241,0
7,26,4463.21269784017,0.00100000000384171
7,27,23713.8147528214,0.000999999996565748
7,28,2657.73672743662,0
7,29,6067.06227042743,0.00100000000384171
7,30,2021.60273545522,0.000999999996565748
8,9,2086.29971487501,0
8,10,1707.67054118299,0.00100000000384171
8,11,5171.33398012545,0.000999999996565748
8,12,24218.1786556131,0
8,13,1668.11660792512,0.00100000000384171
8,14,19650.638242706,0
8,15,3762.89906374768,0
8,16,2602.96030095676,0.00100000000384171
8,17,2937.10626668257,0
8,18,3249.66861847701,0.000999999996565748
8,19,13495.2548401334,0.000999999996565748
8,20,2517.4591725439,0
8,21,2534.36814109408,0.00100000000384171
8,22,5510.00868229127,0.000999999996565748
8,23,1431.45369713589,0
8,24,2098.68284564006,0.00100000000384171
8,25,4688.38812896329,0.000999999996565748
8,26,2964.08273247068,0
8,27,25123.2974820632,0.00100000000384171
8,28,1661.32440017597,0
8,29,2117.75311591408,0
8,30,3827.83783852269,0.00100000000384171
9,10,2567.05968308119,0
9,11,3463.39965694062,0.000999999996565748
9,12,23128.4917102204,0.00100000000384171
9,13,2867.10776281096,0
9,14,18460.7814395785,0.000999999996565748
9,15,2240.90268398574,0.00100000000384171
9,16,4070.01972401512,0
9,17,2100.00335076897,0.000999999996565748
9,18,1461.80537632999,0.00100000000384171
9,19,12204.2841215795,0
9,20,924.316766292709,0.000999999996565748
9,21,837.919760108794,0
9,22,3709.13161691888,0
9,23,1237.33696923607,0.000999999996565748
9,24,732.146004824471,0
9,25,2835.51537827277,0.000999999996565748
9,26,2448.98718464461,0.00100000000384171
9,27,24277.7928657277,0
9,28,946.864409113527,0.000999999996565748
9,29,4132.2450340544,0.00100000000384171
9,30,1830.50713105222,0
10,11,4593.079484007,0.000999999996565748
10,12,24976.4234162524,0.00100000000384171
10,13,557.054933537339,0
10,14,20300.7469147797,0.000999999996565748
10,15,3185.33609823057,0
10,16,1666.21013952191,0
10,17,2014.14459322909,0.000999999996565748
10,18,3068.04170219742,0
10,19,14432.2715062643,0.00100000000384171
10,20,2381.81278888362,0.000999999996565748
10,21,3294.80236787217,0
10,22,5100.59985200029,0.00100000000384171
10,23,1435.84219475843,0.000999999996565748
10,24,2967.07610929577,0
10,25,4430.74786316355,0.00100000000384171
10,26,4287.32259721927,0.000999999996565748
10,27,25788.9851135098,0
10,28,1729.23061866033,0.00100000000384171
10,29,2635.56426261557,0
10,30,4226.79223203496,0
11,12,22673.8810245708,0.000999999996565748
11,13,4994.91674293031,0
11,14,17707.9621092782,0.00100000000384171
11,15,1531.77900374423,0.000999999996565748
11,16,6019.84510630073,0
11,17,2701.53998192121,0.00100000000384171
11,18,2094.98382772747,0.000999999996565748
11,19,12357.5280475829,0
11,20,2782.19111822514,0.00100000000384171
11,21,3712.29866705979,0.000999999996565748
11,22,846.445764907039,0
11,23,3853.88421572384,0.00100000000384171
11,24,3949.98076184251,0.000999999996565748
11,25,1090.54774798238,0
11,26,5395.91829883205,0.00100000000384171
11,27,23714.6392320829,0
11,28,3588.12781879843,0
11,29,6956.12798517932,0.00100000000384171
11,30,2816.37025622108,0
12,13,25105.2199711292,0.000999999996565748
12,14,8470.38845496408,0.00100000000384171
12,15,23210.4504141302,0
12,16,25984.7824044786,0.000999999996565748
12,17,24042.2838654447,0.00100000000384171
12,18,22939.9226853784,0
12,19,13658.5366376585,0.000999999996565748
12,20,23353.5770515345,0.00100000000384171
12,21,22590.7314146608,0
12,22,22141.3755471057,0.000999999996565748
12,23,23913.2978223524,0.000999999996565748
12,24,22867.5104996461,0
12,25,22249.7144521963,0.00100000000384171
12,26,22247.3427922498,0
12,27,9627.46613085025,0
12,28,23708.1225529845,0.00100000000384171
12,29,25547.4324815794,0
12,30,21960.144762796,0.000999999996565748
13,14,20447.6603279184,0.00100000000384171
13,15,3567.51521342743,0
13,16,1339.5900767915,0.000999999996565748
13,17,2395.78306714513,0.00100000000384171
13,18,3435.98486776238,0
13,19,14645.2295030681,0.000999999996565748
13,20,2747.44554490718,0.00100000000384171
13,21,3548.05125805129,0
13,22,5489.24320688292,0
13,23,1718.22394656783,0.000999999996565748
13,24,3199.0198173853,0
13,25,4817.75966297499,0
13,26,4401.32663030937,0.000999999996565748
13,27,25807.4853029971,0
13,28,2056.1655054857,0.00100000000384171
13,29,2274.37257107788,0.000999999996565748
13,30,4549.79781840618,0
14,15,18366.5426994178,0.00100000000384171
14,16,21316.9783740889,0.000999999996565748
14,17,19255.8357418772,0
14,18,18135.871828261,0.00100000000384171
14,19,10370.0374661426,0
14,20,18599.9478429753,0.000999999996565748
14,21,17984.6543439716,0.00100000000384171
14,22,17071.615788139,0
14,23,19257.5538288085,0.000999999996565748
14,24,18203.0541513998,0.00100000000384171
14,25,17255.1104344285,0
14,26,17868.600635626,0.000999999996565748
14,27,9359.73459538792,0
14,28,18988.7486708883,0.00100000000384171
14,29,21023.7269697524,0.000999999996565748
14,30,17248.166859543,0
15,16,4670.47985289441,0.00100000000384171
15,17,1330.65341719474,0.000999999996565748
15,18,945.690703096534,0
15,19,12736.4841970648,0.00100000000384171
15,20,1434.91120497899,0
15,21,2670.20452437088,0.000999999996565748
15,22,2077.68619872344,0.000999999996565748
15,23,2419.46708245678,0
15,24,2829.08525169372,0.00100000000384171
15,25,1546.00756817135,0
15,26,4406.46979579353,0
15,27,24160.6139477006,0.00100000000384171
15,28,2224.33086951124,0
15,29,5538.13195714041,0.000999999996565748
15,30,2309.32219905802,0.00100000000384171
16,17,3454.2661999665,0
16,18,4623.26465793907,0.000999999996565748
16,19,15664.1324370253,0.00100000000384171
16,20,3958.88907116732,0
16,21,4756.21010664458,0.000999999996565748
16,22,6530.99831077701,0
16,23,2966.62207749001,0.00100000000384171
16,24,4351.83645205647,0.000999999996565748
16,25,5917.10830299503,0
16,26,5434.68133184991,0.00100000000384171
16,27,26557.7638950746,0.000999999996565748
16,28,3253.8338405446,0
16,29,2026.35944282645,0.00100000000384171
16,30,5778.5448272964,0
17,18,1605.07848279649,0.000999999996565748
17,19,13569.9679923074,0.00100000000384171
17,20,1334.83233415201,0
17,21,2779.82216685234,0.000999999996565748
17,22,3275.18552853528,0.000999999996565748
17,23,1644.18787093609,0
17,24,2740.94268803078,0.00100000000384171
17,25,2729.05294323334,0
17,26,4358.46322131077,0
17,27,24906.6930497746,0.00100000000384171
17,28,1607.81451355702,0
17,29,4492.81367561155,0.000999999996565748
17,30,3065.22576037423,0.00100000000384171
18,19,12247.6520319042,0
18,20,824.955027180602,0.000999999996565748
18,21,1836.09657429323,0.00100000000384171
18,22,2407.11527653729,0
18,23,1978.60790249357,0.000999999996565748
18,24,2004.41572808627,0.00100000000384171
18,25,1590.16438485817,0
18,26,3603.85863950855,0.000999999996565748
18,27,23989.8166303678,0.00100000000384171
18,28,1698.62998977051,0
18,29,5165.69032859668,0.000999999996565748
18,30,1577.44819416285,0
19,20,12590.9715759118,0
19,21,11554.7870738378,0.000999999996565748
19,22,11787.4677850147,0
19,23,13233.7758130313,0.00100000000384171
19,24,11812.0481015677,0.000999999996565748
19,25,11667.2587674415,0
19,26,10946.5829008667,0.00100000000384171
19,27,17706.6438902485,0.000999999996565748
19,28,12946.4553824355,0
19,29,15070.3962743054,0.000999999996565748
19,30,10955.9284334013,0.00100000000384171
20,21,1576.97733681787,0
20,22,3139.59949357062,0.000999999996565748
20,23,1239.47214312977,0
20,24,1583.07774577796,0
20,25,2327.71907596387,0.000999999996565748
20,26,3277.08076538448,0
20,27,24408.9573252187,0.00100000000384171
20,28,969.679310726756,0.000999999996565748
20,29,4428.69683018027,0
20,30,1971.9923848387,0.00100000000384171
21,22,3843.37738021996,0.000999999996565748
21,23,1949.89942021538,0
21,24,640.615154074046,0.00100000000384171
21,25,2966.87168576596,0
21,26,1887.24119158917,0
21,27,23834.0477558712,0.00100000000384171
21,28,1723.07831414924,0
21,29,4596.77043941442,0.000999999996565748
21,30,1459.88821024076,0.00100000000384171
22,23,4254.64226461341,0
22,24,4091.59946671292,0.000999999996565748
22,25,941.999734368814,0.00100000000384171
22,26,5439.08823267302,0
22,27,23196.4998534635,0.000999999996565748
22,28,3938.10286119378,0.000999999996565748
22,29,7337.10330994314,0
22,30,2791.61697630446,0.00100000000384171
23,24,1693.60197258444,0
23,25,3466.16389582329,0
23,26,3173.53215242389,0.00100000000384171
23,27,24848.7309756015,0
23,28,506.955444200872,0.000999999996565748
23,29,3281.44500491781,0.00100000000384171
23,30,2910.62159831688,0
24,25,3205.15010630107,0.000999999996565748
24,26,1868.09194380454,0.00100000000384171
24,27,24055.3969393847,0
24,28,1432.71409781537,0.000999999996565748
24,29,4116.2772217938,0.00100000000384171
24,30,1908.29301214546,0
25,26,4592.74849886646,0.000999999996565748
25,27,23349.5429217207,0
25,28,3130.25996095259,0
25,29,6568.73302021897,0.000999999996565748
25,30,1982.52756627243,0
26,27,23672.2078991382,0.00100000000384171
26,28,3067.97895728038,0.000999999996565748
26,29,4653.16156457852,0
26,30,2906.91825700079,0.00100000000384171
27,28,24701.7721336979,0.000999999996565748
27,29,26210.5291958682,0
27,30,23278.7743201691,0.000999999996565748
28,29,3557.62247951256,0.00100000000384171
28,30,2607.41125258175,0
29,30,5884.83798296563,0.000999999996565748


"After.Trace.ID","Before.Trace.ID","Difference","Runtime"
1,1,16381.6634806155,0.00100000000384171
1,2,15903.8468053796,0.000999999996565748
1,3,14186.9405906336,0
1,4,13152.6399797048,0.00100000000384171
1,5,14880.3526552849,0.000999999996565748
1,6,14193.0421022096,0
1,7,12418.335981114,0.00100000000384171
1,8,14950.2749565643,0.000999999996565748
1,9,13466.4746271607,0
1,10,15381.1313297668,0.000999999996565748
1,11,12191.8416038015,0.00100000000384171
1,12,13235.9280326296,0
1,13,15607.8458836346,0.000999999996565748
1,14,6611.53714142204,0
1,15,13052.6068044932,0
1,16,16578.0370468228,0.000999999996565748
1,17,14080.7477532506,0
1,18,12911.0256835451,0.00100000000384171
1,19,8414.66497008289,0.000999999996565748
1,20,13477.4909197171,0
1,21,13044.30244118,0.00100000000384171
1,22,11526.4322131907,0.000999999996565748
1,23,14306.7054673876,0
1,24,13312.8792042014,0.00100000000384171
1,25,11827.7435953401,0.000999999996565748
1,26,13306.6219495472,0
1,27,14134.5668336382,0.00100000000384171
1,28,14000.7945457329,0.000999999996565748
1,29,16563.6734961516,0
1,30,12068.6693370444,0.00100000000384171
2,1,15797.6644528424,0
2,2,15286.8482794213,0
2,3,13197.1746475211,0.00100000000384171
2,4,13446.3342656339,0.0059999999939464
2,5,14086.1621099865,0
2,6,13548.1732738222,0.000999999996565748
2,7,11866.1524026106,0.00100000000384171
2,8,14156.1932502178,0
2,9,12649.7452344452,0.000999999996565748
2,10,14754.2895241617,0
2,11,11744.4463663144,0.00100000000384171
2,12,12882.3112590663,0.000999999996565748
2,13,14989.9416287923,0
2,14,7104.87055924367,0.00100000000384171
2,15,12508.3198006333,0.000999999996565748
2,16,16018.4600916591,0
2,17,13530.8576559835,0.00100000000384171
2,18,12247.5516274811,0
2,19,5692.00119903246,0
2,20,12778.5621088092,0.00100000000384171
2,21,12129.3988295467,0
2,22,11072.5360222382,0.000999999996565748
2,23,13594.8074500041,0.00100000000384171
2,24,12413.2135032502,0
2,25,11257.6398237036,0.000999999996565748
2,26,12132.1466470253,0
2,27,15023.1908215129,0
2,28,13280.7727139528,0.00100000000384171
2,29,15828.2689314731,0
2,30,11199.7778627321,0.000999999996565748
3,1,30204.9501876632,0.00100000000384171
3,2,29826.0435197278,0
3,3,28093.5899080763,0.000999999996565748
3,4,6031.3378469924,0.00100000000384171
3,5,28851.3286672893,0
3,6,28616.6144723017,0.000999999996565748
3,7,27346.5047630685,0
3,8,28872.9667458694,0.00100000000384171
3,9,27944.822275003,0.000999999996565748
3,10,29561.9047122451,0
3,11,27313.34545794,0.00100000000384171
3,12,9837.17950772225,0.000999999996565748
3,13,29603.4678313311,0
3,14,11846.3649355073,0.00100000000384171
3,15,27823.3613520064,0
3,16,30391.9155810552,0
3,17,28623.4404280739,0.00100000000384171
3,18,27645.0568735776,0
3,19,20263.6775370925,0.000999999996565748
3,20,28085.5149744091,0.00100000000384171
3,21,27468.4266248511,0
3,22,26770.695992131,0.000999999996565748
3,23,28574.926239181,0
3,24,27714.501538174,0
3,25,26944.9616671297,0.00100000000384171
3,26,27275.8534031377,0
3,27,4415.59536114437,0.000999999996565748
3,28,28413.0177085227,0.00100000000384171
3,29,30029.1763731778,0
3,30,26861.935490516,0.000999999996565748
4,1,5358.41864420902,0.00100000000384171
4,2,4849.75359036341,0
4,3,4408.90705384086,0.000999999996565748
4,4,22984.857467819,0
4,5,4197.01952520026,0.00100000000384171
4,6,2688.22306236255,0.000999999996565748
4,7,595.439350382581,0
4,8,4344.62349309203,0.00100000000384171
4,9,2497.85907517739,0.000999999996565748
4,10,4044.31152513906,0
4,11,1200.09805177852,0.00100000000384171
4,12,22495.6943866711,0.000999999996565748
4,13,4430.67888275582,0
4,14,17614.331372959,0.00100000000384171
4,15,1072.64293825834,0.000999999996565748
4,16,5583.34256091249,0
4,17,2305.16049472541,0.00100000000384171
4,18,1169.42091277939,0.000999999996565748
4,19,11901.6866317186,0
4,20,1908.82268688836,0.00100000000384171
4,21,2658.09959416284,0
4,22,1445.33653417881,0
4,23,3063.51825715587,0.000999999996565748
4,24,2944.25126321801,0
4,25,801.431692779304,0.00100000000384171
4,26,4353.73382507323,0.000999999996565748
4,27,23615.1224521537,0
4,28,2790.54046310725,0.00100000000384171
4,29,6246.30162782318,0.000999999996565748
4,30,1775.99263254057,0
5,1,2698.2569291861,0.00100000000384171
5,2,2133.11212501253,0.000999999996565748
5,3,1265.99825094568,0
5,4,24500.1265067059,0.00100000000384171
5,5,616.405325789464,0.000999999996565748
5,6,2107.79010050045,0
5,7,4190.10915540387,0.00100000000384171
5,8,604.849528446604,0
5,9,1982.02224976439,0
5,10,2002.87631454805,0.00100000000384171
5,11,5137.82260539334,0
5,12,23992.819416147,0.000999999996565748
5,13,2038.62265021969,0.00100000000384171
5,14,19391.8059109507,0
5,15,3792.08880025118,0.000999999996565748
5,16,2940.8556304896,0.00100000000384171
5,17,3070.36615318482,0
5,18,3218.87755580567,0.000999999996565748
5,19,13132.8407029225,0.000999999996565748
5,20,2510.99501562279,0
5,21,2358.49890569935,0.00100000000384171
5,22,5424.31273349712,0
5,23,1573.04254720241,0
5,24,1860.46255001392,0.00100000000384171
5,25,4588.87467105288,0
5,26,2668.34336785162,0.000999999996565748
5,27,25001.2660283646,0.00100000000384171
5,28,1675.18323467428,0
5,29,2354.78653205516,0.000999999996565748
5,30,3662.47090307983,0.00100000000384171
6,1,22104.9281371891,0
6,2,21634.4094723618,0.000999999996565748
6,3,19533.3240792224,0.00100000000384171
6,4,7553.79929238208,0
6,5,20452.7073814659,0.000999999996565748
6,6,20076.6114843068,0.00100000000384171
6,7,18554.7451121514,0
6,8,20504.5101622635,0.000999999996565748
6,9,19205.5122046021,0
6,10,21196.2769443392,0
6,11,18457.2334828944,0.000999999996565748
6,12,7577.36783072957,0
6,13,21365.5476061887,0.00100000000384171
6,14,2735.66295117518,0.000999999996565748
6,15,19141.2010387724,0
6,16,22326.0163985186,0.00100000000384171
6,17,20087.4760345501,0.000999999996565748
6,18,18885.9071513444,0
6,19,10022.4170233422,0.000999999996565748
6,20,19369.2437276178,0.00100000000384171
6,21,18667.5130907883,0
6,22,17825.6678003705,0.000999999996565748
6,23,20073.2487215406,0.00100000000384171
6,24,18939.5087382056,0
6,25,18005.2084429464,0.000999999996565748
6,26,18496.249364099,0
6,27,9973.90557234045,0
6,28,19807.5940818375,0.000999999996565748
6,29,21994.2860489316,0
6,30,17874.5815858385,0.00100000000384171
7,1,21855.7317792305,0.000999999996565748
7,2,21396.7843148035,0
7,3,19374.3515840237,0.00100000000384171
7,4,6554.94201782709,0.000999999996565748
7,5,20273.399021356,0
7,6,19986.180903198,0.00100000000384171
7,7,18612.4513646149,0.000999999996565748
7,8,20308.5896005421,0
7,9,19164.9380518804,0.00100000000384171
7,10,21030.4428862249,0.000999999996565748
7,11,18575.6076880059,0
7,12,7204.92573739051,0.00100000000384171
7,13,21169.7688650532,0
7,14,1905.07611972824,0
7,15,19177.5642413277,0.000999999996565748
7,16,22031.706905513,0
7,17,20044.2624580694,0.00100000000384171
7,18,18913.0631891378,0.000999999996565748
7,19,10300.1275137056,0
7,20,19350.6000579492,0.00100000000384171
7,21,18661.3208522165,0.000999999996565748
7,22,17948.054639569,0
7,23,19975.0882723409,0.00100000000384171
7,24,18879.2174459984,0.000999999996565748
7,25,18089.3122866885,0
7,26,18427.3791231224,0.00100000000384171
7,27,9120.63442527817,0.000999999996565748
7,28,19713.7008925281,0
7,29,21654.1362164939,0.00100000000384171
7,30,17979.4196001342,0
8,1,5125.03096589401,0
8,2,4611.68036975085,0.00100000000384171
8,3,4207.85386424373,0.00600000000122236
8,4,23000.4523757273,0
8,5,3974.23220307106,0.000999999996565748
8,6,2478.71489979962,0.00100000000384171
8,7,710.567663444058,0
8,8,4114.42081752687,0.000999999996565748
8,9,2340.07812925922,0
8,10,3822.37515386139,0
8,11,1422.37018325625,0.000999999996565748
8,12,22541.2227621064,0
8,13,4197.52762417678,0.00100000000384171
8,14,17634.761508852,0.000999999996565748
8,15,1015.26055237503,0
8,16,5340.23332268125,0.00100000000384171
8,17,2143.9073975317,0
8,18,1071.27269386673,0
8,19,11958.6006398773,0.00100000000384171
8,20,1745.21513462386,0
8,21,2549.36265019331,0.000999999996565748
8,22,1641.32537420704,0.00100000000384171
8,23,2844.68639361797,0
8,24,2775.96230329065,0.000999999996565748
8,25,1003.90113933036,0.00100000000384171
8,26,4225.20491942928,0
8,27,23584.0208308359,0.000999999996565748
8,28,2569.60320327662,0
8,29,5989.18772161748,0.00100000000384171
8,30,1824.29886936295,0.000999999996565748
9,1,11186.8995312662,0
9,2,10623.2751287729,0.000999999996565748
9,3,8245.90790150573,0.00100000000384171
9,4,17934.0074669366,0
9,5,9254.05163196089,0.000999999996565748
9,6,8805.03511842226,0
9,7,7280.61214699886,0.00100000000384171
9,8,9337.07620026289,0.000999999996565748
9,9,7717.49174122705,0
9,10,10049.8055932287,0.00100000000384171
9,11,7388.80833323488,0.000999999996565748
9,12,17132.48006514,0
9,13,10318.5794202568,0.00100000000384171
9,14,12208.9823201679,0
9,15,7920.29590132215,0
9,16,11417.2460059083,0.00100000000384171
9,17,8905.07901645219,0
9,18,7490.71982821064,0.000999999996565748
9,19,5593.05369796987,0.00100000000384171
9,20,7969.92356630979,0
9,21,7120.65981583724,0.000999999996565748
9,22,6746.4199059762,0.00100000000384171
9,23,8801.36267573584,0
9,24,7421.98834719305,0.000999999996565748
9,25,6682.8456772664,0
9,26,7054.93428901344,0.00100000000384171
9,27,19277.8898853943,0.000999999996565748
9,28,8461.3901810364,0
9,29,11150.1925642002,0.000999999996565748
9,30,6229.5281748789,0.00100000000384171
10,1,1336.20459076985,0
10,2,763.728659451519,0.000999999996565748
10,3,3005.15804707367,0
10,4,25231.454184558,0
10,5,1584.12586163738,0.000999999996565748
10,6,1636.85698151731,0
10,7,3982.54746537497,0.00100000000384171
10,8,1608.30653317451,0.000999999996565748
10,9,2678.8957516354,0
10,10,559.480332929251,0.00100000000384171
10,11,4772.3108096733,0.000999999996565748
10,12,24846.3072443567,0
10,13,509.273532185558,0.00100000000384171
10,14,20130.1832157512,0.000999999996565748
10,15,3370.45425841878,0
10,16,1544.22900768746,0.00100000000384171
10,17,2253.22916960657,0.000999999996565748
10,18,3224.51120109235,0
10,19,14368.9705100104,0.00100000000384171
10,20,2551.39392023369,0.000999999996565748
10,21,3370.71866725694,0
10,22,5235.28430890407,0.00100000000384171
10,23,1563.93033699237,0
10,24,2995.22903764462,0
10,25,4560.57232452406,0.00100000000384171
10,26,4257.73106375842,0
10,27,25563.7464910089,0.000999999996565748
10,28,1843.48009705433,0.000999999996565748
10,29,2387.41095419694,0
10,30,4339.25454524993,0.00100000000384171
11,1,2777.71505105436,0.000999999996565748
11,2,2195.60917743713,0
11,3,2256.74680923641,0.00100000000384171
11,4,24344.7166801203,0.000999999996565748
11,5,1419.8818922701,0
11,6,866.356115835318,0.00100000000384171
11,7,2916.38929918591,0
11,8,1551.82926451765,0
11,9,1209.90993809434,0.00100000000384171
11,10,1513.66967571266,0
11,11,3804.43813997416,0.000999999996565748
11,12,23810.8231685617,0.00100000000384171
11,13,1848.49775555348,0
11,14,19207.641980194,0.000999999996565748
11,15,2413.34371715387,0.00100000000384171
11,16,3054.6067394003,0
11,17,1707.79462916488,0.000999999996565748
11,18,1959.828237945,0.00100000000384171
11,19,13082.1955240131,0
11,20,1225.71559461189,0.000999999996565748
11,21,1932.91061101376,0
11,22,4204.81647056638,0
11,23,527.168310596952,0.000999999996565748
11,24,1662.36058519928,0
11,25,3415.22367063788,0.000999999996565748
11,26,3152.45239262409,0.00100000000384171
11,27,24887.6210065115,0
11,28,598.157889195797,0.000999999996565748
11,29,3374.53142302374,0.00100000000384171
11,30,2859.37548902145,0
12,1,1728.29000184101,0.000999999996565748
12,2,2234.24432479545,0.00100000000384171
12,3,5285.94008448086,0
12,4,26977.9206251192,0.000999999996565748
12,5,3896.10450295718,0.00100000000384171
12,6,3923.61364228553,0
12,7,5935.54881072312,0.000999999996565748
12,8,3857.20698953378,0
12,9,5088.72379051585,0
12,10,2681.31948995337,0.000999999996565748
12,11,6461.28584719443,0
12,12,26669.2611393064,0.00100000000384171
12,13,2494.87813434899,0.000999999996565748
12,14,21982.7564534013,0
12,15,5265.69866469507,0.00100000000384171
12,16,1486.10255836633,0.000999999996565748
12,17,4063.05810051256,0
12,18,5409.61499308802,0.00100000000384171
12,19,16577.1444999723,0.000999999996565748
12,20,4847.01401923088,0
12,21,5804.73814347474,0.00100000000384171
12,22,7030.03300952422,0.000999999996565748
12,23,4006.22766193455,0
12,24,5442.23940279401,0.000999999996565748
12,25,6547.41300276493,0
12,26,6602.94569744622,0
12,27,27128.4743346288,0.000999999996565748
12,28,4259.85867735055,0
12,29,3199.42495085752,0.00100000000384171
12,30,6686.86745505987,0.000999999996565748
13,1,3242.12269937306,0
13,2,2794.51050600998,0.00100000000384171
13,3,1287.37312495513,0.000999999996565748
13,4,24577.9411945319,0
13,5,1486.75368922014,0.00100000000384171
13,6,3218.83494975636,0.000999999996565748
13,7,5230.09067381579,0
13,8,1376.35226935413,0.00100000000384171
13,9,2901.92366146972,0
13,10,2941.10522786852,0
13,11,6204.69811054563,0.00100000000384171
13,12,24052.7056544762,0
13,13,2822.93568932502,0.000999999996565748
13,14,19589.4808572305,0.00100000000384171
13,15,4864.23889471986,0
13,16,3452.27983362267,0.000999999996565748
13,17,4161.20396426448,0.00100000000384171
13,18,4237.43817440841,0
13,19,13167.1598157112,0.000999999996565748
13,20,3553.61183044752,0.000999999996565748
13,21,3036.05945157984,0
13,22,6452.57901083303,0.00100000000384171
13,23,2645.86609569335,0.000999999996565748
13,24,2593.69539671387,0
13,25,5595.96850582323,0.00100000000384171
13,26,2612.69752179728,0
13,27,25081.0537814288,0
13,28,2782.84464155366,0.00100000000384171
13,29,2179.67334822371,0
13,30,4428.00232522261,0.000999999996565748
14,1,2517.45663092251,0.00100000000384171
14,2,1913.11067171327,0.00600000000122236
14,3,1562.95018348565,0
14,4,24506.1324901186,0.00100000000384171
14,5,364.137838237748,0.000999999996565748
14,6,1717.63792415994,0
14,7,3899.31714609578,0.00100000000384171
14,8,459.402506550395,0
14,9,1758.48615636065,0.000999999996565748
14,10,1663.25452070568,0.000999999996565748
14,11,4846.87723929139,0
14,12,24022.1995194717,0.00100000000384171
14,13,1719.2999034154,0.000999999996565748
14,14,19435.0171215731,0
14,15,3443.14480770086,0.00100000000384171
14,16,2782.93758798594,0
14,17,2669.47981971126,0
14,18,2910.24274824928,0.00100000000384171
14,19,13271.7477254271,0
14,20,2174.09191866277,0.000999999996565748
14,21,2237.55425987349,0.00100000000384171
14,22,5182.56863100189,0
14,23,1129.83243477448,0.000999999996565748
14,24,1828.82118355111,0
14,25,4357.14334400032,0
14,26,2823.06999472877,0.000999999996565748
14,27,24980.53243023,0
14,28,1350.26532425117,0.00100000000384171
14,29,2463.75551432025,0.000999999996565748
14,30,3494.72678427167,0
15,1,16067.3243264171,0.00100000000384171
15,2,15543.2241976113,0.000999999996565748
15,3,13392.4566385115,0
15,4,13567.2447236636,0.00100000000384171
15,5,14318.2097493066,0
15,6,13803.6876347999,0.000999999996565748
15,7,12127.4472818325,0.000999999996565748
15,8,14386.2660961955,0
15,9,12875.1446801917,0.00100000000384171
15,10,15015.1240792711,0.000999999996565748
15,11,12023.4817223066,0
15,12,12986.2355571448,0.00100000000384171
15,13,15254.496725992,0
15,14,7168.95820473715,0.000999999996565748
15,15,12785.4944655877,0.00100000000384171
15,16,16274.6994402758,0
15,17,13806.1013473624,0.000999999996565748
15,18,12500.2194047951,0.00100000000384171
15,19,5512.8440156819,0
15,20,13025.143829215,0.000999999996565748
15,21,12348.1386093768,0
15,22,11334.3922785354,0
15,23,13847.5837200075,0.000999999996565748
15,24,12617.2279800532,0
15,25,11505.8812309731,0.00100000000384171
15,26,12319.9748668902,0.000999999996565748
15,27,15216.1608979034,0
15,28,13517.3885192423,0.00100000000384171
15,29,16055.6186177322,0.000999999996565748
15,30,11429.5932887017,0
16,1,4411.36079023259,0.00100000000384171
16,2,3888.96887780499,0
16,3,3768.6874495043,0.000999999996565748
16,4,23515.2638231364,0.000999999996565748
16,5,3344.38704786461,0
16,6,1754.09838959517,0.00100000000384171
16,7,863.315621384937,0.000999999996565748
16,8,3483.83929255346,0
16,9,1832.87226961147,0.00100000000384171
16,10,3089.19959972119,0.000999999996565748
16,11,1792.41670271206,0
16,12,23049.4055903029,0.00100000000384171
16,13,3473.05813237587,0.000999999996565748
16,14,18196.9201970413,0
16,15,584.039996653721,0.00100000000384171
16,16,4615.56542811644,0.000999999996565748
16,17,1430.48898077786,0
16,18,504.724621479212,0.00100000000384171
16,19,12439.9568329167,0
16,20,1068.83903254253,0
16,21,2254.69918566133,0.00100000000384171
16,22,2186.78047534766,0
16,23,2172.66320185383,0.000999999996565748
16,24,2389.72779576448,0.00100000000384171
16,25,1477.8370356265,0
16,26,3993.49975494435,0.000999999996565748
16,27,24073.3408366556,0.00100000000384171
16,28,1911.35656789851,0
16,29,5324.22996210348,0.000999999996565748
16,30,1928.59851037272,0.00100000000384171
17,1,3372.88616873397,0
17,2,2778.266109431,0.000999999996565748
17,3,1039.59069374168,0
17,4,23854.2391079204,0
17,5,1148.31034237584,0.00100000000384171
17,6,1920.60856739424,0
17,7,3596.11297950457,0.000999999996565748
17,8,1224.0899185696,0.00100000000384171
17,9,1245.50282861501,0
17,10,2401.10370735566,0.000999999996565748
17,11,4561.61761312142,0.00100000000384171
17,12,23311.8085067398,0
17,13,2548.03750837262,0.000999999996565748
17,14,18750.2092002108,0.00100000000384171
17,15,3277.90970973891,0
17,16,3640.91854922159,0.000999999996565748
17,17,2816.4502339723,0
17,18,2589.10857513078,0
17,19,12422.3583307142,0.000999999996565748
17,20,1963.02909099294,0
17,21,1472.75216523888,0.00100000000384171
17,22,4805.27059693008,0.000999999996565748
17,23,1357.08482046343,0
17,24,1064.32178242227,0.00100000000384171
17,25,3944.73557303014,0.000999999996565748
17,26,2035.1387308998,0
17,27,24423.0470529414,0.00100000000384171
17,28,1339.29890213195,0.000999999996565748
17,29,3231.48440065522,0
17,30,2803.15573942609,0.000999999996565748
18,1,5865.66512705216,0.00100000000384171
18,2,5325.17911055318,0
18,3,4493.05867952303,0.000999999996565748
18,4,22451.8145886699,0
18,5,4496.57790937629,0
18,6,3165.62576874766,0.000999999996565748
18,7,1090.92735659472,0
18,8,4636.09694848419,0.00100000000384171
18,9,2712.22406570575,0.000999999996565748
18,10,4555.00371683759,0
18,11,1528.85260574679,0.00100000000384171
18,12,21968.0647741431,0.000999999996565748
18,13,4926.40121928735,0
18,14,17058.3426774985,0.00100000000384171
18,15,1753.14440768523,0.000999999996565748
18,16,6080.62673443938,0
18,17,2930.45951581224,0.00100000000384171
18,18,1599.13083029262,0.000999999996565748
18,19,11299.6612999313,0
18,20,2337.24786688458,0.00100000000384171
18,21,2702.9161205345,0
18,22,1352.21167015449,0
18,23,3459.57201395524,0.00100000000384171
18,24,3018.57237668738,0
18,25,680.688619482802,0.000999999996565748
18,26,4259.69635981667,0.00100000000384171
18,27,23114.7583048054,0
18,28,3141.07607051303,0.000999999996565748
18,29,6584.580166709,0.000999999996565748
18,30,1588.18537858329,0
19,1,1662.22673641827,0.00100000000384171
19,2,1062.70521213591,0.000999999996565748
19,3,2594.95358615912,0
19,4,25039.0670981598,0.00100000000384171
19,5,1174.80010406869,0.000999999996565748
19,6,1376.50302482494,0
19,7,3788.32940156908,0.00100000000384171
19,8,1236.21333926015,0
19,9,2252.92993799108,0
19,10,623.766493903665,0.00100000000384171
19,11,4627.77026315418,0
19,12,24603.6601531245,0.000999999996565748
19,13,726.478818618528,0.00100000000384171
19,14,19948.4748181262,0
19,15,3192.2227017308,0.000999999996565748
19,16,1957.67131818626,0.00100000000384171
19,17,2145.95656490233,0
19,18,2931.77131618883,0.000999999996565748
19,19,14033.4301684742,0.00100000000384171
19,20,2213.44632815399,0
19,21,2924.92549678468,0.000999999996565748
19,22,5076.96400433806,0
19,23,1126.96846814699,0
19,24,2568.69178228788,0.000999999996565748
19,25,4348.56190029983,0
19,26,3822.20620374218,0.000999999996565748
19,27,25424.6321164427,0.00100000000384171
19,28,1465.01775743882,0
19,29,2449.26127728373,0.000999999996565748
19,30,3950.02268194526,0.00100000000384171
20,1,27008.498698934,0.00600000000122236
20,2,26639.9221452652,0
20,3,24950.4246902538,0.00100000000384171
20,4,4986.38764071937,0.000999999996565748
20,5,25681.2345719926,0
20,6,25448.968712379,0.00100000000384171
20,7,24212.8156011663,0
20,8,25703.5772039042,0.000999999996565748
20,9,24795.6369381228,0.00100000000384171
20,10,26381.4473930071,0
20,11,24197.5109591966,0.000999999996565748
20,12,8923.71501401956,0.00100000000384171
20,13,26415.3011475989,0
20,14,9727.92819334505,0.000999999996565748
20,15,24669.791454849,0
20,16,27203.4706895593,0
20,17,25453.4221766391,0.00100000000384171
20,18,24497.6479327561,0
20,19,17700.4792931353,0.000999999996565748
20,20,24931.9112878473,0.00100000000384171
20,21,24326.5321943644,0
20,22,23674.5599137123,0.000999999996565748
20,23,25402.6662363535,0.00100000000384171
20,24,24577.446270849,0
20,25,23835.6523222314,0.000999999996565748
20,26,24153.1815198317,0
20,27,2140.48000907385,0.00100000000384171
20,28,25255.6597647095,0.000999999996565748
20,29,26852.902025183,0
20,30,23739.2935578297,0.00100000000384171
21,1,28802.2660607325,0.000999999996565748
21,2,28405.8019764219,0
21,3,26671.9930183799,0.00100000000384171
21,4,5319.92656903628,0
21,5,27419.525824084,0.000999999996565748
21,6,27103.5949889671,0.00100000000384171
21,7,25731.6510065425,0
21,8,27448.0856679512,0.000999999996565748
21,9,26428.1225324631,0.00100000000384171
21,10,28101.1645991575,0
21,11,25663.9612226949,0.000999999996565748
21,12,9212.81526543799,0
21,13,28162.1748685631,0.000999999996565748
21,14,10259.1752686044,0.00100000000384171
21,15,26231.9869302414,0
21,16,28989.9456092581,0.000999999996565748
21,17,27076.1325455846,0.00100000000384171
21,18,26070.9007551859,0
21,19,18802.1547465845,0.000999999996565748
21,20,26543.3382469187,0
21,21,25951.1373584078,0
21,22,25108.966299291,0.000999999996565748
21,23,27085.1201386563,0
21,24,26215.5252810427,0.00100000000384171
21,25,25314.6715382503,0.000999999996565748
21,26,25817.5476058033,0
21,27,3662.35357474935,0.00100000000384171
21,28,26910.5063200448,0
21,29,28686.5730925801,0
21,30,25276.4813960465,0.00100000000384171
22,1,30566.8442974699,0
22,2,30243.0948137257,0.000999999996565748
22,3,28862.3150037216,0.00100000000384171
22,4,12967.8880033464,0
22,5,29440.8205532172,0.000999999996565748
22,6,29261.5024047353,0.00100000000384171
22,7,28199.18957571,0
22,8,29444.7761252908,0.000999999996565748
22,9,28763.9721745047,0.000999999996565748
22,10,30074.4325392941,0
22,11,28248.3254027157,0.00100000000384171
22,12,16505.1852763019,0.000999999996565748
22,13,30032.5221485077,0
22,14,16477.2556092758,0.00100000000384171
22,15,28578.9957002241,0
22,16,30719.3736680093,0
22,17,29260.1693922638,0.00100000000384171
22,18,28458.1400548077,0
22,19,23514.6120699099,0
22,20,28864.1055815864,0.00100000000384171
22,21,28355.1074745752,0
22,22,27800.2235226526,0.000999999996565748
22,23,29200.0646503771,0.00100000000384171
22,24,28578.0286274373,0
22,25,27942.0454063211,0.000999999996565748
22,26,28201.5144899832,0.00100000000384171
22,27,8650.55595121222,0
22,28,29121.4720559752,0.000999999996565748
22,29,30394.6961910871,0.00100000000384171
22,30,27857.8398898248,0
23,1,11819.6023876081,0.000999999996565748
23,2,11259.7983642655,0
23,3,8763.28891387368,0
23,4,17310.3649609318,0.000999999996565748
23,5,9831.52647568748,0
23,6,9479.49476400596,0.00100000000384171
23,7,8070.56757496911,0.000999999996565748
23,8,9912.48709001039,0
23,9,8354.3770879965,0.000999999996565748
23,10,10701.2702955749,0.00100000000384171
23,11,8211.42276730393,0
23,12,16401.389151374,0.000999999996565748
23,13,10949.944130215,0.00100000000384171
23,14,11712.133147579,0
23,15,8659.44294384095,0.000999999996565748
23,16,12073.5937421571,0
23,17,9608.62412540179,0
23,18,8206.47620025711,0.000999999996565748
23,19,4806.49643436514,0
23,20,8643.93996156987,0.00100000000384171
23,21,7708.05311128059,0.000999999996565748
23,22,7625.00998168585,0
23,23,9429.33647587222,0.00100000000384171
23,24,8037.45735732497,0.000999999996565748
23,25,7523.99431619116,0
23,26,7476.33560509381,0.00100000000384171
23,27,18796.3183440663,0.000999999996565748
23,28,9124.28199369577,0
23,29,11707.8462647552,0.00100000000384171
23,30,6885.98407258536,0
24,1,5615.22717286899,0
24,2,5031.99266847246,0.00100000000384171
24,3,2238.45726461728,0
24,4,22464.9542720853,0.000999999996565748
24,5,3393.31850834589,0.000999999996565748
24,6,3685.93378923398,0
24,7,4040.45588705072,0.00100000000384171
24,8,3467.45115289327,0.000999999996565748
24,9,2393.91500943754,0
24,10,4581.65718349849,0.00100000000384171
24,11,4897.96940249692,0.000999999996565748
24,12,21766.4627222574,0
24,13,4771.25302547433,0.00100000000384171
24,14,17275.0333668207,0.000999999996565748
24,15,4103.08616608364,0
24,16,5883.85646204224,0.00100000000384171
24,17,4289.97454553483,0
24,18,3295.07990809547,0
24,19,10390.5100664526,0.00100000000384171
24,20,3129.00004111808,0
24,21,1705.35414869575,0.000999999996565748
24,22,4861.76762288315,0.00100000000384171
24,23,3351.32986769661,0
24,24,1870.40741064771,0.000999999996565748
24,25,4052.72692671652,0.00100000000384171
24,26,1036.15375077079,0
24,27,23302.896956864,0.000999999996565748
24,28,3156.70786725214,0.00100000000384171
24,29,5307.05227819925,0
24,30,2320.59672457456,0.000999999996565748
25,1,5280.05019408186,0.00100000000384171
25,2,4766.63292750925,0
25,3,4345.91562869651,0.000999999996565748
25,4,22916.5287143801,0
25,5,4125.94159518291,0
25,6,2621.48147261945,0.00100000000384171
25,7,496.417528956021,0
25,8,4269.62155073631,0.000999999996565748
25,9,2449.87884878229,0.00100000000384171
25,10,3978.7900853031,0
25,11,1246.44937634429,0.000999999996565748
25,12,22452.1010467246,0.00100000000384171
25,13,4354.07618846547,0
25,14,17542.9029246778,0.000999999996565748
25,15,1030.15570903642,0.00100000000384171
25,16,5491.06438665428,0
25,17,2251.27246379861,0.000999999996565748
25,18,1107.15654962412,0.00100000000384171
25,19,11885.9636833333,0
25,20,1856.88406064708,0.000999999996565748
25,21,2629.60448177454,0
25,22,1437.99583556841,0
25,23,3005.78899374982,0.000999999996565748
25,24,2883.52277248386,0
25,25,761.351712960016,0.00100000000384171
25,26,4313.71970517317,0.000999999996565748
25,27,23521.7057631293,0
25,28,2722.92993225234,0.00100000000384171
25,29,6152.68428211149,0.000999999996565748
25,30,1790.29614179257,0.00699999999778811
26,1,30529.3854329555,0
26,2,30170.1213300067,0.00100000000384171
26,3,28453.2427069748,0.000999999996565748
26,4,7152.62920625502,0
26,5,29213.3573059497,0.00100000000384171
26,6,29055.3275382522,0
26,7,27906.9316644204,0
26,8,29223.014913354,0.00100000000384171
26,9,28388.6816050643,0
26,10,29936.6363735831,0.000999999996565748
26,11,27911.5177086232,0.00100000000384171
26,12,9507.02404001923,0
26,13,29966.660768425,0.000999999996565748
26,14,13926.0997876527,0.00100000000384171
26,15,28339.133978098,0
26,16,30713.5952250011,0.000999999996565748
26,17,29085.7253962678,0
26,18,28151.8010690431,0.00100000000384171
26,19,20761.6201297946,0.000999999996565748
26,20,28563.3574243219,0
26,21,27915.0991198281,0.000999999996565748
26,22,27420.3863390323,0.00100000000384171
26,23,28980.9121916443,0
26,24,28163.1910057564,0.000999999996565748
26,25,27553.2243787295,0
26,26,27632.9670193035,0.00100000000384171
26,27,7118.74389375227,0.000999999996565748
26,28,28848.9380890336,0
26,29,30312.0096721671,0.00100000000384171
26,30,27380.549672783,0.000999999996565748
27,1,3867.32239843404,0
27,2,3355.18004957604,0.00100000000384171
27,3,3489.56514603784,0
27,4,23937.2282565402,0
27,5,2909.4570677659,0.00100000000384171
27,6,1268.15378910428,0
27,7,1478.45436049692,0.000999999996565748
27,8,3044.68097207132,0.00100000000384171
27,9,1623.47287848943,0
27,10,2537.78049063424,0.000999999996565748
27,11,2290.03732301437,0
27,12,23450.0919128083,0
27,13,2935.81446853249,0.000999999996565748
27,14,18645.5699003451,0
27,15,945.352068644594,0.00100000000384171
27,16,4082.10893425298,0.000999999996565748
27,17,1011.25334077585,0
27,18,842.235685597553,0.000999999996565748
27,19,12796.7019470006,0.00100000000384171
27,20,792.299387511385,0
27,21,2210.44391092391,0.000999999996565748
27,22,2743.84850765503,0
27,23,1705.93903692063,0.00100000000384171
27,24,2241.19241785158,0.000999999996565748
27,25,2066.21388550711,0
27,26,3897.06301377621,0.00100000000384171
27,27,24477.9085797243,0.000999999996565748
27,28,1485.54946422248,0
27,29,4827.13872392053,0.00100000000384171
27,30,2260.46516008529,0
28,1,1686.23698523212,0
28,2,1079.41771592736,0.00100000000384171
28,3,2601.19117778441,0
28,4,25139.9120768105,0.000999999996565748
28,5,1194.03619360336,0.00100000000384171
28,6,1519.19518223033,0
28,7,3906.34966731566,0.000999999996565748
28,8,1234.69455386453,0.00100000000384171
28,9,2315.91608833887,0
28,10,750.47208879943,0.000999999996565748
28,11,4750.95371370619,0.00100000000384171
28,12,24688.476915818,0
28,13,831.054315240925,0.000999999996565748
28,14,20024.6359198382,0.000999999996565748
28,15,3324.82251424509,0
28,16,1941.13791033984,0.00100000000384171
28,17,2284.64258598202,0.000999999996565748
28,18,3042.00853717027,0
28,19,14048.6441559168,0.00100000000384171
28,20,2312.4321105787,0
28,21,2982.05848037907,0
28,22,5193.63360664791,0.00100000000384171
28,23,1262.92233874759,0
28,24,2613.67638140558,0.000999999996565748
28,25,4457.71027033809,0.00100000000384171
28,26,3818.36972609626,0
28,27,25543.8016727172,0.000999999996565748
28,28,1567.84417162237,0.00100000000384171
28,29,2376.89655146668,0
28,30,4025.33951031224,0.000999999996565748
29,1,28020.9036383597,0.00100000000384171
29,2,27644.6782127917,0
29,3,25864.9370389085,0.000999999996565748
29,4,3595.79231700967,0
29,5,26656.8203217114,0
29,6,26480.3698127316,0.000999999996565748
29,7,25296.2598937615,0
29,8,26671.8872691779,0.00100000000384171
29,9,25781.5245213252,0.000999999996565748
29,10,27391.4286448411,0
29,11,25289.1956743031,0.00100000000384171
29,12,6754.81739809118,0.000999999996565748
29,13,27445.0168613596,0
29,14,10408.4734034062,0.000999999996565748
29,15,25756.9985131747,0.00100000000384171
29,16,28205.3817634563,0
29,17,26523.7698341496,0.000999999996565748
29,18,25550.8288944995,0
29,19,17878.1866749468,0
29,20,25960.6941943771,0.000999999996565748
29,21,25304.3892557132,0
29,22,24763.3082203862,0.00100000000384171
29,23,26419.1732362833,0.000999999996565748
29,24,25541.4926123811,0
29,25,24897.1391230166,0.00100000000384171
29,26,25037.7879275455,0.000999999996565748
29,27,5091.503089615,0
29,28,26257.6394449223,0.00100000000384171
29,29,27800.1160409934,0.000999999996565748
29,30,24751.5880075614,0
30,1,5509.09909646417,0.00100000000384171
30,2,4901.23144076306,0.000999999996565748
30,3,2752.68214235515,0
30,4,22423.7701288017,0.00100000000384171
30,5,3463.32493904864,0
30,6,3106.44001890471,0
30,7,2780.49187964572,0.00100000000384171
30,8,3572.06037308648,0
30,9,1811.60870316622,0.000999999996565748
30,10,4295.7339679619,0.000999999996565748
30,11,3615.23531876491,0
30,12,21804.5065861826,0.00100000000384171
30,13,4575.38409867168,0.000999999996565748
30,14,17139.2284708225,0
30,15,2992.41727041204,0.00100000000384171
30,16,5756.25354495258,0.000999999996565748
30,17,3495.81877259118,0
30,18,2191.44702072823,0.00100000000384171
30,19,10584.8561095694,0.000999999996565748
30,20,2307.46181770148,0
30,21,1165.42752113209,0.00100000000384171
30,22,3542.88891458869,0
30,23,2975.38578042187,0
30,24,1547.19430184546,0.00100000000384171
30,25,2724.03125226648,0
30,26,2099.6029469823,0.000999999996565748
30,27,23211.1284030909,0.00100000000384171
30,28,2669.14579509672,0
30,29,5592.46082127073,0.000999999996565748
30,30,1012.18745031909,0.00100000000384171
