"Before.Trace.ID1","Before.Trace.ID2","Difference","Runtime"
1,2,69184.9184708117,0.401999999994587
1,3,130953.640648649,0.299000000006345
1,4,46043.2001654437,0.292999999997846
1,5,23058.9291924355,0.292999999997846
1,6,54674.3355070033,0.288000000000466
1,7,17484.6301078295,0.290999999997439
1,8,21411.8067069504,0.325000000004366
1,9,59916.2635975896,0.281999999999243
1,10,14915.7700336219,0.283999999999651
1,11,94613.5197025878,0.322000000000116
1,12,39543.1819616944,0.288000000000466
1,13,26334.8264184212,0.292000000001281
1,14,100782.4589504,0.286000000000058
1,15,74801.5479741491,0.239000000001397
1,16,34202.7855510916,0.300999999999476
1,17,91556.0013728976,0.292999999997846
1,18,62987.3580955247,0.306000000004133
1,19,21907.5522423687,0.281999999999243
1,20,100305.520389434,0.300999999999476
1,21,21873.4470715291,0.281000000002678
1,22,102801.376772715,0.289999999993597
1,23,34433.4477050326,0.324000000000524
1,24,39422.9824976562,0.311000000001513
1,25,22042.0339573094,0.334000000002561
1,26,52407.4476348402,0.302999999999884
1,27,64064.4352827493,0.334999999999127
1,28,24323.4533684531,0.305999999996857
1,29,41222.3218119872,0.31600000000617
1,30,16367.0390370724,0.275999999998021
2,3,56679.3223644465,0.293000000005122
2,4,48239.2895164132,0.305000000000291
2,5,84599.750186123,0.289999999993597
2,6,79663.8437832901,0.288000000000466
2,7,53700.7757638566,0.242000000005646
2,8,46640.520272712,0.341999999996915
2,9,29907.0447535842,0.331000000005588
2,10,46510.8624451827,0.300999999999476
2,11,37316.7790955989,0.307999999997264
2,12,54220.5365710098,0.296000000002095
2,13,47686.3185785543,0.292000000001281
2,14,30398.5877423273,0.303999999996449
2,15,57995.8800338806,0.296999999998661
2,16,51998.1751135007,0.241000000001804
2,17,43821.5401766225,0.322000000000116
2,18,43870.8561131959,0.309000000001106
2,19,55420.6273886716,0.322000000000116
2,20,60857.2104576828,0.302000000003318
2,21,55818.1980827178,0.27900000000227
2,22,56149.6055908429,0.290999999997439
2,23,76464.8502906339,0.309999999997672
2,24,30959.9256170713,0.25800000000163
2,25,60759.9806929471,0.317000000002736
2,26,79519.8112767572,0.314999999995052
2,27,60020.6539351439,0.333000000005995
2,28,79883.4657324839,0.301999999996042
2,29,48281.1232763233,0.262000000002445
2,30,60585.839945542,0.372999999999593
3,4,114531.998077394,0.317999999999302
3,5,160688.165408042,0.292999999997846
3,6,66620.9570666366,0.310000000004948
3,7,100785.143775361,0.289999999993597
3,8,100180.201094927,0.310000000004948
3,9,67844.5441902108,0.288000000000466
3,10,125576.316577318,0.338999999999942
3,11,96971.6599721821,0.298999999999069
3,12,156010.544552872,0.332999999998719
3,13,91297.9758992758,0.243000000002212
3,14,55511.0530082874,0.300999999999476
3,15,121437.940070239,0.296999999998661
3,16,79904.7537866187,0.296999999998661
3,17,14461.0540218349,0.290000000000873
3,18,119007.500162378,0.27900000000227
3,19,103030.026999361,0.238999999994121
3,20,61153.7023779186,0.297000000005937
3,21,118124.017948643,0.319999999999709
3,22,85528.0562417395,0.293999999994412
3,23,78724.0198829626,0.298000000002503
3,24,87813.0198300025,0.302999999999884
3,25,122498.050877438,0.300999999999476
3,26,145211.713335961,0.30000000000291
3,27,158683.613329591,0.322999999996682
3,28,117189.871672418,0.281999999999243
3,29,99966.8312668268,0.299999999995634
3,30,113044.429402679,0.292000000001281
4,5,74040.9986657187,0.326000000000931
4,6,72513.5396680482,0.306000000004133
4,7,24179.4286773379,0.29599999999482
4,8,34681.4685388809,0.296000000002095
4,9,69738.991648578,0.281999999999243
4,10,30589.0164045044,0.237999999997555
4,11,50001.6092949126,0.2870000000039
4,12,63856.9102569252,0.291000000004715
4,13,38770.5955989653,0.285000000003492
4,14,67153.0870558378,0.298999999999069
4,15,92292.1981463926,0.325000000004366
4,16,32339.0962482416,0.280999999995402
4,17,98981.212305364,0.239999999997963
4,18,12047.3505883181,0.306000000004133
4,19,48488.9358994666,0.303999999996449
4,20,64630.0966493876,0.328000000001339
4,21,47671.2918078834,0.241000000001804
4,22,47620.441487884,0.298000000002503
4,23,68158.7038195684,0.292000000001281
4,24,24209.9915814797,0.290999999997439
4,25,55403.1538223835,0.326999999997497
4,26,108004.611326144,0.302999999999884
4,27,91732.5879756811,0.29599999999482
4,28,60604.1832310794,0.296000000002095
4,29,68986.653340777,0.281999999999243
4,30,30469.3258813899,0.236000000004424
5,6,63135.7379922459,0.312999999994645
5,7,42874.3202624831,0.297000000005937
5,8,34721.4347863662,0.307999999997264
5,9,55394.9774910568,0.294999999998254
5,10,26618.1818585984,0.321000000003551
5,11,100177.435940879,0.2870000000039
5,12,20292.6514984965,0.303999999996449
5,13,28920.1587828855,0.302999999999884
5,14,128580.554423891,0.328999999997905
5,15,60741.7125031911,0.244000000006054
5,16,48009.3134489253,0.296999999998661
5,17,107761.311631455,0.288000000000466
5,18,86380.0360738577,0.260000000002037
5,19,31439.9694570388,0.298000000002503
5,20,141483.836264448,0.326999999997497
5,21,12229.5181455645,0.275000000001455
5,22,129959.543872012,0.298999999999069
5,23,36458.5493462121,0.302999999999884
5,24,54442.9293337763,0.301999999996042
5,25,12882.3962775392,0.328999999997905
5,26,40077.6251641625,0.309999999997672
5,27,48747.992858966,0.334999999999127
5,28,29064.5007688929,0.304000000003725
5,29,34694.377607257,0.378999999993539
5,30,39456.9970427713,0.285000000003492
6,7,39571.527893253,0.298999999999069
6,8,42111.3919744211,0.298999999999069
6,9,51751.2988070491,0.309000000001106
6,10,45224.7622384253,0.309999999997672
6,11,73834.4723842778,0.292000000001281
6,12,72681.0938744483,0.2870000000039
6,13,39028.8990253604,0.298999999999069
6,14,100480.947091423,0.303999999996449
6,15,58004.48603323,0.293000000005122
6,16,35050.9242872664,0.294999999998254
6,17,37820.0460115621,0.282999999995809
6,18,86030.3407797048,0.286000000000058
6,19,32818.8058116637,0.290999999997439
6,20,47695.540890141,0.296000000002095
6,21,42515.7440361664,0.277999999998428
6,22,93922.8616618532,0.296999999998661
6,23,16302.3210595232,0.326000000000931
6,24,41703.7099526749,0.330999999998312
6,25,46144.5281391369,0.286000000000058
6,26,58390.7932655303,0.297000000005937
6,27,67453.8349257046,0.32999999999447
6,28,59630.1995004011,0.306000000004133
6,29,42684.1575434656,0.313000000001921
6,30,67564.4590953197,0.302999999999884
7,8,11868.6785991137,0.296999999998661
7,9,49557.8570523428,0.292000000001281
7,10,14869.3749530671,0.281000000002678
7,11,59109.2404270106,0.290000000000873
7,12,44746.9865341524,0.289999999993597
7,13,18819.8440451146,0.285000000003492
7,14,78974.3743310689,0.302999999999884
7,15,60108.8196796596,0.322999999996682
7,16,14116.786643025,0.234000000004016
7,17,73909.5582487359,0.290000000000873
7,18,33169.9036835438,0.290999999997439
7,19,8928.93799765499,0.273000000001048
7,20,64269.4685789424,0.296999999998661
7,21,23843.6566007081,0.30000000000291
7,22,59829.7857565189,0.282999999995809
7,23,34560.7612836475,0.302000000003318
7,24,18877.8720092723,0.307000000000698
7,25,25711.6563719371,0.296999999998661
7,26,56581.8343962428,0.309999999997672
7,27,59783.9499113381,0.370000000002619
7,28,36727.4188123058,0.288999999997031
7,29,42473.2602367739,0.298999999999069
7,30,18128.5024371431,0.29500000000553
8,9,33315.4536287835,0.307999999997264
8,10,12210.5255341698,0.307000000000698
8,11,46785.9755609967,0.288000000000466
8,12,29823.4544606976,0.283999999999651
8,13,9752.18518410833,0.302999999999884
8,14,75509.0251401206,0.303999999996449
8,15,39092.7778278245,0.297000000005937
8,16,13053.1768461157,0.317999999999302
8,17,69110.0477567143,0.286999999996624
8,18,35492.975664703,0.296999999998661
8,19,11147.7074890753,0.317999999999302
8,20,78774.4707377707,0.298000000002503
8,21,18053.3252543378,0.290000000000873
8,22,54178.5614700074,0.307999999997264
8,23,34951.3484503761,0.241000000001804
8,24,15195.7608643732,0.290999999997439
8,25,22779.2075860667,0.330000000001746
8,26,39877.6503795507,0.299999999995634
8,27,46241.0683356228,0.336999999999534
8,28,36227.7591526687,0.320999999996275
8,29,23365.9908177397,0.317999999999302
8,30,27827.1887753004,0.307000000000698
9,10,41370.6987021426,0.277000000001863
9,11,37792.6624373846,0.319000000003143
9,12,38126.5840977043,0.307000000000698
9,13,26644.8328596666,0.306999999993423
9,14,54519.3022566878,0.297000000005937
9,15,22287.1853404948,0.328999999997905
9,16,42461.0153812548,0.309000000001106
9,17,49066.4844629706,0.286000000000058
9,18,70478.2969364313,0.292000000001281
9,19,33356.4024062819,0.268000000003667
9,20,86896.7973398332,0.301999999996042
9,21,31926.1515211969,0.313000000001921
9,22,75710.7257593328,0.317999999999302
9,23,51559.3188448289,0.309999999997672
9,24,29658.7923024979,0.349999999998545
9,25,37991.6154887365,0.317000000002736
9,26,33558.7363089865,0.312999999994645
9,27,48457.2455242439,0.368999999998778
9,28,61330.2937300056,0.29500000000553
9,29,20028.6326863904,0.338999999999942
9,30,58664.0656749971,0.333999999995285
10,11,56170.1541331077,0.338999999999942
10,12,23942.6660284732,0.334999999999127
10,13,22698.575117886,0.327000000004773
10,14,70383.5162316993,0.3379999999961
10,15,51436.3262147192,0.334999999999127
10,16,31292.134141981,0.292000000001281
10,17,92349.7825916999,0.292000000001281
10,18,33548.5945943249,0.297999999995227
10,19,13594.6176178021,0.355000000003201
10,20,80289.1326763306,0.371999999995751
10,21,19568.9073696623,0.36200000000099
10,22,72401.4360900751,0.364000000001397
10,23,35359.0930543745,0.362999999997555
10,24,17735.1628175786,0.408000000003085
10,25,20194.3242245015,0.288999999997031
10,26,39570.4810671828,0.330000000001746
10,27,32254.9186874835,0.290000000000873
10,28,43445.7508371659,0.328000000001339
10,29,37984.2167023121,0.292000000001281
10,30,23626.6181847489,0.286999999996624
11,12,66821.6083887283,0.340000000003783
11,13,45385.4089632633,0.335999999995693
11,14,53386.1173723214,0.336999999999534
11,15,39571.5610149567,0.3379999999961
11,16,53440.4243919384,0.332999999998719
11,17,82382.3089884827,0.334999999999127
11,18,38934.6940621612,0.336000000002969
11,19,62344.0545808394,0.336999999999534
11,20,80235.732423872,0.338000000003376
11,21,57173.8328462873,0.336999999999534
11,22,30670.5807522339,0.334000000002561
11,23,87342.8268228843,0.296000000002095
11,24,24119.8852486276,0.289999999993597
11,25,71010.2836405256,0.301000000006752
11,26,62427.6279857214,0.361999999993714
11,27,50885.4253082831,0.370000000002619
11,28,110433.158488865,0.372999999999593
11,29,59407.5565366716,0.321000000003551
11,30,85807.5787752477,0.312999999994645
12,13,31724.8401894107,0.296000000002095
12,14,87350.1880667895,0.338000000003376
12,15,43022.5668088467,0.352999999995518
12,16,57395.1450680019,0.36200000000099
12,17,109409.537301505,0.385999999998603
12,18,70164.8013678699,0.377000000000407
12,19,33959.8329279918,0.375999999996566
12,20,141969.562596824,0.336999999999534
12,21,11994.5291226814,0.354999999995925
12,22,114450.211556156,0.353000000002794
12,23,47871.869319134,0.330000000001746
12,24,39047.4721915242,0.309999999997672
12,25,21601.8259505887,0.284999999996217
12,26,24330.0494642215,0.292000000001281
12,27,17154.5648638269,0.336000000002969
12,28,54239.8822902063,0.328999999997905
12,29,37668.6192103978,0.294000000001688
12,30,51786.0592422186,0.296000000002095
13,14,74387.5900258978,0.305000000000291
13,15,35068.7161037091,0.332999999998719
13,16,9010.75242027026,0.342000000004191
13,17,56993.80399461,0.377000000000407
13,18,44983.2450306828,0.376000000003842
13,19,11334.0831215492,0.370999999999185
13,20,71148.9305067673,0.373999999996158
13,21,14079.5524355185,0.372000000003027
13,22,53617.6543754701,0.375
13,23,28818.2020163716,0.326000000000931
13,24,18233.6282221567,0.320999999996275
13,25,18874.4863791784,0.340000000003783
13,26,33753.2575412932,0.360999999997148
13,27,42575.8821329531,0.381999999997788
13,28,21928.8573111747,0.369000000006054
13,29,11022.8372355208,0.370999999999185
13,30,22099.3168658133,0.373999999996158
14,15,85464.6360733895,0.379000000000815
14,16,79484.5207791461,0.386999999995169
14,17,61352.4294432153,0.380000000004657
14,18,60671.6615400758,0.330999999998312
14,19,91620.1617489182,0.311999999998079
14,20,88566.4850939043,0.305999999996857
14,21,89214.7671608326,0.282000000006519
14,22,65899.2468707123,0.312999999994645
14,23,110812.216622808,0.317000000002736
14,24,48017.3886301282,0.348000000005413
14,25,97928.6622547951,0.388999999995576
14,26,119491.97642872,0.384000000005472
14,27,86815.9271243403,0.381999999997788
14,28,125889.491331573,0.381999999997788
14,29,85120.7313014488,0.379999999997381
14,30,92333.5863011554,0.369000000006054
15,16,52846.9761892038,0.315999999998894
15,17,84052.3096503972,0.358000000000175
15,18,81940.5387866599,0.360999999997148
15,19,40871.3888827519,0.36200000000099
15,20,112515.840644076,0.313999999998487
15,21,31002.2794545509,0.306000000004133
15,22,78081.738972856,0.341999999996915
15,23,63906.8045330504,0.355000000003201
15,24,36039.5959689846,0.360000000000582
15,25,47598.08645573,0.336999999999534
15,26,15738.4465929685,0.286999999996624
15,27,17038.8113639939,0.294000000001688
15,28,83484.0132760013,0.306000000004133
15,29,36061.5070099279,0.332999999998719
15,30,93108.6378212518,0.351999999998952
16,17,53280.9240335234,0.377999999996973
16,18,40350.2064001959,0.375999999996566
16,19,12849.5519639383,0.371000000006461
16,20,60896.4216935265,0.373999999996158
16,21,25884.0186965779,0.377000000000407
16,22,46726.659516651,0.375999999996566
16,23,35406.430987162,0.328000000001339
16,24,19185.6973076799,0.30800000000454
16,25,30269.9926477149,0.297999999995227
16,26,62381.7025674423,0.343000000000757
16,27,69290.886604428,0.336000000002969
16,28,28474.0682732833,0.332999999998719
16,29,25184.7818218241,0.328000000001339
16,30,21094.3369260022,0.332999999998719
17,18,105259.186272222,0.385999999998603
17,19,66226.7422096746,0.281000000002678
17,20,45019.396842494,0.318999999995867
17,21,80087.3594629607,0.300999999999476
17,22,68923.3974117334,0.321000000003551
17,23,37411.8407836562,0.35399999999936
17,24,66089.3848982733,0.347000000001572
17,25,84123.2649223428,0.381000000001222
17,26,93237.6880034395,0.377999999996973
17,27,108743.731472416,0.379999999997381
17,28,78230.2573902953,0.370000000002619
17,29,57585.4874710075,0.375
17,30,82065.183749914,0.374000000003434
18,19,60250.5202028431,0.371999999995751
18,20,70395.6536235822,0.381000000001222
18,21,56332.0405856568,0.375999999996566
18,22,37902.7325176944,0.328000000001339
18,23,79054.187655231,0.309000000001106
18,24,20670.7916255411,0.298000000002503
18,25,62269.3261140614,0.286999999996624
18,26,106945.372208134,0.304000000003725
18,27,77675.5879365931,0.309999999997672
18,28,84616.5473961473,0.345000000001164
18,29,81303.4556903258,0.360000000000582
18,30,48136.7072305657,0.357000000003609
19,20,86533.5643629115,0.360000000000582
19,21,14427.4175289921,0.351999999998952
19,22,83393.0277471811,0.360999999997148
19,23,27039.5225677468,0.306000000004133
19,24,22592.1726449658,0.324000000000524
19,25,17952.2267949497,0.341000000000349
19,26,44567.7522128215,0.361999999993714
19,27,43525.2335951742,0.381000000001222
19,28,29252.7364206509,0.367999999994936
19,29,21358.6406389006,0.371999999995751
19,30,24390.1172336127,0.374000000003434
20,21,97821.0500799565,0.379999999997381
20,22,47939.3316281805,0.333000000005995
20,23,62411.1454694875,0.305999999996857
20,24,60140.4640294637,0.302000000003318
20,25,107825.554950914,0.294999999998254
20,26,141456.060666465,0.347000000001572
20,27,132419.610323628,0.314999999995052
20,28,111049.704262767,0.336999999999534
20,29,104057.311022609,0.302999999999884
20,30,96633.0999454816,0.305000000000291
21,22,84966.9830125085,0.301999999996042
21,23,27288.5314748934,0.348999999994703
21,24,27506.7515407509,0.330999999998312
21,25,10392.735899154,0.334000000002561
21,26,21805.1249020646,0.330999999998312
21,27,23855.838318947,0.332000000002154
21,28,21120.6267480305,0.330999999998312
21,29,21252.220894562,0.328000000001339
21,30,26441.9643294759,0.333999999995285
22,23,97531.2231963977,0.338999999999942
22,24,35537.8020419032,0.292000000001281
22,25,101124.225890923,0.290000000000873
22,26,113024.765331688,0.30000000000291
22,27,91894.5904958685,0.312000000005355
22,28,116850.64676372,0.306999999993423
22,29,85451.9710057721,0.299000000006345
22,30,89134.8040487295,0.349999999998545
23,24,44633.8700351297,0.334999999999127
23,25,24745.4142216095,0.336999999999534
23,26,56073.230571154,0.332999999998719
23,27,67423.165594062,0.334999999999127
23,28,33502.7524379006,0.330999999998312
23,29,37334.0868999384,0.328000000001339
23,30,41559.2946126111,0.334999999999127
24,25,32355.7072698151,0.336999999999534
24,26,52501.5466570776,0.299000000006345
24,27,37105.5226181022,0.303999999996449
24,28,55859.9221510151,0.307000000000698
24,29,31215.3840510196,0.29500000000553
24,30,35353.7920241481,0.290000000000873
25,26,34528.9973018479,0.296999999998661
25,27,40821.0758084038,0.357000000003609
25,28,20793.7884859135,0.359000000004016
25,29,26756.3718188474,0.364999999997963
25,30,28646.3411056564,0.317000000002736
26,27,15111.3079984378,0.326999999997497
26,28,75602.3818703389,0.340000000003783
26,29,39732.1267934464,0.364999999997963
26,30,85798.5903940014,0.389999999999418
27,28,98267.3828496231,0.372999999999593
27,29,59337.1595851396,0.375
27,30,91107.081190698,0.333999999995285
28,29,30421.5626996542,0.30000000000291
28,30,17338.1735615248,0.283999999999651
29,30,38277.2878349719,0.288999999997031


"After.Trace.ID","Before.Trace.ID","Difference","Runtime"
1,1,188842.119965517,0.343999999997322
1,2,43621.2725366472,0.368000000002212
1,3,81576.1034680585,0.385000000002037
1,4,129140.083348904,0.381000000001222
1,5,210231.929365547,0.336999999999534
1,6,118831.563687723,0.360000000000582
1,7,138347.680786019,0.354999999995925
1,8,123482.105980038,0.389999999999418
1,9,90798.8962786996,0.386999999995169
1,10,135050.490314003,0.382000000005064
1,11,59138.4714165945,0.379999999997381
1,12,163557.371605914,0.383999999998196
1,13,120177.087039558,0.386000000005879
1,14,51235.6587909111,0.375
1,15,105882.176596576,0.334999999999127
1,16,128166.787572315,0.311999999998079
1,17,70835.9693980744,0.305999999996857
1,18,102630.37826921,0.283999999999651
1,19,154351.649503361,0.312000000005355
1,20,91083.2118792565,0.311000000001513
1,21,145215.363719666,0.29599999999482
1,22,53277.5611574771,0.359000000004016
1,23,133659.328934629,0.370999999999185
1,24,87607.0091696613,0.368999999998778
1,25,169257.648014563,0.326000000000931
1,26,151967.608471038,0.366000000001804
1,27,118366.258043584,0.355999999999767
1,28,214821.963163044,0.38799999999901
1,29,150047.520995698,0.38300000000163
1,30,185496.488163532,0.384999999994761
2,1,13857.0282613428,0.371999999995751
2,2,63357.8959550694,0.375
2,3,123295.106376692,0.376000000003842
2,4,54286.1348610697,0.369999999995343
2,5,15280.6331205579,0.315000000002328
2,6,55303.2538079802,0.298999999999069
2,7,26186.0695464436,0.306000000004133
2,8,29649.7449663255,0.300999999999476
2,9,46577.7844981143,0.279999999998836
2,10,21154.3646195588,0.330000000001746
2,11,82932.669000158,0.310999999994237
2,12,29773.958231374,0.301000000006752
2,13,21336.9566347534,0.339999999996508
2,14,101208.154627841,0.349999999998545
2,15,62396.948833012,0.298999999999069
2,16,31447.8566101059,0.285000000003492
2,17,84861.1221695939,0.303999999996449
2,18,69739.4991322026,0.355999999999767
2,19,24039.9467165076,0.344000000004598
2,20,116278.312005828,0.302999999999884
2,21,10948.9200137506,0.300999999999476
2,22,109228.008242918,0.349000000001979
2,23,31335.3545103759,0.343000000000757
2,24,39774.1749717692,0.301999999996042
2,25,8292.92866459221,0.377000000000407
2,26,45557.7954302608,0.29500000000553
2,27,58220.8252845381,0.315999999998894
2,28,15077.0300390268,0.360999999997148
2,29,24162.1108590206,0.326000000000931
2,30,23234.1501935452,0.323000000003958
3,1,23500.4502148352,0.343999999997322
3,2,50463.4714957999,0.384000000005472
3,3,103926.053127976,0.371999999995751
3,4,13181.7514027442,0.358000000000175
3,5,47659.1225907673,0.30899999999383
3,6,53494.2304397435,0.367000000005646
3,7,10135.4035554361,0.354999999995925
3,8,16872.6170442026,0.36200000000099
3,9,57800.6380591477,0.370000000002619
3,10,19263.6784576713,0.31699999999546
3,11,57528.7769700682,0.305000000000291
3,12,46041.6698215374,0.298999999999069
3,13,22452.2647037364,0.343000000000757
3,14,78184.8831763217,0.340000000003783
3,15,70109.521514351,0.339999999996508
3,16,18794.4100725064,0.293000000005122
3,17,83440.3618528429,0.322000000000116
3,18,23393.2271389925,0.341000000000349
3,19,23161.134384817,0.347000000001572
3,20,65596.1356630814,0.35899999999674
3,21,30211.0426584374,0.35399999999936
3,22,53805.5497369681,0.35899999999674
3,23,44380.3059335444,0.358000000000175
3,24,24797.2087478514,0.35399999999936
3,25,31966.2460797613,0.30800000000454
3,26,67900.057760359,0.307999999997264
3,27,70175.9240715126,0.304000000003725
3,28,38259.3949969884,0.276999999994587
3,29,51601.7796191672,0.305000000000291
3,30,19841.1630633879,0.300999999999476
4,1,87320.9231899679,0.291000000004715
4,2,66015.7529419029,0.345000000001164
4,3,86119.0531789775,0.355999999999767
4,4,55328.4933908056,0.358000000000175
4,5,109641.313505569,0.344999999993888
4,6,51334.373196718,0.35399999999936
4,7,56283.6098166817,0.352000000006228
4,8,56980.9275620231,0.379999999997381
4,9,68711.6118619865,0.381000000001222
4,10,52897.5369962698,0.381999999997788
4,11,40670.7667761466,0.379000000000815
4,12,77830.3409474979,0.38300000000163
4,13,64355.8751109993,0.386999999995169
4,14,75609.5685126601,0.334000000002561
4,15,66550.149038988,0.370999999999185
4,16,60271.7458085101,0.351000000002387
4,17,63107.7486046479,0.379999999997381
4,18,41898.698352799,0.328000000001339
4,19,70598.4052756795,0.364000000001397
4,20,42699.7524967808,0.349999999998545
4,21,71525.6164074281,0.381999999997788
4,22,33487.9088525305,0.32900000000518
4,23,62667.1541932432,0.309000000001106
4,24,38238.1062070311,0.305999999996857
4,25,79881.1533444874,0.286999999996624
4,26,86071.7846337678,0.292000000001281
4,27,60591.4087739891,0.305000000000291
4,28,119884.438149966,0.389999999999418
4,29,87707.5061111932,0.385999999998603
4,30,92268.2608014722,0.383999999998196
5,1,13938.9434657144,0.370999999999185
5,2,73379.9415780227,0.374000000003434
5,3,129048.907274673,0.377999999996973
5,4,58243.6128385477,0.325000000004366
5,5,9588.43785235184,0.317000000002736
5,6,55779.9322401761,0.343000000000757
5,7,28638.467167153,0.326000000000931
5,8,23733.5879240016,0.288999999997031
5,9,51321.611159803,0.296000000002095
5,10,23326.1981548078,0.296999999998661
5,11,93803.5264548092,0.338999999999942
5,12,26172.7807768251,0.343000000000757
5,13,17376.4742871379,0.375999999996566
5,14,116982.325004701,0.379999999997381
5,15,58923.9583348253,0.377999999996973
5,16,30903.9480112371,0.368999999998778
5,17,84154.9636950181,0.372999999999593
5,18,74485.0200645159,0.376000000003842
5,19,22285.1706534944,0.32499999999709
5,20,115621.19126024,0.328999999997905
5,21,10174.4065341039,0.342000000004191
5,22,105803.565422025,0.363999999994121
5,23,27492.4928797988,0.380000000004657
5,24,46205.7862187908,0.372999999999593
5,25,11461.0049886556,0.368999999998778
5,26,38190.3423332242,0.374000000003434
5,27,57198.1715843393,0.371999999995751
5,28,16252.3139941503,0.368000000002212
5,29,27822.670693018,0.371999999995751
5,30,27601.6547611568,0.366000000001804
6,1,19027.1365180191,0.370999999999185
6,2,83455.5923905998,0.379000000000815
6,3,134914.878151377,0.3379999999961
6,4,76971.0907539648,0.289000000004307
6,5,17420.5075398542,0.290999999997439
6,6,48125.2437854589,0.302999999999884
6,7,33168.0119083476,0.333000000005995
6,8,34360.128815298,0.346999999994296
6,9,55263.9026340519,0.384000000005472
6,10,28034.2204590672,0.371999999995751
6,11,105729.092209106,0.380000000004657
6,12,29336.9797523934,0.370999999999185
6,13,29816.568756816,0.372999999999593
6,14,121086.124344421,0.379000000000815
6,15,58125.7925726556,0.328999999997905
6,16,42274.9106431825,0.299999999995634
6,17,88551.3691654085,0.304000000003725
6,18,94379.119870312,0.338999999999942
6,19,25503.2701818295,0.347000000001572
6,20,120027.112982148,0.362999999997555
6,21,11701.3966648279,0.332000000002154
6,22,123767.387200326,0.328999999997905
6,23,29559.5934585534,0.38799999999901
6,24,50097.762955898,0.285000000003492
6,25,13028.0771730328,0.294999999998254
6,26,35996.7168858671,0.305999999996857
6,27,53698.2891998609,0.299000000006345
6,28,30570.828367812,0.309999999997672
6,29,39070.2666975236,0.298999999999069
6,30,34194.7090170639,0.357000000003609
7,1,55910.722588218,0.336999999999534
7,2,74565.2386851516,0.3379999999961
7,3,84793.2347834887,0.338000000003376
7,4,61863.79290342,0.3379999999961
7,5,70105.7653073434,0.334999999999127
7,6,15124.1754010373,0.328000000001339
7,7,42277.5772207844,0.334999999999127
7,8,42980.157250919,0.333999999995285
7,9,57891.858672024,0.338000000003376
7,10,39930.7063012013,0.336999999999534
7,11,70287.8548320533,0.298000000002503
7,12,58956.3842773995,0.347999999998137
7,13,51221.8193952617,0.349999999998545
7,14,92362.162429776,0.334000000002561
7,15,63262.7126016728,0.309999999997672
7,16,45797.6695413907,0.311000000001513
7,17,55868.5586057505,0.322000000000116
7,18,64058.969923021,0.406999999999243
7,19,39952.1842545876,0.305000000000291
7,20,48787.3211270012,0.298999999999069
7,21,49856.0362389256,0.302999999999884
7,22,85746.2749131879,0.30000000000291
7,23,32420.4761290545,0.312999999994645
7,24,41174.6968557454,0.304000000003725
7,25,52470.3238575612,0.358000000000175
7,26,66466.2073781144,0.336999999999534
7,27,59663.0190293598,0.332999999998719
7,28,77832.7303823419,0.338999999999942
7,29,60739.091553248,0.292000000001281
7,30,62823.5533255197,0.292999999997846
8,1,80157.1454057776,0.2870000000039
8,2,47663.869673853,0.280999999995402
8,3,183146.503908121,0.312000000005355
8,4,78319.6429282655,0.288999999997031
8,5,70571.6965215156,0.306000000004133
8,6,98436.0217295528,0.309999999997672
8,7,74019.3498861518,0.35399999999936
8,8,56743.4043056243,0.334000000002561
8,9,70306.2818009978,0.339999999996508
8,10,39336.18923642,0.294000000001688
8,11,51132.0807384921,0.304000000003725
8,12,25615.9720321862,0.302999999999884
8,13,61076.0502535268,0.35399999999936
8,14,64074.0413935276,0.334999999999127
8,15,50059.3089647497,0.338999999999942
8,16,93815.0219657422,0.294000000001688
8,17,143919.679724408,0.292999999997846
8,18,58606.7311143226,0.30000000000291
8,19,65497.9812212246,0.34599999999773
8,20,148946.735064169,0.366000000001804
8,21,39370.7261106453,0.358000000000175
8,22,87199.8830339272,0.35899999999674
8,23,97148.2579592195,0.357999999992899
8,24,40554.0261062168,0.357000000003609
8,25,61071.0517412451,0.354000000006636
8,26,47355.3878998236,0.359999999993306
8,27,22592.192108529,0.357000000003609
8,28,120486.035790789,0.356999999996333
8,29,86599.8418238301,0.360000000000582
8,30,99133.8710218323,0.358000000000175
9,1,41968.4613333781,0.309000000001106
9,2,72689.7560727336,0.309000000001106
9,3,126113.32166036,0.300999999999476
9,4,87682.1517723225,0.338999999999942
9,5,34714.7802658354,0.349999999998545
9,6,72585.0002590115,0.360000000000582
9,7,55886.5194549698,0.384000000005472
9,8,33543.4272578962,0.375
9,9,35312.8886965921,0.375
9,10,44029.6605147099,0.32999999999447
9,11,74082.9930065148,0.310000000004948
9,12,23359.8159408468,0.300999999999476
9,13,26481.5457914688,0.336999999999534
9,14,114625.554632424,0.315999999998894
9,15,34430.0095195571,0.375
9,16,50247.8801769388,0.372999999999593
9,17,71772.3689785747,0.377000000000407
9,18,97923.4840586675,0.377999999996973
9,19,40053.1042141484,0.372999999999593
9,20,124127.104630714,0.382000000005064
9,21,20002.3708569137,0.372999999999593
9,22,102445.745749338,0.372999999999593
9,23,55937.2345021894,0.377000000000407
9,24,57129.1653439143,0.379000000000815
9,25,36764.4241375993,0.330000000001746
9,26,23048.7439513363,0.305000000000291
9,27,33704.7572404642,0.296000000002095
9,28,47997.7315988952,0.340999999993073
9,29,23275.4099778822,0.332000000002154
9,30,60275.0158412375,0.336000000002969
10,1,95980.3974108135,0.299999999995634
10,2,70135.541398722,0.307000000000698
10,3,44675.1880757171,0.298000000002503
10,4,129830.558274406,0.351000000002387
10,5,93186.8016596703,0.334999999999127
10,6,40415.6912815589,0.333999999995285
10,7,85922.3983411511,0.336999999999534
10,8,80731.7408324541,0.338999999999942
10,9,45975.6222719946,0.336000000002969
10,10,85066.654116531,0.298999999999069
10,11,96909.0665800817,0.309999999997672
10,12,88556.2320913351,0.304000000003725
10,13,70615.8859348621,0.3379999999961
10,14,91536.2483231431,0.298000000002503
10,15,68186.9964731687,0.378000000004249
10,16,77337.342412012,0.373999999996158
10,17,19259.0324904529,0.372999999999593
10,18,138657.500336103,0.380000000004657
10,19,71174.3832930778,0.379000000000815
10,20,95264.7114259368,0.375
10,21,69156.2764105643,0.375999999996566
10,22,120575.56503833,0.375
10,23,37848.9091864961,0.369000000006054
10,24,75999.3440975044,0.377999999996973
10,25,68545.2504468426,0.372999999999593
10,26,71762.1205423958,0.375999999996566
10,27,80799.5617597855,0.378000000004249
10,28,89435.8772772505,0.373999999996158
10,29,62433.3627578664,0.376000000003842
10,30,106876.268324195,0.381000000001222
11,1,101202.031790446,0.332999999998719
11,2,68511.6252769528,0.311999999998079
11,3,153577.517848237,0.304000000003725
11,4,71922.1422735345,0.346999999994296
11,5,116877.913721987,0.355999999999767
11,6,99244.1629984787,0.365000000005239
11,7,70252.8210005586,0.388999999995576
11,8,59830.1115140396,0.331000000005588
11,9,69463.4192816102,0.30899999999383
11,10,48943.9534030688,0.304000000003725
11,11,30932.36754156,0.281999999999243
11,12,68390.359361527,0.310000000004948
11,13,63837.1764543669,0.309999999997672
11,14,73621.6058659528,0.292999999997846
11,15,43695.1287698265,0.36200000000099
11,16,78939.5048396596,0.368000000002212
11,17,120196.831447391,0.368000000002212
11,18,46119.7382539191,0.32499999999709
11,19,82270.6538454111,0.360999999997148
11,20,103374.867814388,0.351000000002387
11,21,65965.2207384753,0.375
11,22,49295.1727471293,0.379999999997381
11,23,114104.86394816,0.381000000001222
11,24,37060.1541488146,0.330999999998312
11,25,91646.9585921636,0.313000000001921
11,26,75815.4936117677,0.303999999996449
11,27,37920.4394838479,0.336000000002969
11,28,152903.226722952,0.313000000001921
11,29,101068.942592112,0.348999999994703
11,30,119217.999884638,0.360000000000582
12,1,45004.286915571,0.38799999999901
12,2,48682.6532883048,0.372999999999593
12,3,121982.999577143,0.376000000003842
12,4,87772.9963730568,0.377000000000407
12,5,49409.2690009066,0.375
12,6,61324.9553705078,0.371999999995751
12,7,50058.6079785427,0.372000000003027
12,8,37255.5433986557,0.377999999996973
12,9,16786.4036483249,0.368999999998778
12,10,33912.464209691,0.374000000003434
12,11,49187.6003989245,0.375
12,12,19021.4060028906,0.370999999999185
12,13,30236.6419361472,0.372000000003027
12,14,88508.9074628264,0.377000000000407
12,15,20781.8447308077,0.326999999997497
12,16,53077.0907629238,0.307999999997264
12,17,77464.9701248069,0.30000000000291
12,18,90708.5421512766,0.336999999999534
12,19,30445.7841106824,0.349000000001979
12,20,135583.651322514,0.36200000000099
12,21,23952.9028973197,0.377999999996973
12,22,107518.739642664,0.379000000000815
12,23,52408.7181813661,0.375
12,24,39756.4416472539,0.328999999997905
12,25,37086.1348679165,0.306000000004133
12,26,27471.5431620352,0.297999999995227
12,27,27912.4833210594,0.341000000000349
12,28,66499.8698433997,0.333999999995285
12,29,17836.1242028921,0.331000000005588
12,30,59650.4974529322,0.32999999999447
13,1,41983.8427959184,0.334000000002561
13,2,60662.0742339568,0.385999999998603
13,3,132316.364074304,0.2870000000039
13,4,78906.0888312531,0.298999999999069
13,5,34090.2642960031,0.282999999995809
13,6,55537.698187259,0.312000000005355
13,7,40118.636300274,0.277999999998428
13,8,25961.3889412141,0.364999999997963
13,9,23224.8925422413,0.36200000000099
13,10,25736.826362244,0.360000000000582
13,11,51449.0156219022,0.368999999998778
13,12,16524.8365285521,0.36699999999837
13,13,26308.7193727135,0.317999999999302
13,14,97251.9825666946,0.313000000001921
13,15,19419.6504915253,0.304000000003725
13,16,47527.0111493908,0.280999999995402
13,17,88616.553417314,0.310000000004948
13,18,79652.4608836406,0.310999999994237
13,19,26822.4811259859,0.294000000001688
13,20,124977.332723322,0.294999999998254
13,21,18247.0588538761,0.296999999998661
13,22,102927.59791842,0.349999999998545
13,23,44450.1978882754,0.353000000002794
13,24,34580.6445079772,0.35899999999674
13,25,26671.6680453045,0.349999999998545
13,26,13583.3253127035,0.351999999998952
13,27,16628.3745403741,0.355999999999767
13,28,62026.1833599283,0.353000000002794
13,29,27282.6511385192,0.354999999995925
13,30,64420.1493547967,0.360000000000582
14,1,17112.3039316991,0.305999999996857
14,2,58402.1637492593,0.326000000000931
14,3,109963.32241919,0.391999999999825
14,4,53769.3521763288,0.281000000002678
14,5,18982.2192062179,0.314999999995052
14,6,38483.0918478943,0.298999999999069
14,7,23073.3330523612,0.310000000004948
14,8,23344.1531291111,0.354999999995925
14,9,35352.6207531059,0.346000000005006
14,10,21386.9451546326,0.379000000000815
14,11,73977.9928152913,0.375999999996566
14,12,27619.2983135786,0.374000000003434
14,13,12760.9577949443,0.365999999994528
14,14,94687.3345322274,0.377000000000407
14,15,46503.5462334479,0.375
14,16,23083.3601849176,0.327000000004773
14,17,68536.2557122589,0.306999999993423
14,18,70058.3957780036,0.298000000002503
14,19,14724.8299603792,0.338000000003376
14,20,100851.663573606,0.339999999996508
14,21,8308.25771132996,0.328000000001339
14,22,100084.521720329,0.332999999998719
14,23,24075.3590596736,0.330999999998312
14,24,29609.4361306237,0.378000000004249
14,25,12307.9563559744,0.281999999999243
14,26,41690.0809417603,0.296999999998661
14,27,49184.015051758,0.32499999999709
14,28,15580.0092623936,0.296999999998661
14,29,17619.6520609417,0.304000000003725
14,30,19432.9384766635,0.300999999999476
15,1,61005.586461998,0.338999999999942
15,2,36388.1147655323,0.335999999995693
15,3,90847.4502789966,0.332999999998719
15,4,20677.8735605955,0.332999999998719
15,5,72903.9248652555,0.332999999998719
15,6,58362.239907121,0.335999999995693
15,7,34187.4683185652,0.334999999999127
15,8,24247.0175448843,0.334000000002561
15,9,44070.8703492862,0.334999999999127
15,10,37319.1652723651,0.335999999995693
15,11,31234.4377691029,0.338000000003376
15,12,56392.5759126087,0.294000000001688
15,13,22036.3177344023,0.280999999995402
15,14,53332.4938492121,0.306000000004133
15,15,55458.790446975,0.347999999998137
15,16,21426.9399598901,0.354999999995925
15,17,69462.0892140888,0.357000000003609
15,18,22583.2473892439,0.309999999997672
15,19,41831.1298883001,0.307000000000698
15,20,52017.535976412,0.30000000000291
15,21,41349.4679328949,0.288999999997031
15,22,30894.4002431406,0.300999999999476
15,23,62800.4297903168,0.311000000001513
15,24,12877.5263444187,0.343999999997322
15,25,51600.4931882705,0.357000000003609
15,26,73472.4144904892,0.358000000000175
15,27,71317.7864864556,0.358000000000175
15,28,57907.835678575,0.356999999996333
15,29,45570.387418229,0.355999999999767
15,30,34818.924834032,0.353000000002794
16,1,57388.7941556075,0.359000000004016
16,2,84748.3472366314,0.362999999997555
16,3,151218.595318286,0.315999999998894
16,4,116182.854967303,0.364999999997963
16,5,39056.7042350406,0.349000000001979
16,6,60119.8809291824,0.373999999996158
16,7,59623.066042786,0.377000000000407
16,8,50956.1469003355,0.377000000000407
16,9,35648.4687883575,0.372000000003027
16,10,48863.979767616,0.377000000000407
16,11,87438.8226978135,0.381000000001222
16,12,25575.6982957821,0.375
16,13,44566.7690587156,0.379000000000815
16,14,127609.964799332,0.380999999993946
16,15,24402.44053322,0.372000000003027
16,16,63852.4226589348,0.377999999996973
16,17,100205.400600704,0.381000000001222
16,18,121569.576512039,0.333999999995285
16,19,42266.4860300207,0.360000000000582
16,20,154127.202971818,0.35399999999936
16,21,20948.0718321502,0.378000000004249
16,22,145412.194874289,0.38300000000163
16,23,50628.8331839058,0.381999999997788
16,24,60491.6311065719,0.373999999996158
16,25,26117.3652930624,0.375999999996566
16,26,16138.4334850405,0.372999999999593
16,27,26649.4995398417,0.368000000002212
16,28,69067.4248883009,0.379999999997381
16,29,41771.7379705643,0.377000000000407
16,30,82968.0119112776,0.338999999999942
17,1,40761.1130528358,0.284999999996217
17,2,75175.2279828322,0.307000000000698
17,3,79009.327548004,0.298000000002503
17,4,66452.7034748506,0.336999999999534
17,5,48992.9260138295,0.347000000001572
17,6,34016.0601218802,0.378000000004249
17,7,28255.9519683602,0.372999999999593
17,8,31641.5449476536,0.372999999999593
17,9,38166.6105824786,0.370999999999185
17,10,41755.1687936514,0.377000000000407
17,11,68895.9092319916,0.377000000000407
17,12,70829.5018448054,0.330000000001746
17,13,21005.9202467098,0.297999999995227
17,14,95394.6197413265,0.307000000000698
17,15,48435.027662136,0.334999999999127
17,16,15536.61814994,0.346000000005006
17,17,45711.7603164771,0.351999999998952
17,18,82331.8895234742,0.385999999998603
17,19,19007.0406884113,0.372000000003027
17,20,67355.3030247613,0.423000000002503
17,21,25599.773646603,0.281999999999243
17,22,73043.7589321346,0.320999999996275
17,23,32082.2451478235,0.292000000001281
17,24,32347.8462126566,0.315000000002328
17,25,33300.8612520277,0.354999999995925
17,26,49595.1002189172,0.330000000001746
17,27,69498.7380338965,0.330999999998312
17,28,36102.5912163305,0.332999999998719
17,29,22089.6386395373,0.331000000005588
17,30,53336.3380774766,0.332999999998719
18,1,92515.3590634541,0.338999999999942
18,2,36983.7347089215,0.3379999999961
18,3,31707.7169874548,0.293000000005122
18,4,63971.2820400269,0.288999999997031
18,5,115611.461878845,0.306000000004133
18,6,64164.9768711541,0.3379999999961
18,7,57165.8706746595,0.315000000002328
18,8,56363.1423313164,0.358000000000175
18,9,45428.3361677711,0.358000000000175
18,10,66122.476473439,0.360000000000582
18,11,48211.1022748062,0.355000000003201
18,12,100997.170818367,0.359999999993306
18,13,55336.1632074003,0.364000000001397
18,14,30273.5327943099,0.359000000004016
18,15,73675.2377676576,0.356999999996333
18,16,46481.4785758755,0.353000000002794
18,17,42031.973738094,0.358000000000175
18,18,61056.4356920644,0.356999999996333
18,19,59725.2231463605,0.357000000003609
18,20,63150.9594224188,0.360999999997148
18,21,71997.8406546808,0.355999999999767
18,22,50791.6880926722,0.358000000000175
18,23,81017.9389942999,0.360000000000582
18,24,35088.9636248044,0.309999999997672
18,25,76900.9030020583,0.311000000001513
18,26,103448.187387783,0.302000000003318
18,27,90213.6358160629,0.3379999999961
18,28,97208.7404969134,0.355999999999767
18,29,65565.0166236708,0.357000000003609
18,30,84742.6871557913,0.386999999995169
19,1,48047.2275537499,0.375
19,2,58427.1782997725,0.377999999996973
19,3,144273.353156515,0.332000000002154
19,4,68142.7410611338,0.307999999997264
19,5,48324.5612704788,0.301999999996042
19,6,65568.6360756227,0.340000000003783
19,7,41771.7220322526,0.307999999997264
19,8,27897.4806165113,0.372999999999593
19,9,37188.4883441734,0.370000000002619
19,10,21705.0286446267,0.370000000002619
19,11,49025.1977577783,0.372999999999593
19,12,24208.1029330478,0.372999999999593
19,13,36638.4995806263,0.375
19,14,84657.004304349,0.381999999997788
19,15,23642.5699535377,0.368999999998778
19,16,58881.2489797742,0.375999999996566
19,17,106687.738375683,0.377000000000407
19,18,60979.0368681166,0.332000000002154
19,19,34885.9080287618,0.298000000002503
19,20,119130.291810878,0.309999999997672
19,21,25946.4617731302,0.342000000004191
19,22,90556.61779558,0.311999999998079
19,23,62133.7623995419,0.341999999996915
19,24,32374.8015223841,0.353000000002794
19,25,40426.529774189,0.385999999998603
19,26,23342.8514213071,0.372999999999593
19,27,14593.8350727327,0.365999999994528
19,28,86306.1170318366,0.374000000003434
19,29,54449.4151101884,0.375999999996566
19,30,69204.0569042029,0.328999999997905
20,1,30485.5176074285,0.30000000000291
20,2,50414.0500411117,0.288000000000466
20,3,130784.467051312,0.286999999996624
20,4,21029.0652088872,0.350999999995111
20,5,43557.362955494,0.333000000005995
20,6,57212.6347230462,0.334999999999127
20,7,18792.794867535,0.286000000000058
20,8,23787.6129816375,0.290000000000873
20,9,62145.996615655,0.366000000001804
20,10,14890.7873839801,0.364000000001397
20,11,58369.426912668,0.362999999997555
20,12,40078.553136057,0.355999999999767
20,13,36152.9683089802,0.313000000001921
20,14,67354.4334910828,0.360000000000582
20,15,70098.4237935887,0.356999999996333
20,16,38956.1923071246,0.355999999999767
20,17,107244.797891673,0.358000000000175
20,18,20751.8195608331,0.351000000002387
20,19,30393.0245074986,0.354999999995925
20,20,75579.9397489451,0.36200000000099
20,21,34573.4263467821,0.351999999998952
20,22,63547.68554203,0.356999999996333
20,23,52086.4347702669,0.358000000000175
20,24,21465.6738672372,0.305999999996857
20,25,36825.7692458827,0.322000000000116
20,26,61244.4242496682,0.347999999998137
20,27,44083.4593342249,0.312000000005355
20,28,63009.1568482986,0.307999999997264
20,29,65019.197689169,0.304000000003725
20,30,29909.5926142611,0.280999999995402
21,1,103287.709698257,0.309000000001106
21,2,32846.054185312,0.30000000000291
21,3,34463.1698486696,0.353000000002794
21,4,101498.588170347,0.35399999999936
21,5,123506.557554237,0.385000000002037
21,6,82976.931913636,0.375999999996566
21,7,81587.4611550738,0.379000000000815
21,8,71749.2807679313,0.375
21,9,38919.8143675066,0.331000000005588
21,10,89405.8019130907,0.305000000000291
21,11,69970.0000103611,0.303999999996449
21,12,99798.4868170332,0.347999999998137
21,13,62833.8620696464,0.331000000005588
21,14,40993.5236040087,0.334999999999127
21,15,77244.1848103662,0.299999999995634
21,16,62947.4523853962,0.305000000000291
21,17,24803.0221768289,0.300999999999476
21,18,98074.8522920207,0.351999999998952
21,19,76545.6337590536,0.336999999999534
21,20,67005.1691679829,0.338999999999942
21,21,86040.4977072141,0.290000000000873
21,22,75698.036808928,0.290000000000873
21,23,81979.3579532927,0.319999999999709
21,24,62872.3171704123,0.277999999998428
21,25,90738.6529469678,0.335000000006403
21,26,96502.8262629445,0.354999999995925
21,27,96698.7735877751,0.387000000002445
21,28,95315.9734483696,0.328999999997905
21,29,65895.6031310651,0.309000000001106
21,30,88803.3502354299,0.302999999999884
22,1,82734.2914775908,0.280999999995402
22,2,46616.7910088253,0.305000000000291
22,3,84502.5574543227,0.307000000000698
22,4,22287.5632577094,0.274000000004889
22,5,106909.780994329,0.341000000000349
22,6,84100.4913790975,0.355999999999767
22,7,45300.1795054319,0.35399999999936
22,8,44409.2821276921,0.340000000003783
22,9,68188.0974017895,0.309000000001106
22,10,57122.9604663715,0.303999999996449
22,11,34664.9209125045,0.27900000000227
22,12,100481.789104754,0.307999999997264
22,13,41493.3774680337,0.307000000000698
22,14,60386.3565673266,0.292000000001281
22,15,84896.1768165095,0.368999999998778
22,16,34442.0532936618,0.366000000001804
22,17,74169.8723364038,0.364999999997963
22,18,22284.8263586449,0.317000000002736
22,19,66376.0079948639,0.305999999996857
22,20,46359.1737389661,0.298999999999069
22,21,69049.5980892724,0.290000000000873
22,22,16754.1829233709,0.291999999994005
22,23,88308.6949063487,0.247000000003027
22,24,26785.3074684049,0.292999999997846
22,25,79837.5074565373,0.358000000000175
22,26,118100.172272642,0.356999999996333
22,27,113988.456948864,0.389000000002852
22,28,87404.9018852536,0.38300000000163
22,29,70765.1585832024,0.375999999996566
22,30,57736.5110415325,0.330000000001746
23,1,15012.4726776151,0.296999999998661
23,2,50778.9305777496,0.302000000003318
23,3,122411.193504841,0.280999999995402
23,4,39963.8712154686,0.309999999997672
23,5,21902.24615997,0.304000000003725
23,6,52404.6748475443,0.355999999999767
23,7,22987.1542275354,0.347999999998137
23,8,13096.3710076451,0.380000000004657
23,9,38095.7402607655,0.368999999998778
23,10,10028.3278401797,0.369999999995343
23,11,55203.5905249032,0.380000000004657
23,12,18584.8524721209,0.328000000001339
23,13,18719.5350786375,0.298999999999069
23,14,84972.6793928714,0.309000000001106
23,15,40749.1930638818,0.282999999995809
23,16,31016.8643227877,0.300999999999476
23,17,85003.8349344601,0.311000000001513
23,18,46331.5379493415,0.292999999997846
23,19,17336.1055692794,0.281999999999243
23,20,99483.4803116164,0.30800000000454
23,21,16978.8688744745,0.34599999999773
23,22,73421.1774760656,0.361000000004424
23,23,37945.477607241,0.356999999996333
23,24,26829.1760934179,0.353000000002794
23,25,21838.3711414264,0.352999999995518
23,26,27176.1409935735,0.35399999999936
23,27,28642.0970532169,0.349999999998545
23,28,36582.6196193914,0.352000000006228
23,29,28445.2878535307,0.351999999998952
23,30,34467.0553086988,0.356999999996333
24,1,99101.667982839,0.355999999999767
24,2,58296.9830629963,0.351999999998952
24,3,12184.0887110231,0.345000000001164
24,4,92856.0373308584,0.357000000003609
24,5,138843.188654684,0.355999999999767
24,6,60854.0941179704,0.358000000000175
24,7,81356.5014295111,0.354999999995925
24,8,89272.7134530765,0.347000000001572
24,9,82967.7954690475,0.317999999999302
24,10,102102.053877228,0.35899999999674
24,11,108762.366858435,0.357000000003609
24,12,136754.910732101,0.363999999994121
24,13,84121.4014594283,0.360000000000582
24,14,67521.7799202712,0.355999999999767
24,15,128600.85550117,0.36200000000099
24,16,71221.4378012902,0.35399999999936
24,17,16136.0084267949,0.348000000005413
24,18,101421.59472126,0.35899999999674
24,19,91784.9363403516,0.358000000000175
24,20,53007.8224420185,0.351999999998952
24,21,105173.505905995,0.360000000000582
24,22,85755.9939109863,0.358000000000175
24,23,64421.8372764412,0.351999999998952
24,24,80558.1039427637,0.356999999996333
24,25,109360.820078335,0.360000000000582
24,26,146797.428753624,0.313000000001921
24,27,151816.822774618,0.309000000001106
24,28,102970.369027821,0.296000000002095
24,29,98099.3443909651,0.3379999999961
24,30,86715.6951529873,0.351000000002387
25,1,9672.33789661769,0.349000000001979
25,2,53526.6775230079,0.38300000000163
25,3,105141.691602511,0.373999999996158
25,4,48598.039493077,0.375
25,5,25400.4796427683,0.325000000004366
25,6,37993.5375690832,0.323999999993248
25,7,11169.2415573688,0.334999999999127
25,8,11068.4512850711,0.35399999999936
25,9,34852.1173189639,0.385000000002037
25,10,11006.597278742,0.36699999999837
25,11,61769.2367032344,0.377000000000407
25,12,27051.7380309047,0.376000000003842
25,13,13821.6701219987,0.36699999999837
25,14,89220.9056660825,0.375
25,15,39395.9269867943,0.373999999996158
25,16,18529.116104166,0.368999999998778
25,17,68346.6085222923,0.372999999999593
25,18,59527.0224034837,0.376000000003842
25,19,7845.52796113578,0.353000000002794
25,20,94814.0501184634,0.319999999999709
25,21,11674.2961097517,0.358000000000175
25,22,84598.4948760582,0.364000000001397
25,23,27398.4009661589,0.36200000000099
25,24,24378.3420762094,0.364000000001397
25,25,16199.0607171432,0.313999999998487
25,26,31526.0048853589,0.323000000003958
25,27,37635.0084193209,0.339999999996508
25,28,28575.4493679496,0.359000000004016
25,29,22923.2129379287,0.380999999993946
25,30,22212.6990739766,0.370000000002619
26,1,24747.2332428854,0.376000000003842
26,2,43898.5811573025,0.373999999996158
26,3,135112.350271758,0.374000000003434
26,4,19863.8943707373,0.375
26,5,38952.4967011286,0.326999999997497
26,6,64909.917955126,0.310000000004948
26,7,20407.8347201429,0.288000000000466
26,8,27601.6210172094,0.290999999997439
26,9,55328.623280152,0.311000000001513
26,10,9996.34696105782,0.289000000004307
26,11,58783.421791805,0.288999999997031
26,12,34392.1028171157,0.302000000003318
26,13,34868.7007810709,0.344999999993888
26,14,69855.5110365988,0.36200000000099
26,15,80995.4131256001,0.365000000005239
26,16,44509.3831947341,0.354999999995925
26,17,107378.559731844,0.359000000004016
26,18,23410.8976648491,0.355999999999767
26,19,29266.9323814774,0.307999999997264
26,20,95658.2504385014,0.370999999999185
26,21,29035.8820704209,0.347999999998137
26,22,74078.9626205475,0.379000000000815
26,23,50673.9206550065,0.376000000003842
26,24,21481.5977126675,0.379000000000815
26,25,33226.8371148783,0.375999999996566
26,26,62485.5015228439,0.332999999998719
26,27,52992.7816381745,0.313000000001921
26,28,48975.3370789709,0.304000000003725
26,29,52027.4201524552,0.280999999995402
26,30,23701.2403730639,0.302000000003318
27,1,61975.5410769827,0.311000000001513
27,2,58822.2618360611,0.350999999995111
27,3,50503.6628204345,0.383999999998196
27,4,68993.5157257085,0.377999999996973
27,5,78084.6629087673,0.332000000002154
27,6,29928.8262252804,0.304000000003725
27,7,45380.6383116703,0.296000000002095
27,8,50723.4327860377,0.345000000001164
27,9,52196.7145122459,0.338000000003376
27,10,57341.0686047621,0.339999999996508
27,11,73892.751189084,0.302000000003318
27,12,82356.6141935971,0.370999999999185
27,13,45565.1136330143,0.340000000003783
27,14,82895.675161202,0.300999999999476
27,15,74115.3479031228,0.301999999996042
27,16,40052.4804575644,0.357000000003609
27,17,32419.1562909982,0.34599999999773
27,18,76074.5124717682,0.381999999997788
27,19,43725.6985099856,0.31600000000617
27,20,51270.252137028,0.360999999997148
27,21,54792.6146747786,0.366000000001804
27,22,67476.5695129917,0.372000000003027
27,23,34234.8417352342,0.360999999997148
27,24,46802.9226288506,0.364999999997963
27,25,53267.9823429183,0.368999999998778
27,26,82819.6147641049,0.370000000002619
27,27,89201.1734076199,0.367999999994936
27,28,57262.9585630595,0.367000000005646
27,29,52907.8335699304,0.368999999998778
27,30,56779.5239183512,0.318999999995867
28,1,97712.49805346,0.309000000001106
28,2,51136.7520022849,0.306000000004133
28,3,114531.123448798,0.344999999993888
28,4,42273.0724340749,0.310000000004948
28,5,118739.963027787,0.378000000004249
28,6,98972.55438091,0.381999999997788
28,7,55914.7532579807,0.379000000000815
28,8,47675.0849983876,0.373999999996158
28,9,69410.0184826044,0.373999999996158
28,10,57505.8022349973,0.380000000004657
28,11,15973.8826300554,0.371999999995751
28,12,89193.4093234,0.378000000004249
28,13,52498.4899904483,0.375
28,14,59240.0073169931,0.381000000001222
28,15,60424.8812479659,0.330999999998312
28,16,59301.8719143945,0.309000000001106
28,17,99221.2029670838,0.307000000000698
28,18,29864.3484896216,0.338999999999942
28,19,79860.5309383236,0.313999999998487
28,20,76336.7484676801,0.379999999997381
28,21,74607.7995708591,0.376000000003842
28,22,26922.8465845919,0.377000000000407
28,23,108067.569984263,0.379999999997381
28,24,28422.4931155523,0.374000000003434
28,25,96200.2090640718,0.381000000001222
28,26,98958.1835667634,0.379000000000815
28,27,75673.750169035,0.377000000000407
28,28,127486.905788612,0.380999999993946
28,29,82521.0985976658,0.376000000003842
28,30,93250.5591590004,0.334000000002561
29,1,23889.9323127671,0.354999999995925
29,2,81047.6035828433,0.349000000001979
29,3,113633.910551716,0.330000000001746
29,4,73893.8838039235,0.305000000000291
29,5,27399.8526120752,0.332000000002154
29,6,42478.5473547254,0.351999999998952
29,7,29705.5314434157,0.349999999998545
29,8,36360.1174355761,0.296999999998661
29,9,50913.2466799674,0.327000000004773
29,10,39927.2202938563,0.288999999997031
29,11,101313.853893656,0.309000000001106
29,12,50279.1274843835,0.3379999999961
29,13,17568.2221990103,0.346000000005006
29,14,122406.46974076,0.386999999995169
29,15,64800.9738714456,0.374000000003434
29,16,29027.0924618331,0.371999999995751
29,17,72294.777646561,0.370000000002619
29,18,92011.5108928322,0.377000000000407
29,19,20625.9086916494,0.368999999998778
29,20,111704.065938025,0.375
29,21,13656.1636048366,0.369999999995343
29,22,114413.451251666,0.378000000004249
29,23,26444.486829811,0.324000000000524
29,24,50182.6496332801,0.326000000000931
29,25,15995.5447571795,0.336999999999534
29,26,62144.2374628402,0.364999999997963
29,27,81277.1653244733,0.381999999997788
29,28,16906.798965335,0.36699999999837
29,29,23641.0568833592,0.367000000005646
29,30,30506.2437195048,0.375
30,1,93712.1134193728,0.377000000000407
30,2,69114.9430161834,0.379999999997381
30,3,137150.49168482,0.379000000000815
30,4,105726.839664139,0.370000000002619
30,5,89025.9800381241,0.318000000006577
30,6,65960.1192823398,0.35899999999674
30,7,84321.9626023486,0.35899999999674
30,8,71785.4663967793,0.36200000000099
30,9,82817.1911490263,0.358000000000175
30,10,50839.2238402529,0.35399999999936
30,11,73728.8996237981,0.362999999997555
30,12,46771.0417965818,0.36699999999837
30,13,76612.5107270853,0.355999999999767
30,14,95814.6049322417,0.357000000003609
30,15,64738.6592558173,0.364000000001397
30,16,103011.462971138,0.36699999999837
30,17,93393.6059425211,0.364999999997963
30,18,99146.5007522327,0.363999999994121
30,19,78031.0505573215,0.36200000000099
30,20,114616.158724519,0.360000000000582
30,21,60090.1842975231,0.359000000004016
30,22,102986.67584427,0.313999999998487
30,23,72746.9171360165,0.30800000000454
30,24,50765.710450612,0.31699999999546
30,25,76007.5531105942,0.283000000003085
30,26,59776.8727026648,0.343000000000757
30,27,38156.2436562829,0.338999999999942
30,28,139266.071865447,0.338999999999942
30,29,104410.904303781,0.345000000001164
30,30,110135.743407706,0.391999999999825
