App - Financius
Scenario - write_transactions
Level - 1sec
Measure - FourierDistance
Test Statistic - Mann-Whitney U Test
Effect Size Measure - Simple Difference:Kerby
Alpha Level - 0.05


"Before.Version","After.Version","Diff","Direction","P.Value","Simple.Diff","Within.Diffs.Mean","Within.Diffs.SD","Between.Diffs.Mean","Between.Diffs.SD","Runtime"
"0.12.1","0.13.0",FALSE,NA,0,0.118,87586.613,24083.854,92587.222,25418.129,0.522
"0.13.0","0.14.0",FALSE,NA,0.084,0.046,86468.294,22589.877,100460.753,75143.311,0.552
"0.14.0","0.15.0",TRUE,"POSITIVE",0,0.846,114378.744,104514.457,184190.316,47762.984,0.533
