App - AnkiDroid
Scenario - learn_cards
Level - 1sec
Measure - DTWDistance
Test Statistic - Mann-Whitney U Test
Effect Size Measure - Simple Difference:Kerby
Alpha Level - 0.05


"Before.Version","After.Version","Diff","Direction","P.Value","Simple.Diff","Within.Diffs.Mean","Within.Diffs.SD","Between.Diffs.Mean","Between.Diffs.SD","Runtime"
"2.5_b","2.6_b",FALSE,NA,0,0.253,27411.001,14594.991,33489.734,16369.712,490.108
"2.6_b","2.7_f",TRUE,"NEGATIVE",0,1,26968.006,10856.161,154130.353,27658.442,497.009
"2.7_f","2.8_f",FALSE,NA,0,0.213,26802.459,10144.109,31063.172,12154.681,494.609
