Trial,Energy (J)
1,70.69550485539592
2,72.54179125434004
3,70.48964322288367
4,72.14445846616385
5,70.65346963930405
6,70.62289469556383
7,70.78058056235993
8,70.19474759723224
9,72.20316227793973
10,70.8469724944398
11,73.56633732700413
12,72.39007742692797
13,71.4384377155321
14,72.60535165926017
15,72.01877662543596
16,72.0110133557999
17,71.2674208910838
18,72.74023139296405
19,70.63213030929612
20,69.758548487792
21,72.18427814871586
22,70.24813140173164
23,71.47863465310402
24,71.53871627322793
25,73.11378286084793
26,71.32414630965218
27,71.83409859400389
28,71.44771516414781
29,70.96850447739186
30,72.48754105599596
