Trial,Energy (J)
1,162.8501947819642
2,161.21184109240016
3,152.62546974631255
4,157.38578514934352
5,184.61497528853573
6,144.11149414940292
7,146.47361245948002
8,153.81699574809628
9,139.6259100456799
10,157.15857948386764
11,157.4629872234518
12,144.13906458331584
13,162.39918803566695
14,130.71751595449575
15,141.85185959693234
16,125.78625627488812
17,155.29226918832384
18,173.15390239991174
19,140.53894539247216
20,142.0333702746064
21,151.9748534778127
22,151.84330584921983
23,159.55735713231203
24,175.30240228379245
25,170.51928597054496
26,157.45890089137262
27,156.75851294334058
28,176.41655755582943
29,154.08232523038825
30,162.06312327948035
