App - SimpleCalendar
Scenario - make_events
Length - 5sec
Measure - EDRDistance
Before Version - 8003feb
After Version - 5379244


"Before.Trace.ID1","Before.Trace.ID2","Difference","Runtime"
1,2,1737,0.388000000006286
1,3,1741,0.267999999996391
1,4,1744,0.269000000000233
1,5,1743,0.267999999996391
1,6,1736,0.271000000007916
1,7,1738,0.270999999993364
1,8,1736,0.269000000000233
1,9,1743,0.271999999997206
1,10,1738,0.271999999997206
1,11,1742,0.271999999997206
1,12,1746,0.270000000004075
1,13,1747,0.273000000001048
1,14,1749,0.271999999997206
1,15,1749,0.270000000004075
1,16,1744,0.271999999997206
1,17,1742,0.270000000004075
1,18,1746,0.273000000001048
1,19,1737,0.273000000001048
1,20,1745,0.273999999990338
1,21,1739,0.273000000001048
1,22,1728,0.269000000000233
1,23,1742,0.271000000007916
1,24,1745,0.271000000007916
1,25,1739,0.273000000001048
1,26,1742,0.269999999989523
1,27,1747,0.272000000011758
1,28,1740,0.270999999993364
1,29,1739,0.269000000000233
1,30,1738,0.271999999997206
2,3,1743,0.270000000004075
2,4,1742,0.270999999993364
2,5,1739,0.271000000007916
2,6,1747,0.270999999993364
2,7,1728,0.272000000011758
2,8,1737,0.267999999996391
2,9,1743,0.270999999993364
2,10,1739,0.271999999997206
2,11,1744,0.271000000007916
2,12,1743,0.269000000000233
2,13,1748,0.270999999993364
2,14,1747,0.272000000011758
2,15,1749,0.269999999989523
2,16,1744,0.271000000007916
2,17,1742,0.269000000000233
2,18,1741,0.271999999997206
2,19,1744,0.271999999997206
2,20,1742,0.271000000007916
2,21,1745,0.271999999997206
2,22,1739,0.266999999992549
2,23,1742,0.271999999997206
2,24,1744,0.271000000007916
2,25,1744,0.270999999993364
2,26,1744,0.271000000007916
2,27,1743,0.270999999993364
2,28,1742,0.271000000007916
2,29,1744,0.269999999989523
2,30,1740,0.272000000011758
3,4,1737,0.269999999989523
3,5,1738,0.271000000007916
3,6,1737,0.277000000001863
3,7,1745,0.277000000001863
3,8,1744,0.271999999997206
3,9,1744,0.269000000000233
3,10,1722,0.271999999997206
3,11,1740,0.271999999997206
3,12,1739,0.271000000007916
3,13,1746,0.269999999989523
3,14,1749,0.271999999997206
3,15,1749,0.271000000007916
3,16,1749,0.269000000000233
3,17,1727,0.271999999997206
3,18,1740,0.274999999994179
3,19,1736,0.271999999997206
3,20,1739,0.271000000007916
3,21,1728,0.271999999997206
3,22,1739,0.270999999993364
3,23,1748,0.267999999996391
3,24,1742,0.272000000011758
3,25,1742,0.271000000007916
3,26,1734,0.271999999997206
3,27,1740,0.270000000004075
3,28,1731,0.271999999997206
3,29,1737,0.270999999993364
3,30,1739,0.270000000004075
4,5,1744,0.271999999997206
4,6,1733,0.269000000000233
4,7,1737,0.270000000004075
4,8,1736,0.270000000004075
4,9,1741,0.271000000007916
4,10,1740,0.273000000001048
4,11,1748,0.267999999996391
4,12,1736,0.271999999997206
4,13,1749,0.297999999995227
4,14,1749,0.273000000001048
4,15,1749,0.271000000007916
4,16,1749,0.270999999993364
4,17,1741,0.271999999997206
4,18,1731,0.270000000004075
4,19,1741,0.271999999997206
4,20,1743,0.270000000004075
4,21,1737,0.271999999997206
4,22,1738,0.271000000007916
4,23,1741,0.270999999993364
4,24,1739,0.273000000001048
4,25,1742,0.267999999996391
4,26,1733,0.270000000004075
4,27,1735,0.270999999993364
4,28,1743,0.273000000001048
4,29,1733,0.269000000000233
4,30,1739,0.270999999993364
5,6,1743,0.271000000007916
5,7,1730,0.270999999993364
5,8,1745,0.271000000007916
5,9,1742,0.269000000000233
5,10,1746,0.271000000007916
5,11,1741,0.270999999993364
5,12,1731,0.271999999997206
5,13,1749,0.273000000001048
5,14,1749,0.275000000008731
5,15,1749,0.273000000001048
5,16,1746,0.270999999993364
5,17,1740,0.273000000001048
5,18,1741,0.269000000000233
5,19,1745,0.271999999997206
5,20,1740,0.271999999997206
5,21,1741,0.271000000007916
5,22,1726,0.271999999997206
5,23,1743,0.270000000004075
5,24,1735,0.271999999997206
5,25,1735,0.270999999993364
5,26,1743,0.272000000011758
5,27,1737,0.270999999993364
5,28,1746,0.267999999996391
5,29,1740,0.270000000004075
5,30,1733,0.270999999993364
6,7,1742,0.271999999997206
6,8,1740,0.270000000004075
6,9,1742,0.270999999993364
6,10,1738,0.272000000011758
6,11,1748,0.269999999989523
6,12,1731,0.272000000011758
6,13,1745,0.269000000000233
6,14,1749,0.270999999993364
6,15,1749,0.271999999997206
6,16,1747,0.271000000007916
6,17,1730,0.271999999997206
6,18,1740,0.267999999996391
6,19,1737,0.270999999993364
6,20,1741,0.271000000007916
6,21,1739,0.271999999997206
6,22,1739,0.270000000004075
6,23,1739,0.270999999993364
6,24,1747,0.271000000007916
6,25,1740,0.270999999993364
6,26,1736,0.271999999997206
6,27,1741,0.270000000004075
6,28,1740,0.270999999993364
6,29,1739,0.271000000007916
6,30,1741,0.271999999997206
7,8,1742,0.271999999997206
7,9,1738,0.269000000000233
7,10,1736,0.271999999997206
7,11,1744,0.271999999997206
7,12,1729,0.272000000011758
7,13,1746,0.270999999993364
7,14,1749,0.270999999993364
7,15,1749,0.274000000004889
7,16,1743,0.270000000004075
7,17,1740,0.270999999993364
7,18,1727,0.269000000000233
7,19,1733,0.273000000001048
7,20,1735,0.270000000004075
7,21,1738,0.277000000001863
7,22,1723,0.3009999999922
7,23,1742,0.270000000004075
7,24,1733,0.271999999997206
7,25,1733,0.273000000001048
7,26,1736,0.270999999993364
7,27,1735,0.296000000002095
7,28,1739,0.312000000005355
7,29,1742,0.285000000003492
7,30,1737,0.269999999989523
8,9,1747,0.272000000011758
8,10,1743,0.270999999993364
8,11,1746,0.270999999993364
8,12,1744,0.271999999997206
8,13,1747,0.270000000004075
8,14,1749,0.270999999993364
8,15,1749,0.268000000010943
8,16,1745,0.271999999997206
8,17,1739,0.270999999993364
8,18,1740,0.271999999997206
8,19,1738,0.269000000000233
8,20,1748,0.271000000007916
8,21,1734,0.270999999993364
8,22,1745,0.271000000007916
8,23,1740,0.270999999993364
8,24,1741,0.269000000000233
8,25,1744,0.271000000007916
8,26,1744,0.271999999997206
8,27,1743,0.270999999993364
8,28,1743,0.271999999997206
8,29,1741,0.268000000010943
8,30,1742,0.270999999993364
9,10,1742,0.270999999993364
9,11,1748,0.271000000007916
9,12,1738,0.269000000000233
9,13,1747,0.270999999993364
9,14,1749,0.271999999997206
9,15,1749,0.269000000000233
9,16,1749,0.271000000007916
9,17,1743,0.267999999996391
9,18,1744,0.270999999993364
9,19,1745,0.271000000007916
9,20,1737,0.271999999997206
9,21,1728,0.270999999993364
9,22,1739,0.268000000010943
9,23,1745,0.270999999993364
9,24,1727,0.270000000004075
9,25,1742,0.270999999993364
9,26,1733,0.270000000004075
9,27,1743,0.271999999997206
9,28,1739,0.270000000004075
9,29,1735,0.269999999989523
9,30,1729,0.272000000011758
10,11,1738,0.269000000000233
10,12,1734,0.270999999993364
10,13,1746,0.271999999997206
10,14,1749,0.270999999993364
10,15,1749,0.271000000007916
10,16,1745,0.266999999992549
10,17,1742,0.270000000004075
10,18,1741,0.271999999997206
10,19,1734,0.270000000004075
10,20,1732,0.269000000000233
10,21,1724,0.270999999993364
10,22,1729,0.271999999997206
10,23,1743,0.269000000000233
10,24,1739,0.271000000007916
10,25,1732,0.269000000000233
10,26,1732,0.270999999993364
10,27,1735,0.270999999993364
10,28,1732,0.271000000007916
10,29,1741,0.270999999993364
10,30,1737,0.268000000010943
11,12,1747,0.271999999997206
11,13,1747,0.271999999997206
11,14,1749,0.270999999993364
11,15,1749,0.270000000004075
11,16,1745,0.271000000007916
11,17,1744,0.271999999997206
11,18,1749,0.270000000004075
11,19,1747,0.271999999997206
11,20,1743,0.269000000000233
11,21,1746,0.271999999997206
11,22,1746,0.270999999993364
11,23,1749,0.271000000007916
11,24,1742,0.270999999993364
11,25,1743,0.267000000007101
11,26,1741,0.271999999997206
11,27,1741,0.270999999993364
11,28,1732,0.271999999997206
11,29,1748,0.270000000004075
11,30,1748,0.271999999997206
12,13,1746,0.274000000004889
12,14,1749,0.270000000004075
12,15,1749,0.273999999990338
12,16,1745,0.272000000011758
12,17,1735,0.271999999997206
12,18,1734,0.271000000007916
12,19,1736,0.271999999997206
12,20,1741,0.274999999994179
12,21,1736,0.270000000004075
12,22,1741,0.270999999993364
12,23,1744,0.271000000007916
12,24,1739,0.271999999997206
12,25,1730,0.270999999993364
12,26,1735,0.271000000007916
12,27,1742,0.270999999993364
12,28,1738,0.270000000004075
12,29,1739,0.270000000004075
12,30,1743,0.269000000000233
13,14,1748,0.302999999999884
13,15,1746,0.282000000006519
13,16,1745,0.270999999993364
13,17,1743,0.271999999997206
13,18,1744,0.30000000000291
13,19,1740,0.282000000006519
13,20,1749,0.273000000001048
13,21,1747,0.276999999987311
13,22,1741,0.271000000007916
13,23,1742,0.274000000004889
13,24,1748,0.275999999998021
13,25,1747,0.275999999998021
13,26,1747,0.285999999992782
13,27,1749,0.285000000003492
13,28,1746,0.271999999997206
13,29,1748,0.271999999997206
13,30,1748,0.275000000008731
14,15,1747,0.275999999998021
14,16,1746,0.270000000004075
14,17,1749,0.278000000005704
14,18,1749,0.272999999986496
14,19,1749,0.276000000012573
14,20,1749,0.270000000004075
14,21,1749,0.274999999994179
14,22,1749,0.271000000007916
14,23,1748,0.270999999993364
14,24,1749,0.271000000007916
14,25,1749,0.269000000000233
14,26,1749,0.273000000001048
14,27,1749,0.277000000001863
14,28,1749,0.274999999994179
14,29,1749,0.274999999994179
14,30,1749,0.269000000000233
15,16,1734,0.279999999998836
15,17,1749,0.275000000008731
15,18,1749,0.274999999994179
15,19,1749,0.282000000006519
15,20,1749,0.273999999990338
15,21,1749,0.275000000008731
15,22,1749,0.278999999994994
15,23,1749,0.271999999997206
15,24,1749,0.269000000000233
15,25,1749,0.274999999994179
15,26,1749,0.282000000006519
15,27,1749,0.296999999991385
15,28,1749,0.279000000009546
15,29,1749,0.302000000010594
15,30,1749,0.273000000001048
16,17,1747,0.298999999999069
16,18,1749,0.283999999999651
16,19,1743,0.269000000000233
16,20,1739,0.273000000001048
16,21,1747,0.274000000004889
16,22,1742,0.277000000001863
16,23,1744,0.278000000005704
16,24,1745,0.270999999993364
16,25,1748,0.271999999997206
16,26,1746,0.271000000007916
16,27,1746,0.273000000001048
16,28,1747,0.270999999993364
16,29,1747,0.269000000000233
16,30,1747,0.271999999997206
17,18,1739,0.271999999997206
17,19,1732,0.272000000011758
17,20,1731,0.269999999989523
17,21,1745,0.288000000000466
17,22,1742,0.290000000008149
17,23,1740,0.270000000004075
17,24,1744,0.271000000007916
17,25,1744,0.301999999996042
17,26,1744,0.288000000000466
17,27,1744,0.271999999997206
17,28,1740,0.271000000007916
17,29,1736,0.29299999999057
17,30,1744,0.281000000002678
18,19,1736,0.270999999993364
18,20,1740,0.301000000006752
18,21,1729,0.296000000002095
18,22,1741,0.269000000000233
18,23,1744,0.274000000004889
18,24,1747,0.309999999997672
18,25,1733,0.273000000001048
18,26,1736,0.271999999997206
18,27,1740,0.269000000000233
18,28,1740,0.270999999993364
18,29,1726,0.277000000001863
18,30,1745,0.278000000005704
19,20,1741,0.280999999988126
19,21,1739,0.277000000001863
19,22,1732,0.305000000007567
19,23,1736,0.283999999999651
19,24,1740,0.296999999991385
19,25,1739,0.290000000008149
19,26,1742,0.275999999998021
19,27,1738,0.297000000005937
19,28,1733,0.277999999991152
19,29,1740,0.286999999996624
19,30,1744,0.283999999999651
20,21,1737,0.272000000011758
20,22,1740,0.275999999998021
20,23,1743,0.273000000001048
20,24,1738,0.271000000007916
20,25,1739,0.270999999993364
20,26,1734,0.273000000001048
20,27,1734,0.278000000005704
20,28,1730,0.270999999993364
20,29,1741,0.273000000001048
20,30,1744,0.278999999994994
21,22,1733,0.279999999998836
21,23,1736,0.275000000008731
21,24,1734,0.274000000004889
21,25,1732,0.270999999993364
21,26,1731,0.271999999997206
21,27,1736,0.281000000002678
21,28,1740,0.273000000001048
21,29,1741,0.278999999994994
21,30,1733,0.274999999994179
22,23,1741,0.282000000006519
22,24,1736,0.274000000004889
22,25,1743,0.278000000005704
22,26,1728,0.273000000001048
22,27,1738,0.274000000004889
22,28,1737,0.272999999986496
22,29,1743,0.272000000011758
22,30,1739,0.273000000001048
23,24,1748,0.270999999993364
23,25,1738,0.273000000001048
23,26,1737,0.274000000004889
23,27,1742,0.273000000001048
23,28,1744,0.278999999994994
23,29,1744,0.269000000000233
23,30,1740,0.271999999997206
24,25,1733,0.275999999998021
24,26,1738,0.275999999998021
24,27,1738,0.274000000004889
24,28,1736,0.273000000001048
24,29,1741,0.274999999994179
24,30,1728,0.271999999997206
25,26,1732,0.274000000004889
25,27,1740,0.270000000004075
25,28,1737,0.273000000001048
25,29,1741,0.277999999991152
25,30,1733,0.278000000005704
26,27,1733,0.273999999990338
26,28,1735,0.273000000001048
26,29,1741,0.275999999998021
26,30,1739,0.286000000007334
27,28,1743,0.274999999994179
27,29,1727,0.273000000001048
27,30,1739,0.271999999997206
28,29,1738,0.273000000001048
28,30,1737,0.270000000004075
29,30,1738,0.271999999997206


"After.Trace.ID","Before.Trace.ID","Difference","Runtime"
1,1,1749,0.237999999997555
1,2,1749,0.272000000011758
1,3,1747,0.271999999997206
1,4,1743,0.271999999997206
1,5,1746,0.269999999989523
1,6,1749,0.270000000004075
1,7,1749,0.271999999997206
1,8,1743,0.273000000001048
1,9,1748,0.270000000004075
1,10,1742,0.271999999997206
1,11,1745,0.274000000004889
1,12,1743,0.271999999997206
1,13,1749,0.270000000004075
1,14,1749,0.268999999985681
1,15,1749,0.273000000001048
1,16,1749,0.272000000011758
1,17,1745,0.273000000001048
1,18,1745,0.271999999997206
1,19,1747,0.269999999989523
1,20,1746,0.271000000007916
1,21,1745,0.271999999997206
1,22,1749,0.273000000001048
1,23,1747,0.270000000004075
1,24,1747,0.272000000011758
1,25,1746,0.273000000001048
1,26,1746,0.271999999997206
1,27,1733,0.270999999993364
1,28,1742,0.270000000004075
1,29,1747,0.271999999997206
1,30,1743,0.271999999997206
2,1,1747,0.273000000001048
2,2,1748,0.271999999997206
2,3,1744,0.270000000004075
2,4,1746,0.270000000004075
2,5,1739,0.271999999997206
2,6,1748,0.271999999997206
2,7,1744,0.269999999989523
2,8,1748,0.272000000011758
2,9,1742,0.273000000001048
2,10,1740,0.270999999993364
2,11,1744,0.270000000004075
2,12,1741,0.270000000004075
2,13,1749,0.272999999986496
2,14,1749,0.273000000001048
2,15,1749,0.272000000011758
2,16,1749,0.271999999997206
2,17,1744,0.269999999989523
2,18,1743,0.270000000004075
2,19,1744,0.271999999997206
2,20,1746,0.272000000011758
2,21,1749,0.270999999993364
2,22,1746,0.271999999997206
2,23,1742,0.273000000001048
2,24,1740,0.271000000007916
2,25,1745,0.269999999989523
2,26,1744,0.270000000004075
2,27,1742,0.273000000001048
2,28,1745,0.271999999997206
2,29,1742,0.271999999997206
2,30,1742,0.271999999997206
3,1,1747,0.270000000004075
3,2,1747,0.269999999989523
3,3,1747,0.273000000001048
3,4,1741,0.271000000007916
3,5,1746,0.270000000004075
3,6,1743,0.273000000001048
3,7,1748,0.271999999997206
3,8,1747,0.271999999997206
3,9,1748,0.270000000004075
3,10,1739,0.271000000007916
3,11,1742,0.271999999997206
3,12,1741,0.271999999997206
3,13,1749,0.271999999997206
3,14,1749,0.271999999997206
3,15,1749,0.270000000004075
3,16,1749,0.269000000000233
3,17,1747,0.272000000011758
3,18,1747,0.273000000001048
3,19,1735,0.270999999993364
3,20,1743,0.271999999997206
3,21,1742,0.273000000001048
3,22,1748,0.273000000001048
3,23,1742,0.270000000004075
3,24,1747,0.270000000004075
3,25,1741,0.271999999997206
3,26,1746,0.273000000001048
3,27,1736,0.270999999993364
3,28,1740,0.271999999997206
3,29,1743,0.270000000004075
3,30,1739,0.269999999989523
4,1,1749,0.271000000007916
4,2,1749,0.271999999997206
4,3,1746,0.270999999993364
4,4,1742,0.273000000001048
4,5,1745,0.271999999997206
4,6,1747,0.272000000011758
4,7,1748,0.269999999989523
4,8,1741,0.271000000007916
4,9,1748,0.270999999993364
4,10,1747,0.271999999997206
4,11,1746,0.272000000011758
4,12,1742,0.271999999997206
4,13,1749,0.269000000000233
4,14,1749,0.269999999989523
4,15,1749,0.271999999997206
4,16,1749,0.273000000001048
4,17,1743,0.270000000004075
4,18,1747,0.271999999997206
4,19,1748,0.271999999997206
4,20,1747,0.271999999997206
4,21,1748,0.269000000000233
4,22,1746,0.271000000007916
4,23,1746,0.273000000001048
4,24,1745,0.271999999997206
4,25,1747,0.273000000001048
4,26,1744,0.271999999997206
4,27,1741,0.270000000004075
4,28,1748,0.270000000004075
4,29,1740,0.271999999997206
4,30,1744,0.271999999997206
5,1,1744,0.270999999993364
5,2,1747,0.272000000011758
5,3,1742,0.271999999997206
5,4,1736,0.271999999997206
5,5,1737,0.269000000000233
5,6,1731,0.270000000004075
5,7,1742,0.271000000007916
5,8,1739,0.273000000001048
5,9,1739,0.271999999997206
5,10,1746,0.273000000001048
5,11,1740,0.270000000004075
5,12,1740,0.269999999989523
5,13,1748,0.273000000001048
5,14,1749,0.271999999997206
5,15,1749,0.270000000004075
5,16,1749,0.271000000007916
5,17,1741,0.273000000001048
5,18,1744,0.271999999997206
5,19,1744,0.269999999989523
5,20,1738,0.270000000004075
5,21,1742,0.271999999997206
5,22,1739,0.273000000001048
5,23,1743,0.272000000011758
5,24,1737,0.271999999997206
5,25,1743,0.270999999993364
5,26,1722,0.273000000001048
5,27,1736,0.271999999997206
5,28,1743,0.273000000001048
5,29,1742,0.270000000004075
5,30,1748,0.274999999994179
6,1,1745,0.274999999994179
6,2,1748,0.278000000005704
6,3,1745,0.273000000001048
6,4,1732,0.273000000001048
6,5,1739,0.279999999998836
6,6,1740,0.281000000002678
6,7,1741,0.277000000001863
6,8,1747,0.271999999997206
6,9,1741,0.270000000004075
6,10,1747,0.270999999993364
6,11,1746,0.271000000007916
6,12,1736,0.273000000001048
6,13,1746,0.270000000004075
6,14,1749,0.273000000001048
6,15,1749,0.271999999997206
6,16,1749,0.270999999993364
6,17,1745,0.270000000004075
6,18,1741,0.271000000007916
6,19,1744,0.270999999993364
6,20,1746,0.273000000001048
6,21,1741,0.271999999997206
6,22,1742,0.271999999997206
6,23,1746,0.271000000007916
6,24,1747,0.270999999993364
6,25,1745,0.274000000004889
6,26,1739,0.273999999990338
6,27,1743,0.271000000007916
6,28,1742,0.271999999997206
6,29,1745,0.271999999997206
6,30,1744,0.271999999997206
7,1,1738,0.271000000007916
7,2,1735,0.270000000004075
7,3,1742,0.273000000001048
7,4,1736,0.273000000001048
7,5,1729,0.271999999997206
7,6,1735,0.271999999997206
7,7,1725,0.270000000004075
7,8,1743,0.270000000004075
7,9,1746,0.271999999997206
7,10,1736,0.277999999991152
7,11,1748,0.278000000005704
7,12,1730,0.282999999995809
7,13,1747,0.285999999992782
7,14,1749,0.281000000002678
7,15,1749,0.277000000001863
7,16,1747,0.279999999998836
7,17,1739,0.288000000000466
7,18,1738,0.288000000000466
7,19,1743,0.279999999998836
7,20,1745,0.277000000001863
7,21,1740,0.281000000002678
7,22,1740,0.274999999994179
7,23,1736,0.278000000005704
7,24,1736,0.275999999998021
7,25,1737,0.273000000001048
7,26,1740,0.273999999990338
7,27,1742,0.273000000001048
7,28,1747,0.273000000001048
7,29,1743,0.270999999993364
7,30,1739,0.285000000003492
8,1,1749,0.282000000006519
8,2,1749,0.289000000004307
8,3,1744,0.279000000009546
8,4,1741,0.283000000010361
8,5,1742,0.272999999986496
8,6,1746,0.275000000008731
8,7,1745,0.293999999994412
8,8,1747,0.305999999996857
8,9,1746,0.3240000000078
8,10,1741,0.311999999990803
8,11,1738,0.298999999999069
8,12,1739,0.309999999997672
8,13,1749,0.307000000000698
8,14,1749,0.297000000005937
8,15,1749,0.31699999999546
8,16,1749,0.313999999998487
8,17,1741,0.311000000001513
8,18,1748,0.313999999998487
8,19,1746,0.30899999999383
8,20,1742,0.292000000001281
8,21,1747,0.302999999999884
8,22,1733,0.275999999998021
8,23,1744,0.271999999997206
8,24,1733,0.304000000003725
8,25,1732,0.275999999998021
8,26,1736,0.274999999994179
8,27,1732,0.274999999994179
8,28,1740,0.274000000004889
8,29,1746,0.274000000004889
8,30,1737,0.273000000001048
9,1,1749,0.286999999996624
9,2,1749,0.274000000004889
9,3,1741,0.270000000004075
9,4,1744,0.270000000004075
9,5,1745,0.271999999997206
9,6,1742,0.274000000004889
9,7,1745,0.269999999989523
9,8,1744,0.272000000011758
9,9,1744,0.271999999997206
9,10,1744,0.271999999997206
9,11,1744,0.269999999989523
9,12,1741,0.275000000008731
9,13,1749,0.297999999995227
9,14,1749,0.30800000000454
9,15,1749,0.275999999998021
9,16,1749,0.273000000001048
9,17,1738,0.270999999993364
9,18,1745,0.270000000004075
9,19,1745,0.273999999990338
9,20,1731,0.30000000000291
9,21,1737,0.279000000009546
9,22,1747,0.273999999990338
9,23,1745,0.273000000001048
9,24,1745,0.271999999997206
9,25,1741,0.269000000000233
9,26,1745,0.271000000007916
9,27,1742,0.273000000001048
9,28,1744,0.3009999999922
9,29,1743,0.288000000000466
9,30,1741,0.290000000008149
10,1,1749,0.269999999989523
10,2,1744,0.271000000007916
10,3,1740,0.270999999993364
10,4,1729,0.274000000004889
10,5,1727,0.270999999993364
10,6,1742,0.274000000004889
10,7,1742,0.275000000008731
10,8,1746,0.272999999986496
10,9,1741,0.270000000004075
10,10,1737,0.271000000007916
10,11,1744,0.273000000001048
10,12,1739,0.295999999987544
10,13,1749,0.290000000008149
10,14,1749,0.297999999995227
10,15,1749,0.282999999995809
10,16,1748,0.295000000012806
10,17,1743,0.285000000003492
10,18,1744,0.273000000001048
10,19,1740,0.270999999993364
10,20,1742,0.273000000001048
10,21,1735,0.272000000011758
10,22,1731,0.272999999986496
10,23,1747,0.271000000007916
10,24,1732,0.270000000004075
10,25,1741,0.272000000011758
10,26,1728,0.271999999997206
10,27,1733,0.271999999997206
10,28,1746,0.271999999997206
10,29,1741,0.269999999989523
10,30,1741,0.272000000011758
11,1,1745,0.271999999997206
11,2,1746,0.271000000007916
11,3,1733,0.269999999989523
11,4,1737,0.273000000001048
11,5,1746,0.272000000011758
11,6,1738,0.272999999986496
11,7,1744,0.270000000004075
11,8,1749,0.270000000004075
11,9,1744,0.270999999993364
11,10,1727,0.273000000001048
11,11,1741,0.271999999997206
11,12,1733,0.273000000001048
11,13,1745,0.271000000007916
11,14,1749,0.270999999993364
11,15,1749,0.271999999997206
11,16,1742,0.273000000001048
11,17,1732,0.270000000004075
11,18,1738,0.271999999997206
11,19,1726,0.273000000001048
11,20,1737,0.273000000001048
11,21,1741,0.269000000000233
11,22,1743,0.271000000007916
11,23,1740,0.271999999997206
11,24,1744,0.271999999997206
11,25,1744,0.274000000004889
11,26,1744,0.271999999997206
11,27,1734,0.271000000007916
11,28,1734,0.269999999989523
11,29,1737,0.273000000001048
11,30,1737,0.271000000007916
12,1,1748,0.270000000004075
12,2,1741,0.273000000001048
12,3,1741,0.271999999997206
12,4,1733,0.270999999993364
12,5,1730,0.271000000007916
12,6,1738,0.269999999989523
12,7,1728,0.272000000011758
12,8,1745,0.271999999997206
12,9,1733,0.273000000001048
12,10,1741,0.273000000001048
12,11,1738,0.272999999986496
12,12,1718,0.273000000001048
12,13,1748,0.275000000008731
12,14,1749,0.273999999990338
12,15,1749,0.271000000007916
12,16,1748,0.273000000001048
12,17,1744,0.273000000001048
12,18,1741,0.271999999997206
12,19,1735,0.278000000005704
12,20,1744,0.271999999997206
12,21,1731,0.273000000001048
12,22,1741,0.273000000001048
12,23,1747,0.271999999997206
12,24,1735,0.273000000001048
12,25,1731,0.275000000008731
12,26,1734,0.280999999988126
12,27,1730,0.283000000010361
12,28,1744,0.274999999994179
12,29,1739,0.273000000001048
12,30,1736,0.277000000001863
13,1,1749,0.278999999994994
13,2,1748,0.275999999998021
13,3,1742,0.273000000001048
13,4,1741,0.271000000007916
13,5,1740,0.273000000001048
13,6,1740,0.273000000001048
13,7,1744,0.277999999991152
13,8,1743,0.274000000004889
13,9,1744,0.271999999997206
13,10,1745,0.270000000004075
13,11,1743,0.271999999997206
13,12,1741,0.271999999997206
13,13,1743,0.269999999989523
13,14,1749,0.271999999997206
13,15,1749,0.273000000001048
13,16,1749,0.271999999997206
13,17,1744,0.271000000007916
13,18,1747,0.270999999993364
13,19,1737,0.271999999997206
13,20,1744,0.273000000001048
13,21,1745,0.273000000001048
13,22,1745,0.273000000001048
13,23,1742,0.269000000000233
13,24,1743,0.271000000007916
13,25,1743,0.271999999997206
13,26,1734,0.273999999990338
13,27,1736,0.271000000007916
13,28,1741,0.273000000001048
13,29,1741,0.271999999997206
13,30,1739,0.273000000001048
14,1,1749,0.270000000004075
14,2,1748,0.269999999989523
14,3,1745,0.272000000011758
14,4,1735,0.272999999986496
14,5,1744,0.271999999997206
14,6,1738,0.273000000001048
14,7,1741,0.273000000001048
14,8,1739,0.270000000004075
14,9,1746,0.271999999997206
14,10,1741,0.271999999997206
14,11,1733,0.270999999993364
14,12,1738,0.273000000001048
14,13,1749,0.273000000001048
14,14,1749,0.271999999997206
14,15,1749,0.269000000000233
14,16,1749,0.271999999997206
14,17,1744,0.271999999997206
14,18,1749,0.272000000011758
14,19,1738,0.272000000011758
14,20,1729,0.271999999997206
14,21,1738,0.269999999989523
14,22,1738,0.270000000004075
14,23,1743,0.273000000001048
14,24,1739,0.271999999997206
14,25,1746,0.270000000004075
14,26,1734,0.271999999997206
14,27,1730,0.271999999997206
14,28,1745,0.271999999997206
14,29,1743,0.269000000000233
14,30,1742,0.270999999993364
15,1,1741,0.272000000011758
15,2,1736,0.273000000001048
15,3,1736,0.274999999994179
15,4,1731,0.278999999994994
15,5,1740,0.274000000004889
15,6,1736,0.275999999998021
15,7,1739,0.277000000001863
15,8,1743,0.277000000001863
15,9,1743,0.274999999994179
15,10,1740,0.274000000004889
15,11,1740,0.281000000002678
15,12,1732,0.283999999999651
15,13,1743,0.281999999991967
15,14,1749,0.279999999998836
15,15,1749,0.278000000005704
15,16,1744,0.279999999998836
15,17,1731,0.273000000001048
15,18,1730,0.279999999998836
15,19,1730,0.273000000001048
15,20,1728,0.282999999995809
15,21,1741,0.279000000009546
15,22,1737,0.273999999990338
15,23,1742,0.271000000007916
15,24,1741,0.271999999997206
15,25,1729,0.273000000001048
15,26,1730,0.278999999994994
15,27,1742,0.270999999993364
15,28,1740,0.270000000004075
15,29,1732,0.271999999997206
15,30,1741,0.271999999997206
16,1,1742,0.273000000001048
16,2,1740,0.278000000005704
16,3,1720,0.270999999993364
16,4,1726,0.269000000000233
16,5,1742,0.271999999997206
16,6,1739,0.273000000001048
16,7,1731,0.270000000004075
16,8,1740,0.272000000011758
16,9,1738,0.272999999986496
16,10,1719,0.273000000001048
16,11,1745,0.270000000004075
16,12,1731,0.270000000004075
16,13,1747,0.273000000001048
16,14,1749,0.273000000001048
16,15,1749,0.273000000001048
16,16,1746,0.271999999997206
16,17,1731,0.270999999993364
16,18,1723,0.270000000004075
16,19,1733,0.273000000001048
16,20,1739,0.271999999997206
16,21,1730,0.270000000004075
16,22,1739,0.272999999986496
16,23,1739,0.272000000011758
16,24,1741,0.273999999990338
16,25,1728,0.279000000009546
16,26,1732,0.279999999998836
16,27,1737,0.278999999994994
16,28,1741,0.277000000001863
16,29,1738,0.277999999991152
16,30,1739,0.275999999998021
17,1,1747,0.272000000011758
17,2,1744,0.270999999993364
17,3,1739,0.274000000004889
17,4,1744,0.274999999994179
17,5,1741,0.271999999997206
17,6,1742,0.281000000002678
17,7,1735,0.274000000004889
17,8,1745,0.274999999994179
17,9,1742,0.271000000007916
17,10,1743,0.270999999993364
17,11,1736,0.273000000001048
17,12,1743,0.270999999993364
17,13,1747,0.273000000001048
17,14,1749,0.273000000001048
17,15,1749,0.271999999997206
17,16,1749,0.271000000007916
17,17,1744,0.273999999990338
17,18,1734,0.276000000012573
17,19,1743,0.271999999997206
17,20,1739,0.273999999990338
17,21,1741,0.273000000001048
17,22,1742,0.274000000004889
17,23,1747,0.270999999993364
17,24,1737,0.271000000007916
17,25,1741,0.273999999990338
17,26,1740,0.282000000006519
17,27,1737,0.279999999998836
17,28,1733,0.282999999995809
17,29,1732,0.274000000004889
17,30,1733,0.281000000002678
18,1,1740,0.273999999990338
18,2,1743,0.286000000007334
18,3,1740,0.277000000001863
18,4,1739,0.280999999988126
18,5,1738,0.274000000004889
18,6,1741,0.273000000001048
18,7,1730,0.273000000001048
18,8,1739,0.273000000001048
18,9,1724,0.274999999994179
18,10,1736,0.271999999997206
18,11,1748,0.275000000008731
18,12,1727,0.279999999998836
18,13,1748,0.271999999997206
18,14,1749,0.273000000001048
18,15,1749,0.273000000001048
18,16,1746,0.272999999986496
18,17,1740,0.272000000011758
18,18,1734,0.271999999997206
18,19,1729,0.274000000004889
18,20,1741,0.272999999986496
18,21,1725,0.272000000011758
18,22,1736,0.271999999997206
18,23,1734,0.274999999994179
18,24,1730,0.271999999997206
18,25,1724,0.273000000001048
18,26,1729,0.274000000004889
18,27,1736,0.274000000004889
18,28,1742,0.269999999989523
18,29,1729,0.271000000007916
18,30,1734,0.273999999990338
19,1,1744,0.279000000009546
19,2,1747,0.277999999991152
19,3,1728,0.275000000008731
19,4,1723,0.274999999994179
19,5,1737,0.271999999997206
19,6,1733,0.273000000001048
19,7,1741,0.274999999994179
19,8,1743,0.274000000004889
19,9,1742,0.273000000001048
19,10,1725,0.285999999992782
19,11,1744,0.274000000004889
19,12,1730,0.270000000004075
19,13,1747,0.273000000001048
19,14,1749,0.272000000011758
19,15,1749,0.270999999993364
19,16,1748,0.275999999998021
19,17,1735,0.274000000004889
19,18,1733,0.275999999998021
19,19,1739,0.273000000001048
19,20,1737,0.275000000008731
19,21,1728,0.281999999991967
19,22,1739,0.273000000001048
19,23,1749,0.273000000001048
19,24,1744,0.273000000001048
19,25,1739,0.270000000004075
19,26,1737,0.270999999993364
19,27,1734,0.271999999997206
19,28,1742,0.273000000001048
19,29,1729,0.270999999993364
19,30,1736,0.273000000001048
20,1,1745,0.271999999997206
20,2,1741,0.275000000008731
20,3,1732,0.270999999993364
20,4,1731,0.270000000004075
20,5,1740,0.273000000001048
20,6,1738,0.271999999997206
20,7,1738,0.273000000001048
20,8,1742,0.274999999994179
20,9,1737,0.271000000007916
20,10,1738,0.270999999993364
20,11,1738,0.275000000008731
20,12,1744,0.271999999997206
20,13,1747,0.269999999989523
20,14,1749,0.273000000001048
20,15,1749,0.273000000001048
20,16,1749,0.273000000001048
20,17,1741,0.274000000004889
20,18,1733,0.275000000008731
20,19,1734,0.273000000001048
20,20,1733,0.271999999997206
20,21,1732,0.273000000001048
20,22,1738,0.271999999997206
20,23,1746,0.270000000004075
20,24,1735,0.269999999989523
20,25,1740,0.274000000004889
20,26,1733,0.271000000007916
20,27,1730,0.270000000004075
20,28,1730,0.273000000001048
20,29,1735,0.271999999997206
20,30,1739,0.271999999997206
21,1,1746,0.271000000007916
21,2,1745,0.270999999993364
21,3,1744,0.273000000001048
21,4,1734,0.271999999997206
21,5,1738,0.271999999997206
21,6,1733,0.274000000004889
21,7,1742,0.270000000004075
21,8,1738,0.269999999989523
21,9,1746,0.272000000011758
21,10,1745,0.273000000001048
21,11,1746,0.270999999993364
21,12,1739,0.273000000001048
21,13,1749,0.274000000004889
21,14,1749,0.273000000001048
21,15,1749,0.272999999986496
21,16,1747,0.275000000008731
21,17,1745,0.274000000004889
21,18,1739,0.274000000004889
21,19,1737,0.274000000004889
21,20,1740,0.273000000001048
21,21,1732,0.275999999998021
21,22,1745,0.279999999998836
21,23,1745,0.278999999994994
21,24,1738,0.274000000004889
21,25,1740,0.269999999989523
21,26,1743,0.276000000012573
21,27,1732,0.273000000001048
21,28,1744,0.272999999986496
21,29,1743,0.270000000004075
21,30,1747,0.271000000007916
22,1,1746,0.271999999997206
22,2,1749,0.271999999997206
22,3,1747,0.273000000001048
22,4,1736,0.273000000001048
22,5,1740,0.270000000004075
22,6,1743,0.269999999989523
22,7,1741,0.273000000001048
22,8,1746,0.273000000001048
22,9,1736,0.270000000004075
22,10,1740,0.271999999997206
22,11,1734,0.271999999997206
22,12,1742,0.271999999997206
22,13,1748,0.273000000001048
22,14,1749,0.277000000001863
22,15,1749,0.274999999994179
22,16,1749,0.278999999994994
22,17,1741,0.276000000012573
22,18,1744,0.273000000001048
22,19,1731,0.271000000007916
22,20,1741,0.269999999989523
22,21,1737,0.272000000011758
22,22,1740,0.273000000001048
22,23,1740,0.270999999993364
22,24,1727,0.273000000001048
22,25,1739,0.281000000002678
22,26,1742,0.278999999994994
22,27,1720,0.282000000006519
22,28,1744,0.271999999997206
22,29,1743,0.276999999987311
22,30,1730,0.273000000001048
23,1,1739,0.276000000012573
23,2,1728,0.273999999990338
23,3,1744,0.270999999993364
23,4,1744,0.270000000004075
23,5,1732,0.273000000001048
23,6,1737,0.271999999997206
23,7,1722,0.271000000007916
23,8,1739,0.272000000011758
23,9,1738,0.273000000001048
23,10,1741,0.275999999998021
23,11,1740,0.271999999997206
23,12,1731,0.271999999997206
23,13,1746,0.273000000001048
23,14,1749,0.272000000011758
23,15,1749,0.273000000001048
23,16,1745,0.272999999986496
23,17,1745,0.272000000011758
23,18,1741,0.273999999990338
23,19,1741,0.272000000011758
23,20,1741,0.276999999987311
23,21,1741,0.274000000004889
23,22,1738,0.277999999991152
23,23,1743,0.273000000001048
23,24,1737,0.273000000001048
23,25,1722,0.271000000007916
23,26,1730,0.271000000007916
23,27,1746,0.274999999994179
23,28,1733,0.273000000001048
23,29,1736,0.273000000001048
23,30,1737,0.278000000005704
24,1,1735,0.276999999987311
24,2,1744,0.274000000004889
24,3,1721,0.275999999998021
24,4,1743,0.275000000008731
24,5,1732,0.273000000001048
24,6,1737,0.287999999985914
24,7,1739,0.277000000001863
24,8,1741,0.274000000004889
24,9,1737,0.270000000004075
24,10,1732,0.270999999993364
24,11,1735,0.273000000001048
24,12,1742,0.273000000001048
24,13,1749,0.271999999997206
24,14,1749,0.273000000001048
24,15,1749,0.271999999997206
24,16,1745,0.270000000004075
24,17,1743,0.274000000004889
24,18,1743,0.273999999990338
24,19,1745,0.272000000011758
24,20,1736,0.276999999987311
24,21,1735,0.277000000001863
24,22,1729,0.275999999998021
24,23,1745,0.271000000007916
24,24,1735,0.273000000001048
24,25,1741,0.277999999991152
24,26,1733,0.274000000004889
24,27,1736,0.286999999996624
24,28,1733,0.277000000001863
24,29,1735,0.283999999999651
24,30,1744,0.282000000006519
25,1,1740,0.275999999998021
25,2,1747,0.273000000001048
25,3,1738,0.275000000008731
25,4,1738,0.275999999998021
25,5,1744,0.278000000005704
25,6,1737,0.275999999998021
25,7,1724,0.273000000001048
25,8,1733,0.270999999993364
25,9,1746,0.275999999998021
25,10,1737,0.275000000008731
25,11,1742,0.273999999990338
25,12,1738,0.274000000004889
25,13,1743,0.270000000004075
25,14,1749,0.271999999997206
25,15,1749,0.273999999990338
25,16,1748,0.277000000001863
25,17,1739,0.270000000004075
25,18,1736,0.277000000001863
25,19,1732,0.282000000006519
25,20,1746,0.279999999998836
25,21,1731,0.270000000004075
25,22,1730,0.275999999998021
25,23,1745,0.275999999998021
25,24,1740,0.274999999994179
25,25,1732,0.275000000008731
25,26,1736,0.277000000001863
25,27,1733,0.271999999997206
25,28,1732,0.270999999993364
25,29,1731,0.274000000004889
25,30,1746,0.274999999994179
26,1,1738,0.271999999997206
26,2,1739,0.274000000004889
26,3,1729,0.273000000001048
26,4,1739,0.274000000004889
26,5,1732,0.275999999998021
26,6,1736,0.273999999990338
26,7,1738,0.276000000012573
26,8,1743,0.275999999998021
26,9,1738,0.278000000005704
26,10,1736,0.274999999994179
26,11,1744,0.276000000012573
26,12,1735,0.273999999990338
26,13,1744,0.277000000001863
26,14,1749,0.277000000001863
26,15,1749,0.274999999994179
26,16,1747,0.273000000001048
26,17,1733,0.278999999994994
26,18,1734,0.286999999996624
26,19,1741,0.290000000008149
26,20,1742,0.274999999994179
26,21,1731,0.278000000005704
26,22,1734,0.274999999994179
26,23,1748,0.274000000004889
26,24,1733,0.279999999998836
26,25,1738,0.289000000004307
26,26,1732,0.275999999998021
26,27,1726,0.274999999994179
26,28,1741,0.275999999998021
26,29,1735,0.274000000004889
26,30,1732,0.275999999998021
27,1,1741,0.279999999998836
27,2,1747,0.281000000002678
27,3,1734,0.277000000001863
27,4,1736,0.276999999987311
27,5,1741,0.277000000001863
27,6,1705,0.278000000005704
27,7,1741,0.275999999998021
27,8,1744,0.282000000006519
27,9,1723,0.273000000001048
27,10,1728,0.273000000001048
27,11,1745,0.271999999997206
27,12,1740,0.273999999990338
27,13,1743,0.271000000007916
27,14,1749,0.277999999991152
27,15,1749,0.279000000009546
27,16,1744,0.273999999990338
27,17,1742,0.278000000005704
27,18,1735,0.275999999998021
27,19,1736,0.275000000008731
27,20,1740,0.273999999990338
27,21,1728,0.281000000002678
27,22,1739,0.274000000004889
27,23,1737,0.276000000012573
27,24,1737,0.273000000001048
27,25,1740,0.274999999994179
27,26,1727,0.274000000004889
27,27,1730,0.273000000001048
27,28,1744,0.271999999997206
27,29,1725,0.277000000001863
27,30,1726,0.286000000007334
28,1,1736,0.273999999990338
28,2,1742,0.273000000001048
28,3,1740,0.282000000006519
28,4,1728,0.275999999998021
28,5,1746,0.274000000004889
28,6,1732,0.279999999998836
28,7,1739,0.274999999994179
28,8,1738,0.271000000007916
28,9,1744,0.272000000011758
28,10,1742,0.281000000002678
28,11,1745,0.271000000007916
28,12,1732,0.276999999987311
28,13,1743,0.274000000004889
28,14,1749,0.273000000001048
28,15,1749,0.271999999997206
28,16,1748,0.273000000001048
28,17,1727,0.274000000004889
28,18,1740,0.274000000004889
28,19,1730,0.273999999990338
28,20,1736,0.274000000004889
28,21,1742,0.273000000001048
28,22,1740,0.270999999993364
28,23,1742,0.274000000004889
28,24,1743,0.274000000004889
28,25,1739,0.273999999990338
28,26,1735,0.273000000001048
28,27,1747,0.273000000001048
28,28,1741,0.274000000004889
28,29,1740,0.270999999993364
28,30,1745,0.270000000004075
29,1,1742,0.271999999997206
29,2,1744,0.271999999997206
29,3,1745,0.271999999997206
29,4,1741,0.271999999997206
29,5,1743,0.269999999989523
29,6,1740,0.271000000007916
29,7,1738,0.273000000001048
29,8,1737,0.273000000001048
29,9,1740,0.269999999989523
29,10,1744,0.273000000001048
29,11,1737,0.271999999997206
29,12,1740,0.273000000001048
29,13,1743,0.271000000007916
29,14,1749,0.270000000004075
29,15,1749,0.274999999994179
29,16,1748,0.276000000012573
29,17,1741,0.273000000001048
29,18,1742,0.271999999997206
29,19,1738,0.270999999993364
29,20,1742,0.269000000000233
29,21,1735,0.273000000001048
29,22,1722,0.273000000001048
29,23,1730,0.271999999997206
29,24,1732,0.274000000004889
29,25,1738,0.273000000001048
29,26,1731,0.274999999994179
29,27,1744,0.271000000007916
29,28,1737,0.270999999993364
29,29,1745,0.273000000001048
29,30,1741,0.273000000001048
30,1,1729,0.271999999997206
30,2,1731,0.274000000004889
30,3,1736,0.271999999997206
30,4,1742,0.270000000004075
30,5,1738,0.273000000001048
30,6,1741,0.271999999997206
30,7,1729,0.273000000001048
30,8,1738,0.273999999990338
30,9,1736,0.273000000001048
30,10,1733,0.272000000011758
30,11,1741,0.269999999989523
30,12,1738,0.270000000004075
30,13,1745,0.273999999990338
30,14,1749,0.273000000001048
30,15,1749,0.275000000008731
30,16,1745,0.273000000001048
30,17,1745,0.273999999990338
30,18,1735,0.272000000011758
30,19,1736,0.274999999994179
30,20,1734,0.275999999998021
30,21,1725,0.273000000001048
30,22,1735,0.274999999994179
30,23,1742,0.274000000004889
30,24,1733,0.274000000004889
30,25,1728,0.271999999997206
30,26,1739,0.271999999997206
30,27,1730,0.271999999997206
30,28,1739,0.272000000011758
30,29,1739,0.273000000001048
30,30,1733,0.274000000004889
