App - ConnectBot
Scenario - connect_ssh
Length - 5sec
Measure - EDRDistance
Before Version - 1.8.6_f_m
After Version - 1.9.0a2_f


"Before.Trace.ID1","Before.Trace.ID2","Difference","Runtime"
1,2,1746,0.40400000000227
1,3,1732,0.290999999997439
1,4,1748,0.260000000002037
1,5,1748,0.26299999999901
1,6,1747,0.25800000000163
1,7,1737,0.260999999998603
1,8,1745,0.26299999999901
1,9,1744,0.265999999999622
1,10,1749,0.260000000002037
1,11,1738,0.258999999998196
1,12,1735,0.264000000002852
1,13,1746,0.264999999999418
1,14,1742,0.26299999999901
1,15,1742,0.258999999998196
1,16,1748,0.262000000002445
1,17,1722,0.26299999999901
1,18,1741,0.260999999998603
1,19,1748,0.263000000002648
1,20,1742,0.261999999998807
1,21,1740,0.26299999999901
1,22,1745,0.262000000002445
1,23,1747,0.261999999998807
1,24,1747,0.264999999999418
1,25,1746,0.261999999998807
1,26,1748,0.262000000002445
1,27,1748,0.259999999998399
1,28,1746,0.26299999999901
1,29,1735,0.25800000000163
1,30,1748,0.26299999999901
2,3,1742,0.263000000002648
2,4,1746,0.257999999997992
2,5,1741,0.260999999998603
2,6,1740,0.259000000001834
2,7,1741,0.26299999999901
2,8,1745,0.260999999998603
2,9,1745,0.259000000001834
2,10,1742,0.258999999998196
2,11,1736,0.260000000002037
2,12,1748,0.260999999998603
2,13,1734,0.263000000002648
2,14,1733,0.261999999998807
2,15,1742,0.261999999998807
2,16,1736,0.262000000002445
2,17,1741,0.294999999998254
2,18,1742,0.259999999998399
2,19,1744,0.264000000002852
2,20,1747,0.259999999998399
2,21,1741,0.26299999999901
2,22,1731,0.264000000002852
2,23,1749,0.260999999998603
2,24,1746,0.261999999998807
2,25,1741,0.25800000000163
2,26,1738,0.263999999999214
2,27,1746,0.260999999998603
2,28,1741,0.263000000002648
2,29,1745,0.259999999998399
2,30,1732,0.263999999999214
3,4,1746,0.262000000002445
3,5,1747,0.260999999998603
3,6,1741,0.260999999998603
3,7,1744,0.261000000002241
3,8,1747,0.259999999998399
3,9,1748,0.262000000002445
3,10,1749,0.260999999998603
3,11,1740,0.261999999998807
3,12,1743,0.257000000001426
3,13,1748,0.261999999998807
3,14,1739,0.261000000002241
3,15,1735,0.26299999999901
3,16,1746,0.258999999998196
3,17,1739,0.262000000002445
3,18,1742,0.261999999998807
3,19,1748,0.259999999998399
3,20,1741,0.262000000002445
3,21,1733,0.260999999998603
3,22,1743,0.263999999999214
3,23,1748,0.261000000002241
3,24,1740,0.259999999998399
3,25,1724,0.260000000002037
3,26,1747,0.260999999998603
3,27,1743,0.260999999998603
3,28,1740,0.261000000002241
3,29,1734,0.26299999999901
3,30,1747,0.261999999998807
4,5,1746,0.262000000002445
4,6,1735,0.260999999998603
4,7,1747,0.260999999998603
4,8,1747,0.264000000002852
4,9,1741,0.258999999998196
4,10,1740,0.261999999998807
4,11,1738,0.262000000002445
4,12,1748,0.263999999999214
4,13,1749,0.261999999998807
4,14,1740,0.259000000001834
4,15,1747,0.26299999999901
4,16,1744,0.26299999999901
4,17,1745,0.262000000002445
4,18,1748,0.260999999998603
4,19,1747,0.264999999999418
4,20,1747,0.259999999998399
4,21,1744,0.260000000002037
4,22,1745,0.260999999998603
4,23,1740,0.261000000002241
4,24,1748,0.259999999998399
4,25,1742,0.260999999998603
4,26,1749,0.262000000002445
4,27,1749,0.26299999999901
4,28,1741,0.256000000001222
4,29,1748,0.260999999998603
4,30,1744,0.26299999999901
5,6,1745,0.264000000002852
5,7,1745,0.259999999998399
5,8,1739,0.261999999998807
5,9,1735,0.263000000002648
5,10,1736,0.259999999998399
5,11,1745,0.26299999999901
5,12,1747,0.262000000002445
5,13,1740,0.266999999999825
5,14,1731,0.264999999999418
5,15,1744,0.265999999999622
5,16,1740,0.261999999998807
5,17,1748,0.260000000002037
5,18,1746,0.261999999998807
5,19,1746,0.261999999998807
5,20,1744,0.262000000002445
5,21,1749,0.263999999999214
5,22,1748,0.259999999998399
5,23,1738,0.260000000002037
5,24,1749,0.261999999998807
5,25,1748,0.264999999999418
5,26,1738,0.259000000001834
5,27,1749,0.260999999998603
5,28,1740,0.261999999998807
5,29,1742,0.263000000002648
5,30,1741,0.260999999998603
6,7,1748,0.259000000001834
6,8,1731,0.260999999998603
6,9,1706,0.261999999998807
6,10,1735,0.262000000002445
6,11,1744,0.258999999998196
6,12,1740,0.263999999999214
6,13,1739,0.262000000002445
6,14,1747,0.260999999998603
6,15,1740,0.260999999998603
6,16,1736,0.262000000002445
6,17,1739,0.26299999999901
6,18,1738,0.261999999998807
6,19,1749,0.264000000002852
6,20,1745,0.265000000003056
6,21,1748,0.257999999997992
6,22,1749,0.261000000002241
6,23,1745,0.261000000002241
6,24,1744,0.264999999999418
6,25,1745,0.259999999998399
6,26,1735,0.263000000002648
6,27,1746,0.261999999998807
6,28,1736,0.259999999998399
6,29,1743,0.261000000002241
6,30,1743,0.26299999999901
7,8,1747,0.261999999998807
7,9,1749,0.261000000002241
7,10,1744,0.261999999998807
7,11,1748,0.261999999998807
7,12,1748,0.263000000002648
7,13,1748,0.26299999999901
7,14,1745,0.264999999999418
7,15,1745,0.268000000000029
7,16,1729,0.269000000000233
7,17,1736,0.260999999998603
7,18,1746,0.261000000002241
7,19,1742,0.259999999998399
7,20,1725,0.263999999999214
7,21,1748,0.260000000002037
7,22,1724,0.261999999998807
7,23,1748,0.26299999999901
7,24,1745,0.261000000002241
7,25,1744,0.260999999998603
7,26,1745,0.260000000002037
7,27,1746,0.261999999998807
7,28,1736,0.261999999998807
7,29,1746,0.261000000002241
7,30,1747,0.258999999998196
8,9,1735,0.263999999999214
8,10,1741,0.260000000002037
8,11,1725,0.258999999998196
8,12,1739,0.261000000002241
8,13,1735,0.26299999999901
8,14,1744,0.261999999998807
8,15,1719,0.264999999999418
8,16,1722,0.263000000002648
8,17,1739,0.264999999999418
8,18,1734,0.257999999997992
8,19,1732,0.263000000002648
8,20,1749,0.264999999999418
8,21,1744,0.264999999999418
8,22,1745,0.258999999998196
8,23,1745,0.263000000002648
8,24,1746,0.26299999999901
8,25,1741,0.258999999998196
8,26,1733,0.261000000002241
8,27,1748,0.258999999998196
8,28,1740,0.263999999999214
8,29,1734,0.262000000002445
8,30,1745,0.260999999998603
9,10,1732,0.260000000002037
9,11,1738,0.260999999998603
9,12,1744,0.261999999998807
9,13,1735,0.262000000002445
9,14,1744,0.26299999999901
9,15,1746,0.26299999999901
9,16,1732,0.260999999998603
9,17,1746,0.262000000002445
9,18,1746,0.258999999998196
9,19,1745,0.263999999999214
9,20,1749,0.259000000001834
9,21,1744,0.259999999998399
9,22,1747,0.263000000002648
9,23,1747,0.260999999998603
9,24,1745,0.260999999998603
9,25,1748,0.25800000000163
9,26,1742,0.261999999998807
9,27,1745,0.262000000002445
9,28,1734,0.260999999998603
9,29,1739,0.257999999997992
9,30,1747,0.264000000002852
10,11,1738,0.260999999998603
10,12,1746,0.259999999998399
10,13,1735,0.260000000002037
10,14,1748,0.26299999999901
10,15,1740,0.261000000002241
10,16,1735,0.260999999998603
10,17,1747,0.261999999998807
10,18,1744,0.263999999999214
10,19,1742,0.256000000001222
10,20,1749,0.261999999998807
10,21,1749,0.261000000002241
10,22,1741,0.264999999999418
10,23,1740,0.259999999998399
10,24,1748,0.263000000002648
10,25,1744,0.26299999999901
10,26,1745,0.259999999998399
10,27,1748,0.261000000002241
10,28,1744,0.259999999998399
10,29,1744,0.26299999999901
10,30,1745,0.262000000002445
11,12,1748,0.261999999998807
11,13,1745,0.261999999998807
11,14,1749,0.260000000002037
11,15,1747,0.264999999999418
11,16,1741,0.264999999999418
11,17,1747,0.263999999999214
11,18,1735,0.264000000002852
11,19,1746,0.260999999998603
11,20,1739,0.261999999998807
11,21,1731,0.260000000002037
11,22,1749,0.264999999999418
11,23,1740,0.261999999998807
11,24,1745,0.261999999998807
11,25,1749,0.26600000000326
11,26,1741,0.260999999998603
11,27,1742,0.258999999998196
11,28,1730,0.259000000001834
11,29,1748,0.265999999999622
11,30,1725,0.26299999999901
12,13,1734,0.26299999999901
12,14,1742,0.259000000001834
12,15,1735,0.263999999999214
12,16,1747,0.261000000002241
12,17,1748,0.261000000002241
12,18,1738,0.261999999998807
12,19,1748,0.263999999999214
12,20,1745,0.262000000002445
12,21,1747,0.260999999998603
12,22,1746,0.261999999998807
12,23,1746,0.264000000002852
12,24,1746,0.257999999997992
12,25,1732,0.26299999999901
12,26,1733,0.263000000002648
12,27,1748,0.264999999999418
12,28,1744,0.258999999998196
12,29,1748,0.262000000002445
12,30,1749,0.261999999998807
13,14,1734,0.260000000002037
13,15,1743,0.261999999998807
13,16,1742,0.259999999998399
13,17,1744,0.263999999999214
13,18,1745,0.262000000002445
13,19,1745,0.26299999999901
13,20,1749,0.261999999998807
13,21,1749,0.261000000002241
13,22,1744,0.260999999998603
13,23,1749,0.261000000002241
13,24,1748,0.26299999999901
13,25,1748,0.264999999999418
13,26,1737,0.260999999998603
13,27,1749,0.261000000002241
13,28,1741,0.258999999998196
13,29,1728,0.26299999999901
13,30,1743,0.262000000002445
14,15,1743,0.26299999999901
14,16,1741,0.263999999999214
14,17,1738,0.261000000002241
14,18,1744,0.259999999998399
14,19,1744,0.257000000001426
14,20,1742,0.264999999999418
14,21,1743,0.261999999998807
14,22,1741,0.261999999998807
14,23,1746,0.260000000002037
14,24,1736,0.263999999999214
14,25,1736,0.259999999998399
14,26,1745,0.260000000002037
14,27,1734,0.261999999998807
14,28,1738,0.261000000002241
14,29,1745,0.261999999998807
14,30,1743,0.259999999998399
15,16,1741,0.262000000002445
15,17,1748,0.261999999998807
15,18,1732,0.256999999997788
15,19,1747,0.261000000002241
15,20,1747,0.261999999998807
15,21,1737,0.26299999999901
15,22,1745,0.260000000002037
15,23,1747,0.261999999998807
15,24,1732,0.263000000002648
15,25,1745,0.257999999997992
15,26,1736,0.259000000001834
15,27,1733,0.260999999998603
15,28,1743,0.26299999999901
15,29,1740,0.261999999998807
15,30,1749,0.261000000002241
16,17,1746,0.261999999998807
16,18,1736,0.261000000002241
16,19,1740,0.260999999998603
16,20,1740,0.26299999999901
16,21,1747,0.262000000002445
16,22,1742,0.260999999998603
16,23,1749,0.259999999998399
16,24,1746,0.262000000002445
16,25,1746,0.259999999998399
16,26,1747,0.263999999999214
16,27,1744,0.259000000001834
16,28,1737,0.260999999998603
16,29,1747,0.260999999998603
16,30,1747,0.262000000002445
17,18,1748,0.260999999998603
17,19,1746,0.25800000000163
17,20,1726,0.26299999999901
17,21,1740,0.261999999998807
17,22,1745,0.262000000002445
17,23,1747,0.258999999998196
17,24,1734,0.264999999999418
17,25,1741,0.261000000002241
17,26,1746,0.257999999997992
17,27,1743,0.261000000002241
17,28,1744,0.260999999998603
17,29,1747,0.261999999998807
17,30,1745,0.261000000002241
18,19,1749,0.263999999999214
18,20,1746,0.266999999999825
18,21,1744,0.257000000001426
18,22,1748,0.261999999998807
18,23,1744,0.261999999998807
18,24,1744,0.263999999999214
18,25,1733,0.259000000001834
18,26,1736,0.260999999998603
18,27,1745,0.263000000002648
18,28,1724,0.261999999998807
18,29,1745,0.259999999998399
18,30,1740,0.259000000001834
19,20,1749,0.261999999998807
19,21,1745,0.261999999998807
19,22,1737,0.262000000002445
19,23,1740,0.260999999998603
19,24,1744,0.261000000002241
19,25,1745,0.260999999998603
19,26,1747,0.259999999998399
19,27,1747,0.261000000002241
19,28,1741,0.260999999998603
19,29,1746,0.259000000001834
19,30,1742,0.260999999998603
20,21,1741,0.260999999998603
20,22,1741,0.264000000002852
20,23,1748,0.258999999998196
20,24,1732,0.261999999998807
20,25,1744,0.262000000002445
20,26,1744,0.26299999999901
20,27,1728,0.260000000002037
20,28,1748,0.258999999998196
20,29,1745,0.26299999999901
20,30,1744,0.261000000002241
21,22,1735,0.259999999998399
21,23,1749,0.260000000002037
21,24,1744,0.263999999999214
21,25,1747,0.261999999998807
21,26,1745,0.261999999998807
21,27,1740,0.263000000002648
21,28,1747,0.260999999998603
21,29,1743,0.261999999998807
21,30,1745,0.263000000002648
22,23,1748,0.261999999998807
22,24,1741,0.265999999999622
22,25,1748,0.261999999998807
22,26,1742,0.262000000002445
22,27,1745,0.261999999998807
22,28,1746,0.264999999999418
22,29,1741,0.268000000000029
22,30,1745,0.263999999999214
23,24,1738,0.263000000002648
23,25,1749,0.258999999998196
23,26,1735,0.26299999999901
23,27,1749,0.263000000002648
23,28,1739,0.269000000000233
23,29,1742,0.270999999997002
23,30,1742,0.273000000001048
24,25,1745,0.269000000000233
24,26,1727,0.261999999998807
24,27,1699,0.261000000002241
24,28,1747,0.261999999998807
24,29,1722,0.265999999999622
24,30,1741,0.263999999999214
25,26,1741,0.268000000000029
25,27,1744,0.263000000002648
25,28,1730,0.26299999999901
25,29,1745,0.26299999999901
25,30,1749,0.259000000001834
26,27,1742,0.261999999998807
26,28,1747,0.264999999999418
26,29,1727,0.261999999998807
26,30,1739,0.261000000002241
27,28,1747,0.257999999997992
27,29,1746,0.265999999999622
27,30,1749,0.261000000002241
28,29,1744,0.260999999998603
28,30,1745,0.26299999999901
29,30,1743,0.267000000003463


"After.Trace.ID","Before.Trace.ID","Difference","Runtime"
1,1,1740,0.238000000001193
1,2,1746,0.272000000000844
1,3,1746,0.269000000000233
1,4,1745,0.266999999999825
1,5,1747,0.268000000000029
1,6,1741,0.265999999999622
1,7,1737,0.264000000002852
1,8,1747,0.265999999999622
1,9,1748,0.261999999998807
1,10,1743,0.263999999999214
1,11,1742,0.259000000001834
1,12,1748,0.264999999999418
1,13,1731,0.265999999999622
1,14,1749,0.270000000000437
1,15,1749,0.269000000000233
1,16,1740,0.265999999999622
1,17,1747,0.27100000000064
1,18,1748,0.269999999996799
1,19,1748,0.272000000000844
1,20,1748,0.268000000000029
1,21,1744,0.27100000000064
1,22,1741,0.258999999998196
1,23,1748,0.259000000001834
1,24,1747,0.261999999998807
1,25,1743,0.262000000002445
1,26,1749,0.260999999998603
1,27,1747,0.263999999999214
1,28,1749,0.261999999998807
1,29,1748,0.263000000002648
1,30,1746,0.259999999998399
2,1,1745,0.261000000002241
2,2,1739,0.261999999998807
2,3,1743,0.260999999998603
2,4,1748,0.25800000000163
2,5,1749,0.26299999999901
2,6,1740,0.26299999999901
2,7,1747,0.259000000001834
2,8,1740,0.26299999999901
2,9,1743,0.259999999998399
2,10,1740,0.26600000000326
2,11,1748,0.260999999998603
2,12,1741,0.260999999998603
2,13,1730,0.261000000002241
2,14,1747,0.260999999998603
2,15,1739,0.263999999999214
2,16,1743,0.262000000002445
2,17,1746,0.260999999998603
2,18,1745,0.26299999999901
2,19,1747,0.260000000002037
2,20,1749,0.26299999999901
2,21,1747,0.259999999998399
2,22,1743,0.263000000002648
2,23,1749,0.258999999998196
2,24,1747,0.261000000002241
2,25,1724,0.264999999999418
2,26,1744,0.263999999999214
2,27,1748,0.260999999998603
2,28,1748,0.257000000001426
2,29,1749,0.263999999999214
2,30,1747,0.261999999998807
3,1,1746,0.264000000002852
3,2,1745,0.261999999998807
3,3,1744,0.265999999999622
3,4,1748,0.259999999998399
3,5,1749,0.259000000001834
3,6,1746,0.264999999999418
3,7,1745,0.26299999999901
3,8,1744,0.261000000002241
3,9,1747,0.263999999999214
3,10,1744,0.265999999999622
3,11,1749,0.264999999999418
3,12,1741,0.25800000000163
3,13,1740,0.263999999999214
3,14,1739,0.26299999999901
3,15,1748,0.263999999999214
3,16,1741,0.261000000002241
3,17,1744,0.259999999998399
3,18,1743,0.26299999999901
3,19,1736,0.261000000002241
3,20,1742,0.261999999998807
3,21,1745,0.261999999998807
3,22,1745,0.265000000003056
3,23,1745,0.26299999999901
3,24,1748,0.263999999999214
3,25,1736,0.26299999999901
3,26,1745,0.261000000002241
3,27,1748,0.260999999998603
3,28,1747,0.268000000000029
3,29,1746,0.261999999998807
3,30,1746,0.263000000002648
4,1,1744,0.261999999998807
4,2,1735,0.259999999998399
4,3,1743,0.259000000001834
4,4,1747,0.261999999998807
4,5,1745,0.25800000000163
4,6,1741,0.260999999998603
4,7,1745,0.261999999998807
4,8,1745,0.260000000002037
4,9,1731,0.260999999998603
4,10,1742,0.25800000000163
4,11,1747,0.264999999999418
4,12,1748,0.260999999998603
4,13,1746,0.262000000002445
4,14,1732,0.259999999998399
4,15,1748,0.264999999999418
4,16,1731,0.260000000002037
4,17,1749,0.259999999998399
4,18,1736,0.266999999999825
4,19,1742,0.263999999999214
4,20,1741,0.259000000001834
4,21,1748,0.259999999998399
4,22,1747,0.262000000002445
4,23,1746,0.263999999999214
4,24,1747,0.257000000001426
4,25,1738,0.259999999998399
4,26,1748,0.261999999998807
4,27,1748,0.260000000002037
4,28,1736,0.263999999999214
4,29,1749,0.259999999998399
4,30,1748,0.264999999999418
5,1,1744,0.262000000002445
5,2,1747,0.261999999998807
5,3,1738,0.259000000001834
5,4,1741,0.273999999997613
5,5,1742,0.269000000000233
5,6,1745,0.27100000000064
5,7,1743,0.266999999999825
5,8,1745,0.25800000000163
5,9,1749,0.259999999998399
5,10,1737,0.26299999999901
5,11,1747,0.262000000002445
5,12,1738,0.260999999998603
5,13,1744,0.26299999999901
5,14,1746,0.263000000002648
5,15,1749,0.261999999998807
5,16,1747,0.263999999999214
5,17,1747,0.270000000000437
5,18,1749,0.264999999999418
5,19,1736,0.266999999999825
5,20,1747,0.265999999999622
5,21,1748,0.263999999999214
5,22,1745,0.257000000001426
5,23,1746,0.26299999999901
5,24,1749,0.260000000002037
5,25,1736,0.260999999998603
5,26,1748,0.260000000002037
5,27,1748,0.26299999999901
5,28,1747,0.260999999998603
5,29,1741,0.259000000001834
5,30,1747,0.261999999998807
6,1,1748,0.260999999998603
6,2,1743,0.259000000001834
6,3,1748,0.261999999998807
6,4,1746,0.26299999999901
6,5,1741,0.262000000002445
6,6,1749,0.257999999997992
6,7,1739,0.262000000002445
6,8,1735,0.261999999998807
6,9,1748,0.259999999998399
6,10,1740,0.259000000001834
6,11,1748,0.259999999998399
6,12,1748,0.263000000002648
6,13,1747,0.258999999998196
6,14,1728,0.261999999998807
6,15,1742,0.261000000002241
6,16,1746,0.263999999999214
6,17,1742,0.259999999998399
6,18,1735,0.260000000002037
6,19,1745,0.259999999998399
6,20,1742,0.260000000002037
6,21,1747,0.259999999998399
6,22,1743,0.259999999998399
6,23,1747,0.261000000002241
6,24,1748,0.261999999998807
6,25,1739,0.261000000002241
6,26,1747,0.26299999999901
6,27,1749,0.260999999998603
6,28,1741,0.262000000002445
6,29,1741,0.259999999998399
6,30,1748,0.260999999998603
7,1,1748,0.262000000002445
7,2,1743,0.261999999998807
7,3,1746,0.259999999998399
7,4,1735,0.25800000000163
7,5,1727,0.263999999999214
7,6,1749,0.262000000002445
7,7,1749,0.260999999998603
7,8,1747,0.258999999998196
7,9,1747,0.264000000002852
7,10,1745,0.259999999998399
7,11,1742,0.258999999998196
7,12,1747,0.261000000002241
7,13,1742,0.260999999998603
7,14,1746,0.261000000002241
7,15,1748,0.261999999998807
7,16,1747,0.261999999998807
7,17,1749,0.261000000002241
7,18,1739,0.258999999998196
7,19,1746,0.265999999999622
7,20,1748,0.263999999999214
7,21,1749,0.264000000002852
7,22,1745,0.259999999998399
7,23,1748,0.260999999998603
7,24,1747,0.263000000002648
7,25,1747,0.258999999998196
7,26,1748,0.261000000002241
7,27,1749,0.257999999997992
7,28,1748,0.264999999999418
7,29,1739,0.264999999999418
7,30,1747,0.261000000002241
8,1,1745,0.260999999998603
8,2,1749,0.25800000000163
8,3,1747,0.259999999998399
8,4,1740,0.260999999998603
8,5,1736,0.261000000002241
8,6,1732,0.261999999998807
8,7,1747,0.261999999998807
8,8,1747,0.264000000002852
8,9,1743,0.260999999998603
8,10,1743,0.260000000002037
8,11,1737,0.259000000001834
8,12,1747,0.263999999999214
8,13,1726,0.263999999999214
8,14,1745,0.261000000002241
8,15,1740,0.261999999998807
8,16,1733,0.25800000000163
8,17,1746,0.263999999999214
8,18,1744,0.261999999998807
8,19,1747,0.263999999999214
8,20,1749,0.260000000002037
8,21,1747,0.26299999999901
8,22,1747,0.259000000001834
8,23,1749,0.26299999999901
8,24,1748,0.260999999998603
8,25,1746,0.261000000002241
8,26,1738,0.260999999998603
8,27,1744,0.260999999998603
8,28,1741,0.263000000002648
8,29,1746,0.263999999999214
8,30,1744,0.256999999997788
9,1,1746,0.261000000002241
9,2,1743,0.264999999999418
9,3,1749,0.26299999999901
9,4,1748,0.259000000001834
9,5,1748,0.260999999998603
9,6,1749,0.261999999998807
9,7,1737,0.25800000000163
9,8,1741,0.26299999999901
9,9,1747,0.25800000000163
9,10,1740,0.263999999999214
9,11,1740,0.260999999998603
9,12,1749,0.260000000002037
9,13,1744,0.261999999998807
9,14,1745,0.260000000002037
9,15,1738,0.260999999998603
9,16,1744,0.260999999998603
9,17,1749,0.263000000002648
9,18,1744,0.261999999998807
9,19,1736,0.26299999999901
9,20,1747,0.261000000002241
9,21,1740,0.258999999998196
9,22,1728,0.260999999998603
9,23,1747,0.260000000002037
9,24,1748,0.261999999998807
9,25,1748,0.263000000002648
9,26,1747,0.26299999999901
9,27,1747,0.260999999998603
9,28,1744,0.256000000001222
9,29,1749,0.264999999999418
9,30,1736,0.261999999998807
10,1,1749,0.31000000000131
10,2,1746,0.259999999998399
10,3,1745,0.263000000002648
10,4,1734,0.260999999998603
10,5,1741,0.259999999998399
10,6,1747,0.261000000002241
10,7,1748,0.261999999998807
10,8,1735,0.26299999999901
10,9,1747,0.263000000002648
10,10,1742,0.26299999999901
10,11,1745,0.261999999998807
10,12,1747,0.257000000001426
10,13,1743,0.263999999999214
10,14,1747,0.263999999999214
10,15,1747,0.262000000002445
10,16,1747,0.259999999998399
10,17,1747,0.260999999998603
10,18,1748,0.265000000003056
10,19,1734,0.258999999998196
10,20,1747,0.261999999998807
10,21,1747,0.262000000002445
10,22,1742,0.263999999999214
10,23,1737,0.260999999998603
10,24,1746,0.262000000002445
10,25,1748,0.261999999998807
10,26,1747,0.25800000000163
10,27,1746,0.259999999998399
10,28,1749,0.263999999999214
10,29,1743,0.262000000002445
10,30,1743,0.261999999998807
11,1,1747,0.259999999998399
11,2,1745,0.261000000002241
11,3,1742,0.258999999998196
11,4,1746,0.261000000002241
11,5,1749,0.257999999997992
11,6,1746,0.260999999998603
11,7,1747,0.262000000002445
11,8,1743,0.260999999998603
11,9,1745,0.260000000002037
11,10,1741,0.258999999998196
11,11,1747,0.263999999999214
11,12,1749,0.262000000002445
11,13,1733,0.260999999998603
11,14,1742,0.261999999998807
11,15,1745,0.264999999999418
11,16,1735,0.259000000001834
11,17,1747,0.257999999997992
11,18,1749,0.261000000002241
11,19,1748,0.263999999999214
11,20,1740,0.261999999998807
11,21,1748,0.264000000002852
11,22,1743,0.263999999999214
11,23,1749,0.261999999998807
11,24,1749,0.257000000001426
11,25,1740,0.259999999998399
11,26,1746,0.26299999999901
11,27,1740,0.264000000002852
11,28,1736,0.260999999998603
11,29,1742,0.261999999998807
11,30,1747,0.262000000002445
12,1,1748,0.258999999998196
12,2,1738,0.261999999998807
12,3,1741,0.25800000000163
12,4,1748,0.264999999999418
12,5,1745,0.261000000002241
12,6,1746,0.261999999998807
12,7,1742,0.260999999998603
12,8,1745,0.25800000000163
12,9,1747,0.258999999998196
12,10,1743,0.260999999998603
12,11,1747,0.261000000002241
12,12,1744,0.26299999999901
12,13,1745,0.260000000002037
12,14,1740,0.26299999999901
12,15,1740,0.261999999998807
12,16,1740,0.26299999999901
12,17,1748,0.259000000001834
12,18,1741,0.26299999999901
12,19,1747,0.261000000002241
12,20,1749,0.258999999998196
12,21,1749,0.259999999998399
12,22,1734,0.257000000001426
12,23,1749,0.263999999999214
12,24,1746,0.259000000001834
12,25,1741,0.260999999998603
12,26,1738,0.259000000001834
12,27,1749,0.263999999999214
12,28,1747,0.259999999998399
12,29,1747,0.260000000002037
12,30,1747,0.26299999999901
13,1,1743,0.259999999998399
13,2,1737,0.265000000003056
13,3,1749,0.264999999999418
13,4,1748,0.259999999998399
13,5,1749,0.26299999999901
13,6,1744,0.259000000001834
13,7,1747,0.263999999999214
13,8,1742,0.26299999999901
13,9,1747,0.263000000002648
13,10,1741,0.260999999998603
13,11,1743,0.261999999998807
13,12,1747,0.264999999999418
13,13,1742,0.259000000001834
13,14,1742,0.270000000000437
13,15,1743,0.26299999999901
13,16,1746,0.268000000000029
13,17,1749,0.261999999998807
13,18,1740,0.263000000002648
13,19,1731,0.264999999999418
13,20,1749,0.258999999998196
13,21,1745,0.260000000002037
13,22,1746,0.263999999999214
13,23,1749,0.261999999998807
13,24,1749,0.262000000002445
13,25,1740,0.259999999998399
13,26,1749,0.263999999999214
13,27,1747,0.261000000002241
13,28,1749,0.260999999998603
13,29,1748,0.25800000000163
13,30,1745,0.259999999998399
14,1,1745,0.261999999998807
14,2,1747,0.260000000002037
14,3,1745,0.259999999998399
14,4,1749,0.259000000001834
14,5,1748,0.263999999999214
14,6,1745,0.26299999999901
14,7,1747,0.260000000002037
14,8,1742,0.260999999998603
14,9,1747,0.265999999999622
14,10,1744,0.26299999999901
14,11,1748,0.261000000002241
14,12,1749,0.26299999999901
14,13,1748,0.261999999998807
14,14,1749,0.259000000001834
14,15,1740,0.259999999998399
14,16,1746,0.262000000002445
14,17,1748,0.263999999999214
14,18,1749,0.257999999997992
14,19,1738,0.261000000002241
14,20,1747,0.261999999998807
14,21,1748,0.260999999998603
14,22,1749,0.260000000002037
14,23,1745,0.261999999998807
14,24,1747,0.263999999999214
14,25,1738,0.259000000001834
14,26,1749,0.260999999998603
14,27,1749,0.260000000002037
14,28,1747,0.264999999999418
14,29,1745,0.260999999998603
14,30,1747,0.262000000002445
15,1,1748,0.261999999998807
15,2,1743,0.26299999999901
15,3,1745,0.26299999999901
15,4,1737,0.263000000002648
15,5,1747,0.259999999998399
15,6,1749,0.261999999998807
15,7,1740,0.261000000002241
15,8,1748,0.26299999999901
15,9,1747,0.261999999998807
15,10,1748,0.262000000002445
15,11,1733,0.257999999997992
15,12,1739,0.262000000002445
15,13,1744,0.261999999998807
15,14,1748,0.261999999998807
15,15,1748,0.260000000002037
15,16,1747,0.256999999997788
15,17,1745,0.263000000002648
15,18,1746,0.261999999998807
15,19,1741,0.274000000001251
15,20,1745,0.259999999998399
15,21,1746,0.263999999999214
15,22,1744,0.260000000002037
15,23,1747,0.259999999998399
15,24,1749,0.261999999998807
15,25,1749,0.263999999999214
15,26,1745,0.261000000002241
15,27,1748,0.261999999998807
15,28,1744,0.26299999999901
15,29,1749,0.263000000002648
15,30,1741,0.257999999997992
16,1,1748,0.263000000002648
16,2,1747,0.261999999998807
16,3,1738,0.260999999998603
16,4,1747,0.260000000002037
16,5,1746,0.258999999998196
16,6,1731,0.261999999998807
16,7,1745,0.263000000002648
16,8,1741,0.259999999998399
16,9,1740,0.25800000000163
16,10,1736,0.27299999999741
16,11,1746,0.269000000000233
16,12,1748,0.27100000000064
16,13,1742,0.272000000000844
16,14,1737,0.27100000000064
16,15,1749,0.270000000000437
16,16,1739,0.271999999997206
16,17,1743,0.272000000000844
16,18,1743,0.26299999999901
16,19,1738,0.264000000002852
16,20,1747,0.260999999998603
16,21,1747,0.264999999999418
16,22,1733,0.264999999999418
16,23,1749,0.304000000000087
16,24,1747,0.264999999999418
16,25,1740,0.262000000002445
16,26,1741,0.260999999998603
16,27,1745,0.263999999999214
16,28,1746,0.265999999999622
16,29,1749,0.264000000002852
16,30,1748,0.26299999999901
17,1,1748,0.263999999999214
17,2,1742,0.261000000002241
17,3,1743,0.261999999998807
17,4,1749,0.259999999998399
17,5,1748,0.262000000002445
17,6,1748,0.26299999999901
17,7,1747,0.259999999998399
17,8,1741,0.261000000002241
17,9,1749,0.266999999999825
17,10,1724,0.27100000000064
17,11,1748,0.268000000000029
17,12,1744,0.265999999999622
17,13,1748,0.274999999997817
17,14,1742,0.266999999999825
17,15,1746,0.264999999999418
17,16,1745,0.263000000002648
17,17,1749,0.269000000000233
17,18,1746,0.264999999999418
17,19,1742,0.265999999999622
17,20,1749,0.266999999999825
17,21,1749,0.265999999999622
17,22,1744,0.26299999999901
17,23,1748,0.261000000002241
17,24,1747,0.260999999998603
17,25,1735,0.264999999999418
17,26,1744,0.25800000000163
17,27,1749,0.261999999998807
17,28,1744,0.263999999999214
17,29,1749,0.265999999999622
17,30,1747,0.261000000002241
18,1,1743,0.264999999999418
18,2,1749,0.264999999999418
18,3,1738,0.264999999999418
18,4,1745,0.269000000000233
18,5,1749,0.266999999999825
18,6,1746,0.270000000000437
18,7,1734,0.27100000000064
18,8,1741,0.268000000000029
18,9,1747,0.266999999999825
18,10,1745,0.268000000000029
18,11,1746,0.266999999999825
18,12,1749,0.268000000000029
18,13,1747,0.268000000000029
18,14,1741,0.268000000000029
18,15,1742,0.268000000000029
18,16,1746,0.269000000000233
18,17,1740,0.265999999999622
18,18,1745,0.268000000000029
18,19,1741,0.259999999998399
18,20,1743,0.262000000002445
18,21,1745,0.264999999999418
18,22,1746,0.266999999999825
18,23,1741,0.265999999999622
18,24,1742,0.261999999998807
18,25,1748,0.27100000000064
18,26,1742,0.265999999999622
18,27,1740,0.263999999999214
18,28,1749,0.260000000002037
18,29,1744,0.264999999999418
18,30,1739,0.258999999998196
19,1,1739,0.264999999999418
19,2,1732,0.266999999999825
19,3,1741,0.262000000002445
19,4,1744,0.261999999998807
19,5,1747,0.260999999998603
19,6,1741,0.269000000000233
19,7,1749,0.268000000000029
19,8,1739,0.263999999999214
19,9,1728,0.266999999999825
19,10,1727,0.270000000000437
19,11,1736,0.268000000000029
19,12,1727,0.266999999999825
19,13,1740,0.266999999999825
19,14,1731,0.27100000000064
19,15,1742,0.263000000002648
19,16,1748,0.260999999998603
19,17,1748,0.260999999998603
19,18,1725,0.26299999999901
19,19,1740,0.261000000002241
19,20,1747,0.26299999999901
19,21,1745,0.263999999999214
19,22,1749,0.260000000002037
19,23,1742,0.260999999998603
19,24,1748,0.26299999999901
19,25,1731,0.264000000002852
19,26,1743,0.260999999998603
19,27,1741,0.261999999998807
19,28,1725,0.261000000002241
19,29,1745,0.26299999999901
19,30,1743,0.260999999998603
20,1,1749,0.260000000002037
20,2,1748,0.261999999998807
20,3,1735,0.264999999999418
20,4,1747,0.261000000002241
20,5,1749,0.260999999998603
20,6,1742,0.25800000000163
20,7,1745,0.263999999999214
20,8,1746,0.259999999998399
20,9,1749,0.263000000002648
20,10,1735,0.258999999998196
20,11,1748,0.26299999999901
20,12,1734,0.261000000002241
20,13,1735,0.261999999998807
20,14,1747,0.26299999999901
20,15,1744,0.262000000002445
20,16,1747,0.259999999998399
20,17,1748,0.261999999998807
20,18,1749,0.264999999999418
20,19,1748,0.261000000002241
20,20,1748,0.257999999997992
20,21,1748,0.260000000002037
20,22,1748,0.26299999999901
20,23,1749,0.260999999998603
20,24,1744,0.259000000001834
20,25,1742,0.260999999998603
20,26,1747,0.263000000002648
20,27,1745,0.258999999998196
20,28,1744,0.260000000002037
20,29,1747,0.259999999998399
20,30,1749,0.26299999999901
21,1,1735,0.262000000002445
21,2,1747,0.26299999999901
21,3,1742,0.260999999998603
21,4,1747,0.259000000001834
21,5,1749,0.261999999998807
21,6,1749,0.264999999999418
21,7,1735,0.262000000002445
21,8,1747,0.260999999998603
21,9,1746,0.261999999998807
21,10,1749,0.262000000002445
21,11,1747,0.261999999998807
21,12,1746,0.260999999998603
21,13,1745,0.260000000002037
21,14,1744,0.260999999998603
21,15,1746,0.264999999999418
21,16,1746,0.26299999999901
21,17,1747,0.264000000002852
21,18,1746,0.260999999998603
21,19,1741,0.265999999999622
21,20,1747,0.260999999998603
21,21,1749,0.264000000002852
21,22,1748,0.260999999998603
21,23,1749,0.263999999999214
21,24,1743,0.26299999999901
21,25,1747,0.262000000002445
21,26,1737,0.263999999999214
21,27,1740,0.259999999998399
21,28,1743,0.262000000002445
21,29,1746,0.26299999999901
21,30,1746,0.26299999999901
22,1,1747,0.264000000002852
22,2,1736,0.256999999997788
22,3,1743,0.261000000002241
22,4,1747,0.264999999999418
22,5,1748,0.259999999998399
22,6,1749,0.259000000001834
22,7,1746,0.260999999998603
22,8,1747,0.264999999999418
22,9,1748,0.259000000001834
22,10,1742,0.263999999999214
22,11,1741,0.260999999998603
22,12,1746,0.263000000002648
22,13,1746,0.259999999998399
22,14,1740,0.263999999999214
22,15,1742,0.262000000002445
22,16,1743,0.257999999997992
22,17,1749,0.260000000002037
22,18,1744,0.263000000002648
22,19,1744,0.26299999999901
22,20,1738,0.260999999998603
22,21,1741,0.261000000002241
22,22,1742,0.261999999998807
22,23,1747,0.260999999998603
22,24,1746,0.263000000002648
22,25,1738,0.259999999998399
22,26,1749,0.262000000002445
22,27,1740,0.264999999999418
22,28,1739,0.26299999999901
22,29,1745,0.261999999998807
22,30,1744,0.25800000000163
23,1,1749,0.26299999999901
23,2,1741,0.260000000002037
23,3,1740,0.261999999998807
23,4,1748,0.260999999998603
23,5,1741,0.263999999999214
23,6,1741,0.263000000002648
23,7,1748,0.261999999998807
23,8,1747,0.263999999999214
23,9,1745,0.261000000002241
23,10,1748,0.260999999998603
23,11,1748,0.263999999999214
23,12,1745,0.26299999999901
23,13,1744,0.262000000002445
23,14,1711,0.260999999998603
23,15,1742,0.26299999999901
23,16,1748,0.265999999999622
23,17,1748,0.260000000002037
23,18,1737,0.259999999998399
23,19,1748,0.263000000002648
23,20,1746,0.263999999999214
23,21,1749,0.257999999997992
23,22,1749,0.261000000002241
23,23,1749,0.260999999998603
23,24,1746,0.265999999999622
23,25,1735,0.259000000001834
23,26,1732,0.263999999999214
23,27,1744,0.261999999998807
23,28,1740,0.260000000002037
23,29,1731,0.260999999998603
23,30,1748,0.26299999999901
24,1,1744,0.261000000002241
24,2,1744,0.260999999998603
24,3,1747,0.260999999998603
24,4,1744,0.263000000002648
24,5,1729,0.261999999998807
24,6,1745,0.259999999998399
24,7,1745,0.259000000001834
24,8,1742,0.260999999998603
24,9,1749,0.263999999999214
24,10,1745,0.262000000002445
24,11,1746,0.261999999998807
24,12,1746,0.259000000001834
24,13,1746,0.261999999998807
24,14,1743,0.258999999998196
24,15,1748,0.262000000002445
24,16,1746,0.258999999998196
24,17,1745,0.263999999999214
24,18,1748,0.259000000001834
24,19,1743,0.260999999998603
24,20,1740,0.262000000002445
24,21,1741,0.258999999998196
24,22,1742,0.259999999998399
24,23,1745,0.260000000002037
24,24,1749,0.26299999999901
24,25,1745,0.260999999998603
24,26,1749,0.25800000000163
24,27,1748,0.261999999998807
24,28,1742,0.263000000002648
24,29,1749,0.26299999999901
24,30,1733,0.259999999998399
25,1,1739,0.261000000002241
25,2,1746,0.265999999999622
25,3,1748,0.258999999998196
25,4,1732,0.264999999999418
25,5,1746,0.263000000002648
25,6,1744,0.266999999999825
25,7,1748,0.261999999998807
25,8,1747,0.26299999999901
25,9,1748,0.264000000002852
25,10,1732,0.259999999998399
25,11,1737,0.26299999999901
25,12,1748,0.264999999999418
25,13,1747,0.265000000003056
25,14,1740,0.264999999999418
25,15,1744,0.27299999999741
25,16,1746,0.268000000000029
25,17,1747,0.273000000001048
25,18,1747,0.265999999999622
25,19,1722,0.260000000002037
25,20,1747,0.26299999999901
25,21,1746,0.264999999999418
25,22,1749,0.260999999998603
25,23,1743,0.263000000002648
25,24,1747,0.257999999997992
25,25,1743,0.264999999999418
25,26,1749,0.261000000002241
25,27,1747,0.26299999999901
25,28,1743,0.26299999999901
25,29,1746,0.262000000002445
25,30,1745,0.260999999998603
26,1,1743,0.259999999998399
26,2,1744,0.264999999999418
26,3,1749,0.260000000002037
26,4,1749,0.26299999999901
26,5,1749,0.261000000002241
26,6,1747,0.263999999999214
26,7,1748,0.259999999998399
26,8,1748,0.25800000000163
26,9,1749,0.261999999998807
26,10,1744,0.264999999999418
26,11,1748,0.263000000002648
26,12,1745,0.258999999998196
26,13,1741,0.261999999998807
26,14,1738,0.263000000002648
26,15,1744,0.258999999998196
26,16,1739,0.261999999998807
26,17,1748,0.261000000002241
26,18,1749,0.263999999999214
26,19,1748,0.260999999998603
26,20,1748,0.261000000002241
26,21,1748,0.263999999999214
26,22,1749,0.25800000000163
26,23,1748,0.260999999998603
26,24,1747,0.260999999998603
26,25,1740,0.264999999999418
26,26,1746,0.259000000001834
26,27,1748,0.259999999998399
26,28,1747,0.260000000002037
26,29,1749,0.261999999998807
26,30,1747,0.261999999998807
27,1,1749,0.261000000002241
27,2,1748,0.26299999999901
27,3,1747,0.26299999999901
27,4,1737,0.260000000002037
27,5,1742,0.26299999999901
27,6,1747,0.259000000001834
27,7,1740,0.263999999999214
27,8,1747,0.259999999998399
27,9,1745,0.26299999999901
27,10,1747,0.262000000002445
27,11,1737,0.261999999998807
27,12,1745,0.260000000002037
27,13,1747,0.26299999999901
27,14,1746,0.261999999998807
27,15,1748,0.262000000002445
27,16,1744,0.261999999998807
27,17,1745,0.260999999998603
27,18,1745,0.263999999999214
27,19,1740,0.262000000002445
27,20,1746,0.258999999998196
27,21,1744,0.262000000002445
27,22,1748,0.263999999999214
27,23,1748,0.259999999998399
27,24,1747,0.261000000002241
27,25,1746,0.261999999998807
27,26,1747,0.261999999998807
27,27,1748,0.259000000001834
27,28,1749,0.264999999999418
27,29,1744,0.259999999998399
27,30,1746,0.264000000002852
28,1,1746,0.260999999998603
28,2,1745,0.261999999998807
28,3,1720,0.262000000002445
28,4,1746,0.257999999997992
28,5,1746,0.260000000002037
28,6,1733,0.261999999998807
28,7,1746,0.263999999999214
28,8,1740,0.260999999998603
28,9,1748,0.262000000002445
28,10,1747,0.26299999999901
28,11,1743,0.263999999999214
28,12,1737,0.262000000002445
28,13,1742,0.260999999998603
28,14,1738,0.263999999999214
28,15,1741,0.263999999999214
28,16,1742,0.260000000002037
28,17,1743,0.261999999998807
28,18,1737,0.258999999998196
28,19,1749,0.263000000002648
28,20,1742,0.258999999998196
28,21,1742,0.262000000002445
28,22,1747,0.261999999998807
28,23,1748,0.261999999998807
28,24,1736,0.261999999998807
28,25,1735,0.261000000002241
28,26,1746,0.263999999999214
28,27,1745,0.261999999998807
28,28,1745,0.261000000002241
28,29,1742,0.260999999998603
28,30,1742,0.264999999999418
29,1,1748,0.261000000002241
29,2,1746,0.258999999998196
29,3,1748,0.26299999999901
29,4,1747,0.264000000002852
29,5,1747,0.260999999998603
29,6,1745,0.260999999998603
29,7,1740,0.263000000002648
29,8,1746,0.263999999999214
29,9,1744,0.258999999998196
29,10,1741,0.264000000002852
29,11,1732,0.260999999998603
29,12,1748,0.264999999999418
29,13,1746,0.261999999998807
29,14,1749,0.263000000002648
29,15,1745,0.261999999998807
29,16,1738,0.261999999998807
29,17,1745,0.262000000002445
29,18,1748,0.260999999998603
29,19,1742,0.263999999999214
29,20,1739,0.261000000002241
29,21,1740,0.26299999999901
29,22,1741,0.261999999998807
29,23,1749,0.26299999999901
29,24,1747,0.262000000002445
29,25,1745,0.260999999998603
29,26,1747,0.261000000002241
29,27,1747,0.26299999999901
29,28,1745,0.260999999998603
29,29,1747,0.261999999998807
29,30,1742,0.25800000000163
30,1,1744,0.265999999999622
30,2,1748,0.261000000002241
30,3,1746,0.264999999999418
30,4,1749,0.263999999999214
30,5,1746,0.26299999999901
30,6,1747,0.260000000002037
30,7,1742,0.258999999998196
30,8,1747,0.26299999999901
30,9,1749,0.261000000002241
30,10,1748,0.261999999998807
30,11,1746,0.260999999998603
30,12,1748,0.264000000002852
30,13,1737,0.260999999998603
30,14,1748,0.259999999998399
30,15,1745,0.264000000002852
30,16,1749,0.265999999999622
30,17,1743,0.258999999998196
30,18,1749,0.260000000002037
30,19,1748,0.261999999998807
30,20,1743,0.263999999999214
30,21,1742,0.259000000001834
30,22,1748,0.26299999999901
30,23,1746,0.261999999998807
30,24,1739,0.263000000002648
30,25,1749,0.263999999999214
30,26,1747,0.265999999999622
30,27,1742,0.266999999999825
30,28,1742,0.263999999999214
30,29,1740,0.268000000000029
30,30,1748,0.265999999999622
