App - Minetest
Scenario - play_game
Level - 1sec
Measure - DTWDistance
Test Statistic - Mann-Whitney U Test
Effect Size Measure - Simple Difference:Kerby
Alpha Level - 0.05


"Before.Version","After.Version","Diff","Direction","P.Value","Simple.Diff","Within.Diffs.Mean","Within.Diffs.SD","Between.Diffs.Mean","Between.Diffs.SD","Runtime"
"0.4.12","0.4.13",FALSE,NA,0,0.274,47033.669,45578.981,67000.542,61875.752,483.241
"0.4.13","0.4.14",TRUE,"NEGATIVE",0,0.94,22736.383,11404.748,149363.811,464967.886,480.328
"0.4.14","0.4.15",TRUE,"NEGATIVE",0,0.867,158527.333,504678.645,430426.022,267816.64,489.167
