App - ConnectBot
Scenario - ssh_shell
Length - 1sec
Measure - EDRDistance
Before Version - 1.8.4
After Version - 1.8.5


"Before.Trace.ID1","Before.Trace.ID2","Difference","Runtime"
1,2,1728,0.361000000000786
1,3,1731,0.254000000000815
1,4,1723,0.254999999997381
1,5,1733,0.254000000000815
1,6,1718,0.256000000001222
1,7,1727,0.257999999997992
1,8,1717,0.256000000001222
1,9,1747,0.256999999997788
1,10,1719,0.255000000001019
1,11,1739,0.255000000001019
1,12,1722,0.257000000001426
1,13,1748,0.255999999997584
1,14,1749,0.256000000001222
1,15,1749,0.255999999997584
1,16,1749,0.257000000001426
1,17,1749,0.257000000001426
1,18,1749,0.254999999997381
1,19,1749,0.256000000001222
1,20,1749,0.257000000001426
1,21,1727,0.256999999997788
1,22,1723,0.256000000001222
1,23,1740,0.257000000001426
1,24,1732,0.255999999997584
1,25,1726,0.255000000001019
1,26,1724,0.257000000001426
1,27,1733,0.255999999997584
1,28,1717,0.256000000001222
1,29,1739,0.257000000001426
1,30,1737,0.256999999997788
2,3,1742,0.257000000001426
2,4,1727,0.254999999997381
2,5,1722,0.255000000001019
2,6,1710,0.257000000001426
2,7,1726,0.255999999997584
2,8,1732,0.255000000001019
2,9,1738,0.257000000001426
2,10,1717,0.254999999997381
2,11,1724,0.255000000001019
2,12,1737,0.257000000001426
2,13,1748,0.256999999997788
2,14,1749,0.255000000001019
2,15,1749,0.256000000001222
2,16,1749,0.256999999997788
2,17,1749,0.257000000001426
2,18,1749,0.255000000001019
2,19,1749,0.254999999997381
2,20,1749,0.256000000001222
2,21,1736,0.256000000001222
2,22,1734,0.256999999997788
2,23,1742,0.256000000001222
2,24,1737,0.255000000001019
2,25,1735,0.254999999997381
2,26,1735,0.257000000001426
2,27,1731,0.256999999997788
2,28,1729,0.255000000001019
2,29,1744,0.256000000001222
2,30,1733,0.256999999997788
3,4,1728,0.257000000001426
3,5,1715,0.255000000001019
3,6,1731,0.254999999997381
3,7,1739,0.256000000001222
3,8,1734,0.256000000001222
3,9,1732,0.255999999997584
3,10,1734,0.256000000001222
3,11,1732,0.255000000001019
3,12,1740,0.254000000000815
3,13,1749,0.256000000001222
3,14,1749,0.256000000001222
3,15,1749,0.254999999997381
3,16,1749,0.256000000001222
3,17,1749,0.256000000001222
3,18,1749,0.255999999997584
3,19,1749,0.255000000001019
3,20,1749,0.255000000001019
3,21,1729,0.256000000001222
3,22,1737,0.256000000001222
3,23,1715,0.257000000001426
3,24,1724,0.255999999997584
3,25,1717,0.255000000001019
3,26,1733,0.254000000000815
3,27,1739,0.256000000001222
3,28,1737,0.256999999997788
3,29,1729,0.254000000000815
3,30,1731,0.257000000001426
4,5,1739,0.255999999997584
4,6,1721,0.257000000001426
4,7,1710,0.254000000000815
4,8,1731,0.253999999997177
4,9,1728,0.257000000001426
4,10,1713,0.256000000001222
4,11,1737,0.255999999997584
4,12,1746,0.256000000001222
4,13,1745,0.255000000001019
4,14,1749,0.254999999997381
4,15,1749,0.257000000001426
4,16,1749,0.257000000001426
4,17,1749,0.254999999997381
4,18,1749,0.25800000000163
4,19,1749,0.255999999997584
4,20,1749,0.256000000001222
4,21,1702,0.254000000000815
4,22,1725,0.255999999997584
4,23,1729,0.256000000001222
4,24,1727,0.256000000001222
4,25,1723,0.256999999997788
4,26,1731,0.256000000001222
4,27,1735,0.255000000001019
4,28,1724,0.254999999997381
4,29,1738,0.257000000001426
4,30,1740,0.255000000001019
5,6,1732,0.255999999997584
5,7,1737,0.256000000001222
5,8,1734,0.257000000001426
5,9,1744,0.255999999997584
5,10,1729,0.255000000001019
5,11,1698,0.255000000001019
5,12,1708,0.256999999997788
5,13,1749,0.257000000001426
5,14,1749,0.256000000001222
5,15,1749,0.256999999997788
5,16,1749,0.255000000001019
5,17,1749,0.254000000000815
5,18,1749,0.256999999997788
5,19,1749,0.257000000001426
5,20,1749,0.255000000001019
5,21,1723,0.255999999997584
5,22,1726,0.256000000001222
5,23,1738,0.256000000001222
5,24,1737,0.254999999997381
5,25,1737,0.255000000001019
5,26,1742,0.257000000001426
5,27,1735,0.255999999997584
5,28,1739,0.256000000001222
5,29,1726,0.256999999997788
5,30,1734,0.255000000001019
6,7,1718,0.255000000001019
6,8,1730,0.257000000001426
6,9,1741,0.255999999997584
6,10,1726,0.254000000000815
6,11,1733,0.257999999997992
6,12,1732,0.256000000001222
6,13,1747,0.25800000000163
6,14,1749,0.254999999997381
6,15,1749,0.255000000001019
6,16,1749,0.256000000001222
6,17,1749,0.257999999997992
6,18,1749,0.256000000001222
6,19,1749,0.256000000001222
6,20,1749,0.254999999997381
6,21,1725,0.255000000001019
6,22,1718,0.256000000001222
6,23,1722,0.256999999997788
6,24,1731,0.255000000001019
6,25,1705,0.257000000001426
6,26,1716,0.254999999997381
6,27,1723,0.256000000001222
6,28,1738,0.254000000000815
6,29,1738,0.254999999997381
6,30,1729,0.256000000001222
7,8,1733,0.256000000001222
7,9,1726,0.255999999997584
7,10,1710,0.257000000001426
7,11,1728,0.255000000001019
7,12,1737,0.253999999997177
7,13,1749,0.256000000001222
7,14,1747,0.257000000001426
7,15,1749,0.254999999997381
7,16,1749,0.256000000001222
7,17,1749,0.256000000001222
7,18,1749,0.255999999997584
7,19,1749,0.254000000000815
7,20,1749,0.255000000001019
7,21,1695,0.255999999997584
7,22,1729,0.256000000001222
7,23,1736,0.256000000001222
7,24,1741,0.255999999997584
7,25,1711,0.254000000000815
7,26,1730,0.255000000001019
7,27,1715,0.255999999997584
7,28,1723,0.257000000001426
7,29,1739,0.254000000000815
7,30,1746,0.255999999997584
8,9,1730,0.257000000001426
8,10,1724,0.257000000001426
8,11,1736,0.254999999997381
8,12,1736,0.255000000001019
8,13,1745,0.257000000001426
8,14,1748,0.256999999997788
8,15,1749,0.257000000001426
8,16,1749,0.257999999997992
8,17,1749,0.255000000001019
8,18,1749,0.254000000000815
8,19,1749,0.256000000001222
8,20,1749,0.256999999997788
8,21,1740,0.255000000001019
8,22,1732,0.256999999997788
8,23,1726,0.256000000001222
8,24,1732,0.257000000001426
8,25,1713,0.253999999997177
8,26,1737,0.255000000001019
8,27,1742,0.257000000001426
8,28,1711,0.257999999997992
8,29,1724,0.257000000001426
8,30,1740,0.256000000001222
9,10,1726,0.255999999997584
9,11,1743,0.254000000000815
9,12,1740,0.257000000001426
9,13,1740,0.255999999997584
9,14,1749,0.255000000001019
9,15,1749,0.257000000001426
9,16,1749,0.256999999997788
9,17,1740,0.256000000001222
9,18,1749,0.255000000001019
9,19,1749,0.254999999997381
9,20,1749,0.256000000001222
9,21,1733,0.257000000001426
9,22,1735,0.256999999997788
9,23,1729,0.256000000001222
9,24,1730,0.255999999997584
9,25,1725,0.254000000000815
9,26,1734,0.256000000001222
9,27,1744,0.256999999997788
9,28,1744,0.256000000001222
9,29,1741,0.25800000000163
9,30,1739,0.255999999997584
10,11,1735,0.257000000001426
10,12,1729,0.254000000000815
10,13,1742,0.254999999997381
10,14,1749,0.256000000001222
10,15,1749,0.256000000001222
10,16,1749,0.256999999997788
10,17,1749,0.257000000001426
10,18,1749,0.255000000001019
10,19,1749,0.254999999997381
10,20,1749,0.257000000001426
10,21,1720,0.257000000001426
10,22,1721,0.254999999997381
10,23,1724,0.257000000001426
10,24,1729,0.257000000001426
10,25,1706,0.255999999997584
10,26,1727,0.255000000001019
10,27,1733,0.255000000001019
10,28,1716,0.255999999997584
10,29,1739,0.257000000001426
10,30,1734,0.255999999997584
11,12,1721,0.256000000001222
11,13,1749,0.255000000001019
11,14,1749,0.255000000001019
11,15,1749,0.255999999997584
11,16,1749,0.255000000001019
11,17,1749,0.256000000001222
11,18,1749,0.255999999997584
11,19,1749,0.256000000001222
11,20,1749,0.256999999997788
11,21,1712,0.255000000001019
11,22,1720,0.255000000001019
11,23,1734,0.256000000001222
11,24,1726,0.256999999997788
11,25,1722,0.256000000001222
11,26,1731,0.256999999997788
11,27,1724,0.255000000001019
11,28,1735,0.255000000001019
11,29,1720,0.256999999997788
11,30,1718,0.256000000001222
12,13,1748,0.255000000001019
12,14,1749,0.255999999997584
12,15,1749,0.257000000001426
12,16,1749,0.256000000001222
12,17,1749,0.254999999997381
12,18,1749,0.256000000001222
12,19,1749,0.257000000001426
12,20,1749,0.256999999997788
12,21,1724,0.256000000001222
12,22,1723,0.25800000000163
12,23,1731,0.254999999997381
12,24,1743,0.254000000000815
12,25,1740,0.257000000001426
12,26,1744,0.255999999997584
12,27,1735,0.255000000001019
12,28,1737,0.257000000001426
12,29,1722,0.256999999997788
12,30,1744,0.256000000001222
13,14,1738,0.256000000001222
13,15,1749,0.256999999997788
13,16,1729,0.261000000002241
13,17,1741,0.257999999997992
13,18,1745,0.256000000001222
13,19,1737,0.256999999997788
13,20,1741,0.255000000001019
13,21,1749,0.255000000001019
13,22,1745,0.256999999997788
13,23,1748,0.256000000001222
13,24,1742,0.255000000001019
13,25,1748,0.255999999997584
13,26,1749,0.257000000001426
13,27,1747,0.257000000001426
13,28,1749,0.254999999997381
13,29,1748,0.255000000001019
13,30,1749,0.257000000001426
14,15,1742,0.255999999997584
14,16,1741,0.256000000001222
14,17,1744,0.256999999997788
14,18,1744,0.255000000001019
14,19,1749,0.255000000001019
14,20,1722,0.257000000001426
14,21,1749,0.256999999997788
14,22,1749,0.255000000001019
14,23,1749,0.256999999997788
14,24,1749,0.256000000001222
14,25,1747,0.25800000000163
14,26,1749,0.254999999997381
14,27,1749,0.255000000001019
14,28,1747,0.257000000001426
14,29,1749,0.255999999997584
14,30,1749,0.256000000001222
15,16,1735,0.256000000001222
15,17,1727,0.254999999997381
15,18,1738,0.255000000001019
15,19,1736,0.257000000001426
15,20,1737,0.255999999997584
15,21,1749,0.256000000001222
15,22,1749,0.256000000001222
15,23,1749,0.256999999997788
15,24,1749,0.257000000001426
15,25,1749,0.255000000001019
15,26,1749,0.254999999997381
15,27,1749,0.257000000001426
15,28,1749,0.256000000001222
15,29,1749,0.255999999997584
15,30,1749,0.256000000001222
16,17,1738,0.254000000000815
16,18,1733,0.253999999997177
16,19,1728,0.256000000001222
16,20,1741,0.256000000001222
16,21,1749,0.253999999997177
16,22,1749,0.257000000001426
16,23,1749,0.257000000001426
16,24,1749,0.256999999997788
16,25,1749,0.254000000000815
16,26,1749,0.255000000001019
16,27,1749,0.256999999997788
16,28,1749,0.257000000001426
16,29,1749,0.256999999997788
16,30,1749,0.256000000001222
17,18,1745,0.255000000001019
17,19,1747,0.255000000001019
17,20,1741,0.256999999997788
17,21,1749,0.256000000001222
17,22,1749,0.255000000001019
17,23,1747,0.255999999997584
17,24,1745,0.256000000001222
17,25,1749,0.256999999997788
17,26,1745,0.255000000001019
17,27,1745,0.255000000001019
17,28,1749,0.256000000001222
17,29,1747,0.254999999997381
17,30,1749,0.256000000001222
18,19,1744,0.256000000001222
18,20,1740,0.254000000000815
18,21,1749,0.254000000000815
18,22,1749,0.257000000001426
18,23,1749,0.255999999997584
18,24,1749,0.255000000001019
18,25,1749,0.256000000001222
18,26,1749,0.256999999997788
18,27,1749,0.25800000000163
18,28,1749,0.254999999997381
18,29,1749,0.256000000001222
18,30,1749,0.256000000001222
19,20,1748,0.255999999997584
19,21,1749,0.257000000001426
19,22,1749,0.257000000001426
19,23,1749,0.254999999997381
19,24,1749,0.255000000001019
19,25,1749,0.257000000001426
19,26,1749,0.255999999997584
19,27,1749,0.255000000001019
19,28,1749,0.257000000001426
19,29,1749,0.256999999997788
19,30,1749,0.257000000001426
20,21,1749,0.254000000000815
20,22,1749,0.255999999997584
20,23,1749,0.256000000001222
20,24,1749,0.256999999997788
20,25,1749,0.257000000001426
20,26,1749,0.257000000001426
20,27,1749,0.254999999997381
20,28,1749,0.254000000000815
20,29,1749,0.257000000001426
20,30,1749,0.255999999997584
21,22,1731,0.256000000001222
21,23,1741,0.257000000001426
21,24,1732,0.256999999997788
21,25,1727,0.257000000001426
21,26,1729,0.255000000001019
21,27,1731,0.254999999997381
21,28,1736,0.257000000001426
21,29,1737,0.257000000001426
21,30,1740,0.256999999997788
22,23,1722,0.257000000001426
22,24,1727,0.255000000001019
22,25,1721,0.254000000000815
22,26,1741,0.256000000001222
22,27,1740,0.256999999997788
22,28,1730,0.255000000001019
22,29,1722,0.257000000001426
22,30,1736,0.255999999997584
23,24,1727,0.256000000001222
23,25,1729,0.255000000001019
23,26,1730,0.255000000001019
23,27,1743,0.255999999997584
23,28,1728,0.257000000001426
23,29,1723,0.256999999997788
23,30,1734,0.256000000001222
24,25,1730,0.255000000001019
24,26,1723,0.254000000000815
24,27,1736,0.255999999997584
24,28,1740,0.256000000001222
24,29,1723,0.255000000001019
24,30,1736,0.255999999997584
25,26,1732,0.257000000001426
25,27,1746,0.258999999998196
25,28,1711,0.257000000001426
25,29,1724,0.254000000000815
25,30,1735,0.256999999997788
26,27,1729,0.257000000001426
26,28,1740,0.256000000001222
26,29,1735,0.255999999997584
26,30,1747,0.255000000001019
27,28,1742,0.255000000001019
27,29,1743,0.256999999997788
27,30,1732,0.256000000001222
28,29,1737,0.254000000000815
28,30,1731,0.256999999997788
29,30,1731,0.257000000001426


"After.Trace.ID","Before.Trace.ID","Difference","Runtime"
1,1,1727,0.226000000002387
1,2,1728,0.254999999997381
1,3,1735,0.257000000001426
1,4,1726,0.256000000001222
1,5,1727,0.254999999997381
1,6,1735,0.256000000001222
1,7,1721,0.255000000001019
1,8,1727,0.255999999997584
1,9,1738,0.256000000001222
1,10,1727,0.257000000001426
1,11,1733,0.256999999997788
1,12,1740,0.253000000000611
1,13,1749,0.256000000001222
1,14,1749,0.255999999997584
1,15,1749,0.257000000001426
1,16,1749,0.254000000000815
1,17,1749,0.256999999997788
1,18,1749,0.257000000001426
1,19,1749,0.254000000000815
1,20,1749,0.255999999997584
1,21,1719,0.255000000001019
1,22,1737,0.257000000001426
1,23,1748,0.256999999997788
1,24,1735,0.257000000001426
1,25,1737,0.257000000001426
1,26,1737,0.252999999996973
1,27,1736,0.257000000001426
1,28,1721,0.256000000001222
1,29,1736,0.257999999997992
1,30,1742,0.255000000001019
2,1,1731,0.256999999997788
2,2,1734,0.256000000001222
2,3,1720,0.255000000001019
2,4,1728,0.256999999997788
2,5,1727,0.254000000000815
2,6,1713,0.256000000001222
2,7,1723,0.255999999997584
2,8,1733,0.257000000001426
2,9,1739,0.257000000001426
2,10,1723,0.253000000000611
2,11,1720,0.256999999997788
2,12,1735,0.256000000001222
2,13,1746,0.256999999997788
2,14,1746,0.255000000001019
2,15,1749,0.257000000001426
2,16,1749,0.256999999997788
2,17,1749,0.255000000001019
2,18,1749,0.256000000001222
2,19,1749,0.253999999997177
2,20,1749,0.257000000001426
2,21,1716,0.257000000001426
2,22,1716,0.256999999997788
2,23,1732,0.256000000001222
2,24,1720,0.254000000000815
2,25,1724,0.256999999997788
2,26,1733,0.257000000001426
2,27,1742,0.257000000001426
2,28,1729,0.254999999997381
2,29,1719,0.257000000001426
2,30,1723,0.256999999997788
3,1,1730,0.255000000001019
3,2,1730,0.257000000001426
3,3,1719,0.255000000001019
3,4,1729,0.256000000001222
3,5,1734,0.256000000001222
3,6,1724,0.255999999997584
3,7,1735,0.257000000001426
3,8,1740,0.253000000000611
3,9,1722,0.256000000001222
3,10,1719,0.256000000001222
3,11,1727,0.256000000001222
3,12,1727,0.254999999997381
3,13,1749,0.256000000001222
3,14,1749,0.257000000001426
3,15,1749,0.253999999997177
3,16,1749,0.257000000001426
3,17,1749,0.255000000001019
3,18,1749,0.255999999997584
3,19,1749,0.257000000001426
3,20,1749,0.256000000001222
3,21,1733,0.256999999997788
3,22,1718,0.253000000000611
3,23,1729,0.257000000001426
3,24,1729,0.256999999997788
3,25,1720,0.257000000001426
3,26,1727,0.255000000001019
3,27,1735,0.255999999997584
3,28,1736,0.256000000001222
3,29,1732,0.254000000000815
3,30,1738,0.255999999997584
4,1,1732,0.255000000001019
4,2,1728,0.256000000001222
4,3,1740,0.256999999997788
4,4,1726,0.257000000001426
4,5,1731,0.256000000001222
4,6,1728,0.253999999997177
4,7,1724,0.257000000001426
4,8,1737,0.256000000001222
4,9,1731,0.256999999997788
4,10,1726,0.254000000000815
4,11,1719,0.257000000001426
4,12,1735,0.256999999997788
4,13,1746,0.255000000001019
4,14,1749,0.256000000001222
4,15,1749,0.254999999997381
4,16,1749,0.257000000001426
4,17,1745,0.256000000001222
4,18,1749,0.256999999997788
4,19,1749,0.257000000001426
4,20,1749,0.253000000000611
4,21,1731,0.255999999997584
4,22,1715,0.256000000001222
4,23,1729,0.256000000001222
4,24,1726,0.254999999997381
4,25,1737,0.257000000001426
4,26,1720,0.257000000001426
4,27,1735,0.254999999997381
4,28,1744,0.256000000001222
4,29,1737,0.255000000001019
4,30,1741,0.256999999997788
5,1,1711,0.256000000001222
5,2,1726,0.256000000001222
5,3,1732,0.256999999997788
5,4,1719,0.254000000000815
5,5,1743,0.256000000001222
5,6,1713,0.256999999997788
5,7,1726,0.25800000000163
5,8,1721,0.254999999997381
5,9,1739,0.257000000001426
5,10,1722,0.256000000001222
5,11,1727,0.254999999997381
5,12,1731,0.256000000001222
5,13,1747,0.255000000001019
5,14,1749,0.255999999997584
5,15,1749,0.256000000001222
5,16,1749,0.257000000001426
5,17,1749,0.256999999997788
5,18,1749,0.253000000000611
5,19,1749,0.256000000001222
5,20,1749,0.256999999997788
5,21,1729,0.257000000001426
5,22,1727,0.255000000001019
5,23,1725,0.256999999997788
5,24,1736,0.256000000001222
5,25,1729,0.254000000000815
5,26,1742,0.255999999997584
5,27,1737,0.255000000001019
5,28,1705,0.256000000001222
5,29,1733,0.256999999997788
5,30,1736,0.257000000001426
6,1,1738,0.256000000001222
6,2,1733,0.252999999996973
6,3,1734,0.256000000001222
6,4,1737,0.256000000001222
6,5,1742,0.256999999997788
6,6,1727,0.255000000001019
6,7,1721,0.257000000001426
6,8,1729,0.256999999997788
6,9,1737,0.255000000001019
6,10,1716,0.256000000001222
6,11,1730,0.254000000000815
6,12,1714,0.256000000001222
6,13,1749,0.256000000001222
6,14,1749,0.256999999997788
6,15,1749,0.256000000001222
6,16,1749,0.253000000000611
6,17,1749,0.255999999997584
6,18,1749,0.256000000001222
6,19,1749,0.25800000000163
6,20,1749,0.254999999997381
6,21,1727,0.256000000001222
6,22,1732,0.257000000001426
6,23,1713,0.254999999997381
6,24,1716,0.256000000001222
6,25,1718,0.255000000001019
6,26,1734,0.256999999997788
6,27,1739,0.256000000001222
6,28,1730,0.256999999997788
6,29,1736,0.256000000001222
6,30,1738,0.253000000000611
7,1,1738,0.256000000001222
7,2,1736,0.254999999997381
7,3,1728,0.256000000001222
7,4,1729,0.254000000000815
7,5,1738,0.256999999997788
7,6,1714,0.256000000001222
7,7,1723,0.255000000001019
7,8,1730,0.255999999997584
7,9,1737,0.255000000001019
7,10,1727,0.257000000001426
7,11,1733,0.256999999997788
7,12,1736,0.257000000001426
7,13,1749,0.257000000001426
7,14,1749,0.251999999996769
7,15,1749,0.256000000001222
7,16,1749,0.257000000001426
7,17,1747,0.256999999997788
7,18,1749,0.254000000000815
7,19,1749,0.257000000001426
7,20,1749,0.255999999997584
7,21,1725,0.255000000001019
7,22,1743,0.256999999997788
7,23,1729,0.255000000001019
7,24,1737,0.256000000001222
7,25,1738,0.256999999997788
7,26,1728,0.257000000001426
7,27,1729,0.256000000001222
7,28,1740,0.253000000000611
7,29,1745,0.255999999997584
7,30,1737,0.257000000001426
8,1,1736,0.256999999997788
8,2,1734,0.255000000001019
8,3,1729,0.257000000001426
8,4,1734,0.255999999997584
8,5,1730,0.254000000000815
8,6,1739,0.257000000001426
8,7,1741,0.254999999997381
8,8,1737,0.257000000001426
8,9,1745,0.257000000001426
8,10,1719,0.256999999997788
8,11,1712,0.256000000001222
8,12,1739,0.254000000000815
8,13,1743,0.255999999997584
8,14,1749,0.257000000001426
8,15,1749,0.257000000001426
8,16,1749,0.253999999997177
8,17,1748,0.257000000001426
8,18,1749,0.256000000001222
8,19,1749,0.253999999997177
8,20,1749,0.256000000001222
8,21,1738,0.254000000000815
8,22,1737,0.256999999997788
8,23,1719,0.257000000001426
8,24,1722,0.25800000000163
8,25,1728,0.255999999997584
8,26,1731,0.254000000000815
8,27,1745,0.256000000001222
8,28,1743,0.256999999997788
8,29,1710,0.257000000001426
8,30,1733,0.255999999997584
9,1,1735,0.255000000001019
9,2,1732,0.256000000001222
9,3,1727,0.254000000000815
9,4,1743,0.255999999997584
9,5,1731,0.254000000000815
9,6,1725,0.257000000001426
9,7,1727,0.255999999997584
9,8,1722,0.257000000001426
9,9,1743,0.256999999997788
9,10,1715,0.253000000000611
9,11,1729,0.257000000001426
9,12,1723,0.256999999997788
9,13,1748,0.257000000001426
9,14,1749,0.256000000001222
9,15,1749,0.255999999997584
9,16,1749,0.256000000001222
9,17,1748,0.256000000001222
9,18,1749,0.255999999997584
9,19,1749,0.255000000001019
9,20,1749,0.257000000001426
9,21,1738,0.255999999997584
9,22,1726,0.256000000001222
9,23,1728,0.257000000001426
9,24,1732,0.252999999996973
9,25,1715,0.257000000001426
9,26,1718,0.256000000001222
9,27,1737,0.255999999997584
9,28,1723,0.255000000001019
9,29,1734,0.256000000001222
9,30,1738,0.255999999997584
10,1,1733,0.255000000001019
10,2,1707,0.256000000001222
10,3,1732,0.254999999997381
10,4,1709,0.257000000001426
10,5,1728,0.257000000001426
10,6,1720,0.255999999997584
10,7,1716,0.256000000001222
10,8,1720,0.253000000000611
10,9,1724,0.255999999997584
10,10,1719,0.256000000001222
10,11,1737,0.257000000001426
10,12,1738,0.253999999997177
10,13,1746,0.257000000001426
10,14,1749,0.256000000001222
10,15,1749,0.254999999997381
10,16,1749,0.257000000001426
10,17,1748,0.255000000001019
10,18,1749,0.256999999997788
10,19,1749,0.257000000001426
10,20,1749,0.256000000001222
10,21,1719,0.256999999997788
10,22,1717,0.253000000000611
10,23,1720,0.256000000001222
10,24,1727,0.256999999997788
10,25,1723,0.257000000001426
10,26,1722,0.256000000001222
10,27,1738,0.255999999997584
10,28,1728,0.257000000001426
10,29,1731,0.254999999997381
10,30,1739,0.256000000001222
11,1,1708,0.254000000000815
11,2,1731,0.256999999997788
11,3,1740,0.256000000001222
11,4,1727,0.257000000001426
11,5,1723,0.256999999997788
11,6,1732,0.253000000000611
11,7,1718,0.257000000001426
11,8,1731,0.256999999997788
11,9,1737,0.256000000001222
11,10,1721,0.254000000000815
11,11,1725,0.255999999997584
11,12,1735,0.257000000001426
11,13,1748,0.255000000001019
11,14,1749,0.255999999997584
11,15,1749,0.254000000000815
11,16,1749,0.257000000001426
11,17,1749,0.256999999997788
11,18,1749,0.257000000001426
11,19,1749,0.256000000001222
11,20,1749,0.252999999996973
11,21,1713,0.256000000001222
11,22,1734,0.257000000001426
11,23,1743,0.256999999997788
11,24,1709,0.255000000001019
11,25,1725,0.257000000001426
11,26,1727,0.256999999997788
11,27,1733,0.254000000000815
11,28,1725,0.257000000001426
11,29,1736,0.253999999997177
11,30,1738,0.257000000001426
12,1,1726,0.257000000001426
12,2,1742,0.256999999997788
12,3,1739,0.256000000001222
12,4,1738,0.254000000000815
12,5,1730,0.256999999997788
12,6,1729,0.256000000001222
12,7,1734,0.257000000001426
12,8,1733,0.253999999997177
12,9,1744,0.256000000001222
12,10,1740,0.256999999997788
12,11,1725,0.255000000001019
12,12,1731,0.256000000001222
12,13,1749,0.255000000001019
12,14,1749,0.255999999997584
12,15,1749,0.256000000001222
12,16,1749,0.256999999997788
12,17,1749,0.257000000001426
12,18,1749,0.253000000000611
12,19,1749,0.256000000001222
12,20,1747,0.255999999997584
12,21,1730,0.257000000001426
12,22,1719,0.254000000000815
12,23,1730,0.256999999997788
12,24,1734,0.257000000001426
12,25,1727,0.254000000000815
12,26,1738,0.255999999997584
12,27,1731,0.254000000000815
12,28,1730,0.257000000001426
12,29,1736,0.255999999997584
12,30,1740,0.256000000001222
13,1,1739,0.256999999997788
13,2,1737,0.253000000000611
13,3,1737,0.257000000001426
13,4,1734,0.256000000001222
13,5,1741,0.256999999997788
13,6,1741,0.255000000001019
13,7,1726,0.256999999997788
13,8,1726,0.256000000001222
13,9,1734,0.255000000001019
13,10,1735,0.256999999997788
13,11,1732,0.255000000001019
13,12,1745,0.257000000001426
13,13,1748,0.255999999997584
13,14,1749,0.257000000001426
13,15,1749,0.256000000001222
13,16,1749,0.252000000000407
13,17,1748,0.256999999997788
13,18,1749,0.256000000001222
13,19,1749,0.256999999997788
13,20,1749,0.254000000000815
13,21,1732,0.257000000001426
13,22,1734,0.256999999997788
13,23,1743,0.255000000001019
13,24,1736,0.256000000001222
13,25,1733,0.255000000001019
13,26,1738,0.256999999997788
13,27,1746,0.257000000001426
13,28,1731,0.255999999997584
13,29,1739,0.256000000001222
13,30,1735,0.253000000000611
14,1,1719,0.256999999997788
14,2,1729,0.256000000001222
14,3,1735,0.257000000001426
14,4,1725,0.254999999997381
14,5,1721,0.257000000001426
14,6,1723,0.257000000001426
14,7,1713,0.253999999997177
14,8,1737,0.257000000001426
14,9,1735,0.255000000001019
14,10,1726,0.255999999997584
14,11,1726,0.256000000001222
14,12,1736,0.256000000001222
14,13,1749,0.255999999997584
14,14,1749,0.253000000000611
14,15,1749,0.257000000001426
14,16,1749,0.255999999997584
14,17,1748,0.257000000001426
14,18,1749,0.254000000000815
14,19,1749,0.255999999997584
14,20,1749,0.257000000001426
14,21,1731,0.255000000001019
14,22,1726,0.255999999997584
14,23,1728,0.255000000001019
14,24,1726,0.256000000001222
14,25,1725,0.256999999997788
14,26,1731,0.257000000001426
14,27,1735,0.257000000001426
14,28,1726,0.251999999996769
14,29,1738,0.256000000001222
14,30,1728,0.257000000001426
15,1,1731,0.257999999997992
15,2,1724,0.255000000001019
15,3,1738,0.256000000001222
15,4,1728,0.256999999997788
15,5,1735,0.255000000001019
15,6,1727,0.257000000001426
15,7,1731,0.254999999997381
15,8,1725,0.257000000001426
15,9,1736,0.256999999997788
15,10,1725,0.257000000001426
15,11,1714,0.256000000001222
15,12,1737,0.252000000000407
15,13,1747,0.256999999997788
15,14,1749,0.257000000001426
15,15,1749,0.256999999997788
15,16,1749,0.254000000000815
15,17,1749,0.257000000001426
15,18,1749,0.255999999997584
15,19,1749,0.255000000001019
15,20,1749,0.256000000001222
15,21,1726,0.254000000000815
15,22,1711,0.256999999997788
15,23,1734,0.256000000001222
15,24,1732,0.255999999997584
15,25,1730,0.257000000001426
15,26,1731,0.254000000000815
15,27,1735,0.256000000001222
15,28,1732,0.256999999997788
15,29,1724,0.257000000001426
15,30,1743,0.254999999997381
16,1,1727,0.256000000001222
16,2,1736,0.256000000001222
16,3,1728,0.254000000000815
16,4,1739,0.256999999997788
16,5,1735,0.255000000001019
16,6,1734,0.256000000001222
16,7,1721,0.256999999997788
16,8,1724,0.257000000001426
16,9,1740,0.255999999997584
16,10,1729,0.252000000000407
16,11,1725,0.256000000001222
16,12,1740,0.256000000001222
16,13,1743,0.256999999997788
16,14,1749,0.255000000001019
16,15,1749,0.256000000001222
16,16,1749,0.255999999997584
16,17,1749,0.255000000001019
16,18,1749,0.257000000001426
16,19,1749,0.253999999997177
16,20,1749,0.257000000001426
16,21,1726,0.256000000001222
16,22,1737,0.256999999997788
16,23,1736,0.257000000001426
16,24,1729,0.253000000000611
16,25,1722,0.256999999997788
16,26,1744,0.257000000001426
16,27,1741,0.255999999997584
16,28,1727,0.255000000001019
16,29,1738,0.256000000001222
16,30,1729,0.256999999997788
17,1,1728,0.255000000001019
17,2,1736,0.256000000001222
17,3,1731,0.255000000001019
17,4,1729,0.256999999997788
17,5,1735,0.257000000001426
17,6,1712,0.255999999997584
17,7,1735,0.257000000001426
17,8,1736,0.253000000000611
17,9,1731,0.256999999997788
17,10,1722,0.256000000001222
17,11,1740,0.257000000001426
17,12,1735,0.254999999997381
17,13,1748,0.256000000001222
17,14,1747,0.257000000001426
17,15,1749,0.254999999997381
17,16,1749,0.257000000001426
17,17,1749,0.255000000001019
17,18,1749,0.256999999997788
17,19,1749,0.257000000001426
17,20,1749,0.256000000001222
17,21,1723,0.256999999997788
17,22,1730,0.253000000000611
17,23,1730,0.257000000001426
17,24,1707,0.256999999997788
17,25,1730,0.257000000001426
17,26,1715,0.255000000001019
17,27,1732,0.256999999997788
17,28,1743,0.257000000001426
17,29,1712,0.255000000001019
17,30,1739,0.256999999997788
18,1,1726,0.255000000001019
18,2,1730,0.256000000001222
18,3,1717,0.256999999997788
18,4,1719,0.257000000001426
18,5,1710,0.255999999997584
18,6,1723,0.253000000000611
18,7,1716,0.257000000001426
18,8,1737,0.256999999997788
18,9,1734,0.257000000001426
18,10,1718,0.255000000001019
18,11,1723,0.256999999997788
18,12,1728,0.257000000001426
18,13,1749,0.255000000001019
18,14,1749,0.256999999997788
18,15,1749,0.255000000001019
18,16,1749,0.256000000001222
18,17,1749,0.255999999997584
18,18,1749,0.257000000001426
18,19,1749,0.257000000001426
18,20,1749,0.251999999996769
18,21,1712,0.256000000001222
18,22,1719,0.256000000001222
18,23,1737,0.255999999997584
18,24,1727,0.255000000001019
18,25,1715,0.257000000001426
18,26,1724,0.255999999997584
18,27,1723,0.256000000001222
18,28,1738,0.257000000001426
18,29,1725,0.254999999997381
18,30,1716,0.257000000001426
19,1,1734,0.256000000001222
19,2,1728,0.255999999997584
19,3,1737,0.256000000001222
19,4,1739,0.253000000000611
19,5,1728,0.256999999997788
19,6,1747,0.256000000001222
19,7,1742,0.256000000001222
19,8,1738,0.254999999997381
19,9,1745,0.257000000001426
19,10,1736,0.256000000001222
19,11,1741,0.254999999997381
19,12,1738,0.256000000001222
19,13,1749,0.254000000000815
19,14,1749,0.255999999997584
19,15,1749,0.256000000001222
19,16,1749,0.256000000001222
19,17,1749,0.255999999997584
19,18,1749,0.254000000000815
19,19,1749,0.256000000001222
19,20,1749,0.255999999997584
19,21,1741,0.257000000001426
19,22,1743,0.255000000001019
19,23,1742,0.255999999997584
19,24,1742,0.256000000001222
19,25,1742,0.255000000001019
19,26,1739,0.255999999997584
19,27,1741,0.255000000001019
19,28,1731,0.256000000001222
19,29,1744,0.256999999997788
19,30,1739,0.257000000001426
20,1,1735,0.257000000001426
20,2,1741,0.252999999996973
20,3,1716,0.256000000001222
20,4,1741,0.256000000001222
20,5,1727,0.255999999997584
20,6,1721,0.255000000001019
20,7,1721,0.256000000001222
20,8,1729,0.255999999997584
20,9,1729,0.256000000001222
20,10,1697,0.256000000001222
20,11,1735,0.254999999997381
20,12,1728,0.257000000001426
20,13,1742,0.256000000001222
20,14,1749,0.256999999997788
20,15,1749,0.256000000001222
20,16,1749,0.253000000000611
20,17,1749,0.256999999997788
20,18,1749,0.256000000001222
20,19,1749,0.256999999997788
20,20,1749,0.254000000000815
20,21,1736,0.257000000001426
20,22,1725,0.256999999997788
20,23,1711,0.255000000001019
20,24,1727,0.257000000001426
20,25,1728,0.254999999997381
20,26,1724,0.257000000001426
20,27,1732,0.256000000001222
20,28,1732,0.255999999997584
20,29,1731,0.256000000001222
20,30,1727,0.253000000000611
21,1,1714,0.256999999997788
21,2,1730,0.256000000001222
21,3,1718,0.256000000001222
21,4,1731,0.255999999997584
21,5,1723,0.256000000001222
21,6,1714,0.256000000001222
21,7,1723,0.253999999997177
21,8,1738,0.256000000001222
21,9,1738,0.255000000001019
21,10,1733,0.255999999997584
21,11,1731,0.256000000001222
21,12,1732,0.257000000001426
21,13,1749,0.255999999997584
21,14,1749,0.253000000000611
21,15,1749,0.257000000001426
21,16,1749,0.256999999997788
21,17,1749,0.256000000001222
21,18,1749,0.255000000001019
21,19,1749,0.255999999997584
21,20,1749,0.256000000001222
21,21,1726,0.255000000001019
21,22,1726,0.255999999997584
21,23,1737,0.255000000001019
21,24,1728,0.256000000001222
21,25,1727,0.255999999997584
21,26,1736,0.256000000001222
21,27,1739,0.257000000001426
21,28,1724,0.252999999996973
21,29,1719,0.257000000001426
21,30,1736,0.256000000001222
22,1,1733,0.256999999997788
22,2,1736,0.255000000001019
22,3,1745,0.257000000001426
22,4,1723,0.256999999997788
22,5,1732,0.254000000000815
22,6,1729,0.257000000001426
22,7,1733,0.254999999997381
22,8,1734,0.256000000001222
22,9,1737,0.257000000001426
22,10,1731,0.256999999997788
22,11,1714,0.256000000001222
22,12,1725,0.253000000000611
22,13,1746,0.256999999997788
22,14,1749,0.256000000001222
22,15,1749,0.256000000001222
22,16,1749,0.253999999997177
22,17,1749,0.256000000001222
22,18,1749,0.257000000001426
22,19,1749,0.254999999997381
22,20,1749,0.256000000001222
22,21,1726,0.255000000001019
22,22,1717,0.256999999997788
22,23,1722,0.257000000001426
22,24,1735,0.256999999997788
22,25,1737,0.257000000001426
22,26,1738,0.253000000000611
22,27,1742,0.256000000001222
22,28,1725,0.256999999997788
22,29,1708,0.257000000001426
22,30,1730,0.255000000001019
23,1,1718,0.256999999997788
23,2,1728,0.256000000001222
23,3,1721,0.255000000001019
23,4,1724,0.256999999997788
23,5,1722,0.254000000000815
23,6,1740,0.257000000001426
23,7,1727,0.257000000001426
23,8,1716,0.256000000001222
23,9,1739,0.255999999997584
23,10,1736,0.253000000000611
23,11,1739,0.257000000001426
23,12,1730,0.255999999997584
23,13,1749,0.257000000001426
23,14,1749,0.255000000001019
23,15,1749,0.256999999997788
23,16,1749,0.257000000001426
23,17,1749,0.255000000001019
23,18,1749,0.255999999997584
23,19,1749,0.254000000000815
23,20,1749,0.257000000001426
23,21,1715,0.255999999997584
23,22,1728,0.257000000001426
23,23,1742,0.256000000001222
23,24,1743,0.251999999996769
23,25,1713,0.256000000001222
23,26,1742,0.256000000001222
23,27,1742,0.256999999997788
23,28,1722,0.255000000001019
23,29,1736,0.256000000001222
23,30,1739,0.256999999997788
24,1,1737,0.255000000001019
24,2,1743,0.256999999997788
24,3,1723,0.256000000001222
24,4,1728,0.256000000001222
24,5,1735,0.256999999997788
24,6,1722,0.257000000001426
24,7,1730,0.256000000001222
24,8,1723,0.252999999996973
24,9,1727,0.256000000001222
24,10,1728,0.256000000001222
24,11,1730,0.256999999997788
24,12,1747,0.256000000001222
24,13,1744,0.256000000001222
24,14,1747,0.255999999997584
24,15,1749,0.256000000001222
24,16,1749,0.256000000001222
24,17,1743,0.254999999997381
24,18,1749,0.257000000001426
24,19,1749,0.256000000001222
24,20,1749,0.255999999997584
24,21,1740,0.256000000001222
24,22,1736,0.252000000000407
24,23,1723,0.256999999997788
24,24,1732,0.257000000001426
24,25,1726,0.257000000001426
24,26,1731,0.253999999997177
24,27,1729,0.257000000001426
24,28,1726,0.257000000001426
24,29,1742,0.253999999997177
24,30,1735,0.257000000001426
25,1,1730,0.255000000001019
25,2,1723,0.255999999997584
25,3,1728,0.256000000001222
25,4,1723,0.257000000001426
25,5,1721,0.255999999997584
25,6,1725,0.253000000000611
25,7,1729,0.256000000001222
25,8,1726,0.256999999997788
25,9,1723,0.256000000001222
25,10,1715,0.256000000001222
25,11,1732,0.255999999997584
25,12,1731,0.257000000001426
25,13,1746,0.254000000000815
25,14,1749,0.256999999997788
25,15,1749,0.255000000001019
25,16,1749,0.257000000001426
25,17,1749,0.255999999997584
25,18,1749,0.257000000001426
25,19,1749,0.257999999997992
25,20,1749,0.253000000000611
25,21,1729,0.257000000001426
25,22,1724,0.256000000001222
25,23,1736,0.255999999997584
25,24,1722,0.255000000001019
25,25,1740,0.257000000001426
25,26,1728,0.256999999997788
25,27,1737,0.254000000000815
25,28,1729,0.257999999997992
25,29,1729,0.254000000000815
25,30,1733,0.257000000001426
26,1,1730,0.256000000001222
26,2,1738,0.255999999997584
26,3,1743,0.257000000001426
26,4,1737,0.253000000000611
26,5,1747,0.255999999997584
26,6,1742,0.256000000001222
26,7,1733,0.255999999997584
26,8,1732,0.254000000000815
26,9,1741,0.257000000001426
26,10,1720,0.255999999997584
26,11,1739,0.255000000001019
26,12,1731,0.256000000001222
26,13,1744,0.255000000001019
26,14,1749,0.256999999997788
26,15,1749,0.257000000001426
26,16,1749,0.255999999997584
26,17,1749,0.25800000000163
26,18,1749,0.253000000000611
26,19,1749,0.255999999997584
26,20,1747,0.257000000001426
26,21,1736,0.257000000001426
26,22,1726,0.254999999997381
26,23,1740,0.256000000001222
26,24,1724,0.256999999997788
26,25,1721,0.255000000001019
26,26,1735,0.257000000001426
26,27,1742,0.255000000001019
26,28,1737,0.256999999997788
26,29,1716,0.256000000001222
26,30,1745,0.255999999997584
27,1,1726,0.257000000001426
27,2,1736,0.253000000000611
27,3,1735,0.256999999997788
27,4,1731,0.256000000001222
27,5,1729,0.257000000001426
27,6,1731,0.255999999997584
27,7,1726,0.256000000001222
27,8,1734,0.257000000001426
27,9,1734,0.254999999997381
27,10,1716,0.256000000001222
27,11,1735,0.256000000001222
27,12,1725,0.256999999997788
27,13,1746,0.256000000001222
27,14,1749,0.257000000001426
27,15,1749,0.255999999997584
27,16,1749,0.253000000000611
27,17,1749,0.256000000001222
27,18,1749,0.256999999997788
27,19,1749,0.257000000001426
27,20,1749,0.255000000001019
27,21,1743,0.255999999997584
27,22,1722,0.257000000001426
27,23,1726,0.255000000001019
27,24,1710,0.255999999997584
27,25,1721,0.255000000001019
27,26,1731,0.257000000001426
27,27,1740,0.256999999997788
27,28,1738,0.256000000001222
27,29,1723,0.256000000001222
27,30,1741,0.252999999996973
28,1,1730,0.256000000001222
28,2,1737,0.257000000001426
28,3,1735,0.255999999997584
28,4,1737,0.255000000001019
28,5,1731,0.257000000001426
28,6,1719,0.256999999997788
28,7,1729,0.255000000001019
28,8,1744,0.257000000001426
28,9,1743,0.254999999997381
28,10,1718,0.256000000001222
28,11,1716,0.257000000001426
28,12,1730,0.256999999997788
28,13,1749,0.256000000001222
28,14,1749,0.253000000000611
28,15,1749,0.255999999997584
28,16,1749,0.257000000001426
28,17,1748,0.257000000001426
28,18,1749,0.254999999997381
28,19,1749,0.256000000001222
28,20,1749,0.256000000001222
28,21,1727,0.253999999997177
28,22,1718,0.256000000001222
28,23,1724,0.255000000001019
28,24,1720,0.255999999997584
28,25,1733,0.255000000001019
28,26,1716,0.256000000001222
28,27,1731,0.256999999997788
28,28,1744,0.253000000000611
28,29,1721,0.257000000001426
28,30,1732,0.256999999997788
29,1,1730,0.256000000001222
29,2,1744,0.255000000001019
29,3,1719,0.256999999997788
29,4,1731,0.256000000001222
29,5,1738,0.255000000001019
29,6,1738,0.255999999997584
29,7,1728,0.256000000001222
29,8,1738,0.257000000001426
29,9,1745,0.255999999997584
29,10,1737,0.256000000001222
29,11,1728,0.255999999997584
29,12,1734,0.253000000000611
29,13,1749,0.257000000001426
29,14,1749,0.257000000001426
29,15,1749,0.255999999997584
29,16,1749,0.255000000001019
29,17,1749,0.255999999997584
29,18,1749,0.257000000001426
29,19,1749,0.255000000001019
29,20,1749,0.255999999997584
29,21,1721,0.255000000001019
29,22,1741,0.257000000001426
29,23,1745,0.256999999997788
29,24,1741,0.256000000001222
29,25,1742,0.257000000001426
29,26,1745,0.253000000000611
29,27,1739,0.256999999997788
29,28,1743,0.257000000001426
29,29,1733,0.255999999997584
29,30,1721,0.256000000001222
30,1,1723,0.256000000001222
30,2,1734,0.255999999997584
30,3,1731,0.255000000001019
30,4,1713,0.257000000001426
30,5,1746,0.254000000000815
30,6,1720,0.256999999997788
30,7,1738,0.257000000001426
30,8,1723,0.256999999997788
30,9,1707,0.257000000001426
30,10,1719,0.253000000000611
30,11,1739,0.255999999997584
30,12,1735,0.257000000001426
30,13,1746,0.257000000001426
30,14,1749,0.254999999997381
30,15,1749,0.256000000001222
30,16,1749,0.256000000001222
30,17,1749,0.253999999997177
30,18,1749,0.256000000001222
30,19,1749,0.256000000001222
30,20,1749,0.255999999997584
30,21,1731,0.257000000001426
30,22,1735,0.256000000001222
30,23,1741,0.255999999997584
30,24,1740,0.254000000000815
30,25,1712,0.256000000001222
30,26,1733,0.256999999997788
30,27,1745,0.256000000001222
30,28,1725,0.255000000001019
30,29,1738,0.256999999997788
30,30,1733,0.256000000001222
