"Before.Trace.ID1","Before.Trace.ID2","Difference","Runtime"
1,2,1740,0.412000000000262
1,3,1738,0.261000000002241
1,4,1744,0.286000000000058
1,5,1741,0.334999999999127
1,6,1744,0.257999999997992
1,7,1747,0.25
1,8,1743,0.224000000001979
1,9,1742,0.236000000000786
1,10,1738,0.244999999998981
1,11,1740,0.286000000000058
1,12,1736,0.287000000000262
1,13,1746,0.288000000000466
1,14,1744,0.286000000000058
1,15,1734,0.289999999997235
1,16,1745,0.290000000000873
1,17,1742,0.284999999999854
1,18,1741,0.288000000000466
1,19,1742,0.288000000000466
1,20,1746,0.286000000000058
1,21,1746,0.289000000000669
1,22,1739,0.288000000000466
1,23,1739,0.273999999997613
1,24,1742,0.262000000002445
1,25,1736,0.263999999999214
1,26,1732,0.282999999999447
1,27,1742,0.240000000001601
1,28,1735,0.248999999999796
1,29,1740,0.245999999999185
1,30,1740,0.247999999999593
2,3,1739,0.247999999999593
2,4,1739,0.247999999999593
2,5,1740,0.245999999999185
2,6,1725,0.248999999999796
2,7,1739,0.248000000003231
2,8,1738,0.247999999999593
2,9,1730,0.247999999999593
2,10,1740,0.247999999999593
2,11,1744,0.272000000000844
2,12,1727,0.248000000003231
2,13,1736,0.248999999999796
2,14,1730,0.247999999999593
2,15,1735,0.246999999999389
2,16,1733,0.273000000001048
2,17,1741,0.247999999999593
2,18,1740,0.248999999999796
2,19,1737,0.247999999999593
2,20,1741,0.248999999999796
2,21,1742,0.245999999999185
2,22,1729,0.246999999999389
2,23,1744,0.247999999999593
2,24,1740,0.248999999999796
2,25,1742,0.248000000003231
2,26,1743,0.248999999999796
2,27,1733,0.27299999999741
2,28,1734,0.247999999999593
2,29,1728,0.248000000003231
2,30,1720,0.247999999999593
3,4,1740,0.248999999999796
3,5,1735,0.27299999999741
3,6,1742,0.248000000003231
3,7,1733,0.248999999999796
3,8,1741,0.246999999999389
3,9,1735,0.247999999999593
3,10,1739,0.274000000001251
3,11,1746,0.247999999999593
3,12,1741,0.248999999999796
3,13,1739,0.247999999999593
3,14,1748,0.247999999999593
3,15,1741,0.245999999999185
3,16,1734,0.246999999999389
3,17,1743,0.247999999999593
3,18,1740,0.248999999999796
3,19,1741,0.248000000003231
3,20,1739,0.247999999999593
3,21,1738,0.27299999999741
3,22,1742,0.246999999999389
3,23,1745,0.248000000003231
3,24,1735,0.247999999999593
3,25,1747,0.247999999999593
3,26,1735,0.273000000001048
3,27,1743,0.247999999999593
3,28,1739,0.247999999999593
3,29,1733,0.246999999999389
3,30,1741,0.245999999999185
4,5,1732,0.273000000001048
4,6,1728,0.247999999999593
4,7,1744,0.248999999999796
4,8,1744,0.246999999999389
4,9,1734,0.248999999999796
4,10,1732,0.244999999998981
4,11,1736,0.247000000003027
4,12,1733,0.247999999999593
4,13,1745,0.247999999999593
4,14,1731,0.247999999999593
4,15,1744,0.247999999999593
4,16,1734,0.273000000001048
4,17,1739,0.247999999999593
4,18,1741,0.246999999999389
4,19,1744,0.246999999999389
4,20,1744,0.248999999999796
4,21,1737,0.273000000001048
4,22,1741,0.248999999999796
4,23,1746,0.248999999999796
4,24,1740,0.247999999999593
4,25,1746,0.246999999999389
4,26,1728,0.273000000001048
4,27,1740,0.247999999999593
4,28,1740,0.248999999999796
4,29,1735,0.247999999999593
4,30,1739,0.247999999999593
5,6,1732,0.246000000002823
5,7,1734,0.246999999999389
5,8,1745,0.247999999999593
5,9,1740,0.247999999999593
5,10,1738,0.247999999999593
5,11,1747,0.247999999999593
5,12,1742,0.273000000001048
5,13,1740,0.247999999999593
5,14,1737,0.246999999999389
5,15,1739,0.246999999999389
5,16,1731,0.248999999999796
5,17,1727,0.272000000000844
5,18,1740,0.247999999999593
5,19,1737,0.248999999999796
5,20,1741,0.247999999999593
5,21,1743,0.247000000003027
5,22,1738,0.27299999999741
5,23,1746,0.247999999999593
5,24,1732,0.247999999999593
5,25,1730,0.247000000003027
5,26,1738,0.248999999999796
5,27,1737,0.244999999998981
5,28,1738,0.247999999999593
5,29,1737,0.246999999999389
5,30,1723,0.248999999999796
6,7,1730,0.246999999999389
6,8,1742,0.248999999999796
6,9,1746,0.272000000000844
6,10,1742,0.247999999999593
6,11,1736,0.247999999999593
6,12,1741,0.249000000003434
6,13,1713,0.248000000003231
6,14,1737,0.27299999999741
6,15,1738,0.246999999999389
6,16,1720,0.248999999999796
6,17,1733,0.247000000003027
6,18,1734,0.246999999999389
6,19,1735,0.273000000001048
6,20,1741,0.247999999999593
6,21,1736,0.248999999999796
6,22,1739,0.247999999999593
6,23,1739,0.247999999999593
6,24,1730,0.245999999999185
6,25,1740,0.246999999999389
6,26,1735,0.247999999999593
6,27,1741,0.248000000003231
6,28,1738,0.247999999999593
6,29,1729,0.247999999999593
6,30,1725,0.27299999999741
7,8,1744,0.247000000003027
7,9,1740,0.246999999999389
7,10,1740,0.247999999999593
7,11,1741,0.248999999999796
7,12,1734,0.272000000000844
7,13,1746,0.246999999999389
7,14,1749,0.248999999999796
7,15,1740,0.247999999999593
7,16,1738,0.246999999999389
7,17,1733,0.273000000001048
7,18,1734,0.246999999999389
7,19,1735,0.248999999999796
7,20,1737,0.247999999999593
7,21,1741,0.247999999999593
7,22,1738,0.245999999999185
7,23,1745,0.247000000003027
7,24,1718,0.246999999999389
7,25,1743,0.248999999999796
7,26,1737,0.247999999999593
7,27,1743,0.247999999999593
7,28,1744,0.273000000001048
7,29,1741,0.247999999999593
7,30,1735,0.246999999999389
8,9,1735,0.247999999999593
8,10,1743,0.247999999999593
8,11,1749,0.273000000001048
8,12,1742,0.247999999999593
8,13,1746,0.248999999999796
8,14,1741,0.247999999999593
8,15,1745,0.246999999999389
8,16,1735,0.273000000001048
8,17,1746,0.247999999999593
8,18,1743,0.248999999999796
8,19,1744,0.247999999999593
8,20,1742,0.248000000003231
8,21,1746,0.245999999999185
8,22,1740,0.247999999999593
8,23,1746,0.247999999999593
8,24,1740,0.248999999999796
8,25,1741,0.247999999999593
8,26,1739,0.247999999999593
8,27,1747,0.273000000001048
8,28,1746,0.247999999999593
8,29,1741,0.246999999999389
8,30,1739,0.247999999999593
9,10,1740,0.25
9,11,1747,0.273000000001048
9,12,1732,0.247999999999593
9,13,1728,0.248999999999796
9,14,1742,0.247999999999593
9,15,1741,0.247000000003027
9,16,1748,0.27299999999741
9,17,1734,0.246999999999389
9,18,1738,0.248999999999796
9,19,1740,0.247000000003027
9,20,1731,0.248999999999796
9,21,1745,0.245999999999185
9,22,1740,0.246999999999389
9,23,1744,0.247999999999593
9,24,1745,0.247999999999593
9,25,1745,0.247999999999593
9,26,1738,0.248999999999796
9,27,1745,0.273000000001048
9,28,1734,0.247999999999593
9,29,1735,0.246999999999389
9,30,1745,0.247999999999593
10,11,1737,0.249000000003434
10,12,1736,0.27299999999741
10,13,1742,0.247999999999593
10,14,1735,0.248999999999796
10,15,1733,0.248000000003231
10,16,1738,0.246999999999389
10,17,1748,0.27299999999741
10,18,1737,0.248000000003231
10,19,1745,0.248999999999796
10,20,1738,0.247999999999593
10,21,1741,0.247999999999593
10,22,1748,0.245999999999185
10,23,1735,0.246999999999389
10,24,1742,0.247999999999593
10,25,1738,0.247999999999593
10,26,1731,0.248000000003231
10,27,1743,0.247999999999593
10,28,1735,0.271999999997206
10,29,1745,0.246999999999389
10,30,1745,0.248000000003231
11,12,1742,0.247999999999593
11,13,1734,0.247999999999593
11,14,1742,0.273000000001048
11,15,1741,0.247999999999593
11,16,1732,0.247999999999593
11,17,1743,0.246999999999389
11,18,1738,0.245999999999185
11,19,1741,0.272000000000844
11,20,1743,0.247999999999593
11,21,1736,0.248999999999796
11,22,1742,0.246999999999389
11,23,1733,0.248999999999796
11,24,1742,0.244999999998981
11,25,1733,0.246000000002823
11,26,1739,0.246999999999389
11,27,1738,0.248999999999796
11,28,1743,0.247999999999593
11,29,1731,0.247999999999593
11,30,1731,0.273000000001048
12,13,1741,0.246999999999389
12,14,1737,0.246999999999389
12,15,1740,0.247999999999593
12,16,1735,0.247999999999593
12,17,1735,0.273000000001048
12,18,1738,0.247999999999593
12,19,1738,0.248999999999796
12,20,1738,0.247999999999593
12,21,1737,0.246999999999389
12,22,1739,0.272000000000844
12,23,1732,0.246999999999389
12,24,1742,0.247999999999593
12,25,1742,0.247999999999593
12,26,1733,0.248000000003231
12,27,1737,0.245999999999185
12,28,1738,0.246999999999389
12,29,1744,0.247999999999593
12,30,1738,0.248999999999796
13,14,1736,0.246999999999389
13,15,1735,0.248999999999796
13,16,1732,0.272000000000844
13,17,1736,0.246999999999389
13,18,1732,0.247999999999593
13,19,1735,0.247999999999593
13,20,1736,0.248000000003231
13,21,1738,0.27299999999741
13,22,1726,0.247999999999593
13,23,1738,0.248999999999796
13,24,1731,0.247999999999593
13,25,1738,0.247000000003027
13,26,1745,0.27299999999741
13,27,1740,0.247999999999593
13,28,1740,0.249000000003434
13,29,1734,0.247999999999593
13,30,1734,0.248999999999796
14,15,1741,0.245999999999185
14,16,1739,0.246999999999389
14,17,1735,0.246999999999389
14,18,1746,0.247999999999593
14,19,1745,0.246999999999389
14,20,1741,0.248999999999796
14,21,1737,0.272000000000844
14,22,1733,0.247999999999593
14,23,1741,0.246999999999389
14,24,1743,0.248000000003231
14,25,1727,0.247999999999593
14,26,1739,0.27299999999741
14,27,1735,0.248000000003231
14,28,1742,0.248999999999796
14,29,1741,0.246999999999389
14,30,1743,0.247999999999593
15,16,1742,0.272000000000844
15,17,1742,0.247999999999593
15,18,1732,0.248999999999796
15,19,1735,0.247999999999593
15,20,1733,0.247999999999593
15,21,1740,0.244999999998981
15,22,1747,0.246999999999389
15,23,1736,0.247000000003027
15,24,1742,0.248000000003231
15,25,1741,0.247999999999593
15,26,1742,0.247999999999593
15,27,1731,0.272000000000844
15,28,1730,0.247000000003027
15,29,1739,0.247999999999593
15,30,1747,0.246999999999389
16,17,1739,0.247999999999593
16,18,1732,0.273000000001048
16,19,1724,0.247999999999593
16,20,1735,0.248999999999796
16,21,1733,0.246999999999389
16,22,1736,0.245999999999185
16,23,1742,0.273000000001048
16,24,1737,0.247999999999593
16,25,1737,0.248999999999796
16,26,1723,0.247999999999593
16,27,1740,0.248999999999796
16,28,1742,0.245000000002619
16,29,1738,0.246000000002823
16,30,1738,0.247999999999593
17,18,1741,0.247999999999593
17,19,1738,0.247999999999593
17,20,1741,0.248999999999796
17,21,1746,0.272000000000844
17,22,1744,0.247999999999593
17,23,1742,0.246999999999389
17,24,1739,0.247999999999593
17,25,1735,0.247999999999593
17,26,1746,0.273000000001048
17,27,1734,0.247999999999593
17,28,1741,0.248999999999796
17,29,1740,0.247999999999593
17,30,1735,0.245999999999185
18,19,1723,0.272000000000844
18,20,1737,0.247999999999593
18,21,1738,0.248999999999796
18,22,1738,0.247999999999593
18,23,1737,0.248000000003231
18,24,1733,0.245999999999185
18,25,1735,0.246999999999389
18,26,1730,0.247999999999593
18,27,1742,0.247999999999593
18,28,1734,0.247999999999593
18,29,1738,0.247999999999593
18,30,1723,0.273000000001048
19,20,1734,0.247999999999593
19,21,1728,0.246999999999389
19,22,1743,0.247999999999593
19,23,1738,0.248000000003231
19,24,1730,0.271999999997206
19,25,1732,0.247999999999593
19,26,1732,0.248999999999796
19,27,1739,0.248000000003231
19,28,1747,0.246999999999389
19,29,1733,0.27299999999741
19,30,1735,0.248000000003231
20,21,1743,0.248999999999796
20,22,1737,0.247999999999593
20,23,1733,0.247999999999593
20,24,1743,0.245999999999185
20,25,1743,0.246999999999389
20,26,1737,0.247999999999593
20,27,1738,0.247999999999593
20,28,1743,0.248000000003231
20,29,1744,0.247999999999593
20,30,1741,0.271999999997206
21,22,1736,0.247999999999593
21,23,1724,0.247000000003027
21,24,1736,0.247999999999593
21,25,1731,0.247999999999593
21,26,1740,0.273000000001048
21,27,1716,0.247999999999593
21,28,1737,0.248999999999796
21,29,1737,0.247999999999593
21,30,1741,0.246999999999389
22,23,1729,0.272000000000844
22,24,1740,0.246999999999389
22,25,1732,0.247999999999593
22,26,1739,0.247999999999593
22,27,1735,0.247999999999593
22,28,1742,0.244999999998981
22,29,1739,0.247000000003027
22,30,1728,0.247999999999593
23,24,1735,0.247999999999593
23,25,1727,0.246999999999389
23,26,1737,0.247999999999593
23,27,1737,0.273000000001048
23,28,1733,0.246999999999389
23,29,1733,0.247999999999593
23,30,1740,0.247999999999593
24,25,1721,0.247999999999593
24,26,1726,0.273000000001048
24,27,1735,0.247999999999593
24,28,1746,0.247999999999593
24,29,1731,0.246999999999389
24,30,1728,0.245999999999185
25,26,1735,0.272000000000844
25,27,1735,0.247999999999593
25,28,1744,0.248999999999796
25,29,1739,0.247999999999593
25,30,1725,0.248000000003231
26,27,1742,0.245999999999185
26,28,1738,0.246999999999389
26,29,1737,0.247999999999593
26,30,1734,0.248999999999796
27,28,1735,0.247999999999593
27,29,1741,0.247999999999593
27,30,1742,0.273000000001048
28,29,1733,0.247999999999593
28,30,1737,0.246999999999389
29,30,1737,0.247999999999593


"After.Trace.ID","Before.Trace.ID","Difference","Runtime"
1,1,1747,0.224999999998545
1,2,1722,0.26299999999901
1,3,1745,0.26299999999901
1,4,1734,0.283000000003085
1,5,1739,0.286999999996624
1,6,1743,0.274000000001251
1,7,1743,0.25
1,8,1741,0.25
1,9,1725,0.247999999999593
1,10,1736,0.247999999999593
1,11,1735,0.246000000002823
1,12,1745,0.246999999999389
1,13,1731,0.246999999999389
1,14,1733,0.247999999999593
1,15,1737,0.247999999999593
1,16,1742,0.247999999999593
1,17,1741,0.273000000001048
1,18,1743,0.247999999999593
1,19,1745,0.245999999999185
1,20,1747,0.247999999999593
1,21,1740,0.247999999999593
1,22,1734,0.274000000001251
1,23,1743,0.247999999999593
1,24,1740,0.248999999999796
1,25,1727,0.247999999999593
1,26,1742,0.246000000002823
1,27,1731,0.27299999999741
1,28,1735,0.247999999999593
1,29,1730,0.249000000003434
1,30,1742,0.247999999999593
2,1,1744,0.247999999999593
2,2,1731,0.245999999999185
2,3,1728,0.245999999999185
2,4,1745,0.247999999999593
2,5,1737,0.247999999999593
2,6,1738,0.247999999999593
2,7,1731,0.248000000003231
2,8,1731,0.27299999999741
2,9,1725,0.247999999999593
2,10,1735,0.247000000003027
2,11,1745,0.247999999999593
2,12,1746,0.247999999999593
2,13,1736,0.272000000000844
2,14,1739,0.247999999999593
2,15,1738,0.248999999999796
2,16,1732,0.247999999999593
2,17,1744,0.245999999999185
2,18,1742,0.273000000001048
2,19,1743,0.246999999999389
2,20,1739,0.247999999999593
2,21,1748,0.246999999999389
2,22,1734,0.248999999999796
2,23,1746,0.244999999998981
2,24,1740,0.247000000003027
2,25,1740,0.246999999999389
2,26,1736,0.248999999999796
2,27,1747,0.246999999999389
2,28,1736,0.248999999999796
2,29,1741,0.272000000000844
2,30,1743,0.247999999999593
3,1,1741,0.245999999999185
3,2,1741,0.247999999999593
3,3,1745,0.247999999999593
3,4,1745,0.273000000001048
3,5,1746,0.247999999999593
3,6,1746,0.248999999999796
3,7,1749,0.247999999999593
3,8,1738,0.246000000002823
3,9,1747,0.27299999999741
3,10,1749,0.247999999999593
3,11,1748,0.247999999999593
3,12,1749,0.247000000003027
3,13,1748,0.247999999999593
3,14,1747,0.245999999999185
3,15,1748,0.245999999999185
3,16,1745,0.247999999999593
3,17,1748,0.247999999999593
3,18,1749,0.247999999999593
3,19,1749,0.248000000003231
3,20,1745,0.27299999999741
3,21,1749,0.246999999999389
3,22,1746,0.247000000003027
3,23,1749,0.247999999999593
3,24,1746,0.247999999999593
3,25,1749,0.271999999997206
3,26,1743,0.248000000003231
3,27,1749,0.248999999999796
3,28,1747,0.247999999999593
3,29,1748,0.245999999999185
3,30,1745,0.273000000001048
4,1,1737,0.247999999999593
4,2,1743,0.248999999999796
4,3,1743,0.247999999999593
4,4,1738,0.248999999999796
4,5,1733,0.245999999999185
4,6,1728,0.245999999999185
4,7,1738,0.248000000003231
4,8,1747,0.247999999999593
4,9,1742,0.246999999999389
4,10,1739,0.247999999999593
4,11,1741,0.272000000000844
4,12,1744,0.247999999999593
4,13,1737,0.246999999999389
4,14,1742,0.247999999999593
4,15,1741,0.247999999999593
4,16,1735,0.272000000000844
4,17,1739,0.246999999999389
4,18,1742,0.248999999999796
4,19,1746,0.247999999999593
4,20,1744,0.246999999999389
4,21,1746,0.272000000000844
4,22,1737,0.247999999999593
4,23,1745,0.248999999999796
4,24,1740,0.247999999999593
4,25,1740,0.247999999999593
4,26,1740,0.246000000002823
4,27,1740,0.245999999999185
4,28,1731,0.247999999999593
4,29,1742,0.247999999999593
4,30,1739,0.247999999999593
5,1,1745,0.247999999999593
5,2,1728,0.273000000001048
5,3,1735,0.247999999999593
5,4,1747,0.246999999999389
5,5,1746,0.247999999999593
5,6,1735,0.249000000003434
5,7,1734,0.271999999997206
5,8,1740,0.246999999999389
5,9,1742,0.247999999999593
5,10,1745,0.248000000003231
5,11,1740,0.245999999999185
5,12,1743,0.273000000001048
5,13,1731,0.247999999999593
5,14,1744,0.25
5,15,1731,0.247999999999593
5,16,1743,0.247999999999593
5,17,1744,0.245999999999185
5,18,1735,0.245999999999185
5,19,1742,0.246999999999389
5,20,1744,0.248999999999796
5,21,1738,0.248000000003231
5,22,1740,0.247999999999593
5,23,1747,0.271999999997206
5,24,1742,0.247000000003027
5,25,1747,0.246999999999389
5,26,1742,0.247999999999593
5,27,1746,0.248999999999796
5,28,1732,0.273000000001048
5,29,1736,0.246999999999389
5,30,1735,0.248999999999796
6,1,1743,0.247999999999593
6,2,1738,0.245999999999185
6,3,1737,0.273000000001048
6,4,1746,0.247999999999593
6,5,1737,0.248999999999796
6,6,1731,0.246999999999389
6,7,1732,0.247999999999593
6,8,1737,0.245999999999185
6,9,1734,0.246000000002823
6,10,1746,0.247999999999593
6,11,1739,0.248999999999796
6,12,1742,0.247999999999593
6,13,1736,0.247999999999593
6,14,1731,0.273000000001048
6,15,1743,0.246999999999389
6,16,1740,0.246999999999389
6,17,1741,0.247999999999593
6,18,1739,0.247999999999593
6,19,1729,0.273000000001048
6,20,1742,0.247999999999593
6,21,1743,0.248999999999796
6,22,1738,0.248999999999796
6,23,1738,0.245999999999185
6,24,1730,0.273000000001048
6,25,1731,0.247999999999593
6,26,1738,0.248999999999796
6,27,1746,0.246999999999389
6,28,1742,0.247999999999593
6,29,1731,0.246000000002823
6,30,1736,0.245999999999185
7,1,1741,0.247999999999593
7,2,1745,0.248999999999796
7,3,1745,0.247999999999593
7,4,1736,0.248999999999796
7,5,1746,0.272000000000844
7,6,1738,0.247999999999593
7,7,1742,0.246999999999389
7,8,1746,0.247999999999593
7,9,1743,0.248999999999796
7,10,1725,0.273000000001048
7,11,1735,0.247999999999593
7,12,1741,0.248999999999796
7,13,1733,0.247999999999593
7,14,1740,0.246999999999389
7,15,1742,0.272000000000844
7,16,1742,0.247999999999593
7,17,1731,0.248999999999796
7,18,1743,0.247999999999593
7,19,1732,0.247999999999593
7,20,1742,0.246000000002823
7,21,1746,0.246999999999389
7,22,1746,0.247999999999593
7,23,1736,0.248999999999796
7,24,1736,0.247999999999593
7,25,1732,0.248999999999796
7,26,1742,0.273000000001048
7,27,1729,0.247999999999593
7,28,1744,0.247999999999593
7,29,1738,0.246999999999389
7,30,1731,0.247999999999593
8,1,1746,0.273000000001048
8,2,1739,0.247999999999593
8,3,1744,0.248999999999796
8,4,1746,0.247999999999593
8,5,1738,0.246000000002823
8,6,1738,0.273999999997613
8,7,1734,0.247999999999593
8,8,1739,0.248999999999796
8,9,1737,0.247999999999593
8,10,1738,0.249000000003434
8,11,1741,0.245999999999185
8,12,1744,0.245999999999185
8,13,1742,0.247999999999593
8,14,1734,0.248999999999796
8,15,1738,0.247999999999593
8,16,1731,0.248999999999796
8,17,1742,0.272000000000844
8,18,1734,0.247999999999593
8,19,1737,0.246999999999389
8,20,1737,0.247999999999593
8,21,1731,0.248000000003231
8,22,1742,0.273000000001048
8,23,1738,0.247999999999593
8,24,1740,0.248999999999796
8,25,1739,0.247999999999593
8,26,1746,0.247000000003027
8,27,1735,0.27299999999741
8,28,1737,0.247999999999593
8,29,1726,0.249000000003434
8,30,1733,0.247999999999593
9,1,1741,0.247999999999593
9,2,1735,0.245999999999185
9,3,1740,0.245999999999185
9,4,1740,0.247999999999593
9,5,1740,0.25
9,6,1724,0.247999999999593
9,7,1741,0.25
9,8,1741,0.273000000001048
9,9,1739,0.247999999999593
9,10,1744,0.246999999999389
9,11,1743,0.247999999999593
9,12,1741,0.248999999999796
9,13,1733,0.273000000001048
9,14,1735,0.247999999999593
9,15,1730,0.248999999999796
9,16,1743,0.247999999999593
9,17,1739,0.246000000002823
9,18,1740,0.27299999999741
9,19,1734,0.247999999999593
9,20,1745,0.248999999999796
9,21,1742,0.248000000003231
9,22,1745,0.247999999999593
9,23,1749,0.244999999998981
9,24,1732,0.246999999999389
9,25,1745,0.247999999999593
9,26,1738,0.248999999999796
9,27,1745,0.247999999999593
9,28,1742,0.247999999999593
9,29,1738,0.272000000000844
9,30,1740,0.247999999999593
10,1,1741,0.246999999999389
10,2,1741,0.247999999999593
10,3,1741,0.249000000003434
10,4,1740,0.27299999999741
10,5,1728,0.247999999999593
10,6,1730,0.248999999999796
10,7,1739,0.248000000003231
10,8,1743,0.246999999999389
10,9,1734,0.27299999999741
10,10,1743,0.248000000003231
10,11,1738,0.248999999999796
10,12,1745,0.247999999999593
10,13,1723,0.248999999999796
10,14,1740,0.245999999999185
10,15,1737,0.245999999999185
10,16,1736,0.247999999999593
10,17,1734,0.247999999999593
10,18,1739,0.247999999999593
10,19,1728,0.249000000003434
10,20,1735,0.27299999999741
10,21,1723,0.247999999999593
10,22,1735,0.247000000003027
10,23,1725,0.247999999999593
10,24,1725,0.247999999999593
10,25,1733,0.271999999997206
10,26,1738,0.248000000003231
10,27,1734,0.248999999999796
10,28,1732,0.247999999999593
10,29,1730,0.246999999999389
10,30,1737,0.273000000001048
11,1,1748,0.247999999999593
11,2,1739,0.248999999999796
11,3,1742,0.247999999999593
11,4,1747,0.248999999999796
11,5,1737,0.245999999999185
11,6,1749,0.245999999999185
11,7,1741,0.247999999999593
11,8,1739,0.249000000003434
11,9,1744,0.247999999999593
11,10,1749,0.248999999999796
11,11,1740,0.271999999997206
11,12,1733,0.248000000003231
11,13,1746,0.246999999999389
11,14,1731,0.247999999999593
11,15,1738,0.247999999999593
11,16,1739,0.272000000000844
11,17,1744,0.247999999999593
11,18,1740,0.248999999999796
11,19,1737,0.247999999999593
11,20,1736,0.245999999999185
11,21,1736,0.274000000001251
11,22,1736,0.247999999999593
11,23,1738,0.248999999999796
11,24,1741,0.247999999999593
11,25,1733,0.247999999999593
11,26,1744,0.244999999998981
11,27,1733,0.246000000002823
11,28,1746,0.247999999999593
11,29,1746,0.247999999999593
11,30,1741,0.247999999999593
12,1,1740,0.247999999999593
12,2,1727,0.273000000001048
12,3,1739,0.246999999999389
12,4,1749,0.246999999999389
12,5,1742,0.247999999999593
12,6,1736,0.247999999999593
12,7,1741,0.273000000001048
12,8,1735,0.247999999999593
12,9,1736,0.248999999999796
12,10,1747,0.247999999999593
12,11,1733,0.245999999999185
12,12,1738,0.273000000001048
12,13,1728,0.247999999999593
12,14,1736,0.248999999999796
12,15,1735,0.246999999999389
12,16,1739,0.247999999999593
12,17,1740,0.246000000002823
12,18,1735,0.245999999999185
12,19,1737,0.247999999999593
12,20,1732,0.247999999999593
12,21,1741,0.246999999999389
12,22,1731,0.248999999999796
12,23,1733,0.272000000000844
12,24,1739,0.246999999999389
12,25,1732,0.246999999999389
12,26,1743,0.247999999999593
12,27,1737,0.248000000003231
12,28,1736,0.27299999999741
12,29,1739,0.246999999999389
12,30,1726,0.248999999999796
13,1,1742,0.248000000003231
13,2,1727,0.245999999999185
13,3,1746,0.272000000000844
13,4,1744,0.247999999999593
13,5,1726,0.247999999999593
13,6,1725,0.248999999999796
13,7,1737,0.247999999999593
13,8,1740,0.245999999999185
13,9,1731,0.245999999999185
13,10,1739,0.247999999999593
13,11,1739,0.248999999999796
13,12,1742,0.248000000003231
13,13,1730,0.247999999999593
13,14,1745,0.27299999999741
13,15,1740,0.248000000003231
13,16,1734,0.246999999999389
13,17,1730,0.246999999999389
13,18,1738,0.248999999999796
13,19,1722,0.272000000000844
13,20,1744,0.248999999999796
13,21,1739,0.248999999999796
13,22,1725,0.247999999999593
13,23,1734,0.245999999999185
13,24,1733,0.273000000001048
13,25,1725,0.247999999999593
13,26,1738,0.248999999999796
13,27,1738,0.247999999999593
13,28,1737,0.247999999999593
13,29,1742,0.245999999999185
13,30,1720,0.246000000002823
14,1,1741,0.247999999999593
14,2,1741,0.247999999999593
14,3,1729,0.247999999999593
14,4,1731,0.247999999999593
14,5,1734,0.273000000001048
14,6,1730,0.247999999999593
14,7,1719,0.246999999999389
14,8,1741,0.247999999999593
14,9,1731,0.247999999999593
14,10,1735,0.273000000001048
14,11,1741,0.247999999999593
14,12,1728,0.248999999999796
14,13,1739,0.247999999999593
14,14,1744,0.246000000002823
14,15,1744,0.27299999999741
14,16,1724,0.247999999999593
14,17,1743,0.247999999999593
14,18,1724,0.248000000003231
14,19,1735,0.247999999999593
14,20,1734,0.244999999998981
14,21,1737,0.245999999999185
14,22,1732,0.247999999999593
14,23,1738,0.247999999999593
14,24,1732,0.247999999999593
14,25,1735,0.248000000003231
14,26,1739,0.27299999999741
14,27,1736,0.247999999999593
14,28,1735,0.247000000003027
14,29,1738,0.247999999999593
14,30,1733,0.247999999999593
15,1,1749,0.27299999999741
15,2,1747,0.247000000003027
15,3,1745,0.247999999999593
15,4,1734,0.247999999999593
15,5,1743,0.245999999999185
15,6,1744,0.273000000001048
15,7,1740,0.247999999999593
15,8,1743,0.248999999999796
15,9,1749,0.246999999999389
15,10,1747,0.247999999999593
15,11,1738,0.244999999998981
15,12,1741,0.247000000003027
15,13,1746,0.246999999999389
15,14,1741,0.248999999999796
15,15,1745,0.246999999999389
15,16,1733,0.247999999999593
15,17,1745,0.273000000001048
15,18,1745,0.247999999999593
15,19,1735,0.245999999999185
15,20,1739,0.247999999999593
15,21,1737,0.247999999999593
15,22,1744,0.273000000001048
15,23,1747,0.247999999999593
15,24,1733,0.248999999999796
15,25,1735,0.246999999999389
15,26,1737,0.246999999999389
15,27,1739,0.272000000000844
15,28,1744,0.247999999999593
15,29,1734,0.247999999999593
15,30,1746,0.247999999999593
16,1,1738,0.248000000003231
16,2,1741,0.245999999999185
16,3,1733,0.246999999999389
16,4,1739,0.25
16,5,1740,0.253000000000611
16,6,1731,0.248999999999796
16,7,1726,0.247999999999593
16,8,1748,0.273000000001048
16,9,1745,0.247999999999593
16,10,1738,0.246999999999389
16,11,1739,0.247999999999593
16,12,1734,0.247999999999593
16,13,1741,0.273000000001048
16,14,1743,0.247999999999593
16,15,1737,0.248999999999796
16,16,1730,0.247999999999593
16,17,1735,0.245999999999185
16,18,1731,0.272000000000844
16,19,1735,0.246999999999389
16,20,1737,0.248999999999796
16,21,1736,0.247999999999593
16,22,1740,0.248000000003231
16,23,1733,0.245999999999185
16,24,1723,0.245999999999185
16,25,1738,0.247999999999593
16,26,1744,0.247999999999593
16,27,1747,0.247999999999593
16,28,1739,0.248999999999796
16,29,1740,0.273000000001048
16,30,1729,0.247999999999593
17,1,1744,0.245999999999185
17,2,1740,0.247000000003027
17,3,1744,0.247999999999593
17,4,1745,0.273999999997613
17,5,1744,0.247999999999593
17,6,1736,0.25
17,7,1739,0.247000000003027
17,8,1741,0.246999999999389
17,9,1739,0.27299999999741
17,10,1737,0.248000000003231
17,11,1729,0.248999999999796
17,12,1740,0.247999999999593
17,13,1736,0.247999999999593
17,14,1742,0.245999999999185
17,15,1744,0.245999999999185
17,16,1740,0.246999999999389
17,17,1741,0.248000000003231
17,18,1738,0.247999999999593
17,19,1726,0.247999999999593
17,20,1742,0.27299999999741
17,21,1732,0.248000000003231
17,22,1745,0.246999999999389
17,23,1732,0.246999999999389
17,24,1736,0.248999999999796
17,25,1729,0.273000000001048
17,26,1727,0.247999999999593
17,27,1734,0.247999999999593
17,28,1742,0.246999999999389
17,29,1740,0.245999999999185
17,30,1733,0.272000000000844
18,1,1744,0.247999999999593
18,2,1743,0.248999999999796
18,3,1744,0.247999999999593
18,4,1745,0.247999999999593
18,5,1742,0.246000000002823
18,6,1739,0.245999999999185
18,7,1739,0.246999999999389
18,8,1730,0.248999999999796
18,9,1734,0.247999999999593
18,10,1740,0.247999999999593
18,11,1744,0.273000000001048
18,12,1738,0.247999999999593
18,13,1742,0.245999999999185
18,14,1737,0.247999999999593
18,15,1746,0.248999999999796
18,16,1734,0.272000000000844
18,17,1737,0.247999999999593
18,18,1739,0.248999999999796
18,19,1736,0.247999999999593
18,20,1742,0.246000000002823
18,21,1743,0.27299999999741
18,22,1741,0.247999999999593
18,23,1749,0.248999999999796
18,24,1736,0.248000000003231
18,25,1740,0.247999999999593
18,26,1736,0.245999999999185
18,27,1744,0.245999999999185
18,28,1744,0.247999999999593
18,29,1733,0.247999999999593
18,30,1743,0.248999999999796
19,1,1732,0.248000000003231
19,2,1732,0.27299999999741
19,3,1736,0.247999999999593
19,4,1739,0.247000000003027
19,5,1739,0.246999999999389
19,6,1737,0.248999999999796
19,7,1742,0.272000000000844
19,8,1746,0.248000000003231
19,9,1732,0.247999999999593
19,10,1736,0.247999999999593
19,11,1743,0.245999999999185
19,12,1744,0.272000000000844
19,13,1738,0.247999999999593
19,14,1733,0.248999999999796
19,15,1738,0.247999999999593
19,16,1747,0.248999999999796
19,17,1744,0.245999999999185
19,18,1744,0.246000000002823
19,19,1744,0.247999999999593
19,20,1745,0.248999999999796
19,21,1731,0.246999999999389
19,22,1736,0.247999999999593
19,23,1734,0.272000000000844
19,24,1748,0.246999999999389
19,25,1742,0.246999999999389
19,26,1746,0.247999999999593
19,27,1733,0.247999999999593
19,28,1732,0.273000000001048
19,29,1737,0.247999999999593
19,30,1746,0.248999999999796
20,1,1746,0.247999999999593
20,2,1738,0.245999999999185
20,3,1745,0.273000000001048
20,4,1745,0.247999999999593
20,5,1722,0.247999999999593
20,6,1736,0.247999999999593
20,7,1741,0.249000000003434
20,8,1740,0.245999999999185
20,9,1747,0.245999999999185
20,10,1735,0.247999999999593
20,11,1744,0.248999999999796
20,12,1739,0.247999999999593
20,13,1742,0.247999999999593
20,14,1726,0.273000000001048
20,15,1740,0.25
20,16,1732,0.246999999999389
20,17,1741,0.246999999999389
20,18,1735,0.247999999999593
20,19,1737,0.273000000001048
20,20,1735,0.247999999999593
20,21,1732,0.248999999999796
20,22,1734,0.247999999999593
20,23,1727,0.246000000002823
20,24,1744,0.27299999999741
20,25,1736,0.247999999999593
20,26,1734,0.249000000003434
20,27,1730,0.247999999999593
20,28,1740,0.247999999999593
20,29,1725,0.244999999998981
20,30,1735,0.245999999999185
21,1,1742,0.246999999999389
21,2,1734,0.248999999999796
21,3,1746,0.248000000003231
21,4,1744,0.247999999999593
21,5,1741,0.27299999999741
21,6,1737,0.247999999999593
21,7,1738,0.246000000002823
21,8,1743,0.247999999999593
21,9,1736,0.247999999999593
21,10,1739,0.272000000000844
21,11,1741,0.246999999999389
21,12,1741,0.248999999999796
21,13,1735,0.246999999999389
21,14,1738,0.245999999999185
21,15,1741,0.273000000001048
21,16,1740,0.247999999999593
21,17,1739,0.247999999999593
21,18,1737,0.247999999999593
21,19,1725,0.248999999999796
21,20,1739,0.245999999999185
21,21,1731,0.246000000002823
21,22,1735,0.247999999999593
21,23,1725,0.247999999999593
21,24,1734,0.248999999999796
21,25,1728,0.247999999999593
21,26,1744,0.273000000001048
21,27,1731,0.247999999999593
21,28,1734,0.246999999999389
21,29,1730,0.246999999999389
21,30,1738,0.248999999999796
22,1,1736,0.272000000000844
22,2,1743,0.246999999999389
22,3,1741,0.247999999999593
22,4,1741,0.252000000000407
22,5,1743,0.245999999999185
22,6,1733,0.273000000001048
22,7,1731,0.246999999999389
22,8,1747,0.248999999999796
22,9,1744,0.247999999999593
22,10,1731,0.248999999999796
22,11,1737,0.245000000002619
22,12,1738,0.246999999999389
22,13,1735,0.247999999999593
22,14,1744,0.247999999999593
22,15,1740,0.247999999999593
22,16,1739,0.247999999999593
22,17,1730,0.273000000001048
22,18,1736,0.247999999999593
22,19,1730,0.246999999999389
22,20,1740,0.247999999999593
22,21,1733,0.248999999999796
22,22,1734,0.273000000001048
22,23,1727,0.246999999999389
22,24,1732,0.248999999999796
22,25,1715,0.246999999999389
22,26,1735,0.247000000003027
22,27,1735,0.27299999999741
22,28,1732,0.247999999999593
22,29,1735,0.248999999999796
22,30,1731,0.248000000003231
23,1,1747,0.247999999999593
23,2,1748,0.245999999999185
23,3,1739,0.246999999999389
23,4,1743,0.247999999999593
23,5,1734,0.248999999999796
23,6,1745,0.247999999999593
23,7,1745,0.247999999999593
23,8,1749,0.273000000001048
23,9,1747,0.247999999999593
23,10,1739,0.246999999999389
23,11,1748,0.247999999999593
23,12,1745,0.248999999999796
23,13,1745,0.273000000001048
23,14,1749,0.247999999999593
23,15,1746,0.248999999999796
23,16,1745,0.248999999999796
23,17,1741,0.246000000002823
23,18,1748,0.273999999997613
23,19,1744,0.247999999999593
23,20,1745,0.248999999999796
23,21,1743,0.247999999999593
23,22,1744,0.248999999999796
23,23,1746,0.246000000002823
23,24,1739,0.246999999999389
23,25,1746,0.247999999999593
23,26,1743,0.248999999999796
23,27,1745,0.247999999999593
23,28,1744,0.248999999999796
23,29,1744,0.273000000001048
23,30,1744,0.247999999999593
24,1,1746,0.246999999999389
24,2,1747,0.247999999999593
24,3,1746,0.248999999999796
24,4,1743,0.273000000001048
24,5,1747,0.247999999999593
24,6,1743,0.25
24,7,1737,0.247999999999593
24,8,1742,0.245999999999185
24,9,1740,0.273000000001048
24,10,1743,0.247999999999593
24,11,1736,0.248999999999796
24,12,1727,0.248999999999796
24,13,1737,0.248999999999796
24,14,1737,0.246000000002823
24,15,1744,0.245999999999185
24,16,1737,0.247999999999593
24,17,1742,0.247999999999593
24,18,1742,0.248999999999796
24,19,1739,0.247999999999593
24,20,1740,0.273000000001048
24,21,1728,0.247999999999593
24,22,1737,0.247999999999593
24,23,1740,0.247999999999593
24,24,1735,0.248999999999796
24,25,1738,0.273000000001048
24,26,1741,0.247999999999593
24,27,1729,0.248999999999796
24,28,1742,0.247999999999593
24,29,1739,0.246999999999389
24,30,1747,0.273000000001048
25,1,1744,0.246999999999389
25,2,1741,0.25
25,3,1749,0.248999999999796
25,4,1737,0.248999999999796
25,5,1748,0.246000000002823
25,6,1739,0.245999999999185
25,7,1728,0.247999999999593
25,8,1741,0.248999999999796
25,9,1742,0.247999999999593
25,10,1742,0.248999999999796
25,11,1737,0.273000000001048
25,12,1731,0.248999999999796
25,13,1727,0.246999999999389
25,14,1745,0.247999999999593
25,15,1743,0.248999999999796
25,16,1740,0.274000000001251
25,17,1738,0.247999999999593
25,18,1737,0.25
25,19,1742,0.247999999999593
25,20,1743,0.246999999999389
25,21,1730,0.273000000001048
25,22,1734,0.247999999999593
25,23,1738,0.248999999999796
25,24,1734,0.247999999999593
25,25,1738,0.247999999999593
25,26,1743,0.245999999999185
25,27,1737,0.247000000003027
25,28,1731,0.247999999999593
25,29,1725,0.248999999999796
25,30,1738,0.247999999999593
26,1,1738,0.248999999999796
26,2,1741,0.274000000001251
26,3,1741,0.247999999999593
26,4,1744,0.248999999999796
26,5,1745,0.247999999999593
26,6,1744,0.248999999999796
26,7,1739,0.273000000001048
26,8,1744,0.247999999999593
26,9,1744,0.25
26,10,1739,0.247999999999593
26,11,1742,0.246999999999389
26,12,1741,0.273000000001048
26,13,1744,0.247999999999593
26,14,1732,0.248999999999796
26,15,1742,0.247999999999593
26,16,1734,0.248999999999796
26,17,1741,0.245999999999185
26,18,1738,0.246999999999389
26,19,1725,0.248000000003231
26,20,1735,0.248999999999796
26,21,1726,0.247999999999593
26,22,1732,0.248999999999796
26,23,1725,0.27299999999741
26,24,1737,0.248000000003231
26,25,1735,0.247999999999593
26,26,1741,0.247999999999593
26,27,1741,0.248999999999796
26,28,1746,0.273000000001048
26,29,1736,0.247999999999593
26,30,1746,0.248999999999796
27,1,1747,0.247999999999593
27,2,1744,0.246999999999389
27,3,1736,0.273000000001048
27,4,1746,0.247999999999593
27,5,1737,0.248999999999796
27,6,1739,0.247999999999593
27,7,1731,0.248999999999796
27,8,1735,0.245999999999185
27,9,1740,0.245999999999185
27,10,1744,0.248000000003231
27,11,1743,0.248000000003231
27,12,1727,0.247999999999593
27,13,1742,0.248999999999796
27,14,1737,0.27299999999741
27,15,1742,0.247000000003027
27,16,1741,0.246999999999389
27,17,1731,0.247999999999593
27,18,1735,0.248999999999796
27,19,1726,0.273000000001048
27,20,1736,0.247999999999593
27,21,1729,0.248999999999796
27,22,1734,0.248999999999796
27,23,1737,0.245999999999185
27,24,1732,0.274000000001251
27,25,1729,0.247999999999593
27,26,1742,0.248999999999796
27,27,1738,0.247999999999593
27,28,1736,0.248999999999796
27,29,1732,0.245999999999185
27,30,1735,0.246999999999389
28,1,1742,0.247999999999593
28,2,1740,0.249000000003434
28,3,1732,0.247999999999593
28,4,1747,0.248999999999796
28,5,1733,0.27299999999741
28,6,1737,0.248000000003231
28,7,1734,0.247000000003027
28,8,1736,0.247999999999593
28,9,1747,0.248999999999796
28,10,1740,0.273999999997613
28,11,1738,0.248000000003231
28,12,1743,0.248999999999796
28,13,1735,0.247999999999593
28,14,1731,0.246999999999389
28,15,1747,0.273000000001048
28,16,1741,0.247999999999593
28,17,1741,0.248999999999796
28,18,1733,0.247999999999593
28,19,1737,0.248999999999796
28,20,1727,0.245999999999185
28,21,1736,0.246999999999389
28,22,1730,0.247999999999593
28,23,1728,0.248999999999796
28,24,1723,0.248000000003231
28,25,1727,0.248999999999796
28,26,1741,0.27299999999741
28,27,1731,0.247999999999593
28,28,1745,0.248000000003231
28,29,1734,0.247999999999593
28,30,1731,0.248999999999796
29,1,1743,0.27299999999741
29,2,1733,0.248999999999796
29,3,1733,0.249000000003434
29,4,1728,0.247999999999593
29,5,1733,0.246999999999389
29,6,1733,0.273000000001048
29,7,1737,0.248000000003231
29,8,1742,0.25
29,9,1738,0.247999999999593
29,10,1738,0.248999999999796
29,11,1740,0.245999999999185
29,12,1741,0.246999999999389
29,13,1735,0.247999999999593
29,14,1742,0.247999999999593
29,15,1729,0.247999999999593
29,16,1736,0.248999999999796
29,17,1737,0.274000000001251
29,18,1739,0.248999999999796
29,19,1735,0.246999999999389
29,20,1734,0.247999999999593
29,21,1738,0.249000000003434
29,22,1739,0.273999999997613
29,23,1742,0.247999999999593
29,24,1735,0.248999999999796
29,25,1740,0.247999999999593
29,26,1729,0.247000000003027
29,27,1731,0.27299999999741
29,28,1739,0.247999999999593
29,29,1725,0.25
29,30,1741,0.248000000003231
30,1,1746,0.248999999999796
30,2,1745,0.246999999999389
30,3,1736,0.248999999999796
30,4,1741,0.248999999999796
30,5,1742,0.248999999999796
30,6,1735,0.248999999999796
30,7,1743,0.248999999999796
30,8,1746,0.274000000001251
30,9,1749,0.247999999999593
30,10,1737,0.247999999999593
30,11,1738,0.247999999999593
30,12,1744,0.248999999999796
30,13,1741,0.273000000001048
30,14,1738,0.248999999999796
30,15,1744,0.248999999999796
30,16,1725,0.247999999999593
30,17,1741,0.246999999999389
30,18,1737,0.273000000001048
30,19,1728,0.247999999999593
30,20,1744,0.25
30,21,1731,0.247999999999593
30,22,1740,0.248999999999796
30,23,1731,0.245999999999185
30,24,1732,0.247000000003027
30,25,1730,0.247999999999593
30,26,1728,0.248999999999796
30,27,1740,0.248999999999796
30,28,1745,0.248999999999796
30,29,1738,0.273000000001048
30,30,1735,0.247999999999593
