"Before.Trace.ID1","Before.Trace.ID2","Difference","Runtime"
1,2,38791.5685000403,0.00100000000020373
1,3,81188.9677899004,0
1,4,37786.4807093144,0.00100000000020373
1,5,46141.6940200048,0
1,6,33868.2105241659,0.00100000000020373
1,7,53494.4006857713,0
1,8,37394.7388730437,0.00100000000020373
1,9,26738.3412702365,0
1,10,33702.813651385,0
1,11,68062.0553039481,0.00100000000020373
1,12,46866.7581549099,0
1,13,44179.6544802022,0.00100000000020373
1,14,45591.1315602062,0
1,15,74410.2691843324,0
1,16,49386.8240496532,0
1,17,48652.6361592157,0
1,18,52917.5856962077,0.00100000000020373
1,19,41590.2345196753,0
1,20,42047.4060626691,0.00100000000020373
1,21,42009.5167356539,0
1,22,40534.7726778137,0
1,23,63563.5194190062,0.00100000000020373
1,24,65461.1946936956,0
1,25,48197.7061467168,0.00100000000020373
1,26,53231.4353151378,0
1,27,50858.4449496167,0
1,28,50219.342878808,0
1,29,37999.8327585224,0
1,30,65084.2532527343,0.00100000000020373
2,3,80074.8722944362,0
2,4,46358.9428071406,0.00100000000020373
2,5,38878.2075725757,0
2,6,41553.4813159362,0
2,7,67879.4641204409,0.00100000000020373
2,8,39988.5349276912,0
2,9,39571.7322264332,0.000999999996565748
2,10,45447.3315437458,0
2,11,73564.1747466626,0.00100000000020373
2,12,53986.0282832694,0
2,13,53332.2740817617,0
2,14,41735.6474673239,0.00100000000020373
2,15,81001.2060080768,0
2,16,44493.5155800347,0.00100000000020373
2,17,55202.2265904649,0
2,18,51753.3592578365,0
2,19,55876.2350421795,0.00100000000020373
2,20,51144.1987539051,0
2,21,55566.9788407011,0.00100000000020373
2,22,50679.138152577,0
2,23,54443.4350725799,0.00100000000020373
2,24,69155.3535587469,0
2,25,63029.7809205784,0
2,26,66799.5285778973,0.00100000000020373
2,27,53981.5854509954,0
2,28,57551.0836883812,0.00100000000020373
2,29,33047.0572189045,0
2,30,71135.9178203357,0
3,4,64200.4100642009,0.00100000000020373
3,5,104454.75938747,0
3,6,98135.2168035094,0.00100000000020373
3,7,115768.049518791,0
3,8,99812.4694694555,0.00100000000020373
3,9,62848.5938098685,0
3,10,101563.40700563,0
3,11,134328.606635298,0.00100000000020373
3,12,119150.410753729,0
3,13,108444.185817589,0.00100000000020373
3,14,94926.3212568654,0
3,15,140631.016060767,0
3,16,95921.0777042102,0.00100000000020373
3,17,105791.190586706,0
3,18,118819.245087442,0.00100000000020373
3,19,114775.885610326,0
3,20,110618.136947515,0.00100000000020373
3,21,108803.026752613,0
3,22,99802.073519698,0
3,23,56893.75247708,0.000999999996565748
3,24,131581.031718045,0
3,25,117140.386328724,0.00100000000020373
3,26,122162.182055018,0
3,27,118960.772978415,0
3,28,120081.39465633,0
3,29,87033.1917402182,0
3,30,127528.372532294,0.00100000000020373
4,5,63451.7945368283,0
4,6,45692.9171146986,0.00100000000020373
4,7,62484.1706819519,0
4,8,54628.9156016488,0
4,9,31320.4071666815,0.00100000000020373
4,10,48703.5259298171,0
4,11,86016.2544911952,0.00100000000020373
4,12,66395.7424770383,0
4,13,57139.4704527842,0
4,14,44461.4347068852,0.00100000000020373
4,15,87802.9716587916,0
4,16,45942.0478688954,0.00100000000020373
4,17,56266.6248550998,0
4,18,64335.9502213077,0.00100000000020373
4,19,65822.3881156606,0
4,20,62220.0363933272,0
4,21,58461.3684107607,0.00100000000020373
4,22,51925.2381619767,0
4,23,60716.5258837285,0.00100000000020373
4,24,75476.8944928091,0
4,25,60629.4537272523,0
4,26,66532.557833982,0.00100000000020373
4,27,64749.1724840813,0
4,28,67779.8691304489,0.00100000000020373
4,29,41961.9520222103,0
4,30,74986.6924590748,0.00100000000020373
5,6,41920.8289925465,0
5,7,59343.3325023997,0
5,8,41621.4561889509,0.00100000000020373
5,9,57239.3885653656,0
5,10,43365.3026841668,0.00100000000020373
5,11,58662.9671235556,0
5,12,43150.8644649362,0
5,13,44326.634409394,0.00100000000020373
5,14,43736.9471991465,0
5,15,63802.0477124977,0.000999999996565748
5,16,47266.6795790224,0
5,17,48968.3450129487,0
5,18,46381.7789899128,0
5,19,46045.5950961958,0
5,20,41764.2776107426,0.00100000000020373
5,21,48151.1868228304,0
5,22,46414.8756891502,0.00100000000020373
5,23,72365.3784803445,0
5,24,56470.7510734984,0
5,25,53941.1927025163,0.00100000000020373
5,26,56916.161894672,0
5,27,46467.4734210888,0.00100000000020373
5,28,45040.158985716,0
5,29,39235.4515089266,0
5,30,61810.3700939414,0.00100000000020373
6,7,52579.0243857642,0
6,8,44570.6852355454,0.00100000000020373
6,9,47175.2072684176,0
6,10,29262.7468490434,0
6,11,68793.1399916028,0
6,12,36420.765857115,0
6,13,41917.894679121,0.00100000000020373
6,14,43142.3368932721,0
6,15,64958.9922333515,0.00100000000020373
6,16,40488.0183250714,0
6,17,45114.4646332339,0
6,18,38740.4284253438,0.00100000000020373
6,19,44079.5830165604,0
6,20,45066.4289013367,0.00100000000020373
6,21,44601.6689731666,0
6,22,41565.4483285054,0
6,23,78348.9958867384,0
6,24,53310.2535516815,0
6,25,43965.5844084896,0.00100000000020373
6,26,46393.0802761933,0
6,27,41869.4611275617,0.00100000000020373
6,28,43467.5985594307,0
6,29,39286.1820526199,0
6,30,55401.4515377633,0.00100000000020373
7,8,45702.1462044682,0
7,9,64554.8391163793,0.00100000000020373
7,10,34637.1811649491,0
7,11,39875.9785186124,0
7,12,42943.0618778744,0
7,13,27939.1651642442,0
7,14,41768.5180389556,0.00100000000020373
7,15,43003.4873712443,0
7,16,45845.27947998,0
7,17,38737.1665980231,0.00100000000020373
7,18,45565.2781973171,0
7,19,37930.0904982096,0.00100000000020373
7,20,34806.5815391328,0
7,21,25904.6043303547,0
7,22,29761.4100197092,0
7,23,95768.6537562897,0
7,24,33297.7496161367,0.00100000000020373
7,25,24751.4670458552,0
7,26,28472.6801160586,0.00100000000020373
7,27,34413.3897523096,0
7,28,33394.3265216855,0
7,29,44658.7237692557,0.00100000000020373
7,30,35592.6706137765,0
8,9,46708.8125790768,0.00100000000020373
8,10,34796.0190833477,0
8,11,47269.818508879,0
8,12,42035.7693701202,0
8,13,39222.9991105979,0
8,14,34916.6369579253,0.00100000000020373
8,15,57420.8437449594,0
8,16,44062.7543127834,0.00100000000020373
8,17,40205.6266971776,0
8,18,40965.4702289036,0
8,19,35024.1736927724,0.00100000000020373
8,20,23468.6491356959,0
8,21,37930.5620797072,0.00100000000020373
8,22,38759.8073740191,0
8,23,78031.4614251986,0
8,24,46447.9718251393,0.000999999996565748
8,25,39725.9586522928,0
8,26,44942.6651977892,0.00100000000020373
8,27,34669.19219354,0
8,28,37994.5291002819,0.00100000000020373
8,29,37827.5361899009,0
8,30,49482.2114696371,0
9,10,45102.2370214906,0.00100000000020373
9,11,79785.6465920687,0
9,12,62350.091838772,0.00100000000020373
9,13,55362.1467328222,0
9,14,49799.2715011426,0
9,15,85432.2682122292,0.00100000000020373
9,16,51758.0650938612,0
9,17,54399.1463899112,0.00100000000020373
9,18,66130.717095848,0
9,19,56464.8816744569,0
9,20,55489.4537577824,0
9,21,53376.4328134796,0
9,22,46815.255427758,0.00100000000020373
9,23,56054.7767537246,0
9,24,77947.5620392893,0.00100000000020373
9,25,60802.414687662,0
9,26,66279.9042650849,0
9,27,63297.1612748522,0.00100000000020373
9,28,63953.6533112456,0
9,29,41923.5455145725,0.00100000000020373
9,30,73164.640852412,0
10,11,50632.7933929087,0
10,12,30560.2591083723,0
10,13,26272.4118373844,0
10,14,35579.0023679112,0.00100000000020373
10,15,51470.7020130099,0
10,16,36060.1565779079,0.00100000000020373
10,17,37806.9689157721,0
10,18,32180.4569766455,0
10,19,27941.7177294632,0.00100000000020373
10,20,31955.6721691185,0
10,21,26439.6946643442,0.00100000000020373
10,22,27803.6916287013,0
10,23,79883.4993011769,0
10,24,40205.0969132106,0.00100000000020373
10,25,29307.5711008256,0
10,26,33240.4936896805,0.000999999996565748
10,27,27669.2077917742,0
10,28,31430.4778153902,0
10,29,32270.4984407851,0
10,30,41211.123496887,0
11,12,44256.7532956428,0.00100000000020373
11,13,37420.7244798624,0
11,14,52878.0122706412,0.00100000000020373
11,15,38377.0842640121,0
11,16,60814.9048437198,0
11,17,50412.2857280309,0.00100000000020373
11,18,53093.2963762108,0
11,19,37488.6450999275,0.00100000000020373
11,20,34577.8649079714,0
11,21,35205.2038141573,0
11,22,44144.4677842839,0
11,23,106540.797210802,0
11,24,36665.8690669234,0.00100000000020373
11,25,39164.3836503022,0
11,26,39574.9635453048,0.00100000000020373
11,27,35913.9068390393,0
11,28,33729.2697282299,0
11,29,57906.7653801085,0.00100000000020373
11,30,43498.5537876142,0
12,13,33443.7840168913,0.00100000000020373
12,14,45273.1415674459,0
12,15,46951.351356167,0
12,16,44257.9579381932,0.00100000000020373
12,17,37804.7331278713,0
12,18,32387.13162009,0.00100000000020373
12,19,29915.4663950701,0
12,20,33929.7542817343,0
12,21,30694.1791474766,0
12,22,35760.684896099,0
12,23,95383.4704623314,0.00100000000020373
12,24,36293.2669114189,0
12,25,34670.3291377164,0.00100000000020373
12,26,27209.8013514492,0
12,27,25603.813217907,0
12,28,21123.2005399287,0.00100000000020373
12,29,44891.8817284802,0
12,30,41698.0025575691,0.00100000000020373
13,14,33037.0885445504,0
13,15,44093.5508200473,0
13,16,38955.4689440234,0.000999999996565748
13,17,38745.5101319916,0
13,18,41160.9672967133,0.00100000000020373
13,19,29337.8492983372,0
13,20,29784.1964358334,0
13,21,18001.7162098465,0
13,22,22983.9290147052,0
13,23,82486.0858544112,0.00100000000020373
13,24,35945.6238985259,0
13,25,25186.5865757335,0.00100000000020373
13,26,30804.1816840528,0
13,27,27007.0066400354,0
13,28,28229.3670946613,0.00100000000020373
13,29,33581.968929331,0
13,30,41300.8288632098,0.00100000000020373
14,15,57519.102672787,0
14,16,23709.4313729183,0
14,17,35810.2055904865,0.00100000000020373
14,18,42155.0027221329,0
14,19,47077.4346638559,0.00100000000020373
14,20,36463.6400864087,0
14,21,37896.9087686634,0
14,22,32671.1762486957,0
14,23,72814.3221380324,0
14,24,43817.6453112259,0.00100000000020373
14,25,40373.2405972444,0
14,26,44629.0664745733,0.00100000000020373
14,27,36609.3684988829,0
14,28,40736.65486064,0
14,29,26823.7606289592,0.00100000000020373
14,30,50023.4563705978,0
15,16,55662.1018546089,0.00100000000020373
15,17,46144.5514244843,0
15,18,51937.9849943666,0
15,19,46900.1307102243,0.00100000000020373
15,20,44581.8234259619,0
15,21,45558.09132175,0.00100000000020373
15,22,48203.4458268253,0
15,23,118082.035101222,0
15,24,29410.2360420794,0
15,25,39815.6650248425,0
15,26,37366.2670672347,0.00100000000020373
15,27,38525.7246955735,0
15,28,35467.6124651298,0.000999999996565748
15,29,64263.7309424465,0
15,30,27722.2171635878,0
16,17,30052.5273921162,0.00100000000020373
16,18,43726.536369518,0
16,19,52982.0289131634,0.00100000000020373
16,20,44706.4862728258,0
16,21,43523.1534844145,0
16,22,33539.8332383396,0.00100000000020373
16,23,79026.0423614207,0
16,24,45342.1494970463,0.00100000000020373
16,25,46785.3524320679,0
16,26,45246.4014683662,0
16,27,40063.8652818572,0
16,28,41230.8991185548,0
16,29,29106.2486457613,0.00100000000020373
16,30,45094.0976120926,0
17,18,48188.013566115,0.00100000000020373
17,19,43816.5109547083,0
17,20,34990.1638096345,0
17,21,35921.6330690783,0.00100000000020373
17,22,28026.2122503164,0
17,23,91910.1694180225,0.00100000000020373
17,24,42101.2528242073,0
17,25,39889.3081844232,0
17,26,35196.4488268263,0.00100000000020373
17,27,38831.0920696012,0
17,28,30412.4191877609,0.00100000000020373
17,29,39859.7573984689,0
17,30,33004.0554379336,0
18,19,40727.0915598654,0
18,20,38867.9025799158,0
18,21,42648.4711756774,0.00100000000020373
18,22,46914.7777117747,0
18,23,93553.2871419529,0.00100000000020373
18,24,32197.0920330842,0
18,25,38749.4924572005,0
18,26,38357.5822915485,0.00100000000020373
18,27,25378.2249792799,0
18,28,35352.5996071298,0.00100000000020373
18,29,46181.2652391469,0
18,30,45073.4779828364,0
19,20,25797.6172875719,0.000999999996565748
19,21,22948.3110786809,0
19,22,33414.4564308507,0.00100000000020373
19,23,90746.2892865178,0
19,24,41876.4884116817,0
19,25,27843.9912500732,0
19,26,32088.5834765401,0
19,27,28997.651659176,0.00100000000020373
19,28,28566.8683275356,0
19,29,45861.8233774769,0.00100000000020373
19,30,43595.6711779042,0
20,21,26475.8136834003,0
20,22,31827.5314882094,0.00100000000020373
20,23,85675.1074057039,0
20,24,36400.4572690095,0.00100000000020373
20,25,31932.978090466,0
20,26,33839.1174743302,0
20,27,26312.3098511671,0.00100000000020373
20,28,26946.6469332797,0
20,29,40284.4277048174,0.00100000000020373
20,30,40903.0039094566,0
21,22,20840.12010707,0
21,23,86418.739832082,0
21,24,38524.6231618088,0
21,25,24396.5571331518,0.00100000000020373
21,26,26145.7762124987,0
21,27,28374.454667451,0.00100000000020373
21,28,26291.8302891642,0
21,29,37801.9847889614,0
21,30,40204.2477528248,0.00100000000020373
22,23,80796.4740756012,0
22,24,42871.9705050417,0.00100000000020373
22,25,30895.6310652691,0
22,26,32769.1469138204,0
22,27,34653.4666383435,0.00100000000020373
22,28,29940.6728659601,0
22,29,31310.1499520998,0.00100000000020373
22,30,38206.6903875242,0
23,24,107852.24549226,0.00100000000020373
23,25,96390.6864469387,0
23,26,103704.589933488,0
23,27,94232.484404679,0.00100000000020373
23,28,97227.2062643941,0
23,29,60945.0645123485,0.000999999996565748
23,30,110457.418209458,0
24,25,30959.9948290589,0
24,26,27987.8765885551,0.00100000000020373
24,27,23068.3774707463,0
24,28,27589.6140225979,0.00100000000020373
24,29,52554.014335029,0
24,30,28448.6281813714,0
25,26,23209.4386508922,0
25,27,27003.1619864039,0
25,28,29017.9452653554,0.00100000000020373
25,29,46180.7710562794,0
25,30,35460.8882241633,0.00100000000020373
26,27,27208.4024867397,0
26,28,21170.9424610471,0
26,29,50765.677874569,0.00100000000020373
26,30,31468.7411440319,0.00400000000081491
27,28,23621.3217979196,0.00100000000020373
27,29,42165.3985524901,0
27,30,34764.3536167503,0
28,29,43696.9127491002,0.00100000000020373
28,30,29736.5890207117,0
29,30,54485.3279926903,0.00100000000020373


"After.Trace.ID","Before.Trace.ID","Difference","Runtime"
1,1,64857.1386468634,0.00100000000020373
1,2,67650.27801621,0
1,3,122561.801904851,0.00100000000020373
1,4,74928.7814321924,0
1,5,58435.7670634416,0.00100000000020373
1,6,62019.3726139913,0
1,7,37593.4246141369,0.000999999996565748
1,8,44148.8128376765,0
1,9,70540.2297611057,0
1,10,45446.8977489144,0.00100000000020373
1,11,36101.8976458419,0
1,12,45349.6309862521,0.00100000000020373
1,13,40065.3056910528,0
1,14,44317.5245192431,0
1,15,32621.370127978,0
1,16,42157.8686932191,0
1,17,30038.8036804218,0.00100000000020373
1,18,51591.069636338,0
1,19,45646.2676421326,0.00100000000020373
1,20,37120.4303518553,0
1,21,38886.2122955458,0
1,22,36160.5612725529,0.00100000000020373
1,23,103744.470555245,0
1,24,34309.7243171489,0.00100000000020373
1,25,41536.2690265871,0
1,26,37111.5134566599,0
1,27,37500.5901846521,0
1,28,30998.8477450897,0
1,29,50178.6379824876,0.00100000000020373
1,30,24912.2590740565,0
2,1,48197.0338469592,0.00100000000020373
2,2,65461.0287117924,0
2,3,105204.711497393,0
2,4,58742.2045711984,0.00100000000020373
2,5,66988.2893793933,0
2,6,60006.1358797386,0.00100000000020373
2,7,35307.5192916237,0
2,8,41534.3492035943,0
2,9,54981.1330388503,0
2,10,42904.1272158514,0
2,11,47537.2026508166,0.00100000000020373
2,12,51491.4599404152,0
2,13,39034.0527398055,0.00100000000020373
2,14,48219.7002519318,0
2,15,62152.5393202214,0
2,16,57909.6641770866,0.00100000000020373
2,17,49268.4348179982,0
2,18,57487.0467232394,0.00100000000020373
2,19,38928.8392738148,0
2,20,40565.4556890501,0
2,21,31827.7775111801,0
2,22,37987.9638151143,0
2,23,92622.9396310602,0.00100000000020373
2,24,52869.7903845269,0
2,25,34440.2734180408,0.00100000000020373
2,26,39980.7834946462,0
2,27,45225.5249635443,0
2,28,45582.2790657069,0.00100000000020373
2,29,51659.5157391614,0
2,30,52639.7131018927,0.00100000000020373
3,1,49280.2525062874,0
3,2,51614.4689245694,0
3,3,112467.407678681,0
3,4,58943.4473675842,0
3,5,43968.7712638998,0.00100000000020373
3,6,41290.1195681539,0
3,7,36749.6639204134,0.00100000000020373
3,8,29582.0599628648,0
3,9,59917.7128218078,0
3,10,31035.1766564859,0.00100000000020373
3,11,45397.0186664289,0
3,12,39526.442008368,0.00100000000020373
3,13,32799.3262019142,0
3,14,32090.5694335236,0
3,15,41194.4339275927,0
3,16,37169.1660763161,0
3,17,38696.2331108676,0.00100000000020373
3,18,29679.1414721301,0
3,19,37511.3930852064,0.00100000000020373
3,20,29469.3447667112,0
3,21,37822.7120607896,0
3,22,37552.4320510743,0.00100000000020373
3,23,89128.3543511037,0
3,24,29012.1381430223,0.00100000000020373
3,25,29247.2746975152,0
3,26,37790.7765852019,0
3,27,25462.108397602,0
3,28,33936.3398610306,0
3,29,39997.2816769621,0.00100000000020373
3,30,36488.5316890871,0
4,1,58134.3117925731,0.000999999996565748
4,2,65018.3975383271,0
4,3,126528.513612859,0
4,4,72320.47140204,0.00100000000020373
4,5,51987.620683277,0
4,6,43821.3529226846,0.00100000000020373
4,7,40162.2928692277,0
4,8,44714.1292162564,0
4,9,70810.5036238303,0
4,10,37684.1584516011,0
4,11,45987.5455491298,0.00100000000020373
4,12,28886.9454653065,0
4,13,40535.2209943546,0.00100000000020373
4,14,49042.8645376963,0
4,15,34798.6801331897,0
4,16,45256.7471083717,0.00100000000020373
4,17,33562.8290768883,0
4,18,36285.9622990553,0.00100000000020373
4,19,39622.4006783904,0
4,20,37249.2163844128,0
4,21,39478.8610790938,0
4,22,40109.8054008373,0
4,23,107209.212105768,0.00100000000020373
4,24,27967.6156558149,0
4,25,34263.5198322118,0.00100000000020373
4,26,26584.389601697,0
4,27,30998.6576666169,0
4,28,22931.0336838029,0.00100000000020373
4,29,52927.6995554058,0
4,30,25730.9809152615,0.00100000000020373
5,1,48764.2009833209,0
5,2,65359.9788212455,0
5,3,113329.841696483,0
5,4,69053.3144062305,0
5,5,56045.3500100805,0.00100000000020373
5,6,57333.6149350322,0
5,7,36280.6125238485,0.00100000000020373
5,8,40200.8716836717,0
5,9,58982.2909882482,0
5,10,41736.9163288122,0.00100000000020373
5,11,39307.6989784857,0
5,12,42902.6300606974,0.00100000000020373
5,13,39281.2968149516,0
5,14,50402.3940565598,0
5,15,47039.4408187541,0
5,16,52837.0551784952,0
5,17,33772.6793857452,0.00100000000020373
5,18,56316.7956183861,0
5,19,33225.6538157259,0.00100000000020373
5,20,27998.4297603171,0
5,21,30250.8557913391,0
5,22,32905.4393050658,0.00100000000020373
5,23,95307.4460482382,0
5,24,47660.0915596758,0.00100000000020373
5,25,39555.7742707459,0
5,26,36576.0511948535,0
5,27,42796.6224688706,0
5,28,32500.7353938927,0
5,29,49576.3228768252,0.00100000000020373
5,30,40744.9658991987,0
6,1,49537.6080127582,0.00100000000020373
6,2,60831.1971955375,0
6,3,115365.10481259,0
6,4,60195.3222130685,0.00100000000020373
6,5,52991.3458411214,0
6,6,39042.8515748121,0.00100000000020373
6,7,29945.907514267,0
6,8,45805.9226379066,0
6,9,59457.8565588916,0
6,10,24084.1110142994,0
6,11,46909.8414749305,0.00100000000020373
6,12,30491.2786951334,0
6,13,28255.5703016824,0.00100000000020373
6,14,41227.7480889419,0
6,15,38375.9274797965,0
6,16,37865.6133911808,0.00100000000020373
6,17,32585.455906286,0
6,18,36550.3997815794,0.00100000000020373
6,19,32621.9342695883,0
6,20,37262.5224349432,0.00100000000020373
6,21,28030.3422714636,0
6,22,27456.3776118177,0
6,23,96532.1130631896,0.00100000000020373
6,24,32674.1979128687,0
6,25,25333.0376645036,0.00100000000020373
6,26,23844.2917664692,0
6,27,28077.7996090743,0
6,28,27304.5176518724,0
6,29,43918.997693509,0
6,30,28126.5433638453,0.00100000000020373
7,1,67731.1387438868,0
7,2,71022.5838818948,0.00100000000020373
7,3,131817.648427249,0
7,4,79836.6537126186,0
7,5,57566.5759820472,0.00100000000020373
7,6,59079.833684082,0
7,7,37637.0834316867,0.00100000000020373
7,8,50112.9444699297,0
7,9,77023.5269244693,0.00100000000020373
7,10,44606.1297990375,0
7,11,29886.8928509452,0
7,12,37050.5190506095,0.00100000000020373
7,13,34612.0204725792,0
7,14,47758.6285487446,0.00100000000020373
7,15,22984.7351625259,0
7,16,47397.7663340542,0
7,17,38439.8324587086,0
7,18,46835.6357030222,0
7,19,40281.1143648245,0.00100000000020373
7,20,38666.6164772089,0
7,21,35242.4667359674,0.00100000000020373
7,22,37737.5756544092,0
7,23,109590.045869762,0
7,24,25660.1655371892,0.00100000000020373
7,25,34653.5885290611,0
7,26,29490.5232083314,0.00100000000020373
7,27,29657.9216569259,0
7,28,25540.8406866082,0
7,29,53972.6780803971,0
7,30,25696.7434205264,0
8,1,44933.5182707205,0.00100000000020373
8,2,47441.4876139023,0
8,3,111868.894589081,0.00100000000020373
8,4,58315.7410965732,0
8,5,41725.9128417619,0
8,6,35846.7010654588,0.00100000000020373
8,7,37883.7761326504,0
8,8,29432.819866033,0.00100000000020373
8,9,56444.6339607602,0
8,10,26460.4177311517,0.000999999996565748
8,11,43145.8760477741,0
8,12,27200.985519407,0
8,13,31976.3304339614,0.00100000000020373
8,14,33910.1200687748,0
8,15,44406.1597639404,0.00100000000020373
8,16,36364.8512939453,0
8,17,33755.1835520152,0
8,18,28380.9152016935,0.00100000000020373
8,19,31856.4351438101,0
8,20,30142.6984156059,0.00100000000020373
8,21,31954.3877787155,0
8,22,32248.1133158406,0
8,23,91062.5444682898,0
8,24,31018.3050097568,0
8,25,28117.842160329,0.00100000000020373
8,26,29993.1250227098,0
8,27,23017.083705076,0.00100000000020373
8,28,24840.38874688,0
8,29,39153.5972595699,0
8,30,34557.2151998056,0.00100000000020373
9,1,63858.921682445,0
9,2,63736.1257537075,0.00100000000020373
9,3,129113.98389195,0
9,4,79753.3258873505,0.00100000000020373
9,5,46683.6487204951,0
9,6,54143.7580170295,0
9,7,44632.2238124886,0.00100000000020373
9,8,48023.0668714716,0
9,9,75639.8163192879,0.00100000000020373
9,10,45099.056210464,0
9,11,35202.6515411431,0
9,12,33000.2651724447,0.00100000000020373
9,13,39262.5571788544,0
9,14,48324.4332518547,0.000999999996565748
9,15,36583.1165475616,0
9,16,46614.8893806264,0.00100000000020373
9,17,35667.2447633665,0
9,18,46494.1820940449,0
9,19,41893.5924533452,0.00100000000020373
9,20,36513.9256575044,0
9,21,39252.3131099068,0.00100000000020373
9,22,39710.1876215234,0
9,23,102815.136347515,0
9,24,34551.4728195397,0
9,25,44405.6775004715,0
9,26,38320.6242504998,0.00100000000020373
9,27,34617.6736204315,0
9,28,24817.9711064588,0.00100000000020373
9,29,49346.1171306209,0
9,30,34701.1090962314,0
10,1,59971.4255808225,0.00100000000020373
10,2,70446.9162057891,0
10,3,130300.594778455,0.00100000000020373
10,4,79231.6523380252,0
10,5,52927.3601196036,0
10,6,58202.7502047524,0
10,7,32322.5087174633,0
10,8,45886.3093979955,0.00100000000020373
10,9,75604.041381668,0
10,10,43506.4729216231,0.00100000000020373
10,11,22094.7294425226,0
10,12,35951.3582796797,0
10,13,31975.3361885857,0.00100000000020373
10,14,50483.031118929,0
10,15,36346.7801355099,0.00100000000020373
10,16,56195.0502928557,0
10,17,45276.4133658036,0
10,18,46634.0009437359,0
10,19,30914.0700175831,0
10,20,29015.3895812868,0.00100000000020373
10,21,28778.7417883612,0
10,22,38873.7237944871,0.00100000000020373
10,23,102827.756031391,0
10,24,32226.3191929845,0
10,25,32454.1197232077,0.00100000000020373
10,26,30382.7295853809,0
10,27,32304.9439365208,0.000999999996565748
10,28,26622.2107813272,0
10,29,53210.1407964403,0
10,30,40344.2217775815,0
11,1,50377.9659108887,0
11,2,53967.3010012064,0.00100000000020373
11,3,111917.567636055,0
11,4,60397.4264268282,0.00100000000020373
11,5,47367.6220149738,0
11,6,47679.9544192909,0
11,7,28867.2007071314,0.00100000000020373
11,8,31468.6318673455,0
11,9,59271.769454798,0.00100000000020373
11,10,32715.1198314791,0
11,11,34017.3105959925,0
11,12,34889.2454790977,0
11,13,25823.8696236181,0
11,14,28754.7736269591,0.00100000000020373
11,15,36216.6062645276,0
11,16,32483.3089280747,0.00100000000020373
11,17,27935.2630520012,0
11,18,38410.6663102686,0
11,19,34794.7217218407,0.00100000000020373
11,20,23067.354170176,0
11,21,26832.084634345,0.00100000000020373
11,22,26918.4417475467,0
11,23,90204.2763185194,0
11,24,26931.9575187321,0
11,25,29274.9778726443,0
11,26,28850.1823342203,0.00100000000020373
11,27,22440.1887108797,0
11,28,23801.6527673938,0.00100000000020373
11,29,37004.8108350344,0
11,30,31123.2741336002,0
12,1,46560.5982133541,0.00100000000020373
12,2,49314.0244976212,0
12,3,112287.041127347,0.00100000000020373
12,4,59319.2772111258,0
12,5,41970.8448500759,0
12,6,39239.7162032826,0
12,7,34557.1042504294,0
12,8,31476.8682085633,0.00100000000020373
12,9,57559.7728960458,0
12,10,26572.3293966556,0.000999999996565748
12,11,39526.8974765412,0
12,12,27458.1944812966,0
12,13,25350.7921656945,0.00100000000020373
12,14,31148.1195357998,0
12,15,41350.742220701,0.00100000000020373
12,16,35972.2526417875,0
12,17,35800.3383387232,0
12,18,26803.4317598595,0
12,19,28669.0117564838,0
12,20,27347.4720052597,0.00100000000020373
12,21,27465.7462044942,0
12,22,29506.435584878,0.00100000000020373
12,23,88934.705075708,0
12,24,28214.1787274844,0
12,25,25029.0192865025,0.00100000000020373
12,26,27301.9239555272,0
12,27,17341.505260065,0.00100000000020373
12,28,23413.6471367027,0
12,29,38290.7882644499,0
12,30,35722.2684147887,0
13,1,69590.5044876821,0
13,2,73236.4807953876,0.00100000000020373
13,3,138402.938887019,0
13,4,85675.1783176229,0.00100000000020373
13,5,58210.8801699735,0
13,6,58553.1193737427,0
13,7,43557.1867290926,0.00100000000020373
13,8,48642.6354610987,0
13,9,81900.7387466492,0.00100000000020373
13,10,45632.2247036532,0
13,11,38393.1645496122,0
13,12,40790.5912286891,0
13,13,45913.318869746,0
13,14,56697.4960500145,0.00100000000020373
13,15,30244.4649884008,0
13,16,56977.8227767148,0.00100000000020373
13,17,46845.0848813124,0
13,18,40842.5080006566,0
13,19,40965.8426296874,0.00100000000020373
13,20,40464.6071338662,0
13,21,45492.0110218487,0.000999999996565748
13,22,49540.8448723109,0
13,23,114847.786025462,0
13,24,25889.4840547019,0.00100000000020373
13,25,38757.4133883057,0
13,26,37134.3976029192,0.00100000000020373
13,27,33172.8661703031,0
13,28,31380.348456027,0.00100000000020373
13,29,60856.0357784167,0
13,30,26868.6056489849,0
14,1,73654.8257146986,0.00100000000020373
14,2,79913.0045267216,0
14,3,140592.909262985,0.00100000000020373
14,4,85869.5379064119,0
14,5,65762.8402430481,0
14,6,65141.8556028966,0.00100000000020373
14,7,36614.2991119871,0
14,8,55502.197283372,0.00100000000020373
14,9,85660.7794687815,0
14,10,49066.3455303599,0
14,11,31890.5049667372,0
14,12,43670.9405591139,0
14,13,39730.007506592,0.00100000000020373
14,14,55051.2851419192,0
14,15,29402.4894550297,0.00100000000020373
14,16,58605.4524544009,0
14,17,52576.8739997717,0
14,18,46937.8519391406,0.00100000000020373
14,19,43091.111792682,0
14,20,45324.1130415451,0.00100000000020373
14,21,40597.5528684141,0
14,22,47370.7498976311,0
14,23,116304.759172332,0
14,24,24808.1651886937,0
14,25,32615.9451699153,0.00100000000020373
14,26,32931.4334368836,0
14,27,32950.5471794346,0.00100000000020373
14,28,35946.4275025465,0
14,29,61801.8696541078,0
14,30,36287.6645726883,0.00100000000020373
15,1,83419.515880191,0
15,2,89783.9024023831,0.00100000000020373
15,3,153170.537298803,0
15,4,97774.212590156,0
15,5,70036.5576195495,0
15,6,68110.6854765922,0
15,7,51372.0488309506,0.00100000000020373
15,8,69330.2589516304,0
15,9,96696.4232278323,0.00100000000020373
15,10,57214.1061184892,0
15,11,48057.212305987,0
15,12,48624.7164538079,0.00100000000020373
15,13,52744.8989712643,0
15,14,68142.4195577859,0.00100000000020373
15,15,28343.549551214,0
15,16,66391.6974737959,0
15,17,59156.1515030366,0
15,18,51374.6442822049,0
15,19,53178.4154111642,0.00100000000020373
15,20,55407.5881986037,0
15,21,54491.5002607206,0.00100000000020373
15,22,59121.5967449666,0
15,23,127030.935984472,0
15,24,33953.6458594962,0.00100000000020373
15,25,47449.8365474736,0
15,26,43789.3361836296,0.00100000000020373
15,27,43905.9541751304,0
15,28,44339.6321978938,0
15,29,73965.2907364525,0
15,30,40236.0892654718,0
16,1,93562.7373231427,0.00100000000020373
16,2,104337.91870029,0
16,3,163568.446433125,0.00100000000020373
16,4,108508.190651285,0
16,5,87684.0018937469,0
16,6,84611.1509963613,0.00100000000020373
16,7,55357.2988344938,0
16,8,75854.3650729395,0.00100000000020373
16,9,106535.424483079,0
16,10,70154.5686171255,0
16,11,48255.657025903,0.00100000000020373
16,12,62442.3487361611,0
16,13,64311.0266458793,0.00100000000020373
16,14,80506.3074304449,0
16,15,37733.4045740561,0.00100000000020373
16,16,81754.6556892825,0
16,17,68337.498777409,0
16,18,66978.2064025813,0.00499999999738066
16,19,60724.0989775219,0
16,20,64064.800546182,0.00100000000020373
16,21,62213.3724309132,0
16,22,69098.7390766568,0
16,23,142831.367591832,0.00100000000020373
16,24,44304.2480464158,0
16,25,51929.3590650609,0.00100000000020373
16,26,49005.753923028,0
16,27,56243.972899816,0
16,28,53105.7079719687,0
16,29,88029.6977595572,0
16,30,44631.3207158789,0.00100000000020373
17,1,44185.4561535091,0
17,2,42725.3495520673,0.00100000000020373
17,3,110985.764455087,0
17,4,67767.4771616169,0
17,5,29764.0038926442,0.00100000000020373
17,6,42720.1102458529,0
17,7,49694.7874386995,0.00100000000020373
17,8,32761.914015677,0
17,9,57531.2780166851,0
17,10,34164.9886401641,0
17,11,45051.7677344612,0
17,12,35143.0194111526,0.00100000000020373
17,13,36957.9447994133,0
17,14,44219.1509207477,0.00100000000020373
17,15,53714.5021619095,0
17,16,48161.1454147265,0
17,17,46243.5957722278,0.00100000000020373
17,18,38180.8552206362,0
17,19,32787.2706036165,0.00100000000020373
17,20,27116.2638824795,0
17,21,37669.2441753295,0
17,22,40523.129131349,0
17,23,78819.6689597099,0
17,24,46288.7289107273,0.00100000000020373
17,25,46153.7333279549,0
17,26,47481.5326178363,0.00100000000020373
17,27,33801.4553479465,0
17,28,34360.0285667868,0
17,29,39673.5026554298,0.00100000000020373
17,30,51138.4955015619,0
18,1,73678.362894494,0.00100000000020373
18,2,79600.64766705,0
18,3,143809.085293515,0.00100000000020373
18,4,89834.7170745362,0
18,5,67310.37999604,0
18,6,62131.999661875,0.00100000000020373
18,7,46406.521231351,0
18,8,56575.0729647834,0.00100000000020373
18,9,86603.1781953981,0
18,10,49833.9290812178,0
18,11,39557.1850136,0.00100000000020373
18,12,37399.9146568279,0
18,13,48055.6306029897,0.00100000000020373
18,14,61877.7476555658,0
18,15,29661.2471066506,0.00100000000020373
18,16,59550.5955196944,0
18,17,49026.7147878181,0
18,18,44895.9428742466,0.00100000000020373
18,19,43463.5294896178,0
18,20,45355.8645061979,0.00100000000020373
18,21,45653.4495651231,0
18,22,51337.9118579529,0
18,23,122022.443899427,0.00100000000020373
18,24,27148.830447544,0
18,25,41634.6306585191,0.00100000000020373
18,26,32054.8552156331,0
18,27,33398.081644709,0.00100000000020373
18,28,30655.6376945031,0
18,29,66424.0570011261,0
18,30,29878.1818429188,0.00100000000020373
19,1,49963.1931731704,0
19,2,60552.8171732461,0.00100000000020373
19,3,119135.06857415,0
19,4,64949.3304383993,0
19,5,49425.1096421287,0.000999999996565748
19,6,40933.210723263,0
19,7,29908.0498628132,0.00100000000020373
19,8,44963.4272458461,0
19,9,63665.8444013197,0
19,10,24205.2103260183,0
19,11,42232.2408773352,0
19,12,25517.2416934784,0.00100000000020373
19,13,26939.4859784533,0
19,14,43580.7089891031,0.00100000000020373
19,15,42609.7141403067,0
19,16,43871.7700604128,0
19,17,41094.5795429348,0.00100000000020373
19,18,29641.6158367505,0
19,19,29386.6411289964,0.00100000000020373
19,20,33715.8146608054,0
19,21,25979.3153568691,0
19,22,33038.6285163293,0
19,23,94647.1556209121,0
19,24,29480.9962518704,0.00100000000020373
19,25,27545.1731724457,0
19,26,24198.3879546456,0.00100000000020373
19,27,23806.9224095667,0
19,28,25235.626003087,0
19,29,43405.6149475875,0.00100000000020373
19,30,36313.9811821133,0
20,1,70404.1366600704,0.00100000000020373
20,2,79913.0525691018,0
20,3,131339.098799943,0
20,4,77707.3183257871,0
20,5,69491.5294736109,0
20,6,64308.6131428928,0.00100000000020373
20,7,31933.9904514477,0
20,8,58140.984202008,0.00100000000020373
20,9,79001.7548652544,0
20,10,49262.03575768,0
20,11,39956.6298362218,0.00100000000020373
20,12,45980.3656720693,0
20,13,39834.3472351146,0.00100000000020373
20,14,51607.8722118528,0
20,15,31034.5199687259,0
20,16,50781.2237583096,0
20,17,38914.800295051,0
20,18,55374.3199582654,0.000999999996565748
20,19,48055.5427686297,0
20,20,47200.7076756746,0.00100000000020373
20,21,38239.40752305,0
20,22,39009.8543968799,0
20,23,114233.40071241,0.00100000000020373
20,24,32580.010809277,0
20,25,34141.9723320808,0.00100000000020373
20,26,29642.1818157007,0
20,27,40830.5730906692,0
20,28,34159.5815897875,0.00100000000020373
20,29,58012.2734824265,0
20,30,26990.2928702767,0.00100000000020373
21,1,85546.6692399039,0
21,2,89238.7724308826,0.00100000000020373
21,3,155261.682029302,0
21,4,100247.019716881,0
21,5,71980.4965792364,0.00100000000020373
21,6,71751.9504043371,0
21,7,54175.0741277373,0.00100000000020373
21,8,67862.7840834938,0
21,9,99360.8377454524,0
21,10,61825.2304399928,0.00100000000020373
21,11,46109.7570560475,0
21,12,45914.2646975914,0.00100000000020373
21,13,57730.8199488831,0
21,14,70033.3590022833,0
21,15,35848.2764179378,0
21,16,67269.9990189916,0
21,17,56553.6503205896,0.00100000000020373
21,18,51894.8886561635,0
21,19,57127.3218707718,0.00100000000020373
21,20,56582.7062429443,0
21,21,56741.4365558652,0
21,22,62095.2219770681,0.00100000000020373
21,23,131574.847652783,0
21,24,33498.6114859989,0.00100000000020373
21,25,52273.6031529961,0
21,26,42346.8389963176,0
21,27,44781.6307452314,0
21,28,40218.7248224112,0
21,29,75375.0392496333,0.00100000000020373
21,30,38923.8574995469,0
22,1,57153.7609850707,0.000999999996565748
22,2,59367.1953487647,0
22,3,126472.925013883,0
22,4,71842.761755823,0.00100000000020373
22,5,48794.1164378049,0
22,6,41850.4797361553,0.00100000000020373
22,7,43453.4291201271,0
22,8,41586.6921129066,0
22,9,71368.4136593946,0
22,10,35436.7412213945,0
22,11,47002.7272599926,0.00100000000020373
22,12,28643.2936818426,0
22,13,41519.8395662568,0.00100000000020373
22,14,47265.7629884832,0
22,15,42044.790157165,0
22,16,46515.2264577787,0.00100000000020373
22,17,43013.2396443508,0
22,18,22722.2737428516,0.00100000000020373
22,19,38766.2443814925,0
22,20,36843.894392409,0
22,21,41947.9951327396,0.00100000000020373
22,22,45859.2251596756,0
22,23,103492.668346672,0.00100000000020373
22,24,26004.6051662388,0
22,25,36298.9564840787,0.00100000000020373
22,26,31934.5327261101,0
22,27,25433.646012787,0
22,28,25876.3334248535,0.00100000000020373
22,29,51670.8535924105,0
22,30,35186.6433021931,0.00100000000020373
23,1,73192.1091042175,0
23,2,69052.4080250903,0
23,3,134076.541385498,0.00100000000020373
23,4,79082.3713067592,0
23,5,60535.2511037972,0.00100000000020373
23,6,60780.4632691501,0
23,7,46716.0198577098,0.00100000000020373
23,8,52574.0695760414,0
23,9,84088.5904854754,0
23,10,49598.5123809977,0.00100000000020373
23,11,46308.6522257051,0
23,12,49234.673717009,0.000999999996565748
23,13,44227.0423044628,0
23,14,46716.2014864365,0
23,15,47470.8015543855,0.00100000000020373
23,16,52951.4801610512,0
23,17,58917.6973124161,0.00100000000020373
23,18,36577.0864688183,0
23,19,52733.1567854764,0.00100000000020373
23,20,49700.1283148797,0
23,21,50512.7057776141,0
23,22,54830.5206729273,0.00100000000020373
23,23,105475.814621676,0
23,24,28741.9830392147,0.00100000000020373
23,25,41528.9595657427,0
23,26,46896.6083336239,0
23,27,33492.8414942977,0.00100000000020373
23,28,45660.7111148571,0
23,29,55330.9130278491,0.00100000000020373
23,30,48515.8928923372,0
24,1,54905.8397655536,0
24,2,54401.3548958019,0
24,3,114490.298503081,0
24,4,63898.177771664,0.00100000000020373
24,5,50132.036408093,0
24,6,51700.3939342782,0.00100000000020373
24,7,34648.2481075883,0
24,8,30168.2099753442,0
24,9,64158.953618477,0.00100000000020373
24,10,36879.5140878962,0
24,11,39236.4017681579,0.00100000000020373
24,12,44064.4882136312,0
24,13,35302.0295426915,0
24,14,34817.2655913314,0
24,15,46208.4894135706,0
24,16,42662.5986199662,0.00100000000020373
24,17,43064.2284413183,0
24,18,36605.8331625544,0.00399999999717693
24,19,39768.1984892852,0.00100000000020373
24,20,32694.2927080912,0
24,21,37977.3367102563,0.00100000000020373
24,22,38622.0705822445,0
24,23,91765.3365079038,0.00100000000020373
24,24,30563.1273810002,0
24,25,32949.6938234758,0
24,26,40007.2677528863,0
24,27,28579.9789078321,0
24,28,35982.6124296297,0.00100000000020373
24,29,41515.7119124876,0
24,30,38724.1429172245,0.00100000000020373
25,1,69508.3428806647,0
25,2,74922.6653511212,0
25,3,132133.040426549,0.00100000000020373
25,4,78665.6990408725,0
25,5,61994.2054342187,0.00100000000020373
25,6,64413.122157974,0
25,7,28969.6953968676,0
25,8,49221.2711283211,0
25,9,80812.103440716,0
25,10,47180.2290973809,0.00100000000020373
25,11,30080.1906937053,0
25,12,47973.3479416831,0.00100000000020373
25,13,36819.0777416661,0
25,14,45436.6401707851,0
25,15,34375.8311166043,0.00100000000020373
25,16,51955.1922138115,0
25,17,47891.0868773588,0.00100000000020373
25,18,45659.8918884929,0
25,19,45329.5138211359,0
25,20,39894.1335835705,0
25,21,39368.6142922473,0
25,22,43731.6655341869,0.00100000000020373
25,23,107262.145827654,0
25,24,23026.3940338204,0.00100000000020373
25,25,31928.9762445735,0
25,26,35988.3751410497,0
25,27,34211.4004209231,0.00100000000020373
25,28,36373.1674933966,0
25,29,54207.1410988002,0.000999999996565748
25,30,35396.2955276751,0
26,1,64628.3638749509,0
26,2,72727.0118943486,0
26,3,133225.700105866,0
26,4,78483.6870498075,0.00100000000020373
26,5,58810.2326888356,0
26,6,55004.6520359258,0.00100000000020373
26,7,31778.6295167218,0
26,8,48422.3918160961,0
26,9,77468.4288878484,0.00100000000020373
26,10,40203.0974644675,0
26,11,33974.0304591806,0.00100000000020373
26,12,34982.8319277741,0
26,13,35709.2152130644,0.00100000000020373
26,14,49429.3982996859,0
26,15,25486.8588326558,0
26,16,48645.2987504648,0.00100000000020373
26,17,39603.2236199378,0
26,18,40404.5494813994,0.00100000000020373
26,19,39342.7503650545,0
26,20,36767.9918585144,0
26,21,35985.6353377427,0.00100000000020373
26,22,40446.7488887264,0
26,23,111056.597735476,0.00100000000020373
26,24,19239.7161204288,0
26,25,31193.7840874986,0.00100000000020373
26,26,25085.9956628958,0
26,27,27572.0329550671,0
26,28,24128.7321823044,0.00100000000020373
26,29,55481.2634877159,0
26,30,23937.7784164297,0.00100000000020373
27,1,81856.9494349603,0
27,2,90921.3820599776,0
27,3,150046.830098223,0.00100000000020373
27,4,96078.5892968867,0
27,5,74252.9147902714,0.00100000000020373
27,6,75933.3591301443,0
27,7,40543.8427170041,0
27,8,65005.9787706822,0
27,9,95258.9247499157,0
27,10,59200.9012305291,0.00100000000020373
27,11,31674.1512053805,0
27,12,50481.7385343002,0.000999999996565748
27,13,48092.2255459996,0
27,14,66238.2998162335,0
27,15,38084.842848803,0.00100000000020373
27,16,70246.8846827094,0
27,17,59771.3567469365,0.00100000000020373
27,18,56786.2191339439,0
27,19,49752.8807630717,0
27,20,51321.5941405737,0
27,21,46168.08841435,0
27,22,55723.1227533011,0.00100000000020373
27,23,124739.692549489,0
27,24,34440.8963622186,0.00100000000020373
27,25,42085.3968880445,0
27,26,38842.0404147746,0
27,27,44365.0409292008,0.00100000000020373
27,28,41523.062631335,0
27,29,71507.7800340856,0.00100000000020373
27,30,43516.4317900546,0
28,1,85484.0038724891,0
28,2,89527.2726416991,0
28,3,146698.618829208,0
28,4,92795.6474340531,0.00100000000020373
28,5,77336.5548475241,0
28,6,74162.4419344775,0.00100000000020373
28,7,46285.3946034745,0
28,8,68726.2505885305,0
28,9,94346.4295701419,0.00100000000020373
28,10,59877.77966442,0
28,11,46500.5319748556,0.00100000000020373
28,12,52150.9682997008,0
28,13,53239.5861406063,0
28,14,62559.2139576043,0
28,15,32792.9427712077,0
28,16,58580.0762560961,0.00100000000020373
28,17,51692.3612419475,0
28,18,56852.0286319433,0.00100000000020373
28,19,59943.2209483115,0
28,20,58585.3390734696,0
28,21,53020.2664190843,0.00100000000020373
28,22,54263.1534414419,0
28,23,128350.446716079,0.00100000000020373
28,24,32684.1394070334,0
28,25,48048.1636952524,0
28,26,39055.256187441,0
28,27,45784.4172325143,0
28,28,42175.426296069,0.00100000000020373
28,29,71092.8879697791,0
28,30,32427.6208967329,0.00100000000020373
29,1,54585.8054588264,0
29,2,63614.1047513384,0
29,3,119764.624755167,0.00100000000020373
29,4,68068.0043748453,0
29,5,52192.6617980514,0.00100000000020373
29,6,49179.263043815,0
29,7,29661.5438097319,0
29,8,45323.8664345008,0.00100000000020373
29,9,64699.5400967747,0
29,10,32219.7326634075,0.00100000000020373
29,11,34237.2319600857,0
29,12,29916.0113234425,0
29,13,23010.4297632173,0
29,14,41375.5186802468,0
29,15,33934.3264739468,0.00100000000020373
29,16,40447.651144746,0
29,17,35228.2196826428,0.00100000000020373
29,18,41737.4405068907,0
29,19,33480.8472016328,0
29,20,33341.9086023913,0.00100000000020373
29,21,22955.8996636205,0
29,22,27008.0219183899,0.00100000000020373
29,23,97194.3632671337,0
29,24,29829.0667544571,0
29,25,29087.6310619333,0
29,26,22521.8518014841,0
29,27,25961.3665358883,0.00100000000020373
29,28,22533.5015545813,0
29,29,44790.2774339891,0.00100000000020373
29,30,32558.4899292818,0
30,1,48733.1006406881,0
30,2,50152.1208271797,0.00100000000020373
30,3,105875.028862991,0
30,4,51652.1782286824,0.00100000000020373
30,5,47216.6051914525,0
30,6,38133.7500389824,0
30,7,36836.8782372227,0
30,8,38991.3259213646,0
30,9,56714.0692421635,0.000999999996565748
30,10,32411.1359146267,0
30,11,52969.7377459324,0.00100000000020373
30,12,36226.120296717,0
30,13,35114.9009664964,0
30,14,27312.7090729562,0.00100000000020373
30,15,46989.2683335267,0
30,16,22101.2199520003,0.00100000000020373
30,17,26687.9983929616,0
30,18,33004.9613512008,0
30,19,45370.3163801464,0
30,20,35002.0348350633,0
30,21,37522.9851691646,0.00100000000020373
30,22,33064.1580988336,0
30,23,87509.4011505712,0.00100000000020373
30,24,32626.1742350592,0
30,25,37345.5518513277,0
30,26,34075.7416134918,0.00100000000020373
30,27,30008.5714705226,0
30,28,31368.8247420305,0.00100000000020373
30,29,34317.044183539,0
30,30,36512.0102126525,0
