"Before.Trace.ID1","Before.Trace.ID2","Difference","Runtime"
1,2,1301.82015603465,0.00100000000020373
1,3,2174.61563793267,0
1,4,1233.44148215404,0.00100000000020373
1,5,1508.9047300419,0.00100000000020373
1,6,1096.19557218125,0
1,7,1494.32771417193,0.00100000000020373
1,8,1176.0555939436,0.00100000000020373
1,9,838.286805953924,0
1,10,973.091246935951,0.00100000000020373
1,11,1833.38577600584,0.00100000000020373
1,12,1278.15470060279,0
1,13,1251.80734979984,0.00100000000020373
1,14,1478.80775829528,0
1,15,1947.13454511313,0
1,16,1606.92276285934,0.00400000000081491
1,17,1478.95063172979,0.000999999996565748
1,18,1567.76799426814,0.00100000000020373
1,19,1101.56089929842,0
1,20,1179.94424074552,0.00100000000020373
1,21,1149.2526503854,0
1,22,1208.67154301206,0
1,23,1892.01202181589,0.00100000000020373
1,24,1754.77616273901,0
1,25,1279.7863514432,0.00100000000020373
1,26,1386.7994766764,0.00100000000020373
1,27,1390.53217246824,0
1,28,1325.39141680646,0.00100000000020373
1,29,1263.34777898395,0.00100000000020373
1,30,1790.19028899441,0
2,3,2244.54807189965,0.00100000000020373
2,4,1558.1540977316,0
2,5,1190.17284192709,0.00100000000020373
2,6,1315.85941937303,0.00100000000020373
2,7,1968.44177800376,0
2,8,1198.64852626183,0.00100000000020373
2,9,1326.31442332389,0
2,10,1338.86177660585,0
2,11,1943.61619843648,0.00100000000020373
2,12,1458.25744651088,0
2,13,1516.11583143663,0.00100000000020373
2,14,1278.78723510057,0.00100000000020373
2,15,2103.00458967812,0
2,16,1372.65928170538,0.00100000000020373
2,17,1645.19536224511,0
2,18,1419.26715389374,0
2,19,1580.40162017811,0.00100000000020373
2,20,1442.1519201663,0
2,21,1593.17668494471,0.00100000000020373
2,22,1511.44888517881,0.00100000000020373
2,23,1628.49204713289,0
2,24,1785.13456550368,0.00100000000020373
2,25,1781.25104541452,0
2,26,1841.0341833562,0
2,27,1398.43123148499,0.00100000000020373
2,28,1513.86455143075,0
2,29,1044.94864098159,0.00100000000020373
2,30,1925.75854830722,0.00100000000020373
3,4,1706.35390659854,0
3,5,2859.83298832009,0.00100000000020373
3,6,2642.36817530257,0
3,7,2839.11262024549,0
3,8,2609.61368152635,0.00100000000020373
3,9,1651.98851557748,0
3,10,2578.02876606709,0.00100000000020373
3,11,3350.43830145978,0.00100000000020373
3,12,3067.04216115763,0
3,13,2690.92365177902,0.00100000000020373
3,14,2417.56551926313,0
3,15,3453.1723603387,0
3,16,2445.63807183669,0.00100000000020373
3,17,2655.92388571071,0
3,18,3114.41694656578,0.00100000000020373
3,19,2925.75644024999,0.000999999996565748
3,20,2809.81759224447,0
3,21,2689.26614868597,0.00100000000020373
3,22,2448.72384628101,0.00100000000020373
3,23,1808.65677873002,0
3,24,3262.77907657639,0.00100000000020373
3,25,2912.24029548875,0
3,26,3015.46133372085,0.00100000000020373
3,27,2992.92054830162,0.00100000000020373
3,28,2999.04785836966,0
3,29,2238.46811064821,0.00100000000020373
3,30,3139.82462730111,0.00100000000020373
4,5,2017.33952819107,0
4,6,1394.53522763074,0.00100000000020373
4,7,1622.82145305973,0.00100000000020373
4,8,1665.8894323997,0
4,9,1059.1131110397,0.00100000000020373
4,10,1361.3128701241,0.00100000000020373
4,11,2341.95141283139,0
4,12,1851.02998796941,0.00100000000020373
4,13,1553.38117679232,0.00100000000020373
4,14,1291.63161201273,0
4,15,2258.44619069072,0.00100000000020373
4,16,1338.5756378963,0
4,17,1583.80349223919,0
4,18,1817.08288305986,0.00100000000020373
4,19,1869.47084067021,0
4,20,1776.69513455915,0.000999999996565748
4,21,1594.45847681403,0.00100000000020373
4,22,1456.83769694191,0
4,23,1935.06991165186,0.00100000000020373
4,24,1918.72489025691,0.00100000000020373
4,25,1549.20650727542,0
4,26,1693.39392036862,0.00100000000020373
4,27,1727.18369258618,0
4,28,1818.30969756256,0
4,29,1300.09015095661,0.00100000000020373
4,30,1955.79030524263,0
5,6,1416.07164512445,0.00100000000020373
5,7,1907.84269281758,0.00100000000020373
5,8,1405.84720975181,0
5,9,1790.17013369729,0.00100000000020373
5,10,1453.27150310113,0.00100000000020373
5,11,1716.65555435411,0
5,12,1355.67029638399,0.00100000000020373
5,13,1439.42610102307,0.00100000000020373
5,14,1478.4971886313,0
5,15,1795.32162959547,0.00100000000020373
5,16,1597.32382390277,0
5,17,1623.99690647408,0.00100000000020373
5,18,1497.78388656963,0.00100000000020373
5,19,1482.16276642171,0
5,20,1355.60229088898,0.00100000000020373
5,21,1568.3148013383,0.00100000000020373
5,22,1549.63789395079,0
5,23,1994.9020348644,0.000999999996565748
5,24,1655.29014058869,0.00100000000020373
5,25,1718.34073618121,0
5,26,1772.36842664308,0.00400000000081491
5,27,1446.07724830158,0
5,28,1370.48061805167,0.00100000000020373
5,29,1316.80674929202,0
5,30,1894.48703743688,0
6,7,1639.59587393608,0.00100000000020373
6,8,1501.31586524672,0
6,9,1447.49854406693,0.00100000000020373
6,10,954.344241375452,0.00100000000020373
6,11,2070.92613525099,0
6,12,1072.57001056598,0.00100000000020373
6,13,1332.39543881798,0
6,14,1455.17113929502,0
6,15,1797.88121665724,0.00100000000020373
6,16,1363.58644227886,0
6,17,1475.14158423217,0.00100000000020373
6,18,1197.60165553113,0.00100000000020373
6,19,1388.28913358956,0
6,20,1452.34628711701,0.00100000000020373
6,21,1421.77691005612,0.000999999996565748
6,22,1369.86184572019,0
6,23,2278.67616952012,0.00100000000020373
6,24,1487.99029544601,0
6,25,1323.37833890399,0.00100000000020373
6,26,1339.95562637253,0.00100000000020373
6,27,1241.68698522686,0
6,28,1275.79649679799,0.00100000000020373
6,29,1324.96188215381,0
6,30,1615.55664545942,0
7,8,1442.44975060784,0.00100000000020373
7,9,1708.91007428647,0
7,10,1090.99748849994,0.00100000000020373
7,11,1296.13575229317,0.00100000000020373
7,12,1449.81386826385,0
7,13,922.491646449079,0.00100000000020373
7,14,1286.22729948576,0
7,15,1335.98292037642,0
7,16,1443.82345836017,0.00100000000020373
7,17,1275.41580748074,0
7,18,1532.83171647088,0.00100000000020373
7,19,1274.40588160369,0.00100000000020373
7,20,1155.09409624143,0
7,21,856.350603061735,0.00100000000020373
7,22,934.751235854801,0
7,23,2515.62235763349,0.00100000000020373
7,24,1076.56699646052,0.00100000000020373
7,25,836.928868028755,0
7,26,954.261190951312,0.00100000000020373
7,27,1163.6936815652,0.000999999996565748
7,28,1128.46618204971,0
7,29,1290.36342491793,0.00100000000020373
7,30,1175.0004871894,0
8,9,1359.8305303268,0
8,10,1169.60898950026,0.00100000000020373
8,11,1302.43962911397,0
8,12,1340.70281609641,0.00100000000020373
8,13,1279.14377404647,0.00100000000020373
8,14,1180.38303507398,0
8,15,1579.70805468471,0.00100000000020373
8,16,1489.98623480504,0
8,17,1335.25643286654,0
8,18,1326.8758892749,0.00100000000020373
8,19,1111.25580532876,0
8,20,722.350229888422,0.00100000000020373
8,21,1228.02548699939,0.00100000000020373
8,22,1298.02300198261,0
8,23,2181.36611523641,0.00100000000020373
8,24,1297.80984762796,0.00100000000020373
8,25,1228.05302501792,0
8,26,1357.69252815597,0.00100000000020373
8,27,1036.75905679922,0.00100000000020373
8,28,1137.67846713507,0
8,29,1258.35578230703,0.00100000000020373
8,30,1461.06577586426,0.00100000000020373
9,10,1207.17973702628,0
9,11,2070.17343198626,0.00100000000020373
9,12,1678.56181359522,0
9,13,1473.92933915912,0.000999999996565748
9,14,1495.22708656865,0.00100000000020373
9,15,2147.33447647806,0
9,16,1559.93501173732,0.00100000000020373
9,17,1503.73100014306,0.00100000000020373
9,18,1886.05027720862,0
9,19,1474.41892984943,0.00100000000020373
9,20,1496.34371939213,0.00100000000020373
9,21,1371.10046721338,0
9,22,1239.0591820659,0.00100000000020373
9,23,1768.91716748432,0
9,24,2024.24790452177,0
9,25,1552.4756837025,0.00100000000020373
9,26,1677.47053091332,0
9,27,1660.31640883665,0.00100000000020373
9,28,1647.86392222547,0.00100000000020373
9,29,1296.40257711687,0
9,30,1870.76577371504,0.00100000000020373
10,11,1514.80404373646,0.00100000000020373
10,12,974.573038510813,0
10,13,860.200887856296,0.00100000000020373
10,14,1192.79016541178,0
10,15,1424.22478003694,0
10,16,1211.52100736373,0.00100000000020373
10,17,1272.10352145776,0
10,18,1054.33175597706,0.00100000000020373
10,19,902.089515294721,0.00100000000020373
10,20,1061.92124382009,0
10,21,860.775626615858,0.000999999996565748
10,22,938.696954781413,0.00100000000020373
10,23,2166.66211156667,0
10,24,1129.91365996104,0.00100000000020373
10,25,899.548740253671,0.00100000000020373
10,26,977.861814830912,0
10,27,836.723034171588,0.00100000000020373
10,28,954.049640825785,0
10,29,1030.71839469742,0.00100000000020373
10,30,1212.49357481271,0.00100000000020373
11,12,1425.94415726614,0.00400000000081491
11,13,1126.74393526762,0.00100000000020373
11,14,1511.3990062796,0
11,15,1281.871815497,0.00100000000020373
11,16,1830.88137235683,0
11,17,1567.2818964869,0
11,18,1715.7883707902,0.00100000000020373
11,19,1157.49790062977,0
11,20,1004.78793796003,0.00100000000020373
11,21,1052.4985590469,0.00100000000020373
11,22,1293.66422655084,0
11,23,2676.76333232921,0.00100000000020373
11,24,1239.17614648489,0
11,25,1268.0423985255,0
11,26,1315.87188303587,0.00100000000020373
11,27,1153.6902962489,0
11,28,1091.90372757082,0.00100000000020373
11,29,1580.16056717832,0.00100000000020373
11,30,1466.73700249374,0
12,13,1124.37286012778,0.00100000000020373
12,14,1446.59183207196,0
12,15,1445.49794907462,0
12,16,1416.81633332423,0.00100000000020373
12,17,1259.97031537998,0
12,18,1092.6719442404,0.00100000000020373
12,19,1009.67458702542,0.00100000000020373
12,20,1138.33342360376,0
12,21,1032.92543867677,0.00100000000020373
12,22,1173.86062345385,0
12,23,2563.90432934973,0
12,24,1155.93405475701,0.00100000000020373
12,25,1170.18114376045,0
12,26,895.700902977538,0.00100000000020373
12,27,862.560213897423,0.00100000000020373
12,28,703.331950689515,0
12,29,1345.90856936247,0.00100000000020373
12,30,1367.64029456905,0
13,14,1050.71766117618,0.00100000000020373
13,15,1271.78008322827,0.00100000000020373
13,16,1267.00040936713,0
13,17,1306.7863313904,0.000999999996565748
13,18,1391.08975807795,0.00100000000020373
13,19,990.330736049593,0
13,20,1006.93580926439,0.00100000000020373
13,21,608.427301486508,0
13,22,758.642265251034,0.00100000000020373
13,23,2100.35919170731,0.00100000000020373
13,24,1091.96559499047,0
13,25,829.364188218455,0.00100000000020373
13,26,987.283443095627,0.00100000000020373
13,27,891.85289737032,0
13,28,922.281084612216,0.00100000000020373
13,29,975.985452406145,0
13,30,1316.99721477408,0.00100000000020373
14,15,1562.83290513638,0.00100000000020373
14,16,801.529231254416,0
14,17,1176.96216924691,0.00100000000020373
14,18,1360.10284206506,0.00100000000020373
14,19,1530.37265655482,0
14,20,1180.08139664543,0.00100000000020373
14,21,1217.76011143827,0
14,22,1084.53437326527,0
14,23,1985.75557751252,0.00100000000020373
14,24,1166.60049707225,0
14,25,1239.01860735572,0.00100000000020373
14,26,1330.78666425363,0.00100000000020373
14,27,1095.7248228334,0
14,28,1227.16099603267,0.00100000000020373
14,29,884.521470503315,0.000999999996565748
14,30,1465.75378290513,0
15,16,1498.5745982862,0.00100000000020373
15,17,1293.33330813584,0.00100000000020373
15,18,1596.93031230714,0
15,19,1413.41829274339,0.00100000000020373
15,20,1277.54015068173,0
15,21,1340.78279176564,0
15,22,1326.5369921957,0.00100000000020373
15,23,3018.67545392973,0
15,24,964.038842148682,0.00100000000020373
15,25,1212.8828205795,0.00100000000020373
15,26,1182.17772696222,0
15,27,1165.67250027714,0.00100000000020373
15,28,1074.88902054726,0.00100000000020373
15,29,1695.83724312397,0
15,30,883.469004531843,0.00100000000020373
16,17,980.847628333911,0.00100000000020373
16,18,1421.29018643431,0
16,19,1741.81912370416,0.00100000000020373
16,20,1473.39822776381,0
16,21,1421.81936469076,0
16,22,1117.86571531745,0.00100000000020373
16,23,2228.47826816979,0
16,24,1245.28117743838,0.00100000000020373
16,25,1481.77546643058,0.00100000000020373
16,26,1364.22576886479,0
16,27,1234.91493275804,0.00100000000020373
16,28,1255.25322289203,0.000999999996565748
16,29,959.356040833704,0
16,30,1282.18150760757,0.00100000000020373
17,18,1623.32399649258,0
17,19,1473.70554572534,0
17,20,1180.990935458,0.00100000000020373
17,21,1209.33202591468,0
17,22,944.817431117825,0.00100000000020373
17,23,2574.77999298879,0.00100000000020373
17,24,1277.37468888832,0
17,25,1317.68215139442,0.00100000000020373
17,26,1111.01642152609,0.00100000000020373
17,27,1280.39241624998,0
17,28,970.253216319433,0.00100000000020373
17,29,1257.27254106162,0
17,30,965.677539189711,0
18,19,1377.17092773627,0.00100000000020373
18,20,1312.52111723605,0
18,21,1441.92833554432,0.00100000000020373
18,22,1571.66400041134,0.00100000000020373
18,23,2542.36857715041,0.00400000000081491
18,24,973.928257437812,0
18,25,1302.12725623881,0
18,26,1265.41373888333,0.000999999996565748
18,27,845.093003712644,0
18,28,1178.79408225824,0.00100000000020373
18,29,1429.90202167243,0.00100000000020373
18,30,1465.88226212297,0
19,20,868.598237424612,0.00100000000020373
19,21,775.018023525165,0.00100000000020373
19,22,1106.72198630964,0
19,23,2414.10752915476,0.00100000000020373
19,24,1334.0394081477,0
19,25,931.861990006375,0.00100000000020373
19,26,1050.13871513771,0.00100000000020373
19,27,970.87101995419,0
19,28,947.673553188715,0.00100000000020373
19,29,1412.86360299191,0.00100000000020373
19,30,1417.24929906243,0
20,21,894.331765438616,0.00100000000020373
20,22,1066.20770314377,0
20,23,2259.47587704617,0.00100000000020373
20,24,1098.16725958997,0.00100000000020373
20,25,1058.04584563234,0
20,26,1088.08527976032,0.00100000000020373
20,27,862.487518796692,0
20,28,870.814140350926,0
20,29,1242.50206395117,0.00100000000020373
20,30,1294.63928364726,0
21,22,679.041723955257,0.00100000000020373
21,23,2258.03719163006,0.00100000000020373
21,24,1196.89651792664,0
21,25,806.390169247518,0.000999999996565748
21,26,827.042607899138,0
21,27,943.040187648946,0
21,28,859.696181932649,0.00100000000020373
21,29,1128.66032912963,0
21,30,1284.56947031895,0.00100000000020373
22,23,2165.08367938782,0.00100000000020373
22,24,1267.95917898242,0
22,25,979.777150592785,0.00100000000020373
22,26,988.340255007319,0
22,27,1113.37177512453,0.00100000000020373
22,28,923.414948033053,0.00100000000020373
22,29,975.483772064244,0
22,30,1125.87572064466,0.00100000000020373
23,24,2772.59094231279,0.00100000000020373
23,25,2550.82212565491,0
23,26,2756.70131716605,0.00100000000020373
23,27,2454.56248665679,0
23,28,2544.82019148637,0.00100000000020373
23,29,1634.80178735529,0.00100000000020373
23,30,2942.86789070023,0
24,25,990.13090421578,0.00100000000020373
24,26,924.671322403975,0.00100000000020373
24,27,703.346622219896,0
24,28,887.503587965281,0.00100000000020373
24,29,1384.23818519252,0
24,30,959.526406895686,0.00100000000020373
25,26,772.549762187631,0.00100000000020373
25,27,913.13012904028,0
25,28,979.861002990918,0.000999999996565748
25,29,1356.13489016409,0.00100000000020373
25,30,1168.10699624462,0
26,27,910.029624351744,0.00100000000020373
26,28,710.741538074336,0.00100000000020373
26,29,1453.92921883789,0
26,30,1055.84148749406,0.00100000000020373
27,28,797.227538141,0
27,29,1195.45187495409,0
27,30,1144.57415887825,0.00100000000020373
28,29,1224.65144950013,0
28,30,981.531255282908,0.00100000000020373
29,30,1517.18258719904,0.00100000000020373


"After.Trace.ID","Before.Trace.ID","Difference","Runtime"
1,1,1861.34821633839,0.00100000000020373
1,2,1867.55088324053,0.00100000000020373
1,3,3022.41521784916,0
1,4,2046.71991741298,0
1,5,1822.9266547488,0.00100000000020373
1,6,1926.75724439081,0
1,7,1263.46609037982,0.00100000000020373
1,8,1321.15288162809,0.00100000000020373
1,9,1855.69811315431,0
1,10,1428.53404109241,0.00100000000020373
1,11,1198.6799471298,0.000999999996565748
1,12,1517.24641484833,0
1,13,1310.30479090851,0.00100000000020373
1,14,1312.0919700833,0.00100000000020373
1,15,1014.23020010393,0
1,16,1239.01915872091,0.00100000000020373
1,17,915.927466329865,0.00100000000020373
1,18,1719.08315678673,0
1,19,1516.91987675004,0.00400000000081491
1,20,1200.53700946706,0.00100000000020373
1,21,1274.19440560588,0.00100000000020373
1,22,1109.78064612465,0
1,23,2748.67369221366,0.00100000000020373
1,24,1144.64013740129,0
1,25,1396.47268333454,0
1,26,1254.89606543043,0.00100000000020373
1,27,1259.45610509602,0
1,28,1043.63861509385,0.00100000000020373
1,29,1422.48598935581,0.00100000000020373
1,30,833.793650299326,0
2,1,1475.23937618408,0.00100000000020373
2,2,2042.22388537495,0
2,3,2654.3489020773,0
2,4,1700.63098549365,0.000999999996565748
2,5,2245.89944327491,0
2,6,1996.76675403254,0.00100000000020373
2,7,1148.39981470279,0.00100000000020373
2,8,1385.86926204047,0
2,9,1546.74750221245,0.00100000000020373
2,10,1447.42069587715,0
2,11,1447.78840351446,0
2,12,1724.01466229129,0.00100000000020373
2,13,1314.2613613055,0
2,14,1610.21602496547,0.00100000000020373
2,15,1898.83076417493,0.00100000000020373
2,16,1943.75129688257,0
2,17,1665.81889751341,0.00100000000020373
2,18,1936.53532392756,0
2,19,1303.82915170194,0
2,20,1368.06390809346,0.00100000000020373
2,21,1066.84469540962,0
2,22,1283.75994036147,0.00100000000020373
2,23,2622.28674011241,0.00100000000020373
2,24,1662.90262296516,0
2,25,1120.81954683571,0.00100000000020373
2,26,1273.19072648375,0.00100000000020373
2,27,1495.65329310178,0
2,28,1496.60623561482,0.00100000000020373
2,29,1685.81924741588,0
2,30,1680.32659264298,0.00100000000020373
3,1,1450.7957907945,0.00100000000020373
3,2,1443.49790218414,0
3,3,2869.678176624,0.000999999996565748
3,4,1625.46624264214,0.00100000000020373
3,5,1425.49928718903,0
3,6,1308.12498809985,0.00100000000020373
3,7,1226.59377929536,0
3,8,935.148995729806,0.00100000000020373
3,9,1662.11825301723,0.00100000000020373
3,10,1024.71837468575,0
3,11,1424.80561255265,0.00100000000020373
3,12,1331.47824896344,0.00100000000020373
3,13,1109.12749736054,0
3,14,1014.93612659916,0.00100000000020373
3,15,1158.28938945614,0
3,16,1202.72303303739,0
3,17,1304.78288253236,0.00100000000020373
3,18,1002.712612898,0
3,19,1267.30888375444,0.00100000000020373
3,20,996.176981525995,0.00100000000020373
3,21,1278.9171064234,0
3,22,1257.97221867643,0.00100000000020373
3,23,2387.16176010107,0.00100000000020373
3,24,825.91442182525,0
3,25,970.732537399343,0.00100000000020373
3,26,1235.19505427474,0.00100000000020373
3,27,839.315609702572,0
3,28,1121.82059989105,0.00100000000020373
3,29,1219.46772399726,0
3,30,1144.79624344555,0
4,1,1579.3879005662,0.000999999996565748
4,2,1749.40564744811,0
4,3,3194.49300027435,0.00100000000020373
4,4,1928.25763001896,0.00100000000020373
4,5,1578.8010755471,0
4,6,1221.5818041596,0.00100000000020373
4,7,1349.69393329321,0.00100000000020373
4,8,1337.18990487421,0
4,9,1858.89686880528,0.00100000000020373
4,10,1136.0808731635,0.00100000000020373
4,11,1539.34483872801,0
4,12,948.519224492538,0.00100000000020373
4,13,1323.93838143955,0.00100000000020373
4,14,1486.81981279014,0
4,15,1097.9915014396,0.00100000000020373
4,16,1352.74153475326,0
4,17,1042.02865158434,0
4,18,1187.79840893688,0.00100000000020373
4,19,1306.72674724275,0
4,20,1201.82286146711,0.00100000000020373
4,21,1292.1676248612,0.00100000000020373
4,22,1251.03224663755,0
4,23,2888.73528843074,0.00100000000020373
4,24,928.678182727287,0.00100000000020373
4,25,1147.36685203787,0
4,26,898.681212669475,0.00100000000020373
4,27,1036.19308061013,0
4,28,767.759988804507,0
4,29,1525.75126330351,0.000999999996565748
4,30,863.166894553514,0
5,1,1389.50150917214,0.00100000000020373
5,2,1945.28146982035,0.00100000000020373
5,3,2848.39891674546,0
5,4,1990.03014276346,0.00100000000020373
5,5,1830.58685190068,0.00100000000020373
5,6,1857.26852664831,0
5,7,1219.79191858531,0.00100000000020373
5,8,1291.84935104506,0.00100000000020373
5,9,1572.60744877877,0
5,10,1380.26068295277,0.00100000000020373
5,11,1230.20743929929,0
5,12,1449.95833855062,0.00100000000020373
5,13,1326.34765478958,0.00100000000020373
5,14,1643.34109653739,0.00400000000081491
5,15,1425.51063077574,0.00100000000020373
5,16,1733.4376866891,0
5,17,1129.74294669289,0.00100000000020373
5,18,1904.23161934493,0.00100000000020373
5,19,1123.47101229745,0
5,20,942.05245217911,0.000999999996565748
5,21,1021.58733889663,0
5,22,1086.21091764936,0
5,23,2597.43299436438,0.00100000000020373
5,24,1544.19717828579,0
5,25,1332.10398089513,0.00100000000020373
5,26,1209.28979649392,0.00100000000020373
5,27,1441.87637074818,0
5,28,1085.21835909412,0.00100000000020373
5,29,1544.02108083393,0.00100000000020373
5,30,1320.79742970269,0
6,1,1362.35198920156,0.00100000000020373
6,2,1714.92723103165,0
6,3,2862.35989342362,0.00100000000020373
6,4,1559.31668862282,0.00100000000020373
6,5,1696.33675341968,0
6,6,1153.07772382854,0.00100000000020373
6,7,1011.65814043299,0.00100000000020373
6,8,1462.57770642376,0
6,9,1522.18377489984,0.00100000000020373
6,10,719.560379662909,0
6,11,1530.60540196915,0.00100000000020373
6,12,1030.39787574475,0.00100000000020373
6,13,942.10927539943,0
6,14,1285.78747850456,0.00100000000020373
6,15,1140.55165218277,0.00100000000020373
6,16,1170.15882001089,0
6,17,1072.23005991532,0.00100000000020373
6,18,1230.89201000901,0
6,19,1098.56243021629,0.000999999996565748
6,20,1246.94052961585,0.00100000000020373
6,21,937.515654513705,0
6,22,868.502660202939,0.00100000000020373
6,23,2583.91705578233,0.00100000000020373
6,24,1039.44735305117,0
6,25,855.963739964516,0.00100000000020373
6,26,787.566846573373,0
6,27,948.74216198516,0.00100000000020373
6,28,919.220126238401,0.00100000000020373
6,29,1287.74081175358,0
6,30,900.719165735028,0.00100000000020373
7,1,1809.26173816315,0.00100000000020373
7,2,1821.18823942665,0
7,3,3221.95774523626,0.00100000000020373
7,4,2065.80401849739,0
7,5,1665.85247174102,0.00100000000020373
7,6,1685.40316918008,0.00100000000020373
7,7,1213.11181716994,0
7,8,1410.1752530981,0.00100000000020373
7,9,1935.19995369515,0.00100000000020373
7,10,1271.72464762801,0
7,11,1010.56590441036,0.00100000000020373
7,12,1162.44632234636,0
7,13,1011.43151158143,0
7,14,1292.31582771955,0.00100000000020373
7,15,753.830106675507,0
7,16,1291.21702944476,0.00100000000020373
7,17,1105.55651354607,0.000999999996565748
7,18,1488.25307387345,0
7,19,1254.77941709867,0.00100000000020373
7,20,1155.9736662499,0.00100000000020373
7,21,1046.92983830877,0
7,22,1026.67260557029,0.00100000000020373
7,23,2802.7773580789,0.00100000000020373
7,24,865.973246922926,0
7,25,1103.18722647765,0.00100000000020373
7,26,963.610556605226,0.00100000000020373
7,27,922.952721866852,0
7,28,792.779367442373,0.00100000000020373
7,29,1401.15647179902,0
7,30,860.039810883079,0
8,1,1285.56425036409,0.00100000000020373
8,2,1276.85698443996,0
8,3,2851.47467777117,0.00100000000020373
8,4,1606.47128234916,0.00100000000020373
8,5,1349.27653882109,0
8,6,1113.83446752119,0.00100000000020373
8,7,1263.83020550394,0.00100000000020373
8,8,933.476167257073,0
8,9,1524.2646772616,0.00100000000020373
8,10,868.140264155875,0.00100000000020373
8,11,1338.17535384845,0
8,12,911.009260312982,0.00100000000020373
8,13,1081.29259998049,0
8,14,1083.94583537568,0
8,15,1280.8477568766,0.000999999996565748
8,16,1177.30666455859,0
8,17,1137.96551430389,0.00100000000020373
8,18,958.276431635742,0.00100000000020373
8,19,1075.3260013926,0
8,20,1019.16487467558,0.00100000000020373
8,21,1080.27412344766,0.00100000000020373
8,22,1078.17247503915,0
8,23,2476.58390458934,0.00100000000020373
8,24,899.583827329316,0
8,25,929.721061948617,0
8,26,956.400475094587,0.00100000000020373
8,27,751.664359221783,0
8,28,801.39435756866,0.00100000000020373
8,29,1192.57801653092,0.00100000000020373
8,30,1069.77962619773,0
9,1,1788.21889526313,0.00100000000020373
9,2,1662.34519119039,0.00100000000020373
9,3,3275.83309393151,0
9,4,2211.03878364743,0.00100000000020373
9,5,1353.01086395377,0.00100000000020373
9,6,1606.19238275977,0
9,7,1497.12904212312,0.00100000000020373
9,8,1442.51799834588,0
9,9,2035.13981209145,0.00399999999717693
9,10,1394.55281900813,0
9,11,1176.59408765993,0.00100000000020373
9,12,1081.88931914448,0.00100000000020373
9,13,1267.5361267155,0
9,14,1438.82442479632,0.00100000000020373
9,15,1176.23482679758,0.00100000000020373
9,16,1383.35988676681,0
9,17,1102.18176962528,0.00100000000020373
9,18,1533.27237205485,0
9,19,1376.20051044394,0
9,20,1162.13423165149,0.00100000000020373
9,21,1273.12048425782,0
9,22,1218.62481012553,0.00100000000020373
9,23,2666.92535429389,0.00100000000020373
9,24,1160.10813110472,0
9,25,1488.05637297494,0.00100000000020373
9,26,1294.31401712226,0
9,27,1153.66716769686,0
9,28,825.935863870157,0.00100000000020373
9,29,1353.70872226879,0
9,30,1171.37491001874,0.00100000000020373
10,1,1555.8020840126,0.00100000000020373
10,2,1880.75650109441,0
10,3,3248.65291850807,0.00100000000020373
10,4,2122.93863205611,0
10,5,1544.93734074468,0
10,6,1713.02968365584,0.000999999996565748
10,7,1056.17365888875,0
10,8,1307.12404434623,0.00100000000020373
10,9,1961.55356427517,0.00100000000020373
10,10,1289.88633477466,0
10,11,741.645911290126,0.00100000000020373
10,12,1160.01269298942,0
10,13,966.191064406451,0
10,14,1471.75993883713,0.00100000000020373
10,15,1193.67649090053,0
10,16,1701.57730823085,0.00100000000020373
10,17,1416.91102510508,0.00100000000020373
10,18,1514.87670949792,0
10,19,954.442912525341,0.00100000000020373
10,20,839.753097955077,0
10,21,854.456386518785,0
10,22,1140.12444913227,0.00100000000020373
10,23,2589.31454137832,0
10,24,1088.67734891594,0.00100000000020373
10,25,1058.01013215561,0.00100000000020373
10,26,1015.92676520974,0
10,27,1053.54824366377,0.00100000000020373
10,28,867.913419263718,0
10,29,1449.60514250928,0
10,30,1364.11827330767,0.00100000000020373
11,1,1440.25318104446,0
11,2,1477.55594560607,0.00100000000020373
11,3,2763.50040113429,0.00100000000020373
11,4,1620.17375359015,0
11,5,1517.53745025529,0.000999999996565748
11,6,1505.11556161863,0.00100000000020373
11,7,969.994584163755,0
11,8,966.55228735403,0.00100000000020373
11,9,1567.82413000534,0
11,10,1060.02772143356,0.00100000000020373
11,11,1044.68828323321,0.00100000000020373
11,12,1179.49573653538,0
11,13,868.136134986806,0.00100000000020373
11,14,849.015332276275,0.00100000000020373
11,15,1015.92839542484,0
11,16,999.782651002277,0.00100000000020373
11,17,925.533887168599,0.00100000000020373
11,18,1298.03236166332,0
11,19,1176.07781263086,0.00100000000020373
11,20,771.296127880154,0.00100000000020373
11,21,904.259513938557,0
11,22,871.345378105913,0.00100000000020373
11,23,2362.2284916479,0
11,24,797.631406566153,0
11,25,984.957176157264,0.00100000000020373
11,26,946.176564102434,0
11,27,751.923143404822,0.00100000000020373
11,28,790.415126288572,0.00100000000020373
11,29,1053.69876927075,0
11,30,985.121232855823,0.00100000000020373
12,1,1315.34840208301,0.000999999996565748
12,2,1314.12293594901,0
12,3,2821.29932637972,0.00100000000020373
12,4,1608.11163017182,0.00100000000020373
12,5,1339.85612100425,0
12,6,1214.87668434754,0.00100000000020373
12,7,1158.3723846188,0
12,8,986.124743696302,0
12,9,1529.20487908182,0.00100000000020373
12,10,856.381259014301,0
12,11,1228.78100360541,0.00100000000020373
12,12,925.751916265066,0.00100000000020373
12,13,855.802508570488,0
12,14,961.749158201428,0.00100000000020373
12,15,1193.59831238133,0.00100000000020373
12,16,1145.06781261276,0
12,17,1201.94962912591,0.00100000000020373
12,18,906.376435485686,0.00100000000020373
12,19,969.424596966168,0
12,20,921.970778867231,0.00100000000020373
12,21,928.281650440561,0
12,22,973.486685314209,0
12,23,2343.02628761022,0.00100000000020373
12,24,822.185040490768,0
12,25,834.061399502759,0.00100000000020373
12,26,879.03559727878,0.00100000000020373
12,27,567.781698753357,0
12,28,767.018274848128,0.00100000000020373
12,29,1130.96308328122,0.000999999996565748
12,30,1134.49143033879,0
13,1,1843.80595963592,0.00100000000020373
13,2,1870.16117186963,0.00100000000020373
13,3,3472.21107223658,0
13,4,2273.36666683442,0.00100000000020373
13,5,1655.4545417996,0.00400000000081491
13,6,1625.52029726244,0.00100000000020373
13,7,1404.78876650741,0
13,8,1307.86856541998,0
13,9,2103.89399848819,0.00100000000020373
13,10,1275.14801198364,0
13,11,1296.36047031323,0.00100000000020373
13,12,1275.45653946203,0.00100000000020373
13,13,1411.44135709825,0
13,14,1619.39134222014,0.00100000000020373
13,15,1014.24971067685,0
13,16,1642.40423129965,0
13,17,1399.83989515862,0.00100000000020373
13,18,1244.1940972291,0
13,19,1254.36728623921,0.00100000000020373
13,20,1193.71302641565,0.00100000000020373
13,21,1404.67308002665,0
13,22,1463.23683094308,0.000999999996565748
13,23,2986.83563411966,0.00100000000020373
13,24,868.169634454145,0
13,25,1229.82477782754,0.00100000000020373
13,26,1215.67095288311,0
13,27,1027.4494463542,0.00100000000020373
13,28,982.654551639884,0.00100000000020373
13,29,1651.80590901267,0
13,30,890.169916908552,0.00100000000020373
14,1,1911.75592232405,0.00100000000020373
14,2,2052.53636412142,0
14,3,3448.83726726134,0.00100000000020373
14,4,2169.37526574077,0
14,5,1872.75701807272,0.00100000000020373
14,6,1803.54044930491,0.00100000000020373
14,7,1095.46583984011,0
14,8,1497.2040243666,0.00100000000020373
14,9,2155.2975930533,0.00100000000020373
14,10,1321.58544981891,0
14,11,1058.71952179833,0.00100000000020373
14,12,1321.35123426683,0
14,13,1093.13963343758,0.00100000000020373
14,14,1455.5118507112,0.00100000000020373
14,15,994.266012998916,0
14,16,1619.92704578959,0.00100000000020373
14,17,1547.29669643675,0.00100000000020373
14,18,1407.44014165925,0
14,19,1265.65711795454,0.00100000000020373
14,20,1305.40883973816,0
14,21,1142.31414621608,0.000999999996565748
14,22,1289.79517823768,0.00100000000020373
14,23,2936.31150512131,0
14,24,801.697256603851,0.00100000000020373
14,25,933.592040298844,0.00100000000020373
14,26,1019.13096583866,0
14,27,948.663405986615,0.00100000000020373
14,28,1091.60745965633,0
14,29,1585.44063886628,0.00100000000020373
14,30,1185.65307326367,0.00100000000020373
15,1,2138.58318027775,0
15,2,2283.59304211976,0.00100000000020373
15,3,3803.90701996767,0.00100000000020373
15,4,2491.74066535835,0
15,5,1878.51477939952,0.00100000000020373
15,6,1741.03829531897,0
15,7,1531.43376599604,0
15,8,1899.01735855607,0.00100000000020373
15,9,2438.57594526915,0
15,10,1479.88103239077,0.00100000000020373
15,11,1562.07525518414,0.00100000000020373
15,12,1374.46036131769,0
15,13,1460.29425163527,0.00100000000020373
15,14,1827.40755826169,0.00100000000020373
15,15,926.416740678973,0
15,16,1767.21224558887,0.00100000000020373
15,17,1658.29837029929,0.00100000000020373
15,18,1436.62292288538,0
15,19,1517.31369289398,0.000999999996565748
15,20,1554.37877090712,0.00100000000020373
15,21,1544.79976524255,0
15,22,1604.25945411924,0.00100000000020373
15,23,3205.54737450548,0
15,24,1038.29452974849,0
15,25,1373.01415243673,0.00100000000020373
15,26,1309.16644111635,0
15,27,1232.71806621723,0.00100000000020373
15,28,1281.84564153603,0.00100000000020373
15,29,1918.59785454429,0
15,30,1240.35552444831,0.00100000000020373
16,1,2318.63797677308,0.00100000000020373
16,2,2663.5036560796,0
16,3,3991.97168736183,0.00100000000020373
16,4,2698.4282704607,0.00100000000020373
16,5,2389.59886095643,0
16,6,2206.88565209037,0.00100000000020373
16,7,1489.9501516598,0
16,8,1931.37327247392,0
16,9,2602.06300185862,0.00100000000020373
16,10,1787.77388220317,0
16,11,1443.31451520699,0.00100000000020373
16,12,1726.47494490505,0.00100000000020373
16,13,1714.97030876204,0
16,14,2112.76873411755,0.00100000000020373
16,15,1147.05631758096,0.00100000000020373
16,16,2181.80377853361,0
16,17,1813.74953474002,0.000999999996565748
16,18,1861.64496022643,0
16,19,1607.00460186432,0
16,20,1686.85817586517,0.00100000000020373
16,21,1640.02352624221,0
16,22,1786.39097562939,0.00100000000020373
16,23,3641.73960960254,0.00100000000020373
16,24,1264.61388563858,0
16,25,1332.70081020503,0.00100000000020373
16,26,1317.56759336609,0.00100000000020373
16,27,1521.9046979764,0
16,28,1426.4196521812,0.00100000000020373
16,29,2276.66651534681,0.00100000000020373
16,30,1231.52400657522,0.00400000000081491
17,1,1344.91922442291,0
17,2,1194.88903541697,0
17,3,2944.71278355532,0.00100000000020373
17,4,2069.29724974917,0
17,5,973.995830407419,0.00100000000020373
17,6,1408.89977270349,0.00100000000020373
17,7,1639.56510513911,0
17,8,1092.10311796842,0.00100000000020373
17,9,1674.86177340078,0
17,10,1153.87762905916,0
17,11,1331.42534671229,0.00100000000020373
17,12,1153.44058581698,0
17,13,1238.89200459357,0.00100000000020373
17,14,1479.75740527685,0.00100000000020373
17,15,1552.53389926243,0
17,16,1616.7604948335,0.00100000000020373
17,17,1562.20682972701,0.00100000000020373
17,18,1273.63511966753,0
17,19,1085.98104477774,0.00100000000020373
17,20,905.830250211809,0
17,21,1260.44444079382,0.00100000000020373
17,22,1370.31620601198,0.00100000000020373
17,23,2076.53070870969,0
17,24,1400.81855029614,0.00100000000020373
17,25,1519.04627120013,0.00100000000020373
17,26,1526.87871668532,0
17,27,1084.49219174414,0.00100000000020373
17,28,1086.87884262504,0
17,29,1275.44394113786,0.00100000000020373
17,30,1610.71456832355,0.00100000000020373
18,1,1880.69355196326,0
18,2,2005.4940146116,0.00100000000020373
18,3,3562.62971140297,0.00100000000020373
18,4,2314.29241875231,0
18,5,1910.72929541837,0.00100000000020373
18,6,1648.61859050407,0
18,7,1443.86769313906,0.000999999996565748
18,8,1514.06180199274,0.00100000000020373
18,9,2164.17093982998,0
18,10,1325.27431414991,0.00100000000020373
18,11,1315.43981741744,0.00100000000020373
18,12,1055.21531066525,0
18,13,1403.71415683845,0.00100000000020373
18,14,1715.33274831655,0
18,15,1002.20616712121,0.00100000000020373
18,16,1632.29416770802,0.00100000000020373
18,17,1383.55226385329,0
18,18,1307.56458694559,0.00100000000020373
18,19,1258.13107666393,0.00100000000020373
18,20,1282.74049858479,0
18,21,1320.87793490501,0.00100000000020373
18,22,1427.70110670064,0
18,23,3159.35189332552,0.00100000000020373
18,24,872.776613219503,0.00100000000020373
18,25,1261.60525405021,0
18,26,968.622466851336,0.00100000000020373
18,27,942.570039167675,0.00100000000020373
18,28,864.249214354404,0
18,29,1757.07154292861,0.00100000000020373
18,30,946.342955149711,0
19,1,1345.35587945387,0
19,2,1671.11870592311,0.00100000000020373
19,3,2991.83169708068,0
19,4,1727.94052384316,0.00100000000020373
19,5,1550.17253969521,0.000999999996565748
19,6,1199.75068014138,0
19,7,1011.36232731197,0.00100000000020373
19,8,1414.63779818075,0.00100000000020373
19,9,1668.23353987375,0
19,10,697.231637652274,0.00100000000020373
19,11,1379.53472249378,0.00100000000020373
19,12,858.688494816307,0
19,13,887.240557512624,0.00100000000020373
19,14,1352.11850426422,0.00100000000020373
19,15,1322.5962164856,0
19,16,1370.85202520516,0.00100000000020373
19,17,1356.5913263216,0
19,18,989.607690473624,0
19,19,982.701183249602,0.00100000000020373
19,20,1116.95986018963,0
19,21,858.376016455688,0.00100000000020373
19,22,1052.22220091724,0.00100000000020373
19,23,2464.47034576311,0
19,24,941.645791821479,0.00100000000020373
19,25,931.374741364597,0.00100000000020373
19,26,808.597277469581,0
19,27,804.988548828366,0.00100000000020373
19,28,852.441130748972,0.00100000000020373
19,29,1238.86488674214,0
19,30,1200.53214302455,0.00100000000020373
20,1,1910.35385604663,0
20,2,2190.82535937497,0
20,3,3183.70737856585,0.000999999996565748
20,4,1956.22735655304,0
20,5,2115.29190733924,0.00100000000020373
20,6,1882.28361114201,0.00100000000020373
20,7,1002.53236305035,0
20,8,1717.95777613633,0.00100000000020373
20,9,2010.14045086314,0.00100000000020373
20,10,1445.76904906992,0
20,11,1350.84673422594,0.00100000000020373
20,12,1477.6964325221,0.00100000000020373
20,13,1203.34543876906,0
20,14,1440.66350303199,0.00100000000020373
20,15,1035.10065766049,0
20,16,1419.77935986261,0
20,17,1114.28949671714,0.00100000000020373
20,18,1787.42762140067,0
20,19,1530.42268129052,0.00100000000020373
20,20,1467.6465768298,0.00100000000020373
20,21,1152.82125923028,0
20,22,1068.01583676057,0.00100000000020373
20,23,2994.06757800342,0.00100000000020373
20,24,1099.40535432622,0
20,25,1078.69414838818,0.00100000000020373
20,26,964.434244898926,0.00399999999717693
20,27,1318.82696382189,0.00100000000020373
20,28,1097.91062130689,0.00100000000020373
20,29,1562.69478392085,0
20,30,901.817095901618,0.00100000000020373
21,1,2198.94473123947,0
21,2,2222.85588923721,0
21,3,3863.11113490048,0.00100000000020373
21,4,2567.63838340874,0
21,5,1930.59560814951,0.00100000000020373
21,6,1868.42438432791,0.00100000000020373
21,7,1617.46799422091,0
21,8,1806.69516722233,0.00100000000020373
21,9,2523.41790754546,0.00100000000020373
21,10,1648.07237746709,0
21,11,1480.81552382906,0.00100000000020373
21,12,1233.74060410323,0
21,13,1636.63317246558,0.00100000000020373
21,14,1877.2278712014,0.00100000000020373
21,15,1178.0498181428,0
21,16,1773.2999279521,0.00100000000020373
21,17,1521.2639638507,0.00100000000020373
21,18,1430.15700487908,0
21,19,1649.63784802781,0.00100000000020373
21,20,1575.13443352788,0
21,21,1609.47152051342,0.00100000000020373
21,22,1699.56365093599,0.00100000000020373
21,23,3374.64804188882,0
21,24,1001.01427948834,0.000999999996565748
21,25,1538.51492891661,0.00100000000020373
21,26,1230.739052688,0
21,27,1241.13190048414,0.00100000000020373
21,28,1086.58073885643,0
21,29,1947.15901345696,0.00100000000020373
21,30,1171.84638438503,0.00100000000020373
22,1,1588.22679349359,0
22,2,1560.83540238824,0.00100000000020373
22,3,3252.38361786444,0
22,4,1960.32960738994,0
22,5,1492.26211764302,0.00100000000020373
22,6,1187.65554345543,0
22,7,1467.13317732393,0.00100000000020373
22,8,1253.94320140536,0.00100000000020373
22,9,1936.59093256962,0
22,10,1085.30670718326,0.00100000000020373
22,11,1562.74222257127,0.00100000000020373
22,12,954.565349023288,0
22,13,1374.61682698136,0.00100000000020373
22,14,1453.21845877601,0
22,15,1333.76112766583,0.00100000000020373
22,16,1433.97029757117,0.00100000000020373
22,17,1403.86373988719,0
22,18,730.384676424087,0.00100000000020373
22,19,1291.12337560642,0.00100000000020373
22,20,1207.25388335859,0
22,21,1393.29151516269,0.00100000000020373
22,22,1482.58048380388,0
22,23,2783.49002875509,0.000999999996565748
22,24,843.642769203893,0.00100000000020373
22,25,1224.02118183023,0
22,26,1078.89936097757,0.00100000000020373
22,27,855.413899629813,0.00100000000020373
22,28,874.133969710665,0
22,29,1517.34466312554,0.00100000000020373
22,30,1176.33026448954,0.00100000000020373
23,1,2125.74405095752,0
23,2,1846.77622860132,0.00100000000020373
23,3,3448.39654639314,0
23,4,2141.74174826872,0
23,5,1852.75511989929,0.00100000000020373
23,6,1829.83961069562,0
23,7,1560.11413039039,0
23,8,1586.14661161111,0.00100000000020373
23,9,2346.19130054795,0
23,10,1535.64118099974,0.00100000000020373
23,11,1561.07472058791,0.00100000000020373
23,12,1631.74209790867,0
23,13,1425.54730239535,0.00100000000020373
23,14,1342.989495721,0.00100000000020373
23,15,1571.79841758444,0
23,16,1595.46125110344,0.00100000000020373
23,17,1915.80211802686,0.00100000000020373
23,18,1168.69347837433,0
23,19,1739.29611208913,0.00100000000020373
23,20,1612.32450821659,0
23,21,1652.42138867895,0
23,22,1746.98157714054,0.00100000000020373
23,23,2736.4217797788,0
23,24,968.494793000517,0.00100000000020373
23,25,1380.3430496856,0.00100000000020373
23,26,1581.29387087184,0
23,27,1103.35054179662,0.00100000000020373
23,28,1530.25265481086,0.00100000000020373
23,29,1560.16638444764,0
23,30,1640.55730748051,0.00100000000020373
24,1,1632.98716165791,0.00100000000020373
24,2,1514.1464437014,0
24,3,2904.89405854764,0.00100000000020373
24,4,1785.29863914405,0
24,5,1624.01218836743,0
24,6,1658.91563428838,0.00100000000020373
24,7,1163.74778202514,0
24,8,930.216445822791,0.00100000000020373
24,9,1792.45559066224,0.00100000000020373
24,10,1212.86395555743,0
24,11,1225.77435552239,0.00100000000020373
24,12,1489.11674811781,0.00100000000020373
24,13,1191.82325027295,0
24,14,1088.94233433181,0.00100000000020373
24,15,1391.83236509832,0
24,16,1377.50766228358,0
24,17,1447.12588768128,0.000999999996565748
24,18,1237.6812709115,0
24,19,1344.76361917208,0.00100000000020373
24,20,1101.90197695419,0.00100000000020373
24,21,1283.31908678872,0
24,22,1284.34930240299,0.00100000000020373
24,23,2450.67983818484,0
24,24,922.564657951211,0.00100000000020373
24,25,1107.10921746431,0.00100000000020373
24,26,1326.85507867984,0
24,27,957.876112753134,0.00100000000020373
24,28,1203.66489694742,0
24,29,1245.04697141135,0
24,30,1247.94530708043,0.00100000000020373
25,1,1903.08775393023,0
25,2,2011.23384354013,0.00100000000020373
25,3,3260.24304314833,0.00100000000020373
25,4,2035.03333736679,0
25,5,1852.02778497712,0.00100000000020373
25,6,1909.60638055406,0
25,7,911.075424083347,0
25,8,1390.52054548224,0.00100000000020373
25,9,2124.87474230347,0
25,10,1388.26643254939,0.000999999996565748
25,11,1017.11732925124,0.00100000000020373
25,12,1560.75176500773,0
25,13,1109.96382044299,0.00100000000020373
25,14,1212.56023295343,0
25,15,1142.52601778001,0
25,16,1493.90253503877,0.00100000000020373
25,17,1479.44444188878,0
25,18,1454.96775432926,0.00100000000020373
25,19,1447.23939403057,0.00100000000020373
25,20,1215.07111862475,0
25,21,1214.85397670533,0.00100000000020373
25,22,1284.38445981144,0
25,23,2720.03265659399,0
25,24,778.074855118975,0.00100000000020373
25,25,1014.22924644535,0
25,26,1194.68060044666,0.00100000000020373
25,27,1096.97384217687,0.00100000000020373
25,28,1188.22899226153,0
25,29,1431.76165017591,0.00100000000020373
25,30,1192.83456234128,0
26,1,1663.64220847514,0
26,2,1885.91325800706,0.00100000000020373
26,3,3275.48057250129,0
26,4,1994.48261731981,0.00100000000020373
26,5,1707.22871887067,0.00100000000020373
26,6,1510.40830572893,0
26,7,998.296089878142,0.00100000000020373
26,8,1331.87730581033,0.000999999996565748
26,9,1943.91917940544,0
26,10,1081.36719224795,0.00100000000020373
26,11,1148.56936030619,0
26,12,1081.12883258386,0.00100000000020373
26,13,1046.89350646342,0.00100000000020373
26,14,1353.07507633934,0
26,15,843.580993244845,0.00100000000020373
26,16,1334.08743776368,0.00100000000020373
26,17,1143.86206042413,0
26,18,1248.72116421607,0.00100000000020373
26,19,1214.62124453328,0
26,20,1075.49906077576,0.00100000000020373
26,21,1068.57774791987,0.00100000000020373
26,22,1129.91591442055,0
26,23,2857.16341656888,0.00100000000020373
26,24,647.062185415658,0.00100000000020373
26,25,972.744273592016,0
26,26,804.318418788044,0.00100000000020373
26,27,839.719767061026,0.00100000000020373
26,28,734.411843386967,0
26,29,1456.69608861412,0.00100000000020373
26,30,797.804892217575,0
27,1,2078.96493032854,0
27,2,2344.69140344894,0.00100000000020373
27,3,3670.23105085349,0
27,4,2425.85198237974,0
27,5,2063.7033485033,0.00100000000020373
27,6,2087.02438901406,0
27,7,1107.54312137246,0.000999999996565748
27,8,1724.74591934713,0.00100000000020373
27,9,2383.92545883836,0
27,10,1576.1383475942,0.00100000000020373
27,11,978.241503858273,0.00100000000020373
27,12,1456.38222481248,0
27,13,1272.92186051274,0.00100000000020373
27,14,1755.06860040447,0.00100000000020373
27,15,1266.47129606384,0
27,16,1938.6578168378,0.00100000000020373
27,17,1691.2263341397,0
27,18,1660.25224101314,0
27,19,1386.36110406057,0.00100000000020373
27,20,1393.66599798277,0
27,21,1205.08550831733,0.00100000000020373
27,22,1468.24543034276,0.00100000000020373
27,23,3111.93868412136,0
27,24,1061.95514188765,0.00100000000020373
27,25,1164.32721207021,0.00100000000020373
27,26,1123.77110089344,0
27,27,1259.20287990354,0.00100000000020373
27,28,1176.88273889115,0.00100000000020373
27,29,1819.46847475215,0
27,30,1365.97446228911,0.00100000000020373
28,1,2286.93773833547,0
28,2,2333.02984506177,0
28,3,3570.40519632572,0.00100000000020373
28,4,2330.09557412174,0
28,5,2227.11986436043,0.000999999996565748
28,6,2055.76681496808,0.00100000000020373
28,7,1374.53694720557,0
28,8,1924.13688600419,0.00100000000020373
28,9,2395.72686742299,0.00100000000020373
28,10,1649.15571002353,0
28,11,1526.66461528763,0.00100000000020373
28,12,1555.43627796638,0
28,13,1527.63688972851,0
28,14,1643.31095758208,0.00100000000020373
28,15,1095.13659054486,0
28,16,1483.07258351818,0.00100000000020373
28,17,1399.52262174145,0.00400000000081491
28,18,1695.95532157299,0.00100000000020373
28,19,1819.38009550087,0.00100000000020373
28,20,1724.74189183999,0
28,21,1531.01001751471,0.00100000000020373
28,22,1452.28201384697,0.00100000000020373
28,23,3326.32834691224,0
28,24,1022.87015761665,0.00100000000020373
28,25,1436.68753518823,0
28,26,1165.85832710726,0
28,27,1351.07973352568,0.000999999996565748
28,28,1238.98480818942,0
28,29,1851.69980820329,0.00100000000020373
28,30,982.08434248871,0.00100000000020373
29,1,1471.69834699612,0
29,2,1732.30017469751,0.00100000000020373
29,3,2935.57883272706,0
29,4,1789.4006757046,0
29,5,1612.78113163065,0.00100000000020373
29,6,1467.47251501866,0
29,7,998.551361754802,0.00100000000020373
29,8,1388.26235467479,0.00100000000020373
29,9,1635.72356946461,0
29,10,956.970637048771,0.00100000000020373
29,11,1124.07699665056,0
29,12,996.010453629168,0
29,13,718.496014573428,0.00100000000020373
29,14,1223.74086707565,0
29,15,1042.46833034035,0.00100000000020373
29,16,1198.38516008714,0.00100000000020373
29,17,1124.44233065845,0
29,18,1388.80674922389,0.00100000000020373
29,19,1106.5046506135,0
29,20,1080.89136168729,0
29,21,724.36014798207,0.00100000000020373
29,22,784.496197379254,0
29,23,2499.55827138695,0.00100000000020373
29,24,980.875965089035,0.00100000000020373
29,25,978.011144573746,0
29,26,760.859341565304,0.000999999996565748
29,27,871.946075371824,0
29,28,760.183605076733,0
29,29,1233.27305236353,0.00100000000020373
29,30,1088.38777777943,0
30,1,1487.04284193533,0.00100000000020373
30,2,1454.88585999097,0.00100000000020373
30,3,2669.17494564243,0
30,4,1400.37035270357,0.00100000000020373
30,5,1565.68988206069,0.00100000000020373
30,6,1232.71246829335,0
30,7,1206.67859217047,0.00100000000020373
30,8,1295.45815249669,0
30,9,1605.46030824245,0.00100000000020373
30,10,1089.75103407506,0.00100000000020373
30,11,1656.65399520983,0
30,12,1203.83994122281,0.00100000000020373
30,13,1182.77128215652,0.00100000000020373
30,14,881.903870229011,0
30,15,1320.68545726852,0.00100000000020373
30,16,702.380462065075,0
30,17,902.415694339462,0
30,18,1105.62906229476,0.00100000000020373
30,19,1525.42929397015,0
30,20,1180.70007260492,0.00100000000020373
30,21,1262.71934812323,0.00100000000020373
30,22,1116.27432495193,0
30,23,2400.64105553104,0.000999999996565748
30,24,899.277367544966,0.00100000000020373
30,25,1226.96776035216,0
30,26,1066.06689298883,0.00100000000020373
30,27,968.850992921501,0.00100000000020373
30,28,1000.8400784424,0
30,29,1058.62826278346,0.00100000000020373
30,30,1095.22437735613,0.00100000000020373
