"Before.Trace.ID1","Before.Trace.ID2","Difference","Runtime"
1,2,22767.7515090176,0.343999999997322
1,3,33391.4093516889,0.302999999999884
1,4,20482.752728185,0.354999999995925
1,5,45082.0860350474,0.313000000009197
1,6,22198.262298219,0.322000000000116
1,7,33882.1513069509,0.311999999990803
1,8,19290.549777984,0.283999999999651
1,9,25898.9561462589,0.311000000001513
1,10,29398.5802533659,0.328999999997905
1,11,37424.1228959237,0.306999999986147
1,12,45802.0189512599,0.354000000006636
1,13,29583.4793303978,0.301999999996042
1,14,41013.1553614969,0.292000000001281
1,15,36259.7838492622,0.290000000008149
1,16,30910.1462328369,0.255999999993946
1,17,49895.0751878727,0.31699999999546
1,18,25923.5954362347,0.239000000001397
1,19,32743.5618778142,0.338000000003376
1,20,28351.4276549306,0.23399999999674
1,21,20508.9723899181,0.298999999999069
1,22,31990.3822472539,0.290999999997439
1,23,102934.392903662,0.294000000008964
1,24,31990.0546258585,0.311000000001513
1,25,26015.2983172186,0.270000000004075
1,26,32197.1331170131,0.297000000005937
1,27,21158.8619617372,0.263999999995576
1,28,31702.9873926867,0.286999999996624
1,29,48632.199981966,0.283999999999651
1,30,23656.7058410157,0.259999999994761
2,3,31485.978601238,0.320000000006985
2,4,13686.5644286027,0.274999999994179
2,5,32568.4543448633,0.282999999995809
2,6,17789.0758200821,0.279999999998836
2,7,29291.669703221,0.25
2,8,20422.0787192447,0.312000000005355
2,9,27308.6044739839,0.243000000002212
2,10,23523.4583202341,0.301000000006752
2,11,24352.4807762556,0.293999999994412
2,12,34514.1982048265,0.317000000010012
2,13,37685.1326583342,0.293999999994412
2,14,56374.1132789434,0.319000000003143
2,15,30694.6663336625,0.282999999995809
2,16,27812.7722676816,0.248000000006869
2,17,41037.6708942574,0.317000000010012
2,18,38861.1051660596,0.262999999991735
2,19,21432.7222530504,0.279999999998836
2,20,21463.7737597373,0.305999999996857
2,21,23008.082554368,0.321000000010827
2,22,26059.3999483349,0.288999999989755
2,23,115621.946081168,0.298000000009779
2,24,49855.9074042302,0.299999999988358
2,25,39684.9935292282,0.286999999996624
2,26,25642.449691299,0.243000000002212
2,27,14574.698459632,0.311000000001513
2,28,23057.304765015,0.288000000000466
2,29,66987.629339491,0.301000000006752
2,30,23289.1360652683,0.280999999988126
3,4,26684.4126962363,0.24900000001071
3,5,26061.273486213,0.288999999989755
3,6,29230.8530874251,0.236000000004424
3,7,19584.6292533502,0.301000000006752
3,8,19044.4298442698,0.288999999989755
3,9,36918.3749714534,0.298999999999069
3,10,32024.220188322,0.327000000004773
3,11,32630.1328629004,0.290000000008149
3,12,33743.9193861279,0.285999999992782
3,13,31508.3709025842,0.292000000001281
3,14,30723.4384632687,0.266999999992549
3,15,18314.73710822,0.302999999999884
3,16,15204.5625030453,0.259000000005472
3,17,43493.4412542012,0.296999999991385
3,18,34456.3969123556,0.289000000004307
3,19,18994.8287058932,0.286999999996624
3,20,23652.6220213414,0.290999999997439
3,21,26335.8159463373,0.311000000001513
3,22,38691.1976309914,0.31699999999546
3,23,72445.8163094834,0.251000000003842
3,24,33257.013993699,0.312999999994645
3,25,41325.9610699432,0.286000000007334
3,26,28989.1738087877,0.280999999988126
3,27,25784.1087056533,0.288000000000466
3,28,38139.9508229093,0.293000000005122
3,29,47832.190065137,0.296999999991385
3,30,25786.4637696087,0.294000000008964
4,5,32811.0028083973,0.302999999999884
4,6,19075.5791339629,0.309999999997672
4,7,24303.0904012865,0.235000000000582
4,8,20763.633675969,0.30899999999383
4,9,31182.4354255799,0.292000000001281
4,10,31845.4221092467,0.290000000008149
4,11,35495.9334308702,0.270999999993364
4,12,30163.0491332877,0.312999999994645
4,13,36627.972034247,0.267000000007101
4,14,51943.5225226992,0.298999999999069
4,15,30798.2766393329,0.292000000001281
4,16,23484.9948075241,0.288999999989755
4,17,44021.3505692644,0.319000000003143
4,18,47178.33251566,0.290999999997439
4,19,17478.5076465894,0.309000000008382
4,20,25918.6073990583,0.304999999993015
4,21,19539.0736138367,0.248999999996158
4,22,26504.9728736501,0.289000000004307
4,23,94774.3564847178,0.289000000004307
4,24,54934.2766725549,0.264999999999418
4,25,38772.2075006161,0.285999999992782
4,26,23905.6259424662,0.293000000005122
4,27,22486.2743820399,0.262000000002445
4,28,20760.2028905511,0.283999999999651
4,29,57413.3010653012,0.283999999999651
4,30,19245.7214321997,0.236999999993714
5,6,28004.8225329318,0.290000000008149
5,7,30406.8946186951,0.235999999989872
5,8,34281.1435421509,0.289000000004307
5,9,44400.4580210035,0.289999999993597
5,10,49246.7361501247,0.312000000005355
5,11,42225.8941423054,0.289000000004307
5,12,37633.7191476652,0.296000000002095
5,13,52136.9361510109,0.312000000005355
5,14,44979.3018434023,0.294999999998254
5,15,15057.591550823,0.255999999993946
5,16,21529.059348746,0.30000000000291
5,17,59311.669818296,0.260999999998603
5,18,53426.9415218618,0.293000000005122
5,19,32483.4388512082,0.288000000000466
5,20,32422.2126480874,0.289999999993597
5,21,26661.6978479036,0.325000000011642
5,22,52916.9716586778,0.319999999992433
5,23,81698.9466806712,0.31600000000617
5,24,67567.2924294116,0.247000000003027
5,25,64128.3430579608,0.317999999999302
5,26,24891.7957558526,0.269000000000233
5,27,33766.8526057799,0.285999999992782
5,28,32999.1885569865,0.282000000006519
5,29,53215.9650105246,0.24299999998766
5,30,28151.0133810932,0.24100000000908
6,7,26245.9363532955,0.281999999991967
6,8,21421.025020551,0.259000000005472
6,9,31672.4449473997,0.284999999988941
6,10,25049.4604647811,0.294000000008964
6,11,19038.3246705577,0.230999999999767
6,12,31143.7027786116,0.29299999999057
6,13,32605.1737968363,0.298000000009779
6,14,30288.6316570922,0.245999999999185
6,15,23482.7239232735,0.309999999997672
6,16,25624.1904808317,0.280999999988126
6,17,29949.3582081945,0.296000000002095
6,18,20877.5745946057,0.283999999999651
6,19,28822.1325864353,0.292000000001281
6,20,17770.3196052419,0.298999999999069
6,21,16974.2130166785,0.290000000008149
6,22,34902.4308388393,0.282999999995809
6,23,89256.9505058232,0.248999999996158
6,24,22726.2849200431,0.309999999997672
6,25,21348.9050362076,0.311000000001513
6,26,30577.5640048424,0.282999999995809
6,27,18395.6577662001,0.282000000006519
6,28,30159.7666720618,0.292000000001281
6,29,45616.275941842,0.285000000003492
6,30,17597.355343612,0.312000000005355
7,8,15990.9994205169,0.289999999993597
7,9,19024.4842157349,0.304000000003725
7,10,28679.119544062,0.296999999991385
7,11,22829.1160484486,0.310000000012224
7,12,26745.7060467368,0.331999999994878
7,13,33654.0837404834,0.298999999999069
7,14,56788.648391145,0.302999999999884
7,15,30297.6011631845,0.293999999994412
7,16,23904.5028362142,0.298999999999069
7,17,39650.1749583982,0.301000000006752
7,18,43200.5333662905,0.318999999988591
7,19,18845.796265625,0.301000000006752
7,20,26790.4784825569,0.317999999999302
7,21,30074.2071535993,0.307000000000698
7,22,25502.6109613768,0.320000000006985
7,23,108745.206564412,0.299999999988358
7,24,49693.6131214117,0.312000000005355
7,25,36410.0217161931,0.30000000000291
7,26,26986.2176579723,0.298999999999069
7,27,17611.644741864,0.301999999996042
7,28,23111.1680346289,0.305999999996857
7,29,74855.4573368175,0.330000000001746
7,30,22982.1198959306,0.309999999997672
8,9,17559.6397094086,0.307000000000698
8,10,26500.7408204021,0.311000000001513
8,11,20863.6249970224,0.357000000003609
8,12,32625.2609605266,0.293000000005122
8,13,28530.337441365,0.315999999991618
8,14,44481.9286530972,0.39100000000326
8,15,26949.0554159542,0.361000000004424
8,16,25075.3717679614,0.296999999991385
8,17,42979.373188462,0.331000000005588
8,18,33200.6267320757,0.342999999993481
8,19,14523.7525791288,0.298999999999069
8,20,26035.466038043,0.305999999996857
8,21,20797.1299446656,0.292000000001281
8,22,19761.5649093611,0.309999999997672
8,23,112114.833957199,0.351000000009662
8,24,38548.3329461369,0.290999999997439
8,25,34320.2403908611,0.248999999996158
8,26,17550.4090069298,0.305999999996857
8,27,15908.2595050206,0.238000000012107
8,28,17766.9310779316,0.285999999992782
8,29,64696.5157239942,0.293999999994412
8,30,23192.8091978133,0.305000000007567
9,10,19021.6126366179,0.293000000005122
9,11,20296.3297702427,0.326999999990221
9,12,29263.342697752,0.292000000001281
9,13,31644.1342728434,0.269000000000233
9,14,76051.7428382633,0.311000000001513
9,15,44505.4834586611,0.25800000000163
9,16,39458.8012067433,0.281000000002678
9,17,29457.745010657,0.288000000000466
9,18,36918.4311483558,0.311000000001513
9,19,21809.7171134922,0.286999999996624
9,20,40096.2416765551,0.293999999994412
9,21,35761.7415116322,0.301999999996042
9,22,18904.8257298802,0.30800000000454
9,23,122394.800986525,0.235000000000582
9,24,51818.3187841813,0.30899999999383
9,25,34299.3532106732,0.289999999993597
9,26,37491.5342004152,0.294000000008964
9,27,13310.3036612619,0.266999999992549
9,28,29363.5405533426,0.307000000000698
9,29,94285.0652823904,0.24900000001071
9,30,28455.1765047859,0.30000000000291
10,11,19665.6904677198,0.297999999995227
10,12,41354.0985627423,0.336000000010245
10,13,37956.5455546899,0.29299999999057
10,14,55891.1172963839,0.292000000001281
10,15,43336.2344445003,0.304000000003725
10,16,36714.9378739815,0.312000000005355
10,17,28533.4113570082,0.301999999996042
10,18,32680.4925382529,0.362999999997555
10,19,27086.1411663601,0.357000000003609
10,20,31808.6349650487,0.361999999993714
10,21,36582.8581430723,0.36600000000908
10,22,27088.1743380017,0.357999999992899
10,23,127461.196733361,0.370999999999185
10,24,42265.8698532736,0.361999999993714
10,25,31715.287329788,0.368000000002212
10,26,46885.0583927532,0.36699999999837
10,27,15967.7364364827,0.358000000007451
10,28,43189.017579027,0.305999999996857
10,29,77348.2744899595,0.290000000008149
10,30,42208.9910606083,0.384999999994761
11,12,31478.6543345748,0.36699999999837
11,13,28891.5787777725,0.361000000004424
11,14,51189.7707549446,0.346999999994296
11,15,35335.2575364275,0.320000000006985
11,16,31716.9277415322,0.230999999999767
11,17,26187.5468876886,0.294999999998254
11,18,39782.8211368752,0.231999999989057
11,19,26023.7158730917,0.307000000000698
11,20,21167.4334708106,0.30800000000454
11,21,34568.9819703525,0.31699999999546
11,22,29668.0609460181,0.369000000006054
11,23,118112.762201743,0.335000000006403
11,24,44470.2937534269,0.310999999986961
11,25,39854.0387733334,0.349000000001979
11,26,32952.9278602473,0.289000000004307
11,27,20761.8437586212,0.327000000004773
11,28,40820.4512401097,0.30899999999383
11,29,84059.2194653243,0.360000000000582
11,30,36679.3249014495,0.309000000008382
12,13,43010.0527310493,0.334999999991851
12,14,83456.9126692016,0.320999999996275
12,15,41173.9413104081,0.331000000005588
12,16,38268.4896319679,0.289000000004307
12,17,35740.5230570602,0.292000000001281
12,18,66135.1052896912,0.326000000000931
12,19,24874.1490557503,0.351000000009662
12,20,45863.9055549949,0.333999999988009
12,21,31970.034207109,0.319000000003143
12,22,31557.4815501027,0.341000000000349
12,23,88857.3017313122,0.289000000004307
12,24,78032.4931500459,0.322000000000116
12,25,42532.2517801624,0.294999999998254
12,26,41627.7162207798,0.339999999996508
12,27,32157.5218362341,0.31699999999546
12,28,34293.0960319294,0.339000000007218
12,29,96497.5853253786,0.322000000000116
12,30,33378.9257792635,0.342999999993481
13,14,44146.5029166124,0.296000000002095
13,15,43015.711980711,0.294999999998254
13,16,27710.3822275487,0.317999999999302
13,17,45945.1335858281,0.354000000006636
13,18,35103.9761329605,0.288999999989755
13,19,40782.2294950604,0.302999999999884
13,20,25001.6111236634,0.326000000000931
13,21,33714.894263398,0.311000000001513
13,22,47189.3437689189,0.342000000004191
13,23,112616.771440317,0.305999999996857
13,24,34907.0404654354,0.326999999990221
13,25,32637.0225104628,0.306000000011409
13,26,50885.4207604106,0.307000000000698
13,27,30120.1249412946,0.293999999994412
13,28,45150.6461139611,0.327000000004773
13,29,90107.1552069275,0.353999999992084
13,30,43341.5422704875,0.332999999998719
14,15,29241.1619390216,0.313999999998487
14,16,36247.968261566,0.339000000007218
14,17,71940.7070295422,0.294999999998254
14,18,33914.8085393961,0.297999999995227
14,19,64147.5022087279,0.305000000007567
14,20,31707.3239070894,0.31699999999546
14,21,33336.1516481796,0.309999999997672
14,22,87796.1944376738,0.338000000003376
14,23,73743.3649446659,0.355999999999767
14,24,28977.4306624144,0.286999999996624
14,25,42712.5425426463,0.313999999998487
14,26,57121.6375267253,0.304000000003725
14,27,57823.7170836708,0.332999999998719
14,28,66453.8355961508,0.312000000005355
14,29,23952.1417608018,0.329999999987194
14,30,43919.6268853142,0.302000000010594
15,16,22506.7818055178,0.320999999996275
15,17,57140.0899842739,0.345000000001164
15,18,39182.5472302922,0.286999999996624
15,19,27635.4521910295,0.304000000003725
15,20,22721.9594098124,0.332999999998719
15,21,21394.092966791,0.402000000001863
15,22,50171.3279065857,0.319000000003143
15,23,82754.1049556278,0.36699999999837
15,24,42655.2555452431,0.30000000000291
15,25,50130.8812971813,0.332999999998719
15,26,22643.5578295766,0.361999999993714
15,27,32638.3208250767,0.365000000005239
15,28,32283.5237251748,0.368000000002212
15,29,40260.7113850439,0.368000000002212
15,30,27975.0222745489,0.357000000003609
16,17,51381.6883608071,0.341000000000349
16,18,36879.6613149223,0.354999999995925
16,19,26728.3984929186,0.360999999989872
16,20,20921.5596495645,0.359000000011292
16,21,27980.2922699069,0.376999999993131
16,22,41947.7206649505,0.372000000003027
16,23,78998.0021291811,0.373999999996158
16,24,42905.3519506329,0.365999999994528
16,25,46987.092088369,0.361000000004424
16,26,29381.8923319036,0.323999999993248
16,27,24240.6903489095,0.36600000000908
16,28,36302.74090307,0.365999999994528
16,29,49106.4808008318,0.354000000006636
16,30,23234.557543267,0.338999999992666
17,18,48523.3208367379,0.362000000008265
17,19,41417.9192637736,0.360000000000582
17,20,51679.6837071429,0.376999999993131
17,21,42329.6396186607,0.377999999996973
17,22,36081.1169339788,0.315000000002328
17,23,103890.293674504,0.322000000000116
17,24,53163.2066296098,0.391999999992549
17,25,35794.4866786553,0.381000000008498
17,26,61369.7994513443,0.350999999995111
17,27,37466.4214200153,0.351999999998952
17,28,60254.586677397,0.339999999996508
17,29,92968.4480387602,0.31600000000617
17,30,44532.3371896351,0.35899999999674
18,19,50287.2330243075,0.292000000001281
18,20,37780.4966729833,0.296999999991385
18,21,33953.6994278538,0.326000000000931
18,22,58454.0363841434,0.336000000010245
18,23,100892.206924375,0.313999999998487
18,24,15958.542384648,0.356999999989057
18,25,34157.1905550252,0.360000000000582
18,26,58502.0422943576,0.345000000001164
18,27,30448.1507138026,0.389999999999418
18,28,46373.4446351219,0.30000000000291
18,29,51420.4358381824,0.32499999999709
18,30,33838.1420575539,0.319000000003143
19,20,34386.038713142,0.304000000003725
19,21,27296.9495225376,0.314999999987776
19,22,17686.0994045367,0.30800000000454
19,23,102063.690951542,0.364000000001397
19,24,56556.5989042052,0.387000000002445
19,25,43173.7096408257,0.384999999994761
19,26,22949.1051091362,0.381000000008498
19,27,20219.3551010881,0.380999999993946
19,28,23369.4390535553,0.381000000008498
19,29,76626.8319625844,0.388000000006286
19,30,26693.8718999915,0.384999999994761
20,21,24627.4967168407,0.38300000000163
20,22,44177.4058621993,0.388999999995576
20,23,113805.623268316,0.388999999995576
20,24,41223.9949125936,0.33200000000943
20,25,39443.8280108892,0.334999999991851
20,26,27627.8506143974,0.351999999998952
20,27,22915.2096541342,0.370999999999185
20,28,27910.1122626905,0.396000000007916
20,29,55463.1076906519,0.379999999990105
20,30,30513.1889633404,0.388000000006286
21,22,37628.6315878404,0.388999999995576
21,23,78059.8211246822,0.389000000010128
21,24,40973.1079447724,0.335999999995693
21,25,34981.8538563414,0.315000000002328
21,26,28640.1828596419,0.305999999996857
21,27,25862.9687439145,0.297999999995227
21,28,26586.3475944365,0.30800000000454
21,29,36133.109510425,0.330000000001746
21,30,20791.88839493,0.296999999991385
22,23,130611.791751431,0.36600000000908
22,24,66394.7740456027,0.364999999990687
22,25,37601.9810977763,0.392000000007101
22,26,34540.1293661209,0.334999999991851
22,27,19892.1376200092,0.313000000009197
22,28,29420.0841477742,0.304999999993015
22,29,95833.4144161503,0.355999999999767
22,30,36590.2020396114,0.346999999994296
23,24,102638.253672223,0.309000000008382
23,25,109190.390560695,0.313999999998487
23,26,119083.520450667,0.330000000001746
23,27,113405.416442801,0.331999999994878
23,28,122848.31399437,0.370999999999185
23,29,41653.9714401302,0.399999999994179
23,30,67879.4044418614,0.385999999998603
24,25,33381.5309126833,0.389000000010128
24,26,60460.8961389757,0.380999999993946
24,27,41838.6978596764,0.381999999997788
24,28,51190.743036551,0.385999999998603
24,29,47608.4968036119,0.381000000008498
24,30,45195.4185426363,0.385999999998603
25,26,59849.3769914027,0.389999999999418
25,27,36807.6173655628,0.38399999999092
25,28,37035.4238499666,0.387000000002445
25,29,61080.3844921413,0.388000000006286
25,30,38228.0264726731,0.334000000002561
26,27,29409.5892971845,0.315999999991618
26,28,18474.2509977826,0.30000000000291
26,29,69526.5078215995,0.353999999992084
26,30,30457.7097233027,0.344000000011874
27,28,21733.6355345074,0.345000000001164
27,29,73584.5417333002,0.307000000000698
27,30,25163.6133573779,0.307000000000698
28,29,68643.1772991195,0.312000000005355
28,30,29260.2178244812,0.283999999999651
29,30,46324.5784871773,0.384999999994761


"After.Trace.ID","Before.Trace.ID","Difference","Runtime"
1,1,176378.967618112,0.396999999997206
1,2,235849.406380576,0.392000000007101
1,3,266230.638125063,0.398000000001048
1,4,261868.042190736,0.398000000001048
1,5,297464.790245974,0.394000000000233
1,6,208919.20867725,0.391999999992549
1,7,265483.473406508,0.399000000004889
1,8,235506.453513433,0.392999999996391
1,9,233767.53033595,0.398999999990338
1,10,240478.133868974,0.395000000004075
1,11,276970.959032734,0.392999999996391
1,12,316735.661556598,0.399999999994179
1,13,211076.189985168,0.398000000001048
1,14,237423.514654616,0.392000000007101
1,15,277434.910432997,0.399000000004889
1,16,254803.445424052,0.394000000000233
1,17,290975.764371926,0.398999999990338
1,18,186434.805925529,0.398000000001048
1,19,284443.90020902,0.394000000000233
1,20,236483.146032152,0.396999999997206
1,21,212659.126589548,0.398000000001048
1,22,256419.405118546,0.394000000000233
1,23,356427.228550332,0.399999999994179
1,24,190494.109598947,0.394000000000233
1,25,169969.968091674,0.396000000007916
1,26,270245.83075271,0.398999999990338
1,27,242091.235486158,0.39100000000326
1,28,242056.717476642,0.399000000004889
1,29,245746.272833552,0.398000000001048
1,30,221237.036955227,0.394000000000233
2,1,283262.491467071,0.392999999996391
2,2,345523.184621341,0.395999999993364
2,3,249841.16954566,0.392000000007101
2,4,298203.360020159,0.395999999993364
2,5,246185.904017033,0.391999999992549
2,6,290040.639345035,0.336000000010245
2,7,324208.54388478,0.319000000003143
2,8,324533.791524356,0.319999999992433
2,9,397587.873160268,0.368000000002212
2,10,371410.607598777,0.357999999992899
2,11,352550.129230174,0.354000000006636
2,12,362637.179993354,0.353999999992084
2,13,302464.736483696,0.35899999999674
2,14,183447.775348149,0.394000000000233
2,15,238353.43453182,0.322000000000116
2,16,252792.081397705,0.296000000002095
2,17,372228.99214789,0.30800000000454
2,18,277158.023725566,0.322000000000116
2,19,343183.596689694,0.293999999994412
2,20,275977.329561545,0.38399999999092
2,21,244232.205675845,0.38300000000163
2,22,399432.028213659,0.389999999999418
2,23,124847.856818828,0.385999999998603
2,24,255178.221573292,0.381000000008498
2,25,302221.40020621,0.381999999997788
2,26,312769.724696782,0.330000000001746
2,27,351211.855020135,0.341000000000349
2,28,326297.067134188,0.36799999998766
2,29,137897.556664079,0.319000000003143
2,30,249035.911437914,0.342000000004191
3,1,73464.36250614,0.298000000009779
3,2,95605.1566968799,0.327999999994063
3,3,56426.8876158679,0.286999999996624
3,4,81352.6821986878,0.38300000000163
3,5,69907.3284073306,0.378000000011525
3,6,64258.1130611397,0.36799999998766
3,7,88694.1440915957,0.328000000008615
3,8,80409.9970559231,0.372000000003027
3,9,111663.663275751,0.368999999991502
3,10,98279.2515031376,0.373000000006869
3,11,80996.8293983398,0.364000000001397
3,12,113748.239712125,0.371999999988475
3,13,65613.3137899633,0.377000000007683
3,14,36787.8610738397,0.364000000001397
3,15,46293.887020251,0.364000000001397
3,16,66906.5164754492,0.36699999999837
3,17,108210.938558854,0.371000000013737
3,18,66996.9885135954,0.368000000002212
3,19,92173.622347353,0.372000000003027
3,20,55867.0165569474,0.365999999994528
3,21,57989.2948497078,0.369999999995343
3,22,127135.69864197,0.37400000001071
3,23,78986.2340884431,0.378000000011525
3,24,57982.693720545,0.315999999991618
3,25,83221.9075789728,0.320000000006985
3,26,88453.0247429435,0.311999999990803
3,27,96167.4520814689,0.293000000005122
3,28,97992.9737583641,0.323000000003958
3,29,44207.2486991757,0.317999999999302
3,30,66637.9763749191,0.362000000008265
4,1,416077.757344708,0.408999999999651
4,2,428531.233448044,0.404999999998836
4,3,362052.3474041,0.396999999997206
4,4,426202.713532422,0.404000000009546
4,5,408578.740596484,0.396999999997206
4,6,314145.966420704,0.397000000011758
4,7,425388.963581006,0.405999999988126
4,8,423090.32851745,0.405000000013388
4,9,447203.263406563,0.396999999997206
4,10,405518.040375708,0.405000000013388
4,11,378028.338629259,0.403999999994994
4,12,410462.042641046,0.399999999994179
4,13,351303.969087475,0.402000000001863
4,14,299174.163268423,0.398000000001048
4,15,383128.655202955,0.402000000001863
4,16,360734.155685874,0.402000000001863
4,17,331067.526525794,0.402999999991152
4,18,322051.647373599,0.404000000009546
4,19,449752.769957131,0.406000000002678
4,20,371129.577758239,0.394999999989523
4,21,387374.655085068,0.404999999998836
4,22,491340.651454281,0.403000000005704
4,23,230558.943083263,0.402000000001863
4,24,271100.889085903,0.402000000001863
4,25,287426.665619159,0.400999999998021
4,26,470283.582307746,0.399000000004889
4,27,428270.366923389,0.404999999998836
4,28,532826.059113361,0.402000000001863
4,29,308485.962317854,0.400000000008731
4,30,353652.369226658,0.399999999994179
5,1,99452.1683253357,0.396000000007916
5,2,118499.603258466,0.397999999986496
5,3,84729.0805848513,0.39100000000326
5,4,98069.1745465877,0.388000000006286
5,5,99733.1411684837,0.341999999989639
5,6,85256.3020319563,0.373000000006869
5,7,114452.999881696,0.362999999997555
5,8,106799.546011944,0.395999999993364
5,9,130500.083030628,0.389000000010128
5,10,124863.590888581,0.399000000004889
5,11,98435.6702227225,0.39100000000326
5,12,125369.446303344,0.392999999996391
5,13,73286.9517004366,0.395000000004075
5,14,61777.9486747727,0.335999999995693
5,15,70999.1047907314,0.317999999999302
5,16,88322.3522948046,0.315999999991618
5,17,121351.608764509,0.351000000009662
5,18,86789.4216554009,0.368000000002212
5,19,121408.033507309,0.375
5,20,72697.1265931587,0.345000000001164
5,21,75251.4243020676,0.320999999996275
5,22,155198.241070688,0.317999999999302
5,23,81782.3305011253,0.349000000001979
5,24,69385.1340944275,0.364999999990687
5,25,96075.446407512,0.375
5,26,113403.073633346,0.403000000005704
5,27,116872.855607232,0.394000000000233
5,28,128931.636238587,0.398000000001048
5,29,69054.1805373658,0.338000000003376
5,30,86852.7772400908,0.317999999999302
6,1,315374.034139872,0.322000000000116
6,2,327106.260809338,0.362999999997555
6,3,242576.294841889,0.328999999997905
6,4,312188.462562581,0.369999999995343
6,5,257076.637438584,0.376000000003842
6,6,263728.61724843,0.411000000007334
6,7,288199.740995314,0.402999999991152
6,8,313611.151781108,0.398000000001048
6,9,343616.938840955,0.403999999994994
6,10,313849.921757347,0.454000000012456
6,11,284131.413305821,0.31699999999546
6,12,292626.175031531,0.328999999997905
6,13,263151.355775092,0.317999999999302
6,14,190335.924672945,0.294999999998254
6,15,246684.110592087,0.376000000003842
6,16,233620.098091875,0.369999999995343
6,17,281173.076547445,0.407999999995809
6,18,269025.397130339,0.400999999998021
6,19,317127.643711922,0.404000000009546
6,20,265200.223838848,0.389999999999418
6,21,267617.702779243,0.330999999991036
6,22,362666.424681472,0.392000000007101
6,23,104372.11481051,0.384000000005472
6,24,240497.425376633,0.385999999998603
6,25,265212.530612845,0.394000000000233
6,26,306420.646049187,0.385999999998603
6,27,323600.620106798,0.394000000000233
6,28,372584.289495103,0.394000000000233
6,29,179432.078735074,0.403000000005704
6,30,261302.187410088,0.330000000001746
7,1,563479.201095996,0.373999999996158
7,2,615520.239707132,0.315000000002328
7,3,484843.962207754,0.313999999998487
7,4,583600.226312036,0.330000000001746
7,5,499381.322626177,0.336999999999534
7,6,523357.009548915,0.307000000000698
7,7,566682.013523023,0.305000000007567
7,8,594780.062530228,0.317999999999302
7,9,654408.629675385,0.342999999993481
7,10,609641.803143904,0.317000000010012
7,11,593131.975526089,0.336999999999534
7,12,597195.338388409,0.309000000008382
7,13,570757.552464484,0.297999999995227
7,14,372285.79120135,0.24100000000908
7,15,494870.693625498,0.313999999998487
7,16,475484.498938766,0.306000000011409
7,17,581341.185143851,0.315000000002328
7,18,507863.486381341,0.313999999998487
7,19,610872.556496634,0.32499999999709
7,20,553421.666420801,0.334000000002561
7,21,516905.49127296,0.307999999989988
7,22,670344.753410124,0.328999999997905
7,23,173713.843470156,0.304999999993015
7,24,462429.293366827,0.333000000013271
7,25,507607.15387826,0.315000000002328
7,26,579249.046387989,0.326000000000931
7,27,619585.990501563,0.304000000003725
7,28,636252.468300769,0.309999999997672
7,29,305029.621674739,0.313999999998487
7,30,494809.591281419,0.315000000002328
8,1,298125.293709153,0.318999999988591
8,2,354508.834364078,0.327000000004773
8,3,258507.203874457,0.305000000007567
8,4,321565.630527519,0.30899999999383
8,5,264525.523668997,0.31699999999546
8,6,310844.185155962,0.326000000000931
8,7,328305.159237557,0.319000000003143
8,8,334174.328545525,0.373999999996158
8,9,398336.878410075,0.427000000010594
8,10,364578.4641446,0.327999999994063
8,11,367544.106335867,0.30899999999383
8,12,377994.847741527,0.296000000002095
8,13,361369.175726353,0.319000000003143
8,14,175300.501544091,0.297000000005937
8,15,257596.16114924,0.339000000007218
8,16,260207.535353832,0.257999999987078
8,17,388179.64400542,0.252000000007683
8,18,295560.753212312,0.3009999999922
8,19,347599.280037632,0.304000000003725
8,20,319370.695888544,0.328999999997905
8,21,264931.556668003,0.322000000000116
8,22,400013.35534168,0.317000000010012
8,23,59219.7408108843,0.35899999999674
8,24,276486.856472907,0.315999999991618
8,25,320508.59368188,0.309000000008382
8,26,311648.23562847,0.297999999995227
8,27,363662.247307833,0.297000000005937
8,28,326406.178819642,0.262999999991735
8,29,102540.566570762,0.309000000008382
8,30,273189.732005332,0.309999999997672
9,1,217463.52236669,0.331999999994878
9,2,213679.903815527,0.30000000000291
9,3,161959.849563557,0.269000000000233
9,4,196827.516557306,0.311999999990803
9,5,174468.848975514,0.30000000000291
9,6,163961.821196211,0.298000000009779
9,7,186556.55558515,0.312999999994645
9,8,206037.458388955,0.320999999996275
9,9,225990.281949518,0.305999999996857
9,10,208980.258919361,0.298000000009779
9,11,176337.118083975,0.260999999998603
9,12,193449.194110576,0.312000000005355
9,13,166321.909313995,0.292000000001281
9,14,153717.390382871,0.302999999999884
9,15,161019.986530284,0.312000000005355
9,16,161490.814320767,0.314999999987776
9,17,189161.801264746,0.298000000009779
9,18,181226.488393181,0.311000000001513
9,19,202587.861501492,0.293999999994412
9,20,158146.086823693,0.298999999999069
9,21,180048.874862596,0.267999999996391
9,22,246146.066196262,0.327000000004773
9,23,122543.833508102,0.264999999999418
9,24,160575.228326449,0.301999999996042
9,25,182988.73630791,0.292000000001281
9,26,203263.708095982,0.302999999999884
9,27,213097.931424939,0.320999999996275
9,28,246818.75915416,0.305999999996857
9,29,153724.048895682,0.238000000012107
9,30,169178.865379635,0.31699999999546
10,1,479913.389558149,0.31699999999546
10,2,529270.912552176,0.336999999999534
10,3,442936.987302294,0.311000000001513
10,4,488964.183957011,0.240999999994528
10,5,450990.674903575,0.313000000009197
10,6,454196.86697854,0.297999999995227
10,7,524388.956376755,0.338999999992666
10,8,515701.317046072,0.372000000003027
10,9,580609.757940007,0.392999999996391
10,10,549329.651670233,0.377000000007683
10,11,523661.501537599,0.377999999996973
10,12,546575.007322402,0.313999999998487
10,13,474744.873043661,0.38300000000163
10,14,366714.938895691,0.397999999986496
10,15,439349.180106153,0.400999999998021
10,16,451000.864167216,0.39100000000326
10,17,528681.34465639,0.402000000001863
10,18,444607.175680463,0.399999999994179
10,19,531640.522445861,0.397000000011758
10,20,466697.24046301,0.398000000001048
10,21,434928.312759813,0.396999999997206
10,22,594134.317159138,0.403000000005704
10,23,253951.674802697,0.396000000007916
10,24,406592.097398202,0.389999999999418
10,25,458784.393374163,0.399999999994179
10,26,519131.719956007,0.402000000001863
10,27,537924.704901405,0.395999999993364
10,28,540156.096609044,0.402000000001863
10,29,307195.892725703,0.389999999999418
10,30,433510.503365542,0.343999999997322
11,1,222196.806118769,0.384000000005472
11,2,229810.65689831,0.36699999999837
11,3,169663.775799973,0.396000000007916
11,4,224380.272965891,0.399000000004889
11,5,185019.663857284,0.398000000001048
11,6,169547.344276546,0.399999999994179
11,7,193308.34465106,0.391999999992549
11,8,212782.503062765,0.33200000000943
11,9,214762.231106247,0.391999999992549
11,10,194415.48853127,0.392000000007101
11,11,187447.21402015,0.392999999996391
11,12,178958.062184579,0.395000000004075
11,13,163768.430375982,0.385999999998603
11,14,119267.10474848,0.387000000002445
11,15,182605.468979201,0.382999999987078
11,16,163133.909369946,0.406000000002678
11,17,164537.233185267,0.331000000005588
11,18,169147.926305248,0.372000000003027
11,19,218982.342711983,0.315000000002328
11,20,167653.127074141,0.323999999993248
11,21,184934.649890928,0.263000000006286
11,22,254565.304536246,0.313999999998487
11,23,133967.1707449,0.24100000000908
11,24,170039.613166344,0.315999999991618
11,25,181538.620784999,0.260999999998603
11,26,232170.514393285,0.304000000003725
11,27,207412.45346147,0.313999999998487
11,28,280440.646580702,0.326000000000931
11,29,159772.093223701,0.307000000000698
11,30,182527.373113569,0.274999999994179
12,1,80915.1963966107,0.309000000008382
12,2,109048.715269531,0.29299999999057
12,3,69423.1312183592,0.233000000007451
12,4,102539.450784873,0.298999999999069
12,5,104097.54474869,0.30000000000291
12,6,79181.6544543178,0.294000000008964
12,7,115426.64049299,0.330999999991036
12,8,98167.5606660069,0.307000000000698
12,9,121344.345892165,0.317999999999302
12,10,108427.051766062,0.351999999998952
12,11,119081.204610919,0.360000000000582
12,12,132893.419373433,0.305999999996857
12,13,91837.2781929847,0.229999999995925
12,14,54789.0572648973,0.344000000011874
12,15,77457.3831456452,0.31699999999546
12,16,81680.1901776123,0.335000000006403
12,17,118857.082975997,0.377999999996973
12,18,63492.6056601062,0.319999999992433
12,19,112727.373514494,0.369000000006054
12,20,108296.233793739,0.342999999993481
12,21,76003.77529242,0.350000000005821
12,22,140737.783884872,0.350999999995111
12,23,53861.6678633277,0.346000000005006
12,24,49600.7372348283,0.341000000000349
12,25,78881.749702276,0.345999999990454
12,26,125401.236740443,0.30000000000291
12,27,107675.240936636,0.296999999991385
12,28,109617.101879167,0.330000000001746
12,29,39841.4046158607,0.286000000007334
12,30,77857.5724133586,0.347999999998137
13,1,151689.305323965,0.388999999995576
13,2,179629.823379774,0.388999999995576
13,3,145806.422670575,0.341000000000349
13,4,160288.470745661,0.371000000013737
13,5,152268.369198261,0.357999999992899
13,6,135660.890129899,0.384999999994761
13,7,186939.094026659,0.392000000007101
13,8,178624.701365459,0.394000000000233
13,9,201967.512314846,0.338999999992666
13,10,188469.786301649,0.376000000003842
13,11,187607.092222465,0.358000000007451
13,12,185982.298842611,0.390999999988708
13,13,159464.652085825,0.335000000006403
13,14,94159.1096622313,0.315000000002328
13,15,143395.496145958,0.317999999999302
13,16,150996.700828995,0.350999999995111
13,17,175677.792686843,0.365000000005239
13,18,130566.292076475,0.36799999998766
13,19,191549.883973858,0.396000000007916
13,20,175672.745322355,0.394999999989523
13,21,127179.2017582,0.336999999999534
13,22,224545.028071985,0.319000000003143
13,23,37867.7068425812,0.292000000001281
13,24,125105.295337701,0.301000000006752
13,25,144311.874628117,0.318999999988591
13,26,188475.09034446,0.30000000000291
13,27,182439.187311824,0.319000000003143
13,28,203090.353722196,0.31699999999546
13,29,60755.2246672996,0.351999999998952
13,30,121575.010126353,0.30000000000291
14,1,103839.268772169,0.299999999988358
14,2,102541.28564553,0.317000000010012
14,3,69677.2930719888,0.297999999995227
14,4,82764.192151848,0.313999999998487
14,5,62298.9213837028,0.307000000000698
14,6,98172.3950511792,0.286999999996624
14,7,89734.3076370874,0.350000000005821
14,8,93925.3797393067,0.347000000008848
14,9,111919.607964758,0.345000000001164
14,10,127164.313813115,0.288999999989755
14,11,119369.358920466,0.30000000000291
14,12,95240.4956906786,0.307000000000698
14,13,122793.214139581,0.301999999996042
14,14,89681.3496158895,0.368000000002212
14,15,67845.2156352337,0.3009999999922
14,16,73400.108563179,0.360000000000582
14,17,131027.601412087,0.330000000001746
14,18,116679.712351744,0.375
14,19,81635.8171467066,0.343999999997322
14,20,106434.270336951,0.302999999999884
14,21,75881.7407814657,0.309000000008382
14,22,111432.045036246,0.376000000003842
14,23,39691.6272845964,0.364000000001397
14,24,118025.556243095,0.390999999988708
14,25,123941.434294093,0.335000000006403
14,26,91094.8093657874,0.334999999991851
14,27,103205.414170349,0.365000000005239
14,28,87879.3904753814,0.320999999996275
14,29,54460.513123192,0.309000000008382
14,30,69073.3467338543,0.304000000003725
15,1,440881.135498531,0.329999999987194
15,2,464659.423002789,0.381999999997788
15,3,386340.108262239,0.362999999997555
15,4,448572.489366973,0.359000000011292
15,5,423581.526342045,0.331999999994878
15,6,364773.069118474,0.365000000005239
15,7,444321.834123909,0.384999999994761
15,8,449847.263660032,0.411000000007334
15,9,457091.182666353,0.403000000005704
15,10,438229.928960491,0.395999999993364
15,11,414246.679187538,0.403000000005704
15,12,409231.462610549,0.448999999993248
15,13,385435.051799034,0.31600000000617
15,14,322737.877292184,0.315000000002328
15,15,401035.582698571,0.331999999994878
15,16,399764.972383883,0.331999999994878
15,17,365847.251846531,0.372000000003027
15,18,351600.772064491,0.376000000003842
15,19,462464.416571302,0.384999999994761
15,20,415926.450530041,0.377999999996973
15,21,392831.238787388,0.389999999999418
15,22,516305.949444875,0.32499999999709
15,23,218243.228255906,0.327000000004773
15,24,327443.514418749,0.311999999990803
15,25,338831.640092164,0.321000000010827
15,26,504429.20163653,0.332999999998719
15,27,444021.380039505,0.379999999990105
15,28,556083.52770697,0.378000000011525
15,29,312703.292978109,0.396999999997206
15,30,380062.965522844,0.403999999994994
16,1,339654.523820433,0.44999999999709
16,2,378765.948351691,0.317999999999302
16,3,291451.113846731,0.3240000000078
16,4,361409.86567124,0.307000000000698
16,5,332872.138098427,0.309000000008382
16,6,304536.971507936,0.296000000002095
16,7,357666.930979908,0.381999999997788
16,8,353154.45344105,0.378000000011525
16,9,378956.047573831,0.404999999998836
16,10,360965.80470808,0.402000000001863
16,11,340723.37230829,0.44999999999709
16,12,367492.962256879,0.319000000003143
16,13,303945.82721206,0.320999999996275
16,14,252285.614641672,0.305999999996857
16,15,303230.758126177,0.309999999997672
16,16,314371.259662843,0.293000000005122
16,17,335446.362285621,0.387999999991735
16,18,296136.303977759,0.396000000007916
16,19,365227.69607519,0.394999999989523
16,20,330573.274105983,0.396999999997206
16,21,317598.010205405,0.451000000000931
16,22,410029.145104294,0.317999999999302
16,23,160493.097454601,0.317999999999302
16,24,262906.421700684,0.305000000007567
16,25,286669.093253732,0.307999999989988
16,26,380654.794773277,0.294999999998254
16,27,371531.487235199,0.388999999995576
16,28,395988.130590999,0.399000000004889
16,29,227267.631621164,0.389999999999418
16,30,312642.219938379,0.398999999990338
17,1,196481.241770089,0.448000000003958
17,2,216262.717605997,0.315000000002328
17,3,185405.395002803,0.323000000003958
17,4,198918.938837248,0.304999999993015
17,5,205308.398306207,0.307000000000698
17,6,162296.718307313,0.292000000001281
17,7,231885.375043284,0.387999999991735
17,8,216846.561719751,0.396000000007916
17,9,250663.262116216,0.394000000000233
17,10,224318.537093486,0.399999999994179
17,11,205053.517268072,0.447000000000116
17,12,242843.597319954,0.317000000010012
17,13,179374.276521178,0.320999999996275
17,14,135983.05841659,0.299999999988358
17,15,177610.491554659,0.307000000000698
17,16,184589.576203219,0.290999999997439
17,17,213223.457459425,0.386000000013155
17,18,163215.961408821,0.392999999996391
17,19,235143.281741559,0.394000000000233
17,20,173199.769882653,0.394000000000233
17,21,177916.279909149,0.394000000000233
17,22,270326.727367574,0.404999999998836
17,23,169003.468814965,0.380000000004657
17,24,134998.467455445,0.322999999989406
17,25,168807.956642947,0.336000000010245
17,26,231338.380217347,0.322999999989406
17,27,223850.284901809,0.360000000000582
17,28,243704.409469934,0.33200000000943
17,29,154891.230453397,0.3009999999922
17,30,176920.266902466,0.307000000000698
18,1,127682.483050888,0.312999999994645
18,2,140646.785932814,0.320999999996275
18,3,81639.2053614664,0.31600000000617
18,4,119235.317225907,0.364999999990687
18,5,107363.843817928,0.298999999999069
18,6,96197.1538899757,0.323000000003958
18,7,107357.106944355,0.332999999998719
18,8,123161.319553066,0.389000000010128
18,9,142822.924638003,0.389999999999418
18,10,133720.129684599,0.386999999987893
18,11,103873.62746519,0.387000000002445
18,12,113407.261237425,0.388000000006286
18,13,92241.5207713101,0.327999999994063
18,14,69378.299550896,0.331000000005588
18,15,90843.4738124059,0.365000000005239
18,16,79036.8148199726,0.363999999986845
18,17,115680.842268139,0.325000000011642
18,18,110464.706369283,0.25899999999092
18,19,120832.388067906,0.360000000000582
18,20,83969.0832112876,0.313999999998487
18,21,109828.44255023,0.270000000004075
18,22,156424.57908588,0.320000000006985
18,23,80238.9472282898,0.288999999989755
18,24,94181.5259959949,0.307000000000698
18,25,116368.229291335,0.296000000002095
18,26,125049.886414857,0.326000000000931
18,27,133705.272939436,0.240999999994528
18,28,153403.052224818,0.325000000011642
18,29,97425.5566905832,0.30899999999383
18,30,108822.197765052,0.309999999997672
19,1,278379.737228102,0.328000000008615
19,2,309208.50806895,0.361999999993714
19,3,208868.678873255,0.313999999998487
19,4,282988.789310978,0.327000000004773
19,5,214436.914982134,0.364999999990687
19,6,251228.438430568,0.370999999999185
19,7,252340.553089255,0.372000000003027
19,8,288077.061106542,0.354000000006636
19,9,342614.933247995,0.342999999993481
19,10,305301.256236779,0.328999999997905
19,11,289351.336629703,0.347999999998137
19,12,291476.998614518,0.377999999996973
19,13,277001.661362614,0.402000000001863
19,14,144416.181461265,0.341000000000349
19,15,215770.158683291,0.36600000000908
19,16,197777.581528561,0.299999999988358
19,17,297767.072126756,0.31600000000617
19,18,246809.502008798,0.326000000000931
19,19,294691.61647484,0.375
19,20,252550.167005747,0.372000000003027
19,21,236638.507092669,0.379000000000815
19,22,346901.442195661,0.384999999994761
19,23,42511.6468391362,0.364000000001397
19,24,222424.917225517,0.376999999993131
19,25,249332.685281435,0.429000000003725
19,26,270452.976789279,0.309999999997672
19,27,311412.939425385,0.3240000000078
19,28,315064.464465961,0.31699999999546
19,29,110073.221123977,0.296000000002095
19,30,224432.736950773,0.370999999999185
20,1,322728.434704878,0.36699999999837
20,2,360888.754298382,0.399000000004889
20,3,301115.028493597,0.392999999996391
20,4,351180.956855625,0.394000000000233
20,5,348490.588313548,0.388999999995576
20,6,290287.00300609,0.395000000004075
20,7,378654.312854087,0.394000000000233
20,8,351491.024742045,0.342999999993481
20,9,402812.109091196,0.368000000002212
20,10,366126.204596318,0.312000000005355
20,11,354820.246629725,0.305999999996857
20,12,411150.097003088,0.3009999999922
20,13,325258.264701469,0.301000000006752
20,14,257688.174530629,0.313999999998487
20,15,309596.568330512,0.293999999994412
20,16,319916.993750678,0.294999999998254
20,17,359704.797561241,0.312000000005355
20,18,286001.851435731,0.297999999995227
20,19,383155.843363941,0.320000000006985
20,20,349213.504822622,0.360999999989872
20,21,303741.948274013,0.351999999998952
20,22,425210.516881337,0.313000000009197
20,23,190553.602159066,0.362999999997555
20,24,251405.026239845,0.302999999999884
20,25,285301.570356224,0.305999999996857
20,26,382944.45732228,0.350999999995111
20,27,372079.571693917,0.315000000002328
20,28,384438.164569113,0.305000000007567
20,29,210130.405382731,0.353999999992084
20,30,303451.691770575,0.369000000006054
21,1,323340.02840256,0.400999999998021
21,2,351057.177145649,0.394999999989523
21,3,297665.371389563,0.344000000011874
21,4,352143.058060645,0.415999999997439
21,5,343220.848131737,0.296000000002095
21,6,278353.017147956,0.30899999999383
21,7,335440.94950199,0.317999999999302
21,8,322089.07908629,0.323000000003958
21,9,323521.410427918,0.370999999999185
21,10,309658.205699236,0.317999999999302
21,11,310470.454136478,0.323000000003958
21,12,326862.935117824,0.304999999993015
21,13,288471.619444671,0.297000000005937
21,14,240999.168541647,0.304000000003725
21,15,306202.483765574,0.357999999992899
21,16,310205.537190194,0.354000000006636
21,17,294481.025175553,0.312999999994645
21,18,251494.296797893,0.365000000005239
21,19,345407.652449256,0.312999999994645
21,20,315607.68132405,0.30800000000454
21,21,296900.728042374,0.358000000007451
21,22,385340.742170685,0.355999999999767
21,23,258210.052172221,0.348999999987427
21,24,240657.007373548,0.402000000001863
21,25,263828.007505845,0.396000000007916
21,26,379218.415722434,0.389999999999418
21,27,319381.419928648,0.394000000000233
21,28,388658.740445697,0.393000000010943
21,29,259722.229698521,0.340999999985797
21,30,310121.420006145,0.36600000000908
22,1,124492.232677851,0.305999999996857
22,2,129984.98040253,0.301000000006752
22,3,93792.5486133133,0.317999999999302
22,4,118208.726227495,0.365999999994528
22,5,113156.754527045,0.370999999999185
22,6,90922.792247418,0.373000000006869
22,7,108596.597937002,0.369999999995343
22,8,118954.684171134,0.369999999995343
22,9,141441.514442229,0.373000000006869
22,10,131720.943539323,0.375
22,11,98772.1251801098,0.365999999994528
22,12,121687.637846148,0.372999999992317
22,13,88438.6908619425,0.368000000002212
22,14,82573.2816489057,0.320000000006985
22,15,94831.9655722986,0.364999999990687
22,16,88684.1242838405,0.304000000003725
22,17,114809.026160823,0.312000000005355
22,18,105159.372600644,0.294999999998254
22,19,125113.185237175,0.351000000009662
22,20,85397.9581015374,0.302999999999884
22,21,107888.550075192,0.303000000014435
22,22,157506.439604353,0.351999999998952
22,23,71306.3158196881,0.3009999999922
22,24,81281.7955323395,0.297999999995227
22,25,102339.847725026,0.317999999999302
22,26,124246.051155805,0.36600000000908
22,27,126109.578427354,0.370999999999185
22,28,149328.822159139,0.377999999996973
22,29,97751.4237524655,0.369000000006054
22,30,109286.703091837,0.369999999995343
23,1,28068.2404197833,0.368000000002212
23,2,26163.6016758027,0.368999999991502
23,3,32256.2298720972,0.36600000000908
23,4,23033.0946524605,0.36799999998766
23,5,36253.968551356,0.368000000002212
23,6,21144.8325363478,0.315000000002328
23,7,28697.0376963663,0.309999999997672
23,8,26137.1459460072,0.313999999998487
23,9,20819.981161227,0.355000000010477
23,10,28067.150568373,0.395999999993364
23,11,22056.9398490884,0.384999999994761
23,12,24831.3780883656,0.334000000002561
23,13,32949.2849399531,0.307000000000698
23,14,65341.7041431115,0.317999999999302
23,15,30571.6929674833,0.30000000000291
23,16,37378.351232247,0.346999999994296
23,17,28895.5130372438,0.30000000000291
23,18,32615.9311063292,0.354000000006636
23,19,23780.8743423094,0.384000000005472
23,20,36389.369020372,0.334000000002561
23,21,23137.4592244336,0.309000000008382
23,22,27632.944018051,0.293999999994412
23,23,82734.3128871118,0.294000000008964
23,24,49233.5338847234,0.321000000010827
23,25,36251.7366355574,0.346999999994296
23,26,38748.9506716366,0.326999999990221
23,27,20459.2233798588,0.293000000005122
23,28,31135.2559707169,0.31699999999546
23,29,66499.9766767812,0.302000000010594
23,30,20355.4548095454,0.312999999994645
24,1,182404.566226952,0.294999999998254
24,2,220393.274865783,0.384999999994761
24,3,145716.694441979,0.389000000010128
24,4,194317.256647971,0.341000000000349
24,5,164099.086118704,0.365999999994528
24,6,186049.071799425,0.304000000003725
24,7,200738.98932901,0.3009999999922
24,8,207162.04495939,0.317999999999302
24,9,247406.12125512,0.364000000001397
24,10,227935.259268028,0.369999999995343
24,11,231578.573961367,0.37400000001071
24,12,230415.313255508,0.370999999999185
24,13,221541.598444173,0.368000000002212
24,14,108268.387503518,0.370000000009895
24,15,154569.799518239,0.375
24,16,154036.071132669,0.368999999991502
24,17,239255.374810462,0.372000000003027
24,18,188469.892679668,0.376000000003842
24,19,209646.992853774,0.32499999999709
24,20,212887.249392433,0.365000000005239
24,21,157341.782612787,0.311999999990803
24,22,249588.846473788,0.306000000011409
24,23,23529.5710182155,0.288999999989755
24,24,179406.931825885,0.296000000002095
24,25,202378.291452864,0.315000000002328
24,26,198135.487189225,0.307000000000698
24,27,224582.934315412,0.349000000001979
24,28,214874.528478087,0.309000000008382
24,29,47781.0374631201,0.298999999999069
24,30,157404.3254655,0.353000000002794
25,1,96579.0248086208,0.370999999999185
25,2,125175.574129678,0.398999999990338
25,3,63764.2585672645,0.392000000007101
25,4,98334.9966590776,0.394000000000233
25,5,70126.0775363369,0.338000000003376
25,6,87267.2518463127,0.362999999997555
25,7,104229.858554938,0.307000000000698
25,8,112981.631313411,0.313999999998487
25,9,177300.985766256,0.357000000003609
25,10,139770.217768478,0.402999999991152
25,11,134402.258580317,0.388000000006286
25,12,158619.208064487,0.394000000000233
25,13,126719.601850088,0.39100000000326
25,14,38109.0041186352,0.38300000000163
25,15,64990.6819637971,0.392000000007101
25,16,63457.1236849883,0.391999999992549
25,17,158641.61940271,0.341000000000349
25,18,90541.8022253592,0.365000000005239
25,19,130086.226753678,0.312000000005355
25,20,83225.4041179296,0.304000000003725
25,21,67984.0317521228,0.361000000004424
25,22,172304.525777936,0.404999999998836
25,23,38611.8345129129,0.385999999998603
25,24,78567.9754521704,0.39100000000326
25,25,110704.11145939,0.342999999993481
25,26,97216.775797566,0.415999999997439
25,27,137931.780687165,0.298000000009779
25,28,120550.307613287,0.338999999992666
25,29,30998.2008807371,0.292000000001281
25,30,71493.1303563178,0.305999999996857
26,1,17835.390292614,0.312000000005355
26,2,44265.7673101702,0.345000000001164
26,3,35999.7210059786,0.387999999991735
26,4,43171.6549373331,0.380000000004657
26,5,55708.6295651232,0.384999999994761
26,6,29130.8386738454,0.380000000004657
26,7,51637.710985,0.38300000000163
26,8,37223.4747529868,0.385999999998603
26,9,44999.5615888103,0.38300000000163
26,10,41414.5211115701,0.380000000004657
26,11,54546.7623779895,0.387000000002445
26,12,66829.7762712474,0.387999999991735
26,13,44368.5161154753,0.336999999999534
26,14,35820.6236895401,0.334000000002561
26,15,42142.7116899596,0.328000000008615
26,16,47505.9395948067,0.314999999987776
26,17,59679.7959372692,0.348000000012689
26,18,24377.3040755735,0.347999999998137
26,19,49530.7768952151,0.30000000000291
26,20,51599.1410891616,0.301999999996042
26,21,26969.8443585999,0.345000000001164
26,22,57914.2140569422,0.302000000010594
26,23,84013.0053809446,0.303999999989173
26,24,27184.8565359424,0.345000000001164
26,25,26748.4323215322,0.298999999999069
26,26,56978.9729705974,0.357000000003609
26,27,40667.6381177928,0.388000000006286
26,28,41363.8030006444,0.38300000000163
26,29,46198.082032196,0.384999999994761
26,30,33145.7549201207,0.385999999998603
27,1,74702.0940889381,0.392999999996391
27,2,88970.7393206364,0.385999999998603
27,3,45760.0343293835,0.387000000002445
27,4,74426.0020859331,0.389999999999418
27,5,58738.3992410979,0.336000000010245
27,6,77625.5263946462,0.362999999997555
27,7,71999.8689147108,0.30000000000291
27,8,75475.6218847442,0.309999999997672
27,9,109530.596588375,0.29299999999057
27,10,96225.3463102118,0.346000000005006
27,11,99739.6144833732,0.298999999999069
27,12,94942.5158486294,0.301999999996042
27,13,93656.677886383,0.345000000001164
27,14,45627.2024033513,0.30000000000291
27,15,51405.8061791807,0.301999999996042
27,16,55230.6964423161,0.342999999993481
27,17,117141.325594566,0.302999999999884
27,18,84649.5026224536,0.363000000012107
27,19,72576.1138626538,0.384999999994761
27,20,84295.9596526819,0.384999999994761
27,21,54345.0428323715,0.385999999998603
27,22,104358.187655002,0.39000000001397
27,23,36121.0103444879,0.384000000005472
27,24,76815.332831274,0.384999999994761
27,25,83473.2760133255,0.389000000010128
27,26,73769.9047198226,0.389999999999418
27,27,92950.021330828,0.339999999996508
27,28,77843.3239322508,0.364000000001397
27,29,27100.5669891459,0.30000000000291
27,30,60579.8173163988,0.30899999999383
28,1,292931.098766656,0.297000000005937
28,2,300520.031980383,0.352999999988242
28,3,259654.835687253,0.305000000007567
28,4,294834.683575707,0.305999999996857
28,5,304665.634061691,0.351999999998952
28,6,204138.201623947,0.312999999994645
28,7,331434.283856532,0.305999999996857
28,8,305713.363125833,0.361000000004424
28,9,324222.167811984,0.403999999994994
28,10,293481.110508124,0.39000000001397
28,11,281313.704376333,0.392999999996391
28,12,304261.759636052,0.341999999989639
28,13,266551.885667825,0.415000000008149
28,14,203873.280840481,0.296000000002095
28,15,279888.372023544,0.311000000001513
28,16,271072.482450778,0.341000000000349
28,17,225530.833666615,0.297999999995227
28,18,209856.457822697,0.297999999995227
28,19,324478.208856343,0.32499999999709
28,20,284884.958470418,0.362999999997555
28,21,255689.204723888,0.365000000005239
28,22,368213.609885799,0.404999999998836
28,23,156783.471403271,0.336999999999534
28,24,166914.603636226,0.415999999997439
28,25,205600.686315061,0.297000000005937
28,26,355857.406136751,0.323000000003958
28,27,302918.467864498,0.30000000000291
28,28,394001.667398049,0.31699999999546
28,29,190467.084568735,0.309000000008382
28,30,239309.158684757,0.302999999999884
29,1,403183.467423574,0.311999999990803
29,2,444866.632985366,0.311000000001513
29,3,338673.456624352,0.313999999998487
29,4,414079.12288337,0.305000000007567
29,5,353935.40246232,0.36699999999837
29,6,378487.936685112,0.354999999995925
29,7,414789.386696519,0.353999999992084
29,8,430247.128035825,0.407000000006519
29,9,489036.145782601,0.402000000001863
29,10,439848.736714171,0.388999999995576
29,11,438485.793201158,0.398000000001048
29,12,459490.402192993,0.396000000007916
29,13,439077.955430536,0.344999999986612
29,14,245517.514028863,0.335000000006403
29,15,344375.076282208,0.307000000000698
29,16,337813.648622814,0.338000000003376
29,17,445460.664795871,0.311999999990803
29,18,361888.578789993,0.325000000011642
29,19,440398.2900599,0.326999999990221
29,20,391942.455228034,0.30000000000291
29,21,358528.267651964,0.323999999993248
29,22,502559.791037921,0.385000000009313
29,23,100555.514043482,0.360999999989872
29,24,329790.625707868,0.404000000009546
29,25,385609.298947779,0.395999999993364
29,26,414972.143444138,0.346000000005006
29,27,446430.531881041,0.341999999989639
29,28,460597.623450413,0.327000000004773
29,29,182392.811053624,0.345000000001164
29,30,353324.97797345,0.322000000000116
30,1,283418.533764989,0.396000000007916
30,2,301147.252260621,0.389999999999418
30,3,268860.571547751,0.394000000000233
30,4,292408.436330149,0.39100000000326
30,5,319691.435902872,0.389999999999418
30,6,216976.962472665,0.392999999996391
30,7,315691.231383451,0.394000000000233
30,8,298596.854655005,0.392000000007101
30,9,303824.646431535,0.394000000000233
30,10,270978.553160801,0.395999999993364
30,11,274730.121035404,0.343999999997322
30,12,302740.081318673,0.367000000012922
30,13,255002.920312263,0.310999999986961
30,14,211014.161640209,0.306000000011409
30,15,284951.676396332,0.298999999999069
30,16,283445.966741878,0.349000000001979
30,17,238444.957073334,0.311000000001513
30,18,204135.328125574,0.35899999999674
30,19,326010.654930679,0.404999999998836
30,20,269999.776694201,0.438999999998487
30,21,254055.734011334,0.304999999993015
30,22,361923.474343754,0.328000000008615
30,23,238777.588477306,0.312999999994645
30,24,179272.72694911,0.297000000005937
30,25,199750.791837313,0.307999999989988
30,26,362426.4081755,0.363000000012107
30,27,288260.778508241,0.356999999989057
30,28,392240.087235609,0.355000000010477
30,29,224993.54388261,0.339999999996508
30,30,248169.953562686,0.319000000003143
