Trial,Energy (J)
1,58.464260375919956
2,61.00607346863185
3,62.842222745728186
4,57.93457106483593
5,60.014725227131876
6,60.26420503358793
7,58.176953073104045
8,58.23142766910399
9,59.75887572032382
10,61.37652783488001
11,59.98711199554795
12,61.73326789856394
13,59.25163060991199
14,56.7497231221321
15,61.734965935379904
16,60.57670849367187
17,57.83968301170379
18,59.835513957955826
19,58.69061120729617
20,56.50099614547999
21,60.68039405860775
22,58.74699687672804
23,59.247998154171796
24,59.89634635018382
25,58.42866538146804
26,61.399374216216025
27,58.14650905688416
28,58.70581316512389
29,59.819269412011984
30,60.750810345739886
