App - Materialistic
Scenario - read_article
Length - 5sec
Measure - TWED
Before Version - 57
After Version - 58


"Before.Trace.ID1","Before.Trace.ID2","Difference","Runtime"
1,2,347509.846551103,0.0750000000007276
1,3,409039.966442103,0.0750000000007276
1,4,388513.864883304,0.0749999999970896
1,5,419863.904027692,0.0750000000007276
1,6,343819.668756782,0.0750000000007276
1,7,312167.346510931,0.0750000000007276
1,8,387670.597112934,0.0750000000007276
1,9,307625.42642796,0.0749999999970896
1,10,415835.153081631,0.0750000000007276
1,11,350871.118878205,0.0750000000007276
1,12,279926.521438818,0.0750000000007276
1,13,344121.313775588,0.0750000000007276
1,14,406864.248200286,0.0749999999970896
1,15,440314.009728261,0.0750000000007276
1,16,305816.17697017,0.0750000000007276
1,17,345928.8925122,0.0750000000007276
1,18,341664.422710582,0.0750000000007276
1,19,410438.095455898,0.0749999999970896
1,20,404295.610666832,0.0750000000007276
1,21,310709.582216487,0.0750000000007276
1,22,308228.111204521,0.0750000000007276
1,23,306562.195896407,0.0750000000007276
1,24,304713.84684536,0.0749999999970896
1,25,396927.487609446,0.0750000000007276
1,26,307251.742988822,0.0750000000007276
1,27,318691.843831269,0.0750000000007276
1,28,326187.933420652,0.0750000000007276
1,29,332333.610491229,0.0749999999970896
1,30,315866.111294961,0.0750000000007276
2,3,345028.736979975,0.0740000000005239
2,4,349833.97494745,0.0740000000005239
2,5,414475.820371448,0.0740000000005239
2,6,321009.795909159,0.0739999999968859
2,7,383458.146778795,0.0740000000005239
2,8,428452.822568549,0.0740000000005239
2,9,392592.235178292,0.0750000000007276
2,10,382721.753798749,0.0750000000007276
2,11,349399.543388388,0.0749999999970896
2,12,344011.5353001,0.0750000000007276
2,13,361916.616440022,0.0750000000007276
2,14,428450.209558068,0.0750000000007276
2,15,428147.695901413,0.0750000000007276
2,16,318750.647361967,0.0749999999970896
2,17,363773.078243734,0.0750000000007276
2,18,337762.819932186,0.0750000000007276
2,19,406817.10020458,0.0750000000007276
2,20,404277.08391867,0.0750000000007276
2,21,308157.72827891,0.0749999999970896
2,22,359921.25513931,0.0750000000007276
2,23,343977.839631309,0.0750000000007276
2,24,313584.12522336,0.0750000000007276
2,25,362488.317487263,0.0750000000007276
2,26,336688.637032155,0.0749999999970896
2,27,343859.678548637,0.0750000000007276
2,28,373702.759810229,0.0750000000007276
2,29,340491.026886305,0.0750000000007276
2,30,347275.91009618,0.0750000000007276
3,4,331818.990041729,0.0749999999970896
3,5,400637.52893501,0.0740000000005239
3,6,342105.379653913,0.0740000000005239
3,7,402963.065063605,0.0750000000007276
3,8,440990.49609419,0.0750000000007276
3,9,420192.315849997,0.0750000000007276
3,10,394988.89906,0.0749999999970896
3,11,314071.004593206,0.0750000000007276
3,12,384580.793089778,0.0750000000007276
3,13,336297.981408828,0.0750000000007276
3,14,435294.965110992,0.0750000000007276
3,15,440685.369427054,0.0749999999970896
3,16,365677.128599952,0.0750000000007276
3,17,404930.374463201,0.0750000000007276
3,18,326782.112497706,0.0750000000007276
3,19,410581.65987175,0.0750000000007276
3,20,400122.441653482,0.0749999999970896
3,21,351899.039486848,0.0740000000005239
3,22,402372.586613319,0.0740000000005239
3,23,392899.471896879,0.0740000000005239
3,24,394843.072945363,0.0750000000007276
3,25,380959.269690059,0.0749999999970896
3,26,393280.093159886,0.0750000000007276
3,27,360376.366969303,0.0750000000007276
3,28,422410.810691608,0.0750000000007276
3,29,373149.050471524,0.0750000000007276
3,30,402865.794755138,0.0749999999970896
4,5,399532.501110211,0.0750000000007276
4,6,329707.90652161,0.0750000000007276
4,7,423031.779867426,0.0750000000007276
4,8,433803.096941651,0.0740000000005239
4,9,425023.322743898,0.0739999999968859
4,10,405042.893594898,0.0740000000005239
4,11,314237.264842061,0.0750000000007276
4,12,390567.586763088,0.0750000000007276
4,13,343547.709088431,0.0750000000007276
4,14,433800.483931171,0.0749999999970896
4,15,433497.970274515,0.0750000000007276
4,16,377883.430451152,0.0750000000007276
4,17,387209.291520451,0.0750000000007276
4,18,325743.997341495,0.0750000000007276
4,19,410614.676293989,0.0749999999970896
4,20,404472.191504923,0.0750000000007276
4,21,356971.119411245,0.0740000000005239
4,22,387193.109456557,0.0740000000005239
4,23,392577.629478092,0.0750000000007276
4,24,363857.893154293,0.0750000000007276
4,25,395943.368029733,0.0749999999970896
4,26,393099.507189756,0.0750000000007276
4,27,358955.935710591,0.0750000000007276
4,28,398866.943032681,0.0750000000007276
4,29,382899.946293144,0.0750000000007276
4,30,390984.413892197,0.0749999999970896
5,6,365778.349773933,0.0750000000007276
5,7,419571.251285373,0.0750000000007276
5,8,419786.616752665,0.0750000000007276
5,9,419767.102569858,0.0750000000007276
5,10,298595.815739627,0.0749999999970896
5,11,420066.849609994,0.0750000000007276
5,12,419871.408461819,0.0750000000007276
5,13,420056.335601511,0.0750000000007276
5,14,419784.003742185,0.0750000000007276
5,15,419481.490085529,0.0739999999968859
5,16,416059.073354138,0.0740000000005239
5,17,413325.889326137,0.0740000000005239
5,18,419927.286687306,0.0750000000007276
5,19,361857.079634708,0.0750000000007276
5,20,372699.089255966,0.0749999999970896
5,21,396570.884025792,0.0750000000007276
5,22,419914.000264787,0.0750000000007276
5,23,419830.943498763,0.0750000000007276
5,24,419891.379380455,0.0750000000007276
5,25,345986.811803557,0.0749999999970896
5,26,402894.371165354,0.0750000000007276
5,27,419926.023411852,0.0740000000005239
5,28,419693.924584201,0.0740000000005239
5,29,385148.213369377,0.0750000000007276
5,30,419836.424924449,0.0749999999970896
6,7,377775.830608533,0.0750000000007276
6,8,429657.04484572,0.0750000000007276
6,9,388254.954798732,0.0780000000013388
6,10,349121.635582861,0.0749999999970896
6,11,354806.829523972,0.0750000000007276
6,12,351132.737090608,0.0740000000005239
6,13,351442.913226089,0.0740000000005239
6,14,424435.132666316,0.0750000000007276
6,15,429351.918178584,0.0749999999970896
6,16,324866.91168943,0.0750000000007276
6,17,312941.317133143,0.0750000000007276
6,18,346649.216147704,0.0750000000007276
6,19,367109.689214102,0.0750000000007276
6,20,375028.185484614,0.0749999999970896
6,21,295009.430848004,0.0750000000007276
6,22,337012.997697539,0.0750000000007276
6,23,329118.385734102,0.0750000000007276
6,24,335381.608268747,0.0750000000007276
6,25,337966.232621775,0.0749999999970896
6,26,325684.600261767,0.0750000000007276
6,27,341943.89159867,0.0750000000007276
6,28,367129.56535563,0.0750000000007276
6,29,291423.914388067,0.0750000000007276
6,30,330787.111390981,0.0749999999970896
7,8,422119.385067921,0.0750000000007276
7,9,317338.451884748,0.0750000000007276
7,10,415542.500339312,0.0750000000007276
7,11,398690.278521291,0.0750000000007276
7,12,345650.915216403,0.0749999999970896
7,13,387400.492610321,0.0750000000007276
7,14,434858.747952822,0.0750000000007276
7,15,442128.499274128,0.0750000000007276
7,16,349149.997023023,0.0750000000007276
7,17,398807.698713163,0.0749999999970896
7,18,398869.290178449,0.0750000000007276
7,19,410145.442713579,0.0750000000007276
7,20,404002.957924513,0.0750000000007276
7,21,351420.016847175,0.0750000000007276
7,22,363561.9538982,0.0749999999970896
7,23,352024.550100406,0.0750000000007276
7,24,351909.305680669,0.0750000000007276
7,25,415746.679980612,0.0750000000007276
7,26,355296.271500134,0.0750000000007276
7,27,395660.560937788,0.0749999999970896
7,28,367318.832953972,0.0750000000007276
7,29,363806.236770028,0.0750000000007276
7,30,366246.993413964,0.0750000000007276
8,9,384418.911838692,0.0750000000007276
8,10,415757.865806604,0.0749999999970896
8,11,434794.273750963,0.0750000000007276
8,12,384069.89693013,0.0750000000007276
8,13,440506.533198066,0.0750000000007276
8,14,381983.393513188,0.0750000000007276
8,15,441202.273273451,0.0749999999970896
8,16,403832.984284002,0.0750000000007276
8,17,411326.061447775,0.0750000000007276
8,18,434814.388427361,0.0750000000007276
8,19,410360.808180871,0.0750000000007276
8,20,404218.323391805,0.0749999999970896
8,21,418895.250233984,0.0750000000007276
8,22,397606.137081166,0.0750000000007276
8,23,395707.469446797,0.0750000000007276
8,24,404944.440848422,0.0750000000007276
8,25,415962.045447904,0.0749999999970896
8,26,397373.543127754,0.0750000000007276
8,27,422709.277451771,0.0750000000007276
8,28,364281.638878471,0.0750000000007276
8,29,433132.326817343,0.0750000000007276
8,30,405754.103200354,0.0749999999970896
9,10,415738.351623797,0.0750000000007276
9,11,381900.023643516,0.0750000000007276
9,12,343145.523201207,0.0750000000007276
9,13,365556.661597464,0.0750000000007276
9,14,421709.181438484,0.0749999999970896
9,15,442324.350558612,0.0750000000007276
9,16,336943.937832847,0.0750000000007276
9,17,376531.828592771,0.0750000000007276
9,18,367960.847627164,0.0750000000007276
9,19,410341.293998064,0.0749999999970896
9,20,404198.809208998,0.0750000000007276
9,21,348928.225608273,0.0740000000005239
9,22,333199.363624389,0.0740000000005239
9,23,343321.043523413,0.0740000000005239
9,24,352229.499071825,0.0739999999968859
9,25,415942.531265097,0.0750000000007276
9,26,353080.744367493,0.0750000000007276
9,27,378828.524910406,0.0750000000007276
9,28,341457.990021003,0.0750000000007276
9,29,387878.658134973,0.0749999999970896
9,30,352702.452049509,0.0750000000007276
10,11,412207.482770935,0.0750000000007276
10,12,413106.315344577,0.0750000000007276
10,13,416027.58465545,0.0750000000007276
10,14,415755.252796123,0.0749999999970896
10,15,415452.739139468,0.0750000000007276
10,16,389097.233049559,0.0750000000007276
10,17,371577.647665673,0.0750000000007276
10,18,408205.639886017,0.0750000000007276
10,19,334533.516760316,0.0749999999970896
10,20,343913.67312245,0.0750000000007276
10,21,360109.953844926,0.0750000000007276
10,22,406624.078650094,0.0750000000007276
10,23,378317.273431308,0.0750000000007276
10,24,409490.103766173,0.0749999999970896
10,25,339119.121198879,0.0750000000007276
10,26,371632.224206886,0.0750000000007276
10,27,383042.855032484,0.0750000000007276
10,28,415665.17363814,0.0750000000007276
10,29,352398.825996747,0.0749999999970896
10,30,380136.267768197,0.0750000000007276
11,12,352218.891805829,0.0740000000005239
11,13,297181.307043938,0.0740000000005239
11,14,412742.831833899,0.0740000000005239
11,15,434489.147083827,0.0739999999968859
11,16,326518.890745793,0.0740000000005239
11,17,374974.870947209,0.0740000000005239
11,18,307634.97068624,0.0740000000005239
11,19,410641.0410382,0.0750000000007276
11,20,404498.556249134,0.0749999999970896
11,21,335965.390426748,0.0750000000007276
11,22,383191.196151364,0.0750000000007276
11,23,374259.078627307,0.0750000000007276
11,24,357875.933614599,0.0750000000007276
11,25,407430.171192456,0.0749999999970896
11,26,358369.104644315,0.0750000000007276
11,27,319192.066792092,0.0750000000007276
11,28,385390.660343243,0.0750000000007276
11,29,386098.424114308,0.0750000000007276
11,30,371414.852097086,0.0749999999970896
12,13,330808.696510258,0.0740000000005239
12,14,415045.479450428,0.0740000000005239
12,15,437800.493195379,0.0740000000005239
12,16,294939.846087222,0.0750000000007276
12,17,334137.327703542,0.0750000000007276
12,18,334960.329800402,0.0749999999970896
12,19,403843.208195856,0.0750000000007276
12,20,404303.115100959,0.0750000000007276
12,21,312896.106700807,0.0750000000007276
12,22,345080.381085942,0.0750000000007276
12,23,319998.906057067,0.0749999999970896
12,24,292981.743056711,0.0750000000007276
12,25,384810.415464656,0.0740000000005239
12,26,310895.643664401,0.0740000000005239
12,27,350844.442688357,0.0750000000007276
12,28,320260.696602784,0.0749999999970896
12,29,336435.831600937,0.0750000000007276
12,30,325827.581063881,0.0750000000007276
13,14,434081.935353926,0.0750000000007276
13,15,442613.583590266,0.0750000000007276
13,16,323059.941506892,0.0749999999970896
13,17,351889.454897903,0.0750000000007276
13,18,296354.258931286,0.0750000000007276
13,19,410630.527029718,0.0750000000007276
13,20,404488.042240651,0.0750000000007276
13,21,329230.44924459,0.0739999999968859
13,22,376870.918521981,0.0740000000005239
13,23,365253.396812725,0.0750000000007276
13,24,337112.450621135,0.0750000000007276
13,25,401646.303194702,0.0750000000007276
13,26,348740.613631522,0.0749999999970896
13,27,309286.747994234,0.0750000000007276
13,28,353735.842195099,0.0750000000007276
13,29,373793.920838714,0.0750000000007276
13,30,360441.41784272,0.0750000000007276
14,15,434768.986752977,0.0749999999970896
14,16,412759.27713808,0.0750000000007276
14,17,410473.909149079,0.0750000000007276
14,18,434811.775416881,0.0740000000005239
14,19,410358.195170391,0.0740000000005239
14,20,404215.710381324,0.0739999999968859
14,21,408468.516609199,0.0750000000007276
14,22,409606.013858474,0.0750000000007276
14,23,395419.559111187,0.0750000000007276
14,24,420129.490344133,0.0750000000007276
14,25,415959.432437424,0.0749999999970896
14,26,402770.38433238,0.0750000000007276
14,27,414826.464385162,0.0750000000007276
14,28,409506.651698708,0.0750000000007276
14,29,414667.680811087,0.0750000000007276
14,30,395696.902596097,0.0749999999970896
15,16,426525.805953247,0.0750000000007276
15,17,427803.093986042,0.0740000000005239
15,18,434509.261760225,0.0740000000005239
15,19,410055.681513735,0.0750000000007276
15,20,403913.196724669,0.0750000000007276
15,21,432050.014640346,0.0749999999970896
15,22,441950.55226446,0.0750000000007276
15,23,436634.300151695,0.0750000000007276
15,24,427875.859083133,0.0750000000007276
15,25,415656.918780768,0.0750000000007276
15,26,427072.535328462,0.0749999999970896
15,27,440068.484125098,0.0750000000007276
15,28,438498.06114754,0.0750000000007276
15,29,432827.200150208,0.0740000000005239
15,30,435808.415232217,0.0740000000005239
16,17,324087.385927627,0.0749999999970896
16,18,312704.746380154,0.0750000000007276
16,19,398708.013163977,0.0750000000007276
16,20,400954.10690992,0.0750000000007276
16,21,290038.691226266,0.0750000000007276
16,22,343859.138116588,0.0749999999970896
16,23,310736.432010453,0.0750000000007276
16,24,286402.506880488,0.0750000000007276
16,25,370379.9243931,0.0750000000007276
16,26,285559.672482282,0.0740000000005239
16,27,321814.206014469,0.0739999999968859
16,28,325121.247953826,0.0740000000005239
16,29,334350.020454709,0.0750000000007276
16,30,311330.059185787,0.0750000000007276
17,18,351847.414821339,0.0750000000007276
17,19,350829.560920634,0.0749999999970896
17,20,360578.865376481,0.0750000000007276
17,21,311829.28561553,0.0750000000007276
17,22,324305.616452254,0.0750000000007276
17,23,314672.791125014,0.0740000000005239
17,24,253233.674231995,0.0749999999970896
17,25,327226.877176257,0.0750000000007276
17,26,312775.997813386,0.0740000000005239
17,27,346566.569321876,0.0740000000005239
17,28,314038.81599372,0.0740000000005239
17,29,336612.508891383,0.0740000000005239
17,30,288675.575275498,0.0749999999970896
18,19,410501.478115512,0.0750000000007276
18,20,404358.993326446,0.0750000000007276
18,21,327934.256380393,0.0750000000007276
18,22,361299.861171048,0.0750000000007276
18,23,367745.971006832,0.0749999999970896
18,24,334731.026328201,0.0750000000007276
18,25,401315.054831303,0.0740000000005239
18,26,346913.527015966,0.0740000000005239
18,27,318577.62781358,0.0750000000007276
18,28,352288.834166342,0.0749999999970896
18,29,372451.863544314,0.0750000000007276
18,30,351968.469623563,0.0750000000007276
19,20,278290.476321285,0.0750000000007276
19,21,383420.473855612,0.0750000000007276
19,22,399333.869125543,0.0749999999970896
19,23,372030.98260533,0.0740000000005239
19,24,410465.570808661,0.0740000000005239
19,25,286834.120453995,0.0750000000007276
19,26,379460.025807114,0.0750000000007276
19,27,403533.8312409,0.0749999999970896
19,28,403310.118236806,0.0750000000007276
19,29,380161.143035147,0.0750000000007276
19,30,366101.970767326,0.0750000000007276
20,21,399294.014971771,0.0750000000007276
20,22,398348.192762676,0.0749999999970896
20,23,390400.632192801,0.0750000000007276
20,24,404186.050885086,0.0750000000007276
20,25,301223.530304948,0.0750000000007276
20,26,393602.138225872,0.0750000000007276
20,27,404357.730050992,0.0749999999970896
20,28,404125.631223341,0.0750000000007276
20,29,384888.196938765,0.0750000000007276
20,30,375148.01345207,0.0750000000007276
21,22,326030.967548308,0.0750000000007276
21,23,296028.989604339,0.0749999999970896
21,24,325496.240536796,0.0750000000007276
21,25,352349.404102928,0.0750000000007276
21,26,298764.37392525,0.0750000000007276
21,27,308307.984430943,0.0750000000007276
21,28,333328.733219522,0.0739999999968859
21,29,294329.75310879,0.0750000000007276
21,30,305195.934835582,0.0750000000007276
22,23,299948.159948066,0.0750000000007276
22,24,337211.697626925,0.0750000000007276
22,25,376067.012286579,0.0749999999970896
22,26,334577.488070327,0.0750000000007276
22,27,357856.621825064,0.0750000000007276
22,28,312563.192256016,0.0750000000007276
22,29,340667.019124528,0.0750000000007276
22,30,289794.578086681,0.0749999999970896
23,24,332158.007272111,0.0750000000007276
23,25,346769.705865687,0.0740000000005239
23,26,289992.50465223,0.0750000000007276
23,27,322666.627190883,0.0749999999970896
23,28,313613.468132487,0.0750000000007276
23,29,327555.034860008,0.0750000000007276
23,30,266493.448563293,0.0750000000007276
24,25,391450.69373882,0.0750000000007276
24,26,305626.760088192,0.0749999999970896
24,27,356480.510946706,0.0780000000013388
24,28,318134.99847876,0.0750000000007276
24,29,338906.117483421,0.0750000000007276
24,30,323494.499706092,0.0749999999970896
25,26,348601.842659294,0.0750000000007276
25,27,378818.934587355,0.0750000000007276
25,28,383173.30167378,0.0750000000007276
25,29,371961.837191894,0.0750000000007276
25,30,340116.817587169,0.0759999999972933
26,27,318105.430082655,0.0750000000007276
26,28,336386.598500867,0.0750000000007276
26,29,330557.344496529,0.0750000000007276
26,30,295919.468825392,0.0750000000007276
27,28,361857.652305101,0.0749999999970896
27,29,363509.505001482,0.0750000000007276
27,30,331987.902265474,0.0750000000007276
28,29,370830.675133358,0.0750000000007276
28,30,302964.112465378,0.0750000000007276
29,30,333983.964154832,0.0749999999970896


"After.Trace.ID","Before.Trace.ID","Difference","Runtime"
1,1,397251.274323053,0.0749999999970896
1,2,417160.304262469,0.0750000000007276
1,3,433480.15779883,0.0750000000007276
1,4,422797.744698233,0.0750000000007276
1,5,420266.939788219,0.0740000000005239
1,6,406518.427107593,0.0739999999968859
1,7,427205.093346792,0.0740000000005239
1,8,400267.938570824,0.0740000000005239
1,9,419836.439809463,0.0750000000007276
1,10,416238.188842158,0.0750000000007276
1,11,418367.912069227,0.0749999999970896
1,12,398165.89779789,0.0750000000007276
1,13,420982.914477413,0.0750000000007276
1,14,387013.122881945,0.0750000000007276
1,15,432954.179440815,0.0750000000007276
1,16,393689.462269227,0.0749999999970896
1,17,392868.801013356,0.0750000000007276
1,18,412873.650283572,0.0750000000007276
1,19,410841.131216426,0.0750000000007276
1,20,404698.64642736,0.0750000000007276
1,21,373533.700672683,0.0749999999970896
1,22,407596.532688144,0.0750000000007276
1,23,390113.513589268,0.0750000000007276
1,24,405287.574928694,0.0740000000005239
1,25,416442.368483458,0.0740000000005239
1,26,388713.448252555,0.0739999999968859
1,27,409298.672123701,0.0750000000007276
1,28,400234.335454279,0.0750000000007276
1,29,366083.889192348,0.0750000000007276
1,30,387291.459098277,0.0750000000007276
2,1,431322.411677509,0.0749999999970896
2,2,428795.008403774,0.0750000000007276
2,3,441332.681929416,0.0750000000007276
2,4,434145.282776877,0.0750000000007276
2,5,420128.802587891,0.0750000000007276
2,6,429999.230680945,0.0749999999970896
2,7,426050.546428566,0.0750000000007276
2,8,421152.026162226,0.0750000000007276
2,9,408473.964523182,0.0740000000005239
2,10,416100.051641829,0.0740000000005239
2,11,435136.459586188,0.0740000000005239
2,12,438447.80569774,0.0740000000005239
2,13,444482.053308216,0.0750000000007276
2,14,427805.743350953,0.0750000000007276
2,15,442686.050576645,0.0750000000007276
2,16,427173.118455609,0.0750000000007276
2,17,428450.406488404,0.0749999999970896
2,18,435156.574262587,0.0750000000007276
2,19,410702.994016097,0.0750000000007276
2,20,404560.509227031,0.0750000000007276
2,21,432697.327142708,0.0750000000007276
2,22,425023.448331607,0.0749999999970896
2,23,435914.886569728,0.0750000000007276
2,24,428523.171585494,0.0750000000007276
2,25,416304.23128313,0.0750000000007276
2,26,427719.847830824,0.0740000000005239
2,27,440715.79662746,0.0739999999968859
2,28,439145.373649901,0.0750000000007276
2,29,433474.512652569,0.0750000000007276
2,30,436455.727734578,0.0750000000007276
3,1,425004.577618565,0.0750000000007276
3,2,424986.050870403,0.0749999999970896
3,3,425148.142034417,0.0750000000007276
3,4,425181.158456656,0.0750000000007276
3,5,419495.316712342,0.0750000000007276
3,6,425022.054619904,0.0750000000007276
3,7,424711.924876247,0.0749999999970896
3,8,424927.290343538,0.0750000000007276
3,9,424907.776160731,0.0740000000005239
3,10,415466.56576628,0.0740000000005239
3,11,425207.523200868,0.0740000000005239
3,12,425012.082052692,0.0749999999970896
3,13,425197.009192385,0.0750000000007276
3,14,424924.677333058,0.0750000000007276
3,15,361240.124367667,0.0750000000007276
3,16,424940.801219088,0.0750000000007276
3,17,425041.896636286,0.0749999999970896
3,18,425067.96027818,0.0750000000007276
3,19,410069.508140548,0.0750000000007276
3,20,403927.023351481,0.0740000000005239
3,21,425029.330176752,0.0740000000005239
3,22,425054.673855661,0.0739999999968859
3,23,424971.617089636,0.0750000000007276
3,24,425032.052971329,0.0750000000007276
3,25,415670.74540758,0.0750000000007276
3,26,424979.451021383,0.0750000000007276
3,27,425066.697002725,0.0749999999970896
3,28,424834.598175074,0.0750000000007276
3,29,424974.104234494,0.0750000000007276
3,30,424977.098515322,0.0740000000005239
4,1,400213.217584089,0.0740000000005239
4,2,416149.878225505,0.0750000000007276
4,3,438039.460012429,0.0749999999970896
4,4,421680.488882849,0.0750000000007276
4,5,420266.848510579,0.0750000000007276
4,6,411903.619927145,0.0750000000007276
4,7,430800.694423742,0.0750000000007276
4,8,409467.61043496,0.0749999999970896
4,9,430214.217117132,0.0740000000005239
4,10,416238.097564518,0.0740000000005239
4,11,414187.181960424,0.0740000000005239
4,12,394898.336654846,0.0750000000007276
4,13,420080.963340376,0.0749999999970896
4,14,392936.934628465,0.0750000000007276
4,15,437513.481654414,0.0750000000007276
4,16,403431.036381927,0.0750000000007276
4,17,399368.900192199,0.0750000000007276
4,18,411013.015444959,0.0749999999970896
4,19,410841.039938786,0.0740000000005239
4,20,404698.55514972,0.0740000000005239
4,21,402218.814139872,0.0750000000007276
4,22,407421.390329266,0.0750000000007276
4,23,429103.817184965,0.0749999999970896
4,24,402750.123349486,0.0750000000007276
4,25,416442.277205818,0.0750000000007276
4,26,402786.99316723,0.0750000000007276
4,27,413091.583422457,0.0750000000007276
4,28,390871.165413453,0.0749999999970896
4,29,406043.934193521,0.0740000000005239
4,30,385487.122234646,0.0740000000005239
5,1,404547.804069465,0.0750000000007276
5,2,415416.969293817,0.0750000000007276
5,3,439383.697204419,0.0749999999970896
5,4,429657.128752397,0.0750000000007276
5,5,420262.518291734,0.0750000000007276
5,6,400790.449024711,0.0750000000007276
5,7,415000.935610341,0.0750000000007276
5,8,425316.805805507,0.0749999999970896
5,9,439143.331330734,0.0740000000005239
5,10,416233.767345673,0.0740000000005239
5,11,435270.175290032,0.0750000000007276
5,12,416859.93521421,0.0750000000007276
5,13,439388.432599441,0.0750000000007276
5,14,425202.904796819,0.0749999999970896
5,15,438857.718846405,0.0750000000007276
5,16,413193.038380877,0.0750000000007276
5,17,407559.750536715,0.0750000000007276
5,18,435290.28996643,0.0750000000007276
5,19,410836.70971994,0.0749999999970896
5,20,404694.224930874,0.0750000000007276
5,21,400741.445990238,0.0740000000005239
5,22,408234.964028439,0.0740000000005239
5,23,399874.623794913,0.0750000000007276
5,24,403947.831738816,0.0749999999970896
5,25,416437.946986973,0.0750000000007276
5,26,410672.207878248,0.0750000000007276
5,27,439302.252172728,0.0750000000007276
5,28,422837.217410762,0.0750000000007276
5,29,396295.458458039,0.0749999999970896
5,30,404742.398189348,0.0750000000007276
6,1,407481.612641545,0.0750000000007276
6,2,389904.9383227,0.0750000000007276
6,3,433100.736385918,0.0750000000007276
6,4,410569.288150688,0.0749999999970896
6,5,420115.896808093,0.0740000000005239
6,6,394724.83770114,0.0780000000013388
6,7,432664.519227748,0.0750000000007276
6,8,428833.655105611,0.0749999999970896
6,9,432860.370512233,0.0750000000007276
6,10,416087.145862032,0.0750000000007276
6,11,417146.382163463,0.0750000000007276
6,12,385468.323015867,0.0750000000007276
6,13,418194.618831537,0.0749999999970896
6,14,411163.299907437,0.0750000000007276
6,15,432574.758027904,0.0750000000007276
6,16,381127.16202467,0.0750000000007276
6,17,391581.274703595,0.0750000000007276
6,18,409681.656512077,0.0749999999970896
6,19,410690.088236299,0.0750000000007276
6,20,404547.603447233,0.0750000000007276
6,21,350580.155039761,0.0750000000007276
6,22,418520.681827293,0.0750000000007276
6,23,397205.727701711,0.0749999999970896
6,24,393202.641939829,0.0750000000007276
6,25,416291.325503332,0.0750000000007276
6,26,395456.041118164,0.0750000000007276
6,27,412429.833166835,0.0750000000007276
6,28,398462.414476229,0.0749999999970896
6,29,382668.132972389,0.0750000000007276
6,30,391317.679658911,0.0750000000007276
7,1,408277.37587916,0.0750000000007276
7,2,428886.306152174,0.0750000000007276
7,3,441423.979677816,0.0749999999970896
7,4,434236.580525277,0.0750000000007276
7,5,420220.100336291,0.0750000000007276
7,6,428172.355761956,0.0750000000007276
7,7,414721.840057123,0.0750000000007276
7,8,416082.269913625,0.0749999999970896
7,9,408301.411730302,0.0750000000007276
7,10,416191.349390229,0.0750000000007276
7,11,435227.757334589,0.0750000000007276
7,12,428491.018319975,0.0750000000007276
7,13,441478.581197106,0.0749999999970896
7,14,416781.812650159,0.0750000000007276
7,15,442777.348325045,0.0750000000007276
7,16,427264.416204009,0.0750000000007276
7,17,423079.35605694,0.0750000000007276
7,18,435247.872010987,0.0749999999970896
7,19,410794.291764497,0.0750000000007276
7,20,404651.806975431,0.0750000000007276
7,21,425489.908243236,0.0750000000007276
7,22,404750.284218781,0.0750000000007276
7,23,417305.450784939,0.0749999999970896
7,24,421420.907988008,0.0750000000007276
7,25,416395.52903153,0.0750000000007276
7,26,423533.456089924,0.0750000000007276
7,27,440807.09437586,0.0750000000007276
7,28,412616.61422014,0.0749999999970896
7,29,422024.400944947,0.0750000000007276
7,30,420119.163818427,0.0750000000007276
8,1,421283.649052609,0.0750000000007276
8,2,421265.122304448,0.0750000000007276
8,3,421427.213468461,0.0749999999970896
8,4,421460.2298907,0.0750000000007276
8,5,370835.507764621,0.0750000000007276
8,6,421301.126053948,0.0750000000007276
8,7,420990.996310291,0.0750000000007276
8,8,421206.361777582,0.0749999999970896
8,9,421186.847594775,0.0750000000007276
8,10,375424.971870627,0.0750000000007276
8,11,421486.594634912,0.0750000000007276
8,12,421291.153486736,0.0750000000007276
8,13,421476.080626429,0.0749999999970896
8,14,421203.748767102,0.0750000000007276
8,15,420901.235110447,0.0750000000007276
8,16,421219.872653132,0.0750000000007276
8,17,421320.968070331,0.0740000000005239
8,18,421347.031712224,0.0739999999968859
8,19,410154.44067179,0.0740000000005239
8,20,403163.762193568,0.0740000000005239
8,21,421308.401610796,0.0750000000007276
8,22,421333.745289705,0.0750000000007276
8,23,421250.68852368,0.0749999999970896
8,24,421311.124405373,0.0750000000007276
8,25,404297.849172844,0.0750000000007276
8,26,421258.522455428,0.0750000000007276
8,27,421345.768436769,0.0740000000005239
8,28,421113.669609119,0.0739999999968859
8,29,421253.175668538,0.0750000000007276
8,30,421256.169949366,0.0750000000007276
9,1,407760.831894042,0.0750000000007276
9,2,396256.215097302,0.0750000000007276
9,3,419765.218509328,0.0749999999970896
9,4,413837.772571271,0.0750000000007276
9,5,420311.918896257,0.0750000000007276
9,6,383567.402204568,0.0750000000007276
9,7,421277.100501004,0.0750000000007276
9,8,428994.652853919,0.0749999999970896
9,9,428975.138671112,0.0750000000007276
9,10,416283.167950195,0.0750000000007276
9,11,425447.317387085,0.0750000000007276
9,12,399453.628515197,0.0740000000005239
9,13,419939.28870261,0.0739999999968859
9,14,427580.233165379,0.0740000000005239
9,15,428689.526186784,0.0750000000007276
9,16,388201.480855519,0.0750000000007276
9,17,393225.251033579,0.0750000000007276
9,18,425932.747092556,0.0749999999970896
9,19,406898.238023619,0.0750000000007276
9,20,404743.625535397,0.0750000000007276
9,21,388773.285585559,0.0750000000007276
9,22,415680.36916332,0.0750000000007276
9,23,401458.433793428,0.0749999999970896
9,24,419041.044939793,0.0750000000007276
9,25,399352.283106188,0.0750000000007276
9,26,404228.292518861,0.0750000000007276
9,27,429134.059513106,0.0750000000007276
9,28,398747.114961778,0.0749999999970896
9,29,388189.822740195,0.0750000000007276
9,30,398833.411249493,0.0750000000007276
10,1,399531.359237348,0.0740000000005239
10,2,399532.014250199,0.0740000000005239
10,3,428731.100529598,0.0750000000007276
10,4,427992.695357634,0.0749999999970896
10,5,420287.647329487,0.0750000000007276
10,6,392858.824576137,0.0750000000007276
10,7,415413.102206533,0.0750000000007276
10,8,430959.710485427,0.0750000000007276
10,9,432065.956154017,0.0749999999970896
10,10,416258.896383426,0.0750000000007276
10,11,417436.051491893,0.0750000000007276
10,12,397813.065939933,0.0750000000007276
10,13,422636.468267211,0.0740000000005239
10,14,416306.909152157,0.0739999999968859
10,15,432833.26509723,0.0750000000007276
10,16,386738.505069745,0.0750000000007276
10,17,384425.082808208,0.0750000000007276
10,18,423846.200437087,0.0750000000007276
10,19,406752.895428388,0.0749999999970896
10,20,404719.353968628,0.0750000000007276
10,21,405983.314491291,0.0750000000007276
10,22,409449.134476868,0.0750000000007276
10,23,386769.918438696,0.0750000000007276
10,24,401889.215876015,0.0749999999970896
10,25,405474.638171603,0.0740000000005239
10,26,384101.409298031,0.0740000000005239
10,27,424096.612831508,0.0740000000005239
10,28,404632.669587052,0.0750000000007276
10,29,413241.558661493,0.0749999999970896
10,30,391084.428302842,0.0750000000007276
11,1,408876.997575056,0.0750000000007276
11,2,428990.023268066,0.0750000000007276
11,3,441527.696793707,0.0750000000007276
11,4,434340.297641168,0.0749999999970896
11,5,420323.817452182,0.0750000000007276
11,6,430194.245545236,0.0750000000007276
11,7,409305.312740669,0.0750000000007276
11,8,426965.369576156,0.0740000000005239
11,9,399995.977783886,0.0749999999970896
11,10,416295.06650612,0.0740000000005239
11,11,435331.47445048,0.0740000000005239
11,12,429073.122278647,0.0750000000007276
11,13,444473.08686351,0.0750000000007276
11,14,422652.741778013,0.0750000000007276
11,15,442881.065440936,0.0749999999970896
11,16,427368.1333199,0.0750000000007276
11,17,425584.878499143,0.0750000000007276
11,18,435351.589126878,0.0750000000007276
11,19,410898.008880388,0.0750000000007276
11,20,404755.524091322,0.0739999999968859
11,21,425770.45406862,0.0740000000005239
11,22,408014.409942293,0.0740000000005239
11,23,419673.045792315,0.0750000000007276
11,24,425721.169005619,0.0750000000007276
11,25,416499.246147421,0.0749999999970896
11,26,424877.941131775,0.0750000000007276
11,27,440910.811491751,0.0750000000007276
11,28,418957.234358635,0.0750000000007276
11,29,424116.25361186,0.0750000000007276
11,30,420948.498632283,0.0749999999970896
12,1,395989.955412956,0.0750000000007276
12,2,394975.531499128,0.0740000000005239
12,3,433035.60234108,0.0740000000005239
12,4,416836.986591069,0.0750000000007276
12,5,420199.679203691,0.0749999999970896
12,6,390201.909177089,0.0750000000007276
12,7,417517.236831862,0.0750000000007276
12,8,426088.259293061,0.0750000000007276
12,9,430336.7724657,0.0750000000007276
12,10,416170.92825763,0.0749999999970896
12,11,411797.00538132,0.0750000000007276
12,12,390869.81683846,0.0750000000007276
12,13,413307.939648048,0.0750000000007276
12,14,409120.19316082,0.0740000000005239
12,15,432509.623983066,0.0739999999968859
12,16,380832.834755623,0.0750000000007276
12,17,382127.519061624,0.0750000000007276
12,18,416004.089935315,0.0750000000007276
12,19,410773.870631897,0.0750000000007276
12,20,404631.385842831,0.0749999999970896
12,21,430486.695174619,0.0750000000007276
12,22,405400.664536186,0.0750000000007276
12,23,385967.131291708,0.0750000000007276
12,24,390414.592039354,0.0740000000005239
12,25,413845.107816735,0.0740000000005239
12,26,391708.785162588,0.0749999999970896
12,27,417491.754721506,0.0750000000007276
12,28,388566.351331671,0.0750000000007276
12,29,384675.425357061,0.0750000000007276
12,30,384854.704048603,0.0750000000007276
13,1,410964.965244441,0.0749999999970896
13,2,380450.287817431,0.0750000000007276
13,3,411621.665178451,0.0740000000005239
13,4,406242.721151409,0.0740000000005239
13,5,420344.667488739,0.0750000000007276
13,6,390835.961341407,0.0749999999970896
13,7,420778.307861655,0.0750000000007276
13,8,420993.673328947,0.0750000000007276
13,9,420974.15914614,0.0750000000007276
13,10,410532.562635791,0.0750000000007276
13,11,409036.01806729,0.0749999999970896
13,12,394287.49921399,0.0750000000007276
13,13,412036.099827323,0.0740000000005239
13,14,420991.060318466,0.0740000000005239
13,15,420688.546661811,0.0750000000007276
13,16,383560.358870251,0.0749999999970896
13,17,384333.828854373,0.0750000000007276
13,18,408849.016620762,0.0750000000007276
13,19,397496.688577708,0.0750000000007276
13,20,403288.950826184,0.0750000000007276
13,21,393154.647253066,0.0749999999970896
13,22,418995.40770316,0.0750000000007276
13,23,404063.254616143,0.0750000000007276
13,24,391141.147144429,0.0750000000007276
13,25,391607.72527082,0.0779999999977008
13,26,394234.151243228,0.0750000000007276
13,27,420544.339584551,0.0750000000007276
13,28,403748.820799886,0.0750000000007276
13,29,392966.945203906,0.0750000000007276
13,30,402519.541003414,0.0749999999970896
14,1,404184.760361387,0.0750000000007276
14,2,385669.935422784,0.0750000000007276
14,3,425837.624640543,0.0750000000007276
14,4,414775.404863855,0.0750000000007276
14,5,420297.706644097,0.0749999999970896
14,6,386401.722459469,0.0750000000007276
14,7,422158.111208588,0.0750000000007276
14,8,435018.88381801,0.0750000000007276
14,9,434999.369635202,0.0740000000005239
14,10,416268.955698036,0.0739999999968859
14,11,363940.357629418,0.0740000000005239
14,12,387537.613905644,0.0750000000007276
14,13,420850.420152065,0.0750000000007276
14,14,404746.386978281,0.0750000000007276
14,15,434713.757150874,0.0749999999970896
14,16,389540.44482292,0.0750000000007276
14,17,393069.075211128,0.0750000000007276
14,18,435159.553752651,0.0750000000007276
14,19,410871.898072303,0.0750000000007276
14,20,404729.413283237,0.0749999999970896
14,21,390697.670097957,0.0750000000007276
14,22,412675.857366507,0.0750000000007276
14,23,400296.990845107,0.0750000000007276
14,24,388667.042042453,0.0750000000007276
14,25,410096.970150606,0.0749999999970896
14,26,401566.839586566,0.0750000000007276
14,27,431136.095573565,0.0750000000007276
14,28,395639.118207418,0.0750000000007276
14,29,391237.528800932,0.0750000000007276
14,30,393897.170604099,0.0749999999970896
15,1,389989.217934696,0.0750000000007276
15,2,408368.610727675,0.0750000000007276
15,3,435084.331730343,0.0750000000007276
15,4,421851.3519403,0.0750000000007276
15,5,420145.416566238,0.0749999999970896
15,6,391768.017969426,0.0750000000007276
15,7,406060.337366344,0.0750000000007276
15,8,420956.066150387,0.0750000000007276
15,9,422289.372679408,0.0750000000007276
15,10,416116.665620176,0.0749999999970896
15,11,361818.120761544,0.0750000000007276
15,12,397689.780533816,0.0750000000007276
15,13,417453.852854959,0.0750000000007276
15,14,393115.805604789,0.0750000000007276
15,15,434558.353372329,0.0749999999970896
15,16,390554.869653097,0.0750000000007276
15,17,390570.928679571,0.0750000000007276
15,18,435004.149974106,0.0750000000007276
15,19,410719.607994444,0.0740000000005239
15,20,404577.123205378,0.0739999999968859
15,21,383748.922354269,0.0740000000005239
15,22,401428.552526041,0.0750000000007276
15,23,386097.936361256,0.0750000000007276
15,24,395165.882449182,0.0750000000007276
15,25,415797.100002081,0.0739999999968859
15,26,389025.441256789,0.0740000000005239
15,27,421702.815783178,0.0740000000005239
15,28,398342.576355322,0.0740000000005239
15,29,388697.576797744,0.0740000000005239
15,30,381497.341644329,0.0739999999968859
16,1,407037.545980124,0.0740000000005239
16,2,394885.873131086,0.0740000000005239
16,3,428726.315763872,0.0750000000007276
16,4,417545.665135304,0.0750000000007276
16,5,420235.23877519,0.0749999999970896
16,6,390317.874002629,0.0750000000007276
16,7,424693.219807724,0.0750000000007276
16,8,432662.340013441,0.0750000000007276
16,9,432642.825830634,0.0750000000007276
16,10,416206.487829128,0.0749999999970896
16,11,427891.200242821,0.0750000000007276
16,12,398036.653039263,0.0750000000007276
16,13,425411.000628372,0.0750000000007276
16,14,423330.113726601,0.0750000000007276
16,15,432357.213346306,0.0749999999970896
16,16,386659.344208973,0.0750000000007276
16,17,389796.922682157,0.0750000000007276
16,18,429275.773626077,0.0750000000007276
16,19,408716.774677718,0.0740000000005239
16,20,404666.94541433,0.0740000000005239
16,21,352450.966913318,0.0750000000007276
16,22,417672.656146673,0.0740000000005239
16,23,396115.929812959,0.0740000000005239
16,24,396249.669376085,0.0740000000005239
16,25,404858.092283784,0.0750000000007276
16,26,396228.232604849,0.0749999999970896
16,27,428315.752581663,0.0750000000007276
16,28,404004.352474857,0.0750000000007276
16,29,393505.78858144,0.0750000000007276
16,30,395475.778746429,0.0750000000007276
17,1,414127.624143119,0.0749999999970896
17,2,400603.369213506,0.0750000000007276
17,3,426396.214939109,0.0750000000007276
17,4,429977.882070514,0.0750000000007276
17,5,420240.271825827,0.0750000000007276
17,6,395651.593719463,0.0749999999970896
17,7,428694.924923348,0.0750000000007276
17,8,434873.532650405,0.0750000000007276
17,9,434854.018467598,0.0740000000005239
17,10,416211.520879765,0.0740000000005239
17,11,435153.765507734,0.0749999999970896
17,12,400956.823519035,0.0750000000007276
17,13,435143.251499251,0.0750000000007276
17,14,432343.344109637,0.0750000000007276
17,15,434568.405983269,0.0750000000007276
17,16,400846.771182885,0.0749999999970896
17,17,399150.921761057,0.0750000000007276
17,18,417520.215900902,0.0750000000007276
17,19,403130.1502244,0.0750000000007276
17,20,404671.978464967,0.0750000000007276
17,21,401515.573448298,0.0739999999968859
17,22,421696.886208098,0.0740000000005239
17,23,404271.731683306,0.0750000000007276
17,24,406843.042975098,0.0750000000007276
17,25,401241.129351524,0.0750000000007276
17,26,410367.980547867,0.0749999999970896
17,27,435012.939309591,0.0750000000007276
17,28,412785.050937548,0.0750000000007276
17,29,389223.375469869,0.0750000000007276
17,30,405411.283756146,0.0750000000007276
18,1,435340.856691398,0.0749999999970896
18,2,410410.984814052,0.0740000000005239
18,3,423352.775094708,0.0740000000005239
18,4,410784.25502506,0.0750000000007276
18,5,420297.356334665,0.0750000000007276
18,6,421752.032904879,0.0750000000007276
18,7,442628.696206656,0.0749999999970896
18,8,442018.139522586,0.0750000000007276
18,9,442824.547491141,0.0750000000007276
18,10,416268.605388603,0.0750000000007276
18,11,413817.905261704,0.0750000000007276
18,12,422903.200773454,0.0749999999970896
18,13,396940.153667128,0.0740000000005239
18,14,435584.853002113,0.0740000000005239
18,15,442538.935006812,0.0750000000007276
18,16,409152.132270802,0.0750000000007276
18,17,413830.919340739,0.0749999999970896
18,18,414307.447610051,0.0750000000007276
18,19,410871.547762871,0.0750000000007276
18,20,404729.062973805,0.0750000000007276
18,21,420375.182328318,0.0750000000007276
18,22,442766.418513596,0.0749999999970896
18,23,422534.17506593,0.0750000000007276
18,24,411557.357795207,0.0750000000007276
18,25,416472.785029903,0.0740000000005239
18,26,418804.94870532,0.0740000000005239
18,27,401839.518619989,0.0749999999970896
18,28,419618.572987229,0.0750000000007276
18,29,420405.463793406,0.0750000000007276
18,30,423439.816811647,0.0750000000007276
19,1,396986.524624322,0.0750000000007276
19,2,391852.275340589,0.0749999999970896
19,3,428977.813442566,0.0750000000007276
19,4,412115.368474455,0.0750000000007276
19,5,420131.553339266,0.0750000000007276
19,6,378395.322045717,0.0740000000005239
19,7,416101.084479257,0.0739999999968859
19,8,431145.051895485,0.0750000000007276
19,9,431125.537712678,0.0750000000007276
19,10,416102.802393205,0.0750000000007276
19,11,424954.094107282,0.0750000000007276
19,12,393161.036383578,0.0749999999970896
19,13,416464.920213891,0.0750000000007276
19,14,416828.752528698,0.0750000000007276
19,15,430839.925228349,0.0740000000005239
19,16,386006.403290305,0.0740000000005239
19,17,387014.451296684,0.0740000000005239
19,18,421528.47851838,0.0749999999970896
19,19,410705.744767472,0.0750000000007276
19,20,404563.259978406,0.0750000000007276
19,21,388659.51035372,0.0750000000007276
19,22,407033.348600344,0.0750000000007276
19,23,394600.161152452,0.0749999999970896
19,24,384386.614838068,0.0750000000007276
19,25,408108.042112599,0.0750000000007276
19,26,390772.947744356,0.0750000000007276
19,27,421604.557159111,0.0750000000007276
19,28,396632.019996068,0.0739999999968859
19,29,385964.934855614,0.0740000000005239
19,30,385823.525054152,0.0750000000007276
20,1,418623.774612372,0.0750000000007276
20,2,395539.191362349,0.0750000000007276
20,3,406822.456648023,0.0749999999970896
20,4,418800.355450462,0.0750000000007276
20,5,412615.827710079,0.0750000000007276
20,6,403850.324973537,0.0750000000007276
20,7,418331.121870053,0.0750000000007276
20,8,418546.487337345,0.0749999999970896
20,9,418526.973154537,0.0750000000007276
20,10,400855.565221108,0.0740000000005239
20,11,418115.994190977,0.0740000000005239
20,12,407035.324610592,0.0750000000007276
20,13,418816.206186191,0.0749999999970896
20,14,418543.874326864,0.0750000000007276
20,15,418241.360670209,0.0750000000007276
20,16,391874.080803733,0.0750000000007276
20,17,398511.071436416,0.0750000000007276
20,18,418687.157271986,0.0749999999970896
20,19,385914.418202636,0.0750000000007276
20,20,390958.218213803,0.0750000000007276
20,21,400703.587620725,0.0740000000005239
20,22,418673.870849467,0.0740000000005239
20,23,412005.194476341,0.0750000000007276
20,24,409629.157583843,0.0749999999970896
20,25,377489.475146158,0.0750000000007276
20,26,401244.758075299,0.0750000000007276
20,27,418685.893996531,0.0750000000007276
20,28,418453.795168881,0.0750000000007276
20,29,405830.481799534,0.0749999999970896
20,30,410680.552362005,0.0740000000005239
21,1,428196.54662153,0.0740000000005239
21,2,417514.079516537,0.0750000000007276
21,3,441513.606720923,0.0750000000007276
21,4,424071.866129263,0.0749999999970896
21,5,420309.727379398,0.0750000000007276
21,6,411851.329072592,0.0750000000007276
21,7,440404.266931026,0.0750000000007276
21,8,442030.510567319,0.0750000000007276
21,9,448286.333224465,0.0749999999970896
21,10,416280.976433336,0.0740000000005239
21,11,435317.384377696,0.0740000000005239
21,12,424141.431083677,0.0740000000005239
21,13,411999.233113807,0.0779999999977008
21,14,435597.224046846,0.0740000000005239
21,15,442866.975368152,0.0750000000007276
21,16,416997.699349839,0.0750000000007276
21,17,417372.930537649,0.0750000000007276
21,18,435337.499054094,0.0749999999970896
21,19,410883.918807604,0.0750000000007276
21,20,404741.434018538,0.0750000000007276
21,21,419550.151634569,0.0750000000007276
21,22,434303.942017,0.0750000000007276
21,23,427718.825788159,0.0749999999970896
21,24,408579.952677419,0.0750000000007276
21,25,416485.156074637,0.0750000000007276
21,26,425719.29747333,0.0750000000007276
21,27,424604.020037358,0.0750000000007276
21,28,423231.751783109,0.0749999999970896
21,29,414157.571980079,0.0750000000007276
21,30,421990.729549586,0.0750000000007276
22,1,412986.243402504,0.0750000000007276
22,2,389207.097315661,0.0750000000007276
22,3,422870.92635958,0.0749999999970896
22,4,418799.503417615,0.0750000000007276
22,5,420291.129338606,0.0750000000007276
22,6,395904.279819239,0.0750000000007276
22,7,425883.448563509,0.0750000000007276
22,8,426098.814030801,0.0739999999968859
22,9,426079.299847994,0.0740000000005239
22,10,415178.913799089,0.0740000000005239
22,11,419747.610245117,0.0740000000005239
22,12,399005.771295704,0.0740000000005239
22,13,417102.282472473,0.0739999999968859
22,14,425619.298522491,0.0740000000005239
22,15,425793.687363665,0.0740000000005239
22,16,377977.082235938,0.0740000000005239
22,17,388956.310552142,0.0750000000007276
22,18,421907.126061222,0.0749999999970896
22,19,396421.222576424,0.0750000000007276
22,20,404722.835977746,0.0750000000007276
22,21,392305.567662101,0.0750000000007276
22,22,425272.929751579,0.0750000000007276
22,23,397435.601204413,0.0749999999970896
22,24,392074.839235678,0.0750000000007276
22,25,395539.708855436,0.0750000000007276
22,26,384386.219766653,0.0750000000007276
22,27,420543.809345704,0.0750000000007276
22,28,406926.237300488,0.0749999999970896
22,29,395352.035842978,0.0750000000007276
22,30,396188.7993437,0.0750000000007276
23,1,387879.91332451,0.0750000000007276
23,2,412816.154761343,0.0750000000007276
23,3,437583.436432097,0.0749999999970896
23,4,420962.180099922,0.0750000000007276
23,5,420222.60865147,0.0750000000007276
23,6,401075.90095036,0.0750000000007276
23,7,416117.299222096,0.0750000000007276
23,8,410440.188444904,0.0749999999970896
23,9,423814.607334727,0.0750000000007276
23,10,416193.857705408,0.0750000000007276
23,11,416858.405637204,0.0750000000007276
23,12,385010.544457566,0.0740000000005239
23,13,418429.970300803,0.0739999999968859
23,14,400285.291169784,0.0740000000005239
23,15,437057.458074083,0.0750000000007276
23,16,398805.109931136,0.0750000000007276
23,17,391691.734559284,0.0750000000007276
23,18,426398.090468172,0.0739999999968859
23,19,410796.800079676,0.0740000000005239
23,20,404654.31529061,0.0750000000007276
23,21,393374.999441372,0.0750000000007276
23,22,398211.59349014,0.0750000000007276
23,23,356879.704917869,0.0749999999970896
23,24,400631.281533068,0.0750000000007276
23,25,416398.037346709,0.0750000000007276
23,26,395094.523796602,0.0750000000007276
23,27,418848.041319351,0.0750000000007276
23,28,392539.288429941,0.0749999999970896
23,29,398218.87293907,0.0750000000007276
23,30,389062.787434551,0.0750000000007276
24,1,415836.182509653,0.0750000000007276
24,2,389512.754531187,0.0750000000007276
24,3,408366.489637234,0.0749999999970896
24,4,416012.763347744,0.0750000000007276
24,5,416075.372713707,0.0750000000007276
24,6,405366.658435306,0.0750000000007276
24,7,415543.529767334,0.0750000000007276
24,8,415758.895234626,0.0749999999970896
24,9,415739.381051819,0.0750000000007276
24,10,398530.924820782,0.0750000000007276
24,11,413222.815874484,0.0740000000005239
24,12,403625.965871556,0.0740000000005239
24,13,416028.614083473,0.0739999999968859
24,14,415756.282224146,0.0750000000007276
24,15,415453.76856749,0.0750000000007276
24,16,392709.600238057,0.0750000000007276
24,17,401900.226307955,0.0750000000007276
24,18,412434.487114609,0.0749999999970896
24,19,386950.205169953,0.0750000000007276
24,20,391420.641170434,0.0750000000007276
24,21,400235.157576514,0.0750000000007276
24,22,415886.278746748,0.0750000000007276
24,23,410969.669672904,0.0749999999970896
24,24,408358.612248993,0.0750000000007276
24,25,379667.123529777,0.0750000000007276
24,26,401051.693267429,0.0750000000007276
24,27,415898.301893813,0.0740000000005239
24,28,415666.203066162,0.0740000000005239
24,29,406155.910039417,0.0749999999970896
24,30,411726.225372591,0.0750000000007276
25,1,414502.680372455,0.0750000000007276
25,2,404170.774863889,0.0750000000007276
25,3,430814.735740743,0.0750000000007276
25,4,420492.947810574,0.0749999999970896
25,5,420135.79212074,0.0750000000007276
25,6,391259.691533794,0.0750000000007276
25,7,425918.582711559,0.0750000000007276
25,8,437468.142905692,0.0750000000007276
25,9,438282.814382611,0.0739999999968859
25,10,416107.041174679,0.0740000000005239
25,11,435143.449119038,0.0750000000007276
25,12,391555.219521556,0.0750000000007276
25,13,430195.829599093,0.0750000000007276
25,14,435423.288788189,0.0749999999970896
25,15,437997.201898282,0.0750000000007276
25,16,404200.037910796,0.0750000000007276
25,17,405515.964954882,0.0750000000007276
25,18,435163.563795437,0.0750000000007276
25,19,410709.983548947,0.0749999999970896
25,20,404567.498759881,0.0750000000007276
25,21,404587.03284173,0.0740000000005239
25,22,421375.785912031,0.0740000000005239
25,23,409121.540349721,0.0750000000007276
25,24,393928.858191506,0.0749999999970896
25,25,416311.22081598,0.0750000000007276
25,26,416792.483757423,0.0750000000007276
25,27,438441.735224605,0.0750000000007276
25,28,405616.657627335,0.0750000000007276
25,29,393657.215525154,0.0749999999970896
25,30,412790.317209814,0.0750000000007276
26,1,431618.546127644,0.0750000000007276
26,2,410230.295887526,0.0740000000005239
26,3,411962.118685087,0.0740000000005239
26,4,407942.43968367,0.0739999999968859
26,5,420315.672845867,0.0750000000007276
26,6,425426.755882213,0.0750000000007276
26,7,431325.893385325,0.0750000000007276
26,8,431541.258852617,0.0750000000007276
26,9,431521.74466981,0.0749999999970896
26,10,416286.921899805,0.0750000000007276
26,11,400801.060839923,0.0750000000007276
26,12,417416.54527333,0.0750000000007276
26,13,425469.971490012,0.0740000000005239
26,14,431538.645842136,0.0740000000005239
26,15,431236.132185481,0.0749999999970896
26,16,405051.066975891,0.0750000000007276
26,17,412369.96201418,0.0750000000007276
26,18,402371.231208614,0.0750000000007276
26,19,410889.864274073,0.0750000000007276
26,20,404747.379485007,0.0749999999970896
26,21,423265.132901166,0.0750000000007276
26,22,431668.642364739,0.0740000000005239
26,23,422452.233905103,0.0740000000005239
26,24,423090.642021057,0.0750000000007276
26,25,416491.101541106,0.0749999999970896
26,26,414433.00513667,0.0750000000007276
26,27,424522.00936549,0.0750000000007276
26,28,429040.095863679,0.0750000000007276
26,29,416238.39146929,0.0750000000007276
26,30,421663.240781432,0.0749999999970896
27,1,440998.495811723,0.0740000000005239
27,2,428832.181984875,0.0740000000005239
27,3,441369.855510516,0.0740000000005239
27,4,434182.456357977,0.0750000000007276
27,5,420165.976168991,0.0749999999970896
27,6,430036.404262046,0.0750000000007276
27,7,440830.992687815,0.0750000000007276
27,8,430676.04796961,0.0750000000007276
27,9,411064.116040787,0.0750000000007276
27,10,416137.22522293,0.0749999999970896
27,11,435173.633167289,0.0740000000005239
27,12,438484.979278841,0.0740000000005239
27,13,444519.226889316,0.0740000000005239
27,14,435453.472836439,0.0740000000005239
27,15,442723.224157746,0.0749999999970896
27,16,427210.29203671,0.0750000000007276
27,17,428487.580069504,0.0750000000007276
27,18,435193.747843687,0.0750000000007276
27,19,410740.167597197,0.0750000000007276
27,20,404597.682808131,0.0749999999970896
27,21,432734.500723809,0.0750000000007276
27,22,433658.869997806,0.0740000000005239
27,23,437318.786235157,0.0740000000005239
27,24,428560.345166595,0.0750000000007276
27,25,416341.40486423,0.0750000000007276
27,26,427757.021411924,0.0749999999970896
27,27,440752.97020856,0.0750000000007276
27,28,439182.547231002,0.0750000000007276
27,29,433511.68623367,0.0750000000007276
27,30,436492.901315679,0.0750000000007276
28,1,417172.705235373,0.0749999999970896
28,2,417154.178487211,0.0750000000007276
28,3,417316.269651225,0.0750000000007276
28,4,417349.286073464,0.0740000000005239
28,5,381141.680375498,0.0740000000005239
28,6,417190.182236711,0.0739999999968859
28,7,416880.052493054,0.0750000000007276
28,8,417095.417960346,0.0750000000007276
28,9,417075.903777539,0.0750000000007276
28,10,387927.096457255,0.0750000000007276
28,11,417375.650817675,0.0749999999970896
28,12,417180.2096695,0.0750000000007276
28,13,417365.136809193,0.0750000000007276
28,14,417092.804949866,0.0750000000007276
28,15,416790.29129321,0.0750000000007276
28,16,417108.928835896,0.0749999999970896
28,17,417210.024253094,0.0740000000005239
28,18,417236.087894987,0.0740000000005239
28,19,408875.752482753,0.0750000000007276
28,20,404241.319460684,0.0750000000007276
28,21,417197.45779356,0.0749999999970896
28,22,417222.801472468,0.0750000000007276
28,23,417139.744706444,0.0750000000007276
28,24,417200.180588136,0.0750000000007276
28,25,416459.949967311,0.0750000000007276
28,26,417147.578638191,0.0749999999970896
28,27,417234.824619533,0.0750000000007276
28,28,417002.725791882,0.0740000000005239
28,29,417142.231851302,0.0740000000005239
28,30,417145.226132129,0.0750000000007276
29,1,404518.993002544,0.0749999999970896
29,2,393063.477081929,0.0740000000005239
29,3,429241.265042838,0.0740000000005239
29,4,433890.873221181,0.0750000000007276
29,5,420338.252868121,0.0749999999970896
29,6,392428.397076096,0.0750000000007276
29,7,429917.903452561,0.0750000000007276
29,8,433637.005108063,0.0750000000007276
29,9,433617.490925256,0.0750000000007276
29,10,416309.501922059,0.0749999999970896
29,11,427089.736073205,0.0750000000007276
29,12,385302.124482598,0.0750000000007276
29,13,422214.896257955,0.0750000000007276
29,14,416090.104748091,0.0750000000007276
29,15,433331.878440927,0.0749999999970896
29,16,393866.011230001,0.0750000000007276
29,17,393197.5650174,0.0750000000007276
29,18,421384.700083977,0.0750000000007276
29,19,410912.444296327,0.0750000000007276
29,20,404769.959507261,0.0749999999970896
29,21,388784.221053062,0.0750000000007276
29,22,415944.064787665,0.0750000000007276
29,23,402388.023108998,0.0750000000007276
29,24,397319.066373359,0.0740000000005239
29,25,413252.700546396,0.0739999999968859
29,26,402450.768590854,0.0740000000005239
29,27,429383.985061858,0.0740000000005239
29,28,399611.022599492,0.0740000000005239
29,29,325521.658394838,0.0740000000005239
29,30,397745.356236252,0.0739999999968859
30,1,413785.4934312,0.0750000000007276
30,2,394759.392991712,0.0750000000007276
30,3,410731.598650056,0.0740000000005239
30,4,416457.121070807,0.0740000000005239
30,5,416640.205816428,0.0739999999968859
30,6,391423.167452772,0.0740000000005239
30,7,416625.728247532,0.0750000000007276
30,8,416841.093714824,0.0750000000007276
30,9,416821.579532016,0.0750000000007276
30,10,406038.278812732,0.0749999999970896
30,11,416624.541511177,0.0750000000007276
30,12,404475.664909784,0.0740000000005239
30,13,417110.81256367,0.0740000000005239
30,14,416838.480704343,0.0740000000005239
30,15,416535.967047688,0.0739999999968859
30,16,385739.490631622,0.0740000000005239
30,17,390732.006852643,0.0740000000005239
30,18,416981.763649465,0.0740000000005239
30,19,379054.92883394,0.0740000000005239
30,20,389934.484381007,0.0739999999968859
30,21,393859.419717813,0.0740000000005239
30,22,416968.477226946,0.0740000000005239
30,23,402015.441002093,0.0750000000007276
30,24,402976.233105993,0.0750000000007276
30,25,354877.925880229,0.0749999999970896
30,26,393009.986113698,0.0750000000007276
30,27,416980.50037401,0.0750000000007276
30,28,412457.75991026,0.0750000000007276
30,29,395955.091527203,0.0750000000007276
30,30,402756.704999806,0.0749999999970896
