App - AnkiDroid
Scenario - learn_cards
Length - 0sec
Measure - EuclideanDistance
Before Version - 2.6_b
After Version - 2.7_f


"Before.Trace.ID1","Before.Trace.ID2","Difference","Runtime"
1,2,3019.89061984029,0.00100000000384171
1,3,2758.47727868199,0
1,4,2457.96136789417,0
1,5,2609.79911900943,0.00100000000384171
1,6,3006.73010329545,0.000999999996565748
1,7,2809.36712096017,0
1,8,2456.77588681159,0.00100000000384171
1,9,2781.01877044784,0.000999999996565748
1,10,3393.10878118796,0
1,11,2717.16816048117,0.000999999996565748
1,12,2634.41069088596,0.00100000000384171
1,13,2348.27806046035,0
1,14,2946.20206660503,0.000999999996565748
1,15,2432.49001312469,0.00100000000384171
1,16,3282.6637572115,0
1,17,2969.30871835512,0.010999999998603
1,18,3040.26811652783,0.00100000000384171
1,19,2281.94753662917,0.000999999996565748
1,20,2790.5874754241,0
1,21,2282.30453929332,0.00100000000384171
1,22,2017.47395137724,0.000999999996565748
1,23,2356.06937856694,0
1,24,2637.77331503953,0.000999999996565748
1,25,3604.59999165012,0.00100000000384171
1,26,2349.60631639779,0
1,27,2446.69469844271,0.000999999996565748
1,28,3108.78828648774,0.00100000000384171
1,29,3333.17047622825,0
1,30,2260.56723891147,0.000999999996565748
2,3,4048.55721257351,0.00100000000384171
2,4,2283.52005143689,0
2,5,1296.36277620152,0.000999999996565748
2,6,2513.81750585323,0.00100000000384171
2,7,1455.74587347732,0
2,8,2337.23030269177,0.000999999996565748
2,9,1109.74809811734,0.00100000000384171
2,10,2083.87827509526,0
2,11,1842.24515401893,0.000999999996565748
2,12,1785.14015130658,0.00100000000384171
2,13,1421.37387031744,0
2,14,2949.44739448103,0.000999999996565748
2,15,1650.62695175427,0.00100000000384171
2,16,1651.67641217462,0
2,17,1512.03379263091,0.000999999996565748
2,18,2980.79832892971,0.00100000000384171
2,19,1287.50403006298,0
2,20,1413.26511603376,0.000999999996565748
2,21,1631.57567415566,0.000999999996565748
2,22,3766.85071924557,0
2,23,1827.07585289731,0.00100000000384171
2,24,1671.92712635638,0.000999999996565748
2,25,2581.32170920048,0
2,26,2357.82316193369,0.00100000000384171
2,27,1474.92450173228,0.000999999996565748
2,28,1382.98911822878,0
2,29,2544.1788929554,0.00100000000384171
2,30,1884.70705757566,0.000999999996565748
3,4,3780.20227764863,0
3,5,3690.23510832015,0
3,6,3891.42609340378,0.000999999996565748
3,7,3332.25154866009,0
3,8,3479.44867642308,0
3,9,4243.75014804356,0.000999999996565748
3,10,4409.89328224886,0.00100000000384171
3,11,3652.70341302037,0
3,12,3885.55832040717,0.000999999996565748
3,13,3782.08853910415,0.00100000000384171
3,14,4095.44083813752,0
3,15,3305.32962904684,0.000999999996565748
3,16,4468.73194653179,0.00100000000384171
3,17,4161.49071887539,0
3,18,2911.4913151471,0.000999999996565748
3,19,3363.23173047167,0.00100000000384171
3,20,4100.85175067333,0.010999999998603
3,21,3635.80763233805,0
3,22,2915.21329831513,0.000999999996565748
3,23,3768.96838427432,0.00100000000384171
3,24,3747.92648740949,0
3,25,4851.82035740801,0.000999999996565748
3,26,2777.78052686358,0.00100000000384171
3,27,3630.69258889998,0
3,28,4235.8921351998,0.000999999996565748
3,29,3960.73175940345,0.00100000000384171
3,30,3546.22784360022,0
4,5,1362.00305714481,0.000999999996565748
4,6,3183.36727357379,0.000999999996565748
4,7,2125.23196565944,0
4,8,1722.75263845823,0.00100000000384171
4,9,2080.69561677595,0.000999999996565748
4,10,2546.33951308959,0
4,11,1341.88333483715,0.00100000000384171
4,12,1615.27822529527,0.000999999996565748
4,13,1564.31795478744,0
4,14,3171.07524781186,0.00100000000384171
4,15,1344.89065217239,0.000999999996565748
4,16,2409.69029209357,0
4,17,2135.12268700097,0.00100000000384171
4,18,2892.10779776816,0.000999999996565748
4,19,1694.89999846087,0
4,20,1395.75051346316,0.00100000000384171
4,21,1436.43623958293,0.000999999996565748
4,22,2694.21553743117,0
4,23,895.425210427702,0.00100000000384171
4,24,1441.71805808559,0.000999999996565748
4,25,2271.70222071422,0
4,26,1819.1793341098,0.00100000000384171
4,27,1372.1216991223,0.000999999996565748
4,28,1731.26322317725,0
4,29,2492.43634853305,0.00100000000384171
4,30,1300.75282747242,0.000999999996565748
5,6,2668.97170336281,0
5,7,1260.4778541483,0.00100000000384171
5,8,1576.76132079114,0.000999999996565748
5,9,1142.91182855635,0
5,10,2076.32843314138,0.000999999996565748
5,11,1126.53533805417,0.00100000000384171
5,12,1562.59470293882,0
5,13,1120.21488289204,0.000999999996565748
5,14,2755.8835351497,0.00100000000384171
5,15,808.615001076738,0
5,16,1805.43264530082,0.000999999996565748
5,17,1586.92314780379,0.00100000000384171
5,18,2540.6689933779,0
5,19,975.751043731875,0.000999999996565748
5,20,1021.74735879442,0.00100000000384171
5,21,997.012984829985,0
5,22,3144.24730470748,0
5,23,1112.79155408448,0.00100000000384171
5,24,1219.74632288297,0.000999999996565748
5,25,2314.9383223916,0
5,26,1861.59052442246,0.00100000000384171
5,27,662.171427333078,0.00100000000384171
5,28,1228.27524079605,0
5,29,2248.11838004459,0
5,30,1314.52140367904,0.00100000000384171
6,7,2601.58310355054,0.000999999996565748
6,8,3643.58313278621,0
6,9,2643.22211732243,0.00100000000384171
6,10,3350.80563250268,0.000999999996565748
6,11,2512.52247507099,0
6,12,3473.73117735607,0.00100000000384171
6,13,2816.12171278242,0
6,14,1760.79770200001,0
6,15,2773.40781489238,0.00100000000384171
6,16,3471.51832511714,0
6,17,3556.94510180431,0
6,18,3207.52688708838,0.00100000000384171
6,19,2340.25881195091,0
6,20,2847.37939666834,0
6,21,2913.71279212014,0.000999999996565748
6,22,3509.93448016617,0
6,23,2743.75857503129,0
6,24,2252.81907572098,0.000999999996565748
6,25,3941.93353904937,0
6,26,3202.25995448305,0
6,27,2475.79148244324,0.000999999996565748
6,28,2984.838135124,0
6,29,1973.65459088983,0
6,30,3138.37643767447,0.000999999996565748
7,8,2321.67492577538,0
7,9,1667.73663992885,0.00100000000384171
7,10,2742.74709332778,0.000999999996565748
7,11,1244.3189899358,0
7,12,1785.69325330075,0.00100000000384171
7,13,1519.80252476062,0.000999999996565748
7,14,3131.72308908601,0
7,15,1049.44506372062,0.00100000000384171
7,16,1734.98635135429,0.000999999996565748
7,17,1752.73210003924,0
7,18,2421.76286046035,0.00100000000384171
7,19,977.331507739724,0.000999999996565748
7,20,1430.10394831583,0
7,21,1556.15849362508,0
7,22,3609.14093286384,0.000999999996565748
7,23,1910.86531797446,0.00100000000384171
7,24,1391.3922614464,0
7,25,3243.11489712739,0.000999999996565748
7,26,1990.38679850285,0.000999999996565748
7,27,1402.19760444282,0
7,28,1400.41261238774,0.00100000000384171
7,29,2467.5754069001,0.000999999996565748
7,30,1764.97225864791,0
8,9,2108.55240604765,0.00100000000384171
8,10,2340.35707865576,0.000999999996565748
8,11,2224.18715910679,0
8,12,2049.76814708222,0.00100000000384171
8,13,1987.82253176262,0.000999999996565748
8,14,3328.42849801454,0
8,15,1620.67004107636,0.00100000000384171
8,16,2712.95931748082,0.00100000000384171
8,17,2201.26993861364,0.000999999996565748
8,18,2710.02574888171,0
8,19,2038.76162053548,0.00100000000384171
8,20,2149.68124927486,0.000999999996565748
8,21,1660.57583821225,0
8,22,2841.71990897814,0.00100000000384171
8,23,1722.72967367337,0.000999999996565748
8,24,2394.17382016,0
8,25,2057.68251206065,0.00100000000384171
8,26,1994.00865025958,0.000999999996565748
8,27,1707.69206826481,0
8,28,2357.24227430547,0.00100000000384171
8,29,3140.80507398221,0.000999999996565748
8,30,1704.35743387637,0
9,10,2015.2173150867,0.00100000000384171
9,11,1836.93783882347,0.000999999996565748
9,12,1901.11933834781,0
9,13,1196.39101026375,0.00100000000384171
9,14,2830.13360630075,0.000999999996565748
9,15,1563.76778220956,0
9,16,1675.46343229988,0.00100000000384171
9,17,1497.49585245412,0.000999999996565748
9,18,2940.4731925287,0
9,19,1260.48171280306,0.00100000000384171
9,20,1293.99844139066,0.000999999996565748
9,21,1419.3902004181,0
9,22,3642.24019178629,0.000999999996565748
9,23,1585.37091208222,0.00100000000384171
9,24,1721.69558599699,0
9,25,2506.25103551798,0.000999999996565748
9,26,2562.27482592218,0.00100000000384171
9,27,1127.85746453236,0
9,28,1484.32074447954,0.000999999996565748
9,29,2607.0682037564,0.00100000000384171
9,30,1805.88413502736,0
10,11,2682.14022906678,0.000999999996565748
10,12,2936.48449230482,0.00100000000384171
10,13,2532.76272717867,0
10,14,3530.59701646088,0.000999999996565748
10,15,2502.31494754833,0.00100000000384171
10,16,3127.00217656126,0
10,17,2646.43672174761,0.000999999996565748
10,18,2672.50331978093,0.00100000000384171
10,19,2449.47827216261,0
10,20,2587.44445296941,0.000999999996565748
10,21,2644.55084310133,0.00100000000384171
10,22,3874.10393050763,0
10,23,2088.17817111813,0.000999999996565748
10,24,2727.18705595891,0.00100000000384171
10,25,2204.8734989949,0
10,26,2821.00335067182,0
10,27,1859.09273607971,0.000999999996565748
10,28,2761.8680430266,0.00100000000384171
10,29,2840.10107157943,0
10,30,2789.71297859693,0.000999999996565748
11,12,1748.34660908258,0.00100000000384171
11,13,1535.79174948549,0
11,14,2924.60098475007,0.000999999996565748
11,15,926.068541045417,0.00100000000384171
11,16,2050.32047600511,0.000999999996565748
11,17,2079.54645235487,0
11,18,2511.70507568554,0.00100000000384171
11,19,1164.97133478203,0.000999999996565748
11,20,1126.14424066656,0
11,21,1481.02307426704,0.000999999996565748
11,22,3275.05174631496,0.00100000000384171
11,23,1294.32118970585,0
11,24,761.958333953564,0.000999999996565748
11,25,2926.35931451965,0.00100000000384171
11,26,1914.30830806123,0
11,27,1162.74572217982,0.000999999996565748
11,28,1283.18857591129,0.00100000000384171
11,29,2070.81308744536,0
11,30,1565.81030452586,0.000999999996565748
12,13,1108.0329621328,0.00100000000384171
12,14,3644.53262882791,0
12,15,1447.77020619665,0.000999999996565748
12,16,1272.24842366495,0.00100000000384171
12,17,1008.07787343308,0
12,18,3354.25662372725,0.000999999996565748
12,19,1498.18727995972,0.00100000000384171
12,20,1117.23611935536,0
12,21,1185.81933602953,0.000999999996565748
12,22,3381.80959621007,0.00100000000384171
12,23,1648.53632323449,0
12,24,1702.06782042119,0.000999999996565748
12,25,2794.9905624162,0.00100000000384171
12,26,1998.86792302309,0
12,27,1850.29850994383,0.000999999996565748
12,28,1172.84134120121,0.000999999996565748
12,29,3276.27204191456,0
12,30,1021.44564166602,0.00100000000384171
13,14,2895.26125388204,0.000999999996565748
13,15,1131.15427694629,0
13,16,1264.6973546964,0.00100000000384171
13,17,1098.17998716621,0.000999999996565748
13,18,3036.85117469188,0
13,19,831.101297320182,0.00100000000384171
13,20,826.850403020997,0.000999999996565748
13,21,724.970999046351,0
13,22,3058.94336542893,0.00100000000384171
13,23,1194.73627623892,0.000999999996565748
13,24,1421.86680177738,0
13,25,2707.79494356994,0.00100000000384171
13,26,1958.19188445797,0.000999999996565748
13,27,1205.23918467218,0
13,28,1092.24273782514,0.00100000000384171
13,29,2792.43011594476,0.000999999996565748
13,30,835.969845654148,0
14,15,2926.64452637424,0.00100000000384171
14,16,3781.25315830536,0.000999999996565748
14,17,3784.54292941015,0
14,18,3637.33395296197,0.00100000000384171
14,19,2668.05879390281,0.000999999996565748
14,20,3099.27608072014,0.010999999998603
14,21,2844.49949844963,0
14,22,2928.28263380263,0
14,23,2741.7163765511,0.000999999996565748
14,24,2647.26904687036,0
14,25,3623.89204633616,0
14,26,3342.20758293182,0.000999999996565748
14,27,2654.07509204968,0
14,28,3256.52394621946,0
14,29,2443.64838886324,0.000999999996565748
14,30,3040.07361696061,0
15,16,1791.16311852912,0.00100000000384171
15,17,1613.12029217416,0.000999999996565748
15,18,2367.06735531264,0
15,19,831.398792313901,0.000999999996565748
15,20,1088.01846536064,0.00100000000384171
15,21,979.457628571513,0
15,22,3022.11329484263,0.000999999996565748
15,23,1195.4119478375,0.00100000000384171
15,24,1191.0943333169,0
15,25,2723.49050308382,0.000999999996565748
15,26,1560.65241998264,0.00100000000384171
15,27,962.77461315862,0
15,28,1254.02028275055,0.000999999996565748
15,29,2424.48051686765,0.00100000000384171
15,30,1061.92113314411,0
16,17,827.746131342253,0.000999999996565748
16,18,3612.51865363195,0.00100000000384171
16,19,1580.81026550296,0
16,20,1208.97848063485,0.000999999996565748
16,21,1521.89573905922,0.00100000000384171
16,22,4166.50260240258,0
16,23,2169.52262652982,0.000999999996565748
16,24,2015.81199027454,0.00100000000384171
16,25,3376.475908415,0
16,26,2730.41921196684,0.000999999996565748
16,27,2057.63643254932,0.00100000000384171
16,28,1102.16521773621,0
16,29,3580.2767852092,0.000999999996565748
16,30,1687.6667318072,0.000999999996565748
17,18,3306.74411704914,0
17,19,1507.37282208172,0
17,20,1254.68607069763,0.000999999996565748
17,21,1360.67299807674,0.00100000000384171
17,22,3842.45150005529,0
17,23,1895.19913464207,0.000999999996565748
17,24,2061.54367759721,0.00100000000384171
17,25,2932.34348859744,0
17,26,2365.68729571688,0.000999999996565748
17,27,1819.10303698391,0.00100000000384171
17,28,1250.92032490815,0
17,29,3495.89242077643,0.000999999996565748
17,30,1450.69082385233,0.00100000000384171
18,19,2515.11728446679,0
18,20,3095.60962878099,0.000999999996565748
18,21,3042.36102609298,0.00100000000384171
18,22,3626.15829986728,0
18,23,2619.66612753726,0.000999999996565748
18,24,2745.58074897681,0.010999999998603
18,25,3703.15107738882,0.00100000000384171
18,26,2461.05235409782,0
18,27,2269.96033175904,0.000999999996565748
18,28,3179.43750783102,0.00100000000384171
18,29,2810.67300755414,0
18,30,3109.49687968721,0.000999999996565748
19,20,1043.43532304462,0.00100000000384171
19,21,975.490115873014,0
19,22,3077.88419080741,0.000999999996565748
19,23,1293.87745517247,0.00100000000384171
19,24,1157.05132720495,0
19,25,2917.48376101326,0.000999999996565748
19,26,1766.75978725557,0.00100000000384171
19,27,953.051450702543,0
19,28,1249.512150316,0.000999999996565748
19,29,2353.67382223939,0.00100000000384171
19,30,1158.12581829156,0
20,21,978.672507322831,0.000999999996565748
20,22,3449.04602315609,0.000999999996565748
20,23,1210.68620449735,0
20,24,1073.16116296084,0.00100000000384171
20,25,2653.077466095,0.000999999996565748
20,26,2133.31636417778,0
20,27,1219.54889368858,0.00100000000384171
20,28,611.817719766753,0.000999999996565748
20,29,2607.61352046343,0
20,30,1138.91210417742,0.00100000000384171
21,22,2902.6929130231,0.000999999996565748
21,23,1276.82927915185,0
21,24,1489.53664901325,0.00100000000384171
21,25,2667.18930103385,0.000999999996565748
21,26,1945.60118595272,0
21,27,1241.85537918094,0.00100000000384171
21,28,1293.02900976879,0.000999999996565748
21,29,2832.89894081175,0
21,30,718.640385620212,0.00100000000384171
22,23,2719.14832789214,0.000999999996565748
22,24,3196.01567106834,0
22,25,3597.05712107437,0.00100000000384171
22,26,2581.28734927018,0.000999999996565748
22,27,3055.00249239866,0
22,28,3731.92893454174,0.00100000000384171
22,29,3469.3074893008,0.000999999996565748
22,30,2744.03039625502,0
23,24,1333.40805429347,0.00100000000384171
23,25,2176.39896085283,0.000999999996565748
23,26,1757.29829164654,0
23,27,901.677192523361,0
23,28,1519.94250668424,0.00100000000384171
23,29,2296.78132087015,0.000999999996565748
23,30,1190.78517896736,0
24,25,2856.91093759403,0.00100000000384171
24,26,2033.05111491673,0.000999999996565748
24,27,1292.79184934959,0
24,28,1182.28368237937,0.00100000000384171
24,29,1854.48466764849,0.000999999996565748
24,30,1573.67568301878,0
25,26,2869.52292844439,0.010999999998603
25,27,2380.12939685368,0.00100000000384171
25,28,2774.05009153187,0.000999999996565748
25,29,3061.77619576112,0
25,30,2657.35588852854,0.00100000000384171
26,27,1880.05365580281,0.000999999996565748
26,28,2260.68915062936,0
26,29,2716.81799033391,0.00100000000384171
26,30,1652.04697029078,0.000999999996565748
27,28,1506.11916757723,0
27,29,2060.71486930952,0.00100000000384171
27,30,1480.38479701079,0.000999999996565748
28,29,2726.61192604502,0
28,30,1376.53077089237,0.00100000000384171
29,30,2947.70512663936,0.000999999996565748


"After.Trace.ID","Before.Trace.ID","Difference","Runtime"
1,1,8258.32030897285,0.000999999996565748
1,2,7209.75716372932,0.00100000000384171
1,3,8948.43224179387,0
1,4,7635.96043606845,0.000999999996565748
1,5,7540.20311002864,0.00100000000384171
1,6,9046.27413048629,0
1,7,7277.18963896325,0.000999999996565748
1,8,7811.45678827578,0.00100000000384171
1,9,7503.83010743459,0
1,10,8492.2646843271,0.000999999996565748
1,11,7594.29073620482,0.00100000000384171
1,12,6249.44645492023,0
1,13,6933.67162559031,0.000999999996565748
1,14,9325.947564786,0.00100000000384171
1,15,7366.3456610964,0
1,16,6004.15655378522,0
1,17,6210.85430093809,0.00100000000384171
1,18,9000.57255053044,0.000999999996565748
1,19,7338.98669899871,0
1,20,6893.3562382253,0.00100000000384171
1,21,7064.0860379487,0.000999999996565748
1,22,8966.12107038921,0
1,23,7707.49881674637,0.00100000000384171
1,24,7577.03062804219,0.000999999996565748
1,25,8216.74274631568,0
1,26,7589.60286169713,0.000999999996565748
1,27,7883.61033368391,0.00100000000384171
1,28,6680.0541541892,0
1,29,9164.94818883277,0.000999999996565748
1,30,6895.73610496425,0.00100000000384171
2,1,9036.9634252765,0
2,2,7541.6474315958,0.000999999996565748
2,3,9631.41598273241,0.00100000000384171
2,4,8160.13291473476,0.000999999996565748
2,5,7906.27887298523,0.0100000000020373
2,6,9538.68528908979,0
2,7,7637.14228826533,0.000999999996565748
2,8,8219.16989718512,0.00100000000384171
2,9,7850.44292668392,0
2,10,8809.22222591971,0.000999999996565748
2,11,8017.87678189558,0.00100000000384171
2,12,6811.73398980582,0
2,13,7450.83963037443,0.000999999996565748
2,14,9809.79595005377,0.00100000000384171
2,15,7789.13372955304,0
2,16,6427.21067395444,0.000999999996565748
2,17,6660.05664373735,0.00100000000384171
2,18,9397.69355915854,0
2,19,7812.38781928057,0.000999999996565748
2,20,7329.82820352281,0.00100000000384171
2,21,7562.54022655852,0
2,22,9730.45641103528,0.000999999996565748
2,23,8210.35205235725,0.00100000000384171
2,24,8039.0211873034,0
2,25,8494.76015282173,0
2,26,8135.61917270186,0.00100000000384171
2,27,8285.75470138903,0
2,28,7049.97193715136,0
2,29,9528.96838812028,0.00100000000384171
2,30,7456.86689947586,0
3,1,9307.01633719117,0
3,2,8012.40887051411,0.000999999996565748
3,3,9791.61740840603,0
3,4,8495.14791247875,0
3,5,8304.3000467615,0.000999999996565748
3,6,9928.36904972044,0
3,7,7991.04407986932,0
3,8,8558.24846673453,0.000999999996565748
3,9,8324.2291649624,0
3,10,9317.86978624637,0
3,11,8353.0606125083,0.000999999996565748
3,12,7155.51714409473,0
3,13,7842.65563422496,0
3,14,10172.3938036337,0.000999999996565748
3,15,8123.96186549216,0.00100000000384171
3,16,6845.00588362184,0
3,17,7087.86728588112,0.000999999996565748
3,18,9728.4166831201,0.00100000000384171
3,19,8184.34564311849,0
3,20,7724.51510182731,0.000999999996565748
3,21,7912.78255104053,0.00100000000384171
3,22,9974.65977467374,0
3,23,8592.42655774414,0.000999999996565748
3,24,8391.90431394835,0.00100000000384171
3,25,8953.77728741908,0
3,26,8435.53852159093,0.000999999996565748
3,27,8693.04523496046,0.00100000000384171
3,28,7450.54876077869,0
3,29,9922.75155603502,0
3,30,7780.8749148688,0.000999999996565748
4,1,7228.24453398192,0.00100000000384171
4,2,5958.57950446494,0
4,3,7784.04863287992,0.000999999996565748
4,4,6494.37400874964,0.00100000000384171
4,5,6219.91042946365,0
4,6,7853.30681098215,0.000999999996565748
4,7,5981.03281893806,0.000999999996565748
4,8,6451.73492378553,0.00100000000384171
4,9,6230.335452981,0
4,10,7309.97077876953,0.000999999996565748
4,11,6393.8750993993,0.000999999996565748
4,12,5156.06433366552,0
4,13,5708.16010781388,0
4,14,7961.29560788072,0.000999999996565748
4,15,6048.37815733347,0.00100000000384171
4,16,4818.98154762257,0
4,17,5034.1413561398,0.000999999996565748
4,18,7821.50802435706,0.00100000000384171
4,19,6077.97801397196,0
4,20,5693.9302789573,0.000999999996565748
4,21,5754.81861895002,0.00100000000384171
4,22,7788.50523867098,0
4,23,6513.67041660368,0.000999999996565748
4,24,6442.62831419009,0.00100000000384171
4,25,6931.06389561917,0
4,26,6373.57746591994,0.000999999996565748
4,27,6600.57500876002,0.00100000000384171
4,28,5463.94731529669,0
4,29,7920.49478817799,0.000999999996565748
4,30,5635.4839622277,0.00100000000384171
5,1,8337.65129763213,0
5,2,6934.6248013195,0.000999999996565748
5,3,8870.32864607737,0.00100000000384171
5,4,7506.02160591097,0
5,5,7323.68456153119,0.000999999996565748
5,6,8730.37009004529,0.00100000000384171
5,7,6951.15905933115,0
5,8,7763.40055876317,0.000999999996565748
5,9,7324.44632024467,0.000999999996565748
5,10,8335.765108498,0
5,11,7281.9094350061,0.00100000000384171
5,12,6136.50833552237,0.000999999996565748
5,13,6838.62521295489,0
5,14,9137.52016441157,0.00100000000384171
5,15,7154.21425651985,0.000999999996565748
5,16,5816.75769048795,0
5,17,6107.60929557581,0.00100000000384171
5,18,8739.54221243158,0.000999999996565748
5,19,7148.64914271562,0
5,20,6677.1799462106,0.00100000000384171
5,21,6975.91711022684,0.000999999996565748
5,22,9061.28824349973,0
5,23,7585.01715630889,0.00100000000384171
5,24,7260.68931870887,0.000999999996565748
5,25,8088.43422525813,0
5,26,7477.24023987956,0
5,27,7693.56297805819,0.000999999996565748
5,28,6384.78569549805,0
5,29,8775.67334906766,0
5,30,6839.92136509515,0.000999999996565748
6,1,8319.84613828081,0.00100000000384171
6,2,6781.38854591102,0
6,3,8973.28406002217,0.000999999996565748
6,4,7427.5740030575,0.000999999996565748
6,5,7160.17921939074,0
6,6,8704.76685783989,0.00100000000384171
6,7,6876.84099903829,0.000999999996565748
6,8,7585.10335897334,0.00900000000547152
6,9,7090.25104369254,0
6,10,8125.3637127676,0.00100000000384171
6,11,7236.47011343907,0.000999999996565748
6,12,6064.2537020646,0
6,13,6683.43973186812,0
6,14,9010.19421028782,0.000999999996565748
6,15,7050.08615213766,0.00100000000384171
6,16,5618.87218795916,0
6,17,5912.46960476132,0.000999999996565748
6,18,8679.54605350958,0.000999999996565748
6,19,7040.76861850293,0
6,20,6541.75630441393,0.00100000000384171
6,21,6812.62238845109,0.000999999996565748
6,22,9046.40646258766,0
6,23,7464.44996235071,0.00100000000384171
6,24,7221.3006102567,0.000999999996565748
6,25,7880.38662246744,0
6,26,7476.17762396809,0.00100000000384171
6,27,7537.30801183431,0.000999999996565748
6,28,6256.23533203701,0
6,29,8742.79778618135,0.00100000000384171
6,30,6729.14079395906,0.000999999996565748
7,1,8386.37481591045,0
7,2,6745.70819357137,0.00100000000384171
7,3,9148.07648134884,0.000999999996565748
7,4,7378.58718545455,0
7,5,7127.32730191688,0.00100000000384171
7,6,8574.71588170144,0.000999999996565748
7,7,6860.03155733509,0
7,8,7653.16068522035,0.00100000000384171
7,9,7047.91784914414,0.000999999996565748
7,10,8121.29602559958,0
7,11,7123.79595205877,0.00100000000384171
7,12,6072.31506198418,0.000999999996565748
7,13,6683.2632804198,0
7,14,8911.84359136415,0.000999999996565748
7,15,7036.82784217811,0.00100000000384171
7,16,5604.33337341125,0
7,17,5960.06033636878,0.000999999996565748
7,18,8692.23174294745,0.00100000000384171
7,19,7029.79502559506,0
7,20,6462.1641289224,0.000999999996565748
7,21,6831.80256727237,0.00100000000384171
7,22,9112.84220821205,0
7,23,7398.26370305146,0.000999999996565748
7,24,7100.76483129015,0.00100000000384171
7,25,7837.0829169819,0
7,26,7517.59592444811,0
7,27,7494.21243503157,0.00100000000384171
7,28,6145.67115607913,0.000999999996565748
7,29,8589.38465031692,0
7,30,6752.69456191889,0.00100000000384171
8,1,8985.66454413736,0.000999999996565748
8,2,7598.1822952584,0
8,3,9643.71564964799,0.00100000000384171
8,4,8117.07027507783,0.000999999996565748
8,5,7918.68396818267,0
8,6,9568.79762277982,0.00100000000384171
8,7,7711.84824620412,0.000999999996565748
8,8,8196.89858226858,0
8,9,7864.18264666394,0.000999999996565748
8,10,8841.51476892636,0.0100000000020373
8,11,8044.67995630431,0.00100000000384171
8,12,6786.62244148439,0
8,13,7407.33844153858,0
8,14,9775.75759845748,0.00100000000384171
8,15,7796.36736465776,0.000999999996565748
8,16,6415.45832121775,0
8,17,6645.11901453454,0.00100000000384171
8,18,9454.29405254224,0.000999999996565748
8,19,7819.5626685613,0
8,20,7319.63401936117,0.00100000000384171
8,21,7522.14725149143,0.000999999996565748
8,22,9612.21520533663,0
8,23,8158.90408686576,0.000999999996565748
8,24,8063.8360335322,0.00100000000384171
8,25,8482.22235016334,0
8,26,8134.80862838136,0.000999999996565748
8,27,8286.44459384694,0.00100000000384171
8,28,7059.78641458401,0
8,29,9586.15198347131,0.000999999996565748
8,30,7396.849471019,0.00100000000384171
9,1,9048.14625809985,0
9,2,7659.95148459461,0.000999999996565748
9,3,9783.10461909178,0.00100000000384171
9,4,8302.34536216116,0
9,5,8052.82918586804,0.000999999996565748
9,6,9527.34021255927,0.00100000000384171
9,7,7802.13057544967,0
9,8,8425.11881209858,0.000999999996565748
9,9,7920.05393720983,0.00100000000384171
9,10,9004.58763816475,0
9,11,8167.90945029965,0.000999999996565748
9,12,6926.23499335343,0.00100000000384171
9,13,7487.50915622921,0
9,14,9774.99026331757,0.000999999996565748
9,15,7940.27016157598,0.00100000000384171
9,16,6460.4338231215,0
9,17,6751.28544012254,0.000999999996565748
9,18,9614.84308834301,0.000999999996565748
9,19,7896.54390353657,0
9,20,7415.11658464025,0.00100000000384171
9,21,7632.79219809517,0.000999999996565748
9,22,9746.83929212397,0
9,23,8308.7194904534,0
9,24,8145.29631226499,0.000999999996565748
9,25,8719.17194906821,0.00100000000384171
9,26,8328.18223056696,0
9,27,8412.79360407172,0.000999999996565748
9,28,7159.55080245624,0.00100000000384171
9,29,9689.71516986112,0
9,30,7538.88319206972,0.000999999996565748
10,1,7262.82438118066,0.00100000000384171
10,2,5789.98522743001,0
10,3,7995.10130068248,0.000999999996565748
10,4,6387.17748703653,0.00100000000384171
10,5,6108.72960660645,0
10,6,7650.28241969706,0.000999999996565748
10,7,5845.92981762737,0.00100000000384171
10,8,6570.66642260741,0
10,9,6035.79334335861,0.000999999996565748
10,10,7188.24651069701,0.00100000000384171
10,11,6191.20438808151,0.000999999996565748
10,12,5043.9749185488,0.00899999999819556
10,13,5578.22136801094,0.00100000000384171
10,14,7903.29108017205,0.000999999996565748
10,15,5979.29076672832,0.00100000000384171
10,16,4526.53171672005,0
10,17,4870.2100677517,0.000999999996565748
10,18,7676.95156227761,0.00100000000384171
10,19,5957.65976048888,0
10,20,5464.00976350119,0.000999999996565748
10,21,5722.08767435297,0.00100000000384171
10,22,7961.16282234107,0
10,23,6394.05193259445,0.000999999996565748
10,24,6182.85630585854,0.00100000000384171
10,25,6948.93339776788,0
10,26,6455.4895556761,0.000999999996565748
10,27,6467.8177864835,0.000999999996565748
10,28,5196.49750528117,0
10,29,7738.99625870469,0.00100000000384171
10,30,5642.47335346002,0.000999999996565748
11,1,7202.31314008375,0
11,2,5663.35963290665,0.00100000000384171
11,3,7685.51907612572,0.000999999996565748
11,4,6398.17383655555,0
11,5,5997.99660050445,0.00100000000384171
11,6,7403.04299873282,0.000999999996565748
11,7,5656.13509328489,0
11,8,6448.73517624208,0.00100000000384171
11,9,6007.14202005649,0.000999999996565748
11,10,7224.53760298363,0
11,11,6092.24685767595,0.00100000000384171
11,12,5068.03792234242,0.000999999996565748
11,13,5563.07386518364,0
11,14,7597.54172585843,0.00100000000384171
11,15,5858.86904885748,0.000999999996565748
11,16,4567.78562261318,0
11,17,4945.45518161895,0.00100000000384171
11,18,7514.63541519782,0.000999999996565748
11,19,5852.38432947112,0
11,20,5453.70884966851,0.00100000000384171
11,21,5650.62058973003,0.000999999996565748
11,22,7784.72778436332,0
11,23,6374.77577597732,0.00100000000384171
11,24,6064.03854277482,0.000999999996565748
11,25,6862.10252944136,0
11,26,6271.78716735868,0
11,27,6402.0229579439,0.00100000000384171
11,28,5117.24847587959,0.000999999996565748
11,29,7503.85873157777,0
11,30,5590.99431505873,0.00100000000384171
12,1,8189.43553081562,0.000999999996565748
12,2,6540.37509222453,0
12,3,8844.71695631573,0.00100000000384171
12,4,7460.82309009064,0.000999999996565748
12,5,7052.54019014937,0
12,6,8509.56503665138,0.00100000000384171
12,7,6749.76299892686,0.000999999996565748
12,8,7491.6097353065,0
12,9,6873.11494068904,0.00100000000384171
12,10,7894.00939764971,0.000999999996565748
12,11,7237.03875646605,0
12,12,6017.05779218849,0
12,13,6556.1036022894,0.000999999996565748
12,14,8840.51301715201,0.0100000000020373
12,15,6995.39282368329,0.000999999996565748
12,16,5487.44381140246,0
12,17,5747.82695242283,0.00100000000384171
12,18,8556.37844300261,0.000999999996565748
12,19,6903.58423138291,0
12,20,6485.51083013826,0.00100000000384171
12,21,6718.31110165333,0.000999999996565748
12,22,8989.71170581051,0
12,23,7404.07728339774,0.00100000000384171
12,24,7194.04540776857,0.000999999996565748
12,25,7756.84004509367,0
12,26,7398.77273406218,0.00100000000384171
12,27,7411.74269572631,0.000999999996565748
12,28,6197.83349819589,0
12,29,8636.34523393115,0.00100000000384171
12,30,6679.30134086268,0.000999999996565748
13,1,8172.30003920322,0
13,2,6834.16927716684,0.000999999996565748
13,3,8666.88796863097,0.00100000000384171
13,4,7669.53308483875,0
13,5,7279.15201774197,0.000999999996565748
13,6,8723.72431021422,0.00100000000384171
13,7,6864.39254701551,0
13,8,7651.23104351826,0.000999999996565748
13,9,7145.07294017607,0.00100000000384171
13,10,8182.54059458986,0
13,11,7416.93703222987,0.000999999996565748
13,12,6186.30063388603,0.00100000000384171
13,13,6760.69689129446,0
13,14,9110.85162719069,0.000999999996565748
13,15,7138.33880700194,0.00100000000384171
13,16,5694.92893890377,0
13,17,5929.84071155163,0.000999999996565748
13,18,8568.36750080743,0.00100000000384171
13,19,7066.14798355884,0
13,20,6739.63026887142,0.000999999996565748
13,21,6899.91588450576,0.00100000000384171
13,22,9071.2574732815,0
13,23,7647.2313862195,0.000999999996565748
13,24,7417.09893070548,0.00100000000384171
13,25,8187.50496536158,0.000999999996565748
13,26,7504.19508810396,0
13,27,7626.04114405099,0.00100000000384171
13,28,6480.00527537579,0.000999999996565748
13,29,8938.25966184781,0
13,30,6857.59455711983,0.000999999996565748
14,1,7772.24061482583,0.00100000000384171
14,2,6277.88954942022,0
14,3,8383.04280403384,0.000999999996565748
14,4,6877.50169323514,0.00100000000384171
14,5,6620.94260143785,0
14,6,8218.39915985151,0.000999999996565748
14,7,6319.99842057304,0.00100000000384171
14,8,7015.39066702853,0
14,9,6591.38007681107,0
14,10,7585.59870727339,0.00100000000384171
14,11,6679.02725172516,0.000999999996565748
14,12,5516.79736948387,0
14,13,6158.73245765522,0.00100000000384171
14,14,8537.68560982297,0.000999999996565748
14,15,6479.6865906037,0
14,16,5107.13513244027,0.0100000000020373
14,17,5375.72380260462,0.000999999996565748
14,18,8062.62774074392,0.00100000000384171
14,19,6499.00453629434,0
14,20,6019.26140087372,0.000999999996565748
14,21,6287.35601044119,0.00100000000384171
14,22,8501.95176419954,0
14,23,6907.4568566512,0.000999999996565748
14,24,6696.2572035851,0.00100000000384171
14,25,7370.65179608357,0
14,26,6856.93813397249,0
14,27,6985.94349992586,0.00100000000384171
14,28,5730.78837313365,0
14,29,8223.27560048831,0
14,30,6182.27354466255,0.00100000000384171
15,1,7041.95790133735,0
15,2,5670.838746925,0.000999999996565748
15,3,7445.58212309561,0.00100000000384171
15,4,6452.73590787616,0
15,5,6033.83066742544,0
15,6,7401.51139268686,0.00100000000384171
15,7,5644.83288740336,0
15,8,6456.19115244994,0
15,9,6049.88414954806,0.000999999996565748
15,10,7195.2808783948,0
15,11,6157.48907513787,0
15,12,5058.57062880179,0.000999999996565748
15,13,5528.81639782068,0
15,14,7582.83490748233,0
15,15,5854.021389483,0.000999999996565748
15,16,4592.74684468518,0
15,17,4911.42674524007,0
15,18,7513.50645065258,0.000999999996565748
15,19,5796.94603133933,0
15,20,5525.06388973459,0
15,21,5611.36095260544,0.000999999996565748
15,22,7652.20003460277,0.00100000000384171
15,23,6401.21180978029,0
15,24,6157.4836739089,0.000999999996565748
15,25,6998.13162085195,0.00100000000384171
15,26,6153.32374404277,0
15,27,6420.92531801425,0.000999999996565748
15,28,5244.18182929968,0.00100000000384171
15,29,7610.62803682547,0
15,30,5515.56134391291,0.000999999996565748
16,1,8695.72604289769,0.00100000000384171
16,2,7299.77579583312,0
16,3,9324.53775984981,0.000999999996565748
16,4,7925.84510687286,0.000999999996565748
16,5,7624.67174629335,0
16,6,9312.05136557803,0
16,7,7371.69191816753,0.000999999996565748
16,8,7867.97727907189,0
16,9,7540.76570982301,0
16,10,8544.27451882755,0.000999999996565748
16,11,7788.91821884749,0.00100000000384171
16,12,6549.74226762982,0
16,13,7154.2048390509,0.000999999996565748
16,14,9510.49464157891,0.00100000000384171
16,15,7504.18829720805,0
16,16,6117.60359622263,0.000999999996565748
16,17,6346.14971775374,0.0100000000020373
16,18,9080.67061200105,0.000999999996565748
16,19,7529.61181011787,0
16,20,7079.07949048546,0.00100000000384171
16,21,7242.62668880725,0.000999999996565748
16,22,9439.83513331612,0.00100000000384171
16,23,7943.82465739499,0
16,24,7827.78976882597,0.000999999996565748
16,25,8273.41859854871,0.00100000000384171
16,26,7904.4033372792,0
16,27,7997.18964028095,0.000999999996565748
16,28,6814.15734293201,0.00100000000384171
16,29,9359.942717672,0
16,30,7168.58634415391,0.000999999996565748
17,1,7553.84217878554,0.00100000000384171
17,2,5673.84341589598,0
17,3,8283.49248667189,0.000999999996565748
17,4,6699.80118684536,0.00100000000384171
17,5,6273.64493786143,0
17,6,7571.94442059373,0.000999999996565748
17,7,5939.47263994299,0.00100000000384171
17,8,6909.3528406799,0
17,9,6060.82641620229,0.000999999996565748
17,10,7083.64343202937,0.00100000000384171
17,11,6392.2412029809,0
17,12,5308.45136831204,0.000999999996565748
17,13,5811.85825699306,0.000999999996565748
17,14,8028.83121723902,0
17,15,6256.89411443498,0.00100000000384171
17,16,4770.52032175296,0.000999999996565748
17,17,5067.18722231175,0
17,18,7842.48828273761,0.00100000000384171
17,19,6120.18793652093,0.000999999996565748
17,20,5675.94997486441,0
17,21,6044.96095583819,0.00100000000384171
17,22,8354.74845963674,0.000999999996565748
17,23,6619.49482147069,0
17,24,6307.16300300618,0.00100000000384171
17,25,6973.01812472108,0.000999999996565748
17,26,6672.51859696417,0
17,27,6613.08551926238,0.00100000000384171
17,28,5367.30639041093,0.000999999996565748
17,29,7632.2192843562,0
17,30,6003.71077509481,0.00100000000384171
18,1,7920.85305696473,0.000999999996565748
18,2,6388.30807418735,0
18,3,8562.18169599295,0
18,4,6481.59962140745,0.000999999996565748
18,5,6594.22690723161,0
18,6,8361.44060693531,0
18,7,6569.94171680092,0.000999999996565748
18,8,6828.75462379834,0.000999999996565748
18,9,6793.22301251105,0
18,10,7337.82325180353,0.00100000000384171
18,11,6567.57944934043,0.000999999996565748
18,12,5516.83943355004,0
18,13,6318.89536264051,0.00100000000384171
18,14,8598.76645799382,0.000999999996565748
18,15,6509.57280920951,0
18,16,5549.88202646088,0.00100000000384171
18,17,5662.17329998881,0.000999999996565748
18,18,8090.91994648554,0
18,19,6687.426909311,0.0100000000020373
18,20,6017.88221389152,0.00100000000384171
18,21,6411.40813631091,0.000999999996565748
18,22,8273.92357751243,0.000999999996565748
18,23,6684.84403794017,0
18,24,6590.34572028746,0.00100000000384171
18,25,6679.70311202586,0.000999999996565748
18,26,6669.36308567822,0
18,27,6964.63632728432,0.00100000000384171
18,28,5753.35764171162,0.000999999996565748
18,29,7940.302205082,0
18,30,6166.26897161304,0.00100000000384171
19,1,6540.77828187326,0.000999999996565748
19,2,5167.05655408416,0
19,3,7313.90803023679,0.00100000000384171
19,4,6177.27484456264,0.000999999996565748
19,5,5777.68639297304,0
19,6,6867.01742445678,0.00100000000384171
19,7,5408.29201171669,0.000999999996565748
19,8,6268.5936802712,0
19,9,5553.2954437278,0.00100000000384171
19,10,6756.39983990462,0.000999999996565748
19,11,5924.91800820139,0
19,12,4673.41956605234,0.00100000000384171
19,13,5171.7707845629,0.000999999996565748
19,14,7246.7178660096,0
19,15,5683.70631210906,0.00100000000384171
19,16,4276.99935156168,0.000999999996565748
19,17,4532.90869271191,0
19,18,7354.59294731838,0.000999999996565748
19,19,5491.4934231284,0.00100000000384171
19,20,5185.87281953806,0
19,21,5365.36459475988,0.000999999996565748
19,22,7394.72107233876,0.00100000000384171
19,23,6103.51604760619,0
19,24,5783.08566330995,0.000999999996565748
19,25,6584.10151731597,0.00100000000384171
19,26,6007.81689325978,0
19,27,6123.92652058196,0.000999999996565748
19,28,4939.95267868014,0.00100000000384171
19,29,7175.17453102878,0
19,30,5307.36268661609,0.000999999996565748
20,1,7209.08192457938,0.00100000000384171
20,2,6096.98808049924,0
20,3,7832.60784053353,0
20,4,6772.68742820505,0.00100000000384171
20,5,6455.78589726239,0.000999999996565748
20,6,8054.9249105878,0
20,7,6148.14587013189,0.00100000000384171
20,8,6643.35645701196,0.000999999996565748
20,9,6362.18152187826,0
20,10,7416.8839265104,0.00100000000384171
20,11,6660.09382026453,0.000999999996565748
20,12,5288.47764813052,0
20,13,5937.10733216681,0.00100000000384171
20,14,8309.55443513555,0.000999999996565748
20,15,6320.5337911718,0
20,16,4961.34861944479,0.000999999996565748
20,17,5112.93046916345,0.00100000000384171
20,18,7850.35810546655,0
20,19,6296.1843932294,0
20,20,5956.36205880009,0.00100000000384171
20,21,6024.26203593945,0.0100000000020373
20,22,8084.72486857461,0.000999999996565748
20,23,6812.89788299057,0
20,24,6656.78819727105,0.00100000000384171
20,25,7250.70952122912,0.000999999996565748
20,26,6665.87774024851,0
20,27,6832.30486083101,0.000999999996565748
20,28,5734.84967437255,0.00100000000384171
20,29,8225.38278381465,0
20,30,5965.29362774361,0.000999999996565748
21,1,7637.3614727044,0.00100000000384171
21,2,6162.2397178257,0
21,3,8388.77138124516,0.000999999996565748
21,4,6926.27591640301,0.00100000000384171
21,5,6598.44318901858,0
21,6,8152.07796458616,0.000999999996565748
21,7,6361.57749862514,0.00100000000384171
21,8,6955.59546569136,0
21,9,6441.63236646143,0.000999999996565748
21,10,7488.68845371967,0.00100000000384171
21,11,6800.25438318027,0
21,12,5499.3809085137,0.000999999996565748
21,13,6056.87444153342,0.00100000000384171
21,14,8402.75995411829,0
21,15,6524.10710863349,0
21,16,5038.99687216752,0.00100000000384171
21,17,5270.53552641146,0
21,18,8166.41700386171,0.000999999996565748
21,19,6460.72970055846,0.00100000000384171
21,20,6015.17070174112,0
21,21,6206.15851575382,0.000999999996565748
21,22,8388.29342315264,0.00100000000384171
21,23,6905.39980161199,0
21,24,6767.22992348955,0.000999999996565748
21,25,7254.96189595638,0.000999999996565748
21,26,6912.69016955994,0
21,27,6961.67710221137,0
21,28,5763.96275769727,0.000999999996565748
21,29,8273.57787955542,0
21,30,6142.76109710575,0
22,1,7908.97228191078,0.000999999996565748
22,2,6465.29117316332,0.00100000000384171
22,3,8390.85880035766,0
22,4,6983.75688097925,0.000999999996565748
22,5,6778.94821443581,0.00100000000384171
22,6,8371.9624933474,0
22,7,6441.7189917466,0.000999999996565748
22,8,7149.38588950764,0.00100000000384171
22,9,6830.40630514694,0
22,10,7814.99415773957,0.000999999996565748
22,11,6790.59282071282,0.00100000000384171
22,12,5649.25123020398,0
22,13,6343.92033440233,0.000999999996565748
22,14,8688.2691068822,0.00100000000384171
22,15,6612.5808086912,0
22,16,5333.6553565642,0
22,17,5601.411451522,0.00100000000384171
22,18,8203.87466219295,0.000999999996565748
22,19,6655.81217116571,0
22,20,6184.35409909817,0.000999999996565748
22,21,6449.69210286283,0.00100000000384171
22,22,8575.38266197472,0.00899999999819556
22,23,7072.12625272633,0.00100000000384171
22,24,6805.45186831133,0.000999999996565748
22,25,7495.11394510532,0.00100000000384171
22,26,6931.53606633006,0
22,27,7162.26957334304,0.000999999996565748
22,28,5885.55855985234,0.00100000000384171
22,29,8315.2443952776,0
22,30,6310.61537910168,0
23,1,6670.44809677488,0.000999999996565748
23,2,5939.60885742289,0
23,3,7260.44206233875,0
23,4,6168.70368490115,0.000999999996565748
23,5,6134.79107962217,0
23,6,7643.65459896066,0
23,7,5898.71500214626,0.000999999996565748
23,8,6279.08028194602,0
23,9,6225.27281385846,0
23,10,7279.36806156994,0.000999999996565748
23,11,6192.27810472635,0
23,12,4823.8097511751,0
23,13,5499.86628512121,0.000999999996565748
23,14,7745.03722428492,0
23,15,5876.95843786827,0
23,16,4753.93355602322,0.000999999996565748
23,17,4917.3367972813,0
23,18,7572.37071927293,0
23,19,5905.28436370965,0.000999999996565748
23,20,5542.24585772472,0
23,21,5579.04561314228,0
23,22,7191.08842082984,0.000999999996565748
23,23,6253.42091753213,0
23,24,6170.1497855019,0
23,25,6838.09443296855,0.000999999996565748
23,26,5988.01644827619,0
23,27,6489.48153972063,0
23,28,5337.16274515917,0.000999999996565748
23,29,7759.02060230526,0
23,30,5339.34961713196,0
24,1,7827.00185039551,0.00100000000384171
24,2,6594.47685978266,0.000999999996565748
24,3,8375.98773566658,0
24,4,7154.41798954585,0.00100000000384171
24,5,6930.18420302064,0.000999999996565748
24,6,8435.18079598058,0
24,7,6571.39597517865,0.00100000000384171
24,8,7257.35787130039,0.000999999996565748
24,9,6908.08016768704,0
24,10,7987.29717254985,0.00100000000384171
24,11,6972.88980432635,0.000999999996565748
24,12,5740.18596883395,0
24,13,6399.28879327606,0.00100000000384171
24,14,8740.5203754224,0.000999999996565748
24,15,6736.24674044578,0
24,16,5395.34843615986,0
24,17,5661.18307221384,0.000999999996565748
24,18,8356.32391510296,0.00100000000384171
24,19,6731.26610004851,0
24,20,6320.78767086248,0.000999999996565748
24,21,6502.26495602208,0.00100000000384171
24,22,8581.95559101596,0
24,23,7209.04039929685,0.000999999996565748
24,24,6977.81331447874,0.0100000000020373
24,25,7742.09089543577,0.000999999996565748
24,26,7063.15890581576,0
24,27,7295.11960892208,0.00100000000384171
24,28,6062.71946417609,0.000999999996565748
24,29,8535.55398300624,0.00100000000384171
24,30,6377.94039377872,0
25,1,7322.0667822381,0.000999999996565748
25,2,5951.80571156356,0.00100000000384171
25,3,7955.09631630749,0
25,4,6476.34391101878,0.000999999996565748
25,5,6280.96264912115,0.00100000000384171
25,6,7839.11838805348,0
25,7,6026.16445508857,0.000999999996565748
25,8,6631.95300084436,0.000999999996565748
25,9,6291.23421632327,0
25,10,7333.06200918635,0.00100000000384171
25,11,6353.65164330941,0.000999999996565748
25,12,5118.16819776912,0
25,13,5758.49333599624,0.00100000000384171
25,14,8050.16928050749,0.000999999996565748
25,15,6122.6228616502,0
25,16,4806.56404160093,0.00100000000384171
25,17,5068.24835792995,0.000999999996565748
25,18,7830.82086303951,0
25,19,6129.53940397589,0.00100000000384171
25,20,5665.46075000197,0.000999999996565748
25,21,5871.73883081416,0
25,22,7934.63606959183,0.00100000000384171
25,23,6519.34761729547,0.000999999996565748
25,24,6331.76499395821,0
25,25,6952.97910703739,0.00100000000384171
25,26,6427.99964803989,0.000999999996565748
25,27,6660.99872305904,0
25,28,5388.17071304837,0.00100000000384171
25,29,7859.60636800034,0.000999999996565748
25,30,5715.70754514375,0
26,1,7354.78549357198,0.00100000000384171
26,2,5704.52611084986,0.000999999996565748
26,3,7907.05255424272,0
26,4,6268.17093562533,0.000999999996565748
26,5,6021.65678378533,0.00100000000384171
26,6,7528.39709878795,0
26,7,5692.02356830817,0
26,8,6530.77472778635,0.00100000000384171
26,9,6075.79837500264,0
26,10,7138.32484613938,0
26,11,5976.36980693692,0.00100000000384171
26,12,5006.30872468396,0.000999999996565748
26,13,5659.78643248924,0
26,14,7874.42496299606,0.00100000000384171
26,15,5874.58070381096,0.000999999996565748
26,16,4639.23736875269,0
26,17,4978.76974526681,0.00100000000384171
26,18,7524.01264587914,0.000999999996565748
26,19,5939.66559305376,0
26,20,5396.38469774704,0.00100000000384171
26,21,5768.68418520566,0.000999999996565748
26,22,8003.29550274064,0
26,23,6344.19295386673,0.00100000000384171
26,24,5966.65361888897,0.000999999996565748
26,25,6778.03640095055,0.00100000000384171
26,26,6292.02837849366,0.00899999999819556
26,27,6416.49474664113,0
26,28,5066.53187964119,0.00100000000384171
26,29,7410.98801836558,0.000999999996565748
26,30,5662.93343811536,0
27,1,7537.57422091126,0.00100000000384171
27,2,6076.93737468373,0.000999999996565748
27,3,8261.57634161929,0
27,4,6778.22950089197,0.00100000000384171
27,5,6509.56575008379,0.000999999996565748
27,6,7950.24473303602,0
27,7,6220.64793420195,0.00100000000384171
27,8,6945.34077706016,0.000999999996565748
27,9,6421.30530082139,0
27,10,7495.90001615155,0.00100000000384171
27,11,6592.84557286804,0.000999999996565748
27,12,5357.5800812427,0
27,13,5984.6838922621,0.000999999996565748
27,14,8266.1052780752,0.00100000000384171
27,15,6401.49892040016,0
27,16,4959.85161994737,0.000999999996565748
27,17,5243.10701088527,0.00100000000384171
27,18,8079.62654481727,0
27,19,6348.07880341141,0.000999999996565748
27,20,5882.53902499858,0.00100000000384171
27,21,6132.20749921891,0
27,22,8281.9841108232,0
27,23,6793.23892003809,0.00100000000384171
27,24,6545.96102563034,0
27,25,7241.12118110765,0
27,26,6779.44133924316,0.00100000000384171
27,27,6884.68583774189,0
27,28,5605.1666358299,0
27,29,8072.97767690074,0.00100000000384171
27,30,6034.25792633211,0
28,1,7462.36593354411,0
28,2,6339.59752189226,0.00100000000384171
28,3,7910.02821700017,0
28,4,6875.49360463701,0
28,5,6669.92172661103,0.00100000000384171
28,6,8277.09141633649,0.000999999996565748
28,7,6309.08262809388,0
28,8,6874.40783263231,0.000999999996565748
28,9,6692.4012710943,0.00100000000384171
28,10,7628.27833195978,0
28,11,6754.75702301584,0.000999999996565748
28,12,5439.74188741248,0.00100000000384171
28,13,6177.24563555597,0
28,14,8601.23904286501,0.000999999996565748
28,15,6475.52628148973,0.00100000000384171
28,16,5229.17289526045,0
28,17,5375.9532908169,0.000999999996565748
28,18,7952.12778334043,0.00100000000384171
28,19,6497.96337755557,0
28,20,6141.39842474346,0
28,21,6276.81385347473,0.00100000000384171
28,22,8236.00805588058,0.000999999996565748
28,23,6960.20080129082,0
28,24,6775.60269954078,0.00100000000384171
28,25,7422.26386395907,0.000999999996565748
28,26,6698.05841412904,0
28,27,7039.43055577179,0.010999999998603
28,28,5888.16408762769,0.00100000000384171
28,29,8328.56256330811,0.000999999996565748
28,30,6135.43608305709,0.00100000000384171
29,1,7596.18493338117,0
29,2,6173.21526739098,0.000999999996565748
29,3,8136.60953648136,0.00100000000384171
29,4,6822.46782412575,0
29,5,6540.39567257927,0.000999999996565748
29,6,8110.43643060629,0.00100000000384171
29,7,6229.29399250098,0
29,8,6863.58734452194,0.000999999996565748
29,9,6506.3037220172,0.00100000000384171
29,10,7520.31840832354,0
29,11,6645.27891783393,0.000999999996565748
29,12,5419.95255265019,0.00100000000384171
29,13,6044.53358604422,0
29,14,8386.61937763268,0.000999999996565748
29,15,6383.3724151042,0.000999999996565748
29,16,5022.24533350089,0
29,17,5268.08875703342,0.00100000000384171
29,18,7983.26147741914,0.000999999996565748
29,19,6388.12006221563,0
29,20,5961.28111275174,0.00100000000384171
29,21,6155.93035490675,0.000999999996565748
29,22,8302.30080104448,0
29,23,6836.0451351486,0.00100000000384171
29,24,6657.60109746224,0.000999999996565748
29,25,7282.2103672317,0
29,26,6734.16743234206,0.00100000000384171
29,27,6911.09352294046,0.000999999996565748
29,28,5682.06902183085,0
29,29,8180.93036203081,0.00100000000384171
29,30,6045.67035269237,0.000999999996565748
30,1,6411.64298270809,0
30,2,4983.04531947322,0.00100000000384171
30,3,7009.36844478272,0.000999999996565748
30,4,5809.60930955855,0
30,5,5428.20152524134,0.00100000000384171
30,6,6645.84939464442,0.000999999996565748
30,7,5012.91503831359,0
30,8,5919.00396540409,0.00100000000384171
30,9,5371.61996435642,0.000999999996565748
30,10,6608.56113671813,0.00100000000384171
30,11,5447.99499133418,0
30,12,4381.51018120397,0.000999999996565748
30,13,4916.21367990448,0.000999999996565748
30,14,6971.17804938017,0
30,15,5235.09513903483,0.00100000000384171
30,16,3904.68088383189,0.000999999996565748
30,17,4277.82141273531,0
30,18,6878.23926173341,0
30,19,5167.02624017021,0.000999999996565748
30,20,4820.96899847434,0.00100000000384171
30,21,5038.4542216582,0
30,22,7210.07165947589,0.000999999996565748
30,23,5764.3495341047,0.00100000000384171
30,24,5390.14654591802,0
30,25,6424.88789018827,0.000999999996565748
30,26,5669.77556093981,0.00100000000384171
30,27,5798.99384737477,0
30,28,4512.27439556776,0.000999999996565748
30,29,6894.89201439113,0.0100000000020373
30,30,4952.3758427423,0.000999999996565748
