Trial,Energy (J)
1,243.15141950925977
2,241.5162091992036
3,241.9339171396672
4,243.56112862183588
5,242.5501123060472
6,242.48070285083384
7,244.29265533280784
8,243.53637267621048
9,242.31784029484362
10,243.4276392579382
11,243.33314302396687
12,243.32700215620324
13,243.08981592838973
14,244.45218482300615
15,243.996688917803
16,245.09389047468434
17,243.85621837276713
18,244.7442256474309
19,244.54807456103867
20,245.42016036968005
21,245.38116073340382
22,243.68927837451804
23,242.7820461886501
24,244.16936726656638
25,243.42779421865853
26,243.55096934509828
27,242.49200855653524
28,242.95560772152913
29,244.1928210381234
30,242.20346189595142
