App - AnkiDroid
Scenario - learn_cards
Length - 0sec
Measure - EDRDistance
Before Version - 2.5_b
After Version - 2.6_b


"Before.Trace.ID1","Before.Trace.ID2","Difference","Runtime"
1,2,1736,0.379000000000815
1,3,1737,0.256000000001222
1,4,1745,0.261999999995169
1,5,1734,0.261000000005879
1,6,1747,0.259999999994761
1,7,1738,0.261000000005879
1,8,1745,0.260999999998603
1,9,1742,0.260999999998603
1,10,1738,0.260000000002037
1,11,1745,0.258999999998196
1,12,1745,0.261000000005879
1,13,1745,0.261999999995169
1,14,1748,0.262000000002445
1,15,1749,0.260000000002037
1,16,1740,0.258999999998196
1,17,1747,0.261000000005879
1,18,1743,0.260999999998603
1,19,1748,0.263999999995576
1,20,1740,0.261000000005879
1,21,1736,0.288000000000466
1,22,1749,0.257999999994354
1,23,1745,0.260999999998603
1,24,1745,0.260000000002037
1,25,1741,0.260999999998603
1,26,1749,0.262000000002445
1,27,1748,0.261999999995169
1,28,1747,0.260000000002037
1,29,1746,0.260000000002037
1,30,1749,0.261999999995169
2,3,1734,0.260999999998603
2,4,1737,0.260999999998603
2,5,1719,0.262000000002445
2,6,1726,0.259000000005472
2,7,1737,0.260999999998603
2,8,1742,0.261999999995169
2,9,1733,0.262000000002445
2,10,1725,0.262000000002445
2,11,1735,0.288000000000466
2,12,1742,0.257999999994354
2,13,1727,0.261000000005879
2,14,1734,0.258999999998196
2,15,1748,0.260999999998603
2,16,1734,0.260999999998603
2,17,1740,0.262000000002445
2,18,1739,0.260000000002037
2,19,1740,0.258999999998196
2,20,1735,0.261000000005879
2,21,1740,0.260999999998603
2,22,1735,0.260999999998603
2,23,1748,0.260999999998603
2,24,1720,0.260000000002037
2,25,1745,0.260999999998603
2,26,1748,0.260999999998603
2,27,1738,0.262000000002445
2,28,1730,0.260999999998603
2,29,1740,0.288000000000466
2,30,1744,0.25800000000163
3,4,1735,0.260999999998603
3,5,1731,0.260000000002037
3,6,1743,0.260999999998603
3,7,1740,0.261000000005879
3,8,1746,0.260999999998603
3,9,1732,0.259999999994761
3,10,1740,0.260000000002037
3,11,1748,0.260999999998603
3,12,1742,0.261000000005879
3,13,1743,0.260000000002037
3,14,1748,0.260999999998603
3,15,1746,0.260000000002037
3,16,1743,0.260000000002037
3,17,1746,0.260999999998603
3,18,1744,0.262000000002445
3,19,1743,0.260999999998603
3,20,1748,0.288000000000466
3,21,1745,0.25800000000163
3,22,1746,0.262000000002445
3,23,1735,0.258999999998196
3,24,1739,0.260999999998603
3,25,1741,0.262000000002445
3,26,1748,0.261999999995169
3,27,1747,0.260000000002037
3,28,1749,0.260000000002037
3,29,1749,0.262000000002445
3,30,1739,0.261999999995169
4,5,1725,0.262000000002445
4,6,1740,0.262000000002445
4,7,1744,0.259999999994761
4,8,1747,0.260999999998603
4,9,1729,0.262000000002445
4,10,1740,0.262000000002445
4,11,1743,0.260999999998603
4,12,1743,0.288000000000466
4,13,1745,0.25800000000163
4,14,1743,0.260999999998603
4,15,1749,0.259000000005472
4,16,1747,0.261999999995169
4,17,1741,0.260999999998603
4,18,1745,0.262000000002445
4,19,1743,0.260000000002037
4,20,1739,0.260000000002037
4,21,1739,0.260999999998603
4,22,1748,0.260999999998603
4,23,1746,0.260999999998603
4,24,1732,0.260999999998603
4,25,1741,0.260000000002037
4,26,1745,0.258999999998196
4,27,1746,0.262000000002445
4,28,1744,0.262000000002445
4,29,1748,0.259999999994761
4,30,1744,0.288000000000466
5,6,1725,0.25800000000163
5,7,1745,0.262000000002445
5,8,1741,0.258999999998196
5,9,1723,0.261000000005879
5,10,1734,0.260999999998603
5,11,1742,0.260999999998603
5,12,1747,0.260000000002037
5,13,1738,0.258999999998196
5,14,1748,0.262000000002445
5,15,1749,0.260999999998603
5,16,1743,0.260999999998603
5,17,1749,0.262000000002445
5,18,1747,0.259999999994761
5,19,1744,0.260000000002037
5,20,1746,0.261999999995169
5,21,1741,0.260999999998603
5,22,1743,0.262000000002445
5,23,1746,0.288000000000466
5,24,1732,0.25800000000163
5,25,1747,0.260999999998603
5,26,1748,0.260999999998603
5,27,1746,0.260999999998603
5,28,1749,0.261000000005879
5,29,1749,0.261999999995169
5,30,1748,0.260999999998603
6,7,1742,0.260000000002037
6,8,1745,0.260999999998603
6,9,1727,0.260999999998603
6,10,1733,0.262000000002445
6,11,1744,0.262000000002445
6,12,1732,0.260000000002037
6,13,1739,0.259999999994761
6,14,1731,0.262000000002445
6,15,1746,0.26299999999901
6,16,1737,0.260999999998603
6,17,1740,0.288000000000466
6,18,1746,0.25800000000163
6,19,1729,0.262000000002445
6,20,1728,0.259999999994761
6,21,1741,0.260000000002037
6,22,1740,0.259999999994761
6,23,1744,0.262000000002445
6,24,1724,0.260000000002037
6,25,1744,0.258999999998196
6,26,1745,0.260999999998603
6,27,1738,0.262000000002445
6,28,1741,0.260999999998603
6,29,1744,0.262000000002445
6,30,1748,0.260000000002037
7,8,1737,0.260000000002037
7,9,1748,0.260999999998603
7,10,1734,0.260999999998603
7,11,1743,0.260999999998603
7,12,1735,0.288000000000466
7,13,1745,0.256999999997788
7,14,1742,0.262000000002445
7,15,1745,0.258999999998196
7,16,1735,0.260999999998603
7,17,1735,0.262000000002445
7,18,1732,0.260000000002037
7,19,1745,0.259000000005472
7,20,1739,0.259999999994761
7,21,1739,0.260999999998603
7,22,1734,0.261000000005879
7,23,1734,0.261999999995169
7,24,1735,0.261000000005879
7,25,1732,0.259999999994761
7,26,1745,0.260999999998603
7,27,1737,0.261000000005879
7,28,1735,0.261999999995169
7,29,1736,0.260999999998603
7,30,1744,0.288000000000466
8,9,1740,0.25800000000163
8,10,1734,0.260999999998603
8,11,1745,0.259000000005472
8,12,1735,0.261999999995169
8,13,1737,0.260000000002037
8,14,1738,0.261000000005879
8,15,1739,0.259999999994761
8,16,1745,0.260000000002037
8,17,1737,0.260999999998603
8,18,1741,0.260999999998603
8,19,1745,0.261000000005879
8,20,1731,0.260999999998603
8,21,1743,0.259999999994761
8,22,1741,0.260000000002037
8,23,1748,0.262000000002445
8,24,1740,0.260999999998603
8,25,1738,0.260999999998603
8,26,1727,0.288000000000466
8,27,1735,0.257999999994354
8,28,1736,0.261000000005879
8,29,1736,0.259999999994761
8,30,1734,0.261000000005879
9,10,1734,0.260999999998603
9,11,1747,0.261999999995169
9,12,1740,0.260000000002037
9,13,1720,0.260000000002037
9,14,1736,0.260999999998603
9,15,1748,0.261000000005879
9,16,1742,0.261999999995169
9,17,1736,0.261000000005879
9,18,1747,0.259999999994761
9,19,1744,0.260000000002037
9,20,1740,0.261000000005879
9,21,1744,0.261999999995169
9,22,1745,0.262000000002445
9,23,1749,0.288000000000466
9,24,1737,0.25800000000163
9,25,1740,0.261999999995169
9,26,1749,0.261000000005879
9,27,1746,0.259999999994761
9,28,1746,0.260999999998603
9,29,1746,0.260999999998603
9,30,1746,0.260000000002037
10,11,1745,0.258999999998196
10,12,1727,0.262000000002445
10,13,1734,0.260999999998603
10,14,1738,0.260999999998603
10,15,1743,0.260999999998603
10,16,1735,0.258999999998196
10,17,1735,0.260000000002037
10,18,1739,0.260999999998603
10,19,1738,0.261000000005879
10,20,1733,0.260999999998603
10,21,1735,0.288000000000466
10,22,1722,0.258999999998196
10,23,1743,0.260999999998603
10,24,1729,0.260000000002037
10,25,1730,0.260000000002037
10,26,1744,0.260999999998603
10,27,1737,0.262000000002445
10,28,1721,0.258999999998196
10,29,1732,0.260000000002037
10,30,1723,0.262000000002445
11,12,1735,0.260999999998603
11,13,1734,0.260999999998603
11,14,1740,0.260999999998603
11,15,1740,0.258999999998196
11,16,1744,0.260000000002037
11,17,1741,0.260999999998603
11,18,1743,0.261999999995169
11,19,1741,0.261000000005879
11,20,1738,0.288000000000466
11,21,1748,0.25800000000163
11,22,1738,0.260999999998603
11,23,1744,0.258999999998196
11,24,1742,0.260999999998603
11,25,1743,0.260999999998603
11,26,1749,0.262000000002445
11,27,1732,0.260000000002037
11,28,1745,0.259999999994761
11,29,1744,0.260999999998603
11,30,1744,0.261000000005879
12,13,1724,0.260000000002037
12,14,1725,0.261999999995169
12,15,1737,0.259000000005472
12,16,1726,0.260000000002037
12,17,1708,0.260999999998603
12,18,1738,0.262000000002445
12,19,1737,0.260999999998603
12,20,1723,0.288999999997031
12,21,1736,0.25800000000163
12,22,1730,0.260999999998603
12,23,1740,0.258999999998196
12,24,1727,0.259999999994761
12,25,1726,0.262000000002445
12,26,1740,0.262000000002445
12,27,1732,0.259999999994761
12,28,1726,0.260000000002037
12,29,1734,0.262000000002445
12,30,1716,0.261999999995169
13,14,1746,0.261000000005879
13,15,1744,0.261999999995169
13,16,1735,0.260000000002037
13,17,1730,0.260999999998603
13,18,1747,0.262000000002445
13,19,1747,0.260999999998603
13,20,1740,0.262000000002445
13,21,1740,0.288000000000466
13,22,1747,0.258999999998196
13,23,1748,0.260999999998603
13,24,1738,0.260000000002037
13,25,1745,0.260999999998603
13,26,1747,0.261000000005879
13,27,1743,0.260000000002037
13,28,1737,0.260000000002037
13,29,1746,0.258999999998196
13,30,1745,0.26299999999901
14,15,1736,0.261000000005879
14,16,1732,0.260999999998603
14,17,1728,0.260999999998603
14,18,1741,0.260000000002037
14,19,1740,0.260000000002037
14,20,1739,0.262000000002445
14,21,1740,0.260999999998603
14,22,1742,0.261999999995169
14,23,1742,0.288000000000466
14,24,1743,0.25800000000163
14,25,1742,0.260999999998603
14,26,1742,0.260999999998603
14,27,1727,0.261000000005879
14,28,1723,0.260999999998603
14,29,1730,0.262000000002445
14,30,1726,0.259999999994761
15,16,1743,0.260000000002037
15,17,1746,0.262000000002445
15,18,1741,0.261999999995169
15,19,1731,0.260999999998603
15,20,1741,0.262000000002445
15,21,1748,0.260000000002037
15,22,1743,0.260000000002037
15,23,1747,0.260999999998603
15,24,1740,0.262000000002445
15,25,1748,0.260999999998603
15,26,1747,0.288000000000466
15,27,1740,0.25800000000163
15,28,1735,0.260999999998603
15,29,1747,0.261000000005879
15,30,1741,0.259999999994761
16,17,1735,0.261000000005879
16,18,1743,0.260999999998603
16,19,1741,0.260000000002037
16,20,1739,0.259000000005472
16,21,1733,0.260999999998603
16,22,1738,0.260999999998603
16,23,1744,0.260999999998603
16,24,1716,0.261999999995169
16,25,1737,0.260000000002037
16,26,1747,0.258999999998196
16,27,1738,0.261000000005879
16,28,1740,0.261999999995169
16,29,1740,0.260999999998603
16,30,1734,0.288000000000466
17,18,1741,0.259000000005472
17,19,1741,0.261999999995169
17,20,1730,0.259000000005472
17,21,1729,0.260999999998603
17,22,1732,0.260999999998603
17,23,1741,0.26299999999901
17,24,1737,0.258999999998196
17,25,1729,0.258999999998196
17,26,1742,0.260999999998603
17,27,1730,0.262000000002445
17,28,1730,0.262000000002445
17,29,1738,0.260999999998603
17,30,1727,0.259999999994761
18,19,1738,0.261000000005879
18,20,1737,0.261999999995169
18,21,1741,0.262000000002445
18,22,1735,0.260999999998603
18,23,1730,0.289000000004307
18,24,1737,0.257999999994354
18,25,1729,0.260999999998603
18,26,1741,0.260000000002037
18,27,1731,0.260999999998603
18,28,1739,0.262000000002445
18,29,1741,0.261999999995169
18,30,1749,0.260000000002037
19,20,1739,0.260000000002037
19,21,1730,0.260999999998603
19,22,1743,0.262000000002445
19,23,1739,0.260999999998603
19,24,1732,0.260000000002037
19,25,1732,0.260000000002037
19,26,1735,0.260999999998603
19,27,1735,0.260999999998603
19,28,1729,0.262000000002445
19,29,1734,0.262000000002445
19,30,1732,0.288000000000466
20,21,1733,0.25800000000163
20,22,1736,0.260999999998603
20,23,1739,0.259999999994761
20,24,1722,0.262000000002445
20,25,1731,0.260999999998603
20,26,1738,0.260999999998603
20,27,1736,0.260000000002037
20,28,1728,0.259999999994761
20,29,1739,0.260000000002037
20,30,1743,0.260999999998603
21,22,1744,0.260000000002037
21,23,1734,0.261000000005879
21,24,1744,0.258999999998196
21,25,1715,0.260000000002037
21,26,1740,0.261999999995169
21,27,1734,0.260999999998603
21,28,1729,0.262000000002445
21,29,1739,0.288000000000466
21,30,1736,0.25800000000163
22,23,1743,0.260999999998603
22,24,1732,0.260000000002037
22,25,1732,0.260999999998603
22,26,1743,0.260999999998603
22,27,1732,0.260999999998603
22,28,1739,0.260000000002037
22,29,1735,0.258999999998196
22,30,1737,0.260999999998603
23,24,1738,0.260999999998603
23,25,1740,0.262000000002445
23,26,1745,0.261999999995169
23,27,1743,0.260000000002037
23,28,1741,0.260000000002037
23,29,1718,0.260999999998603
23,30,1742,0.262000000002445
24,25,1729,0.261999999995169
24,26,1746,0.288000000000466
24,27,1722,0.25800000000163
24,28,1741,0.260999999998603
24,29,1735,0.259000000005472
24,30,1745,0.260999999998603
25,26,1743,0.260999999998603
25,27,1734,0.260999999998603
25,28,1739,0.260000000002037
25,29,1732,0.260000000002037
25,30,1737,0.261999999995169
26,27,1729,0.262000000002445
26,28,1742,0.260999999998603
26,29,1736,0.260999999998603
26,30,1736,0.260000000002037
27,28,1702,0.260999999998603
27,29,1742,0.260999999998603
27,30,1718,0.261000000005879
28,29,1723,0.260999999998603
28,30,1736,0.288999999997031
29,30,1744,0.25800000000163


"After.Trace.ID","Before.Trace.ID","Difference","Runtime"
1,1,1748,0.227999999995518
1,2,1747,0.259999999994761
1,3,1749,0.261000000005879
1,4,1743,0.260999999998603
1,5,1746,0.260999999998603
1,6,1742,0.260999999998603
1,7,1748,0.260000000002037
1,8,1741,0.260999999998603
1,9,1744,0.260000000002037
1,10,1745,0.261999999995169
1,11,1745,0.261000000005879
1,12,1744,0.259999999994761
1,13,1745,0.262000000002445
1,14,1741,0.262000000002445
1,15,1742,0.260999999998603
1,16,1747,0.258999999998196
1,17,1743,0.262000000002445
1,18,1749,0.261999999995169
1,19,1743,0.261000000005879
1,20,1744,0.261999999995169
1,21,1746,0.260000000002037
1,22,1742,0.262000000002445
1,23,1745,0.259999999994761
1,24,1748,0.262000000002445
1,25,1745,0.260999999998603
1,26,1738,0.258999999998196
1,27,1736,0.262000000002445
1,28,1740,0.261999999995169
1,29,1745,0.260999999998603
1,30,1739,0.25800000000163
2,1,1744,0.261999999995169
2,2,1738,0.261000000005879
2,3,1743,0.261999999995169
2,4,1746,0.260999999998603
2,5,1744,0.259000000005472
2,6,1745,0.260999999998603
2,7,1742,0.258999999998196
2,8,1743,0.262000000002445
2,9,1744,0.260999999998603
2,10,1743,0.260000000002037
2,11,1749,0.260999999998603
2,12,1739,0.260999999998603
2,13,1738,0.260999999998603
2,14,1740,0.258999999998196
2,15,1740,0.261000000005879
2,16,1745,0.260999999998603
2,17,1734,0.262000000002445
2,18,1743,0.260999999998603
2,19,1735,0.258999999998196
2,20,1748,0.261000000005879
2,21,1746,0.259999999994761
2,22,1740,0.262000000002445
2,23,1746,0.260999999998603
2,24,1747,0.260000000002037
2,25,1746,0.260999999998603
2,26,1748,0.262000000002445
2,27,1736,0.261999999995169
2,28,1745,0.25800000000163
2,29,1740,0.262000000002445
2,30,1742,0.261000000005879
3,1,1749,0.261999999995169
3,2,1748,0.262000000002445
3,3,1745,0.258999999998196
3,4,1747,0.262000000002445
3,5,1749,0.259999999994761
3,6,1734,0.260999999998603
3,7,1749,0.260999999998603
3,8,1747,0.25800000000163
3,9,1747,0.260999999998603
3,10,1747,0.260999999998603
3,11,1749,0.261000000005879
3,12,1729,0.258999999998196
3,13,1749,0.260999999998603
3,14,1746,0.262000000002445
3,15,1745,0.260999999998603
3,16,1748,0.260999999998603
3,17,1738,0.260000000002037
3,18,1741,0.261999999995169
3,19,1740,0.260000000002037
3,20,1746,0.260000000002037
3,21,1712,0.260000000002037
3,22,1748,0.260000000002037
3,23,1730,0.260999999998603
3,24,1742,0.260999999998603
3,25,1740,0.260999999998603
3,26,1729,0.259000000005472
3,27,1744,0.260999999998603
3,28,1746,0.262000000002445
3,29,1743,0.260999999998603
3,30,1743,0.261999999995169
4,1,1749,0.259000000005472
4,2,1745,0.261999999995169
4,3,1748,0.260000000002037
4,4,1749,0.262000000002445
4,5,1743,0.261999999995169
4,6,1741,0.259000000005472
4,7,1749,0.261999999995169
4,8,1744,0.262000000002445
4,9,1746,0.262000000002445
4,10,1742,0.258999999998196
4,11,1741,0.261999999995169
4,12,1746,0.261000000005879
4,13,1737,0.261999999995169
4,14,1745,0.262000000002445
4,15,1745,0.260000000002037
4,16,1745,0.260999999998603
4,17,1746,0.260000000002037
4,18,1744,0.260999999998603
4,19,1745,0.260999999998603
4,20,1747,0.260000000002037
4,21,1736,0.261999999995169
4,22,1739,0.262000000002445
4,23,1749,0.262000000002445
4,24,1741,0.258999999998196
4,25,1738,0.262000000002445
4,26,1746,0.261999999995169
4,27,1741,0.262000000002445
4,28,1739,0.260999999998603
4,29,1725,0.260000000002037
4,30,1749,0.260999999998603
5,1,1749,0.260000000002037
5,2,1748,0.262000000002445
5,3,1742,0.260999999998603
5,4,1745,0.260000000002037
5,5,1746,0.260999999998603
5,6,1749,0.262000000002445
5,7,1741,0.260999999998603
5,8,1748,0.258999999998196
5,9,1749,0.260999999998603
5,10,1746,0.262000000002445
5,11,1744,0.260999999998603
5,12,1749,0.260999999998603
5,13,1749,0.261000000005879
5,14,1732,0.261999999995169
5,15,1743,0.260000000002037
5,16,1738,0.261000000005879
5,17,1747,0.260999999998603
5,18,1748,0.258999999998196
5,19,1746,0.262000000002445
5,20,1729,0.261999999995169
5,21,1740,0.261000000005879
5,22,1748,0.257999999994354
5,23,1736,0.260999999998603
5,24,1748,0.262000000002445
5,25,1746,0.262000000002445
5,26,1745,0.260999999998603
5,27,1747,0.260000000002037
5,28,1747,0.260999999998603
5,29,1738,0.260000000002037
5,30,1746,0.261999999995169
6,1,1748,0.261000000005879
6,2,1744,0.259999999994761
6,3,1748,0.260999999998603
6,4,1742,0.262000000002445
6,5,1749,0.262000000002445
6,6,1745,0.25800000000163
6,7,1743,0.260999999998603
6,8,1740,0.260999999998603
6,9,1740,0.262000000002445
6,10,1746,0.260999999998603
6,11,1741,0.259999999994761
6,12,1743,0.261000000005879
6,13,1730,0.258999999998196
6,14,1733,0.261000000005879
6,15,1741,0.260999999998603
6,16,1743,0.259999999994761
6,17,1742,0.261000000005879
6,18,1747,0.260999999998603
6,19,1742,0.261000000005879
6,20,1741,0.257999999994354
6,21,1747,0.262000000002445
6,22,1747,0.260999999998603
6,23,1746,0.260999999998603
6,24,1740,0.260999999998603
6,25,1749,0.258999999998196
6,26,1746,0.260999999998603
6,27,1742,0.260000000002037
6,28,1749,0.260999999998603
6,29,1741,0.260999999998603
6,30,1731,0.260000000002037
7,1,1743,0.261999999995169
7,2,1736,0.261000000005879
7,3,1747,0.261999999995169
7,4,1748,0.259000000005472
7,5,1740,0.261999999995169
7,6,1739,0.260999999998603
7,7,1740,0.261000000005879
7,8,1738,0.261999999995169
7,9,1737,0.260000000002037
7,10,1734,0.260999999998603
7,11,1738,0.260000000002037
7,12,1737,0.260999999998603
7,13,1737,0.262000000002445
7,14,1729,0.258999999998196
7,15,1742,0.261000000005879
7,16,1738,0.261999999995169
7,17,1740,0.260999999998603
7,18,1743,0.25800000000163
7,19,1742,0.261999999995169
7,20,1741,0.261000000005879
7,21,1737,0.261999999995169
7,22,1741,0.262000000002445
7,23,1747,0.260000000002037
7,24,1740,0.261999999995169
7,25,1748,0.261000000005879
7,26,1739,0.260999999998603
7,27,1730,0.261999999995169
7,28,1742,0.259000000005472
7,29,1734,0.260000000002037
7,30,1733,0.260999999998603
8,1,1749,0.262000000002445
8,2,1749,0.258999999998196
8,3,1744,0.261000000005879
8,4,1749,0.260999999998603
8,5,1738,0.260999999998603
8,6,1741,0.261000000005879
8,7,1748,0.259999999994761
8,8,1740,0.261000000005879
8,9,1734,0.258999999998196
8,10,1747,0.262000000002445
8,11,1747,0.262000000002445
8,12,1745,0.260999999998603
8,13,1748,0.260999999998603
8,14,1747,0.261000000005879
8,15,1747,0.260999999998603
8,16,1747,0.25800000000163
8,17,1741,0.260999999998603
8,18,1746,0.262000000002445
8,19,1740,0.261000000005879
8,20,1744,0.260999999998603
8,21,1748,0.260000000002037
8,22,1745,0.261999999995169
8,23,1744,0.260000000002037
8,24,1740,0.262000000002445
8,25,1739,0.260999999998603
8,26,1745,0.259999999994761
8,27,1744,0.261000000005879
8,28,1746,0.261999999995169
8,29,1742,0.262000000002445
8,30,1740,0.25800000000163
9,1,1744,0.260999999998603
9,2,1744,0.260999999998603
9,3,1748,0.262000000002445
9,4,1736,0.260999999998603
9,5,1749,0.260000000002037
9,6,1744,0.260999999998603
9,7,1745,0.260000000002037
9,8,1746,0.260999999998603
9,9,1742,0.260999999998603
9,10,1742,0.260000000002037
9,11,1745,0.260999999998603
9,12,1745,0.261000000005879
9,13,1749,0.260999999998603
9,14,1740,0.25800000000163
9,15,1742,0.261999999995169
9,16,1746,0.260999999998603
9,17,1743,0.261000000005879
9,18,1748,0.260999999998603
9,19,1744,0.260000000002037
9,20,1744,0.261999999995169
9,21,1746,0.258999999998196
9,22,1738,0.261000000005879
9,23,1745,0.260999999998603
9,24,1745,0.259000000005472
9,25,1739,0.260999999998603
9,26,1747,0.260999999998603
9,27,1744,0.261000000005879
9,28,1742,0.257999999994354
9,29,1744,0.260999999998603
9,30,1743,0.262000000002445
10,1,1743,0.260999999998603
10,2,1745,0.262000000002445
10,3,1743,0.259999999994761
10,4,1748,0.260999999998603
10,5,1736,0.260000000002037
10,6,1737,0.260999999998603
10,7,1749,0.262000000002445
10,8,1749,0.258999999998196
10,9,1747,0.260999999998603
10,10,1746,0.262000000002445
10,11,1748,0.260999999998603
10,12,1747,0.258999999998196
10,13,1748,0.260999999998603
10,14,1746,0.260999999998603
10,15,1749,0.261000000005879
10,16,1749,0.261999999995169
10,17,1748,0.260000000002037
10,18,1746,0.260000000002037
10,19,1744,0.260000000002037
10,20,1745,0.260999999998603
10,21,1744,0.260000000002037
10,22,1738,0.259000000005472
10,23,1747,0.260999999998603
10,24,1746,0.261999999995169
10,25,1748,0.262000000002445
10,26,1744,0.258999999998196
10,27,1746,0.262000000002445
10,28,1748,0.262000000002445
10,29,1746,0.260999999998603
10,30,1745,0.260999999998603
11,1,1748,0.260000000002037
11,2,1737,0.260999999998603
11,3,1748,0.260000000002037
11,4,1749,0.262000000002445
11,5,1746,0.260999999998603
11,6,1735,0.260000000002037
11,7,1746,0.262000000002445
11,8,1738,0.260999999998603
11,9,1731,0.260999999998603
11,10,1741,0.258999999998196
11,11,1735,0.260999999998603
11,12,1745,0.260999999998603
11,13,1735,0.261000000005879
11,14,1732,0.26299999999901
11,15,1747,0.259999999994761
11,16,1747,0.261000000005879
11,17,1736,0.259999999994761
11,18,1746,0.260999999998603
11,19,1735,0.262000000002445
11,20,1740,0.260000000002037
11,21,1739,0.260000000002037
11,22,1744,0.260999999998603
11,23,1747,0.260999999998603
11,24,1738,0.25800000000163
11,25,1745,0.260999999998603
11,26,1748,0.260999999998603
11,27,1742,0.260999999998603
11,28,1744,0.262000000002445
11,29,1743,0.260000000002037
11,30,1745,0.261999999995169
12,1,1745,0.260000000002037
12,2,1740,0.262000000002445
12,3,1739,0.260999999998603
12,4,1742,0.260000000002037
12,5,1737,0.261999999995169
12,6,1736,0.260999999998603
12,7,1737,0.262000000002445
12,8,1740,0.25800000000163
12,9,1736,0.261000000005879
12,10,1737,0.260999999998603
12,11,1746,0.260999999998603
12,12,1732,0.262000000002445
12,13,1743,0.258999999998196
12,14,1741,0.260999999998603
12,15,1749,0.260000000002037
12,16,1734,0.260999999998603
12,17,1726,0.262000000002445
12,18,1738,0.258999999998196
12,19,1739,0.260000000002037
12,20,1730,0.260999999998603
12,21,1736,0.260999999998603
12,22,1744,0.259000000005472
12,23,1739,0.260999999998603
12,24,1740,0.260999999998603
12,25,1739,0.260999999998603
12,26,1743,0.260999999998603
12,27,1741,0.260000000002037
12,28,1734,0.260999999998603
12,29,1737,0.261000000005879
12,30,1743,0.260999999998603
13,1,1742,0.261999999995169
13,2,1748,0.260000000002037
13,3,1749,0.260999999998603
13,4,1748,0.260999999998603
13,5,1744,0.262000000002445
13,6,1743,0.257999999994354
13,7,1745,0.262000000002445
13,8,1737,0.260999999998603
13,9,1747,0.262000000002445
13,10,1742,0.262000000002445
13,11,1748,0.259999999994761
13,12,1742,0.262000000002445
13,13,1745,0.258999999998196
13,14,1735,0.260999999998603
13,15,1742,0.262000000002445
13,16,1746,0.258999999998196
13,17,1742,0.261000000005879
13,18,1748,0.261999999995169
13,19,1740,0.260999999998603
13,20,1745,0.25800000000163
13,21,1734,0.260999999998603
13,22,1740,0.261999999995169
13,23,1741,0.263000000006286
13,24,1749,0.261999999995169
13,25,1740,0.259000000005472
13,26,1742,0.261999999995169
13,27,1736,0.260000000002037
13,28,1741,0.262000000002445
13,29,1735,0.259999999994761
13,30,1746,0.260000000002037
14,1,1739,0.260999999998603
14,2,1743,0.260999999998603
14,3,1749,0.260999999998603
14,4,1744,0.25800000000163
14,5,1747,0.261999999995169
14,6,1748,0.261000000005879
14,7,1747,0.261999999995169
14,8,1744,0.262000000002445
14,9,1743,0.260000000002037
14,10,1744,0.260999999998603
14,11,1743,0.260000000002037
14,12,1741,0.260999999998603
14,13,1739,0.261000000005879
14,14,1743,0.258999999998196
14,15,1744,0.261999999995169
14,16,1746,0.262000000002445
14,17,1743,0.260999999998603
14,18,1748,0.25800000000163
14,19,1742,0.259999999994761
14,20,1744,0.262000000002445
14,21,1740,0.262000000002445
14,22,1749,0.260999999998603
14,23,1746,0.258999999998196
14,24,1749,0.260000000002037
14,25,1743,0.260999999998603
14,26,1741,0.261000000005879
14,27,1746,0.260999999998603
14,28,1747,0.260000000002037
14,29,1743,0.260999999998603
14,30,1742,0.260999999998603
15,1,1747,0.260999999998603
15,2,1746,0.25800000000163
15,3,1748,0.261999999995169
15,4,1748,0.261000000005879
15,5,1738,0.261999999995169
15,6,1740,0.260000000002037
15,7,1739,0.260000000002037
15,8,1737,0.260999999998603
15,9,1742,0.260000000002037
15,10,1748,0.261999999995169
15,11,1741,0.262000000002445
15,12,1743,0.258999999998196
15,13,1739,0.262000000002445
15,14,1739,0.260999999998603
15,15,1745,0.260999999998603
15,16,1748,0.256999999997788
15,17,1743,0.259999999994761
15,18,1746,0.260999999998603
15,19,1747,0.261000000005879
15,20,1739,0.261999999995169
15,21,1747,0.260000000002037
15,22,1743,0.260999999998603
15,23,1726,0.260000000002037
15,24,1740,0.260999999998603
15,25,1734,0.260999999998603
15,26,1742,0.259000000005472
15,27,1739,0.260000000002037
15,28,1740,0.261999999995169
15,29,1725,0.260000000002037
15,30,1747,0.258999999998196
16,1,1747,0.260999999998603
16,2,1734,0.262000000002445
16,3,1731,0.260999999998603
16,4,1745,0.262000000002445
16,5,1727,0.260000000002037
16,6,1741,0.260999999998603
16,7,1743,0.260000000002037
16,8,1744,0.261999999995169
16,9,1733,0.261000000005879
16,10,1727,0.259999999994761
16,11,1749,0.262000000002445
16,12,1735,0.260999999998603
16,13,1722,0.259999999994761
16,14,1744,0.256999999997788
16,15,1746,0.262000000002445
16,16,1739,0.260999999998603
16,17,1736,0.262000000002445
16,18,1748,0.260999999998603
16,19,1743,0.260000000002037
16,20,1742,0.262000000002445
16,21,1744,0.259999999994761
16,22,1746,0.261000000005879
16,23,1741,0.261999999995169
16,24,1730,0.260000000002037
16,25,1745,0.260999999998603
16,26,1746,0.262000000002445
16,27,1744,0.260999999998603
16,28,1736,0.25800000000163
16,29,1745,0.261999999995169
16,30,1744,0.262000000002445
17,1,1736,0.260999999998603
17,2,1738,0.260999999998603
17,3,1742,0.260000000002037
17,4,1741,0.260999999998603
17,5,1738,0.260000000002037
17,6,1747,0.260999999998603
17,7,1741,0.262000000002445
17,8,1747,0.258999999998196
17,9,1741,0.260999999998603
17,10,1732,0.262000000002445
17,11,1746,0.261999999995169
17,12,1738,0.25800000000163
17,13,1743,0.260999999998603
17,14,1743,0.260999999998603
17,15,1742,0.260000000002037
17,16,1742,0.260999999998603
17,17,1739,0.260000000002037
17,18,1742,0.262000000002445
17,19,1745,0.260999999998603
17,20,1746,0.260999999998603
17,21,1745,0.262000000002445
17,22,1744,0.259999999994761
17,23,1747,0.261000000005879
17,24,1725,0.260999999998603
17,25,1733,0.261999999995169
17,26,1744,0.25800000000163
17,27,1742,0.262000000002445
17,28,1742,0.260999999998603
17,29,1744,0.260999999998603
17,30,1744,0.259999999994761
18,1,1749,0.260000000002037
18,2,1747,0.260999999998603
18,3,1749,0.260000000002037
18,4,1747,0.259999999994761
18,5,1749,0.260999999998603
18,6,1747,0.258999999998196
18,7,1744,0.260999999998603
18,8,1749,0.261000000005879
18,9,1743,0.260999999998603
18,10,1736,0.25800000000163
18,11,1745,0.262000000002445
18,12,1739,0.261999999995169
18,13,1749,0.261000000005879
18,14,1743,0.260999999998603
18,15,1743,0.259999999994761
18,16,1741,0.261000000005879
18,17,1741,0.259999999994761
18,18,1746,0.262000000002445
18,19,1742,0.262000000002445
18,20,1748,0.258999999998196
18,21,1743,0.261000000005879
18,22,1743,0.260999999998603
18,23,1744,0.260999999998603
18,24,1749,0.25800000000163
18,25,1735,0.260999999998603
18,26,1747,0.261000000005879
18,27,1745,0.260999999998603
18,28,1743,0.260999999998603
18,29,1735,0.260000000002037
18,30,1743,0.261999999995169
19,1,1749,0.260000000002037
19,2,1739,0.262000000002445
19,3,1743,0.260999999998603
19,4,1745,0.260000000002037
19,5,1745,0.260999999998603
19,6,1737,0.260999999998603
19,7,1747,0.261000000005879
19,8,1736,0.257999999994354
19,9,1736,0.262000000002445
19,10,1748,0.260999999998603
19,11,1735,0.260999999998603
19,12,1749,0.260999999998603
19,13,1745,0.260999999998603
19,14,1721,0.262000000002445
19,15,1738,0.258999999998196
19,16,1739,0.262000000002445
19,17,1739,0.260000000002037
19,18,1746,0.260000000002037
19,19,1745,0.260999999998603
19,20,1747,0.262000000002445
19,21,1733,0.260999999998603
19,22,1749,0.258999999998196
19,23,1749,0.260999999998603
19,24,1744,0.262000000002445
19,25,1748,0.260999999998603
19,26,1731,0.262000000002445
19,27,1741,0.260000000002037
19,28,1746,0.260999999998603
19,29,1741,0.259999999994761
19,30,1741,0.262000000002445
20,1,1733,0.260999999998603
20,2,1744,0.260000000002037
20,3,1742,0.260999999998603
20,4,1748,0.262000000002445
20,5,1742,0.260999999998603
20,6,1748,0.258999999998196
20,7,1740,0.261000000005879
20,8,1739,0.260999999998603
20,9,1743,0.260999999998603
20,10,1742,0.261000000005879
20,11,1743,0.258999999998196
20,12,1747,0.260999999998603
20,13,1744,0.261000000005879
20,14,1741,0.260999999998603
20,15,1745,0.261000000005879
20,16,1740,0.259999999994761
20,17,1721,0.262000000002445
20,18,1745,0.260999999998603
20,19,1747,0.260999999998603
20,20,1737,0.257000000005064
20,21,1744,0.260000000002037
20,22,1744,0.261999999995169
20,23,1744,0.261000000005879
20,24,1740,0.260999999998603
20,25,1742,0.260000000002037
20,26,1731,0.261999999995169
20,27,1739,0.260000000002037
20,28,1733,0.260999999998603
20,29,1735,0.260999999998603
20,30,1744,0.260000000002037
21,1,1745,0.260999999998603
21,2,1743,0.260999999998603
21,3,1744,0.261000000005879
21,4,1748,0.258999999998196
21,5,1743,0.260000000002037
21,6,1730,0.260999999998603
21,7,1748,0.260000000002037
21,8,1742,0.261000000005879
21,9,1745,0.260999999998603
21,10,1744,0.260999999998603
21,11,1743,0.258999999998196
21,12,1733,0.260999999998603
21,13,1743,0.261000000005879
21,14,1741,0.259999999994761
21,15,1740,0.261000000005879
21,16,1745,0.260999999998603
21,17,1720,0.261999999995169
21,18,1747,0.25800000000163
21,19,1738,0.260999999998603
21,20,1738,0.261000000005879
21,21,1736,0.260999999998603
21,22,1745,0.260999999998603
21,23,1742,0.258999999998196
21,24,1741,0.262000000002445
21,25,1735,0.260999999998603
21,26,1730,0.260999999998603
21,27,1724,0.260999999998603
21,28,1742,0.258999999998196
21,29,1742,0.262000000002445
21,30,1748,0.261999999995169
22,1,1749,0.261000000005879
22,2,1741,0.257999999994354
22,3,1748,0.262000000002445
22,4,1749,0.262000000002445
22,5,1746,0.260999999998603
22,6,1738,0.260999999998603
22,7,1748,0.260000000002037
22,8,1748,0.260999999998603
22,9,1749,0.260000000002037
22,10,1749,0.260999999998603
22,11,1745,0.261000000005879
22,12,1746,0.260999999998603
22,13,1743,0.260999999998603
22,14,1745,0.260999999998603
22,15,1746,0.260999999998603
22,16,1743,0.25800000000163
22,17,1744,0.261999999995169
22,18,1745,0.260999999998603
22,19,1745,0.262000000002445
22,20,1743,0.262000000002445
22,21,1749,0.258999999998196
22,22,1745,0.260999999998603
22,23,1743,0.260999999998603
22,24,1748,0.261000000005879
22,25,1736,0.260999999998603
22,26,1747,0.260000000002037
22,27,1747,0.260999999998603
22,28,1746,0.260999999998603
22,29,1747,0.262000000002445
22,30,1746,0.25800000000163
23,1,1743,0.261999999995169
23,2,1749,0.261000000005879
23,3,1748,0.260999999998603
23,4,1749,0.262000000002445
23,5,1748,0.260000000002037
23,6,1742,0.260999999998603
23,7,1746,0.260000000002037
23,8,1743,0.260999999998603
23,9,1749,0.260000000002037
23,10,1746,0.260000000002037
23,11,1741,0.261999999995169
23,12,1749,0.261000000005879
23,13,1749,0.260999999998603
23,14,1740,0.25800000000163
23,15,1747,0.260999999998603
23,16,1748,0.262000000002445
23,17,1749,0.262000000002445
23,18,1745,0.261999999995169
23,19,1747,0.258999999998196
23,20,1749,0.261000000005879
23,21,1740,0.258999999998196
23,22,1746,0.262000000002445
23,23,1747,0.260999999998603
23,24,1749,0.258999999998196
23,25,1739,0.262000000002445
23,26,1744,0.262000000002445
23,27,1744,0.260999999998603
23,28,1748,0.258999999998196
23,29,1743,0.262000000002445
23,30,1741,0.260999999998603
24,1,1749,0.262000000002445
24,2,1742,0.260999999998603
24,3,1748,0.260000000002037
24,4,1740,0.259999999994761
24,5,1740,0.258999999998196
24,6,1736,0.262000000002445
24,7,1742,0.261999999995169
24,8,1743,0.260000000002037
24,9,1735,0.262000000002445
24,10,1737,0.261999999995169
24,11,1741,0.261000000005879
24,12,1747,0.257999999994354
24,13,1735,0.262000000002445
24,14,1736,0.260999999998603
24,15,1737,0.260999999998603
24,16,1742,0.262000000002445
24,17,1736,0.258999999998196
24,18,1743,0.262000000002445
24,19,1743,0.260000000002037
24,20,1732,0.260999999998603
24,21,1745,0.262000000002445
24,22,1745,0.259999999994761
24,23,1739,0.260000000002037
24,24,1745,0.260999999998603
24,25,1737,0.261999999995169
24,26,1743,0.25800000000163
24,27,1740,0.260999999998603
24,28,1735,0.261000000005879
24,29,1739,0.261999999995169
24,30,1748,0.260999999998603
25,1,1748,0.260000000002037
25,2,1749,0.260999999998603
25,3,1748,0.260000000002037
25,4,1748,0.260999999998603
25,5,1748,0.260999999998603
25,6,1747,0.258999999998196
25,7,1745,0.260999999998603
25,8,1749,0.260999999998603
25,9,1747,0.260999999998603
25,10,1748,0.258999999998196
25,11,1745,0.262000000002445
25,12,1748,0.260999999998603
25,13,1748,0.261000000005879
25,14,1743,0.261999999995169
25,15,1743,0.260000000002037
25,16,1749,0.260999999998603
25,17,1745,0.260000000002037
25,18,1745,0.260999999998603
25,19,1748,0.262000000002445
25,20,1748,0.259999999994761
25,21,1747,0.261000000005879
25,22,1738,0.261999999995169
25,23,1740,0.260999999998603
25,24,1747,0.259000000005472
25,25,1747,0.260999999998603
25,26,1749,0.260999999998603
25,27,1743,0.260999999998603
25,28,1747,0.26299999999901
25,29,1746,0.260000000002037
25,30,1747,0.260999999998603
26,1,1749,0.260999999998603
26,2,1742,0.261000000005879
26,3,1746,0.262000000002445
26,4,1749,0.260000000002037
26,5,1746,0.260999999998603
26,6,1735,0.260999999998603
26,7,1745,0.262000000002445
26,8,1747,0.25800000000163
26,9,1744,0.260999999998603
26,10,1742,0.262000000002445
26,11,1745,0.260999999998603
26,12,1742,0.262000000002445
26,13,1740,0.259999999994761
26,14,1741,0.260999999998603
26,15,1744,0.260000000002037
26,16,1745,0.260999999998603
26,17,1732,0.260999999998603
26,18,1742,0.258999999998196
26,19,1741,0.261999999995169
26,20,1746,0.262000000002445
26,21,1744,0.260999999998603
26,22,1744,0.25800000000163
26,23,1742,0.260999999998603
26,24,1748,0.261999999995169
26,25,1737,0.261000000005879
26,26,1746,0.260999999998603
26,27,1741,0.259999999994761
26,28,1742,0.261000000005879
26,29,1740,0.259999999994761
26,30,1745,0.261000000005879
27,1,1749,0.261999999995169
27,2,1748,0.260000000002037
27,3,1743,0.260999999998603
27,4,1746,0.260999999998603
27,5,1739,0.262000000002445
27,6,1749,0.258999999998196
27,7,1741,0.260999999998603
27,8,1746,0.262000000002445
27,9,1749,0.260999999998603
27,10,1749,0.262000000002445
27,11,1747,0.260000000002037
27,12,1749,0.260999999998603
27,13,1749,0.260000000002037
27,14,1741,0.260999999998603
27,15,1743,0.260999999998603
27,16,1748,0.260000000002037
27,17,1748,0.262000000002445
27,18,1742,0.262000000002445
27,19,1749,0.261999999995169
27,20,1745,0.25800000000163
27,21,1746,0.260999999998603
27,22,1744,0.260999999998603
27,23,1739,0.261000000005879
27,24,1749,0.260999999998603
27,25,1734,0.258999999998196
27,26,1744,0.261000000005879
27,27,1734,0.259999999994761
27,28,1745,0.261000000005879
27,29,1735,0.260999999998603
27,30,1738,0.260999999998603
28,1,1745,0.260999999998603
28,2,1743,0.261999999995169
28,3,1746,0.260999999998603
28,4,1746,0.259000000005472
28,5,1746,0.260999999998603
28,6,1746,0.261000000005879
28,7,1736,0.260999999998603
28,8,1743,0.261999999995169
28,9,1732,0.259000000005472
28,10,1741,0.261999999995169
28,11,1743,0.261000000005879
28,12,1741,0.260999999998603
28,13,1740,0.260999999998603
28,14,1732,0.260000000002037
28,15,1741,0.261999999995169
28,16,1746,0.262000000002445
28,17,1725,0.260999999998603
28,18,1742,0.257999999994354
28,19,1732,0.261000000005879
28,20,1738,0.260999999998603
28,21,1745,0.261999999995169
28,22,1749,0.261000000005879
28,23,1746,0.259999999994761
28,24,1741,0.262000000002445
28,25,1741,0.260000000002037
28,26,1730,0.261999999995169
28,27,1737,0.262000000002445
28,28,1732,0.258999999998196
28,29,1735,0.261000000005879
28,30,1748,0.260999999998603
29,1,1749,0.262000000002445
29,2,1742,0.25800000000163
29,3,1748,0.260999999998603
29,4,1748,0.260999999998603
29,5,1746,0.262000000002445
29,6,1749,0.260999999998603
29,7,1747,0.260000000002037
29,8,1739,0.262000000002445
29,9,1743,0.259999999994761
29,10,1749,0.260999999998603
29,11,1744,0.260999999998603
29,12,1747,0.258999999998196
29,13,1747,0.261000000005879
29,14,1740,0.261999999995169
29,15,1743,0.260000000002037
29,16,1748,0.258999999998196
29,17,1749,0.260999999998603
29,18,1747,0.262000000002445
29,19,1743,0.260999999998603
29,20,1744,0.261999999995169
29,21,1749,0.259000000005472
29,22,1746,0.261999999995169
29,23,1742,0.260000000002037
29,24,1738,0.260999999998603
29,25,1745,0.261999999995169
29,26,1747,0.260000000002037
29,27,1741,0.260999999998603
29,28,1746,0.261000000005879
29,29,1747,0.260999999998603
29,30,1747,0.258999999998196
30,1,1742,0.260999999998603
30,2,1749,0.260999999998603
30,3,1743,0.262000000002445
30,4,1749,0.262000000002445
30,5,1747,0.258999999998196
30,6,1740,0.260999999998603
30,7,1748,0.260000000002037
30,8,1741,0.262000000002445
30,9,1744,0.260999999998603
30,10,1745,0.259999999994761
30,11,1742,0.261000000005879
30,12,1747,0.261999999995169
30,13,1740,0.262000000002445
30,14,1744,0.25800000000163
30,15,1746,0.261999999995169
30,16,1748,0.260000000002037
30,17,1740,0.260999999998603
30,18,1748,0.261999999995169
30,19,1742,0.260000000002037
30,20,1737,0.260999999998603
30,21,1739,0.260000000002037
30,22,1746,0.262000000002445
30,23,1740,0.260999999998603
30,24,1734,0.260000000002037
30,25,1737,0.260999999998603
30,26,1744,0.260999999998603
30,27,1747,0.262000000002445
30,28,1730,0.257999999994354
30,29,1731,0.262000000002445
30,30,1746,0.262000000002445
