Trial,Energy (J)
1,152.98303745939592
2,153.23772670544778
3,150.81979361339145
4,154.47083070811348
5,168.28065246545202
6,153.92487649005622
7,153.34034247350039
8,152.31009815452032
9,152.0004814392608
10,154.2417290430518
11,153.24646208780848
12,155.0960133136361
13,152.43107086003982
14,152.21449148560785
15,151.67870899114024
16,149.13804568526004
17,180.50209708444774
18,123.56491329237987
19,184.02107293484394
20,183.72955336077683
21,180.34847339822065
22,184.81307642146652
23,184.85077543382042
24,179.739334455932
25,180.11393921011143
26,191.40943389161262
27,176.05627733216014
28,178.85354234824365
29,189.1966991830351
30,184.7558110401916
