Trial,Energy (J)
1,179.03681569860782
2,178.1287570221165
3,194.36178956836784
4,188.4735476541521
5,173.1222150080916
6,186.980265662068
7,174.22022840808395
8,176.80166871356775
9,174.16017862489576
10,186.6609528427598
11,173.73407626357235
12,172.4376082822675
13,180.48895459288772
14,181.94286601136386
15,173.51094489811578
16,177.31432902777607
17,191.0656277730247
18,173.77880559035614
19,173.6493225576756
20,173.7435536594999
21,173.3110481175562
22,179.47858893947966
23,175.1447944442878
24,172.713663610716
25,180.39063827597587
26,181.09016789044705
27,185.60353925107754
28,186.08792377150397
29,182.7685296688322
30,170.84477959287278
