Trial,Energy (J)
1,286.25431177332734
2,312.7596277767573
3,293.0052870582758
4,323.6822672470429
5,276.2143627862457
6,301.3658201093187
7,293.4581299690815
8,300.9861098966101
9,301.9972382733148
10,330.7195584447784
11,286.5475258367076
12,286.0122064867615
13,274.8594197493292
14,245.2271185290681
15,295.4660009251072
16,287.5983006223482
17,278.77365201969525
18,273.45514974406655
19,321.68978159464496
20,274.7729262531061
21,316.75499448917975
22,326.6430897654938
23,266.5659369692151
24,284.41730564569866
25,290.2264632925589
26,315.4487676524894
27,324.8297203313118
28,324.0904636605999
29,295.57977218803023
30,283.3178137984673
