App - EBookDroid
Scenario - open_pdf
Length - 0sec
Measure - TWED
Before Version - 1.1.2_b_m
After Version - 1.1.4_f_m


"Before.Trace.ID1","Before.Trace.ID2","Difference","Runtime"
1,2,38030.91403686,0.0760000000000218
1,3,37764.060505584,0.0769999999997708
1,4,37577.113239536,0.0760000000000218
1,5,37824.3177848046,0.0770000000002256
1,6,37777.0456059007,0.0769999999997708
1,7,36578.3427428998,0.0770000000002256
1,8,37950.003852285,0.0769999999997708
1,9,37855.3252780115,0.0770000000002256
1,10,37737.5242055153,0.0760000000000218
1,11,37651.0653884822,0.0760000000000218
1,12,37738.1612944553,0.0770000000002256
1,13,37765.0467535801,0.0760000000000218
1,14,37650.6830132462,0.0769999999997708
1,15,38242.6140933211,0.0760000000000218
1,16,37584.1968574283,0.0770000000002256
1,17,37572.018644408,0.0760000000000218
1,18,37994.7386153404,0.0769999999997708
1,19,36794.9645584268,0.0779999999999745
1,20,37730.170376779,0.0770000000002256
1,21,30364.9395067641,0.0769999999997708
1,22,38023.9081252366,0.0760000000000218
1,23,37692.9859383589,0.0770000000002256
1,24,37685.7083451741,0.0769999999997708
1,25,37707.9204285485,0.0760000000000218
1,26,37803.6550500448,0.0769999999997708
1,27,37786.0296093525,0.0760000000000218
1,28,36869.3322844249,0.0770000000002256
1,29,38093.7842470927,0.0759999999995671
1,30,37774.6776424465,0.0760000000000218
2,3,38114.6396849367,0.0769999999997708
2,4,37965.1063729296,0.0770000000002256
2,5,38403.9515352912,0.0769999999997708
2,6,37107.8498965949,0.0770000000002256
2,7,38005.4529520038,0.0760000000000218
2,8,38528.0710816694,0.0769999999997708
2,9,38434.687751184,0.0770000000002256
2,10,38316.3087300816,0.0769999999997708
2,11,38229.725861257,0.0770000000002256
2,12,36639.1241379155,0.0769999999997708
2,13,38335.9035686905,0.0760000000000218
2,14,38157.7536992646,0.0770000000002256
2,15,38782.1451154374,0.0760000000000218
2,16,38127.8901384717,0.0770000000002256
2,17,38150.0858737924,0.0769999999997708
2,18,38573.0976469563,0.0770000000002256
2,19,38154.0028034838,0.0769999999997708
2,20,38309.4059439576,0.0770000000002256
2,21,38204.6767939778,0.0769999999997708
2,22,37491.0520043827,0.0770000000002256
2,23,38034.6634814044,0.0769999999997708
2,24,38130.2465111127,0.0770000000002256
2,25,38039.57828247,0.0769999999997708
2,26,38381.7222794292,0.0770000000002256
2,27,38365.4272531824,0.0769999999997708
2,28,38003.4224715976,0.0760000000000218
2,29,38671.8514764771,0.0760000000000218
2,30,38140.7341722936,0.0779999999999745
3,4,37888.7422083791,0.0779999999999745
3,5,38057.1858791393,0.0770000000002256
3,6,38020.7621942485,0.0769999999997708
3,7,37738.5994207278,0.0770000000002256
3,8,37971.5692359052,0.0760000000000218
3,9,38107.9078547817,0.0769999999997708
3,10,38049.4274509187,0.0770000000002256
3,11,37962.872329981,0.0769999999997708
3,12,37973.7207180652,0.0770000000002256
3,13,37525.9405370755,0.0769999999997708
3,14,37962.5862586497,0.0760000000000218
3,15,38554.5173387246,0.0760000000000218
3,16,37895.4105555367,0.0770000000002256
3,17,37883.2323425164,0.0779999999999745
3,18,38306.2441156803,0.0769999999997708
3,19,37886.4184912244,0.0770000000002256
3,20,37481.2582762873,0.0770000000002256
3,21,37937.8232627017,0.0769999999997708
3,22,38335.8113706401,0.0770000000002256
3,23,38004.8891837623,0.0769999999997708
3,24,37997.6115905775,0.0770000000002256
3,25,38019.8236739519,0.0869999999999891
3,26,38114.8687481532,0.0769999999997708
3,27,38097.932854756,0.0760000000000218
3,28,37736.5689403216,0.0770000000002256
3,29,38404.9979452011,0.0760000000000218
3,30,38086.5808878499,0.0769999999997708
4,5,37929.8594195347,0.0770000000002256
4,6,37754.6078680588,0.0760000000000218
4,7,37551.6521546799,0.0760000000000218
4,8,38074.2702843454,0.0769999999997708
4,9,37139.4865794407,0.081000000000131
4,10,37725.1669660072,0.124000000000251
4,11,37287.6021503873,0.0900000000001455
4,12,37862.8429972504,0.0759999999995671
4,13,37889.7284563752,0.0760000000000218
4,14,36607.3019174457,0.0760000000000218
4,15,37864.2408470122,0.0779999999999745
4,16,37708.4605058147,0.0769999999997708
4,17,37696.2850764684,0.0760000000000218
4,18,38119.2968496323,0.0760000000000218
4,19,37699.196948616,0.0760000000000218
4,20,37854.8520795741,0.0760000000000218
4,21,37750.8759966537,0.0760000000000218
4,22,37797.4407488665,0.0770000000002256
4,23,36456.6647439882,0.0760000000000218
4,24,37774.2638584767,0.0769999999997708
4,25,37362.9667616254,0.0770000000002256
4,26,37927.9214821052,0.0760000000000218
4,27,37910.7113121476,0.0760000000000218
4,28,37549.3523103701,0.0760000000000218
4,29,38218.050679153,0.0770000000002256
4,30,36938.9820991729,0.0769999999997708
5,6,38037.2514127504,0.0760000000000218
5,7,37798.8566999484,0.0770000000002256
5,8,38139.5076751291,0.0760000000000218
5,9,37571.3938291473,0.0760000000000218
5,10,38109.7124780261,0.0760000000000218
5,11,38023.1296092015,0.0760000000000218
5,12,37309.3865452418,0.0760000000000218
5,13,37911.0277111055,0.0769999999997708
5,14,38023.1265016952,0.0760000000000218
5,15,38195.5488342519,0.0770000000002256
5,16,37955.6678347572,0.0769999999997708
5,17,37943.4896217369,0.0770000000002256
5,18,38366.5013949008,0.0759999999995671
5,19,37947.4065514283,0.0760000000000218
5,20,38102.8096919021,0.0760000000000218
5,21,37998.0805419223,0.0760000000000218
5,22,38396.9456236678,0.0769999999997708
5,23,38039.4937684575,0.0760000000000218
5,24,37183.1034703932,0.0770000000002256
5,25,37825.168673721,0.0760000000000218
5,26,38175.1260273737,0.0760000000000218
5,27,38158.8310011269,0.0770000000002256
5,28,37796.8262195421,0.0769999999997708
5,29,38465.2552244216,0.0770000000002256
5,30,38147.2518483323,0.0760000000000218
6,7,37751.5845210445,0.0770000000002256
6,8,38274.2026507101,0.0760000000000218
6,9,37980.8503335728,0.0769999999997708
6,10,38062.4402991223,0.0760000000000218
6,11,37975.8574302977,0.0760000000000218
6,12,36376.5396249647,0.0769999999997708
6,13,37745.2937097636,0.0760000000000218
6,14,37975.8543227914,0.0770000000002256
6,15,38316.0445031843,0.0760000000000218
6,16,37908.3956558534,0.0769999999997708
6,17,37896.2174428331,0.0770000000002256
6,18,38319.229215997,0.0769999999997708
6,19,37900.1343725245,0.0770000000002256
6,20,38055.5375129983,0.0760000000000218
6,21,37950.8083630184,0.0760000000000218
6,22,38010.9702855669,0.0770000000002256
6,23,37926.0419318099,0.0760000000000218
6,24,38005.9991249114,0.0760000000000218
6,25,37847.7051754399,0.0770000000002256
6,26,38127.8538484699,0.0769999999997708
6,27,38111.5588222231,0.0770000000002256
6,28,37749.5540406383,0.0760000000000218
6,29,38417.9830455178,0.0769999999997708
6,30,38098.6342170036,0.0770000000002256
7,8,37924.7455541373,0.0779999999999745
7,9,37829.8641931553,0.0769999999997708
7,10,37712.0631206591,0.0779999999999745
7,11,37625.604303626,0.0770000000002256
7,12,37712.7002095991,0.0769999999997708
7,13,37739.5856687239,0.0770000000002256
7,14,37625.22192839,0.0760000000000218
7,15,38217.1530084649,0.0760000000000218
7,16,37559.2843012214,0.0770000000002256
7,17,37547.106088201,0.0769999999997708
7,18,37969.2775304842,0.0770000000002256
7,19,37248.7017392254,0.0769999999997708
7,20,37704.7092919228,0.0770000000002256
7,21,37052.9814458565,0.0779999999999745
7,22,37998.4470403804,0.0769999999997708
7,23,37667.5248535027,0.0770000000002256
7,24,37660.2472603179,0.0769999999997708
7,25,37682.4593436923,0.0770000000002256
7,26,37778.2798554827,0.0769999999997708
7,27,34437.3587814921,0.0770000000002256
7,28,37399.2095227189,0.0760000000000218
7,29,38068.8716908857,0.0760000000000218
7,30,37749.2165575903,0.0760000000000218
8,9,38203.5805111263,0.0769999999997708
8,10,38234.6812503246,0.0770000000002256
8,11,38148.2224332916,0.0769999999997708
8,12,38104.8698050219,0.0779999999999745
8,13,37925.5820311655,0.0760000000000218
8,14,38147.8400580556,0.0760000000000218
8,15,38658.0860638766,0.0770000000002256
8,16,38081.5566889461,0.0769999999997708
8,17,38069.3784759258,0.0770000000002256
8,18,38491.8956601497,0.0769999999997708
8,19,38071.6722906303,0.0770000000002256
8,20,38214.588472587,0.0769999999997708
8,21,38123.611349814,0.0770000000002256
8,22,38521.065170046,0.0769999999997708
8,23,38190.1429831682,0.0760000000000218
8,24,38182.8653899834,0.0760000000000218
8,25,38205.0774733578,0.0770000000002256
8,26,38300.8979851482,0.0769999999997708
8,27,38283.1866541619,0.0770000000002256
8,28,37921.8276523844,0.0770000000002256
8,29,38591.1440786105,0.0769999999997708
8,30,38271.8346872559,0.0760000000000218
9,10,38140.7199712331,0.0769999999997708
9,11,37898.8261873583,0.0770000000002256
9,12,37741.1883328081,0.0859999999997854
9,13,38026.452302973,0.0760000000000218
9,14,37557.8555869179,0.0770000000002256
9,15,37398.7299132929,0.0760000000000218
9,16,37986.6753279641,0.0760000000000218
9,17,37974.4971149438,0.0769999999997708
9,18,38397.5088881078,0.0760000000000218
9,19,37978.2889601449,0.0760000000000218
9,20,38128.118164823,0.0760000000000218
9,21,38029.0880351292,0.0760000000000218
9,22,38426.49094546,0.0760000000000218
9,23,36126.7890569993,0.0760000000000218
9,24,38089.482059498,0.0760000000000218
9,25,38111.357715823,0.0759999999995671
9,26,38027.2003662622,0.0760000000000218
9,27,38189.8033236765,0.0760000000000218
9,28,37827.833712749,0.0760000000000218
9,29,38496.2627176285,0.0760000000000218
9,30,36906.5560263034,0.0769999999997708
10,11,37936.3360299123,0.0770000000002256
10,12,38023.5559876769,0.0769999999997708
10,13,38050.4414468017,0.0760000000000218
10,14,36040.2117404758,0.0760000000000218
10,15,38528.0087865427,0.0769999999997708
10,16,37868.8742554679,0.0760000000000218
10,17,37856.6960424476,0.0760000000000218
10,18,38279.7078156116,0.0760000000000218
10,19,37859.9099390425,0.0760000000000218
10,20,38015.5650700006,0.0769999999997708
10,21,37911.286962633,0.0760000000000218
10,22,38309.3028184583,0.0770000000002256
10,23,37978.3806315805,0.0769999999997708
10,24,37971.1030383957,0.0760000000000218
10,25,37993.3151217701,0.0770000000002256
10,26,38088.3324480844,0.0760000000000218
10,27,38071.4243025741,0.0769999999997708
10,28,37710.0326402529,0.0760000000000218
10,29,38378.4616451323,0.0770000000002256
10,30,38060.0723356681,0.0759999999995671
11,12,37763.2815418472,0.0770000000002256
11,13,37963.8585779771,0.0760000000000218
11,14,37502.5346926082,0.0760000000000218
11,15,38398.5412910997,0.0760000000000218
11,16,37675.941479342,0.0760000000000218
11,17,37385.9257935061,0.0779999999999745
11,18,38193.2489985785,0.0760000000000218
11,19,37773.3270702179,0.0760000000000218
11,20,37928.982201176,0.0769999999997708
11,21,37824.8281455999,0.0769999999997708
11,22,37841.8984450085,0.0760000000000218
11,23,36692.8391263536,0.0760000000000218
11,24,37673.8084433832,0.0760000000000218
11,25,37892.5632805415,0.0760000000000218
11,26,37996.1657327035,0.0770000000002256
11,27,37984.8414337495,0.0760000000000218
11,28,37616.4882146456,0.0769999999997708
11,29,38292.0028280992,0.0760000000000218
11,30,37096.813483159,0.0770000000002256
12,13,37904.1943551354,0.0760000000000218
12,14,37936.970011346,0.0770000000002256
12,15,38053.5694394233,0.0760000000000218
12,16,37869.511344408,0.0769999999997708
12,17,37686.9015514825,0.0770000000002256
12,18,38280.3449045516,0.0769999999997708
12,19,37861.2500610791,0.0770000000002256
12,20,37765.6197136268,0.0760000000000218
12,21,37911.924051573,0.0769999999997708
12,22,36763.1057489236,0.0760000000000218
12,23,37958.5008104437,0.0760000000000218
12,24,37972.4543316003,0.0769999999997708
12,25,37994.1937322668,0.0770000000002256
12,26,38088.9695370245,0.0760000000000218
12,27,38072.6745107777,0.0760000000000218
12,28,37710.6697291929,0.0770000000002256
12,29,38379.0987340724,0.0769999999997708
12,30,38061.0953579831,0.0760000000000218
13,14,37963.8554704708,0.0770000000002256
13,15,38418.0865093293,0.0760000000000218
13,16,37896.3968035328,0.0769999999997708
13,17,37884.2185905125,0.0760000000000218
13,18,38307.2303636764,0.0770000000002256
13,19,37888.1355202038,0.0769999999997708
13,20,37890.494606372,0.0770000000002256
13,21,37938.8095106978,0.0769999999997708
13,22,38337.7740651887,0.0770000000002256
13,23,38006.1127860774,0.0769999999997708
13,24,37999.8513433867,0.0779999999999745
13,25,38021.0791913916,0.0770000000002256
13,26,38115.8549961493,0.0769999999997708
13,27,38099.5599699024,0.0770000000002256
13,28,37737.5551883177,0.0769999999997708
13,29,38405.9841931972,0.0769999999997708
13,30,38087.9808171079,0.0760000000000218
14,15,38373.2745866404,0.0770000000002256
14,16,37538.1020927577,0.0760000000000218
14,17,37470.0839611049,0.0770000000002256
14,18,38192.8666233425,0.0779999999999745
14,19,37773.3239627116,0.0769999999997708
14,20,37928.9790936697,0.0770000000002256
14,21,37824.4457703639,0.0779999999999745
14,22,38147.3015244252,0.0760000000000218
14,23,37259.8265852007,0.0769999999997708
14,24,37180.5729061348,0.0770000000002256
14,25,37736.8649827463,0.0769999999997708
14,26,37397.5086345839,0.0779999999999745
14,27,37984.8383262432,0.0770000000002256
14,28,37623.1914479838,0.0760000000000218
14,29,38291.6204528632,0.0760000000000218
14,30,34673.0840550884,0.0770000000002256
15,16,38373.9641432738,0.0779999999999745
15,17,38361.7859302535,0.0769999999997708
15,18,38784.7977034174,0.0770000000002256
15,19,38365.7028599449,0.0769999999997708
15,20,38521.1060004187,0.0770000000002256
15,21,38416.3768504388,0.0769999999997708
15,22,38748.0167162477,0.0770000000002256
15,23,37338.9321451181,0.0769999999997708
15,24,38477.6251314233,0.0770000000002256
15,25,38498.6465311326,0.0769999999997708
15,26,38593.4223358902,0.0760000000000218
15,27,38577.1273096435,0.0760000000000218
15,28,38215.1225280587,0.0760000000000218
15,29,38883.5515329382,0.0770000000002256
15,30,37982.0944636667,0.0769999999997708
16,17,37577.6592944749,0.0779999999999745
16,18,38126.088665293,0.0770000000002256
16,19,37705.8652957736,0.0769999999997708
16,20,37861.5204267317,0.0920000000000982
16,21,37757.8043549573,0.0949999999997999
16,22,38119.3951802173,0.0779999999999745
16,23,37824.3359883115,0.0760000000000218
16,24,37398.1240155663,0.0770000000002256
16,25,37489.2991647374,0.0760000000000218
16,26,37935.0909902915,0.0760000000000218
16,27,37917.3796593052,0.0769999999997708
16,28,37556.0206575277,0.0760000000000218
16,29,38226.9427294961,0.0760000000000218
16,30,37773.6723225189,0.0760000000000218
17,18,38113.9104522727,0.0760000000000218
17,19,37693.6870827533,0.0760000000000218
17,20,37849.3422137114,0.0769999999997708
17,21,37745.626141937,0.0760000000000218
17,22,37949.2242420632,0.0769999999997708
17,23,37496.1599158703,0.0760000000000218
17,24,37791.2019569116,0.0770000000002256
17,25,37827.0922654808,0.0769999999997708
17,26,37750.9616279067,0.0760000000000218
17,27,37905.2014462849,0.0760000000000218
17,28,37532.8106361198,0.0779999999999745
17,29,38213.7329278721,0.0760000000000218
17,30,37862.8934788486,0.0760000000000218
18,19,38116.6988559172,0.0760000000000218
18,20,38272.3539868753,0.0760000000000218
18,21,38168.5013724581,0.0769999999997708
18,22,38566.091735333,0.0760000000000218
18,23,38235.1695484551,0.0760000000000218
18,24,38227.8919552703,0.0760000000000218
18,25,38250.1040386448,0.0760000000000218
18,26,38345.5468579095,0.0769999999997708
18,27,38328.2132194488,0.0770000000002256
18,28,37966.8542176714,0.0760000000000218
18,29,38635.6760549574,0.0769999999997708
18,30,38316.8612525428,0.0770000000002256
19,20,37853.0071529185,0.0760000000000218
19,21,37223.3249628615,0.0760000000000218
19,22,38146.9968918604,0.0760000000000218
19,23,37815.5812783182,0.0769999999997708
19,24,37808.7971117978,0.0760000000000218
19,25,36972.5130617467,0.0760000000000218
19,26,37925.3234883901,0.0760000000000218
19,27,37909.0284621433,0.0760000000000218
19,28,36816.9883446392,0.0769999999997708
19,29,38215.4526854379,0.0760000000000218
19,30,37897.4493093487,0.0760000000000218
20,21,37903.9331338967,0.0779999999999745
20,22,38100.5846270174,0.0760000000000218
20,23,37971.2364092763,0.0769999999997708
20,24,37964.2002522717,0.0760000000000218
20,25,37986.2028145905,0.0770000000002256
20,26,38080.9786193482,0.0760000000000218
20,27,38064.5215164501,0.0769999999997708
20,28,37702.6788115166,0.0770000000002256
20,29,38371.1078163961,0.0760000000000218
20,30,38053.1044403068,0.0769999999997708
21,22,38197.6708823544,0.0760000000000218
21,23,37866.7486954765,0.0770000000002256
21,24,37859.4711022917,0.0769999999997708
21,25,37881.6831856662,0.0770000000002256
21,26,37977.2625475738,0.0769999999997708
21,27,37563.928177052,0.0760000000000218
21,28,36794.7986717455,0.0770000000002256
21,29,38267.3917446217,0.0760000000000218
21,30,37948.4403995642,0.0760000000000218
22,23,37812.1285255681,0.0770000000002256
22,24,38096.8193574627,0.0760000000000218
22,25,37963.6585866128,0.0769999999997708
22,26,38374.7163678058,0.0770000000002256
22,27,38358.421341559,0.0759999999995671
22,28,37996.4165599742,0.0770000000002256
22,29,38664.8455648537,0.0770000000002256
22,30,37893.2464862406,0.0769999999997708
23,24,37811.0213561493,0.0770000000002256
23,25,37609.5323962389,0.0769999999997708
23,26,38043.794180928,0.0760000000000218
23,27,38027.0956418498,0.0759999999995671
23,28,37665.4943730964,0.0770000000002256
23,29,38333.9233779759,0.0769999999997708
23,30,36658.1075229182,0.0770000000002256
24,25,37353.9176400787,0.0769999999997708
24,26,38036.5165877432,0.0760000000000218
24,27,38020.2215614964,0.0760000000000218
24,28,37658.2167799116,0.0769999999997708
24,29,38326.6457847911,0.0770000000002256
24,30,37715.6689531025,0.0769999999997708
25,26,38058.7286711176,0.0770000000002256
25,27,38042.062047164,0.0769999999997708
25,28,37680.4288632861,0.0770000000002256
25,29,38348.8578681655,0.0769999999997708
25,30,37740.7480267417,0.0760000000000218
26,27,38136.8378519217,0.0770000000002256
26,28,37661.9583978334,0.0769999999997708
26,29,38444.6783799559,0.0770000000002256
26,30,38125.4858850157,0.0769999999997708
27,28,37758.5380440901,0.0770000000002256
27,29,38426.9670489696,0.0769999999997708
27,30,38108.9636728803,0.0770000000002256
28,29,38065.6080471921,0.0769999999997708
28,30,37747.1860771841,0.0770000000002256
29,30,38415.6150820635,0.0769999999997708


"After.Trace.ID","Before.Trace.ID","Difference","Runtime"
1,1,37796.9442884391,0.0860000000002401
1,2,38375.2738976058,0.0769999999997708
1,3,38108.4203663298,0.0760000000000218
1,4,37921.4731002818,0.0760000000000218
1,5,38168.6776455503,0.0760000000000218
1,6,38121.4054666465,0.0770000000002256
1,7,37771.4832035829,0.0769999999997708
1,8,38294.1013332484,0.0760000000000218
1,9,38199.6851387572,0.0770000000002256
1,10,38081.884066261,0.0760000000000218
1,11,37995.425249228,0.0760000000000218
1,12,38082.5211552011,0.0760000000000218
1,13,38109.4066143259,0.0760000000000218
1,14,37995.042873992,0.0760000000000218
1,15,38586.9739540669,0.0760000000000218
1,16,37928.2943383917,0.0769999999997708
1,17,37916.1161253714,0.0760000000000218
1,18,38339.0984760861,0.0770000000002256
1,19,37918.8751065667,0.0769999999997708
1,20,38074.5302375248,0.0760000000000218
1,21,37970.7070455568,0.0770000000002256
1,22,38368.2679859824,0.0769999999997708
1,23,38037.3457991046,0.0760000000000218
1,24,38030.0682059198,0.0770000000002256
1,25,38052.2802892943,0.0760000000000218
1,26,38147.7525310082,0.0769999999997708
1,27,38130.3894700983,0.0760000000000218
1,28,37769.0304683208,0.0759999999995671
1,29,38437.8817280561,0.0770000000002256
1,30,38119.0375031922,0.0760000000000218
2,1,37946.9527625503,0.0769999999997708
2,2,38526.8477371503,0.0760000000000218
2,3,38258.8560079537,0.0769999999997708
2,4,38071.6344653454,0.0770000000002256
2,5,38319.9902609815,0.0769999999997708
2,6,38273.0479460046,0.0770000000002256
2,7,37921.4916776941,0.0769999999997708
2,8,38444.1098073597,0.0760000000000218
2,9,38350.7264768743,0.0760000000000218
2,10,38232.3474557719,0.0769999999997708
2,11,38145.7645869473,0.0760000000000218
2,12,38233.6987489765,0.0760000000000218
2,13,38261.095760763,0.0769999999997708
2,14,38145.7614794409,0.0770000000002256
2,15,38738.9710185941,0.0769999999997708
2,16,38078.3028125029,0.0760000000000218
2,17,38066.1245994826,0.0769999999997708
2,18,38489.1363726466,0.0769999999997708
2,19,38070.041529174,0.0770000000002256
2,20,38225.4446696479,0.0769999999997708
2,21,38120.715519668,0.0770000000002256
2,22,38519.6800741589,0.0760000000000218
2,23,38188.0187950476,0.0760000000000218
2,24,38181.9638006525,0.0770000000002256
2,25,38202.9852003618,0.0769999999997708
2,26,38297.7610051195,0.0770000000002256
2,27,38281.4659788726,0.0769999999997708
2,28,37919.4611972879,0.0770000000002256
2,29,38587.8902021674,0.0769999999997708
2,30,38269.8868260781,0.0770000000002256
3,1,37948.6848805266,0.0769999999997708
3,2,38528.5798551266,0.0770000000002256
3,3,38260.5881259301,0.0769999999997708
3,4,38073.3665833217,0.0770000000002256
3,5,38321.7223789578,0.0769999999997708
3,6,38274.7800639809,0.0770000000002256
3,7,37923.2237956704,0.0769999999997708
3,8,38445.841925336,0.0760000000000218
3,9,38352.4585948506,0.0760000000000218
3,10,38234.0795737482,0.0779999999999745
3,11,38147.4967049236,0.0770000000002256
3,12,38235.4308669528,0.0769999999997708
3,13,38262.8278787393,0.0770000000002256
3,14,38147.4935974173,0.0779999999999745
3,15,38740.7031365704,0.0769999999997708
3,16,38080.0349304793,0.0770000000002256
3,17,38067.856717459,0.0760000000000218
3,18,38490.8684906229,0.0770000000002256
3,19,38071.7736471504,0.0760000000000218
3,20,38227.1767876242,0.0770000000002256
3,21,38122.4476376443,0.0769999999997708
3,22,38521.4121921352,0.0770000000002256
3,23,38189.7509130239,0.0779999999999745
3,24,38183.6959186288,0.0769999999997708
3,25,38204.7173183381,0.0770000000002256
3,26,38299.4931230958,0.0770000000002256
3,27,38283.198096849,0.0769999999997708
3,28,37921.1933152642,0.0770000000002256
3,29,38589.6223201437,0.0769999999997708
3,30,38271.6189440544,0.0770000000002256
4,1,37655.5102018204,0.0769999999997708
4,2,38235.4051764204,0.0760000000000218
4,3,37967.4134472239,0.0760000000000218
4,4,37780.1919046155,0.0769999999997708
4,5,38028.5477002516,0.0770000000002256
4,6,37981.6053852747,0.0779999999999745
4,7,37630.0491169642,0.0770000000002256
4,8,38152.6672466298,0.0779999999999745
4,9,38059.2839161444,0.0769999999997708
4,10,37940.904895042,0.0770000000002256
4,11,37854.3220262174,0.0769999999997708
4,12,37942.2561882466,0.0770000000002256
4,13,37969.6532000331,0.0769999999997708
4,14,37854.318918711,0.0779999999999745
4,15,38447.5284578642,0.0770000000002256
4,16,37786.8602517731,0.0869999999999891
4,17,37774.6820387527,0.0760000000000218
4,18,38197.6938119167,0.0769999999997708
4,19,37778.5989684441,0.0760000000000218
4,20,37934.002108918,0.0770000000002256
4,21,37829.2729589381,0.0760000000000218
4,22,38228.237513429,0.0759999999995671
4,23,37896.5762343177,0.0760000000000218
4,24,37890.5212399226,0.0760000000000218
4,25,37911.5426396319,0.0769999999997708
4,26,38006.3184443896,0.0760000000000218
4,27,37990.0234181427,0.0770000000002256
4,28,37628.018636558,0.0769999999997708
4,29,38296.4476414374,0.0760000000000218
4,30,37978.4442653482,0.0770000000002256
5,1,37901.9441890665,0.0760000000000218
5,2,38481.8391636664,0.0769999999997708
5,3,38213.8474344699,0.0770000000002256
5,4,38026.6258918615,0.0769999999997708
5,5,38274.9816874977,0.0760000000000218
5,6,38228.0393725207,0.0770000000002256
5,7,37876.4831042103,0.0760000000000218
5,8,38399.1012338758,0.0769999999997708
5,9,38305.7179033904,0.0760000000000218
5,10,38187.3388822881,0.0760000000000218
5,11,38100.7560134634,0.0769999999997708
5,12,38188.6901754926,0.0770000000002256
5,13,38216.0871872791,0.0760000000000218
5,14,38100.7529059571,0.0769999999997708
5,15,38693.9624451102,0.0770000000002256
5,16,38033.2942390191,0.0760000000000218
5,17,38021.1160259988,0.0760000000000218
5,18,38444.1277991628,0.0770000000002256
5,19,38025.0329556902,0.0760000000000218
5,20,38180.436096164,0.0769999999997708
5,21,38075.7069461842,0.0770000000002256
5,22,38474.6715006751,0.0760000000000218
5,23,38143.0102215637,0.0769999999997708
5,24,38136.9552271686,0.0770000000002256
5,25,38157.9766268779,0.0769999999997708
5,26,38252.7524316356,0.0760000000000218
5,27,38236.4574053888,0.0759999999995671
5,28,37874.452623804,0.0770000000002256
5,29,38542.8816286835,0.0769999999997708
5,30,38224.8782525942,0.0770000000002256
6,1,37855.2155053695,0.0760000000000218
6,2,38435.1104799695,0.0769999999997708
6,3,38167.1187507729,0.0770000000002256
6,4,37979.8972081646,0.0769999999997708
6,5,38228.2530038007,0.0770000000002256
6,6,38181.3106888238,0.0760000000000218
6,7,37829.7544205133,0.0769999999997708
6,8,38352.3725501788,0.0770000000002256
6,9,38258.9892196935,0.0769999999997708
6,10,38140.6101985911,0.0770000000002256
6,11,38054.0273297665,0.0769999999997708
6,12,38141.9614917957,0.0760000000000218
6,13,38169.3585035822,0.0769999999997708
6,14,38054.0242222601,0.0770000000002256
6,15,38647.2337614133,0.0769999999997708
6,16,37986.5655553221,0.0760000000000218
6,17,37974.3873423018,0.0760000000000218
6,18,38397.3991154658,0.0760000000000218
6,19,37978.3042719932,0.0760000000000218
6,20,38133.7074124671,0.0760000000000218
6,21,38028.9782624872,0.0770000000002256
6,22,38427.9428169781,0.0769999999997708
6,23,38096.2815378667,0.0770000000002256
6,24,38090.2265434716,0.0779999999999745
6,25,38111.247943181,0.0769999999997708
6,26,38206.0237479386,0.0770000000002256
6,27,38189.7287216918,0.0769999999997708
6,28,37827.7239401071,0.0779999999999745
6,29,38496.1529449865,0.0770000000002256
6,30,38178.1495688973,0.0769999999997708
7,1,38043.0660820328,0.0770000000002256
7,2,38622.9610566328,0.0769999999997708
7,3,38354.9693274362,0.0770000000002256
7,4,38167.7477848279,0.0769999999997708
7,5,38416.103580464,0.0770000000002256
7,6,38369.1612654871,0.0769999999997708
7,7,38017.6049971766,0.0779999999999745
7,8,38540.2231268422,0.0770000000002256
7,9,38446.8397963568,0.0769999999997708
7,10,38328.4607752544,0.0770000000002256
7,11,38241.8779064298,0.0769999999997708
7,12,38329.812068459,0.0770000000002256
7,13,38357.2090802455,0.0769999999997708
7,14,38241.8747989234,0.0770000000002256
7,15,38835.0843380765,0.0760000000000218
7,16,38174.4161319854,0.0760000000000218
7,17,38162.2379189651,0.0770000000002256
7,18,38585.2496921291,0.0769999999997708
7,19,38166.1548486565,0.0770000000002256
7,20,38321.5579891304,0.0779999999999745
7,21,38216.8288391505,0.0769999999997708
7,22,38615.7933936414,0.0770000000002256
7,23,38284.1321145301,0.0769999999997708
7,24,38278.077120135,0.0770000000002256
7,25,38299.0985198443,0.0770000000002256
7,26,38393.8743246019,0.0769999999997708
7,27,38377.5792983551,0.0770000000002256
7,28,38015.5745167703,0.0769999999997708
7,29,38684.0035216499,0.0770000000002256
7,30,38366.0001455606,0.0769999999997708
8,1,38263.7724749731,0.0759999999995671
8,2,38843.6674495731,0.0770000000002256
8,3,38575.6757203766,0.0769999999997708
8,4,38388.4541777682,0.0760000000000218
8,5,38636.8099734043,0.0770000000002256
8,6,38589.8676584274,0.0760000000000218
8,7,38238.3113901169,0.0769999999997708
8,8,38760.9295197825,0.0760000000000218
8,9,38667.5461892971,0.0760000000000218
8,10,38549.1671681947,0.0760000000000218
8,11,38462.5842993701,0.0760000000000218
8,12,38550.5184613993,0.0760000000000218
8,13,38577.9154731858,0.0760000000000218
8,14,38462.5811918637,0.0770000000002256
8,15,39055.7907310169,0.0769999999997708
8,16,38395.1225249258,0.0760000000000218
8,17,38382.9443119055,0.0770000000002256
8,18,38805.9560850694,0.0760000000000218
8,19,38386.8612415969,0.0760000000000218
8,20,38542.2643820707,0.0760000000000218
8,21,38437.5352320908,0.0760000000000218
8,22,38836.4997865817,0.0769999999997708
8,23,38504.8385074704,0.0760000000000218
8,24,38498.7835130753,0.0760000000000218
8,25,38519.8049127846,0.0769999999997708
8,26,38614.5807175422,0.0760000000000218
8,27,38598.2856912955,0.0769999999997708
8,28,38236.2809097107,0.0760000000000218
8,29,38904.7099145902,0.0760000000000218
8,30,38586.7065385009,0.0760000000000218
9,1,37936.5707418741,0.0770000000002256
9,2,38516.4657164741,0.0769999999997708
9,3,38248.4739872776,0.0760000000000218
9,4,38061.2524446692,0.0760000000000218
9,5,38309.6082403053,0.0769999999997708
9,6,38262.6659253284,0.0770000000002256
9,7,37911.1096570179,0.0760000000000218
9,8,38433.7277866835,0.0769999999997708
9,9,38340.3444561981,0.0770000000002256
9,10,38221.9654350957,0.0769999999997708
9,11,38135.3825662711,0.0760000000000218
9,12,38223.3167283003,0.0779999999999745
9,13,38250.7137400868,0.0760000000000218
9,14,38135.3794587647,0.0770000000002256
9,15,38728.5889979179,0.0760000000000218
9,16,38067.9207918268,0.0770000000002256
9,17,38055.7425788065,0.0760000000000218
9,18,38478.7543519704,0.0770000000002256
9,19,38059.6595084979,0.0769999999997708
9,20,38215.0626489717,0.0760000000000218
9,21,38110.3334989918,0.0770000000002256
9,22,38509.2980534827,0.0769999999997708
9,23,38177.6367743714,0.0760000000000218
9,24,38171.5817799763,0.0760000000000218
9,25,38192.6031796856,0.0779999999999745
9,26,38287.3789844433,0.0760000000000218
9,27,38271.0839581965,0.0760000000000218
9,28,37909.0791766117,0.0770000000002256
9,29,38577.5081814912,0.0769999999997708
9,30,38259.5048054019,0.0770000000002256
10,1,37917.0588834779,0.0769999999997708
10,2,38496.9538580779,0.0770000000002256
10,3,38228.9621288814,0.0769999999997708
10,4,38041.740586273,0.0770000000002256
10,5,38290.0963819091,0.0769999999997708
10,6,38243.1540669322,0.0760000000000218
10,7,37891.5977986217,0.0760000000000218
10,8,38414.2159282873,0.0779999999999745
10,9,38320.8325978019,0.0770000000002256
10,10,38202.4535766995,0.0769999999997708
10,11,38115.8707078749,0.0770000000002256
10,12,38203.8048699041,0.0770000000002256
10,13,38231.2018816906,0.0769999999997708
10,14,38115.8676003686,0.0770000000002256
10,15,38709.0771395217,0.0769999999997708
10,16,38048.4089334306,0.0770000000002256
10,17,38036.2307204103,0.0769999999997708
10,18,38459.2424935742,0.0770000000002256
10,19,38040.1476501017,0.0769999999997708
10,20,38195.5507905755,0.0770000000002256
10,21,38090.8216405956,0.0779999999999745
10,22,38489.7861950865,0.0769999999997708
10,23,38158.1249159752,0.0770000000002256
10,24,38152.0699215801,0.0769999999997708
10,25,38173.0913212894,0.0760000000000218
10,26,38267.8671260471,0.0779999999999745
10,27,38251.5720998003,0.0769999999997708
10,28,37889.5673182155,0.0779999999999745
10,29,38557.996323095,0.0770000000002256
10,30,38239.9929470057,0.0769999999997708
11,1,38083.9074110649,0.0770000000002256
11,2,38663.8023856649,0.0769999999997708
11,3,38395.8106564684,0.0770000000002256
11,4,38208.58911386,0.0770000000002256
11,5,38456.9449094961,0.0779999999999745
11,6,38410.0025945192,0.0769999999997708
11,7,38058.4463262087,0.0770000000002256
11,8,38581.0644558742,0.0770000000002256
11,9,38487.6811253889,0.0769999999997708
11,10,38369.3021042865,0.0770000000002256
11,11,38282.7192354619,0.0769999999997708
11,12,38370.6533974911,0.0769999999997708
11,13,38398.0504092776,0.0770000000002256
11,14,38282.7161279555,0.0869999999999891
11,15,38875.9256671086,0.0760000000000218
11,16,38215.2574610175,0.0769999999997708
11,17,38203.0792479972,0.0760000000000218
11,18,38626.0910211612,0.0769999999997708
11,19,38206.9961776886,0.0770000000002256
11,20,38362.3993181625,0.0760000000000218
11,21,38257.6701681826,0.0769999999997708
11,22,38656.6347226735,0.0760000000000218
11,23,38324.9734435622,0.0770000000002256
11,24,38318.9184491671,0.0760000000000218
11,25,38339.9398488764,0.0760000000000218
11,26,38434.715653634,0.0760000000000218
11,27,38418.4206273872,0.0770000000002256
11,28,38056.4158458025,0.0769999999997708
11,29,38724.844850682,0.0770000000002256
11,30,38406.8414745927,0.0769999999997708
12,1,37847.7336504125,0.0770000000002256
12,2,38427.6286250125,0.0769999999997708
12,3,38159.6368958159,0.0770000000002256
12,4,37972.4153532075,0.0760000000000218
12,5,38220.7711488437,0.0760000000000218
12,6,38173.8288338668,0.0770000000002256
12,7,37822.2725655563,0.0769999999997708
12,8,38344.8906952218,0.0760000000000218
12,9,38251.5073647365,0.0760000000000218
12,10,38133.1283436341,0.0769999999997708
12,11,38046.5454748094,0.0760000000000218
12,12,38134.4796368387,0.0770000000002256
12,13,38161.8766486251,0.0769999999997708
12,14,38046.5423673031,0.0770000000002256
12,15,38639.7519064563,0.0769999999997708
12,16,37979.0837003651,0.0770000000002256
12,17,37966.9054873448,0.0769999999997708
12,18,38389.9172605088,0.0770000000002256
12,19,37970.8224170362,0.0769999999997708
12,20,38126.2255575101,0.0760000000000218
12,21,38021.4964075302,0.0770000000002256
12,22,38420.4609620211,0.0769999999997708
12,23,38088.7996829097,0.0770000000002256
12,24,38082.7446885146,0.0760000000000218
12,25,38103.766088224,0.0770000000002256
12,26,38198.5418929816,0.0769999999997708
12,27,38182.2468667348,0.0760000000000218
12,28,37820.24208515,0.0769999999997708
12,29,38488.6710900295,0.0770000000002256
12,30,38170.6677139403,0.0769999999997708
13,1,37679.2150166789,0.0760000000000218
13,2,38259.1099912789,0.0760000000000218
13,3,37991.1182620823,0.0769999999997708
13,4,37803.8967194739,0.0770000000002256
13,5,38052.2525151101,0.0769999999997708
13,6,38005.3102001332,0.0770000000002256
13,7,37653.7539318227,0.0769999999997708
13,8,38176.3720614882,0.0770000000002256
13,9,38082.9887310028,0.0769999999997708
13,10,37964.6097099005,0.0770000000002256
13,11,37878.0268410759,0.0769999999997708
13,12,37965.9610031051,0.0770000000002256
13,13,37993.3580148915,0.0760000000000218
13,14,37878.0237335695,0.0760000000000218
13,15,38471.2332727226,0.0770000000002256
13,16,37810.5650666315,0.0769999999997708
13,17,37798.3868536112,0.0770000000002256
13,18,38221.3986267752,0.0769999999997708
13,19,37802.3037833026,0.0770000000002256
13,20,37957.7069237765,0.0760000000000218
13,21,37852.9777737966,0.0769999999997708
13,22,38251.9423282875,0.0770000000002256
13,23,37920.2810491761,0.0770000000002256
13,24,37914.226054781,0.0769999999997708
13,25,37935.2474544904,0.0770000000002256
13,26,38030.023259248,0.0769999999997708
13,27,38013.7282330012,0.0770000000002256
13,28,37651.7234514165,0.0769999999997708
13,29,38320.1524562959,0.0770000000002256
13,30,38002.1490802067,0.0769999999997708
14,1,38063.7904413444,0.0770000000002256
14,2,38643.6854159444,0.0769999999997708
14,3,38375.6936867479,0.0770000000002256
14,4,38188.4721441395,0.0779999999999745
14,5,38436.8279397756,0.0769999999997708
14,6,38389.8856247987,0.0779999999999745
14,7,38038.3293564882,0.0770000000002256
14,8,38560.9474861537,0.0769999999997708
14,9,38467.5641556684,0.0770000000002256
14,10,38349.185134566,0.0769999999997708
14,11,38262.6022657414,0.0769999999997708
14,12,38350.5364277706,0.0770000000002256
14,13,38377.9334395571,0.0769999999997708
14,14,38262.599158235,0.0770000000002256
14,15,38855.8086973881,0.0769999999997708
14,16,38195.1404912971,0.0770000000002256
14,17,38182.9622782767,0.0779999999999745
14,18,38605.9740514407,0.0779999999999745
14,19,38186.8792079681,0.0769999999997708
14,20,38342.282348442,0.0770000000002256
14,21,38237.5531984621,0.0779999999999745
14,22,38636.517752953,0.0769999999997708
14,23,38304.8564738417,0.0770000000002256
14,24,38298.8014794466,0.0769999999997708
14,25,38319.8228791559,0.0769999999997708
14,26,38414.5986839135,0.0770000000002256
14,27,38398.3036576667,0.0869999999999891
14,28,38036.2988760819,0.0760000000000218
14,29,38704.7278809615,0.0769999999997708
14,30,38386.7245048722,0.0770000000002256
15,1,37910.2865633949,0.0770000000002256
15,2,38490.1815379949,0.0760000000000218
15,3,38222.1898087984,0.0769999999997708
15,4,38034.96826619,0.0760000000000218
15,5,38283.3240618261,0.0760000000000218
15,6,38236.3817468492,0.0760000000000218
15,7,37884.8254785387,0.0760000000000218
15,8,38407.4436082043,0.0770000000002256
15,9,38314.0602777189,0.0760000000000218
15,10,38195.6812566165,0.0769999999997708
15,11,38109.0983877919,0.0760000000000218
15,12,38197.0325498211,0.0770000000002256
15,13,38224.4295616076,0.0769999999997708
15,14,38109.0952802856,0.0770000000002256
15,15,38702.3048194387,0.0760000000000218
15,16,38041.6366133476,0.0769999999997708
15,17,38029.4584003273,0.0760000000000218
15,18,38452.4701734912,0.0770000000002256
15,19,38033.3753300187,0.0760000000000218
15,20,38188.7784704925,0.0769999999997708
15,21,38084.0493205126,0.0760000000000218
15,22,38483.0138750036,0.0760000000000218
15,23,38151.3525958922,0.0769999999997708
15,24,38145.2976014971,0.0770000000002256
15,25,38166.3190012064,0.0759999999995671
15,26,38261.0948059641,0.0780000000004293
15,27,38244.7997797173,0.0769999999997708
15,28,37882.7949981325,0.0770000000002256
15,29,38551.224003012,0.0769999999997708
15,30,38233.2206269227,0.0770000000002256
16,1,37857.1866275999,0.0760000000000218
16,2,38437.0816021998,0.0769999999997708
16,3,38169.0898730033,0.0770000000002256
16,4,37981.8683303949,0.0759999999995671
16,5,38230.2241260311,0.0760000000000218
16,6,38183.2818110541,0.0769999999997708
16,7,37831.7255427437,0.0770000000002256
16,8,38354.3436724092,0.0760000000000218
16,9,38260.9603419238,0.0769999999997708
16,10,38142.5813208215,0.0760000000000218
16,11,38055.9984519968,0.0769999999997708
16,12,38143.932614026,0.0770000000002256
16,13,38171.3296258125,0.0769999999997708
16,14,38055.9953444905,0.0770000000002256
16,15,38649.2048836436,0.0760000000000218
16,16,37988.5366775525,0.0760000000000218
16,17,37976.3584645322,0.0770000000002256
16,18,38399.3702376961,0.0769999999997708
16,19,37980.2753942236,0.0760000000000218
16,20,38135.6785346974,0.0760000000000218
16,21,38030.9493847176,0.0769999999997708
16,22,38429.9139392085,0.0770000000002256
16,23,38098.2526600971,0.0760000000000218
16,24,38092.197665702,0.0760000000000218
16,25,38113.2190654114,0.0769999999997708
16,26,38207.994870169,0.0770000000002256
16,27,38191.6998439222,0.0769999999997708
16,28,37829.6950623374,0.0770000000002256
16,29,38498.1240672169,0.0769999999997708
16,30,38180.1206911276,0.0770000000002256
17,1,37960.8544784199,0.0769999999997708
17,2,38540.7494530199,0.0760000000000218
17,3,38272.7577238234,0.0760000000000218
17,4,38085.536181215,0.0760000000000218
17,5,38333.8919768511,0.0779999999999745
17,6,38286.9496618742,0.0780000000004293
17,7,37935.3933935637,0.0759999999995671
17,8,38458.0115232293,0.0760000000000218
17,9,38364.6281927439,0.0779999999999745
17,10,38246.2491716416,0.0770000000002256
17,11,38159.6663028169,0.0759999999995671
17,12,38247.6004648461,0.0760000000000218
17,13,38274.9974766326,0.0769999999997708
17,14,38159.6631953106,0.0770000000002256
17,15,38752.8727344637,0.0769999999997708
17,16,38092.2045283726,0.0770000000002256
17,17,38080.0263153523,0.0769999999997708
17,18,38503.0380885162,0.0779999999999745
17,19,38083.9432450437,0.0770000000002256
17,20,38239.3463855175,0.0779999999999745
17,21,38134.6172355377,0.0769999999997708
17,22,38533.5817900286,0.0770000000002256
17,23,38201.9205109172,0.0770000000002256
17,24,38195.8655165221,0.0769999999997708
17,25,38216.8869162315,0.0779999999999745
17,26,38311.6627209891,0.0770000000002256
17,27,38295.3676947423,0.0760000000000218
17,28,37933.3629131575,0.0760000000000218
17,29,38601.791918037,0.0770000000002256
17,30,38283.7885419477,0.0769999999997708
18,1,37871.1768795136,0.0779999999999745
18,2,38451.0718541136,0.0770000000002256
18,3,38183.080124917,0.0769999999997708
18,4,37995.8585823086,0.0770000000002256
18,5,38244.2143779448,0.0770000000002256
18,6,38197.2720629678,0.0769999999997708
18,7,37845.7157946573,0.0770000000002256
18,8,38368.3339243229,0.0770000000002256
18,9,38274.9505938375,0.0770000000002256
18,10,38156.5715727352,0.0770000000002256
18,11,38069.9887039105,0.0760000000000218
18,12,38157.9228659397,0.0769999999997708
18,13,38185.3198777262,0.0760000000000218
18,14,38069.9855964042,0.0769999999997708
18,15,38663.1951355573,0.0770000000002256
18,16,38002.5269294662,0.0770000000002256
18,17,37990.3487164459,0.0759999999995671
18,18,38413.3604896099,0.0760000000000218
18,19,37994.2656461373,0.0760000000000218
18,20,38149.6687866111,0.0769999999997708
18,21,38044.9396366313,0.0770000000002256
18,22,38443.9041911222,0.0760000000000218
18,23,38112.2429120108,0.0769999999997708
18,24,38106.1879176157,0.0760000000000218
18,25,38127.2093173251,0.0770000000002256
18,26,38221.9851220827,0.0760000000000218
18,27,38205.6900958359,0.0779999999999745
18,28,37843.6853142511,0.0760000000000218
18,29,38512.1143191306,0.0760000000000218
18,30,38194.1109430413,0.0760000000000218
19,1,37996.524241487,0.0760000000000218
19,2,38576.419216087,0.0769999999997708
19,3,38308.4274868904,0.0760000000000218
19,4,38121.205944282,0.0770000000002256
19,5,38369.5617399182,0.0769999999997708
19,6,38322.6194249413,0.0760000000000218
19,7,37971.0631566308,0.0760000000000218
19,8,38493.6812862963,0.0769999999997708
19,9,38400.2979558109,0.0760000000000218
19,10,38281.9189347086,0.0779999999999745
19,11,38195.336065884,0.0770000000002256
19,12,38283.2702279132,0.0769999999997708
19,13,38310.6672396997,0.0770000000002256
19,14,38195.3329583776,0.0760000000000218
19,15,38788.5424975308,0.0770000000002256
19,16,38127.8742914396,0.0760000000000218
19,17,38115.6960784193,0.0769999999997708
19,18,38538.7078515833,0.0770000000002256
19,19,38119.6130081107,0.0760000000000218
19,20,38275.0161485845,0.0770000000002256
19,21,38170.2869986047,0.0769999999997708
19,22,38569.2515530956,0.0760000000000218
19,23,38237.5902739843,0.0779999999999745
19,24,38231.5352795891,0.0770000000002256
19,25,38252.5566792985,0.0769999999997708
19,26,38347.3324840561,0.0770000000002256
19,27,38331.0374578093,0.0769999999997708
19,28,37969.0326762245,0.0770000000002256
19,29,38637.4616811041,0.0769999999997708
19,30,38319.4583050148,0.0760000000000218
20,1,37879.1758078939,0.0770000000002256
20,2,38459.0707824939,0.0760000000000218
20,3,38191.0790532973,0.0760000000000218
20,4,38003.857510689,0.0769999999997708
20,5,38252.2133063251,0.0770000000002256
20,6,38205.2709913482,0.0779999999999745
20,7,37853.7147230377,0.0760000000000218
20,8,38376.3328527033,0.0769999999997708
20,9,38282.9495222179,0.0770000000002256
20,10,38164.5705011155,0.0769999999997708
20,11,38077.9876322909,0.0770000000002256
20,12,38165.9217943201,0.0769999999997708
20,13,38193.3188061066,0.0770000000002256
20,14,38077.9845247845,0.0769999999997708
20,15,38671.1940639377,0.0770000000002256
20,16,38010.5258578465,0.0769999999997708
20,17,37998.3476448262,0.0770000000002256
20,18,38421.3594179902,0.0769999999997708
20,19,38002.2645745176,0.0770000000002256
20,20,38157.6677149915,0.0770000000002256
20,21,38052.9385650116,0.0769999999997708
20,22,38451.9031195025,0.0770000000002256
20,23,38120.2418403911,0.0779999999999745
20,24,38114.1868459961,0.0769999999997708
20,25,38135.2082457054,0.0770000000002256
20,26,38229.984050463,0.0769999999997708
20,27,38213.6890242162,0.0770000000002256
20,28,37851.6842426315,0.0769999999997708
20,29,38520.113247511,0.0779999999999745
20,30,38202.1098714217,0.0770000000002256
21,1,37788.8456664489,0.0769999999997708
21,2,38368.7406410489,0.0770000000002256
21,3,38100.7489118523,0.0769999999997708
21,4,37913.5273692439,0.0770000000002256
21,5,38161.8831648801,0.0769999999997708
21,6,38114.9408499031,0.0770000000002256
21,7,37763.3845815927,0.0769999999997708
21,8,38286.0027112582,0.0760000000000218
21,9,38192.6193807728,0.0769999999997708
21,10,38074.2403596705,0.0770000000002256
21,11,37987.6574908458,0.0769999999997708
21,12,38075.5916528751,0.0770000000002256
21,13,38102.9886646615,0.0769999999997708
21,14,37987.6543833395,0.0770000000002256
21,15,38580.8639224926,0.0779999999999745
21,16,37920.1957164015,0.0769999999997708
21,17,37908.0175033812,0.0770000000002256
21,18,38331.0292765451,0.0769999999997708
21,19,37911.9344330726,0.0770000000002256
21,20,38067.3375735464,0.0769999999997708
21,21,37962.6084235666,0.0859999999997854
21,22,38361.5729780575,0.0760000000000218
21,23,38029.9116989461,0.0769999999997708
21,24,38023.856704551,0.0760000000000218
21,25,38044.8781042604,0.0770000000002256
21,26,38139.653909018,0.0760000000000218
21,27,38123.3588827712,0.0769999999997708
21,28,37761.3541011864,0.0770000000002256
21,29,38429.7831060659,0.0760000000000218
21,30,38111.7797299766,0.0760000000000218
22,1,37873.5546159471,0.0770000000002256
22,2,38453.4495905471,0.0759999999995671
22,3,38185.4578613505,0.0770000000002256
22,4,37998.2363187422,0.0760000000000218
22,5,38246.5921143783,0.0769999999997708
22,6,38199.6497994014,0.0760000000000218
22,7,37848.0935310909,0.0770000000002256
22,8,38370.7116607565,0.0760000000000218
22,9,38277.3283302711,0.0760000000000218
22,10,38158.9493091687,0.0770000000002256
22,11,38072.3664403441,0.0769999999997708
22,12,38160.3006023733,0.0760000000000218
22,13,38187.6976141598,0.0760000000000218
22,14,38072.3633328378,0.0769999999997708
22,15,38665.5728719909,0.0770000000002256
22,16,38004.9046658997,0.0760000000000218
22,17,37992.7264528794,0.0769999999997708
22,18,38415.7382260434,0.0760000000000218
22,19,37996.6433825708,0.0760000000000218
22,20,38152.0465230447,0.0769999999997708
22,21,38047.3173730648,0.0760000000000218
22,22,38446.2819275557,0.0760000000000218
22,23,38114.6206484444,0.0769999999997708
22,24,38108.5656540493,0.0770000000002256
22,25,38129.5870537586,0.0769999999997708
22,26,38224.3628585162,0.0760000000000218
22,27,38208.0678322694,0.0760000000000218
22,28,37846.0630506847,0.0769999999997708
22,29,38514.4920555642,0.0760000000000218
22,30,38196.4886794749,0.0760000000000218
23,1,37875.8911485017,0.0769999999997708
23,2,38455.7861231017,0.0770000000002256
23,3,38187.7943939052,0.0769999999997708
23,4,38000.5728512968,0.0760000000000218
23,5,38248.9286469329,0.0760000000000218
23,6,38201.986331956,0.0769999999997708
23,7,37850.4300636455,0.0770000000002256
23,8,38373.0481933111,0.0770000000002256
23,9,38279.6648628257,0.0769999999997708
23,10,38161.2858417233,0.0770000000002256
23,11,38074.7029728987,0.0769999999997708
23,12,38162.6371349279,0.0760000000000218
23,13,38190.0341467144,0.0760000000000218
23,14,38074.6998653924,0.0769999999997708
23,15,38667.9094045455,0.0770000000002256
23,16,38007.2411984544,0.0769999999997708
23,17,37995.0629854341,0.0770000000002256
23,18,38418.074758598,0.0760000000000218
23,19,37998.9799151254,0.0760000000000218
23,20,38154.3830555993,0.0779999999999745
23,21,38049.6539056194,0.0779999999999745
23,22,38448.6184601103,0.0760000000000218
23,23,38116.957180999,0.0760000000000218
23,24,38110.9021866039,0.0760000000000218
23,25,38131.9235863132,0.0770000000002256
23,26,38226.6993910709,0.0769999999997708
23,27,38210.404364824,0.0770000000002256
23,28,37848.3995832393,0.0769999999997708
23,29,38516.8285881188,0.0770000000002256
23,30,38198.8252120295,0.0769999999997708
24,1,37882.3267162986,0.0770000000002256
24,2,38462.2216908986,0.0769999999997708
24,3,38194.2299617021,0.0779999999999745
24,4,38007.0084190937,0.0770000000002256
24,5,38255.3642147298,0.0769999999997708
24,6,38208.4218997529,0.0770000000002256
24,7,37856.8656314424,0.0769999999997708
24,8,38379.483761108,0.0770000000002256
24,9,38286.1004306226,0.0769999999997708
24,10,38167.7214095202,0.0770000000002256
24,11,38081.1385406956,0.0769999999997708
24,12,38169.0727027248,0.0770000000002256
24,13,38196.4697145113,0.0769999999997708
24,14,38081.1354331893,0.0769999999997708
24,15,38674.3449723424,0.0770000000002256
24,16,38013.6767662513,0.0769999999997708
24,17,38001.498553231,0.0770000000002256
24,18,38424.5103263949,0.0769999999997708
24,19,38005.4154829223,0.0769999999997708
24,20,38160.8186233962,0.0770000000002256
24,21,38056.0894734163,0.0760000000000218
24,22,38455.0540279072,0.0779999999999745
24,23,38123.3927487959,0.0770000000002256
24,24,38117.3377544008,0.0769999999997708
24,25,38138.3591541101,0.0770000000002256
24,26,38233.1349588678,0.0770000000002256
24,27,38216.8399326209,0.0769999999997708
24,28,37854.8351510362,0.0770000000002256
24,29,38523.2641559157,0.0779999999999745
24,30,38205.2607798264,0.0769999999997708
25,1,37890.5471920096,0.0769999999997708
25,2,38470.4421666096,0.0770000000002256
25,3,38202.450437413,0.0770000000002256
25,4,38015.2288948047,0.0760000000000218
25,5,38263.5846904408,0.0760000000000218
25,6,38216.6423754639,0.0760000000000218
25,7,37865.0861071534,0.0760000000000218
25,8,38387.704236819,0.0769999999997708
25,9,38294.3209063336,0.0760000000000218
25,10,38175.9418852312,0.0770000000002256
25,11,38089.3590164066,0.0759999999995671
25,12,38177.2931784358,0.0780000000004293
25,13,38204.6901902223,0.0759999999995671
25,14,38089.3559089002,0.0760000000000218
25,15,38682.5654480534,0.0760000000000218
25,16,38021.8972419623,0.0769999999997708
25,17,38009.7190289419,0.0760000000000218
25,18,38432.7308021059,0.0760000000000218
25,19,38013.6359586333,0.0769999999997708
25,20,38169.0390991072,0.0760000000000218
25,21,38064.3099491273,0.0760000000000218
25,22,38463.2745036182,0.0760000000000218
25,23,38131.6132245069,0.0769999999997708
25,24,38125.5582301118,0.0760000000000218
25,25,38146.5796298211,0.0770000000002256
25,26,38241.3554345787,0.0769999999997708
25,27,38225.0604083319,0.0760000000000218
25,28,37863.0556267472,0.0770000000002256
25,29,38531.4846316267,0.0769999999997708
25,30,38213.4812555374,0.0760000000000218
26,1,37873.956799998,0.0760000000000218
26,2,38453.851774598,0.0769999999997708
26,3,38185.8600454015,0.0770000000002256
26,4,37998.6385027931,0.0760000000000218
26,5,38246.9942984293,0.0760000000000218
26,6,38200.0519834523,0.0770000000002256
26,7,37848.4957151419,0.0760000000000218
26,8,38371.1138448074,0.0779999999999745
26,9,38277.730514322,0.0760000000000218
26,10,38159.3514932197,0.0760000000000218
26,11,38072.768624395,0.0770000000002256
26,12,38160.7027864242,0.0760000000000218
26,13,38188.0997982107,0.0760000000000218
26,14,38072.7655168887,0.0770000000002256
26,15,38665.9750560418,0.0769999999997708
26,16,38005.3068499507,0.0770000000002256
26,17,37993.1286369304,0.0760000000000218
26,18,38416.1404100943,0.0770000000002256
26,19,37997.0455666218,0.0760000000000218
26,20,38152.4487070956,0.0769999999997708
26,21,38047.7195571158,0.0779999999999745
26,22,38446.6841116067,0.0770000000002256
26,23,38115.0228324953,0.0769999999997708
26,24,38108.9678381002,0.0770000000002256
26,25,38129.9892378096,0.0769999999997708
26,26,38224.7650425672,0.0770000000002256
26,27,38208.4700163204,0.0760000000000218
26,28,37846.4652347356,0.0770000000002256
26,29,38514.8942396151,0.0769999999997708
26,30,38196.8908635258,0.0760000000000218
27,1,37852.6430104717,0.0760000000000218
27,2,38432.5379850717,0.0769999999997708
27,3,38164.5462558751,0.0770000000002256
27,4,37977.3247132668,0.0769999999997708
27,5,38225.6805089029,0.0760000000000218
27,6,38178.738193926,0.0769999999997708
27,7,37827.1819256155,0.0770000000002256
27,8,38349.8000552811,0.0769999999997708
27,9,38256.4167247957,0.0770000000002256
27,10,38138.0377036933,0.0769999999997708
27,11,38051.4548348687,0.0770000000002256
27,12,38139.3889968979,0.0769999999997708
27,13,38166.7860086844,0.0770000000002256
27,14,38051.4517273623,0.0769999999997708
27,15,38644.6612665155,0.0770000000002256
27,16,37983.9930604243,0.0769999999997708
27,17,37971.814847404,0.0779999999999745
27,18,38394.826620568,0.0779999999999745
27,19,37975.7317770954,0.0779999999999745
27,20,38131.1349175693,0.0770000000002256
27,21,38026.4057675894,0.0769999999997708
27,22,38425.3703220803,0.0770000000002256
27,23,38093.709042969,0.0770000000002256
27,24,38087.6540485739,0.0769999999997708
27,25,38108.6754482832,0.0769999999997708
27,26,38203.4512530408,0.0770000000002256
27,27,38187.156226794,0.0769999999997708
27,28,37825.1514452093,0.0770000000002256
27,29,38493.5804500888,0.0769999999997708
27,30,38175.5770739995,0.0780000000004293
28,1,37882.8508535255,0.0769999999997708
28,2,38462.7458281255,0.0770000000002256
28,3,38194.7540989289,0.0770000000002256
28,4,38007.5325563206,0.0779999999999745
28,5,38255.8883519567,0.0769999999997708
28,6,38208.9460369798,0.0779999999999745
28,7,37857.3897686693,0.0770000000002256
28,8,38380.0078983349,0.0769999999997708
28,9,38286.6245678495,0.0779999999999745
28,10,38168.2455467471,0.0770000000002256
28,11,38081.6626779225,0.0769999999997708
28,12,38169.5968399517,0.0770000000002256
28,13,38196.9938517382,0.0869999999999891
28,14,38081.6595704162,0.0760000000000218
28,15,38674.8691095693,0.0760000000000218
28,16,38014.2009034781,0.0770000000002256
28,17,38002.0226904578,0.0760000000000218
28,18,38425.0344636218,0.0769999999997708
28,19,38005.9396201492,0.0760000000000218
28,20,38161.3427606231,0.0760000000000218
28,21,38056.6136106432,0.0760000000000218
28,22,38455.5781651341,0.0760000000000218
28,23,38123.9168860228,0.0770000000002256
28,24,38117.8618916277,0.0769999999997708
28,25,38138.883291337,0.0770000000002256
28,26,38233.6590960946,0.0769999999997708
28,27,38217.3640698478,0.0760000000000218
28,28,37855.3592882631,0.0770000000002256
28,29,38523.7882931426,0.0760000000000218
28,30,38205.7849170533,0.0769999999997708
29,1,37916.8720223017,0.0760000000000218
29,2,38496.7669969017,0.0770000000002256
29,3,38228.7752677051,0.0760000000000218
29,4,38041.5537250967,0.0769999999997708
29,5,38289.9095207329,0.0760000000000218
29,6,38242.967205756,0.0770000000002256
29,7,37891.4109374455,0.0769999999997708
29,8,38414.029067111,0.0770000000002256
29,9,38320.6457366257,0.0769999999997708
29,10,38202.2667155233,0.0770000000002256
29,11,38115.6838466987,0.0769999999997708
29,12,38203.6180087279,0.0770000000002256
29,13,38231.0150205143,0.0769999999997708
29,14,38115.6807391923,0.0770000000002256
29,15,38708.8902783454,0.0769999999997708
29,16,38048.2220722543,0.0770000000002256
29,17,38036.043859234,0.0769999999997708
29,18,38459.055632398,0.0770000000002256
29,19,38039.9607889254,0.0760000000000218
29,20,38195.3639293992,0.0769999999997708
29,21,38090.6347794194,0.0770000000002256
29,22,38489.5993339103,0.0770000000002256
29,23,38157.9380547989,0.0769999999997708
29,24,38151.8830604038,0.0770000000002256
29,25,38172.9044601132,0.0770000000002256
29,26,38267.6802648708,0.0760000000000218
29,27,38251.385238624,0.0760000000000218
29,28,37889.3804570392,0.0760000000000218
29,29,38557.8094619187,0.0769999999997708
29,30,38239.8060858295,0.0770000000002256
30,1,37762.9723998872,0.0760000000000218
30,2,38342.8673744872,0.0760000000000218
30,3,38074.8756452906,0.0770000000002256
30,4,37887.6541026823,0.0770000000002256
30,5,38136.0098983184,0.0769999999997708
30,6,38089.0675833415,0.0770000000002256
30,7,37737.511315031,0.0760000000000218
30,8,38260.1294446966,0.0769999999997708
30,9,38166.7461142112,0.0770000000002256
30,10,38048.3670931088,0.0769999999997708
30,11,37961.7842242842,0.0770000000002256
30,12,38049.7183863134,0.0769999999997708
30,13,38077.1153980999,0.0770000000002256
30,14,37961.7811167778,0.0760000000000218
30,15,38554.990655931,0.0760000000000218
30,16,37894.3224498399,0.0770000000002256
30,17,37882.1442368195,0.0769999999997708
30,18,38305.1560099835,0.0769999999997708
30,19,37886.0611665109,0.0770000000002256
30,20,38041.4643069848,0.0769999999997708
30,21,37936.7351570049,0.0770000000002256
30,22,38335.6997114958,0.0760000000000218
30,23,38004.0384323845,0.0760000000000218
30,24,37997.9834379893,0.0760000000000218
30,25,38019.0048376987,0.0769999999997708
30,26,38113.7806424564,0.0770000000002256
30,27,38097.4856162095,0.0769999999997708
30,28,37735.4808346248,0.0779999999999745
30,29,38403.9098395042,0.0770000000002256
30,30,38085.906463415,0.0769999999997708
