"Before.Trace.ID1","Before.Trace.ID2","Difference","Runtime"
1,2,6761.62341904436,0.401999999994587
1,3,10427.0634941949,0.332000000002154
1,4,10231.9719861197,0.322000000000116
1,5,18093.4878005308,0.313999999998487
1,6,12945.8966291795,0.292000000001281
1,7,18532.5765354852,0.311999999998079
1,8,17268.5859359228,0.328000000001339
1,9,21622.5008306624,0.313000000001921
1,10,20194.7579487988,0.30000000000291
1,11,52084.7213495492,0.311999999998079
1,12,54930.2241283364,0.296000000002095
1,13,25358.5120837364,0.302999999999884
1,14,31843.6574989764,0.319999999999709
1,15,25385.1706087084,0.266999999999825
1,16,26337.6342657555,0.307000000000698
1,17,22986.4746822407,0.30000000000291
1,18,26742.0155950555,0.312999999994645
1,19,29414.8778822395,0.290000000000873
1,20,27427.1136007954,0.30000000000291
1,21,22378.0956475872,0.307999999997264
1,22,21877.2458244975,0.298999999999069
1,23,52769.826157202,0.298000000002503
1,24,23371.5166216236,0.309000000001106
1,25,29625.3067159163,0.305999999996857
1,26,22892.1337182665,0.311999999998079
1,27,22307.618772625,0.351000000002387
1,28,24863.9542227037,0.402999999998428
1,29,40777.7148250449,0.315999999998894
1,30,40809.2901506018,0.299000000006345
2,3,7634.98308089374,0.290999999997439
2,4,6300.43893463664,0.313000000001921
2,5,12546.2574211193,0.326000000000931
2,6,9575.45489383836,0.300999999999476
2,7,15059.0918355988,0.256000000001222
2,8,13132.6141718344,0.305999999996857
2,9,16661.1513960687,0.30000000000291
2,10,16335.0454169038,0.294999999998254
2,11,41645.389255807,0.291000000004715
2,12,51289.361750434,0.253999999993539
2,13,19804.094664421,0.257000000005064
2,14,25909.2245554662,0.292999999997846
2,15,21358.5147219305,0.309000000001106
2,16,22318.9231474874,0.30000000000291
2,17,17582.845790498,0.256999999997788
2,18,20543.7553128014,0.25
2,19,23493.8107147652,0.292999999997846
2,20,20826.8366261818,0.305000000000291
2,21,18471.580965589,0.307000000000698
2,22,16819.1092595321,0.315999999998894
2,23,42735.0919691791,0.35399999999936
2,24,17001.1713785702,0.303999999996449
2,25,22561.6012010274,0.296999999998661
2,26,19786.8944819312,0.30800000000454
2,27,17292.9830841248,0.252999999996973
2,28,19235.9765735197,0.333999999995285
2,29,31282.1810820865,0.315999999998894
2,30,31879.722641863,0.325000000004366
3,4,8547.128444107,0.375
3,5,9792.45556792195,0.324000000000524
3,6,6766.61763927138,0.300999999999476
3,7,17571.6112295963,0.294000000001688
3,8,12238.5896528836,0.294999999998254
3,9,13547.3851214307,0.311000000001513
3,10,19632.7537549718,0.35399999999936
3,11,42530.9072211618,0.36699999999837
3,12,53951.1156230905,0.368999999998778
3,13,18323.6394691867,0.364999999997963
3,14,21729.6719810127,0.368000000002212
3,15,23757.7800192342,0.36699999999837
3,16,19736.7475168428,0.313000000001921
3,17,22582.7216285723,0.372999999999593
3,18,25626.1160579819,0.357000000003609
3,19,20272.000346207,0.386999999995169
3,20,23045.0640238994,0.384000000005472
3,21,16630.7969100706,0.390999999995984
3,22,17089.5326968115,0.385000000002037
3,23,49812.2772594085,0.3379999999961
3,24,19626.6135859218,0.368000000002212
3,25,20438.9496373465,0.355999999999767
3,26,23454.6810592889,0.38300000000163
3,27,17754.7091435658,0.383999999998196
3,28,19801.0624213505,0.385000000002037
3,29,35120.2054132856,0.383999999998196
3,30,34265.932414927,0.389000000002852
4,5,8576.13214200791,0.385999999998603
4,6,8435.92190011368,0.378000000004249
4,7,13362.1937151569,0.381999999997788
4,8,10410.6597761332,0.381000000001222
4,9,11510.1905248991,0.377000000000407
4,10,14620.4792926253,0.330000000001746
4,11,36997.6023760785,0.309999999997672
4,12,42680.8482054782,0.344000000004598
4,13,14817.6989431455,0.292000000001281
4,14,18931.3824201684,0.309999999997672
4,15,18492.6723999335,0.292999999997846
4,16,15396.2662365135,0.309999999997672
4,17,17426.5288816822,0.285000000003492
4,18,20655.6961429334,0.347999999998137
4,19,16465.6315769851,0.35899999999674
4,20,18355.0736203561,0.358000000000175
4,21,14061.9114783673,0.362999999997555
4,22,14092.0724802712,0.359000000004016
4,23,44044.1771197181,0.309000000001106
4,24,16237.945463617,0.313999999998487
4,25,16862.0502552983,0.313000000001921
4,26,18697.5318531669,0.286999999996624
4,27,14760.600136353,0.313999999998487
4,28,17194.6911426796,0.319000000003143
4,29,29943.4810025714,0.35899999999674
4,30,29646.6833556239,0.402000000001863
5,6,7673.28028866332,0.387000000002445
5,7,8676.03077282502,0.330999999998312
5,8,5447.35775160048,0.309000000001106
5,9,6437.86433800452,0.296000000002095
5,10,11680.0527916061,0.351999999998952
5,11,24810.7085159728,0.343000000000757
5,12,29343.9502839851,0.346999999994296
5,13,9300.09500675007,0.344000000004598
5,14,10881.7327451718,0.338999999999942
5,15,12471.9699982151,0.344000000004598
5,16,8943.23059074127,0.338000000003376
5,17,10799.723513843,0.341999999996915
5,18,14077.5910709313,0.342000000004191
5,19,9885.51238811585,0.3379999999961
5,20,11803.9396984396,0.343999999997322
5,21,9385.75261934125,0.340000000003783
5,22,8542.50078184941,0.300999999999476
5,23,32064.5696335464,0.313000000001921
5,24,9434.6008305098,0.304000000003725
5,25,8832.1358780989,0.350999999995111
5,26,10060.9770720859,0.342000000004191
5,27,9709.57922966719,0.341000000000349
5,28,9326.03498906405,0.338999999999942
5,29,16839.8501895739,0.344000000004598
5,30,17697.8204127681,0.343999999997322
6,7,10742.6734114167,0.301999999996042
6,8,7924.10391416213,0.306000000004133
6,9,8180.51515770981,0.309000000001106
6,10,12691.7625847334,0.359000000004016
6,11,33470.7360679602,0.343000000000757
6,12,42506.855032668,0.349000000001979
6,13,12640.8330192441,0.341999999996915
6,14,14547.8666980038,0.345000000001164
6,15,15685.4747454724,0.389000000002852
6,16,10955.5290245537,0.314999999995052
6,17,13764.5253632251,0.300999999999476
6,18,18528.2221187481,0.298000000002503
6,19,13432.6761934808,0.309999999997672
6,20,14149.8424474408,0.302000000003318
6,21,11627.2927716811,0.284999999996217
6,22,10109.2916552902,0.343000000000757
6,23,40618.6187492491,0.346000000005006
6,24,11165.4996631811,0.339999999996508
6,25,13602.2225609439,0.343999999997322
6,26,13617.9570484989,0.303999999996449
6,27,10810.2008016463,0.310000000004948
6,28,13060.9600633966,0.294999999998254
6,29,25905.9732499969,0.300999999999476
6,30,25272.7176719489,0.319000000003143
7,8,5366.46099477581,0.351999999998952
7,9,9497.30692769062,0.364000000001397
7,10,7605.2308092229,0.361999999993714
7,11,18779.6054901074,0.317000000002736
7,12,18923.932601046,0.307000000000698
7,13,8680.43788895966,0.321000000003551
7,14,9196.73146998298,0.290000000000873
7,15,9373.03174558734,0.343999999997322
7,16,7949.93367361227,0.341000000000349
7,17,5932.7705165987,0.336999999999534
7,18,5845.89422601489,0.340000000003783
7,19,9186.18900681962,0.390999999995984
7,20,6833.69584472105,0.332999999998719
7,21,6742.22841408679,0.309000000001106
7,22,5186.88468189947,0.300999999999476
7,23,17495.0015392534,0.294000000001688
7,24,6199.13736583474,0.300999999999476
7,25,8079.82179064701,0.310000000004948
7,26,7350.48441076468,0.351999999998952
7,27,6192.06366650366,0.355999999999767
7,28,5967.05998646366,0.36200000000099
7,29,11015.8471418738,0.342999999993481
7,30,10693.4512916362,0.313000000001921
8,9,6868.03905062366,0.307999999997264
8,10,9544.61063646583,0.341999999996915
8,11,17796.4393705434,0.359000000004016
8,12,15771.4256886394,0.366000000001804
8,13,8831.50017591066,0.341000000000349
8,14,9522.93754627457,0.310999999994237
8,15,9840.63526518056,0.302999999999884
8,16,7911.93951250815,0.293000000005122
8,17,6362.7577698006,0.301999999996042
8,18,9348.32539115803,0.309000000001106
8,19,8869.5300978811,0.351999999998952
8,20,8398.4610373964,0.359000000004016
8,21,7895.64198445812,0.360999999997148
8,22,6507.08696500404,0.341000000000349
8,23,16942.917050221,0.313999999998487
8,24,6360.30167588284,0.306000000004133
8,25,6574.78758825621,0.341999999996915
8,26,9808.96690491388,0.319000000003143
8,27,6395.63325515236,0.377999999996973
8,28,6234.04096468734,0.376000000003842
8,29,14914.8873330136,0.383999999998196
8,30,11447.296224278,0.381000000001222
9,10,10121.1492763045,0.379000000000815
9,11,25565.6159214391,0.382999999994354
9,12,27686.4451451054,0.384000000005472
9,13,7268.07078645932,0.377999999996973
9,14,7103.84474920319,0.381000000001222
9,15,10049.0164400083,0.38300000000163
9,16,7521.50500014792,0.334000000002561
9,17,8998.42167006873,0.312999999994645
9,18,11668.0525923665,0.309000000001106
9,19,7246.96291396561,0.343999999997322
9,20,7284.72462709181,0.317000000002736
9,21,8641.67596279078,0.381999999997788
9,22,7480.72934476194,0.377999999996973
9,23,32663.9791265682,0.386000000005879
9,24,7472.53728188113,0.375999999996566
9,25,7681.62501885528,0.377000000000407
9,26,8125.96536812752,0.379000000000815
9,27,7596.70329432972,0.381000000001222
9,28,7791.75510590788,0.375999999996566
9,29,14612.6024731033,0.384999999994761
9,30,15746.8779462706,0.38300000000163
10,11,25758.1646840329,0.336000000002969
10,12,25062.170201391,0.31699999999546
10,13,8906.06869214679,0.307999999997264
10,14,9963.85149172119,0.345000000001164
10,15,10472.7149023136,0.319000000003143
10,16,7536.10265421755,0.381000000001222
10,17,10984.2446552021,0.380999999993946
10,18,8498.52591834437,0.379000000000815
10,19,8253.63798602148,0.379000000000815
10,20,8327.41576877385,0.380000000004657
10,21,7375.89096345585,0.379999999997381
10,22,10736.0730848518,0.384000000005472
10,23,25128.1015012547,0.380999999993946
10,24,11057.7299569547,0.38300000000163
10,25,11754.4216113367,0.383999999998196
10,26,6243.59650713857,0.332000000002154
10,27,8151.8537063204,0.310999999994237
10,28,10752.2253206225,0.305000000000291
10,29,11778.0430212773,0.352000000006228
10,30,15548.541076718,0.343999999997322
11,12,12959.7615835898,0.343000000000757
11,13,19602.8506703987,0.302999999999884
11,14,23802.4733934314,0.313000000001921
11,15,25580.71441226,0.305000000000291
11,16,20879.9317518595,0.351999999998952
11,17,16399.5036178251,0.343000000000757
11,18,15097.4792757073,0.343000000000757
11,19,19880.6382763268,0.339999999996508
11,20,19266.2458833206,0.343000000000757
11,21,23924.8546002884,0.344000000004598
11,22,22030.2499088105,0.302999999999884
11,23,17647.5554946819,0.311999999998079
11,24,22220.9181212879,0.309000000001106
11,25,21477.4729002734,0.345000000001164
11,26,22789.5621809792,0.300999999999476
11,27,22652.3523310106,0.38300000000163
11,28,15525.1786444362,0.379000000000815
11,29,15265.6885216087,0.381999999997788
11,30,16504.3824275449,0.381000000001222
12,13,19307.3341693011,0.379000000000815
12,14,19200.5964307121,0.383999999998196
12,15,21311.2925917776,0.385000000002037
12,16,22471.2759793753,0.381000000001222
12,17,10963.2429808131,0.383999999998196
12,18,13184.2598112381,0.38300000000163
12,19,20241.0723366118,0.334999999999127
12,20,13820.1831653302,0.313000000001921
12,21,20714.9687336763,0.312999999994645
12,22,18407.7683245354,0.348000000005413
12,23,11664.9172553059,0.319999999999709
12,24,16045.724869464,0.382999999994354
12,25,17247.2313140961,0.382000000005064
12,26,21442.5625969109,0.383999999998196
12,27,21219.7255887203,0.381000000001222
12,28,11100.5369423474,0.379999999997381
12,29,10200.2712975276,0.381000000001222
12,30,8456.74647684693,0.38300000000163
13,14,7886.18278636094,0.377999999996973
13,15,7060.18523774064,0.378000000004249
13,16,6355.56986680533,0.379000000000815
13,17,9133.43488532812,0.334000000002561
13,18,9469.42858678227,0.310999999994237
13,19,7255.3024518974,0.307000000000698
13,20,8306.87185732324,0.344000000004598
13,21,8253.18464137875,0.315999999998894
13,22,7773.97117778303,0.381000000001222
13,23,25149.747751948,0.380999999993946
13,24,7464.18689856896,0.379000000000815
13,25,6612.04934552694,0.375999999996566
13,26,7507.2696769646,0.377000000000407
13,27,9283.29324506286,0.381000000001222
13,28,6657.14463098341,0.377999999996973
13,29,11866.0409994771,0.379000000000815
13,30,12777.8661922943,0.384000000005472
14,15,7501.96989178389,0.378999999993539
14,16,6225.91284613953,0.331000000005588
14,17,9256.20637634245,0.311999999998079
14,18,9181.97730988943,0.306000000004133
14,19,5470.38739205708,0.341000000000349
14,20,6466.12604161217,0.314999999995052
14,21,6600.9232092016,0.380000000004657
14,22,6850.61097465448,0.375999999996566
14,23,24798.2558090449,0.385999999998603
14,24,6265.01551990437,0.376000000003842
14,25,6088.12068325911,0.377000000000407
14,26,7495.84564010316,0.380000000004657
14,27,6101.83365365151,0.379000000000815
14,28,6627.37992408898,0.373999999996158
14,29,10374.4116293523,0.379999999997381
14,30,9723.70898788505,0.382000000005064
15,16,8583.97170932883,0.331000000005588
15,17,9334.43027281735,0.309999999997672
15,18,7577.2024876695,0.299999999995634
15,19,7419.51609365678,0.350000000005821
15,20,7577.69144335239,0.343000000000757
15,21,7515.51355185254,0.339999999996508
15,22,9344.49025387304,0.300999999999476
15,23,26819.2188016764,0.313000000001921
15,24,6933.82653167822,0.298999999999069
15,25,7795.36414080382,0.349000000001979
15,26,6558.23997250875,0.340000000003783
15,27,8733.09947903442,0.341000000000349
15,28,7880.5798689082,0.3379999999961
15,29,14244.287097827,0.343000000000757
15,30,12418.9345167626,0.343000000000757
16,17,7985.07223721459,0.301999999996042
16,18,9898.06824586318,0.30800000000454
16,19,6326.53661176047,0.309000000001106
16,20,6862.5068048721,0.35899999999674
16,21,6036.46650079279,0.340000000003783
16,22,6756.40438004123,0.339999999996508
16,23,27592.5451033194,0.298999999999069
16,24,6565.06945620686,0.291000000004715
16,25,8149.90179513208,0.303999999996449
16,26,7761.00396238939,0.309000000001106
16,27,6304.73838678498,0.305999999996857
16,28,6936.02247006813,0.310000000004948
16,29,12404.0729029979,0.360000000000582
16,30,11829.4209420192,0.341000000000349
17,18,7039.01846857605,0.340999999993073
17,19,9567.10764988297,0.297000000005937
17,20,6054.93811671138,0.291999999994005
17,21,6498.34177177782,0.302000000003318
17,22,5150.2341319048,0.36200000000099
17,23,14597.9009845476,0.372999999999593
17,24,6644.83315688998,0.371000000006461
17,25,9530.04284271317,0.32499999999709
17,26,8180.32875747642,0.309999999997672
17,27,7489.76613844937,0.300999999999476
17,28,5959.67067048744,0.291000000004715
17,29,10592.9172900139,0.304000000003725
17,30,6844.84966333974,0.313999999998487
18,19,8172.09288437863,0.351000000002387
18,20,5730.76106481625,0.35899999999674
18,21,7335.68513814192,0.362999999997555
18,22,9244.16410586652,0.361000000004424
18,23,16559.3403723495,0.363999999994121
18,24,8512.22686284614,0.36200000000099
18,25,9316.35853242771,0.359000000004016
18,26,6536.47907980676,0.360999999997148
18,27,6825.29039027782,0.360000000000582
18,28,7051.0285046067,0.313999999998487
18,29,9420.57291315838,0.309000000001106
18,30,8467.19648168633,0.302999999999884
19,20,5059.45874560629,0.291000000004715
19,21,5687.54775099409,0.300999999999476
19,22,8185.2247890824,0.310999999994237
19,23,26352.8991305739,0.357000000003609
19,24,7774.36605969679,0.355999999999767
19,25,7104.18211600574,0.36200000000099
19,26,5535.35791704001,0.338999999999942
19,27,6193.62197613555,0.309000000001106
19,28,7268.98775888378,0.30000000000291
19,29,8644.36685806593,0.348999999994703
19,30,10572.8756128206,0.344000000004598
20,21,5328.37668829285,0.341000000000349
20,22,5785.40877979457,0.298999999999069
20,23,19478.5029347314,0.310000000004948
20,24,7127.73379395193,0.302999999999884
20,25,8622.19964704592,0.349999999998545
20,26,5508.91572517972,0.338999999999942
20,27,6079.78644573618,0.349000000001979
20,28,6059.96018697716,0.341000000000349
20,29,8011.07767897653,0.347000000001572
20,30,7369.04380388345,0.341999999996915
21,22,6706.45755642616,0.30000000000291
21,23,23375.6409654861,0.310000000004948
21,24,6965.9136779152,0.307999999997264
21,25,9288.75111676077,0.342999999993481
21,26,6635.08831776772,0.30000000000291
21,27,4752.19775842173,0.377999999996973
21,28,7593.36471958882,0.378000000004249
21,29,11089.1658812108,0.382000000005064
21,30,8251.90806194422,0.379000000000815
22,23,19030.6237696146,0.378999999993539
22,24,6793.58225715134,0.378000000004249
22,25,7866.65346865622,0.381000000001222
22,26,8638.13504252204,0.375999999996566
22,27,7235.05844894651,0.381999999997788
22,28,6262.38656914066,0.379000000000815
22,29,10610.2752587853,0.334000000002561
22,30,8335.10460901026,0.309999999997672
23,24,19556.3201167778,0.304000000003725
23,25,23031.1332076937,0.35399999999936
23,26,27243.0550163487,0.343999999997322
23,27,22580.2600998776,0.343999999997322
23,28,16510.0436639771,0.305000000000291
23,29,15437.4121104494,0.309000000001106
23,30,11100.203289676,0.303999999996449
24,25,6563.5257206391,0.348000000005413
24,26,8496.77543833841,0.341999999996915
24,27,7178.15575438,0.340000000003783
24,28,4429.18928179231,0.332999999998719
24,29,15373.4435071667,0.343000000000757
24,30,10948.9449166564,0.343000000000757
25,26,8440.73004368128,0.30000000000291
25,27,8144.30761302021,0.30899999999383
25,28,6459.89918866937,0.30800000000454
25,29,11469.548088681,0.360000000000582
25,30,12422.668404048,0.343999999997322
26,27,6772.71257876681,0.340000000003783
26,28,7898.62036694206,0.293999999994412
26,29,9228.83710244798,0.291000000004715
26,30,10292.8207111101,0.300999999999476
27,28,6781.25597616295,0.309000000001106
27,29,11065.7002729406,0.307000000000698
27,30,9689.94911463407,0.311000000001513
28,29,12103.3493717078,0.359000000004016
28,30,9924.89557319944,0.343000000000757
29,30,8669.1701078971,0.341000000000349


"After.Trace.ID","Before.Trace.ID","Difference","Runtime"
1,1,32533.4821335169,0.348999999994703
1,2,24853.1977651609,0.351999999998952
1,3,35854.2324242031,0.350000000005821
1,4,30209.9451499631,0.346999999994296
1,5,22903.8043798429,0.352000000006228
1,6,26971.1971323075,0.346999999994296
1,7,14520.9683421912,0.344000000004598
1,8,14825.2144022748,0.343999999997322
1,9,19955.7170983282,0.343000000000757
1,10,18170.482512957,0.345000000001164
1,11,27113.7636747561,0.347000000001572
1,12,17953.0294662916,0.34599999999773
1,13,18867.0974080303,0.345000000001164
1,14,15883.6819344853,0.343000000000757
1,15,13410.5102497905,0.296999999998661
1,16,20757.0738770415,0.296000000002095
1,17,10342.4530574904,0.307999999997264
1,18,13427.5023685223,0.294999999998254
1,19,16743.1013731259,0.313999999998487
1,20,12147.2156191517,0.307999999997264
1,21,14692.8529609507,0.346000000005006
1,22,13473.0156171315,0.356999999996333
1,23,14308.3875706519,0.364999999997963
1,24,12155.9008174082,0.38799999999901
1,25,17205.2316241912,0.384000000005472
1,26,13314.0636813774,0.381999999997788
1,27,15368.7319451585,0.379000000000815
1,28,13670.1789837082,0.38300000000163
1,29,15521.752178289,0.38300000000163
1,30,13116.5194534101,0.334999999999127
2,1,29924.8186349576,0.317999999999302
2,2,23405.9141949214,0.307999999997264
2,3,19310.1875632613,0.351000000002387
2,4,19118.1764811641,0.361000000004424
2,5,12846.9712150641,0.364999999997963
2,6,11244.9641934132,0.388999999995576
2,7,12069.3151208348,0.380000000004657
2,8,9634.59775194006,0.381999999997788
2,9,8979.9633474457,0.377000000000407
2,10,11390.3567007677,0.383999999998196
2,11,28548.7117157281,0.385000000002037
2,12,23302.4511313349,0.381999999997788
2,13,11593.3984017445,0.38300000000163
2,14,7968.98202131669,0.379999999997381
2,15,11615.1804696782,0.334000000002561
2,16,9414.47967658091,0.313000000001921
2,17,9080.9554544711,0.302999999999884
2,18,12595.3287109552,0.341999999996915
2,19,7955.37983376806,0.355999999999767
2,20,7568.21558929539,0.362999999997555
2,21,7012.24712995386,0.387000000002445
2,22,7062.9792696151,0.381000000001222
2,23,28454.0684943578,0.386999999995169
2,24,10973.1588963577,0.38300000000163
2,25,11012.9235850205,0.383999999998196
2,26,8910.28026312033,0.381000000001222
2,27,8229.5532390037,0.328999999997905
2,28,11344.5595444725,0.368000000002212
2,29,14709.3256358842,0.353000000002794
2,30,11539.1705946539,0.38300000000163
3,1,21209.1959442954,0.338999999999942
3,2,14748.7195586674,0.375
3,3,19036.787163482,0.355999999999767
3,4,14825.3303345184,0.391999999999825
3,5,13015.2017231823,0.333000000005995
3,6,12133.2568367368,0.312999999994645
3,7,6742.43056637212,0.309000000001106
3,8,7560.31120950641,0.283999999999651
3,9,10841.9403203917,0.314000000005763
3,10,7812.30938160161,0.311000000001513
3,11,21662.2803016198,0.356999999996333
3,12,18362.7102262377,0.397000000004482
3,13,9596.28967096287,0.38799999999901
3,14,10475.6589094566,0.379000000000815
3,15,12197.3645856616,0.377999999996973
3,16,8724.95204815257,0.381999999997788
3,17,7209.03017270513,0.377000000000407
3,18,8941.83498848178,0.379999999997381
3,19,9477.16311077016,0.381999999997788
3,20,6953.11579648136,0.378000000004249
3,21,6723.17510834776,0.380000000004657
3,22,6125.4888423045,0.38300000000163
3,23,18396.8730093187,0.336000000002969
3,24,9040.99644702016,0.310999999994237
3,25,10058.5902075643,0.302999999999884
3,26,9066.89726968563,0.341999999996915
3,27,7135.25084875047,0.355999999999767
3,28,8512.37350722134,0.363000000004831
3,29,10988.4261686169,0.38799999999901
3,30,9946.83353389471,0.383999999998196
4,1,44294.6711019281,0.385000000002037
4,2,37436.3587185105,0.335999999995693
4,3,39867.7769573406,0.313999999998487
4,4,39063.656962259,0.311999999998079
4,5,29088.7373471433,0.346000000005006
4,6,33398.4662649232,0.320999999996275
4,7,19246.274724333,0.38300000000163
4,8,19646.959681545,0.379000000000815
4,9,27760.1799007423,0.384999999994761
4,10,27260.9654892678,0.378000000004249
4,11,18165.4498212256,0.378000000004249
4,12,17137.008806192,0.38300000000163
4,13,27213.5902775522,0.384999999994761
4,14,21220.3135739499,0.379000000000815
4,15,22799.6805580922,0.381999999997788
4,16,24572.8604063876,0.384000000005472
4,17,14775.1549946048,0.331999999994878
4,18,13523.4816189736,0.311000000001513
4,19,21884.2292368005,0.302999999999884
4,20,19232.5228045709,0.351000000002387
4,21,20569.8856983038,0.341000000000349
4,22,21829.4366065817,0.343000000000757
4,23,16745.9268074149,0.302999999999884
4,24,20501.0881056963,0.309000000001106
4,25,22795.3756393129,0.305999999996857
4,26,21727.4518234093,0.351000000002387
4,27,18378.3351336632,0.341000000000349
4,28,17605.8013912813,0.342000000004191
4,29,21315.3494734748,0.339999999996508
4,30,13328.9902617474,0.343000000000757
5,1,65674.0298810175,0.347999999998137
5,2,53463.4123991023,0.347000000001572
5,3,60056.0054977918,0.357000000003609
5,4,56446.0745907942,0.35399999999936
5,5,42406.7148060123,0.398000000001048
5,6,51038.6444101146,0.320999999996275
5,7,28717.4849997961,0.361000000004424
5,8,26899.5932952122,0.299999999995634
5,9,44823.6045736452,0.330000000001746
5,10,33480.6933271929,0.366000000001804
5,11,15814.1230002066,0.36200000000099
5,12,20221.7720956902,0.364999999997963
5,13,37178.1839800703,0.366000000001804
5,14,37262.323723276,0.307000000000698
5,15,42495.7893726723,0.322000000000116
5,16,40091.4871945162,0.381000000001222
5,17,24638.35332504,0.35399999999936
5,18,26260.4758654355,0.389999999999418
5,19,36836.1464566488,0.404999999998836
5,20,31812.5755046279,0.321000000003551
5,21,35605.4617900964,0.322999999996682
5,22,30989.5203260537,0.276000000005297
5,23,15765.1807613057,0.293999999994412
5,24,33583.5965962689,0.319999999999709
5,25,33103.1636566327,0.254000000000815
5,26,40348.9080750552,0.29599999999482
5,27,35648.0618192051,0.30000000000291
5,28,26025.3958927857,0.322000000000116
5,29,26607.0373611663,0.292000000001281
5,30,20311.6534875833,0.305000000000291
6,1,27280.4079040378,0.30000000000291
6,2,18299.3315125192,0.292999999997846
6,3,20477.1563779186,0.297999999995227
6,4,20458.4861676392,0.29500000000553
6,5,11493.2571606292,0.317999999999302
6,6,13155.0472551783,0.288000000000466
6,7,8485.58482422893,0.297999999995227
6,8,6598.15601551258,0.281000000002678
6,9,13297.8742070435,0.297999999995227
6,10,16170.8437410949,0.253000000004249
6,11,19087.1702723156,0.290000000000873
6,12,13949.9038113977,0.296000000002095
6,13,12992.1620048651,0.254000000000815
6,14,12064.3033760626,0.305999999996857
6,15,15196.4282649117,0.313999999998487
6,16,11940.1117775968,0.291000000004715
6,17,7409.26260002502,0.298000000002503
6,18,10636.6855516622,0.29599999999482
6,19,13009.4741372898,0.304000000003725
6,20,11810.3241124109,0.322999999996682
6,21,10753.8067211035,0.2870000000039
6,22,7988.30409107606,0.290000000000873
6,23,16942.5334999418,0.292999999997846
6,24,7595.67756869814,0.305999999996857
6,25,11627.3414061749,0.281999999999243
6,26,13042.4463807167,0.312000000005355
6,27,8915.19057750609,0.252000000000407
6,28,7573.01070777198,0.301999999996042
6,29,17080.8205000061,0.309000000001106
6,30,10829.8052862726,0.311000000001513
7,1,26394.727068353,0.394999999996799
7,2,20004.6972398557,0.300999999999476
7,3,18692.3504223971,0.302000000003318
7,4,17396.2347681739,0.31699999999546
7,5,11347.3814468513,0.375
7,6,12002.5242271396,0.307000000000698
7,7,8168.2437743426,0.353000000002794
7,8,8003.34244773776,0.338000000003376
7,9,10815.784747796,0.342000000004191
7,10,10420.1833951565,0.298999999999069
7,11,21068.9273631047,0.351000000002387
7,12,19310.98758212,0.351999999998952
7,13,10284.4812669646,0.38799999999901
7,14,6442.91988473829,0.377000000000407
7,15,9859.17038603729,0.377000000000407
7,16,7557.78317611672,0.381000000001222
7,17,8059.94259771337,0.380999999993946
7,18,7921.52256223249,0.379000000000815
7,19,7563.05029075787,0.381000000001222
7,20,7878.90163142665,0.381000000001222
7,21,7164.7252302762,0.330999999998312
7,22,7124.22495862515,0.311999999998079
7,23,22653.8787326696,0.313000000001921
7,24,7140.9496596125,0.341000000000349
7,25,9533.10888426394,0.360000000000582
7,26,6817.1265609631,0.360999999997148
7,27,5891.63104184343,0.385000000002037
7,28,7407.01388831471,0.380000000004657
7,29,12377.2447292499,0.378999999993539
7,30,9388.26041656124,0.379000000000815
8,1,32496.7669073355,0.38799999999901
8,2,22039.4196368539,0.390999999995984
8,3,23338.6953784176,0.388000000006286
8,4,20586.9042302257,0.391999999999825
8,5,12942.2016028706,0.389000000002852
8,6,16062.2818583688,0.336999999999534
8,7,10090.3181712027,0.36699999999837
8,8,11296.6403975827,0.355000000003201
8,9,12601.611417134,0.379999999997381
8,10,10651.7994723172,0.385000000002037
8,11,20836.4783442043,0.383999999998196
8,12,14694.4403586693,0.379000000000815
8,13,11227.0855724379,0.380000000004657
8,14,8874.11769055191,0.381000000001222
8,15,11741.9065125011,0.379999999997381
8,16,8858.52369578097,0.381000000001222
8,17,7549.70347729522,0.380999999993946
8,18,8990.79238113249,0.379000000000815
8,19,8331.57828838604,0.380000000004657
8,20,6522.01999838316,0.379000000000815
8,21,6516.91112053252,0.330000000001746
8,22,7051.69528357852,0.311999999998079
8,23,18579.2038518598,0.307000000000698
8,24,10143.6044952875,0.347000000001572
8,25,12098.1561458635,0.359000000004016
8,26,8586.97637642142,0.36200000000099
8,27,8743.54809997278,0.38799999999901
8,28,10348.7006366392,0.379000000000815
8,29,8836.83485699633,0.378999999993539
8,30,6276.45460397861,0.376000000003842
9,1,52503.0478754309,0.38799999999901
9,2,39088.9276043585,0.394000000000233
9,3,49394.513016026,0.383999999998196
9,4,44870.1031261748,0.392999999996391
9,5,30793.7370331791,0.393000000003667
9,6,39659.4031242366,0.389999999999418
9,7,15615.1999677949,0.38799999999901
9,8,14976.3700488251,0.390999999995984
9,9,34163.133735838,0.385000000002037
9,10,21494.2805019423,0.39100000000326
9,11,18814.1238343639,0.390999999995984
9,12,16127.4687574112,0.336000000002969
9,13,25945.0924308021,0.375
9,14,24253.9285014129,0.357000000003609
9,15,28165.6852298627,0.394999999996799
9,16,27484.8961151408,0.389000000002852
9,17,12922.8444920765,0.390999999995984
9,18,15625.3393317537,0.388000000006286
9,19,23888.4044428784,0.338999999999942
9,20,18981.0817079035,0.367999999994936
9,21,20808.3348118231,0.355999999999767
9,22,16867.4360581619,0.392999999996391
9,23,10159.8453439072,0.380000000004657
9,24,19670.6743631296,0.3379999999961
9,25,20854.2292769574,0.372000000003027
9,26,26067.4404014797,0.356999999996333
9,27,20084.6842183695,0.38799999999901
9,28,15541.5427930846,0.39100000000326
9,29,16392.4824441606,0.389000000002852
9,30,11156.4040286186,0.332999999998719
10,1,31813.7763684269,0.31699999999546
10,2,26070.4141149838,0.309000000001106
10,3,29092.6210300726,0.351999999998952
10,4,25329.117167454,0.366000000001804
10,5,19158.9397642202,0.366000000001804
10,6,22208.9430121247,0.389999999999418
10,7,7784.97965989071,0.330999999998312
10,8,10824.9929157115,0.311000000001513
10,9,16380.6034636505,0.311000000001513
10,10,13538.1208888429,0.283999999999651
10,11,15876.2184300932,0.309000000001106
10,12,10602.4073992349,0.315999999998894
10,13,14306.5836349408,0.293999999994412
10,14,11298.9055655795,0.369000000006054
10,15,10949.9483271572,0.371999999995751
10,16,13009.0462968112,0.368999999998778
10,17,5927.52273283977,0.323000000003958
10,18,4261.27037403203,0.302999999999884
10,19,11620.6230778578,0.302999999999884
10,20,8257.56897507657,0.292999999997846
10,21,9720.37409591199,0.302999999999884
10,22,11523.9437217317,0.332000000002154
10,23,13615.6150171806,0.291000000004715
10,24,9476.6487718081,0.362999999997555
10,25,12527.3654207158,0.360999999997148
10,26,11231.8419916832,0.386999999995169
10,27,8983.10568254181,0.331000000005588
10,28,7557.78921491245,0.309999999997672
10,29,11478.9959548622,0.302000000003318
10,30,6865.54763835776,0.289999999993597
11,1,26361.047397305,0.310000000004948
11,2,18857.6611904636,0.299999999995634
11,3,16593.3130057347,0.294000000001688
11,4,14542.9141232523,0.311999999998079
11,5,10188.0894042126,0.372999999999593
11,6,10809.1189543041,0.374000000003434
11,7,9414.87373758955,0.372000000003027
11,8,10382.6366353116,0.372000000003027
11,9,8625.52975265822,0.375
11,10,8485.66719764373,0.32499999999709
11,11,24280.31081473,0.313999999998487
11,12,26429.3256758618,0.30800000000454
11,13,8063.93908987776,0.34599999999773
11,14,6844.2136576073,0.355000000003201
11,15,10575.0822866859,0.362999999997555
11,16,5808.49590732554,0.385000000002037
11,17,11519.3391710401,0.381000000001222
11,18,10410.3855865578,0.381999999997788
11,19,6522.25858405995,0.378000000004249
11,20,8639.95425893902,0.381999999997788
11,21,7574.78452456305,0.381000000001222
11,22,7323.87923464351,0.379000000000815
11,23,29147.545568356,0.385999999998603
11,24,9444.85762684858,0.385999999998603
11,25,9274.68087218244,0.332999999998719
11,26,8329.42555562664,0.311999999998079
11,27,7666.50794866859,0.30800000000454
11,28,9382.63676013623,0.283999999999651
11,29,11221.1817678493,0.313999999998487
11,30,15756.4670477998,0.319000000003143
12,1,23512.2460509641,0.35899999999674
12,2,16161.9079968516,0.402000000001863
12,3,20986.4359933161,0.389999999999418
12,4,19886.9414731706,0.334999999999127
12,5,16525.7685769102,0.313000000001921
12,6,14853.6749459304,0.311000000001513
12,7,10398.0449460017,0.284999999996217
12,8,12583.8111618489,0.311999999998079
12,9,14813.5631290861,0.318999999995867
12,10,10958.3807801761,0.355000000003201
12,11,27600.607813125,0.394999999996799
12,12,24249.9784906181,0.39100000000326
12,13,15302.9905498405,0.381999999997788
12,14,12541.0634072571,0.381000000001222
12,15,13876.2078614615,0.423999999999069
12,16,11958.8659594786,0.313000000001921
12,17,9875.27872871649,0.299999999995634
12,18,8839.75210449715,0.313000000001921
12,19,12389.991960838,0.309000000001106
12,20,10497.1198017885,0.326999999997497
12,21,8697.86882981854,0.289000000004307
12,22,10931.7193006288,0.364999999997963
12,23,25128.4527104779,0.360999999997148
12,24,10587.4687387215,0.389999999999418
12,25,14670.3211448221,0.384000000005472
12,26,10777.9502782659,0.381999999997788
12,27,8229.30209182574,0.330000000001746
12,28,10984.3768799027,0.311000000001513
12,29,15851.047778232,0.307999999997264
12,30,12260.3164123971,0.345000000001164
13,1,16034.7666491187,0.360000000000582
13,2,11115.2868994124,0.365999999994528
13,3,14028.7834558595,0.344000000004598
13,4,12039.7030432768,0.313000000001921
13,5,8618.35030207505,0.303999999996449
13,6,7667.29153895603,0.343000000000757
13,7,4987.64272342637,0.355000000003201
13,8,6548.42642717078,0.363999999994121
13,9,8228.89094816554,0.38799999999901
13,10,7805.77879280195,0.381000000001222
13,11,24584.3681501119,0.384000000005472
13,12,25346.74990444,0.336999999999534
13,13,8416.59487073593,0.362999999997555
13,14,8940.38340578726,0.350000000005821
13,15,9519.92635198083,0.331999999994878
13,16,7299.52471320178,0.310000000004948
13,17,7533.81416792134,0.315999999998894
13,18,8625.90302185436,0.32499999999709
13,19,9406.11334587102,0.408999999999651
13,20,8065.00121426243,0.313000000001921
13,21,7444.79257321909,0.300999999999476
13,22,6666.91098497112,0.309000000001106
13,23,24239.3263075788,0.303999999996449
13,24,6442.51102337982,0.31600000000617
13,25,7766.36523426855,0.305999999996857
13,26,8123.72156009601,0.362999999997555
13,27,6605.32469498512,0.342000000004191
13,28,6177.56965026326,0.334999999999127
13,29,15377.9706178887,0.343000000000757
13,30,13981.1847273307,0.298999999999069
14,1,28656.1440264364,0.361000000004424
14,2,18876.2283607512,0.355999999999767
14,3,16506.3235411341,0.385000000002037
14,4,15455.7982350864,0.332999999998719
14,5,11624.9189420146,0.313000000001921
14,6,10168.9601606272,0.305000000000291
14,7,9546.76108748474,0.345000000001164
14,8,9403.00315202966,0.356999999996333
14,9,10190.6225032957,0.306000000004133
14,10,10652.8587607723,0.312999999994645
14,11,23904.9763524204,0.312000000005355
14,12,23309.537907572,0.346999999994296
14,13,11486.9579589371,0.35899999999674
14,14,9023.4204455249,0.363000000004831
14,15,14538.2668530025,0.388999999995576
14,16,7357.03848976872,0.379000000000815
14,17,9570.21785780249,0.38300000000163
14,18,11536.4389447403,0.377999999996973
14,19,8366.52568463187,0.379000000000815
14,20,9029.49149559551,0.381999999997788
14,21,6639.51957976151,0.331000000005588
14,22,7300.99560839923,0.309999999997672
14,23,25427.8133435924,0.307000000000698
14,24,9834.00994936526,0.349999999998545
14,25,11682.0429650949,0.357000000003609
14,26,9760.03549608764,0.36200000000099
14,27,7086.29413614627,0.385999999998603
14,28,9466.8635196966,0.379000000000815
14,29,14379.0235165545,0.381999999997788
14,30,11906.0424743329,0.379000000000815
15,1,28053.8562673903,0.386999999995169
15,2,22698.9247680169,0.393000000003667
15,3,22166.6284135758,0.383999999998196
15,4,20899.4723368606,0.39100000000326
15,5,12445.5490001791,0.38799999999901
15,6,14967.8492331564,0.381000000001222
15,7,9763.34434343153,0.382999999994354
15,8,9415.103781654,0.382000000005064
15,9,10315.5131084261,0.333999999995285
15,10,7709.8690065937,0.311000000001513
15,11,23058.9514501057,0.311000000001513
15,12,15633.0148976911,0.34599999999773
15,13,11407.1497408501,0.363000000004831
15,14,6571.25231975566,0.36200000000099
15,15,10884.4335365849,0.342999999993481
15,16,8297.52580631248,0.311000000001513
15,17,7421.03014449097,0.30800000000454
15,18,8335.71095958527,0.283999999999651
15,19,7339.14175947052,0.312999999994645
15,20,6354.93256838983,0.315000000002328
15,21,6433.58818016999,0.351999999998952
15,22,6529.8151784417,0.389999999999418
15,23,19733.6203242628,0.384000000005472
15,24,11511.7679008728,0.332000000002154
15,25,10577.0446813495,0.312999999994645
15,26,7216.57891018904,0.306000000004133
15,27,7054.34531183234,0.282999999995809
15,28,10823.7720967304,0.313000000001921
15,29,9029.12404209401,0.315000000002328
15,30,7090.19489994547,0.351999999998952
16,1,26708.8910985093,0.392000000007101
16,2,19221.0314363176,0.389000000002852
16,3,22432.1652245309,0.381999999997788
16,4,20113.6486692614,0.383999999998196
16,5,12389.0475826219,0.381000000001222
16,6,13531.5988340211,0.370999999999185
16,7,5641.10360313116,0.319999999999709
16,8,6988.31251670244,0.361000000004424
16,9,11238.104636113,0.361999999993714
16,10,11321.5495045263,0.363000000004831
16,11,15808.4823551633,0.36200000000099
16,12,13990.7879733605,0.363999999994121
16,13,11076.6846034248,0.370000000002619
16,14,11039.5622458246,0.364000000001397
16,15,12849.2898446461,0.360999999997148
16,16,9383.5728329517,0.361000000004424
16,17,7158.73453714912,0.360999999997148
16,18,7252.56036416903,0.358000000000175
16,19,10573.5827711434,0.364000000001397
16,20,8685.81626046842,0.365000000005239
16,21,7483.07975512536,0.35899999999674
16,22,7680.38593766714,0.363000000004831
16,23,13643.7977716936,0.364999999997963
16,24,7195.4220408627,0.311999999998079
16,25,10051.557175774,0.313000000001921
16,26,10848.9182858765,0.302999999999884
16,27,7290.09020915206,0.341000000000349
16,28,7175.78358020081,0.355999999999767
16,29,14421.6370558691,0.364000000001397
16,30,10267.0576915478,0.389000000002852
17,1,36877.8051203242,0.386999999995169
17,2,24924.1695263158,0.395000000004075
17,3,33898.54604269,0.39600000000064
17,4,31696.0631716264,0.400999999998021
17,5,20377.6808550019,0.439999999995052
17,6,23857.4351976451,0.309000000001106
17,7,10641.1275205838,0.291000000004715
17,8,11746.0502668154,0.298999999999069
17,9,20261.2876047725,0.302999999999884
17,10,15826.0798013121,0.288000000000466
17,11,23592.7425187944,0.379999999997381
17,12,16530.4998203354,0.387000000002445
17,13,19639.0461393446,0.384999999994761
17,14,15346.137884661,0.384000000005472
17,15,19755.3749959989,0.384999999994761
17,16,17828.5654108275,0.33700000000681
17,17,10163.3814383503,0.36699999999837
17,18,12380.9426462576,0.35399999999936
17,19,16294.8901232931,0.381000000001222
17,20,12437.8814612214,0.382999999994354
17,21,13002.4864637123,0.384000000005472
17,22,11089.7506660082,0.333999999995285
17,23,13287.6711969593,0.312000000005355
17,24,13235.324743167,0.309999999997672
17,25,15764.5387221956,0.343000000000757
17,26,15536.4558939608,0.359000000004016
17,27,12593.1785247956,0.364999999997963
17,28,13276.0147761144,0.343999999997322
17,29,15603.858321419,0.312000000005355
17,30,9805.839492657,0.301999999996042
18,1,35721.3107799054,0.349000000001979
18,2,25855.2048600831,0.368999999998778
18,3,30968.3041401865,0.374000000003434
18,4,28010.958248277,0.396999999997206
18,5,15450.7476051479,0.389000000002852
18,6,21549.2452573113,0.385999999998603
18,7,11710.363316115,0.38300000000163
18,8,12072.5312751038,0.383999999998196
18,9,14468.4893555814,0.426999999996042
18,10,14516.8728166124,0.317999999999302
18,11,22761.549805839,0.292000000001281
18,12,12943.6156884014,0.296000000002095
18,13,13479.6414560032,0.290999999997439
18,14,10390.5896754615,0.29500000000553
18,15,13490.6610317783,0.388999999995576
18,16,13321.7451024306,0.383999999998196
18,17,7147.55940238032,0.330000000001746
18,18,10318.2189088274,0.311000000001513
18,19,11710.5675761416,0.309999999997672
18,20,7775.31859953276,0.342000000004191
18,21,8582.31210737083,0.317999999999302
18,22,7767.09399106702,0.381000000001222
18,23,15907.0547000302,0.379000000000815
18,24,11340.5352788877,0.381999999997788
18,25,11368.9757574,0.379999999997381
18,26,9789.03873966434,0.378000000004249
18,27,9217.48346001809,0.380999999993946
18,28,11209.7260387748,0.382000000005064
18,29,9157.07096714318,0.375
18,30,6054.46783098517,0.379000000000815
19,1,23728.6501075996,0.385000000002037
19,2,17169.168364412,0.385000000002037
19,3,19276.5210094542,0.389999999999418
19,4,16565.744556004,0.383999999998196
19,5,9639.8720111991,0.332000000002154
19,6,10413.2021180037,0.310999999994237
19,7,6264.48103969635,0.30800000000454
19,8,6808.84821617216,0.282999999995809
19,9,8404.64250456673,0.313000000001921
19,10,9743.34755492222,0.332999999998719
19,11,19685.66775585,0.294000000001688
19,12,15781.0076625228,0.371000000006461
19,13,9316.86340715117,0.371999999995751
19,14,9349.16006580774,0.36699999999837
19,15,10706.8026792658,0.323000000003958
19,16,7400.39611996274,0.312000000005355
19,17,5608.52885850878,0.305000000000291
19,18,8060.62051656473,0.284999999996217
19,19,9015.18699490275,0.309999999997672
19,20,7057.93724037588,0.315000000002328
19,21,6897.77827369956,0.292000000001281
19,22,5178.31874327313,0.365000000005239
19,23,16011.6385767225,0.372999999999593
19,24,6387.94677342263,0.366000000001804
19,25,8543.97295917502,0.324000000000524
19,26,8565.41883131721,0.309000000001106
19,27,6854.71226195353,0.301999999996042
19,28,6189.74325178782,0.291000000004715
19,29,12589.5929283561,0.303999999996449
19,30,8537.18789037813,0.332999999998719
20,1,26642.5234288947,0.296999999998661
20,2,18917.616552728,0.372999999999593
20,3,15926.1502206172,0.366000000001804
20,4,15165.3162892494,0.389000000002852
20,5,11554.245782198,0.32499999999709
20,6,10531.0282018199,0.365000000005239
20,7,9679.38594124566,0.360999999997148
20,8,10082.4336732058,0.364999999997963
20,9,9069.69073811577,0.361000000004424
20,10,9671.63630383032,0.360999999997148
20,11,24911.6338269612,0.36699999999837
20,12,25193.2032802023,0.366000000001804
20,13,11085.6436398086,0.364000000001397
20,14,8011.21341527154,0.360000000000582
20,15,14353.2937519906,0.364999999997963
20,16,8303.07882831796,0.360999999997148
20,17,11153.5990780306,0.365000000005239
20,18,11661.7210887919,0.363999999994121
20,19,7573.50232404821,0.359000000004016
20,20,8861.54735541544,0.364000000001397
20,21,7787.36341226023,0.36200000000099
20,22,7303.18289202444,0.312999999994645
20,23,29170.4199746379,0.315999999998894
20,24,10963.6952928205,0.304000000003725
20,25,9790.53349828797,0.341000000000349
20,26,9654.52618344524,0.358000000000175
20,27,7635.68934566299,0.362999999997555
20,28,9998.79777385679,0.38799999999901
20,29,12742.1498453167,0.384000000005472
20,30,13735.4412159356,0.384999999994761
21,1,45380.417582675,0.387000000002445
21,2,34655.460823865,0.392999999996391
21,3,44191.0823613575,0.393000000003667
21,4,39090.1404354709,0.400000000001455
21,5,30682.659473613,0.320999999996275
21,6,35429.3222509293,0.364999999997963
21,7,15325.8477923497,0.297000000005937
21,8,18315.9944641695,0.310999999994237
21,9,31999.0534686792,0.319000000003143
21,10,22030.5827774246,0.326000000000931
21,11,15966.3453186507,0.30000000000291
21,12,19311.9228482501,0.298999999999069
21,13,24692.0939815802,0.300999999999476
21,14,25558.0889818034,0.294000000001688
21,15,28557.8619945438,0.317999999999302
21,16,23300.9820804207,0.302999999999884
21,17,13915.5655188076,0.296999999998661
21,18,10958.3130228741,0.322999999996682
21,19,21566.5308884654,0.288000000000466
21,20,17633.3440226027,0.292000000001281
21,21,19925.3485922453,0.302999999999884
21,22,20477.6983965982,0.250999999996566
21,23,16602.1359602856,0.312000000005355
21,24,22731.4663161918,0.307000000000698
21,25,25389.0560281039,0.29599999999482
21,26,20360.9782964417,0.266999999999825
21,27,18635.6168543544,0.334999999999127
21,28,16748.3222618152,0.317000000002736
21,29,14048.9366802469,0.292000000001281
21,30,14836.6159300054,0.296000000002095
22,1,38011.8852992265,0.25
22,2,30897.3172443263,0.298999999999069
22,3,28111.606331628,0.326999999997497
22,4,24607.34860544,0.286000000000058
22,5,16449.0355828441,0.302999999999884
22,6,18302.4916819436,0.294999999998254
22,7,10815.098765121,0.309999999997672
22,8,11596.3095512848,0.389000000002852
22,9,10703.4340023213,0.297999999995227
22,10,13049.9518675905,0.304000000003725
22,11,18030.3409285466,0.307000000000698
22,12,10807.0524063665,0.356999999996333
22,13,11268.8570780724,0.385000000002037
22,14,5743.82157812001,0.375999999996566
22,15,8889.19051483642,0.381000000001222
22,16,9601.01293042598,0.384000000005472
22,17,7350.5175120671,0.379999999997381
22,18,7993.8711266538,0.380000000004657
22,19,7927.46124996785,0.381999999997788
22,20,7249.42930938228,0.332999999998719
22,21,7258.67598136996,0.311999999998079
22,22,9024.82303081272,0.310000000004948
22,23,18388.1925565664,0.288999999997031
22,24,8388.76635661568,0.296999999998661
22,25,10161.4491314244,0.299000000006345
22,26,8770.83386812954,0.288999999997031
22,27,8136.85967069178,0.294999999998254
22,28,8634.5797508461,0.305000000000291
22,29,10744.6761100281,0.34599999999773
22,30,6992.07751828709,0.391999999999825
23,1,24805.2788278243,0.338999999999942
23,2,18894.1864294507,0.375999999996566
23,3,19498.9164571926,0.355999999999767
23,4,18168.310088251,0.393000000003667
23,5,11092.0754804893,0.38300000000163
23,6,12212.1260201787,0.384999999994761
23,7,8435.5788381478,0.387000000002445
23,8,8755.618399156,0.332999999998719
23,9,9774.90566935187,0.304000000003725
23,10,12698.3013155705,0.328999999997905
23,11,25917.2823400991,0.284999999996217
23,12,20609.516479769,0.347999999998137
23,13,10419.7050685527,0.342000000004191
23,14,7200.7759704795,0.335999999995693
23,15,11061.7017948322,0.342000000004191
23,16,7228.60753172837,0.389999999999418
23,17,6318.08438445531,0.330000000001746
23,18,11558.387763826,0.312999999994645
23,19,9019.69561348587,0.30800000000454
23,20,6649.68995211859,0.280999999995402
23,21,7404.10286877728,0.313000000001921
23,22,5152.32137338731,0.313999999998487
23,23,23131.1840804508,0.355000000003201
23,24,6860.93682423113,0.388999999995576
23,25,9366.83305720769,0.381000000001222
23,26,10193.0668893953,0.377000000000407
23,27,7686.76118090476,0.382000000005064
23,28,7092.0859923703,0.379999999997381
23,29,12372.4435116972,0.370999999999185
23,30,8497.26476204952,0.322000000000116
24,1,32067.7240507347,0.368999999998778
24,2,25149.0247325199,0.370999999999185
24,3,21179.99805248,0.374000000003434
24,4,19458.0659827622,0.372999999999593
24,5,13597.6801672643,0.366000000001804
24,6,14588.7686418734,0.370000000002619
24,7,12090.073016072,0.364999999997963
24,8,8720.82909729292,0.313000000001921
24,9,10050.2936421802,0.312999999994645
24,10,10808.893404435,0.310000000004948
24,11,23650.179879516,0.290000000000873
24,12,15193.5413850836,0.29599999999482
24,13,10956.2063152573,0.300999999999476
24,14,7529.19251146753,0.363000000004831
24,15,10902.6297024848,0.296999999998661
24,16,9805.71544360678,0.294000000001688
24,17,8944.52647031749,0.302999999999884
24,18,11368.0064890874,0.350999999995111
24,19,7859.45247540857,0.364000000001397
24,20,8263.87855069124,0.364000000001397
24,21,6729.20647272304,0.358000000000175
24,22,6558.4322768237,0.36200000000099
24,23,18982.8712073259,0.364999999997963
24,24,11686.8617132218,0.315999999998894
24,25,10287.7581357273,0.366000000001804
24,26,9256.60604374921,0.352000000006228
24,27,8733.84415601536,0.333999999995285
24,28,10880.9186163863,0.312000000005355
24,29,10236.6647775054,0.313999999998487
24,30,8706.2629427534,0.326999999997497
25,1,23344.008468909,0.413000000000466
25,2,15683.4143350141,0.309000000001106
25,3,16024.0803231567,0.290999999997439
25,4,15553.3025136283,0.307999999997264
25,5,7854.25029421197,0.288999999997031
25,6,9660.16194777242,0.303999999996449
25,7,6588.82920437187,0.344000000004598
25,8,5498.26693808584,0.388999999995576
25,9,8414.00668392328,0.332000000002154
25,10,12129.9573199318,0.313999999998487
25,11,23038.2146907058,0.311000000001513
25,12,19566.1404699459,0.347000000001572
25,13,10118.9566410347,0.320999999996275
25,14,8507.37576429264,0.348000000005413
25,15,11350.3223996114,0.35899999999674
25,16,7968.48953785038,0.39100000000326
25,17,6839.32710424277,0.377999999996973
25,18,9423.90635188781,0.378000000004249
25,19,9930.12835085106,0.381999999997788
25,20,9280.26185093917,0.381000000001222
25,21,7781.44725405432,0.377000000000407
25,22,6877.59227058952,0.379999999997381
25,23,20749.6152244633,0.385000000002037
25,24,6110.73347406179,0.377999999996973
25,25,7785.55649688629,0.379999999997381
25,26,9143.99058400329,0.380000000004657
25,27,6404.47674316943,0.326999999997497
25,28,6525.65434961362,0.36200000000099
25,29,16518.5169731465,0.35399999999936
25,30,11889.8135521705,0.385000000002037
26,1,24983.4641438594,0.3379999999961
26,2,17174.8826343138,0.374000000003434
26,3,19198.5079198771,0.354999999995925
26,4,18364.6665945651,0.389999999999418
26,5,11457.5662648675,0.38300000000163
26,6,13117.2038633325,0.381000000001222
26,7,9940.93518977367,0.379999999997381
26,8,10380.9350851767,0.38300000000163
26,9,11688.2932714089,0.38300000000163
26,10,12815.3509523237,0.379999999997381
26,11,21460.0608200032,0.336999999999534
26,12,17015.0916291348,0.372000000003027
26,13,13917.0082029131,0.353000000002794
26,14,10152.9560891708,0.38300000000163
26,15,13053.2951349774,0.333999999995285
26,16,10050.8080404012,0.312000000005355
26,17,8868.4349392128,0.309000000001106
26,18,8815.1295758583,0.285000000003492
26,19,9449.6088262559,0.312999999994645
26,20,8444.0028028943,0.332000000002154
26,21,7663.14443343122,0.292999999997846
26,22,7862.34651494378,0.368000000002212
26,23,19932.7713465376,0.375999999996566
26,24,9779.87096372292,0.374000000003434
26,25,12475.3805447165,0.377000000000407
26,26,10291.2893462782,0.377999999996973
26,27,8061.40013214402,0.323000000003958
26,28,9964.42373315482,0.311000000001513
26,29,14480.8452735516,0.303999999996449
26,30,8322.81758128693,0.341999999996915
27,1,29505.3778497953,0.364000000001397
27,2,24876.4681251099,0.374000000003434
27,3,21046.7896066499,0.398000000001048
27,4,18325.4501247574,0.390999999995984
27,5,11730.175653647,0.389999999999418
27,6,13614.5942275838,0.334000000002561
27,7,10012.5134561066,0.366000000001804
27,8,10585.3328419614,0.351999999998952
27,9,9073.66587951631,0.300999999999476
27,10,9796.91071169854,0.305000000000291
27,11,18856.6352629701,0.365000000005239
27,12,18586.4274498901,0.360999999997148
27,13,9360.19433509734,0.387000000002445
27,14,6614.73847504286,0.379999999997381
27,15,10537.4819187965,0.379000000000815
27,16,6892.6520259879,0.377000000000407
27,17,10940.8030877218,0.38300000000163
27,18,9458.55893756318,0.377999999996973
27,19,5969.1036428562,0.376000000003842
27,20,7405.12977387019,0.379999999997381
27,21,7607.25549810473,0.381000000001222
27,22,7729.0826532379,0.377999999996973
27,23,26204.9070478602,0.387000000002445
27,24,10504.1031139397,0.38799999999901
27,25,9268.63978635751,0.333999999995285
27,26,7957.65635195454,0.310000000004948
27,27,6309.64258670231,0.307000000000698
27,28,8187.58035184932,0.332999999998719
27,29,9860.71799768268,0.333000000005995
27,30,10494.0154866071,0.302999999999884
28,1,33427.3599150947,0.330999999998312
28,2,23059.4936596153,0.29599999999482
28,3,28556.7288215238,0.328000000001339
28,4,25965.8000847129,0.302999999999884
28,5,17364.3220189496,0.290999999997439
28,6,20936.9918239115,0.30000000000291
28,7,9745.41204384636,0.351999999998952
28,8,12303.6806695378,0.35899999999674
28,9,15443.3522891623,0.348000000005413
28,10,12775.5929717131,0.302999999999884
28,11,20009.7367538128,0.347999999998137
28,12,12588.0169816643,0.355999999999767
28,13,14075.0473801032,0.364999999997963
28,14,10339.0543572698,0.305000000000291
28,15,12529.3390534235,0.313000000001921
28,16,12512.1983430813,0.294000000001688
28,17,7949.34035559326,0.348999999994703
28,18,7599.54927958403,0.346000000005006
28,19,10729.2251654347,0.384999999994761
28,20,8758.36390653114,0.334000000002561
28,21,8933.82199247794,0.311999999998079
28,22,8371.01864995471,0.30800000000454
28,23,13232.5689508846,0.334999999999127
28,24,11159.3644508754,0.333999999995285
28,25,12997.4217466966,0.305000000000291
28,26,9477.35883032679,0.325000000004366
28,27,8982.08600046494,0.303999999996449
28,28,10795.5266669067,0.279999999998836
28,29,9176.64324351595,0.332000000002154
28,30,5896.15698464249,0.299999999995634
29,1,49413.5433100594,0.361000000004424
29,2,64699.1754604951,0.310999999994237
29,3,52269.2613206941,0.3379999999961
29,4,37836.17655386,0.261000000005879
29,5,31717.3698673786,0.30899999999383
29,6,47607.1932158865,0.304000000003725
29,7,26999.0359017838,0.294000000001688
29,8,24077.0724346611,0.312999999994645
29,9,23348.459457819,0.274000000004889
29,10,28164.8228491678,0.307999999997264
29,11,31931.8456449771,0.309999999997672
29,12,14588.8054282908,0.285000000003492
29,13,19609.5745034451,0.252000000000407
29,14,16752.0514958906,0.298999999999069
29,15,13993.9275824219,0.290000000000873
29,16,25884.1639600107,0.326000000000931
29,17,20976.7401367702,0.296999999998661
29,18,22716.7331164595,0.313999999998487
29,19,16323.3346791767,0.307000000000698
29,20,16701.4009160807,0.365999999994528
29,21,22418.6662482687,0.235000000000582
29,22,19613.7249033845,0.303999999996449
29,23,22107.9333165964,0.294000000001688
29,24,17199.1539373422,0.309000000001106
29,25,18299.0702410331,0.319999999999709
29,26,18530.9204477951,0.302999999999884
29,27,24199.5686011086,0.301999999996042
29,28,19171.1137970997,0.305000000000291
29,29,18779.5073172542,0.290000000000873
29,30,18204.2318959433,0.315999999998894
30,1,22206.5410075539,0.300999999999476
30,2,16972.8419320137,0.298999999999069
30,3,18054.8984678785,0.306000000004133
30,4,15091.463952852,0.303999999996449
30,5,10377.2930266005,0.300999999999476
30,6,10034.0682444242,0.296999999998661
30,7,7117.06990909034,0.298999999999069
30,8,9122.90120157314,0.309000000001106
30,9,10158.0821076732,0.301999999996042
30,10,8141.97137775978,0.307000000000698
30,11,19573.5159891745,0.306000000004133
30,12,19659.8290956077,0.300999999999476
30,13,8750.49000919669,0.288999999997031
30,14,8325.56404657796,0.313999999998487
30,15,11756.6775024839,0.312000000005355
30,16,6066.62157956089,0.301999999996042
30,17,7590.08966663108,0.283000000003085
30,18,9018.0426953896,0.292999999997846
30,19,7330.12829968273,0.307000000000698
30,20,7451.65122401625,0.307999999997264
30,21,6554.57749799634,0.319000000003143
30,22,6689.76155905415,0.360000000000582
30,23,22902.5659127095,0.311999999998079
30,24,8491.91291210838,0.353000000002794
30,25,9759.61666971059,0.294999999998254
30,26,8633.47645190131,0.291000000004715
30,27,7105.99334690513,0.309999999997672
30,28,7478.4111615561,0.258999999998196
30,29,12311.9213491562,0.313000000001921
30,30,10141.8101809,0.305000000000291
