Trial,Energy (J)
1,278.8267893177748
2,279.48647565741254
3,279.3123231802634
4,278.64334365907587
5,277.9073685702731
6,278.1861633031233
7,278.3331350503881
8,279.6377171765721
9,280.3712674240975
10,282.3315810519637
11,280.80876995718535
12,278.6622668257707
13,278.86051122529346
14,278.5908548577929
15,279.1034263550904
16,278.08164570110483
17,276.94529117688757
18,279.26910994294775
19,277.00893061433936
20,278.0712816775088
21,280.3812344538227
22,280.663816709768
23,278.89898376805826
24,277.58438629174776
25,278.73696417686085
26,278.82441148311955
27,280.52227424988075
28,278.7534193547443
29,278.03531738606387
30,276.2763171452363
