Trial,Energy (J)
1,348.3530896659777
2,347.322605417054
3,360.9238985085111
4,352.76258695595607
5,354.64761246799435
6,345.3241302824232
7,350.7916402285639
8,350.0577555766052
9,346.9323451902217
10,343.9753580954374
11,358.99551306888867
12,353.19132420473255
13,353.3553982040844
14,351.1643675509651
15,357.1396735503889
16,342.85986473223
17,349.82975923501584
18,358.2651791847122
19,349.05317756489603
20,347.81628924172134
21,352.5150740159334
22,350.7203948844779
23,353.68657261188343
24,351.5067198524225
25,358.6999849263259
26,341.78157123058213
27,340.8132316507698
28,351.9543161723171
29,344.0469063953817
30,351.16727824408275
