App - Financius
Scenario - write_transactions
Length - 1sec
Measure - EuclideanDistance
Before Version - 0.12.1
After Version - 0.13.0


"Before.Trace.ID1","Before.Trace.ID2","Difference","Runtime"
1,2,3384.64998950044,0.00100000000384171
1,3,2988.19668630221,0.00099999998928979
1,4,3227.50443895911,0
1,5,2975.35924793237,0.00100000000384171
1,6,3695.18798126439,0.00100000000384171
1,7,3542.06926809676,0.00100000000384171
1,8,3560.92309395895,0
1,9,2551.63024014954,0.00099999998928979
1,10,3099.30096359297,0.00100000000384171
1,11,2847.19143124319,0
1,12,3721.38435529024,0
1,13,3711.31300907173,0.00100000000384171
1,14,3151.54277402562,0.00100000000384171
1,15,3833.98081813578,0
1,16,3400.96765430553,0.00099999998928979
1,17,2354.24199803312,0.00100000000384171
1,18,3549.37754306336,0
1,19,3098.9915008495,0.00100000000384171
1,20,3356.36374910275,0.00100000000384171
1,21,3775.40026477096,0
1,22,3352.8307702567,0.00099999998928979
1,23,2735.87326372338,0.00100000000384171
1,24,2945.1455101986,0
1,25,2558.82327373458,0.00100000000384171
1,26,3082.61432838561,0.00100000000384171
1,27,3568.48541631516,0
1,28,4250.85619846751,0.00099999998928979
1,29,2826.34735400296,0.00100000000384171
1,30,2277.62240556054,0
2,3,2448.14049702031,0.00100000000384171
2,4,2896.0566932741,0.00100000000384171
2,5,2504.53062035746,0
2,6,2705.07377480311,0
2,7,2829.75341208849,0.00100000000384171
2,8,1165.41916129256,0
2,9,1925.99892808586,0
2,10,1219.07329764414,0.00099999998928979
2,11,2615.29518320662,0
2,12,3170.65728288495,0
2,13,2549.83656561879,0.00100000000384171
2,14,2530.18314526148,0
2,15,2186.34920256492,0.00100000000384171
2,16,2346.31670787488,0.00099999998928979
2,17,2472.41819660811,0
2,18,1806.56550716866,0.00100000000384171
2,19,1498.71196408525,0.00100000000384171
2,20,2648.1270114438,0
2,21,2302.42927994534,0
2,22,1943.41369517733,0.00099999998928979
2,23,2706.37143297661,0.00100000000384171
2,24,3010.52914701389,0
2,25,3452.7417628897,0.00100000000384171
2,26,1923.70070595347,0.00100000000384171
2,27,2575.43686058793,0
2,28,3306.01451083054,0.00099999998928979
2,29,2818.71623546542,0.00100000000384171
2,30,2498.29061445236,0
3,4,2923.03942283758,0.00100000000384171
3,5,1985.67423948636,0.00100000000384171
3,6,1362.46605099525,0
3,7,2405.24198596802,0.00099999998928979
3,8,2069.23300005957,0.00100000000384171
3,9,1569.88107859128,0
3,10,1981.23340325872,0
3,11,1551.04581779978,0.00099999998928979
3,12,3056.17526376112,0.0110000000131549
3,13,2223.16166200143,0
3,14,2278.50105375942,0.00099999998928979
3,15,2449.59434715071,0.00100000000384171
3,16,2027.55004620266,0.00100000000384171
3,17,1990.10028508444,0
3,18,2627.33808230958,0.00100000000384171
3,19,2667.41740992843,0.00099999998928979
3,20,2017.1849865487,0
3,21,2139.98663752077,0.00100000000384171
3,22,2210.19015570124,0.00100000000384171
3,23,1853.04865983278,0
3,24,1930.95244117019,0.00099999998928979
3,25,3370.79288533023,0.00100000000384171
3,26,2413.99741133035,0
3,27,3067.70726589397,0.00100000000384171
3,28,3790.60318221147,0.00100000000384171
3,29,2745.71701850706,0
3,30,2413.79201744854,0.00099999998928979
4,5,3644.45144332349,0.00100000000384171
4,6,3441.73792833517,0
4,7,2953.0600022554,0.00100000000384171
4,8,2779.02333989599,0.00100000000384171
4,9,2861.62553129366,0
4,10,2871.76213133134,0.00099999998928979
4,11,2837.36163608139,0.00100000000384171
4,12,1868.09519927839,0
4,13,3654.04669608153,0.00100000000384171
4,14,3712.68172500279,0.00100000000384171
4,15,2860.88230685581,0
4,16,2936.84941350104,0.00099999998928979
4,17,3076.83378535295,0.00100000000384171
4,18,3633.74333652175,0
4,19,3401.48473938217,0.00100000000384171
4,20,2457.02211410626,0.00099999998928979
4,21,3869.34731579652,0
4,22,3890.73521004347,0.00100000000384171
4,23,2444.35241103336,0.00100000000384171
4,24,2498.78735195571,0
4,25,3020.27376488118,0.00100000000384171
4,26,1724.00571068009,0.00099999998928979
4,27,2614.0424201902,0
4,28,2591.90531099049,0.00100000000384171
4,29,2964.17045101582,0.00100000000384171
4,30,2726.48730589775,0
5,6,1739.02887828568,0.00100000000384171
5,7,2165.90575216338,0.00099999998928979
5,8,2369.99230407616,0
5,9,1601.46975447885,0
5,10,1844.73033123477,0.00100000000384171
5,11,2382.86639614055,0.00100000000384171
5,12,4002.72064745879,0
5,13,1874.07324242184,0.00099999998928979
5,14,1668.78033711692,0.00100000000384171
5,15,2706.12936993193,0
5,16,2510.09803768382,0.00100000000384171
5,17,2148.88439995751,0.00100000000384171
5,18,2918.63286899229,0.00999999999476131
5,19,2226.12555950392,0.00100000000384171
5,20,2935.77501087317,0.00099999998928979
5,21,2643.07648684771,0
5,22,2242.45050097643,0
5,23,2100.53846162357,0.00100000000384171
5,24,2324.30128669375,0.00100000000384171
5,25,2979.01656956614,0
5,26,3198.90940798476,0.00099999998928979
5,27,3634.93609026973,0.00100000000384171
5,28,4196.64468422018,0
5,29,2739.24143671874,0.00100000000384171
5,30,2975.46162846956,0.00100000000384171
6,7,2281.48075904023,0
6,8,2268.87151514007,0.00099999998928979
6,9,1931.54991791515,0.00100000000384171
6,10,2103.907386061,0
6,11,1983.6027488521,0.00100000000384171
6,12,3574.11340021123,0.00099999998928979
6,13,1841.59887652065,0
6,14,2256.45499498792,0.00100000000384171
6,15,2466.74443165812,0.00100000000384171
6,16,2231.91323297801,0
6,17,2508.68026273581,0.00100000000384171
6,18,2992.08714387649,0.00099999998928979
6,19,2913.92021770574,0
6,20,2341.76455989878,0.00100000000384171
6,21,2293.68705900934,0.00100000000384171
6,22,2413.70063080144,0
6,23,2191.78181587159,0.00100000000384171
6,24,2281.89264094204,0.00099999998928979
6,25,3808.1790290813,0
6,26,2992.99643629692,0.00100000000384171
6,27,3684.66739508978,0.00100000000384171
6,28,4253.49022500155,0
6,29,3217.19924192256,0.00100000000384171
6,30,3179.12877681415,0.00099999998928979
7,8,2391.58569963189,0
7,9,2424.42372190252,0.00100000000384171
7,10,2243.10913407885,0.00100000000384171
7,11,2270.402459328,0
7,12,3172.13525191274,0.00100000000384171
7,13,1949.0613568209,0.00099999998928979
7,14,2477.71116120452,0
7,15,1999.90172496431,0.00100000000384171
7,16,2511.76255179503,0.00100000000384171
7,17,2727.98755247424,0
7,18,3334.74186940134,0.00099999998928979
7,19,2904.22334443048,0.00100000000384171
7,20,2816.22288360163,0
7,21,3294.45593653733,0
7,22,3215.89146871403,0.00100000000384171
7,23,1952.54399309915,0.00099999998928979
7,24,1780.97377089332,0
7,25,2976.73757538193,0.00100000000384171
7,26,2889.95056017201,0.00100000000384171
7,27,3422.58729651351,0
7,28,3141.06554209968,0.010999999998603
7,29,2892.83401990508,0.00100000000384171
7,30,3296.29802906386,0
8,9,1973.31687817701,0
8,10,1108.97155946602,0.00100000000384171
8,11,2338.62170081504,0.00100000000384171
8,12,2756.90763024385,0
8,13,2103.47683222341,0.00100000000384171
8,14,2324.21992200113,0.00099999998928979
8,15,1810.35413073743,0
8,16,1879.85381035386,0.00100000000384171
8,17,2514.37388971522,0.00100000000384171
8,18,2038.49313773067,0
8,19,2086.5595051127,0.00100000000384171
8,20,2226.06400185704,0.00099999998928979
8,21,2414.02420438057,0
8,22,2096.89250270716,0.00100000000384171
8,23,2426.12094771542,0.00100000000384171
8,24,2504.13267252664,0
8,25,3526.42655319344,0.00100000000384171
8,26,1792.74191743303,0.00099999998928979
8,27,2475.14537864072,0
8,28,3001.63241129978,0.00100000000384171
8,29,2881.9400528731,0.00100000000384171
8,30,2519.61462628356,0
9,10,1527.40840588287,0.00099999998928979
9,11,1836.71777706899,0.00100000000384171
9,12,3365.76529357823,0
9,13,2270.62115712712,0.00100000000384171
9,14,1927.04824253339,0.00100000000384171
9,15,2540.65353443178,0
9,16,2326.05996354497,0.00099999998928979
9,17,1843.58567662676,0.00100000000384171
9,18,2492.10316257737,0
9,19,1839.12987026821,0.00100000000384171
9,20,2245.05021157914,0.00100000000384171
9,21,2261.87152740178,0
9,22,1904.24491451891,0.00099999998928979
9,23,2023.38125071172,0.00100000000384171
9,24,2233.9306429106,0
9,25,2754.94676675638,0.00100000000384171
9,26,2335.19783430935,0.00100000000384171
9,27,3133.51615191257,0
9,28,3855.68912048855,0.00099999998928979
9,29,2266.45230581063,0.00100000000384171
9,30,2282.42793294966,0
10,11,2252.71593824326,0
10,12,3039.93401975038,0.00100000000384171
10,13,2004.95350035667,0.00099999998928979
10,14,1860.89285791573,0
10,15,2054.44504224681,0.00100000000384171
10,16,1689.07866103835,0.00100000000384171
10,17,2360.80717467532,0
10,18,2215.96965761656,0.00099999998928979
10,19,1823.35711157321,0.00100000000384171
10,20,2323.97735234054,0
10,21,2495.09363743947,0.00100000000384171
10,22,1918.73249983317,0.010999999998603
10,23,2135.52906645753,0
10,24,2306.82026898825,0
10,25,3174.51232352932,0.00099999998928979
10,26,2002.33833207934,0.00100000000384171
10,27,2740.30450216554,0
10,28,3410.98584013491,0.00100000000384171
10,29,2722.28758818137,0.00100000000384171
10,30,2490.56105850147,0
11,12,2790.43707022868,0.00099999998928979
11,13,1936.58007813216,0.00100000000384171
11,14,2468.39485546172,0
11,15,2331.71954093543,0.00100000000384171
11,16,2468.14256499954,0.00100000000384171
11,17,1979.08078102682,0
11,18,2785.95330396403,0.00099999998928979
11,19,2840.09724441955,0.00100000000384171
11,20,1693.56961069769,0
11,21,2302.64237625208,0.00100000000384171
11,22,2320.42679249082,0.00100000000384171
11,23,2038.69716634596,0
11,24,2006.05079459008,0.00099999998928979
11,25,3233.65007726289,0.00100000000384171
11,26,2272.83400096297,0
11,27,3306.06040215572,0.00100000000384171
11,28,3601.80047355307,0.00100000000384171
11,29,2595.51652229575,0
11,30,2186.89190489891,0.00099999998928979
12,13,3494.82412070401,0.00100000000384171
12,14,4058.4902056596,0
12,15,2683.14027601362,0.00100000000384171
12,16,2523.92217006032,0.00099999998928979
12,17,3350.96345423229,0
12,18,3703.75388975631,0.00100000000384171
12,19,4048.26478218249,0.00100000000384171
12,20,2264.85761555323,0
12,21,3909.57419450877,0.00100000000384171
12,22,3985.30650363887,0.00099999998928979
12,23,2723.31653145106,0
12,24,2606.26500524755,0.00100000000384171
12,25,3884.47354942254,0.00100000000384171
12,26,1805.70453544934,0
12,27,2956.88474209771,0.00100000000384171
12,28,2731.69755911869,0.00099999998928979
12,29,3728.69113610517,0
12,30,2787.82655607961,0
13,14,2131.53325733064,0.00100000000384171
13,15,2141.88331880925,0.00100000000384171
13,16,2365.40805116333,0
13,17,2619.07578633566,0.00099999998928979
13,18,2838.81394357959,0.00100000000384171
13,19,2847.97493809868,0
13,20,2462.83877085697,0.00100000000384171
13,21,2644.02539740775,0.00100000000384171
13,22,2378.67999052652,0
13,23,2441.91030577729,0.00099999998928979
13,24,2274.31480614986,0.00100000000384171
13,25,3553.1917525434,0.00999999999476131
13,26,2925.97175595638,0.00100000000384171
13,27,3610.54123936528,0.00100000000384171
13,28,3748.27450064995,0.00100000000384171
13,29,3139.62815319137,0
13,30,3028.12347489307,0.00099999998928979
14,15,3103.10112231596,0.00100000000384171
14,16,2700.77773216278,0
14,17,2761.81990356164,0.00100000000384171
14,18,3018.54119732419,0.00100000000384171
14,19,2140.81047199889,0
14,20,2856.44371756998,0.00099999998928979
14,21,3092.28370010297,0.00100000000384171
14,22,2188.30520677622,0
14,23,2386.0739637186,0.00100000000384171
14,24,2389.53111566115,0.00099999998928979
14,25,3025.3986067885,0
14,26,3067.78919054519,0.00100000000384171
14,27,3307.06626514791,0.00100000000384171
14,28,3930.23182259141,0
14,29,2378.83697227791,0.00100000000384171
14,30,2975.18117906356,0.00099999998928979
15,16,2269.53098573327,0
15,17,2765.27543267486,0.00100000000384171
15,18,2732.81901653627,0.00100000000384171
15,19,2871.47801865919,0
15,20,2672.87007645134,0.00100000000384171
15,21,2752.34790813688,0.00099999998928979
15,22,3008.03180334056,0
15,23,2615.89924565233,0.00100000000384171
15,24,2514.62860583459,0.00100000000384171
15,25,3569.16229786524,0
15,26,2435.67632024405,0.00100000000384171
15,27,3307.37345205787,0.00099999998928979
15,28,3177.77132223392,0
15,29,3449.78062080806,0.00100000000384171
15,30,3065.51370045083,0.00100000000384171
16,17,2859.18345503431,0
16,18,2961.10862338448,0.00099999998928979
16,19,3032.24082856878,0.00100000000384171
16,20,2227.81088750336,0
16,21,3113.01188615806,0.00100000000384171
16,22,2743.05311876708,0.00100000000384171
16,23,2023.635927062,0
16,24,2047.29398449369,0
16,25,3692.90350105574,0.00100000000384171
16,26,2336.49592236578,0.00100000000384171
16,27,3094.56950107227,0
16,28,3618.42862760589,0.00100000000384171
16,29,3483.89022617347,0.00099999998928979
16,30,2787.26635164838,0
17,18,2631.75016034788,0.00100000000384171
17,19,2439.29685912333,0.00100000000384171
17,20,2555.51323144984,0
17,21,2264.44716024512,0.00100000000384171
17,22,2357.75789912542,0.00099999998928979
17,23,2230.1734547264,0
17,24,2559.87554026506,0.010999999998603
17,25,2888.93117328199,0.00100000000384171
17,26,2625.01022451055,0
17,27,3040.14813347341,0
17,28,3599.51570846727,0.00100000000384171
17,29,2334.56161017398,0.00099999998928979
17,30,1824.07375258428,0
18,19,2198.46554992798,0.00100000000384171
18,20,3193.32438724983,0.00100000000384171
18,21,1927.88286070956,0
18,22,1735.92724648141,0.00100000000384171
18,23,3357.77151879523,0.00099999998928979
18,24,3510.05127321292,0
18,25,4107.61534996926,0.00100000000384171
18,26,2560.69531086682,0.00100000000384171
18,27,2967.77037092917,0
18,28,3919.20991579708,0.00100000000384171
18,29,3307.84050237791,0.00099999998928979
18,30,2483.81675337405,0
19,20,3274.92585167269,0.00100000000384171
19,21,2581.77787726966,0.00100000000384171
19,22,1933.32194978728,0
19,23,2801.00295758983,0.00099999998928979
19,24,3219.88142610419,0.00100000000384171
19,25,3057.33603662181,0
19,26,2748.81765856782,0.00100000000384171
19,27,2973.33790867644,0.00100000000384171
19,28,3734.34824645977,0
19,29,2365.68750567603,0.00099999998928979
19,30,2754.89988995398,0.00100000000384171
20,21,2869.38516228498,0
20,22,2724.18440835169,0.00100000000384171
20,23,2251.28003600393,0.00100000000384171
20,24,2136.07704331506,0
20,25,3631.66102612439,0.00099999998928979
20,26,1841.74642591944,0.00100000000384171
20,27,3016.28271318211,0
20,28,3362.8124621699,0.00100000000384171
20,29,2887.78004125591,0.00100000000384171
20,30,2402.17514332801,0
21,22,1661.78971521847,0.00099999998928979
21,23,3233.78367222901,0.00100000000384171
21,24,3523.74298918374,0
21,25,4434.14219697938,0.00100000000384171
21,26,2987.69529222757,0.00099999998928979
21,27,3782.87521095503,0
21,28,4514.33529910423,0
21,29,3465.70614064576,0.00100000000384171
21,30,2891.53570713001,0.00100000000384171
22,23,2973.04416842915,0
22,24,3200.06245768272,0.00099999998928979
22,25,4002.68698680725,0.00100000000384171
22,26,2843.30067745865,0
22,27,3381.87164707389,0.00100000000384171
22,28,4321.24602142932,0.00100000000384171
22,29,2974.75349071321,0
22,30,2492.87353812159,0.00099999998928979
23,24,1396.61694065785,0.010999999998603
23,25,2686.37655772977,0
23,26,2456.53514378675,0.00100000000384171
23,27,3021.06916447634,0.00100000000384171
23,28,3236.6141697948,0.00100000000384171
23,29,2579.32544286552,0
23,30,2567.91503334276,0.00099999998928979
24,25,2616.97414414481,0.00100000000384171
24,26,2466.12208642081,0
24,27,2938.54614128172,0.00100000000384171
24,28,3078.23223538421,0.00100000000384171
24,29,2636.30393884436,0
24,30,2578.41162970208,0.00099999998928979
25,26,3311.40557197614,0.00100000000384171
25,27,3293.41945101777,0
25,28,3284.69700835706,0.00100000000384171
25,29,2092.75492359758,0.00100000000384171
25,30,2932.71223712394,0
26,27,2018.82346431747,0.00099999998928979
26,28,2635.99993897125,0.00100000000384171
26,29,2756.77253213638,0
26,30,2002.3532278652,0.00100000000384171
27,28,2179.51775595761,0.00100000000384171
27,29,2572.42501542935,0
27,30,2319.76201986253,0.00099999998928979
28,29,2968.74430960232,0.00100000000384171
28,30,3179.90219366489,0
29,30,2367.06229674691,0.00100000000384171


"After.Trace.ID","Before.Trace.ID","Difference","Runtime"
1,1,3222.57974971137,0.00099999998928979
1,2,2895.96398192912,0.00100000000384171
1,3,2936.8313880241,0.00100000000384171
1,4,3109.33527438466,0
1,5,3048.92964690663,0.00099999998928979
1,6,3367.6724191953,0.00100000000384171
1,7,2701.97600794278,0
1,8,2979.79426085697,0
1,9,2922.19198078721,0.00100000000384171
1,10,3065.29016109494,0.00099999998928979
1,11,2669.02902467771,0
1,12,3472.85834916277,0.00100000000384171
1,13,3089.38039527004,0.00100000000384171
1,14,3416.57018305486,0
1,15,2937.87033793231,0.00100000000384171
1,16,3620.85096942427,0.00099999998928979
1,17,2114.72813139514,0
1,18,2884.20254424085,0.00100000000384171
1,19,2832.47941783451,0.00100000000384171
1,20,3327.14529530341,0
1,21,2989.35355122011,0.00100000000384171
1,22,3190.80141207411,0.00099999998928979
1,23,2589.91739964285,0
1,24,3019.5114793277,0.00100000000384171
1,25,3142.96555624586,0.00100000000384171
1,26,2877.2868007448,0
1,27,3095.39629367443,0
1,28,3021.74040759088,0.00099999998928979
1,29,2637.26206858932,0.00100000000384171
1,30,2612.80613770577,0
2,1,2748.07413643021,0.00100000000384171
2,2,2499.08570009976,0.00099999998928979
2,3,1988.63121238508,0
2,4,2925.99845515678,0.0110000000131549
2,5,1888.44353947288,0.00099999998928979
2,6,2120.18605121077,0.00100000000384171
2,7,2050.92022251163,0
2,8,2344.39613568054,0.00100000000384171
2,9,1637.39707681724,0.00100000000384171
2,10,2104.4011337619,0
2,11,1507.8117309582,0.00099999998928979
2,12,3281.45197205777,0.00100000000384171
2,13,1972.64936563071,0
2,14,2058.1132374264,0.00100000000384171
2,15,2436.78896025688,0.00099999998928979
2,16,2845.62155438938,0
2,17,1990.07612527648,0.00100000000384171
2,18,2997.93132552247,0.00100000000384171
2,19,2426.6600285373,0
2,20,2208.84439136605,0.00100000000384171
2,21,2580.69269830837,0.00099999998928979
2,22,2485.10459607776,0
2,23,2037.82181050226,0.00100000000384171
2,24,2150.75869327886,0.00100000000384171
2,25,2707.41850428468,0
2,26,2504.56201486532,0
2,27,3452.94423952529,0.00099999998928979
2,28,3565.19698222752,0
2,29,2181.22609887419,0
2,30,2586.49325918902,0.00100000000384171
3,1,2935.57354866977,0
3,2,3034.44337451676,0
3,3,2597.43553020393,0.00099999998928979
3,4,2411.57153921535,0
3,5,3200.97597060702,0.00100000000384171
3,6,3332.49921739906,0.00100000000384171
3,7,3169.28240491357,0
3,8,2915.55636513626,0.00100000000384171
3,9,2740.03374719313,0.00099999998928979
3,10,2718.60154996202,0
3,11,3110.44408292359,0
3,12,3052.01504527161,0.00100000000384171
3,13,3726.81760455526,0
3,14,2998.68310344298,0
3,15,3576.65839489921,0.00100000000384171
3,16,2808.74949570415,0.00100000000384171
3,17,3060.38594229537,0
3,18,3574.29904841456,0.00100000000384171
3,19,3086.67458785104,0.00099999998928979
3,20,3015.24741362017,0
3,21,3944.55424279067,0.00100000000384171
3,22,3499.10153498021,0.00100000000384171
3,23,2042.55409500176,0
3,24,2363.97877908954,0.00100000000384171
3,25,3042.55209742773,0.00099999998928979
3,26,2425.35676968072,0
3,27,2397.0988187898,0.00100000000384171
3,28,3199.99330458141,0.00100000000384171
3,29,2720.65119749436,0.00100000000384171
3,30,2712.35899278756,0
4,1,3246.15594818187,0.00099999998928979
4,2,1996.40275778155,0.010999999998603
4,3,1667.83966601416,0
4,4,2709.11294293725,0.00100000000384171
4,5,2098.83521513106,0.00100000000384171
4,6,1875.68404452051,0
4,7,1842.9256278861,0
4,8,1358.12293736186,0.00099999998928979
4,9,1749.75047232536,0.00100000000384171
4,10,1355.23372546444,0
4,11,1705.6759785906,0.00100000000384171
4,12,2708.74950826852,0.00100000000384171
4,13,1731.48557693319,0
4,14,1811.82962766479,0.00099999998928979
4,15,1967.3875758764,0.00100000000384171
4,16,1842.48300304994,0
4,17,2439.26725899468,0.00100000000384171
4,18,2536.00950473377,0.00099999998928979
4,19,2366.980549904,0
4,20,1882.4294812721,0.00100000000384171
4,21,2656.13474242814,0.00100000000384171
4,22,2203.31505555052,0
4,23,1923.99379451227,0.00100000000384171
4,24,1671.75883873645,0.00099999998928979
4,25,3149.21656662657,0
4,26,1900.39065955991,0.00100000000384171
4,27,2599.61738918967,0.00100000000384171
4,28,3073.03612194763,0
4,29,2487.34363413642,0.00100000000384171
4,30,2433.04356987327,0.00099999998928979
5,1,3222.67848775706,0
5,2,1707.71522761381,0.00100000000384171
5,3,1762.91261544228,0.00100000000384171
5,4,3002.91830358564,0
5,5,1552.07499165937,0.00100000000384171
5,6,1807.4455865437,0.00099999998928979
5,7,1893.47679079334,0
5,8,1642.70327450601,0.00100000000384171
5,9,1402.28129006444,0.00100000000384171
5,10,1418.01534305726,0
5,11,1999.62758979601,0.00100000000384171
5,12,3403.98268611787,0.00099999998928979
5,13,1844.56819052475,0
5,14,1828.78558828456,0.00100000000384171
5,15,2156.47906939499,0.00100000000384171
5,16,2423.8712516863,0
5,17,1910.5247456565,0
5,18,2335.9573172419,0.00100000000384171
5,19,1718.81199713462,0.00100000000384171
5,20,2460.95209804239,0
5,21,2143.92123253545,0.00100000000384171
5,22,1940.60757316938,0.00099999998928979
5,23,2036.25136192735,0
5,24,2256.40664137662,0.00100000000384171
5,25,3001.24413868542,0.00100000000384171
5,26,2443.65608493633,0
5,27,2909.09423860166,0.00100000000384171
5,28,3408.08551204417,0.00099999998928979
5,29,2299.42082212026,0.0100000000093132
5,30,2596.10347748082,0
6,1,3903.57315475092,0.00100000000384171
6,2,4565.79911502429,0.00100000000384171
6,3,3912.87070529015,0
6,4,4094.79619837824,0.00100000000384171
6,5,3833.68040541694,0.00099999998928979
6,6,4263.59361377876,0
6,7,3297.43660650513,0
6,8,4444.49511720545,0.00100000000384171
6,9,3929.3780777318,0
6,10,4246.09110216857,0
6,11,3791.47723938009,0.00099999998928979
6,12,4654.84107714878,0
6,13,4122.0752972358,0
6,14,3698.55859435365,0.00100000000384171
6,15,4579.11961808,0.00100000000384171
6,16,4592.75546862581,0
6,17,3798.33885443794,0.00099999998928979
6,18,4833.60534026428,0.00100000000384171
6,19,4110.42442195593,0
6,20,4436.14667186466,0.00100000000384171
6,21,4942.26853114608,0.00099999998928979
6,22,4630.02079204177,0
6,23,3016.82936702889,0.00100000000384171
6,24,3275.5370366221,0.00100000000384171
6,25,3230.62868791558,0
6,26,4317.84353778153,0.00100000000384171
6,27,4213.46632006391,0.00099999998928979
6,28,3946.31005870762,0
6,29,3124.6909753649,0.00100000000384171
6,30,4090.24929156619,0.00100000000384171
7,1,3169.65090225191,0
7,2,2585.42901227532,0.00100000000384171
7,3,2742.56652294372,0.00099999998928979
7,4,2322.94503930735,0
7,5,2952.97229049824,0.00100000000384171
7,6,3219.19606212181,0.00100000000384171
7,7,2280.6811074585,0
7,8,2533.67240165903,0.00100000000384171
7,9,2623.72626541337,0.00099999998928979
7,10,2678.54630234932,0
7,11,2589.37038084066,0.00100000000384171
7,12,3067.17387849057,0.00100000000384171
7,13,2979.13927197419,0
7,14,3151.31912353179,0.00100000000384171
7,15,2575.81441257344,0.00099999998928979
7,16,3341.16828781635,0
7,17,2523.63779763662,0.00100000000384171
7,18,2900.2816049638,0.00100000000384171
7,19,2614.72438910136,0
7,20,3124.80851562788,0
7,21,3297.75109618916,0.00100000000384171
7,22,3308.55709271828,0.00100000000384171
7,23,2401.7014963488,0
7,24,2532.33809105074,0.00100000000384171
7,25,2639.66350020631,0.00099999998928979
7,26,2354.1896064611,0.0100000000093132
7,27,2627.32504319416,0.00100000000384171
7,28,2549.74156567616,0.00099999998928979
7,29,2478.81704774796,0.00100000000384171
7,30,2638.12854494163,0
8,1,3174.63325260984,0.00100000000384171
8,2,2909.52504950599,0.00099999998928979
8,3,2294.07425216911,0
8,4,3814.22352908007,0.00100000000384171
8,5,1499.94572830556,0.00100000000384171
8,6,2183.89501965372,0
8,7,2125.30538253564,0.00100000000384171
8,8,2681.35545474016,0.00099999998928979
8,9,2216.91245598784,0
8,10,2301.4434560073,0.00100000000384171
8,11,2303.49634869255,0.00100000000384171
8,12,4035.11530551049,0
8,13,1591.71274606174,0.00100000000384171
8,14,1620.72790660683,0.00099999998928979
8,15,2941.25108799937,0
8,16,2810.46938021726,0.00100000000384171
8,17,2498.94464001959,0.00100000000384171
8,18,3133.97086456263,0
8,19,2556.68865403211,0.00100000000384171
8,20,3023.007449522,0.00099999998928979
8,21,3009.63442092946,0
8,22,2528.58706883686,0.00100000000384171
8,23,2213.57757626888,0.00100000000384171
8,24,2283.71477332836,0
8,25,2994.59195363838,0.00099999998928979
8,26,3286.16690424926,0.00100000000384171
8,27,3595.91820755365,0
8,28,3924.35666298199,0.00100000000384171
8,29,2619.47514813686,0.00100000000384171
8,30,3061.1822469108,0
9,1,3611.91552286094,0.00099999998928979
9,2,2615.17373548715,0.00100000000384171
9,3,2726.91719660888,0
9,4,2823.45255883853,0.00100000000384171
9,5,3218.27581187606,0.00100000000384171
9,6,3263.41668729475,0
9,7,2515.77950009165,0.00099999998928979
9,8,2396.79047613975,0.00100000000384171
9,9,2939.73190479008,0
9,10,2647.75536944909,0
9,11,2653.65710674833,0.00100000000384171
9,12,3008.90216171344,0.00099999998928979
9,13,2871.85742550055,0
9,14,2936.64041124221,0.00100000000384171
9,15,2861.77646225061,0.00100000000384171
9,16,3131.9749143933,0
9,17,2662.47752778465,0.00100000000384171
9,18,2739.04281105254,0.00099999998928979
9,19,2790.6584586864,0
9,20,2905.49712047134,0.00100000000384171
9,21,3275.35825043403,0.00100000000384171
9,22,3000.67156098193,0
9,23,2637.43730768288,0.0100000000093132
9,24,2563.27270707305,0.00100000000384171
9,25,3179.40219427102,0.00099999998928979
9,26,2321.80577212199,0
9,27,1986.00623228378,0.00100000000384171
9,28,2044.79497354614,0.00100000000384171
9,29,2345.16685090627,0
9,30,2413.35190797769,0.00100000000384171
10,1,3711.16786317336,0.00099999998928979
10,2,1996.74059530237,0
10,3,2613.08781964151,0
10,4,3263.11161687863,0.00100000000384171
10,5,2927.6762823154,0
10,6,2994.90339881239,0
10,7,2730.25024475375,0.00100000000384171
10,8,1988.60700608516,0
10,9,2523.76079559524,0
10,10,2195.54249372551,0.00100000000384171
10,11,2599.39358246606,0.00099999998928979
10,12,3498.16255174177,0
10,13,2707.16295174338,0.00100000000384171
10,14,2581.4702006691,0.00100000000384171
10,15,2692.77614788214,0
10,16,3051.17183626895,0.00100000000384171
10,17,2689.58511941354,0.00099999998928979
10,18,1885.43172147521,0
10,19,2047.06447320592,0.00100000000384171
10,20,3079.60015786748,0.00100000000384171
10,21,2582.86872687595,0
10,22,2170.29781082136,0.00100000000384171
10,23,2888.52907097935,0.00099999998928979
10,24,3013.7552568716,0
10,25,3528.2680310811,0.00100000000384171
10,26,2454.44369066649,0.00100000000384171
10,27,2540.24061335005,0
10,28,2995.28854581937,0.00099999998928979
10,29,2515.74378639496,0.00100000000384171
10,30,2534.44732528472,0
11,1,2902.97955011382,0.00100000000384171
11,2,1801.93520034477,0.00100000000384171
11,3,2784.41217766393,0
11,4,2702.30109508265,0.00099999998928979
11,5,2812.48086049461,0.00100000000384171
11,6,3165.65751034249,0
11,7,3029.79444874369,0.00100000000384171
11,8,2226.22035939854,0.00100000000384171
11,9,2077.55288502618,0
11,10,2098.4220006071,0.00099999998928979
11,11,2380.5643310799,0.00100000000384171
11,12,3197.56472318955,0
11,13,2881.7128360077,0
11,14,2797.08533864436,0.00100000000384171
11,15,2612.65102807339,0.00099999998928979
11,16,2966.48518173611,0
11,17,2340.88792171623,0.00100000000384171
11,18,2708.59458304149,0.00100000000384171
11,19,1900.03768097351,0
11,20,2603.66162952888,0.010999999998603
11,21,2821.36779947822,0.00100000000384171
11,22,2514.84363778073,0
11,23,2703.42383189869,0
11,24,3029.18349555225,0.00100000000384171
11,25,2935.04886440533,0.00100000000384171
11,26,2087.5960400859,0
11,27,3025.35235732652,0.00100000000384171
11,28,3288.76061577817,0.00099999998928979
11,29,2316.30031936356,0
11,30,2389.68721862762,0.00100000000384171
12,1,3325.47941889249,0.00100000000384171
12,2,2826.135728903,0
12,3,1946.99415670514,0.00100000000384171
12,4,2650.42832749898,0.00099999998928979
12,5,2879.10804853596,0
12,6,2550.50002022759,0.00100000000384171
12,7,2638.4728445622,0.00100000000384171
12,8,2603.43595422974,0
12,9,2482.63219776033,0.00099999998928979
12,10,2710.56695278674,0.00100000000384171
12,11,2118.38134528399,0
12,12,2966.24601196325,0.00100000000384171
12,13,2925.74797359303,0.00100000000384171
12,14,3000.79383468088,0
12,15,3042.23467190268,0.00099999998928979
12,16,3045.88525955602,0.00100000000384171
12,17,2108.34536266826,0
12,18,2945.08499352957,0.00100000000384171
12,19,2955.50022779147,0.00100000000384171
12,20,2415.6215649386,0
12,21,2634.32648213729,0.00099999998928979
12,22,2858.87671397981,0.00100000000384171
12,23,2110.12005589999,0
12,24,2468.4901446412,0.00100000000384171
12,25,3503.67517093039,0.00100000000384171
12,26,2325.39048907002,0
12,27,2664.89637922807,0.00099999998928979
12,28,3114.67189531078,0.00100000000384171
12,29,2463.17890485177,0
12,30,2456.17667091837,0.00100000000384171
13,1,3229.96837688445,0.00100000000384171
13,2,2242.60264596598,0
13,3,2781.69883286604,0.00099999998928979
13,4,3028.2412452799,0.00100000000384171
13,5,3378.60537302185,0.00100000000384171
13,6,3491.04607596417,0
13,7,3749.82551108282,0.00099999998928979
13,8,2413.08365497493,0.00100000000384171
13,9,2798.44361628452,0
13,10,2602.55165786829,0.00100000000384171
13,11,3071.27712024755,0.00100000000384171
13,12,3187.26646126025,0
13,13,3535.83207361974,0.00099999998928979
13,14,3409.92364318849,0.00100000000384171
13,15,3303.23713783147,0
13,16,3140.74429958481,0.00100000000384171
13,17,2396.7795384877,0.00100000000384171
13,18,2099.60339791154,0.00100000000384171
13,19,2706.49433058239,0
13,20,2960.48507699391,0.00099999998928979
13,21,2804.63023062288,0.00100000000384171
13,22,2626.41772365418,0
13,23,3172.73478820756,0
13,24,3337.27272201386,0.00100000000384171
13,25,3756.51142392591,0.00099999998928979
13,26,2033.7406513694,0
13,27,1860.20215821207,0.00100000000384171
13,28,3225.22766422722,0.00100000000384171
13,29,2881.577559237,0
13,30,1839.22904400686,0.00100000000384171
14,1,4153.8242987525,0.00099999998928979
14,2,4204.34005836,0
14,3,3248.9030546027,0.00100000000384171
14,4,4204.24223799599,0.00100000000384171
14,5,3348.9525576277,0
14,6,3357.28789418584,0.00100000000384171
14,7,3411.91872598398,0.00099999998928979
14,8,3811.74276821171,0
14,9,3631.26253554162,0.00100000000384171
14,10,3562.23756154461,0.00100000000384171
14,11,3623.2673426368,0
14,12,4516.56782948029,0.00099999998928979
14,13,3541.07640557047,0.00100000000384171
14,14,2695.51324000469,0
14,15,4444.78077752172,0.00100000000384171
14,16,3579.75300009633,0.00100000000384171
14,17,3949.5188715413,0
14,18,4553.90276114256,0.00099999998928979
14,19,3980.77554434615,0.00100000000384171
14,20,3736.37813042715,0
14,21,4741.75939007889,0.00100000000384171
14,22,4047.39573726593,0.00100000000384171
14,23,2840.64688381828,0
14,24,2788.97514087281,0.00099999998928979
14,25,3742.39080488583,0.00100000000384171
14,26,3957.16545681608,0
14,27,3555.04661893227,0.00100000000384171
14,28,4130.31092313528,0.00100000000384171
14,29,3228.05307392718,0
14,30,3916.84551861838,0.00099999998928979
15,1,3564.01927159392,0.00100000000384171
15,2,1497.55096726636,0
15,3,2341.15764284038,0
15,4,2946.81622907893,0.00100000000384171
15,5,2705.29526574429,0.00099999998928979
15,6,2640.85178330692,0
15,7,2644.31304857966,0.00100000000384171
15,8,1534.83879175219,0.00100000000384171
15,9,2300.23736297966,0
15,10,1772.41810176528,0.00099999998928979
15,11,2425.19969634922,0.00100000000384171
15,12,2959.98849381825,0
15,13,2465.10846484547,0.00100000000384171
15,14,2631.60988376273,0.00100000000384171
15,15,2212.86350763634,0.00999999999476131
15,16,2336.64262229516,0
15,17,2486.81813055358,0.00099999998928979
15,18,1795.50386932913,0.00100000000384171
15,19,1951.01410128176,0
15,20,2647.72341152304,0.00100000000384171
15,21,2352.8382562685,0.00100000000384171
15,22,2053.20897819136,0
15,23,2471.41065467795,0.00099999998928979
15,24,2826.73476625176,0.00100000000384171
15,25,3565.34660396339,0
15,26,2048.39130497607,0
15,27,2538.9633087145,0.00100000000384171
15,28,2995.96586471961,0
15,29,2734.9944321895,0
15,30,2411.23979483125,0.00100000000384171
16,1,2555.06628604349,0
16,2,1955.42622727443,0
16,3,1863.8788416246,0.00100000000384171
16,4,3092.30818637129,0
16,5,2020.35398490502,0
16,6,2274.0017064917,0.00100000000384171
16,7,2807.48589822401,0
16,8,2177.58844604851,0
16,9,1374.00235943348,0.00100000000384171
16,10,1831.80913175177,0
16,11,1957.09049840248,0
16,12,3482.72133720229,0.00100000000384171
16,13,2567.07325422403,0
16,14,2210.05768717679,0
16,15,2894.08446717942,0.00099999998928979
16,16,2674.99077303267,0
16,17,1667.29600515196,0
16,18,2133.75638642337,0.00100000000384171
16,19,1830.33753261828,0
16,20,2356.3760605077,0
16,21,1841.758528385,0.00099999998928979
16,22,1567.0513543293,0
16,23,2399.8876273449,0
16,24,2757.44137410257,0.00100000000384171
16,25,3280.06260808682,0.00100000000384171
16,26,2338.9536960059,0
16,27,2986.55653241637,0.00099999998928979
16,28,3881.31162729474,0.00100000000384171
16,29,2257.404328009,0
16,30,2121.37643884445,0.00100000000384171
17,1,4215.88585030216,0.00100000000384171
17,2,3789.87258114554,0
17,3,3712.5601783411,0.00099999998928979
17,4,3154.86825629812,0.00100000000384171
17,5,3896.55804819334,0
17,6,3990.24436799269,0
17,7,2992.8726569159,0.00100000000384171
17,8,3684.80200902935,0.00099999998928979
17,9,3709.54622661127,0
17,10,3651.84514454791,0.00100000000384171
17,11,3562.87649054317,0.00100000000384171
17,12,3751.79851494841,0.00999999999476131
17,13,3802.45365369081,0.00100000000384171
17,14,3654.10742375523,0.00100000000384171
17,15,3891.6911438096,0
17,16,3903.32227549611,0
17,17,3850.55595725035,0.00100000000384171
17,18,4368.66884079996,0.00100000000384171
17,19,3730.14679520833,0
17,20,3827.29209016778,0.00100000000384171
17,21,4697.84733796079,0.00099999998928979
17,22,4342.62341749835,0
17,23,2754.66721800228,0.00100000000384171
17,24,2943.5668927177,0.00100000000384171
17,25,3282.90165844162,0
17,26,3447.10329091516,0.00099999998928979
17,27,3437.73821582309,0.00100000000384171
17,28,3034.53992822862,0
17,29,2978.25762771775,0.00100000000384171
17,30,3786.16021374023,0.00100000000384171
18,1,3061.278014513,0
18,2,2119.71447156131,0.00099999998928979
18,3,1900.10775700628,0.00100000000384171
18,4,2913.94006154097,0
18,5,2025.01421469962,0.00100000000384171
18,6,2217.87841760854,0.00100000000384171
18,7,2154.26184816831,0
18,8,2062.11523209334,0.00099999998928979
18,9,1728.26154409336,0.00100000000384171
18,10,1906.28895176203,0
18,11,1910.09942839529,0.00100000000384171
18,12,3469.69334998005,0.00100000000384171
18,13,2219.27009776783,0
18,14,1796.78508393176,0.00099999998928979
18,15,2739.17358391472,0.00100000000384171
18,16,2813.84469449491,0
18,17,2145.43440911711,0.00100000000384171
18,18,2440.63766778824,0.00099999998928979
18,19,1918.47218729188,0
18,20,2496.66786494246,0.00100000000384171
18,21,2410.0594224131,0.00100000000384171
18,22,2020.52456489873,0
18,23,2019.56436171843,0.00100000000384171
18,24,2234.4848784783,0.00099999998928979
18,25,2966.21196512911,0
18,26,2398.60331926514,0
18,27,2712.33772175036,0.00100000000384171
18,28,3268.19499584398,0.00100000000384171
18,29,1929.65832541601,0
18,30,2424.77689812576,0.00099999998928979
19,1,2731.53563021075,0.00100000000384171
19,2,1972.17317155379,0
19,3,2024.42548647664,0.00100000000384171
19,4,1983.98258267397,0.00100000000384171
19,5,2547.52895398151,0
19,6,2665.88466149494,0.00099999998928979
19,7,2392.65706391703,0.00100000000384171
19,8,1938.30774394033,0
19,9,1724.6101145838,0.00999999999476131
19,10,1833.04460446385,0.00100000000384171
19,11,1933.60024425619,0.00100000000384171
19,12,2418.59691916825,0
19,13,2569.86678150464,0.00099999998928979
19,14,2583.0130423457,0.00100000000384171
19,15,2423.76126160493,0
19,16,2262.34959270677,0
19,17,2137.74858584701,0.00100000000384171
19,18,2643.08499494734,0.00099999998928979
19,19,2256.076279794,0
19,20,2015.71124079558,0.00100000000384171
19,21,2800.93309319255,0.00100000000384171
19,22,2476.1719826102,0
19,23,1790.37114721258,0.00100000000384171
19,24,1926.77391846086,0.00099999998928979
19,25,2680.81776855001,0
19,26,1551.51945584478,0.00100000000384171
19,27,2455.79819698307,0.00100000000384171
19,28,2878.73513769834,0
19,29,2241.87803846825,0.00099999998928979
19,30,1923.21314356431,0.00100000000384171
20,1,3571.13295689477,0
20,2,3513.67265076079,0.00100000000384171
20,3,3006.21765483965,0.00100000000384171
20,4,3440.09311306393,0
20,5,3030.92993192179,0.00099999998928979
20,6,3338.05210353731,0.00100000000384171
20,7,2960.50930591092,0
20,8,3594.73879506857,0.00100000000384171
20,9,2837.03596550136,0.00100000000384171
20,10,3476.60522171924,0
20,11,3263.3564229071,0.00099999998928979
20,12,4410.45354558821,0.00100000000384171
20,13,3822.54069706056,0
20,14,3378.26384227913,0.00100000000384171
20,15,3799.11058436853,0.00100000000384171
20,16,4110.44187567783,0
20,17,2773.96320378996,0.00099999998928979
20,18,3808.38524994386,0.00100000000384171
20,19,2954.35389781925,0
20,20,3922.31694266491,0.00100000000384171
20,21,3618.98523972619,0.00099999998928979
20,22,3717.70272490654,0
20,23,2733.6303083891,0.00100000000384171
20,24,3247.28381854458,0.00100000000384171
20,25,3082.43928905544,0
20,26,3688.64128510208,0.00100000000384171
20,27,3700.38310231959,0.00099999998928979
20,28,3971.68929826601,0
20,29,2581.55503508067,0
20,30,3533.10321920834,0.00100000000384171
21,1,3608.21935913137,0.00100000000384171
21,2,2214.98737524516,0
21,3,2557.1682663594,0.00099999998928979
21,4,3458.90134812149,0.00100000000384171
21,5,2527.64670573049,0
21,6,2804.38953505346,0.010999999998603
21,7,2805.12841548614,0.00100000000384171
21,8,2451.30705058633,0
21,9,2364.52008616324,0
21,10,2491.47639906907,0.00099999998928979
21,11,2771.80636415426,0.00100000000384171
21,12,4031.17131900191,0
21,13,2940.93927186102,0.00100000000384171
21,14,2812.68636490116,0.00100000000384171
21,15,2907.51533645475,0
21,16,3462.98493925306,0.00099999998928979
21,17,2092.00807642396,0.00100000000384171
21,18,2498.50880795425,0
21,19,1876.26680764329,0.00100000000384171
21,20,3348.32741190546,0.00100000000384171
21,21,2281.35825820925,0
21,22,2420.10596108747,0.00099999998928979
21,23,2785.40342208973,0.00100000000384171
21,24,3242.90009312942,0
21,25,3412.66980388231,0.00100000000384171
21,26,2963.93687994569,0.00100000000384171
21,27,2990.42855560983,0
21,28,3527.07712247289,0.00099999998928979
21,29,2445.90588561027,0.00100000000384171
21,30,2834.17131223415,0
22,1,3080.36861258515,0.00100000000384171
22,2,3457.83334015007,0.00099999998928979
22,3,3981.72749746231,0
22,4,3237.18804717367,0.00100000000384171
22,5,4199.84732430538,0.00100000000384171
22,6,4747.33037600418,0
22,7,4196.10896675521,0.00100000000384171
22,8,3721.51259112602,0.00099999998928979
22,9,3704.69756842006,0
22,10,3657.88314600258,0.00100000000384171
22,11,3969.40655089147,0.00100000000384171
22,12,3889.80150175436,0
22,13,4592.83846481644,0.00100000000384171
22,14,3849.19649780068,0.00099999998928979
22,15,4350.01685928158,0
22,16,4202.56645123887,0.00100000000384171
22,17,3522.77143592947,0.00100000000384171
22,18,3655.98693924217,0
22,19,3320.12329434215,0
22,20,4121.99622178581,0.00099999998928979
22,21,4585.84312413464,0.00100000000384171
22,22,4085.35268231875,0
22,23,3558.93105307769,0.00100000000384171
22,24,3712.14039003485,0.00100000000384171
22,25,2976.40642233662,0
22,26,3023.64773134275,0.00099999998928979
22,27,2351.90754287924,0.00100000000384171
22,28,3092.98851888335,0
22,29,2699.40127349763,0.00100000000384171
22,30,2771.36024927236,0.00099999998928979
23,1,3196.59094201114,0
23,2,2233.36196768333,0
23,3,1962.83630056876,0.010999999998603
23,4,2525.72873692989,0.00100000000384171
23,5,2054.95009762521,0
23,6,2191.96157816217,0.00100000000384171
23,7,1635.84566712447,0.00099999998928979
23,8,2053.52888046924,0
23,9,1796.7404955119,0
23,10,1906.41673928387,0.00100000000384171
23,11,1943.41196380339,0.00100000000384171
23,12,2892.6842230347,0
23,13,2160.25338886351,0.00099999998928979
23,14,2394.55204928369,0.00100000000384171
23,15,2155.1562087162,0
23,16,2378.99171106352,0.00100000000384171
23,17,2306.63790670501,0.00100000000384171
23,18,2850.3797306507,0
23,19,2327.80649495513,0.00099999998928979
23,20,2415.75662749456,0.00100000000384171
23,21,2753.6573255031,0
23,22,2603.45509237506,0.00100000000384171
23,23,1463.58839196396,0.00100000000384171
23,24,1873.00866011063,0
23,25,2832.53779094634,0.00099999998928979
23,26,2317.95767038555,0.00100000000384171
23,27,3089.42565181797,0
23,28,3185.15074673266,0.00100000000384171
23,29,2507.54780714598,0.00100000000384171
23,30,2704.62564625287,0
24,1,3505.81841006936,0.00099999998928979
24,2,2078.12445071761,0.00100000000384171
24,3,2439.43756210908,0
24,4,3101.60465496403,0.00100000000384171
24,5,1938.44622436839,0.00099999998928979
24,6,2366.1658784897,0
24,7,1604.41132153254,0.00100000000384171
24,8,1904.30567533827,0.00100000000384171
24,9,2092.32850864543,0
24,10,1772.25372557655,0.00100000000384171
24,11,2228.18160559631,0.00099999998928979
24,12,3248.88981117272,0
24,13,1750.6829246324,0.00100000000384171
24,14,2383.30789906111,0.00100000000384171
24,15,1633.67217971199,0
24,16,2487.11280324057,0.00100000000384171
24,17,2513.77535203365,0.00099999998928979
24,18,2921.02684955404,0
24,19,2274.84280634755,0.00100000000384171
24,20,2798.78114121781,0.00100000000384171
24,21,2842.1201637961,0
24,22,2699.07111249282,0
24,23,2161.05696200407,0.00099999998928979
24,24,2313.52917142957,0.00100000000384171
24,25,2943.8344983607,0
24,26,2697.23370214355,0.00100000000384171
24,27,3447.99696626612,0.00100000000384171
24,28,3271.47155978985,0
24,29,2796.95694359605,0.00099999998928979
24,30,3060.27506545516,0.010999999998603
25,1,3816.56136055357,0
25,2,2920.68376782062,0
25,3,3009.52767044295,0.00100000000384171
25,4,3309.98464237057,0.00100000000384171
25,5,2886.90343620539,0
25,6,3166.5991236529,0.00099999998928979
25,7,2355.09925638658,0.00100000000384171
25,8,2561.96099387532,0
25,9,3133.34424659918,0.00100000000384171
25,10,2611.51369563059,0.00099999998928979
25,11,3136.07801263477,0
25,12,3517.61619628733,0.00100000000384171
25,13,2678.84831951328,0.00100000000384171
25,14,2596.38239665474,0
25,15,3043.10138890912,0.00100000000384171
25,16,2931.4044455079,0.00099999998928979
25,17,3103.65932318411,0
25,18,3389.25382945447,0.00100000000384171
25,19,2959.88150976675,0.00100000000384171
25,20,3266.83576367175,0
25,21,3896.87158193964,0.00100000000384171
25,22,3405.97828732116,0.00099999998928979
25,23,2516.13774746538,0
25,24,2398.88477349447,0.00100000000384171
25,25,3085.24028584019,0.00100000000384171
25,26,2929.20263169913,0
25,27,2371.81102934545,0.00100000000384171
25,28,2429.19708426836,0.00099999998928979
25,29,2548.01131298387,0
25,30,3101.22432533181,0.00100000000384171
26,1,3576.87781589961,0.00100000000384171
26,2,3093.50322376432,0
26,3,3084.84606507735,0.00100000000384171
26,4,4034.25919165551,0.00099999998928979
26,5,3091.36876935781,0
26,6,3439.25370745007,0.00100000000384171
26,7,3676.03515243287,0.00100000000384171
26,8,3499.45895798551,0
26,9,2977.30079376152,0.00099999998928979
26,10,3422.45809940422,0.00100000000384171
26,11,3359.84316115495,0
26,12,4652.21643507173,0.00100000000384171
26,13,3790.34637829621,0.00100000000384171
26,14,3662.0875731644,0.00099999998928979
26,15,3763.88573021454,0
26,16,4194.24076851441,0.00100000000384171
26,17,2261.70600862163,0.00100000000384171
26,18,2941.58907999635,0
26,19,2629.52157957155,0.00100000000384171
26,20,4024.03719924919,0.00099999998928979
26,21,2569.15036242976,0
26,22,3033.28828486914,0.00100000000384171
26,23,3376.4924424003,0.00100000000384171
26,24,3992.70302440858,0
26,25,3861.34824541246,0.00100000000384171
26,26,3691.12443338133,0.00099999998928979
26,27,3695.38831216511,0.010999999998603
26,28,4352.00556952316,0
26,29,3009.37151833453,0.00100000000384171
26,30,3227.597100073,0.00100000000384171
27,1,3285.44067156175,0
27,2,2403.16943086723,0.00100000000384171
27,3,2786.73356755129,0.00099999998928979
27,4,2982.22611027038,0
27,5,3005.24479287685,0
27,6,3339.37310534947,0.00100000000384171
27,7,3041.65370060808,0.00100000000384171
27,8,2529.07773612748,0
27,9,2534.94602956497,0.00099999998928979
27,10,2559.82990808433,0.00100000000384171
27,11,2707.58277312642,0
27,12,3560.66489640962,0.00100000000384171
27,13,3034.50709615764,0.00100000000384171
27,14,2623.05182939591,0
27,15,3349.93226910284,0.00099999998928979
27,16,3404.78484816791,0.00100000000384171
27,17,2485.13015860335,0
27,18,2758.27112595564,0.00100000000384171
27,19,2231.88421134914,0.00099999998928979
27,20,2919.00642829922,0
27,21,3166.88976969055,0.00100000000384171
27,22,2636.97669142931,0.00100000000384171
27,23,2697.02542980741,0
27,24,2821.28132853146,0.00100000000384171
27,25,2905.36662761835,0.00099999998928979
27,26,2409.01128575003,0
27,27,2128.71417954828,0.00100000000384171
27,28,2748.66259871228,0.00100000000384171
27,29,1690.85083035162,0
27,30,2243.64150641678,0.00100000000384171
28,1,3460.2749702054,0.00099999998928979
28,2,3477.18408981667,0
28,3,3541.00744110218,0.00100000000384171
28,4,3351.95363617562,0.00100000000384171
28,5,3492.9376498965,0
28,6,3990.38179166341,0.00100000000384171
28,7,3205.30565972032,0.00099999998928979
28,8,3690.84600727023,0
28,9,3149.75097086839,0.00100000000384171
28,10,3597.99109959881,0.00100000000384171
28,11,3348.19947630305,0
28,12,4365.44416035611,0.00099999998928979
28,13,3882.47990529322,0.00100000000384171
28,14,3387.57333730166,0
28,15,3942.98468071328,0
28,16,4409.44032088451,0.00100000000384171
28,17,3193.48143808834,0.00099999998928979
28,18,3710.22670620639,0
28,19,2845.65930229295,0.00100000000384171
28,20,4002.3090943403,0.00100000000384171
28,21,3927.2186325511,0
28,22,3743.0497964613,0.00100000000384171
28,23,3143.2726726409,0.00099999998928979
28,24,3451.71743196274,0
28,25,2922.72304787972,0
28,26,3464.91177344303,0.00100000000384171
28,27,3523.48007341634,0.00100000000384171
28,28,3613.47845330088,0
28,29,2326.92026046997,0.00100000000384171
28,30,3465.68227025432,0.00099999998928979
29,1,3173.37087153911,0
29,2,2761.86834388158,0.00100000000384171
29,3,2939.08209549516,0.00100000000384171
29,4,3666.78671074951,0
29,5,2387.42402824676,0.00100000000384171
29,6,3227.8458504396,0.00099999998928979
29,7,2489.84689307006,0
29,8,2802.22104384539,0.00100000000384171
29,9,2505.21393699973,0.00100000000384171
29,10,2511.20796116628,0
29,11,2894.88330430045,0.00100000000384171
29,12,4160.9469758447,0.00099999998928979
29,13,2765.03321370143,0
29,14,2125.14040485779,0.00100000000384171
29,15,3255.72670850294,0.00100000000384171
29,16,3444.89041599557,0
29,17,2945.54667540023,0.00100000000384171
29,18,3083.56981812678,0.00099999998928979
29,19,2184.40354834114,0
29,20,3691.90262288869,0.00100000000384171
29,21,3466.95064918071,0.00100000000384171
29,22,2889.08656961573,0
29,23,2564.33965235416,0.00099999998928979
29,24,2875.95203442624,0.00100000000384171
29,25,2820.47185093871,0
29,26,3232.57930838971,0.00100000000384171
29,27,3480.75664638453,0.00100000000384171
29,28,3707.30346738706,0
29,29,2493.65034693637,0.00099999998928979
29,30,3219.21931441358,0.00100000000384171
30,1,2051.08112791994,0
30,2,2608.066568299,0.00100000000384171
30,3,2938.29385172123,0.00100000000384171
30,4,2864.73357949241,0
30,5,2621.14870386402,0
30,6,3503.63915467173,0.00100000000384171
30,7,3017.4514817455,0.00100000000384171
30,8,2803.56906200485,0
30,9,2337.80851213338,0.00100000000384171
30,10,2472.80922910512,0.00099999998928979
30,11,2975.27763830889,0
30,12,3497.44256896092,0.00100000000384171
30,13,3332.02968430375,0.00100000000384171
30,14,2901.86520825503,0
30,15,3158.28457764152,0.00099999998928979
30,16,3137.1336002979,0.00100000000384171
30,17,2084.30197254025,0
30,18,3279.22823945095,0
30,19,2475.44720248666,0.00100000000384171
30,20,3164.73619731029,0.00999999999476131
30,21,3624.68754227094,0
30,22,3200.57026506527,0.00100000000384171
30,23,2564.41018821229,0.00099999998928979
30,24,2665.68152276363,0
30,25,1964.99638097139,0.00100000000384171
30,26,2674.77432958303,0.00100000000384171
30,27,2660.17763058533,0.00099999998928979
30,28,3175.55864045037,0
30,29,2197.86736795674,0.00100000000384171
30,30,2206.1912242581,0.00100000000384171
