App - SimpleCalendar
Scenario - make_events
Level - 10sec
Measure - DTWDistance
Test Statistic - Mann-Whitney U Test
Effect Size Measure - Simple Difference:Kerby
Alpha Level - 0.05


"Before.Version","After.Version","Diff","Direction","P.Value","Simple.Diff","Within.Diffs.Mean","Within.Diffs.SD","Between.Diffs.Mean","Between.Diffs.SD","Runtime"
"5379244","b2fe795",FALSE,NA,0,0.191,18019.308,8786.133,22297.622,12862.461,506.585
"8003feb","5379244",FALSE,NA,0.994,-0.085,19974.792,10685.694,18769.942,9914.805,510.538
"b2fe795","fd2ec79",FALSE,NA,0,0.154,17832.023,8746.716,20328.898,10474.703,505.549
