"Before.Trace.ID1","Before.Trace.ID2","Difference","Runtime"
1,2,41158.1278338528,0.150999999998021
1,3,41483.165104059,0.150999999998021
1,4,41326.2945182582,0.151000000005297
1,5,40600.1586819612,0.150999999998021
1,6,41626.872767874,0.150999999998021
1,7,40492.9421270812,0.150999999998021
1,8,41001.8459191449,0.151000000005297
1,9,41365.9857601208,0.149999999994179
1,10,41217.6451026856,0.150000000001455
1,11,41448.5992431667,0.150000000001455
1,12,41399.6256954538,0.150000000001455
1,13,40192.6063957864,0.151000000005297
1,14,41426.0745350097,0.150999999998021
1,15,41495.4467101396,0.150999999998021
1,16,41550.998293925,0.150999999998021
1,17,41368.7734618417,0.150000000001455
1,18,41457.4947866884,0.149999999994179
1,19,41222.0390011705,0.151000000005297
1,20,41442.9750415618,0.150999999998021
1,21,40661.3118357765,0.150999999998021
1,22,41416.096413979,0.151000000005297
1,23,40538.0183755715,0.150999999998021
1,24,41714.9745409474,0.150000000001455
1,25,41451.4508605508,0.150000000001455
1,26,41313.1780870556,0.150999999998021
1,27,40465.1056352973,0.150999999998021
1,28,41401.0831618232,0.151000000005297
1,29,41345.1736205332,0.150999999998021
1,30,41672.1892871433,0.150000000001455
2,3,41269.4206697297,0.150000000001455
2,4,42328.5552808866,0.150999999998021
2,5,40332.8969751816,0.151000000005297
2,6,41699.3617920508,0.150999999998021
2,7,40225.6804203016,0.150000000001455
2,8,40734.5842123653,0.150000000001455
2,9,41098.7240533412,0.150999999998021
2,10,41852.1770170422,0.150999999998021
2,11,41475.3143325352,0.151000000005297
2,12,41132.3639886742,0.150999999998021
2,13,39925.3446890068,0.150000000001455
2,14,41158.8128282301,0.150000000001455
2,15,41228.18500336,0.150999999998021
2,16,41615.9590232952,0.151000000005297
2,17,41127.5501932872,0.150999999998021
2,18,41190.2330799088,0.150000000001455
2,19,40954.7772943909,0.150000000001455
2,20,41325.8454956125,0.150000000001455
2,21,40394.050128997,0.151000000005297
2,22,41645.6472919164,0.150999999998021
2,23,40270.7566687919,0.150999999998021
2,24,42717.2353035758,0.150000000001455
2,25,42238.7178146681,0.150000000001455
2,26,42315.4388496841,0.150999999998021
2,27,40197.8439285177,0.151000000005297
2,28,42403.3439244517,0.150999999998021
2,29,41704.176948355,0.150999999998021
2,30,42674.4500497717,0.150999999998021
3,4,41437.5873541351,0.150000000001455
3,5,40775.7096258455,0.150000000001455
3,6,41738.1656037509,0.150999999998021
3,7,40668.4930709654,0.150999999998021
3,8,41177.3968630291,0.150999999998021
3,9,41541.5367040051,0.150000000001455
3,10,41328.9379385625,0.149999999994179
3,11,41559.8920790436,0.151000000005297
3,12,41575.1766393381,0.150999999998021
3,13,40368.1573396706,0.150999999998021
3,14,41601.625478894,0.150000000001455
3,15,41670.9976540239,0.149999999994179
3,16,41662.2911298019,0.151000000005297
3,17,41480.0662977186,0.150999999998021
3,18,41633.0457305727,0.150999999998021
3,19,41397.5899450548,0.150999999998021
3,20,41554.2678774387,0.150000000001455
3,21,40836.8627796608,0.149999999994179
3,22,41527.389249856,0.151000000005297
3,23,40713.5693194557,0.150999999998021
3,24,41826.2673768243,0.150000000001455
3,25,41562.7436964277,0.150000000001455
3,26,41424.4709229325,0.150999999998021
3,27,40640.6565791816,0.151000000005297
3,28,41512.3759977002,0.149999999994179
3,29,41456.4664564101,0.150000000001455
3,30,41783.4821230202,0.150999999998021
4,5,40501.063659587,0.150999999998021
4,6,41867.5284764562,0.151000000005297
4,7,40393.847104707,0.149999999994179
4,8,40902.7508967707,0.151000000005297
4,9,41266.8907377466,0.150999999998021
4,10,42020.3437014476,0.150999999998021
4,11,41643.4810169406,0.150000000001455
4,12,41300.5306730796,0.150000000001455
4,13,40093.5113734122,0.150999999998021
4,14,41326.9795126355,0.151000000005297
4,15,41396.3516877654,0.150000000001455
4,16,41784.1257077006,0.150999999998021
4,17,41295.7168776926,0.150999999998021
4,18,41358.3997643142,0.150999999998021
4,19,41122.9439787963,0.150000000001455
4,20,41494.0121800179,0.150999999998021
4,21,40562.2168134024,0.151000000005297
4,22,41813.8139763218,0.150999999998021
4,23,40438.9233531973,0.150000000001455
4,24,42910.6560739963,0.150999999998021
4,25,42406.8844990735,0.150999999998021
4,26,42508.8596201046,0.150000000001455
4,27,40366.0106129231,0.149999999994179
4,28,42596.7646948722,0.151000000005297
4,29,41872.3436327604,0.150999999998021
4,30,42867.8708201922,0.150000000001455
5,6,40801.6419092028,0.150999999998021
5,7,40586.6563215146,0.150999999998021
5,8,40668.5050422824,0.150000000001455
5,9,41060.6083380111,0.149999999994179
5,10,40392.4142440144,0.151000000005297
5,11,40623.3683844955,0.150999999998021
5,12,41015.3145565548,0.150000000001455
5,13,40286.3205902198,0.150000000001455
5,14,40747.5103305286,0.150999999998021
5,15,40934.2016236438,0.151000000005297
5,16,40725.7674352538,0.149999999994179
5,17,40543.5426031705,0.151000000005297
5,18,40804.9380867062,0.150999999998021
5,19,40788.2444067219,0.150000000001455
5,20,40617.7441828906,0.150000000001455
5,21,40755.0260302099,0.150999999998021
5,22,40590.8655553078,0.150999999998021
5,23,40604.3368852396,0.150000000001455
5,24,40889.7436822762,0.150000000001455
5,25,40626.2200018796,0.150999999998021
5,26,40487.9472283844,0.150000000001455
5,27,40558.8198297307,0.150000000001455
5,28,40575.8523031521,0.150999999998021
5,29,40519.942761862,0.150000000001455
5,30,40846.9584284721,0.150000000001455
6,7,40694.4253543228,0.151000000005297
6,8,41203.3291463865,0.149999999994179
6,9,41567.4689873624,0.150000000001455
6,10,41758.8790608836,0.150000000001455
6,11,41944.0592665564,0.150999999998021
6,12,41601.1089226954,0.150000000001455
6,13,40394.089623028,0.150000000001455
6,14,41627.5577622513,0.150999999998021
6,15,41696.9299373812,0.151000000005297
6,16,42084.7039573164,0.150000000001455
6,17,41596.2951273084,0.150999999998021
6,18,41658.97801393,0.150999999998021
6,19,41423.5222284121,0.150000000001455
6,20,41794.5904296336,0.150999999998021
6,21,40862.7950630181,0.150999999998021
6,22,41957.330372177,0.150000000001455
6,23,40739.5016028131,0.150000000001455
6,24,42256.2084991454,0.150999999998021
6,25,41992.6848187488,0.150000000001455
6,26,41854.4120452537,0.150000000001455
6,27,40666.5888625389,0.150999999998021
6,28,41942.3171200213,0.150999999998021
6,29,41886.4075787312,0.150000000001455
6,30,42213.4232453413,0.150999999998021
7,8,40561.2884874023,0.151000000005297
7,9,40953.3917831311,0.150000000001455
7,10,40285.1976891344,0.150999999998021
7,11,40516.1518296155,0.150999999998021
7,12,40908.0980016748,0.150000000001455
7,13,40252.9876346062,0.150999999998021
7,14,40640.2937756486,0.150999999998021
7,15,40826.9850687637,0.150000000001455
7,16,40618.5508803738,0.150000000001455
7,17,40436.3260482905,0.150999999998021
7,18,40697.7215318262,0.150000000001455
7,19,40681.0278518418,0.150999999998021
7,20,40510.5276280106,0.150999999998021
7,21,40721.6930745963,0.150000000001455
7,22,40483.6490004278,0.150999999998021
7,23,40497.1203303596,0.150999999998021
7,24,40782.5271273962,0.150000000001455
7,25,40519.0034469995,0.151000000005297
7,26,40380.7306735044,0.149999999994179
7,27,40525.4868741171,0.150000000001455
7,28,40468.635748272,0.150999999998021
7,29,40412.726206982,0.150000000001455
7,30,40739.7418735921,0.150000000001455
8,9,41434.332120442,0.150999999998021
8,10,40794.1014811981,0.150000000001455
8,11,41025.0556216792,0.149999999994179
8,12,41417.0017937384,0.151000000005297
8,13,40260.9527561076,0.150999999998021
8,14,41149.1975677123,0.150000000001455
8,15,41335.8888608274,0.150999999998021
8,16,41127.4546724374,0.150000000001455
8,17,40945.2298403542,0.150000000001455
8,18,41206.6253238899,0.150999999998021
8,19,41189.9316439055,0.151000000005297
8,20,41019.4314200743,0.149999999994179
8,21,40729.6581960977,0.151000000005297
8,22,40992.5527924915,0.150999999998021
8,23,40606.3647358927,0.150000000001455
8,24,41291.4309194599,0.150000000001455
8,25,41027.9072390632,0.150999999998021
8,26,40889.6344655681,0.150000000001455
8,27,40533.4519956185,0.150000000001455
8,28,40977.5395403357,0.151000000005297
8,29,40921.6299990457,0.149999999994179
8,30,41248.6456656557,0.150000000001455
9,10,41158.241322174,0.150999999998021
9,11,41389.1954626551,0.150999999998021
9,12,41744.0797820874,0.150000000001455
9,13,40653.0560518363,0.150999999998021
9,14,41513.3374086883,0.151000000005297
9,15,41700.0287018034,0.149999999994179
9,16,41491.5945134134,0.151000000005297
9,17,41309.3696813301,0.150999999998021
9,18,41570.7651648658,0.150000000001455
9,19,41554.0714848815,0.150999999998021
9,20,41383.5712610502,0.150000000001455
9,21,41121.7614918264,0.150000000001455
9,22,41356.6926334675,0.150999999998021
9,23,40998.4680316214,0.150000000001455
9,24,41655.5707604358,0.149999999994179
9,25,41392.0470800392,0.151000000005297
9,26,41253.7743065441,0.149999999994179
9,27,40925.5552913472,0.151000000005297
9,28,41341.6793813117,0.150999999998021
9,29,41285.7698400216,0.150000000001455
9,30,41612.7855066317,0.150999999998021
10,11,41534.831601368,0.150999999998021
10,12,41191.881257507,0.150000000001455
10,13,39984.8619578396,0.150999999998021
10,14,41218.3300970629,0.151000000005297
10,15,41287.7022721928,0.149999999994179
10,16,41675.476292128,0.151000000005297
10,17,41187.06746212,0.150999999998021
10,18,41249.7503487416,0.150000000001455
10,19,41014.2945632237,0.150999999998021
10,20,41385.3627644452,0.150999999998021
10,21,40453.5673978297,0.150000000001455
10,22,41705.1645607492,0.150999999998021
10,23,40330.2739376247,0.151000000005297
10,24,42409.0237241368,0.149999999994179
10,25,42145.5000437402,0.151000000005297
10,26,42007.2272702451,0.150000000001455
10,27,40257.3611973504,0.150000000001455
10,28,42095.1323450127,0.150999999998021
10,29,41763.6942171878,0.150000000001455
10,30,42366.2384703327,0.150999999998021
11,12,41422.8353979881,0.150999999998021
11,13,40215.8160983207,0.150000000001455
11,14,41449.284237544,0.151000000005297
11,15,41518.6564126739,0.149999999994179
11,16,41868.1847926074,0.150000000001455
11,17,41418.0216026011,0.150999999998021
11,18,41480.7044892227,0.150000000001455
11,19,41245.2487037048,0.150999999998021
11,20,41616.3169049264,0.150000000001455
11,21,40684.5215383109,0.150000000001455
11,22,41733.2829126614,0.150999999998021
11,23,40561.2280781058,0.150000000001455
11,24,42032.1610396298,0.149999999994179
11,25,41768.6373592332,0.151000000005297
11,26,41630.364585738,0.149999999994179
11,27,40488.3153378316,0.151000000005297
11,28,41718.2696605057,0.150000000001455
11,29,41662.3601192156,0.150000000001455
11,30,41989.3757858257,0.150999999998021
12,13,40607.76227038,0.150000000001455
12,14,41546.9773440213,0.150000000001455
12,15,41733.6686371364,0.150999999998021
12,16,41525.2344487464,0.150000000001455
12,17,41343.0096166631,0.150999999998021
12,18,41604.4051001988,0.150000000001455
12,19,41587.7114202145,0.150000000001455
12,20,41417.2111963832,0.150999999998021
12,21,41076.4677103701,0.150000000001455
12,22,41390.3325688005,0.150999999998021
12,23,40953.1742501651,0.150999999998021
12,24,41689.2106957689,0.150000000001455
12,25,41425.6870153722,0.150999999998021
12,26,41287.4142418771,0.150000000001455
12,27,40880.2615098909,0.150000000001455
12,28,41375.3193166447,0.151000000005297
12,29,41319.4097753546,0.149999999994179
12,30,41646.4254419647,0.151000000005297
13,14,40339.9580443538,0.149999999994179
13,15,40526.6493374689,0.150000000001455
13,16,40318.215149079,0.150999999998021
13,17,40135.9903169957,0.150000000001455
13,18,40397.3858005314,0.150999999998021
13,19,40380.692120547,0.150000000001455
13,20,40210.1918967158,0.150999999998021
13,21,40734.8117170048,0.150999999998021
13,22,40183.313269133,0.150000000001455
13,23,40196.7845990648,0.150999999998021
13,24,40482.1913961014,0.150000000001455
13,25,40218.6677157048,0.151000000005297
13,26,40080.3949422096,0.149999999994179
13,27,40543.4253760403,0.151000000005297
13,28,40168.3000169773,0.149999999994179
13,29,40112.3904756872,0.150000000001455
13,30,40439.4061422973,0.150999999998021
14,15,41642.798358707,0.150000000001455
14,16,41551.6832883023,0.150999999998021
14,17,41369.458456219,0.150000000001455
14,18,41604.8464352559,0.150000000001455
14,19,41369.3906497379,0.150999999998021
14,20,41443.6600359391,0.150000000001455
14,21,40808.663484344,0.150999999998021
14,22,41416.7814083564,0.150000000001455
14,23,40685.3700241389,0.151000000005297
14,24,41715.6595353247,0.149999999994179
14,25,41452.1358549281,0.150000000001455
14,26,41313.863081433,0.150999999998021
14,27,40612.4572838647,0.150000000001455
14,28,41401.7681562006,0.150999999998021
14,29,41345.8586149105,0.150000000001455
14,30,41672.8742815206,0.150999999998021
15,16,41621.0554634322,0.150000000001455
15,17,41438.8306313489,0.150000000001455
15,18,41700.2261148846,0.150999999998021
15,19,41556.0819428531,0.150000000001455
15,20,41513.032211069,0.150999999998021
15,21,40995.3547774591,0.150000000001455
15,22,41486.1535834862,0.150999999998021
15,23,40872.061317254,0.151000000005297
15,24,41785.0317104546,0.150000000001455
15,25,41521.508030058,0.150999999998021
15,26,41383.2352565628,0.150000000001455
15,27,40799.1485769798,0.150999999998021
15,28,41471.1403313305,0.150000000001455
15,29,41415.2307900404,0.150000000001455
15,30,41742.2464566505,0.150999999998021
16,17,41520.4206533594,0.150000000001455
16,18,41583.103539981,0.150999999998021
16,19,41347.6477544631,0.150000000001455
16,20,41718.7159556846,0.150999999998021
16,21,40786.9205890691,0.150000000001455
16,22,41873.9276034214,0.149999999994179
16,23,40663.6271288641,0.151000000005297
16,24,42172.8057303898,0.150000000001455
16,25,41909.2820499932,0.150999999998021
16,26,41771.009276498,0.150000000001455
16,27,40590.7143885899,0.150000000001455
16,28,41858.9143512657,0.150999999998021
16,29,41803.0048099756,0.150000000001455
16,30,42130.0204765857,0.150999999998021
17,18,41400.8787078977,0.151000000005297
17,19,41165.4229223798,0.149999999994179
17,20,41412.3974009962,0.151000000005297
17,21,40604.6957569858,0.149999999994179
17,22,41385.5187734135,0.150000000001455
17,23,40481.4022967808,0.150999999998021
17,24,41684.3969003818,0.150000000001455
17,25,41420.8732199852,0.150999999998021
17,26,41282.6004464901,0.150000000001455
17,27,40408.4895565066,0.150999999998021
17,28,41370.5055212577,0.150000000001455
17,29,41314.5959799676,0.150000000001455
17,30,41641.6116465777,0.150999999998021
18,19,41426.8184059155,0.150000000001455
18,20,41475.0802876178,0.150999999998021
18,21,40866.0912405215,0.150000000001455
18,22,41448.201660035,0.150000000001455
18,23,40742.7977803165,0.149999999994179
18,24,41747.0797870034,0.150000000001455
18,25,41483.5561066068,0.150999999998021
18,26,41345.2833331116,0.150000000001455
18,27,40669.8850400423,0.150999999998021
18,28,41433.1884078793,0.150000000001455
18,29,41377.2788665892,0.150999999998021
18,30,41704.2945331993,0.150000000001455
19,20,41239.6245020999,0.150999999998021
19,21,40849.3975605372,0.150000000001455
19,22,41212.7458745171,0.150999999998021
19,23,40726.1041003321,0.150000000001455
19,24,41511.6240014855,0.150000000001455
19,25,41248.1003210889,0.151000000005297
19,26,41109.8275475937,0.149999999994179
19,27,40653.1913600579,0.151000000005297
19,28,41197.7326223614,0.149999999994179
19,29,41141.8230810713,0.151000000005297
19,30,41468.8387476814,0.150999999998021
20,21,40678.897336706,0.150000000001455
20,22,41583.8140757387,0.150999999998021
20,23,40555.6038765009,0.150000000001455
20,24,41882.692202707,0.150999999998021
20,25,41619.1685223104,0.150000000001455
20,26,41480.8957488153,0.150999999998021
20,27,40482.6911362267,0.150999999998021
20,28,41568.8008235829,0.150000000001455
20,29,41512.8912822929,0.151000000005297
20,30,41839.9069489029,0.149999999994179
21,22,40652.0187091232,0.151000000005297
21,23,40665.490039055,0.149999999994179
21,24,40950.8968360915,0.150000000001455
21,25,40687.3731556949,0.149999999994179
21,26,40549.1003821998,0.150000000001455
21,27,41007.3109565156,0.150999999998021
21,28,40637.0054569674,0.150000000001455
21,29,40581.0959156774,0.150999999998021
21,30,40908.1115822874,0.150000000001455
22,23,40528.7252489182,0.150999999998021
22,24,42202.493999011,0.150000000001455
22,25,41938.9703186144,0.150000000001455
22,26,41800.6975451193,0.150000000001455
22,27,40455.8125086439,0.150000000001455
22,28,41888.6026198869,0.151000000005297
22,29,41832.6930785968,0.149999999994179
22,30,42159.7087452069,0.150000000001455
23,24,40827.6033758865,0.150999999998021
23,25,40564.0796954899,0.150000000001455
23,26,40425.8069219948,0.150999999998021
23,27,40469.2838385757,0.150000000001455
23,28,40513.7119967624,0.150999999998021
23,29,40457.8024554723,0.150000000001455
23,30,40784.8181220824,0.150000000001455
24,25,42795.5645217626,0.150999999998021
24,26,43165.6859330221,0.150000000001455
24,27,40754.6906356123,0.150999999998021
24,28,43272.8064366172,0.150000000001455
24,29,42261.0236554496,0.151000000005297
24,30,43518.5771954724,0.149999999994179
25,26,42393.7680678709,0.151000000005297
25,27,40491.1669552157,0.150999999998021
25,28,42481.6731426385,0.150000000001455
25,29,41997.499975053,0.150999999998021
25,30,42752.7792679585,0.150000000001455
26,27,40352.8941817205,0.150999999998021
26,28,42851.794553898,0.150000000001455
26,29,41859.2272015578,0.150999999998021
26,30,43116.7807415806,0.150000000001455
27,28,40440.7992564882,0.150000000001455
27,29,40384.8897151981,0.150999999998021
27,30,40711.9053818082,0.150000000001455
28,29,41947.1322763255,0.151000000005297
28,30,43167.1619839367,0.149999999994179
29,30,42218.2384016455,0.151000000005297


"After.Trace.ID","Before.Trace.ID","Difference","Runtime"
1,1,41400.3846935828,0.150000000001455
1,2,41763.3882767238,0.149999999994179
1,3,41511.6775294598,0.151000000005297
1,4,41931.5549611292,0.150999999998021
1,5,40575.1538349117,0.150000000001455
1,6,41941.6186517809,0.150000000001455
1,7,40467.9372800316,0.150999999998021
1,8,40976.8410720953,0.150000000001455
1,9,41340.9809130713,0.150000000001455
1,10,41822.9055455566,0.151000000005297
1,11,41717.5711922652,0.149999999994179
1,12,41374.6208484043,0.151000000005297
1,13,40167.6015487368,0.150999999998021
1,14,41401.0696879602,0.150000000001455
1,15,41470.44186309,0.150999999998021
1,16,41858.2158830252,0.150999999998021
1,17,41369.8070530173,0.150000000001455
1,18,41432.4899396388,0.150999999998021
1,19,41197.0341541209,0.151000000005297
1,20,41568.1023553425,0.149999999994179
1,21,40636.306988727,0.151000000005297
1,22,41887.9041516464,0.150999999998021
1,23,40513.013528522,0.150000000001455
1,24,42320.2349838184,0.150999999998021
1,25,42056.7113034218,0.150999999998021
1,26,41918.4385299267,0.150000000001455
1,27,40440.1007882477,0.150999999998021
1,28,42006.3436046943,0.151000000005297
1,29,41946.4338080851,0.149999999994179
1,30,42277.4497300143,0.151000000005297
2,1,41487.414608392,0.150999999998021
2,2,42489.6753710204,0.150000000001455
2,3,41598.7074442689,0.150000000001455
2,4,42683.096141441,0.150999999998021
2,5,40662.1837497208,0.150000000001455
2,6,42028.64856659,0.149999999994179
2,7,40554.9671948408,0.151000000005297
2,8,41063.8709869045,0.149999999994179
2,9,41428.0108278804,0.151000000005297
2,10,42181.4637915814,0.150999999998021
2,11,41804.6011070744,0.150000000001455
2,12,41461.6507632134,0.150999999998021
2,13,40254.631463546,0.150000000001455
2,14,41488.0996027693,0.150000000001455
2,15,41557.4717778992,0.150999999998021
2,16,41945.2457978344,0.150000000001455
2,17,41456.8369678264,0.150999999998021
2,18,41519.519854448,0.151000000005297
2,19,41284.0640689301,0.150000000001455
2,20,41655.1322701516,0.150999999998021
2,21,40723.3369035361,0.150999999998021
2,22,41974.9340664556,0.150000000001455
2,23,40600.0434433311,0.150999999998021
2,24,43473.4058349551,0.150000000001455
2,25,42568.0045892073,0.150000000001455
2,26,42938.1260004667,0.151000000005297
2,27,40527.1307030569,0.149999999994179
2,28,43045.2465040618,0.150000000001455
2,29,42033.4637228942,0.150999999998021
2,30,43291.017262917,0.150000000001455
3,1,41534.15524522,0.150999999998021
3,2,42261.4463917204,0.150999999998021
3,3,41645.4480810969,0.150000000001455
3,4,42429.6130761258,0.150999999998021
3,5,40708.9243865488,0.150000000001455
3,6,42075.389203418,0.149999999994179
3,7,40601.7078316688,0.151000000005297
3,8,41110.6116237325,0.149999999994179
3,9,41474.7514647085,0.150000000001455
3,10,42228.2044284094,0.150999999998021
3,11,41851.3417439024,0.150000000001455
3,12,41508.3914000415,0.150999999998021
3,13,40301.372100374,0.150000000001455
3,14,41534.8402395974,0.150000000001455
3,15,41604.2124147272,0.150999999998021
3,16,41991.9864346624,0.150000000001455
3,17,41503.5776046544,0.149999999994179
3,18,41566.260491276,0.151000000005297
3,19,41330.8047057581,0.150000000001455
3,20,41701.8729069797,0.150999999998021
3,21,40770.0775403642,0.150999999998021
3,22,42021.6747032836,0.150000000001455
3,23,40646.7840801591,0.150999999998021
3,24,42818.293098815,0.150999999998021
3,25,42554.7694184184,0.150000000001455
3,26,42416.4966449233,0.150999999998021
3,27,40573.8713398849,0.151000000005297
3,28,42504.4017196909,0.150000000001455
3,29,42080.2043597223,0.150999999998021
3,30,42775.5078450109,0.150000000001455
4,1,40068.544659405,0.150999999998021
4,2,39801.2829526254,0.150999999998021
4,3,40244.0956032893,0.150999999998021
4,4,39969.4496370308,0.151000000005297
4,5,40162.2588538384,0.150999999998021
4,6,40270.0278866466,0.150000000001455
4,7,40128.9258982248,0.150000000001455
4,8,40136.8910197262,0.150000000001455
4,9,40528.9943154549,0.150999999998021
4,10,39860.8002214582,0.151000000005297
4,11,40091.7543619393,0.150999999998021
4,12,40483.7005339986,0.150999999998021
4,13,40146.864400148,0.150000000001455
4,14,40215.8963079724,0.149999999994179
4,15,40402.5876010876,0.150000000001455
4,16,40194.1534126976,0.150999999998021
4,17,40011.9285806143,0.150999999998021
4,18,40273.32406415,0.150999999998021
4,19,40256.6303841657,0.151000000005297
4,20,40086.1301603344,0.150999999998021
4,21,40610.7499806234,0.150999999998021
4,22,40059.2515327516,0.150000000001455
4,23,40072.7228626834,0.149999999994179
4,24,40358.12965972,0.151000000005297
4,25,40094.6059793234,0.150999999998021
4,26,39956.3332058283,0.150999999998021
4,27,40531.9907670765,0.150999999998021
4,28,40044.2382805959,0.150000000001455
4,29,39988.3287393058,0.149999999994179
4,30,40315.3444059159,0.150000000001455
5,1,41431.341996732,0.150999999998021
5,2,42433.6027593604,0.150999999998021
5,3,41542.6348326089,0.151000000005297
5,4,42627.0235297809,0.149999999994179
5,5,40606.1111380608,0.150000000001455
5,6,41972.57595493,0.150999999998021
5,7,40498.8945831808,0.150999999998021
5,8,41007.7983752444,0.150999999998021
5,9,41371.9382162204,0.150000000001455
5,10,42125.3911799214,0.150000000001455
5,11,41748.5284954144,0.150999999998021
5,12,41405.5781515534,0.150999999998021
5,13,40198.558851886,0.150999999998021
5,14,41432.0269911093,0.150000000001455
5,15,41501.3991662392,0.149999999994179
5,16,41889.1731861744,0.151000000005297
5,17,41400.7643561664,0.150999999998021
5,18,41463.447242788,0.150000000001455
5,19,41227.9914572701,0.150000000001455
5,20,41599.0596584916,0.150999999998021
5,21,40667.2642918761,0.151000000005297
5,22,41918.8614547956,0.149999999994179
5,23,40543.9708316711,0.150000000001455
5,24,43399.6136191573,0.150999999998021
5,25,42511.9319775472,0.150999999998021
5,26,42882.0533888067,0.150000000001455
5,27,40471.0580913969,0.150000000001455
5,28,42989.1738924018,0.151000000005297
5,29,41977.3911112342,0.150999999998021
5,30,43234.9446512569,0.150999999998021
6,1,41495.6871514706,0.150000000001455
6,2,42167.6695434651,0.150000000001455
6,3,41606.9799873475,0.150999999998021
6,4,42335.8362278705,0.151000000005297
6,5,40670.4562927994,0.149999999994179
6,6,42036.9211096686,0.150000000001455
6,7,40563.2397379194,0.150999999998021
6,8,41072.1435299831,0.150999999998021
6,9,41436.2833709591,0.150000000001455
6,10,42189.73633466,0.149999999994179
6,11,41812.873650153,0.151000000005297
6,12,41469.9233062921,0.150999999998021
6,13,40262.9040066246,0.150999999998021
6,14,41496.3721458479,0.150000000001455
6,15,41565.7443209778,0.150999999998021
6,16,41953.518340913,0.151000000005297
6,17,41465.1095109051,0.150999999998021
6,18,41527.7923975266,0.150000000001455
6,19,41292.3366120087,0.150000000001455
6,20,41663.4048132303,0.150999999998021
6,21,40731.6094466148,0.150000000001455
6,22,41983.2066095342,0.150000000001455
6,23,40608.3159864097,0.150999999998021
6,24,42724.5162505597,0.151000000005297
6,25,42460.9925701631,0.150000000001455
6,26,42322.7197966679,0.150000000001455
6,27,40535.4032461355,0.150999999998021
6,28,42410.6248714356,0.150999999998021
6,29,42041.7362659728,0.150000000001455
6,30,42681.7309967556,0.149999999994179
7,1,41220.818282382,0.151000000005297
7,2,42092.5332645715,0.150999999998021
7,3,41332.1111182589,0.150000000001455
7,4,42260.6999489769,0.150999999998021
7,5,40395.5874237109,0.150999999998021
7,6,41762.05224058,0.150000000001455
7,7,40288.3708688308,0.150999999998021
7,8,40797.2746608945,0.151000000005297
7,9,41161.4145018705,0.149999999994179
7,10,41914.8674655714,0.150000000001455
7,11,41538.0047810644,0.150999999998021
7,12,41195.0544372035,0.150999999998021
7,13,39988.035137536,0.150000000001455
7,14,41221.5032767594,0.150999999998021
7,15,41290.8754518893,0.151000000005297
7,16,41678.6494718244,0.149999999994179
7,17,41190.2406418165,0.150000000001455
7,18,41252.923528438,0.150999999998021
7,19,41017.4677429201,0.150000000001455
7,20,41388.5359441417,0.150000000001455
7,21,40456.7405775262,0.150999999998021
7,22,41708.3377404456,0.151000000005297
7,23,40333.4471173211,0.149999999994179
7,24,42649.3799716661,0.151000000005297
7,25,42301.4082631973,0.150999999998021
7,26,42247.5835177743,0.150000000001455
7,27,40260.5343770469,0.150999999998021
7,28,42335.488592542,0.150999999998021
7,29,41766.8673968842,0.150000000001455
7,30,42606.594717862,0.149999999994179
8,1,40735.0097553253,0.151000000005297
8,2,40467.7480485457,0.150999999998021
8,3,40910.5606992095,0.150000000001455
8,4,40635.9147329511,0.150999999998021
8,5,40828.7239497587,0.150999999998021
8,6,40936.4929825669,0.150000000001455
8,7,40764.9940186365,0.149999999994179
8,8,40803.3561156464,0.151000000005297
8,9,41195.4594113752,0.149999999994179
8,10,40527.2653173784,0.150000000001455
8,11,40758.2194578596,0.150999999998021
8,12,41150.1656299189,0.150999999998021
8,13,40464.6582873418,0.150000000001455
8,14,40882.3614038927,0.150999999998021
8,15,41069.0526970078,0.151000000005297
8,16,40860.6185086179,0.149999999994179
8,17,40678.3936765346,0.150000000001455
8,18,40939.7891600703,0.150999999998021
8,19,40923.0954800859,0.150999999998021
8,20,40752.5952562547,0.150000000001455
8,21,40933.3637273319,0.150999999998021
8,22,40725.7166286719,0.150000000001455
8,23,40739.1879586037,0.149999999994179
8,24,41024.5947556403,0.151000000005297
8,25,40761.0710752437,0.150999999998021
8,26,40622.7983017485,0.150000000001455
8,27,40737.1575268527,0.150000000001455
8,28,40710.7033765161,0.150999999998021
8,29,40654.7938352261,0.150000000001455
8,30,40981.8095018361,0.150000000001455
9,1,41461.7014637285,0.151000000005297
9,2,41194.4397569489,0.149999999994179
9,3,41637.2524076127,0.150000000001455
9,4,41362.6064413543,0.150999999998021
9,5,40812.8783921471,0.150000000001455
9,6,41663.1846909701,0.150000000001455
9,7,40705.6618372671,0.150999999998021
9,8,40935.5774971348,0.151000000005297
9,9,41578.7054703067,0.149999999994179
9,10,41253.9570257817,0.151000000005297
9,11,41484.9111662628,0.150999999998021
9,12,41612.3454056398,0.150000000001455
9,13,40405.3261059723,0.150999999998021
9,14,41609.0531122959,0.150999999998021
9,15,41708.1664203255,0.150000000001455
9,16,41587.3102170211,0.150999999998021
9,17,41405.0853849378,0.151000000005297
9,18,41666.4808684735,0.149999999994179
9,19,41434.7587113564,0.151000000005297
9,20,41479.2869646579,0.150999999998021
9,21,40874.0315459624,0.150000000001455
9,22,41452.4083370751,0.150999999998021
9,23,40750.7380857574,0.150000000001455
9,24,41751.2864640435,0.150000000001455
9,25,41487.7627836468,0.150999999998021
9,26,41349.4900101517,0.150000000001455
9,27,40677.8253454832,0.149999999994179
9,28,41437.3950849194,0.151000000005297
9,29,41381.4855436293,0.149999999994179
9,30,41708.5012102394,0.151000000005297
10,1,40995.713211817,0.150000000001455
10,2,40728.4515050374,0.150000000001455
10,3,41171.2641557012,0.150999999998021
10,4,40896.6181894428,0.150999999998021
10,5,40637.2639514425,0.150000000001455
10,6,41197.1964390585,0.150999999998021
10,7,40530.0473965625,0.150000000001455
10,8,41038.9511886261,0.149999999994179
10,9,41403.0910296021,0.151000000005297
10,10,40787.9687738701,0.150000000001455
10,11,41018.9229143513,0.150000000001455
10,12,41410.8690864106,0.150999999998021
10,13,40229.7116652677,0.150000000001455
10,14,41143.0648603844,0.150000000001455
10,15,41329.7561534995,0.150999999998021
10,16,41121.3219651096,0.150000000001455
10,17,40939.0971330263,0.151000000005297
10,18,41200.492616562,0.150999999998021
10,19,41183.7989365776,0.150000000001455
10,20,41013.2987127464,0.150999999998021
10,21,40698.4171052578,0.150000000001455
10,22,40986.4200851636,0.150000000001455
10,23,40575.1236450528,0.150999999998021
10,24,41285.298212132,0.150999999998021
10,25,41021.7745317354,0.151000000005297
10,26,40883.5017582402,0.150000000001455
10,27,40502.2109047786,0.150999999998021
10,28,40971.4068330078,0.150000000001455
10,29,40915.4972917178,0.150000000001455
10,30,41242.5129583278,0.150999999998021
11,1,41292.7250832745,0.150000000001455
11,2,41025.4633764949,0.150999999998021
11,3,41468.2760271587,0.150999999998021
11,4,41193.6300609003,0.150000000001455
11,5,40752.1533954689,0.151000000005297
11,6,41494.2083105161,0.149999999994179
11,7,40644.9368405889,0.150000000001455
11,8,41153.8406326526,0.150999999998021
11,9,41487.3674596093,0.150000000001455
11,10,41084.9806453277,0.150000000001455
11,11,41315.9347858088,0.150999999998021
11,12,41551.6204089615,0.150000000001455
11,13,40344.6011092941,0.150999999998021
11,14,41440.0767318419,0.150000000001455
11,15,41626.768024957,0.149999999994179
11,16,41418.3338365671,0.151000000005297
11,17,41236.1090044838,0.149999999994179
11,18,41497.5044880195,0.150000000001455
11,19,41374.0337146782,0.150999999998021
11,20,41310.3105842039,0.150000000001455
11,21,40813.3065492842,0.150999999998021
11,22,41283.4319566211,0.150000000001455
11,23,40690.0130890792,0.150000000001455
11,24,41582.3100835895,0.150999999998021
11,25,41318.7864031929,0.150000000001455
11,26,41180.5136296977,0.151000000005297
11,27,40617.100348805,0.149999999994179
11,28,41268.4187044654,0.151000000005297
11,29,41212.5091631753,0.150999999998021
11,30,41539.5248297854,0.150000000001455
12,1,41045.8654969484,0.150999999998021
12,2,40778.6037901688,0.150000000001455
12,3,41221.4164408327,0.150999999998021
12,4,40946.7704745742,0.150999999998021
12,5,40976.9100153847,0.150000000001455
12,6,41247.34872419,0.150999999998021
12,7,40869.6934605047,0.150000000001455
12,8,41114.2118572696,0.149999999994179
12,9,41506.3151529983,0.151000000005297
12,10,40838.1210590016,0.149999999994179
12,11,41069.0751994827,0.151000000005297
12,12,41461.021371542,0.150999999998021
12,13,40569.3577292099,0.150000000001455
12,14,41193.2171455159,0.150999999998021
12,15,41379.9084386309,0.150000000001455
12,16,41171.474250241,0.150999999998021
12,17,40989.2494181577,0.150999999998021
12,18,41250.6449016934,0.150000000001455
12,19,41233.9512217091,0.151000000005297
12,20,41063.4509978778,0.150999999998021
12,21,41038.0631692,0.150000000001455
12,22,41036.572370295,0.150999999998021
12,23,40914.769708995,0.150000000001455
12,24,41335.4504972634,0.150000000001455
12,25,41071.9268168668,0.150999999998021
12,26,40933.6540433716,0.150000000001455
12,27,40841.8569687208,0.150999999998021
12,28,41021.5591181393,0.151000000005297
12,29,40965.6495768492,0.149999999994179
12,30,41292.6652434593,0.151000000005297
13,1,40056.8038532196,0.149999999994179
13,2,39789.54214644,0.150000000001455
13,3,40232.3547971039,0.150999999998021
13,4,39957.7088308454,0.150999999998021
13,5,40150.518047653,0.150000000001455
13,6,40258.2870804612,0.150999999998021
13,7,40117.1850920394,0.150000000001455
13,8,40125.1502135408,0.149999999994179
13,9,40517.2535092695,0.151000000005297
13,10,39849.0594152728,0.149999999994179
13,11,40080.0135557539,0.150000000001455
13,12,40471.9597278132,0.150999999998021
13,13,40135.1235939626,0.150000000001455
13,14,40204.155501787,0.150999999998021
13,15,40390.8467949022,0.150999999998021
13,16,40182.4126065122,0.150000000001455
13,17,40000.1877744289,0.150999999998021
13,18,40261.5832579646,0.150000000001455
13,19,40244.8895779802,0.149999999994179
13,20,40074.389354149,0.151000000005297
13,21,40599.009174438,0.150000000001455
13,22,40047.5107265662,0.150999999998021
13,23,40060.982056498,0.150000000001455
13,24,40346.3888535346,0.150000000001455
13,25,40082.865173138,0.150999999998021
13,26,39944.5923996429,0.150000000001455
13,27,40515.266308056,0.150999999998021
13,28,40032.4974744105,0.150000000001455
13,29,39976.5879331204,0.150999999998021
13,30,40303.6035997305,0.151000000005297
14,1,41398.9397625155,0.149999999994179
14,2,41575.1380832197,0.151000000005297
14,3,41510.2325983924,0.149999999994179
14,4,41743.3047676251,0.151000000005297
14,5,40573.7089038443,0.150000000001455
14,6,41940.1737207135,0.150000000001455
14,7,40466.4923489643,0.150999999998021
14,8,40975.396141028,0.150000000001455
14,9,41339.535982004,0.150999999998021
14,10,41634.6553520525,0.150000000001455
14,11,41716.1262611979,0.150000000001455
14,12,41373.1759173369,0.150000000001455
14,13,40166.1566176695,0.150000000001455
14,14,41399.6247568929,0.151000000005297
14,15,41468.9969320227,0.149999999994179
14,16,41856.7709519579,0.151000000005297
14,17,41368.3621219499,0.149999999994179
14,18,41431.0450085715,0.151000000005297
14,19,41195.5892230536,0.150000000001455
14,20,41566.6574242752,0.150999999998021
14,21,40634.8620576597,0.150000000001455
14,22,41833.1066633459,0.150000000001455
14,23,40511.5685974546,0.150000000001455
14,24,42131.9847903143,0.150000000001455
14,25,41868.4611099177,0.150999999998021
14,26,41730.1883364226,0.150000000001455
14,27,40438.6558571804,0.150999999998021
14,28,41818.0934111902,0.150000000001455
14,29,41762.1838699001,0.149999999994179
14,30,42089.1995365102,0.151000000005297
15,1,41472.1070031786,0.149999999994179
15,2,41358.6968266824,0.151000000005297
15,3,41583.3998390555,0.149999999994179
15,4,41526.8635110878,0.151000000005297
15,5,40646.8761445074,0.150999999998021
15,6,41827.4417607035,0.150000000001455
15,7,40539.6595896274,0.150999999998021
15,8,41048.5633816911,0.150000000001455
15,9,41412.703222667,0.150999999998021
15,10,41418.2140955152,0.150000000001455
15,11,41649.1682359963,0.150000000001455
15,12,41446.343158,0.151000000005297
15,13,40239.3238583326,0.149999999994179
15,14,41472.7919975559,0.151000000005297
15,15,41542.1641726858,0.149999999994179
15,16,41751.5672867546,0.151000000005297
15,17,41441.529362613,0.149999999994179
15,18,41504.2122492346,0.150000000001455
15,19,41268.7564637167,0.150000000001455
15,20,41639.8246649382,0.150000000001455
15,21,40708.0292983228,0.150999999998021
15,22,41616.6654068086,0.150000000001455
15,23,40584.7358381177,0.150999999998021
15,24,41915.543533777,0.150000000001455
15,25,41652.0198533804,0.150999999998021
15,26,41513.7470798852,0.150000000001455
15,27,40511.8230978435,0.150999999998021
15,28,41601.6521546529,0.150000000001455
15,29,41545.7426133628,0.149999999994179
15,30,41872.7582799728,0.151000000005297
16,1,40864.2601791734,0.149999999994179
16,2,40974.1982617029,0.151000000005297
16,3,41393.1555144175,0.150000000001455
16,4,41142.3649461083,0.150999999998021
16,5,40456.6318198694,0.150000000001455
16,6,41442.9431957241,0.150000000001455
16,7,40349.4152649893,0.150999999998021
16,8,40858.3190570531,0.150000000001455
16,9,41222.458898029,0.150999999998021
16,10,41033.7155305357,0.150000000001455
16,11,41264.6696710168,0.150000000001455
16,12,41256.098833362,0.150000000001455
16,13,40049.0795336946,0.149999999994179
16,14,41282.5476729179,0.151000000005297
16,15,41351.9198480477,0.150999999998021
16,16,41367.0687217751,0.150000000001455
16,17,41184.8438896918,0.150999999998021
16,18,41313.9679245966,0.150000000001455
16,19,41078.5121390787,0.150999999998021
16,20,41259.0454694119,0.150000000001455
16,21,40517.7849736847,0.150000000001455
16,22,41232.1668418291,0.150000000001455
16,23,40394.4915134797,0.150000000001455
16,24,41531.0449687975,0.150000000001455
16,25,41267.5212884009,0.150000000001455
16,26,41129.2485149057,0.151000000005297
16,27,40321.5787732054,0.149999999994179
16,28,41217.1535896734,0.151000000005297
16,29,41161.2440483833,0.149999999994179
16,30,41488.2597149934,0.151000000005297
17,1,40463.2619975893,0.149999999994179
17,2,40196.0002908098,0.150000000001455
17,3,40638.8129414736,0.150999999998021
17,4,40364.1669752152,0.150000000001455
17,5,40556.9761920228,0.150999999998021
17,6,40664.7452248309,0.150000000001455
17,7,40144.0317282314,0.150999999998021
17,8,40531.6083579105,0.150000000001455
17,9,40923.7116536392,0.150999999998021
17,10,40255.5175596425,0.150000000001455
17,11,40486.4717001237,0.150999999998021
17,12,40878.4178721829,0.150000000001455
17,13,40165.3030062075,0.150999999998021
17,14,40610.6136461568,0.150000000001455
17,15,40797.3049392719,0.150999999998021
17,16,40588.870750882,0.150000000001455
17,17,40406.6459187987,0.150000000001455
17,18,40668.0414023344,0.149999999994179
17,19,40651.34772235,0.150000000001455
17,20,40480.8474985188,0.150999999998021
17,21,40634.0084461976,0.150000000001455
17,22,40453.968870936,0.150999999998021
17,23,40467.4402008678,0.150000000001455
17,24,40752.8469979044,0.150999999998021
17,25,40489.3233175077,0.150000000001455
17,26,40351.0505440126,0.150999999998021
17,27,40437.8022457183,0.150000000001455
17,28,40438.9556187802,0.150000000001455
17,29,40383.0460774902,0.150000000001455
17,30,40710.0617441002,0.150000000001455
18,1,40583.8449682765,0.150999999998021
18,2,40316.5832614969,0.150000000001455
18,3,40759.3959121607,0.151000000005297
18,4,40484.7499459023,0.149999999994179
18,5,40348.2671591134,0.151000000005297
18,6,40785.3281955181,0.149999999994179
18,7,40352.0144805526,0.150000000001455
18,8,40652.1913285977,0.149999999994179
18,9,41044.2946243264,0.150000000001455
18,10,40376.1005303297,0.150999999998021
18,11,40607.0546708108,0.150000000001455
18,12,40999.0008428701,0.150999999998021
18,13,40051.6787492578,0.150000000001455
18,14,40731.1966168439,0.150999999998021
18,15,40917.887909959,0.150000000001455
18,16,40709.4537215691,0.150999999998021
18,17,40527.2288894858,0.150000000001455
18,18,40788.6243730215,0.150999999998021
18,19,40771.9306930371,0.150000000001455
18,20,40601.4304692059,0.150999999998021
18,21,40520.384189248,0.150000000001455
18,22,40574.5518416231,0.150999999998021
18,23,40397.0907290429,0.150000000001455
18,24,40873.4299685915,0.151000000005297
18,25,40609.9062881949,0.149999999994179
18,26,40471.6335146997,0.151000000005297
18,27,40324.1779887687,0.149999999994179
18,28,40559.5385894674,0.151000000005297
18,29,40503.6290481773,0.149999999994179
18,30,40830.6447147874,0.150000000001455
19,1,40494.1584502399,0.150000000001455
19,2,40226.8967434604,0.150000000001455
19,3,40669.7093941242,0.150000000001455
19,4,40395.0634278658,0.150000000001455
19,5,40587.8726446734,0.150000000001455
19,6,40695.6416774815,0.150000000001455
19,7,40554.5396890597,0.150000000001455
19,8,40562.5048105611,0.150000000001455
19,9,40954.6081062899,0.150000000001455
19,10,40286.4140122931,0.150000000001455
19,11,40517.3681527743,0.150999999998021
19,12,40909.3143248336,0.150000000001455
19,13,40366.651564525,0.150999999998021
19,14,40641.5100988074,0.150000000001455
19,15,40828.2013919225,0.151000000005297
19,16,40619.7672035326,0.149999999994179
19,17,40437.5423714493,0.151000000005297
19,18,40698.937854985,0.149999999994179
19,19,40682.2441750006,0.151000000005297
19,20,40511.7439511694,0.149999999994179
19,21,40835.3570045151,0.150000000001455
19,22,40484.8653235866,0.150000000001455
19,23,40498.3366535184,0.150000000001455
19,24,40783.743450555,0.150000000001455
19,25,40520.2197701584,0.150000000001455
19,26,40381.9469966632,0.150999999998021
19,27,40639.1508040359,0.150000000001455
19,28,40469.8520714309,0.150999999998021
19,29,40413.9425301408,0.150000000001455
19,30,40740.9581967508,0.150999999998021
20,1,41412.8338434391,0.150000000001455
20,2,41555.9163879754,0.150999999998021
20,3,41524.126679316,0.150000000001455
20,4,41724.0830723808,0.150999999998021
20,5,40587.6029847679,0.150000000001455
20,6,41954.0678016371,0.151000000005297
20,7,40480.3864298879,0.149999999994179
20,8,40989.2902219516,0.151000000005297
20,9,41353.4300629276,0.149999999994179
20,10,41615.4336568081,0.151000000005297
20,11,41730.0203421215,0.149999999994179
20,12,41387.0699982605,0.150000000001455
20,13,40180.0506985931,0.150000000001455
20,14,41413.5188378165,0.150000000001455
20,15,41482.8910129463,0.150000000001455
20,16,41870.6650328815,0.150000000001455
20,17,41382.2562028735,0.150000000001455
20,18,41444.9390894951,0.150000000001455
20,19,41209.4833039772,0.150000000001455
20,20,41580.5515051988,0.150000000001455
20,21,40648.7561385833,0.150000000001455
20,22,41813.8849681016,0.150000000001455
20,23,40525.4626783782,0.150000000001455
20,24,42112.7630950699,0.150000000001455
20,25,41849.2394146733,0.150000000001455
20,26,41710.9666411782,0.150999999998021
20,27,40452.549938104,0.150000000001455
20,28,41798.8717159458,0.149999999994179
20,29,41742.9621746558,0.150000000001455
20,30,42069.9778412658,0.149999999994179
21,1,41260.887446125,0.150000000001455
21,2,42177.5328893953,0.149999999994179
21,3,41372.1802820019,0.151000000005297
21,4,42345.6995738007,0.150000000001455
21,5,40435.6565874538,0.150999999998021
21,6,41802.121404323,0.150000000001455
21,7,40328.4400325737,0.149999999994179
21,8,40837.3438246375,0.150000000001455
21,9,41201.4836656134,0.149999999994179
21,10,41954.9366293144,0.150000000001455
21,11,41578.0739448074,0.150000000001455
21,12,41235.1236009464,0.150000000001455
21,13,40028.104301279,0.150000000001455
21,14,41261.5724405023,0.150000000001455
21,15,41330.9446156322,0.150000000001455
21,16,41718.7186355674,0.150000000001455
21,17,41230.3098055594,0.150000000001455
21,18,41292.992692181,0.150000000001455
21,19,41057.5369066631,0.150000000001455
21,20,41428.6051078846,0.150000000001455
21,21,40496.8097412691,0.150000000001455
21,22,41748.4069041886,0.150000000001455
21,23,40373.5162810641,0.150000000001455
21,24,42734.3795964899,0.150999999998021
21,25,42341.4774269402,0.150000000001455
21,26,42332.5831425981,0.150999999998021
21,27,40300.6035407899,0.150000000001455
21,28,42420.4882173658,0.149999999994179
21,29,41806.9365606272,0.150000000001455
21,30,42691.5943426858,0.150999999998021
22,1,41648.9961267014,0.150000000001455
22,2,42651.2568893298,0.151000000005297
22,3,41760.2889625783,0.149999999994179
22,4,42844.6776597504,0.151000000005297
22,5,40823.7652680302,0.149999999994179
22,6,42190.2300848994,0.150000000001455
22,7,40716.5487131502,0.149999999994179
22,8,41225.4525052139,0.150000000001455
22,9,41589.5923461899,0.151000000005297
22,10,42343.0453098908,0.149999999994179
22,11,41966.1826253838,0.151000000005297
22,12,41623.2322815229,0.149999999994179
22,13,40416.2129818554,0.151000000005297
22,14,41649.6811210787,0.150000000001455
22,15,41719.0532962086,0.149999999994179
22,16,42106.8273161438,0.150000000001455
22,17,41618.4184861358,0.149999999994179
22,18,41681.1013727574,0.151000000005297
22,19,41445.6455872395,0.149999999994179
22,20,41816.7137884611,0.151000000005297
22,21,40884.9184218455,0.150000000001455
22,22,42136.515584765,0.150999999998021
22,23,40761.6249616405,0.150000000001455
22,24,43304.9913370754,0.149999999994179
22,25,42729.5861075167,0.150000000001455
22,26,42903.1948831836,0.149999999994179
22,27,40688.7122213663,0.150000000001455
22,28,42991.0999579512,0.150000000001455
22,29,42195.0452412036,0.150999999998021
22,30,43262.2060832713,0.150000000001455
23,1,41377.8236182276,0.150999999998021
23,2,42380.084380856,0.150000000001455
23,3,41489.1164541045,0.150999999998021
23,4,42569.620835521,0.150000000001455
23,5,40552.5927595564,0.150000000001455
23,6,41919.0575764256,0.150000000001455
23,7,40445.3762046764,0.150000000001455
23,8,40954.2799967401,0.150999999998021
23,9,41318.4198377161,0.150000000001455
23,10,42071.872801417,0.150999999998021
23,11,41695.01011691,0.150000000001455
23,12,41352.059773049,0.150000000001455
23,13,40145.0404733816,0.150000000001455
23,14,41378.5086126049,0.150999999998021
23,15,41447.8807877348,0.150000000001455
23,16,41835.65480767,0.150000000001455
23,17,41347.245977662,0.150000000001455
23,18,41409.9288642836,0.150000000001455
23,19,41174.4730787657,0.150999999998021
23,20,41545.5412799873,0.150000000001455
23,21,40613.7459133718,0.150999999998021
23,22,41865.3430762912,0.150000000001455
23,23,40490.4524531667,0.150999999998021
23,24,42958.3008582103,0.150000000001455
23,25,42458.4135990429,0.150000000001455
23,26,42556.5044043185,0.150000000001455
23,27,40417.5397128925,0.150000000001455
23,28,42644.4094790861,0.150000000001455
23,29,41923.8727327298,0.150000000001455
23,30,42915.5156044061,0.150000000001455
24,1,41343.4140233476,0.150000000001455
24,2,41890.2406025334,0.150999999998021
24,3,41454.7068592245,0.150000000001455
24,4,42058.4072869388,0.150999999998021
24,5,40518.1831646764,0.150000000001455
24,6,41884.6479815456,0.150999999998021
24,7,40410.9666097964,0.150000000001455
24,8,40919.8704018601,0.150000000001455
24,9,41284.010242836,0.149999999994179
24,10,41949.7578713661,0.150000000001455
24,11,41660.60052203,0.149999999994179
24,12,41317.650178169,0.150000000001455
24,13,40110.6308785016,0.149999999994179
24,14,41344.0990177249,0.150000000001455
24,15,41413.4711928548,0.151000000005297
24,16,41801.24521279,0.149999999994179
24,17,41312.836382782,0.151000000005297
24,18,41375.5192694036,0.149999999994179
24,19,41140.0634838857,0.150000000001455
24,20,41511.1316851072,0.149999999994179
24,21,40579.3363184917,0.150000000001455
24,22,41830.9334814112,0.151000000005297
24,23,40456.0428582867,0.149999999994179
24,24,42447.0873096279,0.151000000005297
24,25,42183.5636292313,0.149999999994179
24,26,42045.2908557362,0.150000000001455
24,27,40383.1301180125,0.149999999994179
24,28,42133.1959305038,0.150000000001455
24,29,41889.4631378498,0.150000000001455
24,30,42404.3020558238,0.149999999994179
25,1,41149.1081507812,0.150000000001455
25,2,40881.8464440017,0.149999999994179
25,3,41324.6590946655,0.151000000005297
25,4,41050.0131284071,0.149999999994179
25,5,41034.9575274712,0.151000000005297
25,6,41350.5913780228,0.150000000001455
25,7,40927.7409725912,0.149999999994179
25,8,41217.4545111024,0.150000000001455
25,9,41609.5578068311,0.149999999994179
25,10,40941.3637128344,0.150000000001455
25,11,41172.3178533156,0.150000000001455
25,12,41564.2640253748,0.150999999998021
25,13,40627.4052412964,0.150000000001455
25,14,41296.4597993487,0.150999999998021
25,15,41483.1510924638,0.150000000001455
25,16,41274.7169040739,0.149999999994179
25,17,41092.4920719906,0.150000000001455
25,18,41353.8875555263,0.150000000001455
25,19,41337.1938755419,0.150000000001455
25,20,41166.6936517107,0.150000000001455
25,21,41096.1106812865,0.150999999998021
25,22,41139.8150241279,0.156999999999243
25,23,40972.8172210815,0.150999999998021
25,24,41438.6931510962,0.151000000005297
25,25,41175.1694706996,0.150999999998021
25,26,41036.8966972045,0.150000000001455
25,27,40899.9044808073,0.150000000001455
25,28,41124.8017719722,0.150999999998021
25,29,41068.8922306821,0.150999999998021
25,30,41395.9078972921,0.151000000005297
26,1,39454.6845505164,0.150999999998021
26,2,39187.4228437369,0.150999999998021
26,3,39630.2354944007,0.150999999998021
26,4,39355.5895281423,0.150000000001455
26,5,39548.3987449498,0.150000000001455
26,6,39656.167777758,0.150000000001455
26,7,39515.0657893362,0.150999999998021
26,8,39523.0309108376,0.150999999998021
26,9,39915.1342065663,0.151000000005297
26,10,39246.9401125696,0.150999999998021
26,11,39477.8942530507,0.150999999998021
26,12,39869.84042511,0.150000000001455
26,13,39533.0042912594,0.150000000001455
26,14,39602.0361990839,0.150000000001455
26,15,39788.727492199,0.150999999998021
26,16,39580.293303809,0.150999999998021
26,17,39398.0684717258,0.150999999998021
26,18,39659.4639552614,0.151000000005297
26,19,39642.7702752771,0.150999999998021
26,20,39472.2700514459,0.150000000001455
26,21,39996.8898717348,0.150000000001455
26,22,39445.3914238631,0.150000000001455
26,23,39458.8627537949,0.151000000005297
26,24,39744.2695508314,0.150999999998021
26,25,39480.7458704348,0.150999999998021
26,26,39342.4730969397,0.150999999998021
26,27,39966.3847455604,0.150000000001455
26,28,39430.3781717073,0.149999999994179
26,29,39374.4686304173,0.151000000005297
26,30,39701.4842970273,0.150999999998021
27,1,41489.7223171836,0.150999999998021
27,2,41718.8195243671,0.150999999998021
27,3,41601.0151530605,0.151000000005297
27,4,41886.9862087725,0.150000000001455
27,5,40664.4914585124,0.150000000001455
27,6,42030.9562753816,0.150999999998021
27,7,40557.2749036324,0.150999999998021
27,8,41066.1786956961,0.151000000005297
27,9,41430.3185366721,0.149999999994179
27,10,41778.3367931999,0.150000000001455
27,11,41806.908815866,0.150000000001455
27,12,41463.9584720051,0.150999999998021
27,13,40256.9391723376,0.151000000005297
27,14,41490.407311561,0.150999999998021
27,15,41559.7794866908,0.150000000001455
27,16,41947.553506626,0.150000000001455
27,17,41459.1446766181,0.150999999998021
27,18,41521.8275632396,0.150999999998021
27,19,41286.3717777217,0.150000000001455
27,20,41657.4399789433,0.150000000001455
27,21,40725.6446123278,0.150999999998021
27,22,41976.7881044934,0.150999999998021
27,23,40602.3511521227,0.150000000001455
27,24,42275.6662314617,0.150000000001455
27,25,42012.1425510651,0.150999999998021
27,26,41873.86977757,0.151000000005297
27,27,40529.4384118485,0.150999999998021
27,28,41961.7748523376,0.150000000001455
27,29,41905.8653110475,0.150000000001455
27,30,42232.8809776576,0.150999999998021
28,1,41406.558458376,0.151000000005297
28,2,41139.2967515964,0.149999999994179
28,3,41582.1094022602,0.150000000001455
28,4,41307.4634360018,0.150999999998021
28,5,40954.7847417221,0.150999999998021
28,6,41608.0416856175,0.150999999998021
28,7,40847.5681868421,0.150000000001455
28,8,41159.6207869964,0.150000000001455
28,9,41720.6118198817,0.150999999998021
28,10,41198.8140204291,0.150999999998021
28,11,41429.7681609103,0.150000000001455
28,12,41754.2517552148,0.150000000001455
28,13,40547.2324555473,0.150999999998021
28,14,41553.9101069434,0.151000000005297
28,15,41740.6014000585,0.149999999994179
28,16,41532.1672116685,0.151000000005297
28,17,41349.9423795852,0.150999999998021
28,18,41611.3378631209,0.150999999998021
28,19,41576.6650609314,0.150000000001455
28,20,41424.1439593054,0.150999999998021
28,21,41015.9378955374,0.151000000005297
28,22,41397.2653317226,0.150999999998021
28,23,40892.6444353324,0.150000000001455
28,24,41696.143458691,0.150999999998021
28,25,41432.6197782943,0.150999999998021
28,26,41294.3470047992,0.150000000001455
28,27,40819.7316950582,0.149999999994179
28,28,41382.2520795668,0.151000000005297
28,29,41326.3425382768,0.150999999998021
28,30,41653.3582048868,0.150000000001455
29,1,41417.8756789607,0.150999999998021
29,2,42023.6956360537,0.150999999998021
29,3,41529.1685148377,0.150000000001455
29,4,42191.8623204591,0.150000000001455
29,5,40592.6448202896,0.151000000005297
29,6,41959.1096371588,0.149999999994179
29,7,40485.4282654095,0.150000000001455
29,8,40994.3320574732,0.150999999998021
29,9,41358.4718984492,0.150999999998021
29,10,42083.2129048865,0.150000000001455
29,11,41735.0621776432,0.150999999998021
29,12,41392.1118337822,0.151000000005297
29,13,40185.0925341147,0.149999999994179
29,14,41418.5606733381,0.151000000005297
29,15,41487.932848468,0.150999999998021
29,16,41875.7068684032,0.150000000001455
29,17,41387.2980383952,0.150000000001455
29,18,41449.9809250167,0.150999999998021
29,19,41214.5251394989,0.150000000001455
29,20,41585.5933407204,0.150000000001455
29,21,40653.7979741049,0.151000000005297
29,22,41905.3951370244,0.150999999998021
29,23,40530.5045138999,0.150000000001455
29,24,42580.5423431483,0.150999999998021
29,25,42317.0186627517,0.150999999998021
29,26,42178.7458892566,0.150000000001455
29,27,40457.5917736257,0.150999999998021
29,28,42266.6509640242,0.151000000005297
29,29,41963.924793463,0.149999999994179
29,30,42537.7570893442,0.151000000005297
30,1,41404.0643446345,0.150999999998021
30,2,41398.2071133044,0.150000000001455
30,3,41515.3571805114,0.150000000001455
30,4,41566.3737977098,0.150999999998021
30,5,40578.8334859633,0.150999999998021
30,6,41866.9520473255,0.150000000001455
30,7,40471.6169310833,0.151000000005297
30,8,40980.520723147,0.149999999994179
30,9,41344.6605641229,0.150000000001455
30,10,41457.7243821372,0.150999999998021
30,11,41688.6785226183,0.150999999998021
30,12,41378.3004994559,0.150000000001455
30,13,40171.2811997885,0.150999999998021
30,14,41404.7493390118,0.150999999998021
30,15,41474.1215141417,0.150000000001455
30,16,41791.0775733765,0.151000000005297
30,17,41373.4867040689,0.150999999998021
30,18,41436.1695906905,0.150000000001455
30,19,41200.7138051726,0.150000000001455
30,20,41571.7820063942,0.150999999998021
30,21,40639.9866397786,0.150000000001455
30,22,41656.1756934306,0.150999999998021
30,23,40516.6931795736,0.151000000005297
30,24,41955.053820399,0.149999999994179
30,25,41691.5301400023,0.151000000005297
30,26,41553.2573665072,0.150999999998021
30,27,40443.7804392994,0.150000000001455
30,28,41641.1624412748,0.150999999998021
30,29,41585.2528999848,0.150999999998021
30,30,41912.2685665949,0.150000000001455
