App - SimpleCalendar
Scenario - make_events
Length - 1sec
Measure - EDRDistance
Before Version - b2fe795
After Version - fd2ec79


"Before.Trace.ID1","Before.Trace.ID2","Difference","Runtime"
1,2,1729,0.395999999993364
1,3,1741,0.288000000000466
1,4,1739,0.289000000004307
1,5,1735,0.285999999992782
1,6,1732,0.275000000008731
1,7,1713,0.277000000001863
1,8,1733,0.282999999995809
1,9,1738,0.282999999995809
1,10,1728,0.278000000005704
1,11,1732,0.294999999998254
1,12,1736,0.286999999996624
1,13,1729,0.278999999994994
1,14,1743,0.275000000008731
1,15,1743,0.277999999991152
1,16,1733,0.278000000005704
1,17,1711,0.30800000000454
1,18,1731,0.273999999990338
1,19,1722,0.282000000006519
1,20,1734,0.282999999995809
1,21,1736,0.279999999998836
1,22,1731,0.288000000000466
1,23,1739,0.294000000008964
1,24,1727,0.276000000012573
1,25,1732,0.275999999998021
1,26,1743,0.274000000004889
1,27,1728,0.281000000002678
1,28,1738,0.277000000001863
1,29,1742,0.289000000004307
1,30,1746,0.282000000006519
2,3,1740,0.270999999993364
2,4,1734,0.270999999993364
2,5,1732,0.273000000001048
2,6,1734,0.270000000004075
2,7,1734,0.302999999999884
2,8,1717,0.294999999998254
2,9,1731,0.271999999997206
2,10,1740,0.296000000002095
2,11,1714,0.286999999996624
2,12,1723,0.275999999998021
2,13,1735,0.274000000004889
2,14,1742,0.275999999998021
2,15,1738,0.278000000005704
2,16,1732,0.271999999997206
2,17,1727,0.271999999997206
2,18,1746,0.273000000001048
2,19,1735,0.275999999998021
2,20,1733,0.269000000000233
2,21,1727,0.269000000000233
2,22,1732,0.273000000001048
2,23,1739,0.271999999997206
2,24,1735,0.270000000004075
2,25,1736,0.307999999989988
2,26,1746,0.270000000004075
2,27,1734,0.270000000004075
2,28,1738,0.269000000000233
2,29,1740,0.271999999997206
2,30,1741,0.274000000004889
3,4,1724,0.271999999997206
3,5,1731,0.270999999993364
3,6,1735,0.272000000011758
3,7,1738,0.277999999991152
3,8,1738,0.275999999998021
3,9,1740,0.274999999994179
3,10,1723,0.280000000013388
3,11,1740,0.283999999999651
3,12,1720,0.287000000011176
3,13,1736,0.271999999997206
3,14,1742,0.283000000010361
3,15,1725,0.275999999998021
3,16,1725,0.303999999989173
3,17,1739,0.269000000000233
3,18,1732,0.282000000006519
3,19,1736,0.275999999998021
3,20,1736,0.271999999997206
3,21,1741,0.270000000004075
3,22,1724,0.274999999994179
3,23,1733,0.271000000007916
3,24,1732,0.273000000001048
3,25,1739,0.305999999996857
3,26,1739,0.288000000000466
3,27,1738,0.273999999990338
3,28,1725,0.290000000008149
3,29,1727,0.296000000002095
3,30,1725,0.284999999988941
4,5,1708,0.283000000010361
4,6,1720,0.273999999990338
4,7,1730,0.279000000009546
4,8,1726,0.311000000001513
4,9,1735,0.273999999990338
4,10,1728,0.289000000004307
4,11,1726,0.273000000001048
4,12,1734,0.289000000004307
4,13,1722,0.293999999994412
4,14,1730,0.274999999994179
4,15,1733,0.276000000012573
4,16,1722,0.277999999991152
4,17,1738,0.286000000007334
4,18,1738,0.282999999995809
4,19,1712,0.275999999998021
4,20,1732,0.271999999997206
4,21,1721,0.270000000004075
4,22,1721,0.297999999995227
4,23,1733,0.282000000006519
4,24,1738,0.295999999987544
4,25,1730,0.293000000005122
4,26,1740,0.305999999996857
4,27,1735,0.271000000007916
4,28,1711,0.271999999997206
4,29,1733,0.270999999993364
4,30,1732,0.271999999997206
5,6,1731,0.288000000000466
5,7,1737,0.283000000010361
5,8,1726,0.277999999991152
5,9,1736,0.278000000005704
5,10,1721,0.283999999999651
5,11,1735,0.277000000001863
5,12,1715,0.288000000000466
5,13,1722,0.283999999999651
5,14,1729,0.277000000001863
5,15,1734,0.273999999990338
5,16,1728,0.273000000001048
5,17,1738,0.285000000003492
5,18,1734,0.290999999997439
5,19,1716,0.341000000000349
5,20,1735,0.304000000003725
5,21,1721,0.282999999995809
5,22,1723,0.294999999998254
5,23,1714,0.283999999999651
5,24,1734,0.285000000003492
5,25,1724,0.279999999998836
5,26,1744,0.273000000001048
5,27,1740,0.273000000001048
5,28,1724,0.275999999998021
5,29,1737,0.279999999998836
5,30,1732,0.275999999998021
6,7,1736,0.279999999998836
6,8,1722,0.273999999990338
6,9,1722,0.279999999998836
6,10,1738,0.283000000010361
6,11,1726,0.288999999989755
6,12,1743,0.275000000008731
6,13,1715,0.303999999989173
6,14,1737,0.290000000008149
6,15,1736,0.283999999999651
6,16,1726,0.274999999994179
6,17,1737,0.274999999994179
6,18,1737,0.273000000001048
6,19,1726,0.279000000009546
6,20,1731,0.277999999991152
6,21,1734,0.274000000004889
6,22,1730,0.272000000011758
6,23,1733,0.282999999995809
6,24,1732,0.30000000000291
6,25,1742,0.283999999999651
6,26,1733,0.277999999991152
6,27,1739,0.275000000008731
6,28,1723,0.277000000001863
6,29,1729,0.273999999990338
6,30,1742,0.270000000004075
7,8,1735,0.30000000000291
7,9,1740,0.269000000000233
7,10,1736,0.271999999997206
7,11,1735,0.269000000000233
7,12,1724,0.270999999993364
7,13,1733,0.271000000007916
7,14,1739,0.277000000001863
7,15,1739,0.277999999991152
7,16,1735,0.281000000002678
7,17,1720,0.273000000001048
7,18,1744,0.273000000001048
7,19,1734,0.271000000007916
7,20,1743,0.279999999998836
7,21,1728,0.283999999999651
7,22,1731,0.275999999998021
7,23,1734,0.275999999998021
7,24,1739,0.293999999994412
7,25,1731,0.294999999998254
7,26,1747,0.311000000001513
7,27,1733,0.274999999994179
7,28,1733,0.276000000012573
7,29,1742,0.282999999995809
7,30,1738,0.283999999999651
8,9,1721,0.290999999997439
8,10,1740,0.275999999998021
8,11,1735,0.279000000009546
8,12,1730,0.279999999998836
8,13,1725,0.279999999998836
8,14,1737,0.289000000004307
8,15,1735,0.279999999998836
8,16,1727,0.271999999997206
8,17,1744,0.270000000004075
8,18,1740,0.271000000007916
8,19,1727,0.276999999987311
8,20,1720,0.274000000004889
8,21,1734,0.273000000001048
8,22,1729,0.307000000000698
8,23,1737,0.271999999997206
8,24,1740,0.273000000001048
8,25,1728,0.274000000004889
8,26,1737,0.275999999998021
8,27,1739,0.271999999997206
8,28,1731,0.270999999993364
8,29,1739,0.270000000004075
8,30,1735,0.270000000004075
9,10,1734,0.273000000001048
9,11,1741,0.273999999990338
9,12,1741,0.274000000004889
9,13,1722,0.273999999990338
9,14,1731,0.270000000004075
9,15,1735,0.269000000000233
9,16,1728,0.270999999993364
9,17,1741,0.273000000001048
9,18,1731,0.275999999998021
9,19,1727,0.311000000001513
9,20,1731,0.270000000004075
9,21,1734,0.273000000001048
9,22,1728,0.269999999989523
9,23,1730,0.272000000011758
9,24,1738,0.273999999990338
9,25,1739,0.275999999998021
9,26,1744,0.275000000008731
9,27,1739,0.269999999989523
9,28,1728,0.277000000001863
9,29,1740,0.273000000001048
9,30,1740,0.273000000001048
10,11,1735,0.271999999997206
10,12,1723,0.271000000007916
10,13,1728,0.269000000000233
10,14,1740,0.271999999997206
10,15,1735,0.273000000001048
10,16,1735,0.272000000011758
10,17,1738,0.307999999989988
10,18,1708,0.268000000010943
10,19,1715,0.271999999997206
10,20,1741,0.269999999989523
10,21,1737,0.270000000004075
10,22,1726,0.270000000004075
10,23,1735,0.271999999997206
10,24,1722,0.270000000004075
10,25,1738,0.269999999989523
10,26,1744,0.271999999997206
10,27,1738,0.271000000007916
10,28,1721,0.273000000001048
10,29,1730,0.274999999994179
10,30,1730,0.275999999998021
11,12,1727,0.275000000008731
11,13,1735,0.279999999998836
11,14,1741,0.276999999987311
11,15,1736,0.273000000001048
11,16,1731,0.312000000005355
11,17,1737,0.270000000004075
11,18,1738,0.273000000001048
11,19,1718,0.271999999997206
11,20,1735,0.275999999998021
11,21,1729,0.273000000001048
11,22,1732,0.271999999997206
11,23,1743,0.301999999996042
11,24,1731,0.290000000008149
11,25,1732,0.291999999986729
11,26,1743,0.282000000006519
11,27,1746,0.273000000001048
11,28,1739,0.270999999993364
11,29,1731,0.270000000004075
11,30,1729,0.296000000002095
12,13,1734,0.274999999994179
12,14,1746,0.271000000007916
12,15,1735,0.271999999997206
12,16,1738,0.320999999996275
12,17,1742,0.281999999991967
12,18,1745,0.272000000011758
12,19,1730,0.269999999989523
12,20,1737,0.298999999999069
12,21,1733,0.279999999998836
12,22,1710,0.278000000005704
12,23,1731,0.271999999997206
12,24,1735,0.270000000004075
12,25,1731,0.271999999997206
12,26,1744,0.273000000001048
12,27,1741,0.271999999997206
12,28,1732,0.270999999993364
12,29,1729,0.272000000011758
12,30,1729,0.269000000000233
13,14,1732,0.271999999997206
13,15,1726,0.271999999997206
13,16,1716,0.274000000004889
13,17,1739,0.307999999989988
13,18,1733,0.267999999996391
13,19,1721,0.271999999997206
13,20,1730,0.270000000004075
13,21,1715,0.277000000001863
13,22,1726,0.274000000004889
13,23,1722,0.271999999997206
13,24,1734,0.271999999997206
13,25,1738,0.274999999994179
13,26,1735,0.275000000008731
13,27,1734,0.274999999994179
13,28,1731,0.283999999999651
13,29,1743,0.274999999994179
13,30,1741,0.276000000012573
14,15,1740,0.274999999994179
14,16,1725,0.274000000004889
14,17,1732,0.278999999994994
14,18,1736,0.273000000001048
14,19,1730,0.307000000000698
14,20,1740,0.270000000004075
14,21,1733,0.277999999991152
14,22,1733,0.273000000001048
14,23,1726,0.271999999997206
14,24,1735,0.275000000008731
14,25,1740,0.277000000001863
14,26,1725,0.270999999993364
14,27,1733,0.270000000004075
14,28,1732,0.271999999997206
14,29,1741,0.304999999993015
14,30,1733,0.286000000007334
15,16,1735,0.271999999997206
15,17,1740,0.269000000000233
15,18,1738,0.269000000000233
15,19,1736,0.277999999991152
15,20,1731,0.274000000004889
15,21,1737,0.273999999990338
15,22,1740,0.312000000005355
15,23,1726,0.267999999996391
15,24,1735,0.270999999993364
15,25,1737,0.270000000004075
15,26,1743,0.270999999993364
15,27,1735,0.271000000007916
15,28,1729,0.273999999990338
15,29,1734,0.270000000004075
15,30,1738,0.270000000004075
16,17,1739,0.270999999993364
16,18,1734,0.270999999993364
16,19,1726,0.272000000011758
16,20,1731,0.271999999997206
16,21,1733,0.269000000000233
16,22,1721,0.270999999993364
16,23,1736,0.271999999997206
16,24,1731,0.272000000011758
16,25,1740,0.273999999990338
16,26,1731,0.30899999999383
16,27,1735,0.268000000010943
16,28,1732,0.271999999997206
16,29,1732,0.270000000004075
16,30,1740,0.270999999993364
17,18,1733,0.271999999997206
17,19,1740,0.271000000007916
17,20,1737,0.269999999989523
17,21,1744,0.269000000000233
17,22,1732,0.272000000011758
17,23,1736,0.270999999993364
17,24,1740,0.273000000001048
17,25,1741,0.270999999993364
17,26,1741,0.269000000000233
17,27,1733,0.271000000007916
17,28,1739,0.271999999997206
17,29,1747,0.271000000007916
17,30,1740,0.271999999997206
18,19,1738,0.30899999999383
18,20,1740,0.269000000000233
18,21,1732,0.271000000007916
18,22,1727,0.269999999989523
18,23,1730,0.273000000001048
18,24,1728,0.274000000004889
18,25,1737,0.271999999997206
18,26,1728,0.271000000007916
18,27,1720,0.267999999996391
18,28,1737,0.271999999997206
18,29,1743,0.270999999993364
18,30,1732,0.271000000007916
19,20,1737,0.271000000007916
19,21,1717,0.270000000004075
19,22,1733,0.269999999989523
19,23,1728,0.273000000001048
19,24,1721,0.271000000007916
19,25,1732,0.270999999993364
19,26,1743,0.31699999999546
19,27,1742,0.271000000007916
19,28,1726,0.273000000001048
19,29,1732,0.271000000007916
19,30,1728,0.270999999993364
20,21,1738,0.278000000005704
20,22,1732,0.276999999987311
20,23,1734,0.271000000007916
20,24,1738,0.271999999997206
20,25,1731,0.271999999997206
20,26,1741,0.271999999997206
20,27,1735,0.270999999993364
20,28,1738,0.274000000004889
20,29,1743,0.274000000004889
20,30,1740,0.271999999997206
21,22,1735,0.273000000001048
21,23,1718,0.274999999994179
21,24,1737,0.273999999990338
21,25,1736,0.313999999998487
21,26,1725,0.274000000004889
21,27,1738,0.279999999998836
21,28,1741,0.275999999998021
21,29,1735,0.275000000008731
21,30,1741,0.276999999987311
22,23,1739,0.276000000012573
22,24,1740,0.275999999998021
22,25,1735,0.273999999990338
22,26,1745,0.275999999998021
22,27,1725,0.283999999999651
22,28,1733,0.30000000000291
22,29,1735,0.311000000001513
22,30,1736,0.30899999999383
23,24,1738,0.289000000004307
23,25,1724,0.283999999999651
23,26,1740,0.304999999993015
23,27,1727,0.294000000008964
23,28,1730,0.33200000000943
23,29,1731,0.281000000002678
23,30,1733,0.288999999989755
24,25,1739,0.281000000002678
24,26,1735,0.322000000000116
24,27,1731,0.298999999999069
24,28,1728,0.315000000002328
24,29,1738,0.281999999991967
24,30,1734,0.281000000002678
25,26,1742,0.290000000008149
25,27,1737,0.311999999990803
25,28,1736,0.282999999995809
25,29,1733,0.282000000006519
25,30,1721,0.282999999995809
26,27,1734,0.281000000002678
26,28,1726,0.292000000001281
26,29,1745,0.315000000002328
26,30,1726,0.283999999999651
27,28,1733,0.364999999990687
27,29,1745,0.320000000006985
27,30,1731,0.327999999994063
28,29,1735,0.293000000005122
28,30,1741,0.290999999997439
29,30,1722,0.295000000012806


"After.Trace.ID","Before.Trace.ID","Difference","Runtime"
1,1,1735,0.263000000006286
1,2,1735,0.290999999997439
1,3,1735,0.296000000002095
1,4,1716,0.329999999987194
1,5,1733,0.315000000002328
1,6,1725,0.311000000001513
1,7,1734,0.290999999997439
1,8,1732,0.325000000011642
1,9,1723,0.306999999986147
1,10,1732,0.295000000012806
1,11,1738,0.320999999996275
1,12,1737,0.315999999991618
1,13,1719,0.3240000000078
1,14,1734,0.293000000005122
1,15,1730,0.294999999998254
1,16,1715,0.293999999994412
1,17,1736,0.296999999991385
1,18,1735,0.294000000008964
1,19,1723,0.296999999991385
1,20,1739,0.296000000002095
1,21,1724,0.298000000009779
1,22,1723,0.293999999994412
1,23,1727,0.294999999998254
1,24,1732,0.304000000003725
1,25,1735,0.327999999994063
1,26,1735,0.296000000002095
1,27,1737,0.297999999995227
1,28,1717,0.297999999995227
1,29,1725,0.30000000000291
1,30,1736,0.296000000002095
2,1,1731,0.31699999999546
2,2,1742,0.305999999996857
2,3,1729,0.327000000004773
2,4,1732,0.319000000003143
2,5,1727,0.317999999999302
2,6,1735,0.307000000000698
2,7,1727,0.29299999999057
2,8,1733,0.296000000002095
2,9,1741,0.30899999999383
2,10,1728,0.319000000003143
2,11,1728,0.298999999999069
2,12,1733,0.294999999998254
2,13,1722,0.298000000009779
2,14,1736,0.295999999987544
2,15,1724,0.297000000005937
2,16,1726,0.298999999999069
2,17,1729,0.292000000001281
2,18,1725,0.296999999991385
2,19,1718,0.293000000005122
2,20,1731,0.293999999994412
2,21,1739,0.298999999999069
2,22,1735,0.294999999998254
2,23,1735,0.298000000009779
2,24,1728,0.286999999996624
2,25,1734,0.295999999987544
2,26,1742,0.290000000008149
2,27,1733,0.288000000000466
2,28,1726,0.292000000001281
2,29,1732,0.296999999991385
2,30,1735,0.290000000008149
3,1,1736,0.288999999989755
3,2,1735,0.287000000011176
3,3,1735,0.284999999988941
3,4,1724,0.288000000000466
3,5,1721,0.289000000004307
3,6,1731,0.29299999999057
3,7,1746,0.288000000000466
3,8,1731,0.285000000003492
3,9,1736,0.288000000000466
3,10,1735,0.288000000000466
3,11,1737,0.288000000000466
3,12,1730,0.286000000007334
3,13,1726,0.287000000011176
3,14,1733,0.287000000011176
3,15,1736,0.286000000007334
3,16,1733,0.292000000001281
3,17,1741,0.284999999988941
3,18,1733,0.292000000001281
3,19,1728,0.289000000004307
3,20,1736,0.286999999996624
3,21,1714,0.289999999993597
3,22,1730,0.290000000008149
3,23,1732,0.296999999991385
3,24,1729,0.293000000005122
3,25,1744,0.290999999997439
3,26,1736,0.285000000003492
3,27,1737,0.289000000004307
3,28,1724,0.288000000000466
3,29,1735,0.292000000001281
3,30,1745,0.285999999992782
4,1,1731,0.285999999992782
4,2,1736,0.288000000000466
4,3,1734,0.288000000000466
4,4,1714,0.289000000004307
4,5,1721,0.289000000004307
4,6,1719,0.284999999988941
4,7,1731,0.288000000000466
4,8,1738,0.288000000000466
4,9,1730,0.288000000000466
4,10,1720,0.286999999996624
4,11,1730,0.289000000004307
4,12,1724,0.289000000004307
4,13,1718,0.286999999996624
4,14,1727,0.297000000005937
4,15,1737,0.285999999992782
4,16,1729,0.286999999996624
4,17,1741,0.290000000008149
4,18,1734,0.293999999994412
4,19,1715,0.288000000000466
4,20,1730,0.283999999999651
4,21,1733,0.288000000000466
4,22,1717,0.288000000000466
4,23,1732,0.292000000001281
4,24,1719,0.286999999996624
4,25,1740,0.290000000008149
4,26,1734,0.290999999997439
4,27,1733,0.288000000000466
4,28,1725,0.286999999996624
4,29,1734,0.286999999996624
4,30,1727,0.290999999997439
5,1,1739,0.298000000009779
5,2,1737,0.286999999996624
5,3,1740,0.293999999994412
5,4,1726,0.322000000000116
5,5,1739,0.293000000005122
5,6,1730,0.320999999996275
5,7,1737,0.304000000003725
5,8,1733,0.29299999999057
5,9,1732,0.294999999998254
5,10,1731,0.30000000000291
5,11,1733,0.302000000010594
5,12,1739,0.31699999999546
5,13,1733,0.289999999993597
5,14,1743,0.294999999998254
5,15,1737,0.294000000008964
5,16,1740,0.29299999999057
5,17,1737,0.293000000005122
5,18,1741,0.289000000004307
5,19,1739,0.294000000008964
5,20,1733,0.3009999999922
5,21,1743,0.296000000002095
5,22,1736,0.30000000000291
5,23,1730,0.29299999999057
5,24,1742,0.290000000008149
5,25,1733,0.289999999993597
5,26,1742,0.289000000004307
5,27,1742,0.285999999992782
5,28,1742,0.287000000011176
5,29,1741,0.288000000000466
5,30,1746,0.286999999996624
6,1,1733,0.288000000000466
6,2,1744,0.283999999999651
6,3,1729,0.289000000004307
6,4,1730,0.289000000004307
6,5,1735,0.290999999997439
6,6,1729,0.286999999996624
6,7,1740,0.290999999997439
6,8,1731,0.290000000008149
6,9,1739,0.286999999996624
6,10,1731,0.289999999993597
6,11,1741,0.286000000007334
6,12,1741,0.288000000000466
6,13,1732,0.288000000000466
6,14,1746,0.288000000000466
6,15,1729,0.289000000004307
6,16,1734,0.286000000007334
6,17,1735,0.288000000000466
6,18,1731,0.289999999993597
6,19,1729,0.293999999994412
6,20,1730,0.286000000007334
6,21,1742,0.286999999996624
6,22,1732,0.288000000000466
6,23,1728,0.286999999996624
6,24,1729,0.287000000011176
6,25,1740,0.288000000000466
6,26,1722,0.285999999992782
6,27,1727,0.288000000000466
6,28,1733,0.286999999996624
6,29,1740,0.289000000004307
6,30,1730,0.283999999999651
7,1,1743,0.288000000000466
7,2,1736,0.286999999996624
7,3,1710,0.288000000000466
7,4,1732,0.286000000007334
7,5,1735,0.296000000002095
7,6,1743,0.318999999988591
7,7,1734,0.289000000004307
7,8,1740,0.289999999993597
7,9,1738,0.326000000000931
7,10,1720,0.32499999999709
7,11,1730,0.31600000000617
7,12,1714,0.319000000003143
7,13,1733,0.312999999994645
7,14,1730,0.305999999996857
7,15,1732,0.320000000006985
7,16,1737,0.311000000001513
7,17,1745,0.293000000005122
7,18,1739,0.297000000005937
7,19,1728,0.305999999996857
7,20,1740,0.305999999996857
7,21,1736,0.293999999994412
7,22,1733,0.290000000008149
7,23,1735,0.307999999989988
7,24,1744,0.289000000004307
7,25,1739,0.293999999994412
7,26,1743,0.290000000008149
7,27,1740,0.289999999993597
7,28,1729,0.279999999998836
7,29,1729,0.279999999998836
7,30,1722,0.277000000001863
8,1,1737,0.297999999995227
8,2,1738,0.298999999999069
8,3,1733,0.290000000008149
8,4,1733,0.307000000000698
8,5,1739,0.3009999999922
8,6,1740,0.302000000010594
8,7,1741,0.3009999999922
8,8,1744,0.307000000000698
8,9,1735,0.305000000007567
8,10,1741,0.301999999996042
8,11,1735,0.289000000004307
8,12,1743,0.295999999987544
8,13,1736,0.280000000013388
8,14,1736,0.278999999994994
8,15,1738,0.286999999996624
8,16,1738,0.297999999995227
8,17,1740,0.290000000008149
8,18,1736,0.279999999998836
8,19,1734,0.282999999995809
8,20,1739,0.278999999994994
8,21,1730,0.277000000001863
8,22,1726,0.283999999999651
8,23,1724,0.279000000009546
8,24,1733,0.284999999988941
8,25,1744,0.282000000006519
8,26,1729,0.277000000001863
8,27,1722,0.277999999991152
8,28,1735,0.274000000004889
8,29,1745,0.277000000001863
8,30,1734,0.273999999990338
9,1,1729,0.283000000010361
9,2,1731,0.292000000001281
9,3,1734,0.295999999987544
9,4,1732,0.298999999999069
9,5,1723,0.305000000007567
9,6,1734,0.293000000005122
9,7,1722,0.297999999995227
9,8,1735,0.304999999993015
9,9,1736,0.302000000010594
9,10,1727,0.311999999990803
9,11,1733,0.304000000003725
9,12,1729,0.280000000013388
9,13,1739,0.281000000002678
9,14,1736,0.274000000004889
9,15,1732,0.277999999991152
9,16,1733,0.272000000011758
9,17,1738,0.274000000004889
9,18,1740,0.274000000004889
9,19,1738,0.274999999994179
9,20,1735,0.274000000004889
9,21,1744,0.273999999990338
9,22,1726,0.279000000009546
9,23,1734,0.273999999990338
9,24,1734,0.269000000000233
9,25,1731,0.273000000001048
9,26,1742,0.275999999998021
9,27,1735,0.283999999999651
9,28,1730,0.287000000011176
9,29,1726,0.29299999999057
9,30,1732,0.283999999999651
10,1,1743,0.298000000009779
10,2,1740,0.29299999999057
10,3,1741,0.282000000006519
10,4,1738,0.298999999999069
10,5,1736,0.296000000002095
10,6,1741,0.278999999994994
10,7,1743,0.282999999995809
10,8,1735,0.294000000008964
10,9,1739,0.283999999999651
10,10,1736,0.281000000002678
10,11,1737,0.275999999998021
10,12,1741,0.296000000002095
10,13,1739,0.311000000001513
10,14,1744,0.293999999994412
10,15,1738,0.290999999997439
10,16,1740,0.280999999988126
10,17,1746,0.283999999999651
10,18,1740,0.277000000001863
10,19,1743,0.285000000003492
10,20,1732,0.278999999994994
10,21,1745,0.278000000005704
10,22,1740,0.281000000002678
10,23,1742,0.278999999994994
10,24,1744,0.278999999994994
10,25,1741,0.281000000002678
10,26,1743,0.278999999994994
10,27,1739,0.277000000001863
10,28,1742,0.277000000001863
10,29,1732,0.273000000001048
10,30,1737,0.279999999998836
11,1,1733,0.275000000008731
11,2,1747,0.275999999998021
11,3,1732,0.279000000009546
11,4,1739,0.275999999998021
11,5,1736,0.281999999991967
11,6,1734,0.288000000000466
11,7,1740,0.273000000001048
11,8,1737,0.282000000006519
11,9,1731,0.289000000004307
11,10,1742,0.280999999988126
11,11,1746,0.283999999999651
11,12,1742,0.276000000012573
11,13,1735,0.284999999988941
11,14,1740,0.289000000004307
11,15,1739,0.275999999998021
11,16,1734,0.286999999996624
11,17,1741,0.281000000002678
11,18,1723,0.275000000008731
11,19,1740,0.277999999991152
11,20,1738,0.278999999994994
11,21,1741,0.283000000010361
11,22,1735,0.280999999988126
11,23,1740,0.287000000011176
11,24,1738,0.281999999991967
11,25,1737,0.282999999995809
11,26,1712,0.283000000010361
11,27,1737,0.285999999992782
11,28,1737,0.275000000008731
11,29,1746,0.276000000012573
11,30,1737,0.294999999998254
12,1,1745,0.286999999996624
12,2,1737,0.279999999998836
12,3,1731,0.281000000002678
12,4,1725,0.274999999994179
12,5,1731,0.275000000008731
12,6,1734,0.273000000001048
12,7,1736,0.271999999997206
12,8,1735,0.270000000004075
12,9,1737,0.279999999998836
12,10,1730,0.282000000006519
12,11,1741,0.277999999991152
12,12,1729,0.279999999998836
12,13,1740,0.271000000007916
12,14,1732,0.271999999997206
12,15,1728,0.273000000001048
12,16,1722,0.279999999998836
12,17,1741,0.277000000001863
12,18,1739,0.277000000001863
12,19,1735,0.275999999998021
12,20,1743,0.273999999990338
12,21,1736,0.271999999997206
12,22,1725,0.272000000011758
12,23,1730,0.271999999997206
12,24,1734,0.271999999997206
12,25,1731,0.270000000004075
12,26,1743,0.271999999997206
12,27,1742,0.274999999994179
12,28,1728,0.281000000002678
12,29,1733,0.286999999996624
12,30,1727,0.279999999998836
13,1,1736,0.281000000002678
13,2,1730,0.271999999997206
13,3,1720,0.272000000011758
13,4,1726,0.271999999997206
13,5,1743,0.282999999995809
13,6,1736,0.283999999999651
13,7,1743,0.274999999994179
13,8,1738,0.278000000005704
13,9,1732,0.283999999999651
13,10,1734,0.273999999990338
13,11,1734,0.282000000006519
13,12,1734,0.278999999994994
13,13,1729,0.274000000004889
13,14,1742,0.271999999997206
13,15,1732,0.273000000001048
13,16,1733,0.267999999996391
13,17,1737,0.271999999997206
13,18,1724,0.271999999997206
13,19,1743,0.271000000007916
13,20,1735,0.270000000004075
13,21,1732,0.271999999997206
13,22,1725,0.271000000007916
13,23,1733,0.276999999987311
13,24,1738,0.274000000004889
13,25,1743,0.274000000004889
13,26,1743,0.273000000001048
13,27,1733,0.274999999994179
13,28,1729,0.279999999998836
13,29,1735,0.274000000004889
13,30,1736,0.269000000000233
14,1,1744,0.273000000001048
14,2,1738,0.272999999986496
14,3,1734,0.272000000011758
14,4,1733,0.271999999997206
14,5,1731,0.270999999993364
14,6,1736,0.271000000007916
14,7,1730,0.272000000011758
14,8,1732,0.279999999998836
14,9,1738,0.270999999993364
14,10,1742,0.274000000004889
14,11,1739,0.274000000004889
14,12,1729,0.277000000001863
14,13,1736,0.275999999998021
14,14,1747,0.268000000010943
14,15,1732,0.271000000007916
14,16,1743,0.279999999998836
14,17,1736,0.271999999997206
14,18,1736,0.269000000000233
14,19,1733,0.274999999994179
14,20,1742,0.277000000001863
14,21,1736,0.277000000001863
14,22,1745,0.275999999998021
14,23,1725,0.274999999994179
14,24,1745,0.271000000007916
14,25,1722,0.273000000001048
14,26,1737,0.271999999997206
14,27,1741,0.270999999993364
14,28,1733,0.269000000000233
14,29,1735,0.273000000001048
14,30,1723,0.271999999997206
15,1,1739,0.271999999997206
15,2,1738,0.277000000001863
15,3,1725,0.272999999986496
15,4,1741,0.271000000007916
15,5,1731,0.270000000004075
15,6,1740,0.270999999993364
15,7,1743,0.270000000004075
15,8,1742,0.270999999993364
15,9,1743,0.270999999993364
15,10,1739,0.271000000007916
15,11,1740,0.271999999997206
15,12,1732,0.267999999996391
15,13,1744,0.271000000007916
15,14,1743,0.271999999997206
15,15,1732,0.271000000007916
15,16,1741,0.270000000004075
15,17,1744,0.270999999993364
15,18,1743,0.271999999997206
15,19,1734,0.270000000004075
15,20,1739,0.271999999997206
15,21,1744,0.271000000007916
15,22,1743,0.271999999997206
15,23,1735,0.270999999993364
15,24,1738,0.271000000007916
15,25,1749,0.271999999997206
15,26,1743,0.270000000004075
15,27,1732,0.270999999993364
15,28,1729,0.271999999997206
15,29,1738,0.271000000007916
15,30,1738,0.270000000004075
16,1,1729,0.271999999997206
16,2,1736,0.274000000004889
16,3,1730,0.269000000000233
16,4,1718,0.272999999986496
16,5,1724,0.272000000011758
16,6,1736,0.274000000004889
16,7,1731,0.274000000004889
16,8,1734,0.271000000007916
16,9,1729,0.274999999994179
16,10,1719,0.274000000004889
16,11,1729,0.277999999991152
16,12,1730,0.279999999998836
16,13,1736,0.296000000002095
16,14,1731,0.277000000001863
16,15,1730,0.278000000005704
16,16,1732,0.279000000009546
16,17,1726,0.277000000001863
16,18,1730,0.275999999998021
16,19,1721,0.274000000004889
16,20,1734,0.276999999987311
16,21,1732,0.278000000005704
16,22,1725,0.273000000001048
16,23,1725,0.273000000001048
16,24,1726,0.270999999993364
16,25,1737,0.271999999997206
16,26,1737,0.271999999997206
16,27,1735,0.272000000011758
16,28,1729,0.270999999993364
16,29,1739,0.271999999997206
16,30,1731,0.271000000007916
17,1,1727,0.271000000007916
17,2,1735,0.270999999993364
17,3,1736,0.269000000000233
17,4,1725,0.271999999997206
17,5,1721,0.271000000007916
17,6,1732,0.271999999997206
17,7,1735,0.270999999993364
17,8,1727,0.269000000000233
17,9,1740,0.294999999998254
17,10,1735,0.30000000000291
17,11,1729,0.290999999997439
17,12,1727,0.285000000003492
17,13,1734,0.283000000010361
17,14,1739,0.283999999999651
17,15,1735,0.277999999991152
17,16,1735,0.282000000006519
17,17,1733,0.274999999994179
17,18,1747,0.283999999999651
17,19,1722,0.281000000002678
17,20,1726,0.288000000000466
17,21,1732,0.278999999994994
17,22,1729,0.274000000004889
17,23,1725,0.273000000001048
17,24,1735,0.278999999994994
17,25,1719,0.290000000008149
17,26,1743,0.291000000011991
17,27,1743,0.283999999999651
17,28,1728,0.279999999998836
17,29,1737,0.279999999998836
17,30,1727,0.294000000008964
18,1,1741,0.301999999996042
18,2,1743,0.286000000007334
18,3,1730,0.278999999994994
18,4,1741,0.277000000001863
18,5,1737,0.277999999991152
18,6,1741,0.278000000005704
18,7,1737,0.292000000001281
18,8,1737,0.296999999991385
18,9,1729,0.289000000004307
18,10,1728,0.286999999996624
18,11,1743,0.286999999996624
18,12,1731,0.286999999996624
18,13,1738,0.289000000004307
18,14,1748,0.313999999998487
18,15,1734,0.282000000006519
18,16,1736,0.302999999999884
18,17,1742,0.288999999989755
18,18,1740,0.279999999998836
18,19,1736,0.278000000005704
18,20,1732,0.273000000001048
18,21,1744,0.281999999991967
18,22,1737,0.276000000012573
18,23,1730,0.271999999997206
18,24,1723,0.269999999989523
18,25,1727,0.283999999999651
18,26,1737,0.282000000006519
18,27,1743,0.305999999996857
18,28,1731,0.281000000002678
18,29,1730,0.270000000004075
18,30,1721,0.278999999994994
19,1,1741,0.282000000006519
19,2,1739,0.282999999995809
19,3,1724,0.281000000002678
19,4,1732,0.277999999991152
19,5,1725,0.279999999998836
19,6,1739,0.305000000007567
19,7,1735,0.283999999999651
19,8,1729,0.274999999994179
19,9,1734,0.271999999997206
19,10,1732,0.273000000001048
19,11,1742,0.3009999999922
19,12,1734,0.275999999998021
19,13,1730,0.270000000004075
19,14,1725,0.296000000002095
19,15,1730,0.292000000001281
19,16,1729,0.3009999999922
19,17,1744,0.288000000000466
19,18,1732,0.286999999996624
19,19,1734,0.285000000003492
19,20,1739,0.285000000003492
19,21,1739,0.292000000001281
19,22,1728,0.273999999990338
19,23,1721,0.278000000005704
19,24,1736,0.278000000005704
19,25,1719,0.271999999997206
19,26,1740,0.270999999993364
19,27,1731,0.275000000008731
19,28,1711,0.270999999993364
19,29,1724,0.273000000001048
19,30,1729,0.271999999997206
20,1,1735,0.271999999997206
20,2,1736,0.268000000010943
20,3,1728,0.273000000001048
20,4,1709,0.271999999997206
20,5,1710,0.270999999993364
20,6,1732,0.270000000004075
20,7,1728,0.271999999997206
20,8,1728,0.270999999993364
20,9,1737,0.271000000007916
20,10,1726,0.270999999993364
20,11,1737,0.273000000001048
20,12,1714,0.275999999998021
20,13,1723,0.275999999998021
20,14,1736,0.277000000001863
20,15,1729,0.273000000001048
20,16,1731,0.270999999993364
20,17,1735,0.275000000008731
20,18,1735,0.273999999990338
20,19,1712,0.273000000001048
20,20,1739,0.271000000007916
20,21,1728,0.273999999990338
20,22,1723,0.271999999997206
20,23,1718,0.274000000004889
20,24,1737,0.279999999998836
20,25,1729,0.277000000001863
20,26,1739,0.274999999994179
20,27,1741,0.278999999994994
20,28,1723,0.273000000001048
20,29,1723,0.275999999998021
20,30,1736,0.271000000007916
21,1,1729,0.276999999987311
21,2,1736,0.274000000004889
21,3,1730,0.273000000001048
21,4,1727,0.270999999993364
21,5,1730,0.281000000002678
21,6,1731,0.296000000002095
21,7,1739,0.271000000007916
21,8,1730,0.273999999990338
21,9,1731,0.301000000006752
21,10,1725,0.286999999996624
21,11,1733,0.292000000001281
21,12,1734,0.273000000001048
21,13,1738,0.29299999999057
21,14,1739,0.283000000010361
21,15,1735,0.271999999997206
21,16,1735,0.297999999995227
21,17,1741,0.278999999994994
21,18,1728,0.291000000011991
21,19,1733,0.289000000004307
21,20,1732,0.279999999998836
21,21,1734,0.283999999999651
21,22,1734,0.285000000003492
21,23,1732,0.281999999991967
21,24,1729,0.274000000004889
21,25,1738,0.271999999997206
21,26,1730,0.273000000001048
21,27,1739,0.273000000001048
21,28,1728,0.267999999996391
21,29,1736,0.278000000005704
21,30,1730,0.282999999995809
22,1,1741,0.275999999998021
22,2,1742,0.278000000005704
22,3,1734,0.285000000003492
22,4,1729,0.285999999992782
22,5,1734,0.281000000002678
22,6,1735,0.280999999988126
22,7,1737,0.275000000008731
22,8,1739,0.275999999998021
22,9,1736,0.273000000001048
22,10,1731,0.277999999991152
22,11,1738,0.301000000006752
22,12,1723,0.297999999995227
22,13,1737,0.278000000005704
22,14,1741,0.273999999990338
22,15,1734,0.274999999994179
22,16,1734,0.282000000006519
22,17,1744,0.275000000008731
22,18,1733,0.281999999991967
22,19,1730,0.270000000004075
22,20,1737,0.277000000001863
22,21,1741,0.280999999988126
22,22,1731,0.277000000001863
22,23,1725,0.289000000004307
22,24,1724,0.281000000002678
22,25,1731,0.277000000001863
22,26,1742,0.274000000004889
22,27,1735,0.274000000004889
22,28,1711,0.283999999999651
22,29,1733,0.282999999995809
22,30,1740,0.275999999998021
23,1,1736,0.274000000004889
23,2,1742,0.280999999988126
23,3,1732,0.275000000008731
23,4,1734,0.271000000007916
23,5,1730,0.271999999997206
23,6,1740,0.275000000008731
23,7,1738,0.278999999994994
23,8,1730,0.275999999998021
23,9,1734,0.272000000011758
23,10,1735,0.280999999988126
23,11,1743,0.277000000001863
23,12,1726,0.271999999997206
23,13,1737,0.273000000001048
23,14,1738,0.279999999998836
23,15,1737,0.275999999998021
23,16,1740,0.274000000004889
23,17,1743,0.270999999993364
23,18,1732,0.285000000003492
23,19,1730,0.285000000003492
23,20,1738,0.274999999994179
23,21,1731,0.271999999997206
23,22,1739,0.273000000001048
23,23,1717,0.273000000001048
23,24,1732,0.279999999998836
23,25,1730,0.274999999994179
23,26,1736,0.273000000001048
23,27,1734,0.275999999998021
23,28,1724,0.274000000004889
23,29,1731,0.277999999991152
23,30,1740,0.273000000001048
24,1,1738,0.271000000007916
24,2,1738,0.273999999990338
24,3,1732,0.269000000000233
24,4,1732,0.275999999998021
24,5,1730,0.277000000001863
24,6,1726,0.275999999998021
24,7,1738,0.275000000008731
24,8,1739,0.270999999993364
24,9,1739,0.274000000004889
24,10,1737,0.271999999997206
24,11,1742,0.273000000001048
24,12,1728,0.271000000007916
24,13,1735,0.272999999986496
24,14,1728,0.274000000004889
24,15,1724,0.271000000007916
24,16,1731,0.271999999997206
24,17,1739,0.269999999989523
24,18,1733,0.271000000007916
24,19,1733,0.274000000004889
24,20,1742,0.271999999997206
24,21,1741,0.271999999997206
24,22,1732,0.269000000000233
24,23,1732,0.271999999997206
24,24,1734,0.271999999997206
24,25,1740,0.272000000011758
24,26,1739,0.269999999989523
24,27,1739,0.273000000001048
24,28,1727,0.271000000007916
24,29,1724,0.269999999989523
24,30,1742,0.272000000011758
25,1,1733,0.269000000000233
25,2,1738,0.271000000007916
25,3,1741,0.270999999993364
25,4,1737,0.270999999993364
25,5,1734,0.275000000008731
25,6,1725,0.293999999994412
25,7,1735,0.275999999998021
25,8,1727,0.275999999998021
25,9,1733,0.275999999998021
25,10,1736,0.274999999994179
25,11,1738,0.275000000008731
25,12,1738,0.274000000004889
25,13,1705,0.275999999998021
25,14,1737,0.277000000001863
25,15,1735,0.274999999994179
25,16,1731,0.275999999998021
25,17,1742,0.279999999998836
25,18,1739,0.279999999998836
25,19,1741,0.274999999994179
25,20,1735,0.279999999998836
25,21,1740,0.277000000001863
25,22,1737,0.274999999994179
25,23,1734,0.283999999999651
25,24,1732,0.275999999998021
25,25,1735,0.275000000008731
25,26,1734,0.275000000008731
25,27,1738,0.281999999991967
25,28,1734,0.275999999998021
25,29,1742,0.279000000009546
25,30,1739,0.274999999994179
26,1,1740,0.282999999995809
26,2,1735,0.274000000004889
26,3,1730,0.282999999995809
26,4,1730,0.274000000004889
26,5,1739,0.281999999991967
26,6,1724,0.274000000004889
26,7,1743,0.275999999998021
26,8,1727,0.279000000009546
26,9,1708,0.285999999992782
26,10,1737,0.273999999990338
26,11,1741,0.274000000004889
26,12,1740,0.275000000008731
26,13,1717,0.269000000000233
26,14,1734,0.275999999998021
26,15,1730,0.274999999994179
26,16,1721,0.285000000003492
26,17,1739,0.277999999991152
26,18,1731,0.274000000004889
26,19,1733,0.275999999998021
26,20,1733,0.275000000008731
26,21,1727,0.277999999991152
26,22,1733,0.290000000008149
26,23,1731,0.297999999995227
26,24,1735,0.288000000000466
26,25,1738,0.294999999998254
26,26,1714,0.273000000001048
26,27,1722,0.293999999994412
26,28,1722,0.271999999997206
26,29,1738,0.285000000003492
26,30,1732,0.30000000000291
27,1,1727,0.297999999995227
27,2,1738,0.297000000005937
27,3,1730,0.298000000009779
27,4,1725,0.282000000006519
27,5,1734,0.279999999998836
27,6,1727,0.277000000001863
27,7,1737,0.281000000002678
27,8,1734,0.281000000002678
27,9,1725,0.277000000001863
27,10,1716,0.274999999994179
27,11,1733,0.277000000001863
27,12,1735,0.275999999998021
27,13,1724,0.274999999994179
27,14,1732,0.274000000004889
27,15,1728,0.274999999994179
27,16,1736,0.270999999993364
27,17,1739,0.271999999997206
27,18,1719,0.271999999997206
27,19,1728,0.274000000004889
27,20,1728,0.278000000005704
27,21,1737,0.282999999995809
27,22,1725,0.289000000004307
27,23,1726,0.286000000007334
27,24,1738,0.302999999999884
27,25,1727,0.289999999993597
27,26,1732,0.279999999998836
27,27,1732,0.282000000006519
27,28,1725,0.279999999998836
27,29,1742,0.285999999992782
27,30,1741,0.282000000006519
28,1,1734,0.283999999999651
28,2,1740,0.281000000002678
28,3,1732,0.279999999998836
28,4,1736,0.275999999998021
28,5,1728,0.278000000005704
28,6,1737,0.275999999998021
28,7,1743,0.273000000001048
28,8,1740,0.273000000001048
28,9,1735,0.271000000007916
28,10,1730,0.273999999990338
28,11,1738,0.274000000004889
28,12,1738,0.271999999997206
28,13,1740,0.296000000002095
28,14,1742,0.296000000002095
28,15,1728,0.277000000001863
28,16,1738,0.278999999994994
28,17,1743,0.305999999996857
28,18,1730,0.274000000004889
28,19,1737,0.273999999990338
28,20,1738,0.298000000009779
28,21,1732,0.270999999993364
28,22,1738,0.289000000004307
28,23,1736,0.302000000010594
28,24,1728,0.274999999994179
28,25,1733,0.273000000001048
28,26,1731,0.294999999998254
28,27,1725,0.279000000009546
28,28,1732,0.269000000000233
28,29,1742,0.272999999986496
28,30,1738,0.273000000001048
29,1,1737,0.273000000001048
29,2,1743,0.273000000001048
29,3,1729,0.291000000011991
29,4,1735,0.309999999997672
29,5,1726,0.279999999998836
29,6,1732,0.276999999987311
29,7,1740,0.272000000011758
29,8,1740,0.274999999994179
29,9,1729,0.274000000004889
29,10,1732,0.275999999998021
29,11,1732,0.273000000001048
29,12,1732,0.271000000007916
29,13,1733,0.273999999990338
29,14,1727,0.296000000002095
29,15,1745,0.285999999992782
29,16,1736,0.313000000009197
29,17,1739,0.286999999996624
29,18,1737,0.297999999995227
29,19,1736,0.285000000003492
29,20,1744,0.290999999997439
29,21,1735,0.301000000006752
29,22,1735,0.281999999991967
29,23,1734,0.278000000005704
29,24,1732,0.288000000000466
29,25,1742,0.30800000000454
29,26,1735,0.299999999988358
29,27,1729,0.311000000001513
29,28,1727,0.302000000010594
29,29,1739,0.285999999992782
29,30,1732,0.271999999997206
30,1,1737,0.281000000002678
30,2,1741,0.301999999996042
30,3,1736,0.271000000007916
30,4,1724,0.271999999997206
30,5,1737,0.273999999990338
30,6,1737,0.274000000004889
30,7,1742,0.293000000005122
30,8,1737,0.30000000000291
30,9,1742,0.303999999989173
30,10,1734,0.306000000011409
30,11,1743,0.289999999993597
30,12,1730,0.286999999996624
30,13,1745,0.282000000006519
30,14,1743,0.286999999996624
30,15,1734,0.282999999995809
30,16,1735,0.285000000003492
30,17,1742,0.278000000005704
30,18,1730,0.282999999995809
30,19,1733,0.286999999996624
30,20,1743,0.273000000001048
30,21,1743,0.273000000001048
30,22,1739,0.282999999995809
30,23,1741,0.301000000006752
30,24,1737,0.283999999999651
30,25,1735,0.273999999990338
30,26,1734,0.271999999997206
30,27,1740,0.271999999997206
30,28,1730,0.279000000009546
30,29,1739,0.296000000002095
30,30,1733,0.273000000001048
