App - AnExplorer
Scenario - explore_files
Length - 0sec
Measure - FourierDistance
Before Version - e7e51f8
After Version - 419112b


"Before.Trace.ID1","Before.Trace.ID2","Difference","Runtime"
1,2,46622.9835992548,0.000999999999999446
1,3,50519.2127695973,0
1,4,30688.908125443,0.00100000000000033
1,5,33287.9855568336,0
1,6,45026.9767003689,0.000999999999999446
1,7,340254.935526286,0
1,8,109074.415652225,0
1,9,91757.6348251671,0.00100000000000033
1,10,33213.337631309,0
1,11,158222.080515477,0
1,12,42607.3513028218,0.00100000000000033
1,13,202979.124876997,0
1,14,452314.819539413,0.000999999999999446
1,15,226660.78338939,0
1,16,359466.02121564,0
1,17,129846.954102637,0.00100000000000033
1,18,531730.787111542,0
1,19,657087.410054092,0
1,20,88215.0368668679,0.00100000000000033
1,21,36239.8635315998,0
1,22,53086.6142529353,0.00399999999999956
1,23,234859.817740177,0.00100000000000033
1,24,36138.0071309486,0
1,25,35778.0965494568,0.000999999999999446
1,26,333818.185455889,0
1,27,182767.966170784,0
1,28,97391.6810562385,0.00100000000000033
1,29,319939.0016472,0
1,30,335634.99207799,0.00100000000000033
2,3,44317.9054458595,0
2,4,51727.0875468062,0
2,5,51391.6147260486,0.000999999999999446
2,6,61432.158788493,0
2,7,368144.59143712,0
2,8,141188.206811831,0.00100000000000033
2,9,112828.522148974,0
2,10,64199.2293993784,0.000999999999999446
2,11,190714.074634235,0
2,12,72580.2554035243,0
2,13,228103.901772352,0.00100000000000033
2,14,490971.035886668,0
2,15,258970.010695904,0
2,16,337015.343123123,0.00100000000000033
2,17,160783.641183875,0
2,18,571276.411868952,0.000999999999999446
2,19,697319.136494981,0
2,20,108944.922384213,0
2,21,39684.2394418788,0.00100000000000033
2,22,71772.4318030167,0
2,23,264248.82493015,0.00399999999999956
2,24,51006.7969774449,0.00100000000000033
2,25,55109.730186141,0
2,26,365974.556564835,0
2,27,212226.370858394,0
2,28,130594.464443411,0
2,29,351112.269154011,0.000999999999999446
2,30,369111.710147489,0
3,4,49826.5965734753,0
3,5,46252.7349120194,0.00100000000000033
3,6,64666.8173359223,0
3,7,348447.772137355,0
3,8,129095.156391231,0
3,9,117006.131820522,0
3,10,61728.6711706107,0.000999999999999446
3,11,171425.220252083,0
3,12,71987.8208424212,0
3,13,210638.458096058,0.00100000000000033
3,14,486258.013777097,0
3,15,240629.536728081,0
3,16,346650.452512913,0
3,17,148821.09329217,0
3,18,565656.454787037,0.00100000000000033
3,19,683664.480531086,0
3,20,101242.032956545,0
3,21,35573.8044497935,0.00100000000000033
3,22,62652.2943594297,0
3,23,246009.189072172,0.000999999999999446
3,24,51283.5416388415,0
3,25,65101.9331985384,0.00400000000000045
3,26,361446.016258055,0.000999999999999446
3,27,196256.655478866,0
3,28,126567.795361269,0
3,29,354032.266228426,0.00100000000000033
3,30,356119.307990076,0
4,5,28151.2472852556,0
4,6,40381.2308335314,0
4,7,332681.825314236,0
4,8,95166.8368321904,0.000999999999999446
4,9,83882.3119852786,0
4,10,27582.151599959,0
4,11,143650.07079916,0.00100000000000033
4,12,37408.919476257,0
4,13,196040.035387261,0.00100000000000033
4,14,454052.325937454,0
4,15,222532.077582979,0
4,16,358741.437541514,0.000999999999999446
4,17,128794.560474902,0
4,18,533938.113451795,0
4,19,653118.603171323,0.00100000000000033
4,20,75095.5763127909,0
4,21,26615.6737025182,0.000999999999999446
4,22,40755.849877808,0
4,23,223481.089283317,0
4,24,25653.2280604603,0.00100000000000033
4,25,34615.4415850635,0
4,26,328574.075820039,0
4,27,166691.383397764,0.00399999999999956
4,28,95784.0006278311,0
4,29,321710.668602024,0
4,30,331935.33139911,0
5,6,32477.3425194049,0
5,7,322175.27124406,0.000999999999999446
5,8,106806.656471354,0
5,9,77656.2896428165,0
5,10,28413.7080714869,0.00100000000000033
5,11,151700.746732885,0
5,12,47033.3295082258,0.00100000000000033
5,13,183689.32995029,0
5,14,453728.240560318,0
5,15,211338.011486583,0.000999999999999446
5,16,372457.257040316,0
5,17,117310.880697701,0
5,18,533489.177262883,0.00100000000000033
5,19,651716.702643492,0
5,20,68075.4268275054,0.00100000000000033
5,21,31530.3777690381,0
5,22,34627.3435730077,0
5,23,218247.392806804,0.000999999999999446
5,24,19764.7709622575,0
5,25,29565.0440759264,0
5,26,330863.366078846,0.00100000000000033
5,27,177373.243668574,0
5,28,89155.5627882768,0.000999999999999446
5,29,318913.362421565,0
5,30,322348.112321449,0.00400000000000045
6,7,313962.217527701,0
6,8,103404.458418442,0
6,9,60691.3890101864,0
6,10,28063.9773042447,0.000999999999999446
6,11,148771.532498404,0
6,12,51762.3524282804,0
6,13,190347.196895414,0.00100000000000033
6,14,444037.663171874,0
6,15,214246.866212701,0.000999999999999446
6,16,388073.345244923,0
6,17,108655.634920289,0
6,18,523779.936050505,0.00100000000000033
6,19,644903.338669315,0
6,20,54025.6577464005,0
6,21,46359.042028834,0.00100000000000033
6,22,41619.3752216116,0
6,23,219981.49060719,0.000999999999999446
6,24,28825.3077259685,0
6,25,33887.1139277227,0
6,26,320521.672258248,0.00100000000000033
6,27,175347.032372964,0
6,28,81535.9532998021,0
6,29,304854.369808723,0
6,30,317998.922915353,0
7,8,290733.157080287,0.000999999999999446
7,9,275062.809521824,0
7,10,314689.945661647,0.00400000000000045
7,11,266144.08756395,0.000999999999999446
7,12,332288.725705045,0
7,13,209812.30005822,0
7,14,382137.977500282,0.00100000000000033
7,15,176497.798960747,0
7,16,660156.356841851,0
7,17,240081.241574748,0
7,18,432834.980927887,0
7,19,465539.965548886,0.000999999999999446
7,20,267883.683843231,0
7,21,342687.447804621,0
7,22,310774.846176537,0.00100000000000033
7,23,204802.2188125,0
7,24,323826.81435072,0.000999999999999446
7,25,329256.785473393,0
7,26,325284.37134143,0
7,27,294632.170028506,0.00100000000000033
7,28,274921.766700175,0
7,29,317413.127539623,0
7,30,186569.486342658,0.00100000000000033
8,9,102450.821128673,0
8,10,93270.2060585043,0.000999999999999446
8,11,59321.5938462571,0
8,12,85517.3606012458,0
8,13,182918.836598934,0.00100000000000033
8,14,397310.976158422,0
8,15,189758.685490045,0.00399999999999956
8,16,414479.414831298,0.00100000000000033
8,17,108161.701119514,0
8,18,475589.046218746,0
8,19,581117.069543232,0.00100000000000033
8,20,87765.2495542345,0
8,21,107618.769280046,0.000999999999999446
8,22,90106.0336971721,0
8,23,168557.957395411,0
8,24,101367.336009023,0.00100000000000033
8,25,103420.60282937,0
8,26,258559.913022323,0
8,27,89724.1146112894,0.00100000000000033
8,28,83396.2874832322,0
8,29,272949.473290019,0.000999999999999446
8,30,280682.62809035,0
9,10,65094.6127176988,0
9,11,139917.177002175,0.00100000000000033
9,12,90507.2375085845,0
9,13,166730.791336553,0
9,14,420717.600549541,0.000999999999999446
9,15,186406.933617114,0
9,16,426990.193030065,0.00100000000000033
9,17,96688.4750607745,0
9,18,499008.60675956,0
9,19,612640.580902967,0.00100000000000033
9,20,45656.9044293374,0
9,21,96001.7191020751,0
9,22,74281.002998755,0.00100000000000033
9,23,191052.376187988,0
9,24,75482.2224603672,0
9,25,72987.5158859924,0.000999999999999446
9,26,294220.62920448,0
9,27,165902.074585674,0
9,28,70051.4619749569,0
9,29,275656.48633596,0
9,30,282239.22656796,0.00100000000000033
10,11,139584.021848633,0
10,12,44068.1920580343,0
10,13,186436.55743527,0.000999999999999446
10,14,440228.669100698,0
10,15,209587.986222569,0
10,16,379997.872965758,0
10,17,112093.151826457,0
10,18,519320.034078844,0.000999999999999446
10,19,639605.276893077,0
10,20,61717.8627628722,0
10,21,43098.6444068947,0.00100000000000033
10,22,41944.9390398774,0
10,23,215586.191865153,0.00100000000000033
10,24,31416.4355561736,0
10,25,34470.3027140065,0
10,26,318436.859500625,0.000999999999999446
10,27,165736.182589243,0.00400000000000045
10,28,80761.7489468816,0.000999999999999446
10,29,306348.062919675,0
10,30,317041.289279001,0
11,12,132520.809139453,0.00100000000000033
11,13,183186.908772508,0
11,14,374239.608613751,0
11,15,179558.279087521,0
11,16,456011.678388103,0
11,17,119262.790865771,0.000999999999999446
11,18,451008.530488302,0
11,19,541342.571183627,0
11,20,121340.865748904,0.00100000000000033
11,21,154405.775559072,0
11,22,131983.044843884,0
11,23,144976.050839559,0
11,24,148798.045507324,0
11,25,151903.634200158,0.000999999999999446
11,26,229579.488789008,0
11,27,54758.0700688558,0
11,28,112080.762461632,0.00100000000000033
11,29,262464.180243358,0
11,30,254963.014859739,0
12,13,198001.802507616,0
12,14,426241.078478319,0
12,15,217272.971151375,0.00100000000000033
12,16,373081.861989258,0
12,17,114339.932225455,0
12,18,507087.332496079,0.00100000000000033
12,19,630885.362922567,0
12,20,79142.3373287901,0
12,21,49931.970730896,0
12,22,48840.5651578357,0.00400000000000045
12,23,217914.767527815,0
12,24,43471.680519119,0
12,25,41980.085405251,0
12,26,306020.162205187,0.00100000000000033
12,27,155985.655996737,0
12,28,80606.2257618008,0
12,29,298840.646644054,0.00100000000000033
12,30,318069.410184865,0
13,14,415456.954251614,0.000999999999999446
13,15,64922.2193238765,0
13,16,497338.53853104,0
13,17,148518.958320707,0.00100000000000033
13,18,486597.154665972,0
13,19,550700.899723398,0
13,20,160487.397706057,0.00100000000000033
13,21,203940.935624334,0
13,22,175954.616400972,0.000999999999999446
13,23,103231.793154527,0
13,24,187064.476941919,0
13,25,188709.893337811,0.00100000000000033
13,26,312362.048550407,0
13,27,205724.161410767,0
13,28,157133.433597496,0.000999999999999446
13,29,308220.266448323,0
13,30,197233.780207438,0.00100000000000033
14,15,364154.604876922,0
14,16,752856.641579468,0
14,17,361349.045151066,0.00100000000000033
14,18,88530.0863065784,0
14,19,275714.299335676,0.000999999999999446
14,20,421176.608848499,0
14,21,469517.471114942,0.00400000000000045
14,22,442810.727127222,0
14,23,379623.63838052,0
14,24,452862.178943225,0
14,25,445275.892671887,0.00100000000000033
14,26,261813.331528355,0
14,27,384324.800505777,0
14,28,379056.178367915,0.00100000000000033
14,29,236189.79565616,0
14,30,289710.556665882,0.000999999999999446
15,16,537673.917825862,0
15,17,143262.545483239,0
15,18,432298.785693977,0.00100000000000033
15,19,495449.450479538,0
15,20,179769.851078066,0
15,21,232458.857818274,0
15,22,200782.543088079,0
15,23,92523.228830718,0.000999999999999446
15,24,214249.307172475,0
15,25,214699.022904342,0
15,26,278559.504318129,0.00100000000000033
15,27,204898.127379347,0
15,28,162919.920650602,0
15,29,272844.89929434,0
15,30,147779.635397956,0
16,17,480367.771254176,0.00100000000000033
16,18,827389.15656383,0
16,19,953916.962720561,0
16,20,423913.517112626,0.00100000000000033
16,21,352349.840066348,0
16,22,386495.330975662,0
16,23,530560.190237752,0.00400000000000045
16,24,370896.820440685,0
16,25,374399.685140371,0
16,26,640548.064399733,0
16,27,459784.929085,0
16,28,445510.621955076,0.00100000000000033
16,29,649419.248714192,0
16,30,662495.258468001,0
17,18,439835.816646292,0.00100000000000033
17,19,550713.520548623,0
17,20,82331.0343101878,0.000999999999999446
17,21,136849.700397878,0
17,22,103706.499111915,0
17,23,158089.696739866,0.00100000000000033
17,24,117883.890370462,0
17,25,116066.390418484,0
17,26,248710.524002876,0
17,27,154550.036139679,0
17,28,53762.8070831687,0.000999999999999446
17,29,230017.725438295,0
17,30,223382.80669276,0
18,19,235943.913579552,0.00100000000000033
18,20,499920.355774201,0
18,21,549682.904748204,0.000999999999999446
18,22,523325.326343786,0
18,23,450370.009210539,0
18,24,532946.003345971,0.00100000000000033
18,25,525777.098173802,0
18,26,334834.204465217,0
18,27,461453.276487879,0.00100000000000033
18,28,459481.479988387,0
18,29,311609.429417025,0.00399999999999956
18,30,351396.816458412,0.00100000000000033
19,20,609578.298167001,0
19,21,668044.817230363,0.000999999999999446
19,22,636420.327294752,0
19,23,496070.262609484,0
19,24,651513.268585743,0.00100000000000033
19,25,646955.139305961,0
19,26,410034.181240758,0
19,27,542748.247389498,0
19,28,573629.428656361,0
19,29,430220.363659447,0.000999999999999446
19,30,384408.962453586,0
20,21,85190.4838137289,0
20,22,56230.3345584655,0.00100000000000033
20,23,182569.392212334,0
20,24,64230.8952672254,0
20,25,71641.6821307451,0
20,26,294623.027697069,0
20,27,153554.713877408,0.000999999999999446
20,28,69560.606151546,0
20,29,284745.219281814,0
20,30,280179.434126976,0.00100000000000033
21,22,45139.2825813166,0
21,23,231385.129930568,0.000999999999999446
21,24,30415.7686424652,0
21,25,41288.3233501625,0
21,26,339491.722047023,0.00100000000000033
21,27,176768.43482695,0
21,28,106209.101331508,0
21,29,333262.610656547,0.00499999999999989
21,30,342793.73607038,0
22,23,200860.474851733,0
22,24,31256.5097273189,0.00100000000000033
22,25,40038.975097054,0
22,26,309138.051521267,0.000999999999999446
22,27,157000.223924731,0
22,28,76035.099900795,0
22,29,302795.321599605,0.00100000000000033
22,30,305259.692516235,0
23,24,218035.270133237,0
23,25,218354.353007562,0.00100000000000033
23,26,242849.533885557,0
23,27,153693.764945714,0.000999999999999446
23,28,165394.70336733,0
23,29,270554.865885969,0
23,30,162767.722549177,0.00100000000000033
24,25,25191.3848616023,0
24,26,327825.532653155,0
24,27,174464.521957959,0.00100000000000033
24,28,88612.364774415,0
24,29,316627.532651055,0.000999999999999446
24,30,323150.775003511,0
25,26,319657.235969528,0
25,27,174380.766402722,0.00100000000000033
25,28,80788.9077268991,0
25,29,305532.714711864,0
25,30,319370.04695872,0
26,27,214205.387009033,0
26,28,250115.827787903,0.00100000000000033
26,29,122308.743279977,0.00400000000000045
26,30,215368.224905635,0
27,28,137133.264014294,0.000999999999999446
27,29,264840.816220834,0
27,30,266215.341559501,0
28,29,235881.795567736,0.00100000000000033
28,30,247636.585843463,0
29,30,208540.491574933,0


"After.Trace.ID","Before.Trace.ID","Difference","Runtime"
1,1,42635.0148631834,0.00100000000000033
1,2,57610.6252009211,0
1,3,48295.8038406452,0.00100000000000033
1,4,39396.2961111829,0
1,5,24103.3129109765,0
1,6,28023.9405964984,0.000999999999999446
1,7,314948.297435305,0
1,8,108422.191294755,0.00100000000000033
1,9,77607.7441298564,0
1,10,34676.9620251763,0
1,11,151349.460242008,0.000999999999999446
1,12,54082.5172836665,0
1,13,185381.471811374,0
1,14,450649.27436295,0.00100000000000033
1,15,210855.64862565,0
1,16,383727.055307787,0.00100000000000033
1,17,109816.814188029,0
1,18,530370.567515393,0
1,19,649293.57219533,0.000999999999999446
1,20,61727.8455289201,0
1,21,40864.1392646873,0
1,22,36142.3266163117,0
1,23,220039.022203592,0
1,24,25054.7990878415,0.00399999999999956
1,25,39553.9142670072,0.00100000000000033
1,26,329165.543125196,0
1,27,180293.678018174,0.00100000000000033
1,28,88495.4760463457,0
1,29,314767.357387082,0
1,30,319398.810955488,0.000999999999999446
2,1,40775.8452357201,0
2,2,75527.8980092136,0.00100000000000033
2,3,80320.3261501022,0
2,4,50724.2734226708,0
2,5,47119.546223163,0.00100000000000033
2,6,44950.8312879973,0
2,7,318748.977282718,0
2,8,105273.010705376,0.000999999999999446
2,9,73715.3617565595,0
2,10,34889.0725263096,0.00100000000000033
2,11,150875.509930682,0
2,12,49800.512987039,0
2,13,190221.912681558,0.000999999999999446
2,14,424116.253939653,0
2,15,209070.916985002,0
2,16,387726.118669327,0
2,17,109165.188217488,0
2,18,502804.105691734,0.00600000000000023
2,19,630709.404428082,0.000999999999999446
2,20,78350.1369913837,0
2,21,62767.5464168126,0
2,22,63717.1703794937,0.00100000000000033
2,23,221990.306417006,0
2,24,50416.975724369,0.00100000000000033
2,25,42939.0616410809,0
2,26,316456.034346533,0
2,27,177898.074988717,0.000999999999999446
2,28,77788.0348845455,0
2,29,296243.597895015,0
2,30,313657.967099599,0
3,1,48717.8830325247,0
3,2,19550.3499289681,0.00100000000000033
3,3,51184.5009682531,0
3,4,57067.9269086349,0
3,5,60224.4432535243,0.000999999999999446
3,6,71136.5226802338,0
3,7,377253.744917101,0.00100000000000033
3,8,145589.822767562,0
3,9,121765.719219061,0
3,10,70240.6019659902,0.000999999999999446
3,11,195954.145400825,0
3,12,76586.6633863362,0
3,13,234212.813041085,0.00100000000000033
3,14,493505.980874347,0
3,15,265010.987468122,0.00100000000000033
3,16,326260.968965374,0
3,17,169331.419615285,0.00399999999999956
3,18,573284.336419726,0.00100000000000033
3,19,701369.227878311,0
3,20,119787.965516821,0
3,21,47476.982034264,0.000999999999999446
3,22,81828.1590939012,0
3,23,270819.752276489,0.00100000000000033
3,24,60229.768619,0
3,25,61390.4254554398,0
3,26,372135.04379329,0.00100000000000033
3,27,216390.973989583,0
3,28,137766.366228553,0
3,29,357471.392913128,0
3,30,376725.063547577,0
4,1,59071.8778745955,0.00100000000000033
4,2,89464.0686537658,0
4,3,81668.53421082,0
4,4,56019.5254744153,0.00100000000000033
4,5,47120.111141634,0
4,6,38662.857341976,0.000999999999999446
4,7,291572.284371617,0
4,8,83935.6611949396,0
4,9,57720.0026597055,0.00100000000000033
4,10,38941.1065112148,0
4,11,122780.371289377,0
4,12,53905.4830732937,0
4,13,170011.218612259,0
4,14,418011.810675365,0.00100000000000033
4,15,187167.391071731,0
4,16,411139.990619154,0.00400000000000045
4,17,78219.8734195853,0.000999999999999446
4,18,497484.20372778,0
4,19,614016.599207031,0
4,20,46713.9634900795,0.00100000000000033
4,21,64096.30913728,0
4,22,40424.41973246,0.000999999999999446
4,23,191877.048931554,0
4,24,47837.8642054986,0
4,25,47447.9444417814,0.00100000000000033
4,26,292392.147865338,0
4,27,151416.841872121,0
4,28,50779.4655686669,0
4,29,280316.390421883,0
4,30,287770.812480867,0.000999999999999446
5,1,450364.84917458,0
5,2,489265.473398932,0
5,3,484983.702401508,0.00100000000000033
5,4,452462.105123819,0
5,5,453150.705288225,0.00100000000000033
5,6,443052.227546916,0
5,7,390574.843755983,0
5,8,396123.237158922,0.000999999999999446
5,9,420809.246900627,0
5,10,438603.334873834,0
5,11,374304.105466941,0.00100000000000033
5,12,424720.2357771,0
5,13,422927.05234083,0.000999999999999446
5,14,34311.6083288659,0.00400000000000045
5,15,372537.087368475,0
5,16,745665.536366272,0.00100000000000033
5,17,364420.291211257,0
5,18,89821.1630127615,0
5,19,290272.219308903,0.000999999999999446
5,20,421996.969198517,0
5,21,468218.296287657,0.00100000000000033
5,22,443618.159685262,0
5,23,387910.106191996,0
5,24,452358.828123134,0.000999999999999446
5,25,444706.068990031,0
5,26,271678.022358376,0
5,27,384609.367849326,0
5,28,380610.413899476,0
5,29,246695.583707465,0.00100000000000033
5,30,307622.532832097,0
6,1,44472.9170968486,0
6,2,80609.744033085,0.000999999999999446
6,3,74730.1179340017,0
6,4,35777.9008397048,0.00100000000000033
6,5,44438.6442987336,0
6,6,50968.0525913124,0
6,7,316414.650905615,0.00100000000000033
6,8,74789.9940821098,0
6,9,77878.1343650628,0
6,10,34050.7963835879,0.000999999999999446
6,11,120724.608898496,0
6,12,30241.499826467,0.00400000000000045
6,13,181087.806973138,0.000999999999999446
6,14,423993.283774074,0
6,15,200876.125283692,0.00100000000000033
6,16,382273.908857481,0
6,17,106662.079320316,0
6,18,504280.78756951,0.00100000000000033
6,19,622005.488473429,0
6,20,70178.6896358456,0.000999999999999446
6,21,52636.2140183103,0
6,22,41844.1367262472,0
6,23,201165.184449896,0.00100000000000033
6,24,44449.5300924149,0
6,25,42505.6420722156,0
6,26,297715.047846533,0
6,27,143684.906579868,0
6,28,69172.484076026,0.00100000000000033
6,29,292057.315026003,0
6,30,303851.585720718,0
7,1,47531.9276236393,0.00100000000000033
7,2,78605.4775250264,0
7,3,74994.3298828097,0.000999999999999446
7,4,45291.1944200299,0
7,5,35231.4921194082,0
7,6,36027.2357206526,0.00100000000000033
7,7,299279.19873893,0
7,8,94661.0403398328,0
7,9,54646.304883547,0.00399999999999956
7,10,26670.3472930978,0
7,11,137694.796154306,0
7,12,54334.3148756501,0
7,13,167497.472286063,0
7,14,431422.678783004,0.000999999999999446
7,15,190527.313591636,0
7,16,394128.575039215,0
7,17,99450.0135053231,0.00100000000000033
7,18,510444.549870752,0
7,19,627276.167652027,0.00100000000000033
7,20,54033.1715241611,0
7,21,57570.8572934368,0
7,22,42002.9066904336,0.000999999999999446
7,23,199987.266678318,0
7,24,39621.4146920309,0
7,25,39032.0634019105,0
7,26,310321.841016379,0
7,27,164649.58720512,0.000999999999999446
7,28,68412.8075211548,0
7,29,295950.682259344,0
7,30,298505.407050205,0.00100000000000033
8,1,35871.62476009,0
8,2,41425.4835974079,0.00100000000000033
8,3,50362.6549268008,0
8,4,27583.5694322821,0
8,5,28911.8037106101,0.000999999999999446
8,6,29809.3382262415,0.00400000000000045
8,7,336179.485557781,0
8,8,108606.916666415,0.000999999999999446
8,9,80121.2985385845,0
8,10,33861.6677828601,0
8,11,156298.933952938,0
8,12,47106.696693038,0
8,13,203548.869527845,0.00100000000000033
8,14,460080.143246155,0
8,15,230618.455108692,0
8,16,366495.128044013,0.000999999999999446
8,17,128371.161226051,0
8,18,540827.431885995,0.00100000000000033
8,19,662093.338339885,0
8,20,74083.4194023434,0
8,21,29484.7063147575,0.000999999999999446
8,22,40423.5827116678,0
8,23,232475.396570902,0
8,24,24936.7935947198,0.00100000000000033
8,25,31111.8132185267,0
8,26,330312.401309977,0.00100000000000033
8,27,178827.302945718,0
8,28,96497.6007738363,0
8,29,318322.251275967,0.000999999999999446
8,30,335132.681145184,0
9,1,33306.6656498196,0
9,2,36733.0385702011,0.00399999999999956
9,3,41470.0083959204,0
9,4,31983.8043074939,0.00100000000000033
9,5,23352.233895866,0
9,6,33150.4366432414,0
9,7,333563.600613711,0.00100000000000033
9,8,117493.798216899,0
9,9,83196.4485052799,0
9,10,34559.1739481184,0.000999999999999446
9,11,164823.338702428,0
9,12,58167.8553294463,0.00100000000000033
9,13,198071.918745966,0
9,14,468021.278335254,0
9,15,227207.735671237,0.00100000000000033
9,16,363719.462318782,0
9,17,131327.794293767,0
9,18,547731.523449291,0
9,19,668229.519983286,0
9,20,77204.538597008,0.00100000000000033
9,21,29724.7834362858,0
9,22,45643.8200421104,0
9,23,233914.708462008,0.000999999999999446
9,24,24819.3220409064,0
9,25,34629.6352161551,0.00100000000000033
9,26,342851.943280329,0
9,27,189413.863631427,0
9,28,102812.796333271,0.00400000000000045
9,29,328682.779378747,0.000999999999999446
9,30,337721.184071299,0
10,1,67899.3764320718,0.00100000000000033
10,2,98119.9786785781,0
10,3,93672.5441854254,0
10,4,66801.3517737362,0.000999999999999446
10,5,57485.1630002796,0
10,6,48368.4658722325,0.00100000000000033
10,7,289480.729200934,0
10,8,90231.7057181489,0
10,9,62396.1117150633,0.00100000000000033
10,10,52128.8018554747,0
10,11,127568.380928228,0
10,12,56150.7420851128,0
10,13,167846.528084952,0
10,14,404802.250005686,0.00100000000000033
10,15,182266.718393665,0
10,16,420184.865952547,0
10,17,71230.7947085008,0.00100000000000033
10,18,485395.77428827,0
10,19,604396.029101967,0.000999999999999446
10,20,51067.8658091313,0
10,21,77030.577424142,0
10,22,47948.9812168618,0.00100000000000033
10,23,191787.394678915,0.00399999999999956
10,24,56338.4647195611,0
10,25,55355.1630944089,0.00100000000000033
10,26,283665.651043686,0
10,27,156841.495097488,0
10,28,45695.2923012024,0.00100000000000033
10,29,266646.752926117,0
10,30,277258.67354772,0
11,1,45570.4532735632,0
11,2,66036.8937731615,0
11,3,74685.6868001271,0.00100000000000033
11,4,43759.7925193098,0
11,5,37740.8857372851,0
11,6,34486.8806802371,0.000999999999999446
11,7,320462.760378193,0
11,8,98728.6221694929,0.00100000000000033
11,9,62175.4977583712,0
11,10,36758.0385421986,0
11,11,145778.325129606,0.00100000000000033
11,12,50234.2896994728,0
11,13,184804.898276386,0
11,14,440953.990272745,0.000999999999999446
11,15,209215.386955103,0
11,16,386986.914301219,0.00100000000000033
11,17,109687.440830275,0
11,18,521638.227366707,0.00399999999999956
11,19,640310.187652153,0.00100000000000033
11,20,65432.4536999712,0
11,21,49366.6030507617,0.00100000000000033
11,22,38440.9912217177,0
11,23,210452.70048316,0
11,24,34782.7018036901,0.000999999999999446
11,25,22967.3300217284,0
11,26,307437.690160896,0.00100000000000033
11,27,166808.424589261,0
11,28,71344.1317542899,0
11,29,293573.567912009,0.00100000000000033
11,30,309607.836027759,0
12,1,65044.5127401389,0
12,2,92425.3074866932,0
12,3,83359.3597272501,0
12,4,49281.2755053553,0.00100000000000033
12,5,54229.2139020737,0
12,6,48144.0592666553,0
12,7,297928.626712974,0.000999999999999446
12,8,63060.0475311548,0
12,9,64795.4673310759,0.00100000000000033
12,10,42850.8488504127,0
12,11,105449.226536438,0
12,12,48578.2093657187,0.00400000000000045
12,13,179157.01092975,0.000999999999999446
12,14,421810.469726018,0
12,15,197050.743670912,0.00100000000000033
12,16,401328.161271112,0
12,17,93260.0033756508,0
12,18,501884.97491522,0.000999999999999446
12,19,615171.675880842,0
12,20,47230.7453334745,0.00100000000000033
12,21,61953.8040599653,0
12,22,38615.366410899,0
12,23,191199.177177363,0.00100000000000033
12,24,49954.2085855089,0
12,25,54680.9022328304,0
12,26,286985.487536664,0
12,27,131911.466512544,0
12,28,62873.3029758035,0.00100000000000033
12,29,284452.97281311,0
12,30,295210.736717923,0
13,1,43128.8293020881,0.00100000000000033
13,2,52856.5239287984,0
13,3,56007.7225701516,0.000999999999999446
13,4,43097.1999893286,0
13,5,28137.7413594813,0
13,6,39955.8157235485,0.00400000000000045
13,7,330274.370224608,0.000999999999999446
13,8,113737.80994713,0
13,9,86345.9819503391,0.00100000000000033
13,10,47058.2077718996,0
13,11,159145.427261663,0
13,12,47545.2960025723,0.00100000000000033
13,13,188893.890907341,0
13,14,450887.755780981,0
13,15,215371.155795569,0
13,16,374510.459959163,0
13,17,115680.497139034,0.00100000000000033
13,18,531283.634844788,0
13,19,652219.341525676,0
13,20,74938.0226665813,0.000999999999999446
13,21,40959.7222985905,0
13,22,38865.5473446882,0
13,23,222087.779120339,0
13,24,26505.3891078473,0
13,25,28469.2974797347,0.00100000000000033
13,26,328987.212095044,0
13,27,183965.413414686,0
13,28,88957.7859051117,0.000999999999999446
13,29,314842.807323896,0.00400000000000045
13,30,322352.85483066,0
14,1,44076.6879535682,0.000999999999999446
14,2,54854.2712736566,0
14,3,57674.0150928459,0
14,4,36772.0679418363,0
14,5,40703.7202858387,0
14,6,56778.4298240046,0.00100000000000033
14,7,344965.610671667,0
14,8,103670.71047766,0
14,9,95635.7225586731,0.000999999999999446
14,10,51154.7307823246,0
14,11,150068.459218536,0.00100000000000033
14,12,47187.0440277056,0
14,13,197081.16390522,0
14,14,460987.913097101,0.00100000000000033
14,15,225319.813802024,0
14,16,358236.976267799,0.000999999999999446
14,17,133542.530381603,0
14,18,542238.34869469,0
14,19,658284.662979885,0.00100000000000033
14,20,89709.9655517824,0
14,21,32957.6320068505,0
14,22,41543.9868068133,0.00499999999999989
14,23,220679.103384763,0
14,24,39425.0271747377,0
14,25,38079.1638388497,0.00100000000000033
14,26,322683.484080724,0
14,27,166360.528509038,0.000999999999999446
14,28,95447.5487999,0
14,29,318317.368742005,0
14,30,330250.554971312,0.00100000000000033
15,1,33735.9558576656,0
15,2,39778.0118765987,0
15,3,54853.956738512,0
15,4,32548.6240076146,0
15,5,35807.4007243215,0.00100000000000033
15,6,45129.7726891088,0
15,7,347046.466734775,0
15,8,112257.851990169,0.00100000000000033
15,9,88961.3029349165,0
15,10,43071.2581776056,0.000999999999999446
15,11,161384.329564619,0
15,12,49515.4814143964,0
15,13,205857.046195738,0.00100000000000033
15,14,464181.008504107,0.00399999999999956
15,15,233549.831469619,0
15,16,357421.523832889,0.00100000000000033
15,17,136730.239217237,0
15,18,545067.274504375,0
15,19,666272.324871986,0.00100000000000033
15,20,87833.9596781922,0
15,21,29667.7053929235,0.000999999999999446
15,22,47183.471701995,0
15,23,233892.749316877,0
15,24,32858.4110870397,0.00100000000000033
15,25,31040.3874455421,0
15,26,331451.330640509,0
15,27,180266.34840639,0.000999999999999446
15,28,99476.4349673516,0
15,29,320517.016671802,0.00100000000000033
15,30,338623.294825193,0
16,1,129746.26015556,0
16,2,111809.018019409,0.00100000000000033
16,3,103970.875736791,0
16,4,129646.506129528,0
16,5,123219.229597365,0
16,6,132865.241952088,0.00400000000000045
16,7,381380.948888393,0
16,8,191769.489756958,0.000999999999999446
16,9,169005.918702215,0
16,10,135312.994839738,0
16,11,223844.876144141,0
16,12,149001.295424557,0
16,13,251845.352498962,0.00100000000000033
16,14,536751.142384713,0
16,15,285580.484567126,0
16,16,359710.74953936,0.000999999999999446
16,17,203684.00028207,0
16,18,617174.910144014,0
16,19,727768.593731542,0
16,20,161137.682015649,0
16,21,113455.085838259,0.00100000000000033
16,22,128554.661326702,0
16,23,285667.968166331,0
16,24,129548.377040549,0.000999999999999446
16,25,136150.014535986,0
16,26,391516.027579439,0
16,27,238788.750094087,0.00300000000000011
16,28,182940.854462927,0
16,29,384912.458106515,0
16,30,390008.199423477,0.00100000000000033
17,1,987447.078369261,0
17,2,1026114.52887793,0
17,3,1021048.44047814,0
17,4,992515.919094422,0
17,5,994382.908043775,0.000999999999999446
17,6,987304.865540788,0
17,7,901204.035549431,0
17,8,943777.428035777,0.00100000000000033
17,9,971012.891103163,0
17,10,980161.521973001,0
17,11,921693.538549116,0
17,12,964755.162114597,0
17,13,958724.450153229,0.00100000000000033
17,14,576674.610685027,0
17,15,907239.344330356,0
17,16,1221959.24788478,0.00100000000000033
17,17,917129.395896283,0
17,18,502941.767232735,0.00399999999999956
17,19,559867.541140293,0.00100000000000033
17,20,971654.035066593,0
17,21,1008726.32528685,0
17,22,990065.083086344,0.000999999999999446
17,23,933147.303282427,0
17,24,995227.451574573,0
17,25,988392.592915994,0
17,26,818458.0512211,0
17,27,931602.773382909,0.00100000000000033
17,28,934045.1671891,0
17,29,797984.243739779,0
17,30,838118.843643855,0.000999999999999446
18,1,679889.212042962,0
18,2,650708.213281108,0
18,3,663371.946916468,0
18,4,683125.508524147,0
18,5,695047.490106608,0.00100000000000033
18,6,702503.431386948,0
18,7,987101.616823545,0
18,8,742272.099417368,0.00399999999999956
18,9,745467.66679431,0.00100000000000033
18,10,699566.693931923,0
18,11,780636.124788898,0.000999999999999446
18,12,696903.841954541,0
18,13,856161.934664923,0
18,14,1061147.95807232,0.00100000000000033
18,15,892644.940623529,0
18,16,413037.659909218,0
18,17,799563.19763151,0.00100000000000033
18,18,1132869.83696488,0
18,19,1287311.76713625,0.000999999999999446
18,20,744202.592642212,0
18,21,672239.90143022,0
18,22,709829.3645577,0.00100000000000033
18,23,883646.086852517,0
18,24,694659.233490247,0
18,25,697757.11658754,0.000999999999999446
18,26,945562.591657141,0
18,27,782829.157176984,0.00100000000000033
18,28,768166.517723805,0.00300000000000011
18,29,948927.378330847,0
18,30,1008556.31985558,0
19,1,835875.460657707,0.000999999999999446
19,2,875317.639857184,0
19,3,864600.464567088,0
19,4,835488.594798943,0.00100000000000033
19,5,842577.777732299,0
19,6,838279.735046519,0.000999999999999446
19,7,767017.414994402,0
19,8,771416.606816322,0
19,9,825300.741225079,0.00100000000000033
19,10,828091.734574317,0
19,11,741941.436028353,0
19,12,808482.519335678,0.00100000000000033
19,13,809499.968066404,0
19,14,470395.666122481,0.000999999999999446
19,15,760766.293123046,0
19,16,1037652.34366223,0
19,17,773486.177744681,0.0440000000000005
19,18,414551.285808104,0
19,19,442246.095374392,0.000999999999999446
19,20,819741.268213047,0
19,21,850924.508230958,0.00100000000000033
19,22,835213.553383314,0
19,23,764336.948272599,0
19,24,841964.202054815,0.00100000000000033
19,25,837882.890090297,0
19,26,665958.705990673,0.000999999999999446
19,27,745812.399297294,0
19,28,786220.68550403,0
19,29,686848.073751411,0.00100000000000033
19,30,709740.529512066,0
20,1,829204.358702963,0
20,2,869012.244833038,0.00100000000000033
20,3,857692.480653762,0
20,4,829025.461347076,0.000999999999999446
20,5,835669.294874756,0
20,6,831430.254664329,0
20,7,753666.059444091,0.00100000000000033
20,8,765384.91887337,0
20,9,818029.720328438,0
20,10,821219.301352991,0.000999999999999446
20,11,735767.836174271,0
20,12,802370.548865824,0.00100000000000033
20,13,799750.105395245,0
20,14,461953.000059757,0
20,15,750328.990928765,0.00100000000000033
20,16,1034873.75985966,0
20,17,765412.339344134,0
20,18,404574.179983426,0.000999999999999446
20,19,431463.297851089,0
20,20,812210.517765168,0.00100000000000033
20,21,844668.920958838,0
20,22,828310.949285655,0
20,23,756465.692287554,0.00100000000000033
20,24,835186.998909071,0
20,25,831485.991764733,0
20,26,662394.064252355,0
20,27,741202.350687696,0.000999999999999446
20,28,779352.705118598,0
20,29,680975.632809026,0
20,30,699227.592647811,0.00100000000000033
21,1,755162.183429123,0
21,2,794209.395970321,0.00100000000000033
21,3,784784.581565284,0
21,4,755550.95033276,0
21,5,762794.244883772,0.000999999999999446
21,6,758689.481853555,0
21,7,705247.492385183,0
21,8,694231.301386614,0.00100000000000033
21,9,747058.935701453,0
21,10,748436.728100465,0.00100000000000033
21,11,667529.58835509,0
21,12,728110.889231582,0
21,13,736879.505586527,0.000999999999999446
21,14,401390.371125162,0
21,15,689451.04423786,0
21,16,956275.535268976,0.00100000000000033
21,17,696642.396400396,0
21,18,352882.135636473,0
21,19,415689.076023176,0
21,20,742207.018596516,0
21,21,770987.707905935,0.00100000000000033
21,22,756188.69208063,0
21,23,694717.231906897,0
21,24,762111.047937099,0.00100000000000033
21,25,757535.19450603,0
21,26,598756.974112853,0
21,27,672481.617232842,0
21,28,707898.955513782,0
21,29,615649.721315194,0.00100000000000033
21,30,645077.919983714,0
22,1,802147.73116004,0
22,2,843039.792203884,0.00199999999999978
22,3,829385.788048672,0.00100000000000033
22,4,801268.245958039,0
22,5,804543.498347971,0
22,6,801220.061818604,0.000999999999999446
22,7,684912.893439829,0
22,8,735638.764453779,0
22,9,783344.607884952,0.00100000000000033
22,10,792085.898437483,0
22,11,702814.937323618,0.00100000000000033
22,12,775310.791788273,0
22,13,738896.214717463,0
22,14,417767.737862063,0.000999999999999446
22,15,687055.936925694,0
22,16,1032616.07547355,0
22,17,723972.892362653,0.00100000000000033
22,18,355260.71383766,0
22,19,326835.624174047,0.000999999999999446
22,20,776744.172923574,0
22,21,816629.037081799,0
22,22,795806.265446262,0.00100000000000033
22,23,696249.197274179,0
22,24,804600.118211581,0
22,25,801000.683838335,0.00100000000000033
22,26,622603.545087046,0
22,27,709491.205432186,0
22,28,742757.267926828,0
22,29,640118.146149629,0
22,30,623654.600115166,0.00100000000000033
23,1,891749.247161603,0
23,2,930952.148555432,0
23,3,918325.163912583,0.00100000000000033
23,4,889434.699486063,0
23,5,898804.266270175,0
23,6,895442.593496542,0
23,7,829666.919464581,0
23,8,820837.468760117,0.00100000000000033
23,9,883727.11526124,0.000999999999999446
23,10,883845.589335731,0.00100000000000033
23,11,787714.261675901,0
23,12,863380.969439508,0.00100000000000033
23,13,868843.162765914,0
23,14,550558.197105427,0
23,15,822054.485466763,0.000999999999999446
23,16,1074483.12680602,0
23,17,834390.997567161,0
23,18,501867.616328829,0.00100000000000033
23,19,501614.400235021,0
23,20,876757.959827487,0
23,21,904462.493006908,0
23,22,889828.6727238,0
23,23,815335.576452903,0.000999999999999446
23,24,897937.662943672,0
23,25,894485.973357028,0
23,26,712504.815746726,0.00100000000000033
23,27,785838.554640397,0
23,28,844181.48530768,0
23,29,750806.227301805,0.000999999999999446
23,30,773208.78319537,0
24,1,747645.111759173,0.00100000000000033
24,2,785995.832002033,0
24,3,775937.34056271,0
24,4,747869.103329632,0.00100000000000033
24,5,754968.909935006,0
24,6,750706.853312571,0
24,7,700516.20840803,0.000999999999999446
24,8,686572.155871634,0
24,9,741058.523132327,0.00100000000000033
24,10,741262.098871236,0
24,11,659415.316544103,0
24,12,719733.155328944,0.00100000000000033
24,13,732222.964880547,0
24,14,395549.13573717,0
24,15,684711.630149033,0.00199999999999978
24,16,950038.623174765,0.000999999999999446
24,17,688008.700482728,0
24,18,350145.687058584,0
24,19,416906.694854675,0.00100000000000033
24,20,734125.837665615,0
24,21,762758.658558284,0
24,22,747739.478419592,0.00100000000000033
24,23,689492.604228029,0
24,24,754070.856456315,0.000999999999999446
24,25,750058.464260925,0
24,26,591006.176484004,0
24,27,664988.209704354,0.00100000000000033
24,28,700606.795300222,0
24,29,609064.926916879,0
24,30,640150.911698632,0.00100000000000033
25,1,791732.744555316,0
25,2,830806.186450067,0.000999999999999446
25,3,820907.034985857,0
25,4,792211.468270679,0
25,5,800132.52889557,0.00100000000000033
25,6,796671.439200077,0
25,7,746526.979556045,0
25,8,731181.224059552,0.000999999999999446
25,9,786207.249780389,0
25,10,785617.77045334,0
25,11,704383.195078398,0
25,12,765142.33186567,0
25,13,776309.385579714,0.00100000000000033
25,14,446607.291594767,0
25,15,729449.193781549,0
25,16,982451.994265541,0.000999999999999446
25,17,736886.928468947,0
25,18,398437.850226733,0
25,19,453442.219069491,0
25,20,781191.956765671,0
25,21,807564.073613223,0.00199999999999978
25,22,793854.005853751,0
25,23,734011.726935094,0.00100000000000033
25,24,799644.627839215,0
25,25,795286.765542325,0.000999999999999446
25,26,638298.089207527,0
25,27,708389.511563116,0
25,28,747029.873011583,0.00100000000000033
25,29,657784.371274467,0
25,30,687468.356492706,0
26,1,1071833.41554732,0.00100000000000033
26,2,1111546.67955489,0
26,3,1102785.96814725,0
26,4,1072696.68730614,0
26,5,1078336.03893163,0
26,6,1072798.49616907,0.00100000000000033
26,7,981581.351346874,0
26,8,1008952.70082731,0
26,9,1056966.9684554,0.00100000000000033
26,10,1063899.55941248,0
26,11,979870.394164592,0
26,12,1044565.21192967,0
26,13,1036945.38591001,0
26,14,666902.188190148,0.00100000000000033
26,15,985005.52622866,0
26,16,1281889.11406898,0
26,17,1001973.21520288,0.000999999999999446
26,18,596427.983731422,0
26,19,592336.767081708,0
26,20,1053397.55154512,0.00100000000000033
26,21,1088416.22799256,0
26,22,1070227.10739195,0.00100000000000033
26,23,992072.621655204,0
26,24,1077578.71379213,0
26,25,1072242.16340276,0.000999999999999446
26,26,875052.537157581,0
26,27,983102.254893786,0.00100000000000033
26,28,1016462.49766555,0
26,29,886519.206433411,0.000999999999999446
26,30,915204.79475835,0
27,1,709076.792547351,0
27,2,747009.920882779,0.00100000000000033
27,3,737628.289863655,0
27,4,710427.502736412,0
27,5,718365.5370582,0.000999999999999446
27,6,715561.269054354,0
27,7,687055.85229239,0.00100000000000033
27,8,654180.735709606,0
27,9,708800.807740505,0
27,10,704703.046301092,0.00100000000000033
27,11,631317.969045616,0
27,12,683186.479001865,0
27,13,704059.862192085,0.000999999999999446
27,14,395565.037863026,0
27,15,659547.525713323,0
27,16,892494.83280537,0
27,17,660602.743123813,0
27,18,359673.045511008,0.00100000000000033
27,19,452086.77474043,0
27,20,702683.322974496,0
27,21,725329.430635069,0.000999999999999446
27,22,713645.095612771,0
27,23,667655.746000555,0
27,24,717763.885066705,0
27,25,713813.489314617,0
27,26,586559.072557268,0.000999999999999446
27,27,638524.279381679,0
27,28,670294.680882258,0
27,29,601634.203539407,0.00100000000000033
27,30,631791.773699846,0
28,1,767528.57803407,0
28,2,805705.519936473,0.00199999999999978
28,3,794727.742197299,0.00100000000000033
28,4,766533.184080359,0
28,5,776410.361086491,0
28,6,774012.977879283,0.00100000000000033
28,7,739795.271212492,0
28,8,703117.006214642,0
28,9,766258.813013453,0
28,10,762201.050192714,0
28,11,675286.208714109,0.00100000000000033
28,12,739884.309275604,0
28,13,758743.245589632,0
28,14,456817.922289203,0.000999999999999446
28,15,714716.402113765,0
28,16,938879.58883489,0
28,17,719374.8932777,0
28,18,421173.34171585,0
28,19,471556.909868208,0.00100000000000033
28,20,759127.05537312,0
28,21,781275.170328771,0
28,22,768943.574774685,0.000999999999999446
28,23,711753.42028428,0
28,24,775343.751782469,0
28,25,771648.995944496,0.00100000000000033
28,26,620004.521622211,0
28,27,676188.94344643,0.00100000000000033
28,28,726893.061211078,0
28,29,652627.302952087,0
28,30,680989.752438611,0.000999999999999446
29,1,1022185.90258917,0
29,2,1061945.67194775,0
29,3,1051637.46862702,0.00100000000000033
29,4,1021305.37797173,0
29,5,1029098.48286143,0.000999999999999446
29,6,1024303.18421691,0
29,7,944581.54552319,0.00200000000000067
29,8,953531.487223038,0
29,9,1009641.69819004,0
29,10,1014008.85126726,0.000999999999999446
29,11,921361.637538998,0
29,12,993845.09324749,0.00100000000000033
29,13,993265.516639366,0
29,14,639505.804815356,0
29,15,943419.876469683,0.00100000000000033
29,16,1218978.76834725,0
29,17,957580.077906484,0
29,18,577644.612398819,0.000999999999999446
29,19,565446.897832415,0
29,20,1005026.97744623,0.00100000000000033
29,21,1036761.90099684,0
29,22,1019797.03768303,0
29,23,940938.015041666,0.000999999999999446
29,24,1028277.92421488,0
29,25,1023254.71143279,0
29,26,820533.000215941,0.00100000000000033
29,27,919715.853386548,0
29,28,968909.6022806,0
29,29,848274.367120388,0
29,30,878679.293296466,0
30,1,805505.555991304,0.000999999999999446
30,2,847064.051097552,0
30,3,834082.439610595,0
30,4,803567.753889353,0.00100000000000033
30,5,808247.375280361,0
30,6,805389.896978326,0
30,7,694941.85804588,0
30,8,734032.933730582,0
30,9,785258.037648158,0.000999999999999446
30,10,794963.427439844,0
30,11,699095.140922817,0.00199999999999978
30,12,777707.565326034,0
30,13,741608.826927874,0
30,14,423930.665093241,0
30,15,690749.62572336,0
30,16,1031092.13635027,0.00100000000000033
30,17,729592.0793748,0
30,18,366036.995899129,0
30,19,314292.216633519,0.000999999999999446
30,20,780731.023206844,0
30,21,819274.694940994,0
30,22,797859.03959144,0
30,23,691181.835245391,0
30,24,808188.880648663,0.00100000000000033
30,25,803534.74608816,0
30,26,604465.161725934,0
30,27,699299.552018996,0.000999999999999446
30,28,743793.463211394,0
30,29,633293.388984836,0
30,30,621780.99043663,0.00100000000000033
