"Before.Trace.ID1","Before.Trace.ID2","Difference","Runtime"
1,2,0.0665696279209219,0.00200000000040745
1,3,0.000720202178434382,0.000999999996565748
1,4,0.000214611995919878,0.000999999996565748
1,5,0.000931604040521172,0.00200000000040745
1,6,0.000833605999226661,0.00100000000384171
1,7,0.000347006962166607,0.00200000000040745
1,8,0.0478493088741083,0.00200000000040745
1,9,0.00160630636993708,0.000999999996565748
1,10,0.0507796230515951,0.00200000000040745
1,11,0.000275016586678611,0.00200000000040745
1,12,0.0510203516804313,0.000999999996565748
1,13,0.000876094822094831,0.00200000000040745
1,14,0.00149345917005883,0.00100000000384171
1,15,0.000798121466961121,0.00100000000384171
1,16,0.000652287712476718,0.00200000000040745
1,17,0.000842296991515279,0.000999999996565748
1,18,0.000531099066534257,0.00200000000040745
1,19,0.0474008128721214,0.00200000000040745
1,20,0.000631948017958739,0.00100000000384171
1,21,0.000860635424981715,0.0019999999931315
1,22,4.60261082223523e-05,0.00100000000384171
1,23,0.000620611224775081,0.00200000000040745
1,24,0.00041311496153873,0.00200000000040745
1,25,0.000522601482857987,0.000999999996565748
1,26,0.0494508212131538,0.00200000000040745
1,27,0.000828436249012965,0.00200000000040745
1,28,0.000754929180873831,0.00100000000384171
1,29,0.000784610555886522,0.00200000000040745
1,30,0.000545202049612725,0.000999999996565748
2,3,0.066065173876048,0.00200000000040745
2,4,0.0667207152949923,0.00200000000040745
2,5,0.0672279851785052,0.000999999996565748
2,6,0.067158426275749,0.00200000000040745
2,7,0.0668140950860651,0.00200000000040745
2,8,0.0187224707106719,0.00100000000384171
2,9,0.0677087984417255,0.00200000000040745
2,10,0.0158087965017222,0.00200000000040745
2,11,0.0667633030266021,0.000999999996565748
2,12,0.0155510261748358,0.00800000000162981
2,13,0.0671885760870465,0.00100000000384171
2,14,0.0676281494104472,0.00100000000384171
2,15,0.0671332568975863,0.00200000000040745
2,16,0.0670299142030612,0.000999999996565748
2,17,0.0671645922655829,0.00200000000040745
2,18,0.0669441561848419,0.00200000000040745
2,19,0.0191720226397551,0.00100000000384171
2,20,0.0670155133668628,0.00200000000040745
2,21,0.0671776046484194,0.0019999999931315
2,22,0.0665372708952736,0.00100000000384171
2,23,0.0670074880683368,0.00200000000040745
2,24,0.0668607711833833,0.000999999996565748
2,25,0.0669381470583782,0.000999999996565748
2,26,0.0171207597579499,0.00200000000040745
2,27,0.0671547587630741,0.00100000000384171
2,28,0.0671026329480338,0.00200000000040745
2,29,0.0671236759825687,0.00200000000040745
2,30,0.0669541303991386,0.000999999996565748
3,4,0.000934814174354259,0.00200000000040745
3,5,0.00165180621895555,0.000999999996565748
3,6,0.00155380817766104,0.000999999996565748
3,7,0.00106720914060099,0.00200000000040745
3,8,0.0473482485561478,0.00100000000384171
3,9,0.00232650854837146,0.00200000000040745
3,10,0.0502826913243361,0.00200000000040745
3,11,0.000995218765112993,0.000999999996565748
3,12,0.0505144423130851,0.00200000000040745
3,13,0.00159629700052921,0.00100000000384171
3,14,0.00221366134849321,0.00200000000040745
3,15,0.0015183236453955,0.00200000000040745
3,16,0.0013724898909111,0.000999999996565748
3,17,0.00156249916994966,0.00200000000040745
3,18,0.00125130124496864,0.000999999996565748
3,19,0.0469004109636756,0.00200000000040745
3,20,0.00135215019639312,0.00200000000040745
3,21,0.0015808376034161,0.00100000000384171
3,22,0.000674176070212029,0.00200000000040745
3,23,0.00134081340320946,0.000999999996565748
3,24,0.00113331713997311,0.000999999996565748
3,25,0.00124280366129237,0.00200000000040745
3,26,0.04894473471106,0.00100000000384171
3,27,0.00154863842744735,0.0019999999931315
3,28,0.00147513135930821,0.00200000000040745
3,29,0.0015048127343209,0.00100000000384171
3,30,0.00126540422804711,0.00200000000040745
4,5,0.000716992044601295,0.000999999996565748
4,6,0.000618994003306783,0.00200000000040745
4,7,0.000132394966246729,0.00200000000040745
4,8,0.0479996974107754,0.00100000000384171
4,9,0.0013916943740172,0.00200000000040745
4,10,0.0509287349447732,0.00200000000040745
4,11,6.04045907587336e-05,0.000999999996565748
4,12,0.0511720998737601,0.00200000000040745
4,13,0.000661482826174953,0.000999999996565748
4,14,0.00127884717413895,0.00200000000040745
4,15,0.000583509471041244,0.00200000000040745
4,16,0.00043767571655684,0.00100000000384171
4,17,0.000627684995595401,0.00200000000040745
4,18,0.00031648707061438,0.000999999996565748
4,19,0.0475510180669001,0.000999999996565748
4,20,0.000417336022038861,0.00200000000040745
4,21,0.000646023429061837,0.00100000000384171
4,22,0.00026063810414223,0.00200000000040745
4,23,0.000405999228855203,0.0019999999931315
4,24,0.000198502965618852,0.00100000000384171
4,25,0.000307989486938109,0.00200000000040745
4,26,0.049602652911209,0.000999999996565748
4,27,0.000613824253093087,0.000999999996565748
4,28,0.000540317184953953,0.00200000000040745
4,29,0.000569998559966645,0.00100000000384171
4,30,0.000330590053692847,0.00200000000040745
5,6,9.79980412945114e-05,0.000999999996565748
5,7,0.000584597078354565,0.000999999996565748
5,8,0.0485056312867264,0.00200000000040745
5,9,0.00067470232941591,0.000999999996565748
5,10,0.0514302583289311,0.00200000000040745
5,11,0.000656587453842561,0.00200000000040745
5,12,0.0516823031378464,0.00100000000384171
5,13,5.55092184263417e-05,0.00200000000040745
5,14,0.000561855129537658,0.000999999996565748
5,15,0.000133482573560051,0.000999999996565748
5,16,0.000279316328044454,0.00200000000040745
5,17,8.93070490058934e-05,0.00100000000384171
5,18,0.000400504973986915,0.00200000000040745
5,19,0.0480563804999886,0.00200000000040745
5,20,0.000299656022562433,0.000999999996565748
5,21,7.09686155394573e-05,0.00200000000040745
5,22,0.000977630148743525,0.000999999996565748
5,23,0.000310992815746092,0.00200000000040745
5,24,0.000518489078982443,0.00200000000040745
5,25,0.000409002557663185,0.00100000000384171
5,26,0.0501132326687266,0.00200000000040745
5,27,0.000103167791508207,0.000999999996565748
5,28,0.000176674859647341,0.000999999996565748
5,29,0.00014699348463465,0.00200000000040745
5,30,0.000386401990908447,0.00100000000384171
6,7,0.000486599037060054,0.0019999999931315
6,8,0.0484361661534505,0.00200000000040745
6,9,0.000772700370710422,0.00800000000162981
6,10,0.0513614088209228,0.00200000000040745
6,11,0.00055858941254805,0.00200000000040745
6,12,0.0516122787734558,0.00100000000384171
6,13,4.24888228681697e-05,0.00200000000040745
6,14,0.00065985317083217,0.000999999996565748
6,15,3.54845322655395e-05,0.00100000000384171
6,16,0.000181318286749943,0.00200000000040745
6,17,8.69099228861803e-06,0.000999999996565748
6,18,0.000302506932692403,0.00200000000040745
6,19,0.0479869898178285,0.00200000000040745
6,20,0.000201657981267922,0.00100000000384171
6,21,2.70294257550541e-05,0.00200000000040745
6,22,0.000879632107449013,0.000999999996565748
6,23,0.00021299477445158,0.00200000000040745
6,24,0.000420491037687931,0.00100000000384171
6,25,0.000311004516368674,0.000999999996565748
6,26,0.0500431482026809,0.00200000000040745
6,27,5.16975021369603e-06,0.00100000000384171
6,28,7.86768183528297e-05,0.00200000000040745
6,29,4.89954433401385e-05,0.000999999996565748
6,30,0.000288403949613936,0.000999999996565748
7,8,0.0480927157754336,0.00200000000040745
7,9,0.00125929940777048,0.00100000000384171
7,10,0.0510209555286072,0.00200000000040745
7,11,7.19903754879958e-05,0.00200000000040745
7,12,0.0512659379722179,0.000999999996565748
7,13,0.000529087859928223,0.00200000000040745
7,14,0.00114645220789222,0.000999999996565748
7,15,0.000451114504794514,0.00200000000040745
7,16,0.000305280750310111,0.00200000000040745
7,17,0.000495290029348672,0.00100000000384171
7,18,0.00018409210436765,0.00200000000040745
7,19,0.0476439261940601,0.000999999996565748
7,20,0.000284941055792132,0.00200000000040745
7,21,0.000513628462815108,0.00200000000040745
7,22,0.00039303307038896,0.00100000000384171
7,23,0.000273604262608473,0.00200000000040745
7,24,6.61079993721225e-05,0.000999999996565748
7,25,0.00017559452069138,0.00100000000384171
7,26,0.049696549345174,0.00200000000040745
7,27,0.000481429286846358,0.000999999996565748
7,28,0.000407922218707224,0.00200000000040745
7,29,0.000437603593719915,0.00200000000040745
7,30,0.000198195087446118,0.00100000000384171
8,9,0.0489865363142951,0.00200000000040745
8,10,0.00295822549841208,0.00200000000040745
8,11,0.0480421136917643,0.000999999996565748
8,12,0.00320229147274296,0.00200000000040745
8,13,0.0484662719120953,0.000999999996565748
8,14,0.0489057837405327,0.000999999996565748
8,15,0.0484110375645353,0.00200000000040745
8,16,0.0483079009342674,0.00100000000384171
8,17,0.0484423227083714,0.00200000000040745
8,18,0.0482223615428103,0.00200000000040745
8,19,0.000452205932603861,0.000999999996565748
8,20,0.0482935337751245,0.00200000000040745
8,21,0.0484553158989084,0.00200000000040745
8,22,0.0478171200967765,0.00100000000384171
8,23,0.0482855277741366,0.00200000000040745
8,24,0.0481392311068053,0.0019999999931315
8,25,0.0482163693710009,0.00100000000384171
8,26,0.00166733970223111,0.00200000000040745
8,27,0.0484325043566076,0.00200000000040745
8,28,0.0483804681903129,0.000999999996565748
8,29,0.0484014731391078,0.00200000000040745
8,30,0.0482323080895818,0.00200000000040745
9,10,0.0519068204303926,0.00100000000384171
9,11,0.00133128978325847,0.00200000000040745
9,12,0.0521668563811985,0.000999999996565748
9,13,0.000730211547842252,0.00200000000040745
9,14,0.000112847199878252,0.00200000000040745
9,15,0.000808184902975961,0.000999999996565748
9,16,0.000954018657460365,0.00200000000040745
9,17,0.000764009378421804,0.00100000000384171
9,18,0.00107520730340283,0.00100000000384171
9,19,0.0485368032578682,0.00200000000040745
9,20,0.000974358351978344,0.000999999996565748
9,21,0.000745670944955368,0.00200000000040745
9,22,0.00165233247815944,0.00200000000040745
9,23,0.000985695145162002,0.00100000000384171
9,24,0.00119319140839835,0.00200000000040745
9,25,0.0010837048870791,0.000999999996565748
9,26,0.0505982710059374,0.00200000000040745
9,27,0.000777870120924118,0.00200000000040745
9,28,0.000851377189063252,0.000999999996565748
9,29,0.00082169581405056,0.00200000000040745
9,30,0.00106110432032436,0.00100000000384171
10,11,0.0509707881991045,0.00100000000384171
10,12,0.000910743611023029,0.00200000000040745
10,13,0.0513912481496678,0.000999999996565748
10,14,0.0518268066180407,0.000999999996565748
10,15,0.0513365021684015,0.00200000000040745
10,16,0.0512342721316143,0.000999999996565748
10,17,0.0513675109388888,0.00200000000040745
10,18,0.0511494792959674,0.00200000000040745
10,19,0.00339627204272513,0.00100000000384171
10,20,0.0512200307061603,0.00200000000040745
10,21,0.0513803891622465,0.00800000000162981
10,22,0.0507477053601411,0.00100000000384171
10,23,0.0512120947097239,0.0019999999931315
10,24,0.0510670696349413,0.00200000000040745
10,25,0.0511435392367161,0.00100000000384171
10,26,0.00159931533645159,0.00200000000040745
10,27,0.0513577793905322,0.00200000000040745
10,28,0.0513062022320532,0.000999999996565748
10,29,0.0513270221089159,0.00200000000040745
10,30,0.0511593392861098,0.00200000000040745
11,12,0.0512148919452318,0.00100000000384171
11,13,0.000601078235416219,0.00200000000040745
11,14,0.00121844258338022,0.000999999996565748
11,15,0.00052310488028251,0.00200000000040745
11,16,0.000377271125798107,0.00200000000040745
11,17,0.000567280404836668,0.000999999996565748
11,18,0.000256082479855646,0.00200000000040745
11,19,0.0475933837830462,0.00100000000384171
11,20,0.000356931431280127,0.00200000000040745
11,21,0.000585618838303104,0.00200000000040745
11,22,0.000321042694900964,0.000999999996565748
11,23,0.000345594638096469,0.00200000000040745
11,24,0.000138098374860118,0.00100000000384171
11,25,0.000247584896179376,0.0019999999931315
11,26,0.0496454709574783,0.00200000000040745
11,27,0.000553419662334353,0.00100000000384171
11,28,0.00047991259419522,0.00200000000040745
11,29,0.000509593969207911,0.000999999996565748
11,30,0.000270185462934114,0.00200000000040745
12,13,0.051642627926941,0.00200000000040745
12,14,0.0520855178034551,0.00100000000384171
12,15,0.0515869458187705,0.00200000000040745
12,16,0.0514829587717666,0.000999999996565748
12,17,0.0516184852303229,0.000999999996565748
12,18,0.0513966997139271,0.00200000000040745
12,19,0.00365444130710316,0.000999999996565748
12,20,0.051468471652561,0.000999999996565748
12,21,0.0516315835205279,0.00200000000040745
12,22,0.0509878662891257,0.00100000000384171
12,23,0.0514603986449473,0.00200000000040745
12,24,0.051312857230342,0.00200000000040745
12,25,0.051390656635621,0.000999999996565748
12,26,0.00156973470596718,0.00200000000040745
12,27,0.0516085872645861,0.00200000000040745
12,28,0.0515561263392448,0.00100000000384171
12,29,0.0515773033175995,0.0019999999931315
12,30,0.0514067306185938,0.00200000000040745
13,14,0.000617364347964,0.00100000000384171
13,15,7.79733551337092e-05,0.00200000000040745
13,16,0.000223807109618113,0.000999999996565748
13,17,3.37978305795517e-05,0.00200000000040745
13,18,0.000344995755560573,0.00200000000040745
13,19,0.0480170631571547,0.00100000000384171
13,20,0.000244146804136092,0.00200000000040745
13,21,1.54593971131156e-05,0.000999999996565748
13,22,0.000922120930317183,0.000999999996565748
13,23,0.00025548359731975,0.00200000000040745
13,24,0.000462979860556101,0.000999999996565748
13,25,0.000353493339236843,0.00200000000040745
13,26,0.0500735230847665,0.00200000000040745
13,27,4.76585730818657e-05,0.00100000000384171
13,28,0.000121165641220999,0.00200000000040745
13,29,9.14842662083082e-05,0.000999999996565748
13,30,0.000330892772482105,0.00200000000040745
14,15,0.000695337703097709,0.00200000000040745
14,16,0.000841171457582113,0.00100000000384171
14,17,0.000651162178543552,0.00200000000040745
14,18,0.000962360103524573,0.000999999996565748
14,19,0.0484561277204434,0.00100000000384171
14,20,0.000861511152100092,0.00200000000040745
14,21,0.000632823745077116,0.000999999996565748
14,22,0.00153948527828118,0.00200000000040745
14,23,0.00087284794528375,0.00200000000040745
14,24,0.0010803442085201,0.00100000000384171
14,25,0.000970857687200843,0.00200000000040745
14,26,0.0505168427904339,0.000999999996565748
14,27,0.000665022921045866,0.000999999996565748
14,28,0.000738529989184999,0.00200000000040745
14,29,0.000708848614172308,0.00100000000384171
14,30,0.000948257120446105,0.0019999999931315
15,16,0.000145833754484403,0.00200000000040745
15,17,4.41755245541575e-05,0.00100000000384171
15,18,0.000267022400426864,0.00200000000040745
15,19,0.0479618884683291,0.000999999996565748
15,20,0.000166173449002383,0.00200000000040745
15,21,6.25139580205936e-05,0.00200000000040745
15,22,0.000844147575183474,0.00100000000384171
15,23,0.000177510242186041,0.00200000000040745
15,24,0.000385006505422392,0.000999999996565748
15,25,0.000275519984103134,0.000999999996565748
15,26,0.0500177941488938,0.00200000000040745
15,27,3.03147820518435e-05,0.000999999996565748
15,28,4.31922860872902e-05,0.00200000000040745
15,29,1.3510911074599e-05,0.00200000000040745
15,30,0.000252919417348396,0.00100000000384171
16,17,0.000190009279038561,0.00200000000040745
16,18,0.00012118864594246,0.000999999996565748
16,19,0.0478588653664737,0.00200000000040745
16,20,2.0339694517979e-05,0.00200000000040745
16,21,0.000208347712504997,0.00800000000162981
16,22,0.00069831382069907,0.00200000000040745
16,23,3.16764877016373e-05,0.00200000000040745
16,24,0.000239172750937988,0.000999999996565748
16,25,0.000129686229618731,0.00200000000040745
16,26,0.0499137241229334,0.00100000000384171
16,27,0.000176148536536247,0.00100000000384171
16,28,0.000102641468397113,0.00200000000040745
16,29,0.000132322843409804,0.000999999996565748
16,30,0.000107085662863993,0.00200000000040745
17,18,0.000311197924981022,0.000999999996565748
17,19,0.0479931397240147,0.000999999996565748
17,20,0.00021034897355654,0.00200000000040745
17,21,1.8338433466436e-05,0.00100000000384171
17,22,0.000888323099737631,0.00200000000040745
17,23,0.000221685766740198,0.00200000000040745
17,24,0.000429182029976549,0.000999999996565748
17,25,0.000319695508657292,0.00200000000040745
17,26,0.0500493598811228,0.00100000000384171
17,27,1.38607425023141e-05,0.0019999999931315
17,28,8.73678106414477e-05,0.00200000000040745
17,29,5.76864356287565e-05,0.00100000000384171
17,30,0.000297094941902554,0.00200000000040745
18,19,0.0477734222665023,0.000999999996565748
18,20,0.000100848951424481,0.00200000000040745
18,21,0.000329536358447458,0.00200000000040745
18,22,0.00057712517475661,0.00100000000384171
18,23,8.95121582408231e-05,0.00200000000040745
18,24,0.000117984104995528,0.000999999996565748
18,25,8.49758367627018e-06,0.00200000000040745
18,26,0.0498274007192145,0.00200000000040745
18,27,0.000297337182478707,0.000999999996565748
18,28,0.000223830114339574,0.00200000000040745
18,29,0.000253511489352265,0.00100000000384171
18,30,1.41029830784678e-05,0.00200000000040745
19,20,0.0478445142443671,0.00200000000040745
19,21,0.0480061189148206,0.000999999996565748
19,22,0.0473686641705823,0.00200000000040745
19,23,0.0478365172036551,0.00200000000040745
19,24,0.0476903872916447,0.00100000000384171
19,25,0.0477674369133467,0.00200000000040745
19,26,0.00211504453049433,0.0019999999931315
19,27,0.047983331980178,0.00100000000384171
19,28,0.0479313524528853,0.00200000000040745
19,29,0.0479523344538743,0.000999999996565748
19,30,0.0477833575161002,0.000999999996565748
20,21,0.000228687407022976,0.00200000000040745
20,22,0.000677974126181091,0.00100000000384171
20,23,1.13367931836583e-05,0.00200000000040745
20,24,0.000218833056420009,0.00200000000040745
20,25,0.000109346535100752,0.000999999996565748
20,26,0.0498992259105934,0.00200000000040745
20,27,0.000196488231054226,0.00100000000384171
20,28,0.000122981162915092,0.0019999999931315
20,29,0.000152662537927784,0.00200000000040745
20,30,8.67459683460137e-05,0.00100000000384171
21,22,0.000906661533204067,0.00200000000040745
21,23,0.000240024200206634,0.000999999996565748
21,24,0.000447520463442985,0.000999999996565748
21,25,0.000338033942123728,0.00200000000040745
21,26,0.05006246925859,0.00100000000384171
21,27,3.21991759687501e-05,0.00200000000040745
21,28,0.000105706244107884,0.00200000000040745
21,29,7.60248690951926e-05,0.000999999996565748
21,30,0.00031543337536899,0.00200000000040745
22,23,0.000666637332997433,0.000999999996565748
22,24,0.000459141069761082,0.00200000000040745
22,25,0.00056862759108034,0.00200000000040745
22,26,0.0494183197147002,0.00100000000384171
22,27,0.000874462357235317,0.00200000000040745
22,28,0.000800955289096184,0.000999999996565748
22,29,0.000830636664108875,0.000999999996565748
22,30,0.000591228157835078,0.00200000000040745
23,24,0.000207496263236351,0.00100000000384171
23,25,9.80097419170933e-05,0.0019999999931315
23,26,0.0498911467712418,0.00200000000040745
23,27,0.000207825024237884,0.00100000000384171
23,28,0.000134317956098751,0.00200000000040745
23,29,0.000163999331111442,0.000999999996565748
23,30,7.54091751623553e-05,0.00200000000040745
24,25,0.000109486521319258,0.00200000000040745
24,26,0.0497434996567607,0.00100000000384171
24,27,0.000415321287474235,0.00200000000040745
24,28,0.000341814219335101,0.00200000000040745
24,29,0.000371495594347793,0.000999999996565748
24,30,0.000132087088073995,0.00200000000040745
25,26,0.0498213532873268,0.000999999996565748
25,27,0.000305834766154978,0.00200000000040745
25,28,0.000232327698015844,0.00200000000040745
25,29,0.000262009073028535,0.00100000000384171
25,30,2.2600566754738e-05,0.00200000000040745
26,27,0.0500394535978624,0.000999999996565748
26,28,0.0499869494656395,0.000999999996565748
26,29,0.050008143707247,0.00200000000040745
26,30,0.0498374388952044,0.00100000000384171
27,28,7.35070681391337e-05,0.00200000000040745
27,29,4.38256931264425e-05,0.0019999999931315
27,30,0.00028323419940024,0.00100000000384171
28,29,2.96813750126912e-05,0.00899999999819556
28,30,0.000209727131261106,0.00200000000040745
29,30,0.000239408506273797,0.00100000000384171


"After.Trace.ID","Before.Trace.ID","Difference","Runtime"
1,1,0.0713107661541001,0.00200000000040745
1,2,0.0502937467531908,0.00100000000384171
1,3,0.0707222601328518,0.00100000000384171
1,4,0.0714866004696975,0.00200000000040745
1,5,0.072075564333466,0.0019999999931315
1,6,0.0719949280891179,0.00200000000040745
1,7,0.071595178806301,0.00100000000384171
1,8,0.0486521478973195,0.00200000000040745
1,9,0.0726318922325357,0.00200000000040745
1,10,0.0487340741931037,0.00200000000040745
1,11,0.0715361288817283,0.00200000000040745
1,12,0.0481747210459785,0.000999999996565748
1,13,0.0720298841038207,0.00200000000040745
1,14,0.0725387038239409,0.00200000000040745
1,15,0.0719657407921187,0.00200000000040745
1,16,0.0718458468317974,0.000999999996565748
1,17,0.0720020776034438,0.000999999996565748
1,18,0.0717462873880214,0.00200000000040745
1,19,0.0487315263821779,0.00200000000040745
1,20,0.0718291326321586,0.00200000000040745
1,21,0.0720171645529167,0.00100000000384171
1,22,0.0712730840474507,0.00200000000040745
1,23,0.0718198174031621,0.00200000000040745
1,24,0.0716494245718136,0.00200000000040745
1,25,0.0717393089116832,0.0019999999931315
1,26,0.048236242367882,0.00100000000384171
1,27,0.0719906754326053,0.00200000000040745
1,28,0.0719302212320006,0.00200000000040745
1,29,0.0719546290722807,0.00200000000040745
1,30,0.0717578699133517,0.000999999996565748
2,1,0.0765185430078346,0.000999999996565748
2,2,0.0558980918368844,0.00200000000040745
2,3,0.075922642798162,0.00200000000040745
2,4,0.0766965269506622,0.00200000000040745
2,5,0.0772924982833696,0.00100000000384171
2,6,0.0772109198634701,0.000999999996565748
2,7,0.0768064193057293,0.00200000000040745
2,8,0.0549007091006823,0.00200000000040745
2,9,0.077855181880356,0.00200000000040745
2,10,0.0549489437766848,0.00200000000040745
2,11,0.076746656017168,0.00100000000384171
2,12,0.0543543056777248,0.00200000000040745
2,13,0.0772462849754102,0.00200000000040745
2,14,0.0777609462155014,0.00200000000040745
2,15,0.0771813902035769,0.0019999999931315
2,16,0.0770600824393401,0.00100000000384171
2,17,0.0772181531325419,0.00200000000040745
2,18,0.0769593397946223,0.00200000000040745
2,19,0.0549875936334588,0.00200000000040745
2,20,0.0770431701861594,0.00200000000040745
2,21,0.0772334166824517,0.000999999996565748
2,22,0.0764803967092575,0.00200000000040745
2,23,0.0770337444750287,0.00200000000040745
2,24,0.0768613177610943,0.00200000000040745
2,25,0.0769522780691373,0.00100000000384171
2,26,0.0544447060248315,0.000999999996565748
2,27,0.0772066173680109,0.00200000000040745
2,28,0.0771454530462719,0.00200000000040745
2,29,0.0771701479583485,0.00200000000040745
2,30,0.0769710604016003,0.00100000000384171
3,1,0.0748200849559596,0.00100000000384171
3,2,0.0579257335772745,0.00200000000040745
3,3,0.0742221621742284,0.00200000000040745
3,4,0.0749986747143487,0.00200000000040745
3,5,0.075596679544495,0.000999999996565748
3,6,0.0755148223572499,0.00200000000040745
3,7,0.0751089414752811,0.00200000000040745
3,8,0.0557550432211136,0.00200000000040745
3,9,0.0761612890403885,0.00200000000040745
3,10,0.0560093481954757,0.000999999996565748
3,11,0.075048974538702,0.00200000000040745
3,12,0.055411555634607,0.00200000000040745
3,13,0.075550308302645,0.00200000000040745
3,14,0.0760667304825104,0.00200000000040745
3,15,0.0754851918201439,0.000999999996565748
3,16,0.0753634698284784,0.00200000000040745
3,17,0.0755220803386304,0.00200000000040745
3,18,0.0752623834012615,0.00200000000040745
3,19,0.0558130626537368,0.00200000000040745
3,20,0.0753464998482588,0.00100000000384171
3,21,0.0755373960393491,0.00200000000040745
3,22,0.0747818089129786,0.00200000000040745
3,23,0.0753370419665778,0.00200000000040745
3,24,0.0751640270696036,0.00200000000040745
3,25,0.0752552975855084,0.000999999996565748
3,26,0.0553958578635084,0.00200000000040745
3,27,0.0755105051628737,0.00200000000040745
3,28,0.0754491319191535,0.00200000000040745
3,29,0.0754739111742709,0.00200000000040745
3,30,0.0752741439940114,0.000999999996565748
4,1,0.0687566277495375,0.00200000000040745
4,2,0.0528248170884385,0.00200000000040745
4,3,0.0681727364865673,0.00200000000040745
4,4,0.0689311193853167,0.00800000000162981
4,5,0.069515702681581,0.00200000000040745
4,6,0.0694356557522463,0.00200000000040745
4,7,0.0690388767208383,0.00200000000040745
4,8,0.049543194754408,0.00200000000040745
4,9,0.0700680523254053,0.000999999996565748
4,10,0.0499060366472793,0.00200000000040745
4,11,0.0689802725312864,0.00200000000040745
4,12,0.0493644130782854,0.00200000000040745
4,13,0.0694703558965956,0.000999999996565748
4,14,0.0699755197851305,0.00200000000040745
4,15,0.0694066825711435,0.00200000000040745
4,16,0.069287672665538,0.00200000000040745
4,17,0.069442752883699,0.00100000000384171
4,18,0.0691888529001159,0.00200000000040745
4,19,0.0495802619371354,0.00200000000040745
4,20,0.069271082290459,0.00200000000040745
4,21,0.0694577293789077,0.000999999996565748
4,22,0.0687192355161315,0.00200000000040745
4,23,0.0692618361337328,0.00200000000040745
4,24,0.0690927146124794,0.000999999996565748
4,25,0.0691819264609014,0.000999999996565748
4,26,0.0492762440635711,0.00200000000040745
4,27,0.0694314342661927,0.00200000000040745
4,28,0.0693714241600383,0.00100000000384171
4,29,0.0693956524790249,0.00200000000040745
4,30,0.0692003491120289,0.00200000000040745
5,1,0.0663681779583084,0.00200000000040745
5,2,0.0483933495555637,0.000999999996565748
5,3,0.065793498143453,0.00100000000384171
5,4,0.0665399736282309,0.00200000000040745
5,5,0.0671157091346763,0.00200000000040745
5,6,0.0670368572406776,0.000999999996565748
5,7,0.0666460788472981,0.000999999996565748
5,8,0.0451556490164337,0.00200000000040745
5,9,0.067659951379555,0.00200000000040745
5,10,0.0454466713048124,0.00200000000040745
5,11,0.0665883719633392,0.00100000000384171
5,12,0.0449406754889604,0.0019999999931315
5,13,0.0670710387061062,0.00200000000040745
5,14,0.0675687603555562,0.00200000000040745
5,15,0.067008317880338,0.00100000000384171
5,16,0.0668910970795391,0.00100000000384171
5,17,0.0670438482089796,0.00200000000040745
5,18,0.0667937716849757,0.00200000000040745
5,19,0.0451997765553129,0.00200000000040745
5,20,0.066874757028312,0.000999999996565748
5,21,0.0670586008102797,0.00200000000040745
5,22,0.0663313668048963,0.00200000000040745
5,23,0.0668656504799,0.00200000000040745
5,24,0.0666990949306346,0.000999999996565748
5,25,0.0667869502893836,0.00200000000040745
5,26,0.0448788831453374,0.00200000000040745
5,27,0.0670326989214523,0.00200000000040745
5,28,0.0669735883171468,0.00100000000384171
5,29,0.0669974531224194,0.00100000000384171
5,30,0.0668050936370532,0.00200000000040745
6,1,0.0653996132079753,0.00200000000040745
6,2,0.0534118238833974,0.0019999999931315
6,3,0.0648196336959955,0.00100000000384171
6,4,0.0655729781556079,0.00200000000040745
6,5,0.0661539230400738,0.00200000000040745
6,6,0.0660743621707177,0.000999999996565748
6,7,0.0656800491761233,0.000999999996565748
6,8,0.0487078204736174,0.00200000000040745
6,9,0.0667030202625737,0.00200000000040745
6,10,0.049301432818692,0.00200000000040745
6,11,0.0656218173502988,0.00100000000384171
6,12,0.0487816740529002,0.0019999999931315
6,13,0.0661088511436186,0.00200000000040745
6,14,0.0666110204132647,0.00200000000040745
6,15,0.0660455658567383,0.00100000000384171
6,16,0.0659272877060297,0.00200000000040745
6,17,0.0660814160537159,0.00200000000040745
6,18,0.0658290820265029,0.000999999996565748
6,19,0.0487094685493552,0.000999999996565748
6,20,0.0659108000149195,0.00200000000040745
6,21,0.0660963013833347,0.00200000000040745
6,22,0.0653624649065049,0.00100000000384171
6,23,0.0659016111580579,0.000999999996565748
6,24,0.0657335468518616,0.00200000000040745
6,25,0.0658221988513476,0.00200000000040745
6,26,0.048568348220419,0.00100000000384171
6,27,0.0660701664237164,0.00100000000384171
6,28,0.0660105233553992,0.00200000000040745
6,29,0.066034603229243,0.00200000000040745
6,30,0.0658405064948491,0.000999999996565748
7,1,0.0671093265649893,0.000999999996565748
7,2,0.0558525028008155,0.00200000000040745
7,3,0.066523895022984,0.00200000000040745
7,4,0.0672842842163508,0.000999999996565748
7,5,0.0678704464890362,0.00200000000040745
7,6,0.0677901818005624,0.00200000000040745
7,7,0.0673923305888369,0.00100000000384171
7,8,0.0512763363025712,0.00200000000040745
7,9,0.0684243112683345,0.00200000000040745
7,10,0.0518820867158859,0.000999999996565748
7,11,0.0673335690888015,0.000999999996565748
7,12,0.0513396120379768,0.00200000000040745
7,13,0.0678249762844774,0.00899999999819556
7,14,0.0683315234277942,0.00200000000040745
7,15,0.0677611299188425,0.00100000000384171
7,16,0.0676417974094611,0.00200000000040745
7,17,0.0677972982197322,0.00200000000040745
7,18,0.0675427105962918,0.000999999996565748
7,19,0.051278436314535,0.00200000000040745
7,20,0.0676251621482519,0.00200000000040745
7,21,0.067812315428579,0.000999999996565748
7,22,0.0670718347994133,0.000999999996565748
7,23,0.067615890984764,0.00200000000040745
7,24,0.0674463132399152,0.00100000000384171
7,25,0.067535765467744,0.00100000000384171
7,26,0.0511266330689284,0.00200000000040745
7,27,0.0677859488436572,0.00200000000040745
7,28,0.0677257758195973,0.000999999996565748
7,29,0.0677500698819719,0.00200000000040745
7,30,0.0675542378362503,0.00200000000040745
8,1,0.0766692603378776,0.000999999996565748
8,2,0.0574487279132463,0.00200000000040745
8,3,0.0760859735321158,0.00200000000040745
8,4,0.0768435222744356,0.00200000000040745
8,5,0.07742717928439,0.00200000000040745
8,6,0.077347273112364,0.00100000000384171
8,7,0.0769511268312026,0.00200000000040745
8,8,0.0560949287457483,0.00200000000040745
8,9,0.0779784420705386,0.00200000000040745
8,10,0.0561975356726248,0.0019999999931315
8,11,0.0768926067575708,0.00100000000384171
8,12,0.0556301983009682,0.00200000000040745
8,13,0.0773819127706988,0.00200000000040745
8,14,0.0778861054152822,0.00200000000040745
8,15,0.077318349808495,0.000999999996565748
8,16,0.0771995387618191,0.000999999996565748
8,17,0.077354357939165,0.00200000000040745
8,18,0.0771008766997407,0.00200000000040745
8,19,0.0561702492068152,0.00200000000040745
8,20,0.0771829753352724,0.000999999996565748
8,21,0.077369308356778,0.00200000000040745
8,22,0.0766319144476409,0.00200000000040745
8,23,0.0771737441149981,0.00200000000040745
8,24,0.077004885303006,0.00200000000040745
8,25,0.0770939610597257,0.00100000000384171
8,26,0.0556864048779098,0.00100000000384171
8,27,0.0773430589290947,0.00200000000040745
8,28,0.0772831513233124,0.00200000000040745
8,29,0.0773073385544961,0.00200000000040745
8,30,0.0771123549137803,0.000999999996565748
9,1,0.0671981407644172,0.00200000000040745
9,2,0.053318319587949,0.00200000000040745
9,3,0.0666175448688489,0.00200000000040745
9,4,0.0673716729781547,0.00200000000040745
9,5,0.0679531240412102,0.000999999996565748
9,6,0.0678734986785528,0.00200000000040745
9,7,0.0674788435176093,0.00200000000040745
9,8,0.0493201338274563,0.00200000000040745
9,9,0.0685026262256148,0.00100000000384171
9,10,0.0497992711893654,0.0019999999931315
9,11,0.0674205579229544,0.00200000000040745
9,12,0.0492706582367774,0.00200000000040745
9,13,0.0679080157933572,0.00100000000384171
9,14,0.0684105633247375,0.00100000000384171
9,15,0.0678446786504583,0.00200000000040745
9,16,0.0677263010091885,0.00200000000040745
9,17,0.067880558340335,0.00200000000040745
9,18,0.0676280101502518,0.000999999996565748
9,19,0.0493390444369004,0.00200000000040745
9,20,0.0677097991811995,0.00200000000040745
9,21,0.067895455825631,0.00200000000040745
9,22,0.0671609556244,0.000999999996565748
9,23,0.0677006024170099,0.00200000000040745
9,24,0.0675323898475219,0.00200000000040745
9,25,0.0676211209166872,0.00200000000040745
9,26,0.0491190261504234,0.00200000000040745
9,27,0.0678692994886239,0.00100000000384171
9,28,0.0678096070235894,0.00200000000040745
9,29,0.0678337069430115,0.00200000000040745
9,30,0.0676394446485548,0.0019999999931315
10,1,0.0674083571616489,0.00100000000384171
10,2,0.0576254617577243,0.00200000000040745
10,3,0.0668578246143519,0.00200000000040745
10,4,0.0675730266127737,0.000999999996565748
10,5,0.068125183036946,0.00200000000040745
10,6,0.0680495332517811,0.00200000000040745
10,7,0.0676747514284525,0.00100000000384171
10,8,0.0527611069568638,0.00200000000040745
10,9,0.0686475553027011,0.00200000000040745
10,10,0.0533918474126256,0.000999999996565748
10,11,0.0676194249171791,0.00200000000040745
10,12,0.0529205131723021,0.00200000000040745
10,13,0.0680823255848045,0.000999999996565748
10,14,0.0685600008128809,0.00200000000040745
10,15,0.0680221549646429,0.00200000000040745
10,16,0.0679097149151708,0.00100000000384171
10,17,0.0680562399764855,0.00200000000040745
10,18,0.0678163733755395,0.00200000000040745
10,19,0.0527497004141213,0.000999999996565748
10,20,0.0678940427946375,0.00200000000040745
10,21,0.0680703929776999,0.00200000000040745
10,22,0.0673730784434761,0.00200000000040745
10,23,0.0678853086550497,0.00100000000384171
10,24,0.0677255847691387,0.00200000000040745
10,25,0.0678098316985356,0.00200000000040745
10,26,0.0526789778761459,0.000999999996565748
10,27,0.0680455440363623,0.00200000000040745
10,28,0.0679888398313611,0.00200000000040745
10,29,0.0680117325159999,0.000999999996565748
10,30,0.0678272312025486,0.000999999996565748
11,1,0.0691419570878033,0.00200000000040745
11,2,0.054268075701473,0.00200000000040745
11,3,0.0685516437304986,0.00100000000384171
11,4,0.0693183386095708,0.00200000000040745
11,5,0.0699091578342893,0.00200000000040745
11,6,0.0698282655983369,0.00200000000040745
11,7,0.0694272564286469,0.000999999996565748
11,8,0.0508090082167453,0.00200000000040745
11,9,0.0704672678746065,0.00200000000040745
11,10,0.0512237578764001,0.000999999996565748
11,11,0.0693680217299013,0.000999999996565748
11,12,0.050664365144475,0.00200000000040745
11,13,0.069863332511545,0.00200000000040745
11,14,0.070373779055963,0.00100000000384171
11,15,0.0697989857920536,0.00200000000040745
11,16,0.0696787126746685,0.00200000000040745
11,17,0.0698354377852966,0.00200000000040745
11,18,0.0695788394305013,0.000999999996565748
11,19,0.05084065942285,0.00200000000040745
11,20,0.0696619457266711,0.00200000000040745
11,21,0.0698505725944279,0.00200000000040745
11,22,0.0691041581313225,0.000999999996565748
11,23,0.0696526011114275,0.00200000000040745
11,24,0.0694816722436191,0.00200000000040745
11,25,0.0695718389949486,0.00100000000384171
11,26,0.0505540582170564,0.00100000000384171
11,27,0.0698239994580204,0.00200000000040745
11,28,0.0697633537609797,0.00200000000040745
11,29,0.0697878388746686,0.000999999996565748
11,30,0.0695904584131455,0.00100000000384171
12,1,0.0682460018649462,0.00200000000040745
12,2,0.0533933421552694,0.00200000000040745
12,3,0.0676451541885802,0.00200000000040745
12,4,0.0684254932247003,0.000999999996565748
12,5,0.0690266055953837,0.00200000000040745
12,6,0.0689443152098418,0.00200000000040745
12,7,0.0685363228571824,0.00200000000040745
12,8,0.0497948173326644,0.00100000000384171
12,9,0.0695942674937259,0.000999999996565748
12,10,0.0502355375206347,0.00200000000040745
12,11,0.0684760492301193,0.00200000000040745
12,12,0.0496559523379663,0.00200000000040745
12,13,0.0689799886533549,0.00100000000384171
12,14,0.0694991900661083,0.00200000000040745
12,15,0.0689145284638905,0.00200000000040745
12,16,0.0687921681441167,0.00200000000040745
12,17,0.0689516115032274,0.000999999996565748
12,18,0.0686905557761809,0.00200000000040745
12,19,0.0498257927365115,0.00200000000040745
12,20,0.0687751096051983,0.00200000000040745
12,21,0.068967008112267,0.00200000000040745
12,22,0.068207534223809,0.000999999996565748
12,23,0.0687656024134998,0.00200000000040745
12,24,0.0685916913900139,0.00200000000040745
12,25,0.0686834332370862,0.00200000000040745
12,26,0.0495363024315077,0.00100000000384171
12,27,0.0689399752357977,0.00200000000040745
12,28,0.068878278891772,0.00200000000040745
12,29,0.0689031884319213,0.0019999999931315
12,30,0.0687023773616281,0.00100000000384171
13,1,0.0655911271471776,0.00100000000384171
13,2,0.0544285360299033,0.00200000000040745
13,3,0.0650038073199823,0.00200000000040745
13,4,0.0657666526449545,0.000999999996565748
13,5,0.0663547279748864,0.00200000000040745
13,6,0.0662742004165537,0.00200000000040745
13,7,0.0658750504504961,0.00100000000384171
13,8,0.0495900236177663,0.00200000000040745
13,9,0.0669104138020772,0.0019999999931315
13,10,0.0502255275041797,0.00100000000384171
13,11,0.0658160977518076,0.00100000000384171
13,12,0.0496871963169414,0.00200000000040745
13,13,0.0663091088198865,0.00200000000040745
13,14,0.0668173200597152,0.000999999996565748
13,15,0.0662450534571035,0.00200000000040745
13,16,0.0661253307980288,0.00200000000040745
13,17,0.0662813401311081,0.00100000000384171
13,18,0.0660259205120216,0.00200000000040745
13,19,0.0495878751337587,0.00200000000040745
13,20,0.0661086411992578,0.000999999996565748
13,21,0.0662964065054962,0.00100000000384171
13,22,0.0655535138994934,0.00200000000040745
13,23,0.0660993397577713,0.00200000000040745
13,24,0.0659292088963694,0.000999999996565748
13,25,0.0660189527276463,0.00200000000040745
13,26,0.0494569532091139,0.00200000000040745
13,27,0.0662699536042282,0.00100000000384171
13,28,0.0662095837045101,0.00200000000040745
13,29,0.0662339572338259,0.00200000000040745
13,30,0.0660374853600952,0.00899999999819556
14,1,0.0644532200427172,0.000999999996565748
14,2,0.0518171862473131,0.000999999996565748
14,3,0.0638797672842283,0.00200000000040745
14,4,0.0646246705115628,0.00200000000040745
14,5,0.0651993184631124,0.00100000000384171
14,6,0.0651206093528658,0.00200000000040745
14,7,0.0647305673514696,0.0019999999931315
14,8,0.0470766519569395,0.00100000000384171
14,9,0.0657426265675075,0.00200000000040745
14,10,0.0476497320476695,0.00200000000040745
14,11,0.0646729733439853,0.000999999996565748
14,12,0.047151316386188,0.000999999996565748
14,13,0.0651547286870928,0.00200000000040745
14,14,0.0656515859191348,0.00200000000040745
14,15,0.0650921221457728,0.00100000000384171
14,16,0.0649751182223858,0.00200000000040745
14,17,0.0651275875843301,0.0019999999931315
14,18,0.0648779761813798,0.00100000000384171
14,19,0.047078966611552,0.00200000000040745
14,20,0.064958808745365,0.00200000000040745
14,21,0.0651423133575935,0.000999999996565748
14,22,0.0644164841269214,0.00200000000040745
14,23,0.0649497192729459,0.00200000000040745
14,24,0.0647834806818363,0.00100000000384171
14,25,0.0648711677494184,0.00200000000040745
14,26,0.0469427423886236,0.00200000000040745
14,27,0.0651164586168692,0.000999999996565748
14,28,0.0650574563898298,0.00100000000384171
14,29,0.0650812773088395,0.00200000000040745
14,30,0.0648892766494712,0.00200000000040745
15,1,0.0616954655172222,0.000999999996565748
15,2,0.055314992147791,0.00200000000040745
15,3,0.0611222226352334,0.00200000000040745
15,4,0.06186687952239,0.00100000000384171
15,5,0.0624414889578116,0.00200000000040745
15,6,0.0623627777037692,0.00200000000040745
15,7,0.0619727596815492,0.000999999996565748
15,8,0.0488754308468462,0.00200000000040745
15,9,0.0629848732944777,0.00200000000040745
15,10,0.049767557597,0.00200000000040745
15,11,0.0619151741977873,0.000999999996565748
15,12,0.0492773901888092,0.00200000000040745
15,13,0.0623968976842218,0.00200000000040745
15,14,0.0628938125438708,0.00100000000384171
15,15,0.0623342902903973,0.00200000000040745
15,16,0.0622172887236945,0.00200000000040745
15,17,0.0623697560320605,0.000999999996565748
15,18,0.0621201525927133,0.00200000000040745
15,19,0.0488303494837238,0.00200000000040745
15,20,0.0622009799870503,0.00200000000040745
15,21,0.0623844820693215,0.000999999996565748
15,22,0.0616587389545847,0.00200000000040745
15,23,0.0621918909712335,0.00200000000040745
15,24,0.0620256663263269,0.00100000000384171
15,25,0.0621133447106619,0.00200000000040745
15,26,0.0489031004960357,0.00200000000040745
15,27,0.0623586269188117,0.000999999996565748
15,28,0.062299624694122,0.00200000000040745
15,29,0.0623234454548768,0.00200000000040745
15,30,0.0621314521874466,0.000999999996565748
16,1,0.0682301809930923,0.000999999996565748
16,2,0.0549551501622317,0.00200000000040745
16,3,0.0676359979019095,0.00200000000040745
16,4,0.0684077090146516,0.00200000000040745
16,5,0.0690023362889342,0.00100000000384171
16,6,0.0689209255999704,0.00200000000040745
16,7,0.0685173325863766,0.00200000000040745
16,8,0.0509973315834906,0.00200000000040745
16,9,0.0695639982751169,0.000999999996565748
16,10,0.0515040853962577,0.00100000000384171
16,11,0.0684577142761215,0.00200000000040745
16,12,0.050938676156465,0.00200000000040745
16,13,0.0689562173769468,0.00200000000040745
16,14,0.0694699175129789,0.000999999996565748
16,15,0.0688914579060175,0.00200000000040745
16,16,0.0687704117254315,0.00200000000040745
16,17,0.0689281437921504,0.00200000000040745
16,18,0.0686698949791274,0.00100000000384171
16,19,0.0510166595636038,0.00200000000040745
16,20,0.0687535368438284,0.0019999999931315
16,21,0.0689433756580088,0.00200000000040745
16,22,0.0681921357578892,0.00100000000384171
16,23,0.0687441320573169,0.00100000000384171
16,24,0.0685721003635635,0.00200000000040745
16,25,0.0686628493852563,0.00200000000040745
16,26,0.0507821380417692,0.00200000000040745
16,27,0.0689166320915049,0.000999999996565748
16,28,0.0688555970615077,0.00200000000040745
16,29,0.0688802394272939,0.00200000000040745
16,30,0.0686815888979615,0.00200000000040745
17,1,0.0663022275941099,0.000999999996565748
17,2,0.051991710921025,0.00200000000040745
17,3,0.0657272031954925,0.00200000000040745
17,4,0.0664741253359804,0.00200000000040745
17,5,0.0670501998046032,0.00100000000384171
17,6,0.0669713017680884,0.00200000000040745
17,7,0.0665802933831692,0.00200000000040745
17,8,0.0479324336162594,0.00200000000040745
17,9,0.0675947581211886,0.00899999999819556
17,10,0.048399385272048,0.000999999996565748
17,11,0.0665225523494404,0.00200000000040745
17,12,0.0478889940315139,0.00200000000040745
17,13,0.0670055032467156,0.00200000000040745
17,14,0.0675035144292961,0.00100000000384171
17,15,0.0669427456851984,0.00200000000040745
17,16,0.0668254560768736,0.0019999999931315
17,17,0.0669782968309506,0.00200000000040745
17,18,0.0667280734033156,0.00100000000384171
17,19,0.047951137042177,0.00200000000040745
17,20,0.0668091064185341,0.00200000000040745
17,21,0.0669930580704514,0.00200000000040745
17,22,0.0662653945135426,0.000999999996565748
17,23,0.0667999945142741,0.00200000000040745
17,24,0.0666333407979049,0.00200000000040745
17,25,0.0667212479880112,0.00200000000040745
17,26,0.047738671692016,0.000999999996565748
17,27,0.0669671410130338,0.00200000000040745
17,28,0.0669079957566037,0.00200000000040745
17,29,0.0669318745580456,0.00100000000384171
17,30,0.0667394020257144,0.00100000000384171
18,1,0.0825309221869204,0.00200000000040745
18,2,0.0531552356485938,0.00200000000040745
18,3,0.0819146116130372,0.00200000000040745
18,4,0.0827149003220148,0.00200000000040745
18,5,0.0833306109521844,0.00200000000040745
18,6,0.0832463603309684,0.0019999999931315
18,7,0.0828284706641602,0.00200000000040745
18,8,0.0553937178554176,0.00200000000040745
18,9,0.0839114747316671,0.00100000000384171
18,10,0.0549489284455062,0.00100000000384171
18,11,0.082766709325825,0.00200000000040745
18,12,0.0542966795422917,0.00200000000040745
18,13,0.0832828850172043,0.00200000000040745
18,14,0.0838142245835343,0.00200000000040745
18,15,0.0832158610858573,0.0019999999931315
18,16,0.083090557352347,0.00200000000040745
18,17,0.0832538309121511,0.00200000000040745
18,18,0.0829864802970275,0.00200000000040745
18,19,0.0555569884051318,0.00200000000040745
18,20,0.083073086341063,0.00200000000040745
18,21,0.0832695949936366,0.00200000000040745
18,22,0.0824914851526685,0.00100000000384171
18,23,0.0830633490407406,0.00100000000384171
18,24,0.0828851999855915,0.00200000000040745
18,25,0.082979184297721,0.0019999999931315
18,26,0.0546583043039413,0.00200000000040745
18,27,0.0832419166425395,0.00200000000040745
18,28,0.0831787422999657,0.00200000000040745
18,29,0.0832042493867467,0.00200000000040745
18,30,0.0829985895797154,0.00200000000040745
19,1,0.0657330463286522,0.00200000000040745
19,2,0.0543055199413503,0.00100000000384171
19,3,0.0651464174027062,0.00200000000040745
19,4,0.0659083672271513,0.0019999999931315
19,5,0.0664957633096748,0.00100000000384171
19,6,0.0664153281994547,0.00200000000040745
19,7,0.0660166391092999,0.00200000000040745
19,8,0.0495451199986593,0.000999999996565748
19,9,0.0670508160195747,0.00200000000040745
19,10,0.0501657638012096,0.00200000000040745
19,11,0.0659577548541173,0.00200000000040745
19,12,0.0496284783522892,0.00100000000384171
19,13,0.0664501965050016,0.00200000000040745
19,14,0.0669578277579879,0.0019999999931315
19,15,0.066386214745528,0.00100000000384171
19,16,0.0662666299575278,0.00200000000040745
19,17,0.0664224597102012,0.00200000000040745
19,18,0.0661673344517368,0.000999999996565748
19,19,0.0495449660040739,0.00200000000040745
19,20,0.066249959609677,0.00200000000040745
19,21,0.0664375087773401,0.00200000000040745
19,22,0.0656954770365617,0.00100000000384171
19,23,0.0662406689004447,0.00200000000040745
19,24,0.066070734762888,0.00200000000040745
19,25,0.0661603747226922,0.000999999996565748
19,26,0.0494056628070709,0.00200000000040745
19,27,0.0664110862675454,0.00200000000040745
19,28,0.0663507857982766,0.000999999996565748
19,29,0.0663751312839173,0.00200000000040745
19,30,0.0661788859328628,0.00200000000040745
20,1,0.0627100408665353,0.00200000000040745
20,2,0.0513077447688009,0.00100000000384171
20,3,0.0621282309104102,0.00200000000040745
20,4,0.062883967718403,0.00200000000040745
20,5,0.0634668418272115,0.000999999996565748
20,6,0.0633870126778356,0.00100000000384171
20,7,0.0629913890214557,0.00200000000040745
20,8,0.0460028728256141,0.00200000000040745
20,9,0.0640178238657381,0.000999999996565748
20,10,0.046671838637155,0.000999999996565748
20,11,0.0629329663862061,0.00200000000040745
20,12,0.0461635540322296,0.00200000000040745
20,13,0.0634216177935379,0.00100000000384171
20,14,0.0639255042794639,0.00800000000162981
20,15,0.0633581195732315,0.00100000000384171
20,16,0.0632394456171506,0.00200000000040745
20,17,0.0633940902957406,0.00200000000040745
20,18,0.0631409134720377,0.000999999996565748
20,19,0.0459932292501567,0.000999999996565748
20,20,0.0632229029775072,0.00200000000040745
20,21,0.0634090257440862,0.00200000000040745
20,22,0.0626727730208462,0.00200000000040745
20,23,0.0632136835210906,0.000999999996565748
20,24,0.0630450626282446,0.00200000000040745
20,25,0.0631340074897646,0.00200000000040745
20,26,0.0459069533264561,0.00100000000384171
20,27,0.0633828028176974,0.00100000000384171
20,28,0.0633229595109637,0.00200000000040745
20,29,0.0633471201416628,0.00200000000040745
20,30,0.063152375816571,0.000999999996565748
21,1,0.0702006360017698,0.00200000000040745
21,2,0.0524091756464831,0.00200000000040745
21,3,0.0696127991332196,0.00200000000040745
21,4,0.0703762804369034,0.000999999996565748
21,5,0.0709646405993307,0.00200000000040745
21,6,0.0708840841296993,0.00200000000040745
21,7,0.070484743769365,0.00200000000040745
21,8,0.0497965356529661,0.00100000000384171
21,9,0.0715204421532813,0.00200000000040745
21,10,0.0500535040329184,0.00200000000040745
21,11,0.0704257561779593,0.00200000000040745
21,12,0.0494979054734066,0.000999999996565748
21,13,0.0709190054515479,0.00200000000040745
21,14,0.0714273390309644,0.00200000000040745
21,15,0.0708549259300363,0.000999999996565748
21,16,0.0707351527400607,0.000999999996565748
21,17,0.0708912265345698,0.00200000000040745
21,18,0.0706356951180605,0.00200000000040745
21,19,0.0498503514344942,0.00100000000384171
21,20,0.0707184555367632,0.00200000000040745
21,21,0.0709062985048633,0.00200000000040745
21,22,0.0701629951788237,0.0019999999931315
21,23,0.070709149797303,0.00100000000384171
21,24,0.0705389327150254,0.00200000000040745
21,25,0.0706287238313549,0.00200000000040745
21,26,0.0494681150344363,0.00200000000040745
21,27,0.0708798357053767,0.000999999996565748
21,28,0.0708194419397976,0.000999999996565748
21,29,0.07084382531878,0.00200000000040745
21,30,0.0706472657256445,0.00200000000040745
22,1,0.0748675175849796,0.00100000000384171
22,2,0.0543577439521354,0.00100000000384171
22,3,0.074267496647479,0.0019999999931315
22,4,0.0750467258264586,0.00200000000040745
22,5,0.0756467748196826,0.00200000000040745
22,6,0.0755646402301833,0.00100000000384171
22,7,0.0751573726029085,0.00100000000384171
22,8,0.0531166273992158,0.00200000000040745
22,9,0.0762132772822877,0.00200000000040745
22,10,0.0531936684178478,0.00200000000040745
22,11,0.0750971991754992,0.000999999996565748
22,12,0.0525941375900319,0.000999999996565748
22,13,0.0756002465253483,0.00200000000040745
22,14,0.0761184041603777,0.00200000000040745
22,15,0.0755349090925403,0.00200000000040745
22,16,0.0754127727882171,0.000999999996565748
22,17,0.0755719228384346,0.000999999996565748
22,18,0.0753113410018957,0.00200000000040745
22,19,0.0532005925559506,0.00200000000040745
22,20,0.0753957449121438,0.00200000000040745
22,21,0.0755872904868971,0.00100000000384171
22,22,0.0748291085001917,0.00100000000384171
22,23,0.0753862547490817,0.0019999999931315
22,24,0.0752126475130443,0.00200000000040745
22,25,0.0753042309337367,0.00200000000040745
22,26,0.0526698876128867,0.00100000000384171
22,27,0.0755603083844157,0.00100000000384171
22,28,0.075498726627906,0.00200000000040745
22,29,0.0755235901208569,0.00200000000040745
22,30,0.0753231418345533,0.00200000000040745
23,1,0.0676430383100558,0.000999999996565748
23,2,0.0570093695376199,0.00200000000040745
23,3,0.0670586067203193,0.00200000000040745
23,4,0.0678176973449767,0.00200000000040745
23,5,0.0684028601979397,0.000999999996565748
23,6,0.0683227322552392,0.000999999996565748
23,7,0.0679255593689224,0.00200000000040745
23,8,0.052381066874824,0.00200000000040745
23,9,0.0689557824706119,0.00200000000040745
23,10,0.0530059781863515,0.00100000000384171
23,11,0.0678668981212645,0.00200000000040745
23,12,0.0524618821860533,0.00200000000040745
23,13,0.0683574674557347,0.0019999999931315
23,14,0.0688631523819479,0.00100000000384171
23,15,0.0682937298778628,0.00200000000040745
23,16,0.0681746007596288,0.00200000000040745
23,17,0.0683298365487736,0.00200000000040745
23,18,0.0680756828879401,0.000999999996565748
23,19,0.0523803138374641,0.000999999996565748
23,20,0.0681579938577396,0.00200000000040745
23,21,0.068344828170811,0.00200000000040745
23,22,0.0676056105506337,0.00899999999819556
23,23,0.0681487385000959,0.00200000000040745
23,24,0.0679794499346778,0.00100000000384171
23,25,0.0680687496026006,0.00100000000384171
23,26,0.0522399175530882,0.00200000000040745
23,27,0.068318506510987,0.00200000000040745
23,28,0.0682584360282885,0.0019999999931315
23,29,0.0682826886885154,0.00100000000384171
23,30,0.0680871904715592,0.00200000000040745
24,1,0.072704733488263,0.00200000000040745
24,2,0.0538564212927029,0.00200000000040745
24,3,0.0721086293273612,0.000999999996565748
24,4,0.0728827991465593,0.00200000000040745
24,5,0.0734791106239532,0.00200000000040745
24,6,0.0733974797309578,0.00200000000040745
24,7,0.0729927465920529,0.00100000000384171
24,8,0.0518853267994856,0.00200000000040745
24,9,0.0740422052902667,0.0019999999931315
24,10,0.0520668482264476,0.00200000000040745
24,11,0.0729329529076303,0.00100000000384171
24,12,0.0514827066400776,0.00200000000040745
24,13,0.0734328673644708,0.00200000000040745
24,14,0.0739478949070152,0.000999999996565748
24,15,0.0733679315317493,0.000999999996565748
24,16,0.0732465501644508,0.00200000000040745
24,17,0.0734047175781766,0.00200000000040745
24,18,0.0731457495462776,0.00100000000384171
24,19,0.0519529056940003,0.0019999999931315
24,20,0.0732296279782497,0.00200000000040745
24,21,0.0734199908364701,0.00200000000040745
24,22,0.0726665708977945,0.00100000000384171
24,23,0.0732201967661978,0.00200000000040745
24,24,0.0730476738795726,0.00200000000040745
24,25,0.0731386838651317,0.00200000000040745
24,26,0.051499884828451,0.000999999996565748
24,27,0.0733931745192154,0.00200000000040745
24,28,0.0733319721401297,0.00200000000040745
24,29,0.0733566822922158,0.00200000000040745
24,30,0.0731574767499608,0.000999999996565748
25,1,0.0667800411287054,0.00200000000040745
25,2,0.0527305289965292,0.00200000000040745
25,3,0.0661791938032901,0.00200000000040745
25,4,0.0669595421415488,0.00100000000384171
25,5,0.0675607179389595,0.00200000000040745
25,6,0.0674784161114663,0.00200000000040745
25,7,0.0670703799047493,0.000999999996565748
25,8,0.0487126989410247,0.00200000000040745
25,9,0.0681284816270042,0.00200000000040745
25,10,0.0492133532928146,0.00200000000040745
25,11,0.067010101652045,0.000999999996565748
25,12,0.0486403400036707,0.00200000000040745
25,13,0.0675140944098136,0.00200000000040745
25,14,0.0680333844218908,0.00100000000384171
25,15,0.0674486254358058,0.00100000000384171
25,16,0.06732625016523,0.00200000000040745
25,17,0.0674857133846622,0.00200000000040745
25,18,0.0672246268521556,0.000999999996565748
25,19,0.0487346606058897,0.00200000000040745
25,20,0.0673091896951897,0.00200000000040745
25,21,0.0675011120834938,0.00200000000040745
25,22,0.0667415719910443,0.000999999996565748
25,23,0.0672996814435813,0.00200000000040745
25,24,0.0671257531125194,0.00200000000040745
25,25,0.0672175035963201,0.00100000000384171
25,26,0.0484874667411224,0.00200000000040745
25,27,0.0674740755578243,0.00200000000040745
25,28,0.0674123712341394,0.00200000000040745
25,29,0.0674372839375087,0.000999999996565748
25,30,0.0672364496418473,0.00200000000040745
26,1,0.0714955198241606,0.00200000000040745
26,2,0.0574935845999138,0.000999999996565748
26,3,0.0709365608708608,0.00200000000040745
26,4,0.0716626398032335,0.00200000000040745
26,5,0.0722227871091624,0.00100000000384171
26,6,0.0721460627024364,0.00200000000040745
26,7,0.0717658627507031,0.00200000000040745
26,8,0.0541578412452701,0.000999999996565748
26,9,0.0727524103178838,0.000999999996565748
26,10,0.0545478383790555,0.00200000000040745
26,11,0.0717097229057792,0.000999999996565748
26,12,0.054046775743196,0.000999999996565748
26,13,0.0721793216329251,0.00200000000040745
26,14,0.0726636608440672,0.00200000000040745
26,15,0.0721182939419612,0.00100000000384171
26,16,0.0720042415109523,0.00200000000040745
26,17,0.0721528649528861,0.00200000000040745
26,18,0.0719095507023744,0.000999999996565748
26,19,0.0541842631034014,0.00200000000040745
26,20,0.0719883435314722,0.00200000000040745
26,21,0.0721672193759783,0.00100000000384171
26,22,0.0714597119853613,0.0019999999931315
26,23,0.0719794834001225,0.00200000000040745
26,24,0.0718174402831771,0.00100000000384171
26,25,0.0719029140959257,0.00200000000040745
26,26,0.0539374281266816,0.00200000000040745
26,27,0.0721420166439006,0.000999999996565748
26,28,0.0720845025411307,0.00200000000040745
26,29,0.0721077226282893,0.00200000000040745
26,30,0.0719205659858169,0.00100000000384171
27,1,0.0649966788231792,0.00899999999819556
27,2,0.0555223991722982,0.00200000000040745
27,3,0.0644215232721521,0.00200000000040745
27,4,0.0651686261584637,0.000999999996565748
27,5,0.0657448998809533,0.00200000000040745
27,6,0.0656659716258812,0.00200000000040745
27,7,0.0652748271430503,0.00200000000040745
27,8,0.0502337620274157,0.00100000000384171
27,9,0.0662896910065014,0.0019999999931315
27,10,0.0509403794409328,0.00200000000040745
27,11,0.0652170679792222,0.00100000000384171
27,12,0.0504298079074797,0.00100000000384171
27,13,0.065700186092207,0.00200000000040745
27,14,0.0661984054155897,0.00200000000040745
27,15,0.0656374048306307,0.000999999996565748
27,16,0.0655200724877666,0.00200000000040745
27,17,0.0656729693311047,0.00200000000040745
27,18,0.0654226558936288,0.00100000000384171
27,19,0.0502175417283708,0.000999999996565748
27,20,0.065503717035024,0.00200000000040745
27,21,0.0656877361701658,0.00200000000040745
27,22,0.0649598357246079,0.00100000000384171
27,23,0.065494601918823,0.00200000000040745
27,24,0.0653278916665169,0.00200000000040745
27,25,0.0654158281544569,0.000999999996565748
27,26,0.0501567516875094,0.00200000000040745
27,27,0.0656618093025232,0.00200000000040745
27,28,0.0656026420282685,0.00200000000040745
27,29,0.0656265296569034,0.00100000000384171
27,30,0.0654339883886599,0.0019999999931315
28,1,0.0699838155019363,0.00200000000040745
28,2,0.0539276048298778,0.00100000000384171
28,3,0.0693784756219895,0.00100000000384171
28,4,0.0701646195062765,0.00200000000040745
28,5,0.070770032980322,0.00200000000040745
28,6,0.0706871622765918,0.000999999996565748
28,7,0.0702762530641689,0.00200000000040745
28,8,0.0508813525241415,0.00200000000040745
28,9,0.0713416267658539,0.00200000000040745
28,10,0.051245221372648,0.000999999996565748
28,11,0.0702155428502784,0.000999999996565748
28,12,0.0506482245712424,0.00200000000040745
28,13,0.070723087618211,0.00200000000040745
28,14,0.0712458993566304,0.00100000000384171
28,15,0.0706571648162861,0.00100000000384171
28,16,0.0705339352290065,0.00200000000040745
28,17,0.0706945101314139,0.00200000000040745
28,18,0.0704315964654317,0.000999999996565748
28,19,0.05092517396355,0.000999999996565748
28,20,0.0705167550315822,0.00200000000040745
28,21,0.0707100154765061,0.00200000000040745
28,22,0.0699450648114491,0.000999999996565748
28,23,0.070507179985966,0.000999999996565748
28,24,0.0703320213561905,0.00200000000040745
28,25,0.0704244228546359,0.00200000000040745
28,26,0.0505730985893232,0.00100000000384171
28,27,0.0706827916228907,0.00100000000384171
28,28,0.0706206583391333,0.00200000000040745
28,29,0.0706457444719151,0.00200000000040745
28,30,0.0704435027719077,0.000999999996565748
29,1,0.0607883357386843,0.00200000000040745
29,2,0.0553401630739606,0.00200000000040745
29,3,0.0602353277621801,0.00200000000040745
29,4,0.060953801181971,0.00200000000040745
29,5,0.0615088028255145,0.000999999996565748
29,6,0.0614327476470951,0.00200000000040745
29,7,0.0610560300346859,0.00200000000040745
29,8,0.0485627063863633,0.00200000000040745
29,9,0.0620341028463542,0.00200000000040745
29,10,0.0494887960251531,0.000999999996565748
29,11,0.0610004282307171,0.00200000000040745
29,12,0.0490457320327786,0.00200000000040745
29,13,0.0614657151151037,0.00200000000040745
29,14,0.0619460423475713,0.00200000000040745
29,15,0.061405223838433,0.00100000000384171
29,16,0.0612921928650429,0.00200000000040745
29,17,0.0614394901165388,0.00200000000040745
29,18,0.0611983690712239,0.00200000000040745
29,19,0.0485065152402933,0.00200000000040745
29,20,0.0612764392446517,0.000999999996565748
29,21,0.0614537186738636,0.00200000000040745
29,22,0.0607528897370041,0.00200000000040745
29,23,0.0612676597771893,0.00200000000040745
29,24,0.0611071187219784,0.00200000000040745
29,25,0.0611917938813454,0.000999999996565748
29,26,0.0486430414590766,0.00200000000040745
29,27,0.0614287371885034,0.00200000000040745
29,28,0.0613717324890663,0.00200000000040745
29,29,0.0613947461598144,0.00200000000040745
29,30,0.0612092826053871,0.000999999996565748
30,1,0.0589487147160691,0.00200000000040745
30,2,0.0514638388762343,0.00200000000040745
30,3,0.0583878155505052,0.00100000000384171
30,4,0.0591165238783499,0.00200000000040745
30,5,0.0596793281961878,0.00200000000040745
30,6,0.0596022091089031,0.000999999996565748
30,7,0.05922019673221,0.00200000000040745
30,8,0.0446944838817682,0.00200000000040745
30,9,0.0602119301850576,0.00899999999819556
30,10,0.0455817976265467,0.00100000000384171
30,11,0.0591638099225237,0.00100000000384171
30,12,0.0451415838628919,0.00200000000040745
30,13,0.0596356379552474,0.000999999996565748
30,14,0.060122651232105,0.000999999996565748
30,15,0.059574299861719,0.00200000000040745
30,16,0.0594596836945573,0.00200000000040745
30,17,0.0596090459648344,0.000999999996565748
30,18,0.0593645412322991,0.00200000000040745
30,19,0.0446449254458872,0.00200000000040745
30,20,0.059443708841468,0.00100000000384171
30,21,0.0596234736611778,0.00200000000040745
30,22,0.0589127655998509,0.000999999996565748
30,23,0.0594348060498114,0.000999999996565748
30,24,0.0592720059087328,0.00200000000040745
30,25,0.0593578735331328,0.00100000000384171
30,26,0.0447558542080818,0.00100000000384171
30,27,0.0595981425023806,0.0019999999931315
30,28,0.0595403392060025,0.00100000000384171
30,29,0.0595636753972057,0.00100000000384171
30,30,0.0593756082858853,0.00200000000040745
