STARTED
Sleeping for 0 sec, 0 nsec


Line Numbers = 216

1. Sleeping for 0 sec, 61000 nsec
2. Sleeping for 0 sec, 30000 nsec
3. Sleeping for 0 sec, 31000 nsec
5. Sleeping for 0 sec, 30000 nsec
6. Sleeping for 0 sec, 6745000 nsec
7. Sleeping for 0 sec, 31000 nsec
8. Sleeping for 0 sec, 30000 nsec
10. Sleeping for 0 sec, 64764000 nsec
11. Sleeping for 0 sec, 31000 nsec
12. Sleeping for 5 sec, 339481928 nsec
13. Sleeping for 0 sec, 61000 nsec
14. Sleeping for 0 sec, 31000 nsec
16. Sleeping for 0 sec, 30000 nsec
18. Sleeping for 0 sec, 7051000 nsec
19. Sleeping for 0 sec, 61000 nsec
21. Sleeping for 0 sec, 30000 nsec
22. Sleeping for 0 sec, 47917000 nsec
23. Sleeping for 0 sec, 31000 nsec
24. Sleeping for 7 sec, 492789313 nsec
25. Sleeping for 0 sec, 31000 nsec
27. Sleeping for 0 sec, 30000 nsec
29. Sleeping for 0 sec, 10041000 nsec
30. Sleeping for 0 sec, 31000 nsec
33. Sleeping for 0 sec, 70838000 nsec
34. Sleeping for 0 sec, 30000 nsec
35. Sleeping for 5 sec, 420240803 nsec
36. Sleeping for 0 sec, 61000 nsec
37. Sleeping for 0 sec, 31000 nsec
38. Sleeping for 0 sec, 30000 nsec
40. Sleeping for 0 sec, 9950000 nsec
42. Sleeping for 0 sec, 31000 nsec
43. Sleeping for 0 sec, 101541000 nsec
44. Sleeping for 0 sec, 30000 nsec
45. Sleeping for 10 sec, 534381107 nsec
46. Sleeping for 0 sec, 31000 nsec
47. Sleeping for 0 sec, 30000 nsec
50. Sleeping for 0 sec, 10042000 nsec
51. Sleeping for 0 sec, 30000 nsec
53. Sleeping for 0 sec, 81367000 nsec
54. Sleeping for 0 sec, 31000 nsec
55. Sleeping for 2 sec, 929018545 nsec
56. Sleeping for 0 sec, 31000 nsec
58. Sleeping for 0 sec, 30000 nsec
60. Sleeping for 0 sec, 10072000 nsec
61. Sleeping for 0 sec, 31000 nsec
63. Sleeping for 0 sec, 60583000 nsec
64. Sleeping for 0 sec, 30000 nsec
65. Sleeping for 8 sec, 308141710 nsec
66. Sleeping for 0 sec, 31000 nsec
68. Sleeping for 0 sec, 30000 nsec
70. Sleeping for 0 sec, 10041000 nsec
73. Sleeping for 0 sec, 91226000 nsec
74. Sleeping for 0 sec, 30000 nsec
75. Sleeping for 9 sec, 981548189 nsec
76. Sleeping for 0 sec, 31000 nsec
79. Sleeping for 0 sec, 30000 nsec
80. Sleeping for 0 sec, 10102000 nsec
82. Sleeping for 0 sec, 31000 nsec
84. Sleeping for 0 sec, 81001000 nsec
85. Sleeping for 0 sec, 31000 nsec
86. Sleeping for 3 sec, 521023929 nsec
87. Sleeping for 0 sec, 31000 nsec
88. Sleeping for 0 sec, 30000 nsec
91. Sleeping for 0 sec, 10072000 nsec
92. Sleeping for 0 sec, 31000 nsec
95. Sleeping for 0 sec, 61315000 nsec
96. Sleeping for 0 sec, 31000 nsec
98. Sleeping for 0 sec, 40073000 nsec
99. Sleeping for 0 sec, 30000 nsec
100. Sleeping for 10 sec, 146314363 nsec
101. Sleeping for 0 sec, 31000 nsec
104. Sleeping for 0 sec, 30000 nsec
105. Sleeping for 0 sec, 101298000 nsec
106. Sleeping for 0 sec, 30000 nsec
107. Sleeping for 7 sec, 182820035 nsec
108. Sleeping for 0 sec, 30000 nsec
110. Sleeping for 0 sec, 31000 nsec
112. Sleeping for 0 sec, 10133000 nsec
115. Sleeping for 0 sec, 30000 nsec
116. Sleeping for 0 sec, 91226000 nsec
118. Sleeping for 5 sec, 277639317 nsec
119. Sleeping for 0 sec, 30000 nsec
122. Sleeping for 0 sec, 31000 nsec
123. Sleeping for 0 sec, 10041000 nsec
126. Sleeping for 0 sec, 31000 nsec
127. Sleeping for 0 sec, 101480000 nsec
128. Sleeping for 0 sec, 30000 nsec
129. Sleeping for 2 sec, 369387310 nsec
130. Sleeping for 0 sec, 30000 nsec
134. Sleeping for 0 sec, 31000 nsec
135. Sleeping for 0 sec, 10041000 nsec
137. Sleeping for 0 sec, 30000 nsec
139. Sleeping for 0 sec, 91226000 nsec
141. Sleeping for 3 sec, 901238588 nsec
142. Sleeping for 0 sec, 31000 nsec
143. Sleeping for 0 sec, 31000 nsec
147. Sleeping for 0 sec, 10041000 nsec
148. Sleeping for 0 sec, 30000 nsec
150. Sleeping for 0 sec, 51122000 nsec
151. Sleeping for 0 sec, 30000 nsec
153. Sleeping for 0 sec, 10133000 nsec
155. Sleeping for 0 sec, 31000 nsec
156. Sleeping for 0 sec, 10132000 nsec
158. Sleeping for 0 sec, 31000 nsec
159. Sleeping for 0 sec, 9614000 nsec
160. Sleeping for 0 sec, 30000 nsec
161. Sleeping for 8 sec, 329738083 nsec
162. Sleeping for 0 sec, 30000 nsec
164. Sleeping for 0 sec, 31000 nsec
166. Sleeping for 0 sec, 10133000 nsec
169. Sleeping for 0 sec, 30000 nsec
170. Sleeping for 0 sec, 10072000 nsec
171. Sleeping for 0 sec, 31000 nsec
172. Sleeping for 0 sec, 10254000 nsec
173. Sleeping for 0 sec, 31000 nsec
174. Sleeping for 0 sec, 10194000 nsec
176. Sleeping for 0 sec, 30000 nsec
178. Sleeping for 0 sec, 10163000 nsec
180. Sleeping for 0 sec, 31000 nsec
181. Sleeping for 0 sec, 10224000 nsec
183. Sleeping for 0 sec, 31000 nsec
185. Sleeping for 0 sec, 10133000 nsec
186. Sleeping for 0 sec, 30000 nsec
188. Sleeping for 0 sec, 10163000 nsec
189. Sleeping for 0 sec, 31000 nsec
191. Sleeping for 0 sec, 10194000 nsec
192. Sleeping for 0 sec, 30000 nsec
195. Sleeping for 0 sec, 10194000 nsec
196. Sleeping for 0 sec, 31000 nsec
198. Sleeping for 0 sec, 10193000 nsec
199. Sleeping for 0 sec, 31000 nsec
201. Sleeping for 0 sec, 10133000 nsec
202. Sleeping for 0 sec, 30000 nsec
205. Sleeping for 0 sec, 10163000 nsec
206. Sleeping for 0 sec, 31000 nsec
209. Sleeping for 0 sec, 10102000 nsec
210. Sleeping for 0 sec, 31000 nsec
212. Sleeping for 0 sec, 30000 nsec
213. Sleeping for 0 sec, 9584000 nsec
215. Sleeping for 6 sec, 357069295 nsec
