STARTED
Sleeping for 0 sec, 0 nsec


Line Numbers = 2219

1. Sleeping for 0 sec, 61000 nsec
3. Sleeping for 0 sec, 31000 nsec
6. Sleeping for 0 sec, 50602000 nsec
7. Sleeping for 0 sec, 31000 nsec
9. Sleeping for 0 sec, 10041000 nsec
10. Sleeping for 0 sec, 31000 nsec
12. Sleeping for 0 sec, 10132000 nsec
13. Sleeping for 0 sec, 31000 nsec
15. Sleeping for 0 sec, 10163000 nsec
16. Sleeping for 0 sec, 31000 nsec
19. Sleeping for 0 sec, 10163000 nsec
23. Sleeping for 0 sec, 10133000 nsec
24. Sleeping for 0 sec, 30000 nsec
27. Sleeping for 0 sec, 9523000 nsec
28. Sleeping for 0 sec, 30000 nsec
29. Sleeping for 3 sec, 999079487 nsec
30. Sleeping for 0 sec, 31000 nsec
31. Sleeping for 0 sec, 30000 nsec
33. Sleeping for 0 sec, 31000 nsec
35. Sleeping for 0 sec, 9766000 nsec
36. Sleeping for 0 sec, 31000 nsec
37. Sleeping for 0 sec, 31000 nsec
38. Sleeping for 0 sec, 39890000 nsec
39. Sleeping for 0 sec, 30000 nsec
40. Sleeping for 4 sec, 489377860 nsec
41. Sleeping for 0 sec, 61000 nsec
44. Sleeping for 0 sec, 30000 nsec
46. Sleeping for 0 sec, 10957000 nsec
47. Sleeping for 0 sec, 30000 nsec
50. Sleeping for 0 sec, 49657000 nsec
51. Sleeping for 0 sec, 31000 nsec
53. Sleeping for 0 sec, 9491000 nsec
54. Sleeping for 0 sec, 31000 nsec
55. Sleeping for 2 sec, 163647287 nsec
56. Sleeping for 0 sec, 31000 nsec
59. Sleeping for 0 sec, 30000 nsec
60. Sleeping for 0 sec, 70502000 nsec
61. Sleeping for 0 sec, 31000 nsec
62. Sleeping for 1 sec, 946531129 nsec
63. Sleeping for 0 sec, 31000 nsec
67. Sleeping for 0 sec, 10041000 nsec
70. Sleeping for 0 sec, 40165000 nsec
71. Sleeping for 0 sec, 30000 nsec
72. Sleeping for 3 sec, 208084514 nsec
73. Sleeping for 0 sec, 30000 nsec
74. Sleeping for 0 sec, 31000 nsec
78. Sleeping for 0 sec, 10072000 nsec
79. Sleeping for 0 sec, 30000 nsec
81. Sleeping for 0 sec, 50298000 nsec
83. Sleeping for 1 sec, 749646329 nsec
84. Sleeping for 0 sec, 30000 nsec
88. Sleeping for 0 sec, 10133000 nsec
89. Sleeping for 0 sec, 31000 nsec
92. Sleeping for 0 sec, 70624000 nsec
93. Sleeping for 0 sec, 30000 nsec
94. Sleeping for 0 sec, 855314684 nsec
95. Sleeping for 0 sec, 31000 nsec
99. Sleeping for 0 sec, 10133000 nsec
101. Sleeping for 0 sec, 30000 nsec
102. Sleeping for 0 sec, 80787000 nsec
103. Sleeping for 0 sec, 31000 nsec
104. Sleeping for 0 sec, 448775816 nsec
105. Sleeping for 0 sec, 62000 nsec
106. Sleeping for 0 sec, 30000 nsec
107. Sleeping for 0 sec, 31000 nsec
110. Sleeping for 0 sec, 10071000 nsec
111. Sleeping for 0 sec, 31000 nsec
114. Sleeping for 0 sec, 20357000 nsec
115. Sleeping for 0 sec, 30000 nsec
117. Sleeping for 0 sec, 10194000 nsec
120. Sleeping for 0 sec, 10072000 nsec
121. Sleeping for 0 sec, 30000 nsec
122. Sleeping for 0 sec, 10133000 nsec
123. Sleeping for 0 sec, 31000 nsec
124. Sleeping for 0 sec, 10224000 nsec
125. Sleeping for 0 sec, 31000 nsec
127. Sleeping for 0 sec, 10071000 nsec
128. Sleeping for 0 sec, 31000 nsec
130. Sleeping for 0 sec, 19716000 nsec
132. Sleeping for 0 sec, 593030210 nsec
133. Sleeping for 0 sec, 31000 nsec
135. Sleeping for 0 sec, 30000 nsec
137. Sleeping for 0 sec, 10102000 nsec
138. Sleeping for 0 sec, 31000 nsec
140. Sleeping for 0 sec, 60796000 nsec
141. Sleeping for 0 sec, 31000 nsec
142. Sleeping for 1 sec, 649482131 nsec
143. Sleeping for 0 sec, 30000 nsec
146. Sleeping for 0 sec, 31000 nsec
148. Sleeping for 0 sec, 19655000 nsec
149. Sleeping for 0 sec, 31000 nsec
150. Sleeping for 3 sec, 879704978 nsec
151. Sleeping for 0 sec, 30000 nsec
152. Sleeping for 0 sec, 31000 nsec
154. Sleeping for 0 sec, 30000 nsec
156. Sleeping for 0 sec, 9828000 nsec
157. Sleeping for 0 sec, 30000 nsec
160. Sleeping for 0 sec, 19564000 nsec
162. Sleeping for 1 sec, 478788694 nsec
163. Sleeping for 0 sec, 31000 nsec
166. Sleeping for 0 sec, 30000 nsec
168. Sleeping for 0 sec, 10102000 nsec
171. Sleeping for 0 sec, 50267000 nsec
173. Sleeping for 2 sec, 942757640 nsec
174. Sleeping for 0 sec, 30000 nsec
178. Sleeping for 0 sec, 10041000 nsec
179. Sleeping for 0 sec, 31000 nsec
181. Sleeping for 0 sec, 50298000 nsec
182. Sleeping for 0 sec, 30000 nsec
183. Sleeping for 2 sec, 76780105 nsec
184. Sleeping for 0 sec, 61000 nsec
189. Sleeping for 0 sec, 10072000 nsec
190. Sleeping for 0 sec, 31000 nsec
192. Sleeping for 0 sec, 50267000 nsec
194. Sleeping for 4 sec, 959312418 nsec
195. Sleeping for 0 sec, 61000 nsec
197. Sleeping for 0 sec, 30000 nsec
200. Sleeping for 0 sec, 9858000 nsec
201. Sleeping for 0 sec, 31000 nsec
202. Sleeping for 0 sec, 30000 nsec
203. Sleeping for 0 sec, 39982000 nsec
204. Sleeping for 0 sec, 31000 nsec
205. Sleeping for 2 sec, 117714420 nsec
207. Sleeping for 0 sec, 30000 nsec
211. Sleeping for 0 sec, 10072000 nsec
212. Sleeping for 0 sec, 31000 nsec
214. Sleeping for 0 sec, 90981000 nsec
215. Sleeping for 0 sec, 30000 nsec
216. Sleeping for 4 sec, 254256370 nsec
217. Sleeping for 0 sec, 153000 nsec
218. Sleeping for 0 sec, 61000 nsec
220. Sleeping for 0 sec, 31000 nsec
221. Sleeping for 0 sec, 9461000 nsec
222. Sleeping for 0 sec, 30000 nsec
225. Sleeping for 0 sec, 19717000 nsec
226. Sleeping for 0 sec, 30000 nsec
227. Sleeping for 1 sec, 553817814 nsec
228. Sleeping for 0 sec, 31000 nsec
232. Sleeping for 0 sec, 30000 nsec
233. Sleeping for 0 sec, 9614000 nsec
236. Sleeping for 0 sec, 31000 nsec
237. Sleeping for 0 sec, 50877000 nsec
238. Sleeping for 0 sec, 31000 nsec
239. Sleeping for 0 sec, 875105768 nsec
240. Sleeping for 0 sec, 30000 nsec
244. Sleeping for 0 sec, 10072000 nsec
246. Sleeping for 0 sec, 30000 nsec
249. Sleeping for 0 sec, 19747000 nsec
250. Sleeping for 0 sec, 31000 nsec
251. Sleeping for 0 sec, 740446483 nsec
252. Sleeping for 0 sec, 30000 nsec
255. Sleeping for 0 sec, 31000 nsec
257. Sleeping for 0 sec, 10102000 nsec
258. Sleeping for 0 sec, 30000 nsec
260. Sleeping for 0 sec, 20327000 nsec
261. Sleeping for 0 sec, 30000 nsec
263. Sleeping for 0 sec, 10683000 nsec
265. Sleeping for 0 sec, 30000 nsec
266. Sleeping for 0 sec, 29391000 nsec
267. Sleeping for 0 sec, 31000 nsec
268. Sleeping for 1 sec, 253245790 nsec
269. Sleeping for 0 sec, 31000 nsec
273. Sleeping for 0 sec, 30000 nsec
274. Sleeping for 0 sec, 10072000 nsec
275. Sleeping for 0 sec, 30000 nsec
276. Sleeping for 0 sec, 30551000 nsec
278. Sleeping for 0 sec, 31000 nsec
279. Sleeping for 0 sec, 10194000 nsec
280. Sleeping for 0 sec, 30000 nsec
282. Sleeping for 0 sec, 19594000 nsec
283. Sleeping for 0 sec, 31000 nsec
284. Sleeping for 1 sec, 475977571 nsec
285. Sleeping for 0 sec, 31000 nsec
287. Sleeping for 0 sec, 30000 nsec
289. Sleeping for 0 sec, 10255000 nsec
292. Sleeping for 0 sec, 33206000 nsec
293. Sleeping for 0 sec, 31000 nsec
294. Sleeping for 1 sec, 12109233 nsec
295. Sleeping for 0 sec, 30000 nsec
297. Sleeping for 0 sec, 31000 nsec
300. Sleeping for 0 sec, 10071000 nsec
301. Sleeping for 0 sec, 31000 nsec
304. Sleeping for 0 sec, 20357000 nsec
305. Sleeping for 0 sec, 30000 nsec
308. Sleeping for 0 sec, 10103000 nsec
309. Sleeping for 0 sec, 30000 nsec
311. Sleeping for 0 sec, 10194000 nsec
312. Sleeping for 0 sec, 31000 nsec
314. Sleeping for 0 sec, 10102000 nsec
315. Sleeping for 0 sec, 30000 nsec
317. Sleeping for 0 sec, 9553000 nsec
318. Sleeping for 0 sec, 31000 nsec
319. Sleeping for 1 sec, 4141473 nsec
320. Sleeping for 0 sec, 30000 nsec
323. Sleeping for 0 sec, 31000 nsec
325. Sleeping for 0 sec, 10102000 nsec
326. Sleeping for 0 sec, 31000 nsec
327. Sleeping for 0 sec, 20326000 nsec
329. Sleeping for 0 sec, 31000 nsec
330. Sleeping for 0 sec, 10102000 nsec
331. Sleeping for 0 sec, 30000 nsec
333. Sleeping for 0 sec, 9920000 nsec
335. Sleeping for 1 sec, 406542325 nsec
336. Sleeping for 0 sec, 30000 nsec
340. Sleeping for 0 sec, 31000 nsec
341. Sleeping for 0 sec, 10071000 nsec
342. Sleeping for 0 sec, 31000 nsec
343. Sleeping for 0 sec, 40745000 nsec
344. Sleeping for 0 sec, 30000 nsec
346. Sleeping for 0 sec, 10072000 nsec
347. Sleeping for 0 sec, 30000 nsec
349. Sleeping for 0 sec, 10133000 nsec
350. Sleeping for 0 sec, 31000 nsec
351. Sleeping for 0 sec, 10254000 nsec
352. Sleeping for 0 sec, 31000 nsec
354. Sleeping for 0 sec, 10102000 nsec
355. Sleeping for 0 sec, 31000 nsec
357. Sleeping for 0 sec, 10071000 nsec
358. Sleeping for 0 sec, 31000 nsec
360. Sleeping for 0 sec, 10224000 nsec
361. Sleeping for 0 sec, 31000 nsec
364. Sleeping for 0 sec, 10102000 nsec
367. Sleeping for 0 sec, 10163000 nsec
368. Sleeping for 0 sec, 31000 nsec
370. Sleeping for 0 sec, 10163000 nsec
372. Sleeping for 0 sec, 31000 nsec
373. Sleeping for 0 sec, 10132000 nsec
374. Sleeping for 0 sec, 31000 nsec
376. Sleeping for 0 sec, 10224000 nsec
377. Sleeping for 0 sec, 31000 nsec
379. Sleeping for 0 sec, 10194000 nsec
381. Sleeping for 0 sec, 30000 nsec
382. Sleeping for 0 sec, 10041000 nsec
384. Sleeping for 0 sec, 31000 nsec
386. Sleeping for 0 sec, 10163000 nsec
389. Sleeping for 0 sec, 10163000 nsec
390. Sleeping for 0 sec, 31000 nsec
393. Sleeping for 0 sec, 10255000 nsec
394. Sleeping for 0 sec, 30000 nsec
396. Sleeping for 0 sec, 31000 nsec
397. Sleeping for 0 sec, 10010000 nsec
399. Sleeping for 0 sec, 10164000 nsec
401. Sleeping for 0 sec, 10194000 nsec
403. Sleeping for 0 sec, 10163000 nsec
404. Sleeping for 0 sec, 30000 nsec
405. Sleeping for 0 sec, 10225000 nsec
406. Sleeping for 0 sec, 30000 nsec
407. Sleeping for 0 sec, 10072000 nsec
408. Sleeping for 0 sec, 30000 nsec
409. Sleeping for 0 sec, 10133000 nsec
410. Sleeping for 0 sec, 31000 nsec
411. Sleeping for 0 sec, 10163000 nsec
412. Sleeping for 0 sec, 31000 nsec
413. Sleeping for 0 sec, 10163000 nsec
414. Sleeping for 0 sec, 30000 nsec
415. Sleeping for 0 sec, 10225000 nsec
416. Sleeping for 0 sec, 30000 nsec
417. Sleeping for 0 sec, 10041000 nsec
418. Sleeping for 0 sec, 31000 nsec
419. Sleeping for 0 sec, 10163000 nsec
421. Sleeping for 0 sec, 10194000 nsec
423. Sleeping for 0 sec, 10224000 nsec
424. Sleeping for 0 sec, 31000 nsec
426. Sleeping for 0 sec, 10224000 nsec
427. Sleeping for 0 sec, 31000 nsec
428. Sleeping for 0 sec, 10071000 nsec
430. Sleeping for 0 sec, 31000 nsec
432. Sleeping for 0 sec, 10163000 nsec
435. Sleeping for 0 sec, 31000 nsec
436. Sleeping for 0 sec, 10132000 nsec
439. Sleeping for 0 sec, 10164000 nsec
440. Sleeping for 0 sec, 30000 nsec
441. Sleeping for 0 sec, 10225000 nsec
443. Sleeping for 0 sec, 10102000 nsec
444. Sleeping for 0 sec, 30000 nsec
445. Sleeping for 0 sec, 10133000 nsec
446. Sleeping for 0 sec, 31000 nsec
447. Sleeping for 0 sec, 10163000 nsec
448. Sleeping for 0 sec, 30000 nsec
449. Sleeping for 0 sec, 10164000 nsec
451. Sleeping for 0 sec, 10224000 nsec
452. Sleeping for 0 sec, 31000 nsec
453. Sleeping for 0 sec, 10010000 nsec
454. Sleeping for 0 sec, 31000 nsec
455. Sleeping for 0 sec, 10163000 nsec
456. Sleeping for 0 sec, 31000 nsec
457. Sleeping for 0 sec, 10132000 nsec
458. Sleeping for 0 sec, 31000 nsec
459. Sleeping for 0 sec, 10163000 nsec
461. Sleeping for 0 sec, 10194000 nsec
462. Sleeping for 0 sec, 31000 nsec
463. Sleeping for 0 sec, 10132000 nsec
465. Sleeping for 0 sec, 10194000 nsec
467. Sleeping for 0 sec, 10163000 nsec
469. Sleeping for 0 sec, 10225000 nsec
470. Sleeping for 0 sec, 30000 nsec
471. Sleeping for 0 sec, 10225000 nsec
472. Sleeping for 0 sec, 30000 nsec
473. Sleeping for 0 sec, 10072000 nsec
474. Sleeping for 0 sec, 30000 nsec
475. Sleeping for 0 sec, 10164000 nsec
477. Sleeping for 0 sec, 10163000 nsec
479. Sleeping for 0 sec, 10194000 nsec
480. Sleeping for 0 sec, 30000 nsec
481. Sleeping for 0 sec, 11506000 nsec
482. Sleeping for 0 sec, 31000 nsec
483. Sleeping for 0 sec, 8851000 nsec
484. Sleeping for 0 sec, 30000 nsec
485. Sleeping for 0 sec, 10103000 nsec
486. Sleeping for 0 sec, 30000 nsec
487. Sleeping for 0 sec, 10133000 nsec
488. Sleeping for 0 sec, 30000 nsec
489. Sleeping for 0 sec, 13002000 nsec
490. Sleeping for 0 sec, 31000 nsec
492. Sleeping for 0 sec, 7538000 nsec
493. Sleeping for 0 sec, 31000 nsec
495. Sleeping for 0 sec, 9827000 nsec
498. Sleeping for 0 sec, 9584000 nsec
499. Sleeping for 0 sec, 30000 nsec
500. Sleeping for 0 sec, 801971141 nsec
501. Sleeping for 0 sec, 31000 nsec
503. Sleeping for 0 sec, 30000 nsec
506. Sleeping for 0 sec, 10347000 nsec
508. Sleeping for 0 sec, 30000 nsec
510. Sleeping for 0 sec, 50053000 nsec
511. Sleeping for 0 sec, 31000 nsec
512. Sleeping for 2 sec, 196485395 nsec
513. Sleeping for 0 sec, 61000 nsec
514. Sleeping for 0 sec, 30000 nsec
516. Sleeping for 0 sec, 31000 nsec
517. Sleeping for 0 sec, 10011000 nsec
519. Sleeping for 0 sec, 30000 nsec
522. Sleeping for 0 sec, 50878000 nsec
523. Sleeping for 0 sec, 30000 nsec
526. Sleeping for 0 sec, 9522000 nsec
528. Sleeping for 0 sec, 906051813 nsec
529. Sleeping for 0 sec, 30000 nsec
530. Sleeping for 0 sec, 31000 nsec
534. Sleeping for 0 sec, 9492000 nsec
536. Sleeping for 0 sec, 661220352 nsec
537. Sleeping for 0 sec, 30000 nsec
541. Sleeping for 0 sec, 31000 nsec
542. Sleeping for 0 sec, 10102000 nsec
544. Sleeping for 0 sec, 30000 nsec
545. Sleeping for 0 sec, 60766000 nsec
546. Sleeping for 0 sec, 31000 nsec
547. Sleeping for 1 sec, 451129228 nsec
548. Sleeping for 0 sec, 31000 nsec
552. Sleeping for 0 sec, 10102000 nsec
553. Sleeping for 0 sec, 30000 nsec
554. Sleeping for 0 sec, 31000 nsec
555. Sleeping for 0 sec, 50206000 nsec
556. Sleeping for 0 sec, 30000 nsec
557. Sleeping for 1 sec, 129990993 nsec
558. Sleeping for 0 sec, 31000 nsec
562. Sleeping for 0 sec, 10132000 nsec
564. Sleeping for 0 sec, 31000 nsec
566. Sleeping for 0 sec, 20326000 nsec
567. Sleeping for 0 sec, 31000 nsec
568. Sleeping for 0 sec, 10163000 nsec
571. Sleeping for 0 sec, 10652000 nsec
572. Sleeping for 0 sec, 30000 nsec
574. Sleeping for 0 sec, 8973000 nsec
575. Sleeping for 0 sec, 31000 nsec
576. Sleeping for 4 sec, 100392991 nsec
577. Sleeping for 0 sec, 61000 nsec
580. Sleeping for 0 sec, 31000 nsec
582. Sleeping for 0 sec, 9766000 nsec
584. Sleeping for 0 sec, 31000 nsec
585. Sleeping for 0 sec, 30245000 nsec
587. Sleeping for 3 sec, 135601816 nsec
588. Sleeping for 0 sec, 30000 nsec
589. Sleeping for 0 sec, 31000 nsec
592. Sleeping for 0 sec, 10041000 nsec
593. Sleeping for 0 sec, 30000 nsec
595. Sleeping for 0 sec, 80849000 nsec
596. Sleeping for 0 sec, 30000 nsec
597. Sleeping for 1 sec, 482636663 nsec
598. Sleeping for 0 sec, 31000 nsec
603. Sleeping for 0 sec, 10041000 nsec
604. Sleeping for 0 sec, 31000 nsec
606. Sleeping for 0 sec, 30000 nsec
607. Sleeping for 0 sec, 40592000 nsec
609. Sleeping for 1 sec, 221047301 nsec
610. Sleeping for 0 sec, 30000 nsec
612. Sleeping for 0 sec, 31000 nsec
614. Sleeping for 0 sec, 10041000 nsec
615. Sleeping for 0 sec, 30000 nsec
617. Sleeping for 0 sec, 40165000 nsec
618. Sleeping for 0 sec, 31000 nsec
619. Sleeping for 1 sec, 380923592 nsec
620. Sleeping for 0 sec, 30000 nsec
624. Sleeping for 0 sec, 10133000 nsec
627. Sleeping for 0 sec, 50725000 nsec
629. Sleeping for 2 sec, 177329201 nsec
630. Sleeping for 0 sec, 30000 nsec
634. Sleeping for 0 sec, 31000 nsec
635. Sleeping for 0 sec, 10041000 nsec
637. Sleeping for 0 sec, 31000 nsec
638. Sleeping for 0 sec, 20326000 nsec
639. Sleeping for 0 sec, 31000 nsec
642. Sleeping for 0 sec, 10133000 nsec
644. Sleeping for 0 sec, 10193000 nsec
646. Sleeping for 0 sec, 10164000 nsec
650. Sleeping for 0 sec, 10163000 nsec
651. Sleeping for 0 sec, 30000 nsec
653. Sleeping for 0 sec, 10194000 nsec
655. Sleeping for 0 sec, 31000 nsec
656. Sleeping for 0 sec, 10102000 nsec
657. Sleeping for 0 sec, 31000 nsec
659. Sleeping for 0 sec, 10163000 nsec
662. Sleeping for 0 sec, 10163000 nsec
664. Sleeping for 0 sec, 31000 nsec
665. Sleeping for 0 sec, 10346000 nsec
666. Sleeping for 0 sec, 31000 nsec
668. Sleeping for 0 sec, 30000 nsec
669. Sleeping for 0 sec, 9980000 nsec
670. Sleeping for 0 sec, 31000 nsec
672. Sleeping for 0 sec, 10102000 nsec
674. Sleeping for 0 sec, 31000 nsec
675. Sleeping for 0 sec, 10132000 nsec
676. Sleeping for 0 sec, 31000 nsec
679. Sleeping for 0 sec, 10194000 nsec
680. Sleeping for 0 sec, 30000 nsec
681. Sleeping for 0 sec, 10163000 nsec
682. Sleeping for 0 sec, 31000 nsec
684. Sleeping for 0 sec, 10163000 nsec
685. Sleeping for 0 sec, 31000 nsec
687. Sleeping for 0 sec, 10071000 nsec
688. Sleeping for 0 sec, 31000 nsec
689. Sleeping for 0 sec, 10163000 nsec
690. Sleeping for 0 sec, 31000 nsec
691. Sleeping for 0 sec, 10133000 nsec
693. Sleeping for 0 sec, 10163000 nsec
694. Sleeping for 0 sec, 30000 nsec
695. Sleeping for 0 sec, 10255000 nsec
696. Sleeping for 0 sec, 31000 nsec
699. Sleeping for 0 sec, 10071000 nsec
703. Sleeping for 0 sec, 10164000 nsec
704. Sleeping for 0 sec, 30000 nsec
706. Sleeping for 0 sec, 10133000 nsec
708. Sleeping for 0 sec, 10194000 nsec
710. Sleeping for 0 sec, 10285000 nsec
711. Sleeping for 0 sec, 31000 nsec
712. Sleeping for 0 sec, 10041000 nsec
715. Sleeping for 0 sec, 10163000 nsec
716. Sleeping for 0 sec, 31000 nsec
718. Sleeping for 0 sec, 10132000 nsec
719. Sleeping for 0 sec, 31000 nsec
721. Sleeping for 0 sec, 10743000 nsec
722. Sleeping for 0 sec, 31000 nsec
723. Sleeping for 0 sec, 9583000 nsec
724. Sleeping for 0 sec, 31000 nsec
725. Sleeping for 0 sec, 10132000 nsec
727. Sleeping for 0 sec, 31000 nsec
728. Sleeping for 0 sec, 10133000 nsec
729. Sleeping for 0 sec, 30000 nsec
730. Sleeping for 0 sec, 10133000 nsec
731. Sleeping for 0 sec, 30000 nsec
732. Sleeping for 0 sec, 10194000 nsec
733. Sleeping for 0 sec, 31000 nsec
734. Sleeping for 0 sec, 10133000 nsec
735. Sleeping for 0 sec, 30000 nsec
736. Sleeping for 0 sec, 10133000 nsec
737. Sleeping for 0 sec, 30000 nsec
738. Sleeping for 0 sec, 10164000 nsec
740. Sleeping for 0 sec, 10163000 nsec
742. Sleeping for 0 sec, 10255000 nsec
743. Sleeping for 0 sec, 30000 nsec
744. Sleeping for 0 sec, 10103000 nsec
745. Sleeping for 0 sec, 30000 nsec
746. Sleeping for 0 sec, 10102000 nsec
747. Sleeping for 0 sec, 31000 nsec
748. Sleeping for 0 sec, 10163000 nsec
749. Sleeping for 0 sec, 31000 nsec
750. Sleeping for 0 sec, 10132000 nsec
751. Sleeping for 0 sec, 31000 nsec
752. Sleeping for 0 sec, 10346000 nsec
753. Sleeping for 0 sec, 31000 nsec
754. Sleeping for 0 sec, 10011000 nsec
755. Sleeping for 0 sec, 30000 nsec
756. Sleeping for 0 sec, 10102000 nsec
758. Sleeping for 0 sec, 10164000 nsec
759. Sleeping for 0 sec, 30000 nsec
760. Sleeping for 0 sec, 10163000 nsec
761. Sleeping for 0 sec, 31000 nsec
762. Sleeping for 0 sec, 10194000 nsec
763. Sleeping for 0 sec, 30000 nsec
764. Sleeping for 0 sec, 10102000 nsec
766. Sleeping for 0 sec, 10164000 nsec
768. Sleeping for 0 sec, 132397000 nsec
770. Sleeping for 0 sec, 31000 nsec
771. Sleeping for 0 sec, 10041000 nsec
772. Sleeping for 0 sec, 30000 nsec
774. Sleeping for 0 sec, 10164000 nsec
776. Sleeping for 0 sec, 30000 nsec
777. Sleeping for 0 sec, 10133000 nsec
778. Sleeping for 0 sec, 30000 nsec
779. Sleeping for 0 sec, 10164000 nsec
781. Sleeping for 0 sec, 30000 nsec
782. Sleeping for 0 sec, 10164000 nsec
783. Sleeping for 0 sec, 30000 nsec
785. Sleeping for 0 sec, 10133000 nsec
787. Sleeping for 0 sec, 30000 nsec
788. Sleeping for 0 sec, 10225000 nsec
790. Sleeping for 0 sec, 10163000 nsec
793. Sleeping for 0 sec, 10163000 nsec
794. Sleeping for 0 sec, 31000 nsec
796. Sleeping for 0 sec, 10194000 nsec
797. Sleeping for 0 sec, 30000 nsec
798. Sleeping for 0 sec, 31000 nsec
799. Sleeping for 0 sec, 10071000 nsec
800. Sleeping for 0 sec, 31000 nsec
801. Sleeping for 0 sec, 10224000 nsec
802. Sleeping for 0 sec, 31000 nsec
803. Sleeping for 0 sec, 10071000 nsec
805. Sleeping for 0 sec, 10164000 nsec
806. Sleeping for 0 sec, 30000 nsec
807. Sleeping for 0 sec, 10225000 nsec
808. Sleeping for 0 sec, 30000 nsec
809. Sleeping for 0 sec, 10011000 nsec
810. Sleeping for 0 sec, 30000 nsec
811. Sleeping for 0 sec, 10164000 nsec
813. Sleeping for 0 sec, 10224000 nsec
814. Sleeping for 0 sec, 30000 nsec
815. Sleeping for 0 sec, 10713000 nsec
817. Sleeping for 0 sec, 9706000 nsec
819. Sleeping for 0 sec, 10132000 nsec
820. Sleeping for 0 sec, 31000 nsec
821. Sleeping for 0 sec, 10133000 nsec
822. Sleeping for 0 sec, 30000 nsec
823. Sleeping for 0 sec, 10102000 nsec
824. Sleeping for 0 sec, 31000 nsec
825. Sleeping for 0 sec, 11201000 nsec
826. Sleeping for 0 sec, 30000 nsec
828. Sleeping for 0 sec, 9126000 nsec
829. Sleeping for 0 sec, 30000 nsec
830. Sleeping for 0 sec, 10072000 nsec
832. Sleeping for 0 sec, 31000 nsec
833. Sleeping for 0 sec, 10132000 nsec
834. Sleeping for 0 sec, 31000 nsec
836. Sleeping for 0 sec, 10133000 nsec
837. Sleeping for 0 sec, 30000 nsec
838. Sleeping for 0 sec, 12575000 nsec
839. Sleeping for 0 sec, 30000 nsec
840. Sleeping for 0 sec, 7752000 nsec
841. Sleeping for 0 sec, 31000 nsec
843. Sleeping for 0 sec, 10133000 nsec
844. Sleeping for 0 sec, 30000 nsec
845. Sleeping for 0 sec, 10163000 nsec
847. Sleeping for 0 sec, 10164000 nsec
848. Sleeping for 0 sec, 30000 nsec
849. Sleeping for 0 sec, 10164000 nsec
851. Sleeping for 0 sec, 10193000 nsec
852. Sleeping for 0 sec, 31000 nsec
853. Sleeping for 0 sec, 10102000 nsec
854. Sleeping for 0 sec, 31000 nsec
855. Sleeping for 0 sec, 10193000 nsec
857. Sleeping for 0 sec, 10133000 nsec
858. Sleeping for 0 sec, 31000 nsec
860. Sleeping for 0 sec, 10224000 nsec
861. Sleeping for 0 sec, 31000 nsec
862. Sleeping for 0 sec, 10071000 nsec
863. Sleeping for 0 sec, 61000 nsec
864. Sleeping for 0 sec, 10103000 nsec
865. Sleeping for 0 sec, 30000 nsec
867. Sleeping for 0 sec, 10133000 nsec
868. Sleeping for 0 sec, 30000 nsec
870. Sleeping for 0 sec, 9584000 nsec
871. Sleeping for 0 sec, 30000 nsec
872. Sleeping for 1 sec, 746561226 nsec
873. Sleeping for 0 sec, 31000 nsec
878. Sleeping for 0 sec, 10133000 nsec
881. Sleeping for 0 sec, 50633000 nsec
882. Sleeping for 0 sec, 30000 nsec
883. Sleeping for 3 sec, 318032764 nsec
884. Sleeping for 0 sec, 31000 nsec
887. Sleeping for 0 sec, 31000 nsec
889. Sleeping for 0 sec, 10468000 nsec
890. Sleeping for 0 sec, 31000 nsec
893. Sleeping for 0 sec, 19288000 nsec
894. Sleeping for 0 sec, 31000 nsec
895. Sleeping for 2 sec, 347094677 nsec
896. Sleeping for 0 sec, 31000 nsec
900. Sleeping for 0 sec, 30000 nsec
901. Sleeping for 0 sec, 9492000 nsec
902. Sleeping for 0 sec, 30000 nsec
903. Sleeping for 1 sec, 755385162 nsec
904. Sleeping for 0 sec, 31000 nsec
907. Sleeping for 0 sec, 30000 nsec
908. Sleeping for 0 sec, 10072000 nsec
909. Sleeping for 0 sec, 31000 nsec
912. Sleeping for 0 sec, 50267000 nsec
913. Sleeping for 0 sec, 30000 nsec
914. Sleeping for 2 sec, 47299866 nsec
915. Sleeping for 0 sec, 30000 nsec
920. Sleeping for 0 sec, 10103000 nsec
924. Sleeping for 0 sec, 50999000 nsec
925. Sleeping for 0 sec, 31000 nsec
928. Sleeping for 0 sec, 10102000 nsec
929. Sleeping for 0 sec, 31000 nsec
930. Sleeping for 0 sec, 29787000 nsec
931. Sleeping for 0 sec, 31000 nsec
932. Sleeping for 1 sec, 309732782 nsec
933. Sleeping for 0 sec, 31000 nsec
936. Sleeping for 0 sec, 10071000 nsec
937. Sleeping for 0 sec, 31000 nsec
938. Sleeping for 0 sec, 50938000 nsec
939. Sleeping for 0 sec, 31000 nsec
941. Sleeping for 0 sec, 9492000 nsec
943. Sleeping for 0 sec, 939457820 nsec
944. Sleeping for 0 sec, 61000 nsec
945. Sleeping for 0 sec, 61000 nsec
948. Sleeping for 0 sec, 10071000 nsec
952. Sleeping for 0 sec, 40074000 nsec
953. Sleeping for 0 sec, 30000 nsec
954. Sleeping for 1 sec, 431209671 nsec
955. Sleeping for 0 sec, 30000 nsec
959. Sleeping for 0 sec, 31000 nsec
960. Sleeping for 0 sec, 10132000 nsec
961. Sleeping for 0 sec, 31000 nsec
963. Sleeping for 0 sec, 20296000 nsec
966. Sleeping for 0 sec, 10194000 nsec
967. Sleeping for 0 sec, 30000 nsec
969. Sleeping for 0 sec, 9797000 nsec
971. Sleeping for 1 sec, 463420592 nsec
972. Sleeping for 0 sec, 30000 nsec
974. Sleeping for 0 sec, 31000 nsec
977. Sleeping for 0 sec, 10102000 nsec
979. Sleeping for 0 sec, 30000 nsec
980. Sleeping for 0 sec, 30521000 nsec
983. Sleeping for 0 sec, 10224000 nsec
984. Sleeping for 0 sec, 31000 nsec
985. Sleeping for 0 sec, 30000 nsec
986. Sleeping for 0 sec, 10041000 nsec
987. Sleeping for 0 sec, 31000 nsec
989. Sleeping for 0 sec, 9492000 nsec
990. Sleeping for 0 sec, 30000 nsec
991. Sleeping for 1 sec, 359217713 nsec
992. Sleeping for 0 sec, 31000 nsec
993. Sleeping for 0 sec, 30000 nsec
997. Sleeping for 0 sec, 10102000 nsec
998. Sleeping for 0 sec, 31000 nsec
1001. Sleeping for 0 sec, 20052000 nsec
1003. Sleeping for 0 sec, 922033392 nsec
1004. Sleeping for 0 sec, 31000 nsec
1007. Sleeping for 0 sec, 30000 nsec
1009. Sleeping for 0 sec, 10103000 nsec
1010. Sleeping for 0 sec, 30000 nsec
1012. Sleeping for 0 sec, 40653000 nsec
1014. Sleeping for 0 sec, 31000 nsec
1015. Sleeping for 0 sec, 9583000 nsec
1016. Sleeping for 0 sec, 31000 nsec
1017. Sleeping for 1 sec, 91876274 nsec
1018. Sleeping for 0 sec, 61000 nsec
1019. Sleeping for 0 sec, 31000 nsec
1022. Sleeping for 0 sec, 30000 nsec
1023. Sleeping for 0 sec, 10041000 nsec
1026. Sleeping for 0 sec, 31000 nsec
1027. Sleeping for 0 sec, 20387000 nsec
1028. Sleeping for 0 sec, 31000 nsec
1029. Sleeping for 0 sec, 30000 nsec
1030. Sleeping for 0 sec, 30093000 nsec
1032. Sleeping for 3 sec, 736691251 nsec
1033. Sleeping for 0 sec, 61000 nsec
1034. Sleeping for 0 sec, 30000 nsec
1036. Sleeping for 0 sec, 31000 nsec
1038. Sleeping for 0 sec, 10041000 nsec
1039. Sleeping for 0 sec, 31000 nsec
1042. Sleeping for 0 sec, 20265000 nsec
1043. Sleeping for 0 sec, 31000 nsec
1045. Sleeping for 0 sec, 10132000 nsec
1047. Sleeping for 0 sec, 31000 nsec
1048. Sleeping for 0 sec, 19808000 nsec
1050. Sleeping for 1 sec, 133490758 nsec
1051. Sleeping for 0 sec, 31000 nsec
1052. Sleeping for 0 sec, 30000 nsec
1055. Sleeping for 0 sec, 10072000 nsec
1056. Sleeping for 0 sec, 30000 nsec
1059. Sleeping for 0 sec, 10164000 nsec
1061. Sleeping for 0 sec, 30000 nsec
1062. Sleeping for 0 sec, 9553000 nsec
1063. Sleeping for 0 sec, 31000 nsec
1064. Sleeping for 0 sec, 979326478 nsec
1065. Sleeping for 0 sec, 30000 nsec
1067. Sleeping for 0 sec, 31000 nsec
1070. Sleeping for 0 sec, 40043000 nsec
1071. Sleeping for 0 sec, 30000 nsec
1072. Sleeping for 0 sec, 650795530 nsec
1073. Sleeping for 0 sec, 61000 nsec
1074. Sleeping for 0 sec, 31000 nsec
1076. Sleeping for 0 sec, 31000 nsec
1078. Sleeping for 0 sec, 10010000 nsec
1079. Sleeping for 0 sec, 31000 nsec
1080. Sleeping for 2 sec, 171804554 nsec
1081. Sleeping for 0 sec, 31000 nsec
1085. Sleeping for 0 sec, 30000 nsec
1086. Sleeping for 0 sec, 10041000 nsec
1087. Sleeping for 0 sec, 31000 nsec
1090. Sleeping for 0 sec, 40683000 nsec
1091. Sleeping for 0 sec, 31000 nsec
1093. Sleeping for 0 sec, 20113000 nsec
1094. Sleeping for 0 sec, 30000 nsec
1095. Sleeping for 1 sec, 116063636 nsec
1096. Sleeping for 0 sec, 30000 nsec
1100. Sleeping for 0 sec, 31000 nsec
1101. Sleeping for 0 sec, 10071000 nsec
1103. Sleeping for 0 sec, 60522000 nsec
1104. Sleeping for 0 sec, 31000 nsec
1105. Sleeping for 2 sec, 20128177 nsec
1106. Sleeping for 0 sec, 31000 nsec
1108. Sleeping for 0 sec, 30000 nsec
1111. Sleeping for 0 sec, 10072000 nsec
1112. Sleeping for 0 sec, 31000 nsec
1114. Sleeping for 0 sec, 29848000 nsec
1115. Sleeping for 0 sec, 31000 nsec
1116. Sleeping for 0 sec, 632256402 nsec
1117. Sleeping for 0 sec, 30000 nsec
1122. Sleeping for 0 sec, 9950000 nsec
1124. Sleeping for 0 sec, 31000 nsec
1127. Sleeping for 0 sec, 29971000 nsec
1128. Sleeping for 0 sec, 30000 nsec
1129. Sleeping for 1 sec, 413267975 nsec
1130. Sleeping for 0 sec, 31000 nsec
1134. Sleeping for 0 sec, 30000 nsec
1135. Sleeping for 0 sec, 10103000 nsec
1138. Sleeping for 0 sec, 41141000 nsec
1139. Sleeping for 0 sec, 31000 nsec
1141. Sleeping for 0 sec, 9095000 nsec
1142. Sleeping for 0 sec, 30000 nsec
1143. Sleeping for 1 sec, 26530178 nsec
1144. Sleeping for 0 sec, 30000 nsec
1145. Sleeping for 0 sec, 31000 nsec
1148. Sleeping for 0 sec, 10102000 nsec
1149. Sleeping for 0 sec, 31000 nsec
1150. Sleeping for 0 sec, 30215000 nsec
1152. Sleeping for 1 sec, 698876675 nsec
1153. Sleeping for 0 sec, 31000 nsec
1154. Sleeping for 0 sec, 30000 nsec
1158. Sleeping for 0 sec, 10103000 nsec
1159. Sleeping for 0 sec, 30000 nsec
1161. Sleeping for 0 sec, 50939000 nsec
1162. Sleeping for 0 sec, 30000 nsec
1164. Sleeping for 0 sec, 10041000 nsec
1165. Sleeping for 0 sec, 31000 nsec
1166. Sleeping for 0 sec, 10224000 nsec
1167. Sleeping for 0 sec, 31000 nsec
1168. Sleeping for 0 sec, 20265000 nsec
1170. Sleeping for 0 sec, 874592000 nsec
1171. Sleeping for 0 sec, 427000 nsec
1172. Sleeping for 2 sec, 318602340 nsec
1173. Sleeping for 0 sec, 31000 nsec
1175. Sleeping for 0 sec, 30000 nsec
1178. Sleeping for 0 sec, 10041000 nsec
1179. Sleeping for 0 sec, 31000 nsec
1182. Sleeping for 0 sec, 40104000 nsec
1183. Sleeping for 0 sec, 30000 nsec
1184. Sleeping for 1 sec, 688387267 nsec
1185. Sleeping for 0 sec, 61000 nsec
1186. Sleeping for 0 sec, 30000 nsec
1187. Sleeping for 0 sec, 458000 nsec
1188. Sleeping for 0 sec, 31000 nsec
1189. Sleeping for 0 sec, 9553000 nsec
1192. Sleeping for 0 sec, 50297000 nsec
1193. Sleeping for 0 sec, 31000 nsec
1194. Sleeping for 1 sec, 885948746 nsec
1195. Sleeping for 0 sec, 30000 nsec
1198. Sleeping for 0 sec, 31000 nsec
1200. Sleeping for 0 sec, 10102000 nsec
1201. Sleeping for 0 sec, 31000 nsec
1203. Sleeping for 0 sec, 30917000 nsec
1204. Sleeping for 0 sec, 30000 nsec
1205. Sleeping for 0 sec, 9706000 nsec
1206. Sleeping for 0 sec, 30000 nsec
1208. Sleeping for 0 sec, 29910000 nsec
1209. Sleeping for 0 sec, 31000 nsec
1210. Sleeping for 0 sec, 971317368 nsec
1211. Sleeping for 0 sec, 31000 nsec
1215. Sleeping for 0 sec, 30000 nsec
1216. Sleeping for 0 sec, 10072000 nsec
1219. Sleeping for 0 sec, 60492000 nsec
1220. Sleeping for 0 sec, 30000 nsec
1221. Sleeping for 2 sec, 669796000 nsec
1222. Sleeping for 0 sec, 31000 nsec
1226. Sleeping for 0 sec, 30000 nsec
1227. Sleeping for 0 sec, 10072000 nsec
1229. Sleeping for 0 sec, 31000 nsec
1231. Sleeping for 0 sec, 29910000 nsec
1232. Sleeping for 0 sec, 30000 nsec
1233. Sleeping for 1 sec, 29416249 nsec
1234. Sleeping for 0 sec, 31000 nsec
1238. Sleeping for 0 sec, 30000 nsec
1239. Sleeping for 0 sec, 10072000 nsec
1242. Sleeping for 0 sec, 30000 nsec
1243. Sleeping for 0 sec, 40135000 nsec
1244. Sleeping for 0 sec, 30000 nsec
1245. Sleeping for 0 sec, 606223757 nsec
1246. Sleeping for 0 sec, 31000 nsec
1247. Sleeping for 0 sec, 30000 nsec
1250. Sleeping for 0 sec, 10042000 nsec
1251. Sleeping for 0 sec, 30000 nsec
1254. Sleeping for 0 sec, 40134000 nsec
1255. Sleeping for 0 sec, 31000 nsec
1256. Sleeping for 0 sec, 547756040 nsec
1257. Sleeping for 0 sec, 31000 nsec
1260. Sleeping for 0 sec, 30000 nsec
1261. Sleeping for 0 sec, 10102000 nsec
1264. Sleeping for 0 sec, 31000 nsec
1265. Sleeping for 0 sec, 19685000 nsec
1266. Sleeping for 0 sec, 31000 nsec
1267. Sleeping for 0 sec, 720482755 nsec
1268. Sleeping for 0 sec, 61000 nsec
1269. Sleeping for 0 sec, 30000 nsec
1273. Sleeping for 0 sec, 10041000 nsec
1274. Sleeping for 0 sec, 31000 nsec
1276. Sleeping for 0 sec, 29940000 nsec
1277. Sleeping for 0 sec, 31000 nsec
1278. Sleeping for 0 sec, 641228021 nsec
1279. Sleeping for 0 sec, 30000 nsec
1282. Sleeping for 0 sec, 31000 nsec
1283. Sleeping for 0 sec, 10102000 nsec
1285. Sleeping for 0 sec, 40440000 nsec
1286. Sleeping for 0 sec, 30000 nsec
1287. Sleeping for 1 sec, 64864316 nsec
1288. Sleeping for 0 sec, 30000 nsec
1292. Sleeping for 0 sec, 31000 nsec
1293. Sleeping for 0 sec, 10011000 nsec
1294. Sleeping for 0 sec, 30000 nsec
1297. Sleeping for 0 sec, 19747000 nsec
1298. Sleeping for 0 sec, 30000 nsec
1299. Sleeping for 0 sec, 359456397 nsec
1300. Sleeping for 0 sec, 30000 nsec
1302. Sleeping for 0 sec, 31000 nsec
1305. Sleeping for 0 sec, 10102000 nsec
1309. Sleeping for 0 sec, 40195000 nsec
1310. Sleeping for 0 sec, 31000 nsec
1311. Sleeping for 1 sec, 185419528 nsec
1312. Sleeping for 0 sec, 30000 nsec
1313. Sleeping for 0 sec, 31000 nsec
1317. Sleeping for 0 sec, 10071000 nsec
1318. Sleeping for 0 sec, 31000 nsec
1319. Sleeping for 0 sec, 30000 nsec
1320. Sleeping for 0 sec, 9553000 nsec
1321. Sleeping for 0 sec, 31000 nsec
1322. Sleeping for 1 sec, 435457951 nsec
1323. Sleeping for 0 sec, 31000 nsec
1328. Sleeping for 0 sec, 10102000 nsec
1329. Sleeping for 0 sec, 31000 nsec
1331. Sleeping for 0 sec, 40744000 nsec
1332. Sleeping for 0 sec, 61000 nsec
1333. Sleeping for 0 sec, 29819000 nsec
1334. Sleeping for 0 sec, 30000 nsec
1335. Sleeping for 0 sec, 928936044 nsec
1336. Sleeping for 0 sec, 30000 nsec
1341. Sleeping for 0 sec, 10072000 nsec
1342. Sleeping for 0 sec, 30000 nsec
1344. Sleeping for 0 sec, 20388000 nsec
1347. Sleeping for 0 sec, 10194000 nsec
1349. Sleeping for 0 sec, 30000 nsec
1351. Sleeping for 0 sec, 9492000 nsec
1353. Sleeping for 0 sec, 542876831 nsec
1354. Sleeping for 0 sec, 30000 nsec
1359. Sleeping for 0 sec, 10102000 nsec
1362. Sleeping for 0 sec, 29910000 nsec
1363. Sleeping for 0 sec, 31000 nsec
1364. Sleeping for 1 sec, 571789542 nsec
1365. Sleeping for 0 sec, 61000 nsec
1366. Sleeping for 0 sec, 30000 nsec
1370. Sleeping for 0 sec, 10133000 nsec
1371. Sleeping for 0 sec, 30000 nsec
1373. Sleeping for 0 sec, 20297000 nsec
1374. Sleeping for 0 sec, 30000 nsec
1375. Sleeping for 0 sec, 31000 nsec
1376. Sleeping for 0 sec, 19624000 nsec
1377. Sleeping for 0 sec, 31000 nsec
1378. Sleeping for 0 sec, 668263548 nsec
1379. Sleeping for 0 sec, 30000 nsec
1380. Sleeping for 0 sec, 31000 nsec
1384. Sleeping for 0 sec, 10102000 nsec
1387. Sleeping for 0 sec, 40073000 nsec
1388. Sleeping for 0 sec, 31000 nsec
1389. Sleeping for 2 sec, 578800404 nsec
1390. Sleeping for 0 sec, 31000 nsec
1393. Sleeping for 0 sec, 30000 nsec
1394. Sleeping for 0 sec, 10042000 nsec
1395. Sleeping for 0 sec, 30000 nsec
1398. Sleeping for 0 sec, 71326000 nsec
1399. Sleeping for 0 sec, 31000 nsec
1401. Sleeping for 0 sec, 10041000 nsec
1402. Sleeping for 0 sec, 31000 nsec
1404. Sleeping for 0 sec, 620814000 nsec
1405. Sleeping for 0 sec, 31000 nsec
1407. Sleeping for 0 sec, 10072000 nsec
1408. Sleeping for 0 sec, 30000 nsec
1409. Sleeping for 0 sec, 50817000 nsec
1410. Sleeping for 0 sec, 30000 nsec
1412. Sleeping for 0 sec, 9492000 nsec
1413. Sleeping for 0 sec, 31000 nsec
1414. Sleeping for 1 sec, 220514699 nsec
1415. Sleeping for 0 sec, 31000 nsec
1417. Sleeping for 0 sec, 30000 nsec
1420. Sleeping for 0 sec, 10103000 nsec
1421. Sleeping for 0 sec, 30000 nsec
1424. Sleeping for 0 sec, 30002000 nsec
1425. Sleeping for 0 sec, 30000 nsec
1426. Sleeping for 1 sec, 90413282 nsec
1427. Sleeping for 0 sec, 30000 nsec
1428. Sleeping for 0 sec, 31000 nsec
1432. Sleeping for 0 sec, 10102000 nsec
1433. Sleeping for 0 sec, 31000 nsec
1436. Sleeping for 0 sec, 19990000 nsec
1437. Sleeping for 0 sec, 31000 nsec
1438. Sleeping for 2 sec, 894092397 nsec
1439. Sleeping for 0 sec, 30000 nsec
1443. Sleeping for 0 sec, 31000 nsec
1444. Sleeping for 0 sec, 10041000 nsec
1445. Sleeping for 0 sec, 30000 nsec
1448. Sleeping for 0 sec, 80757000 nsec
1449. Sleeping for 0 sec, 31000 nsec
1450. Sleeping for 2 sec, 139334186 nsec
1451. Sleeping for 0 sec, 31000 nsec
1454. Sleeping for 0 sec, 31000 nsec
1455. Sleeping for 0 sec, 10071000 nsec
1456. Sleeping for 0 sec, 31000 nsec
1459. Sleeping for 0 sec, 20326000 nsec
1461. Sleeping for 0 sec, 31000 nsec
1463. Sleeping for 0 sec, 10163000 nsec
1466. Sleeping for 0 sec, 10286000 nsec
1467. Sleeping for 0 sec, 30000 nsec
1469. Sleeping for 0 sec, 10041000 nsec
1471. Sleeping for 0 sec, 31000 nsec
1472. Sleeping for 0 sec, 9827000 nsec
1473. Sleeping for 0 sec, 31000 nsec
1474. Sleeping for 1 sec, 652699570 nsec
1475. Sleeping for 0 sec, 30000 nsec
1477. Sleeping for 0 sec, 31000 nsec
1479. Sleeping for 0 sec, 10102000 nsec
1480. Sleeping for 0 sec, 30000 nsec
1483. Sleeping for 0 sec, 50267000 nsec
1484. Sleeping for 0 sec, 31000 nsec
1485. Sleeping for 1 sec, 894438744 nsec
1486. Sleeping for 0 sec, 61000 nsec
1487. Sleeping for 0 sec, 31000 nsec
1490. Sleeping for 0 sec, 10041000 nsec
1491. Sleeping for 0 sec, 31000 nsec
1494. Sleeping for 0 sec, 20357000 nsec
1495. Sleeping for 0 sec, 30000 nsec
1498. Sleeping for 0 sec, 11903000 nsec
1499. Sleeping for 0 sec, 31000 nsec
1502. Sleeping for 0 sec, 7721000 nsec
1503. Sleeping for 0 sec, 31000 nsec
1504. Sleeping for 0 sec, 598572853 nsec
1505. Sleeping for 0 sec, 31000 nsec
1506. Sleeping for 0 sec, 30000 nsec
1510. Sleeping for 0 sec, 10072000 nsec
1511. Sleeping for 0 sec, 30000 nsec
1514. Sleeping for 0 sec, 30307000 nsec
1515. Sleeping for 0 sec, 31000 nsec
1516. Sleeping for 0 sec, 713758083 nsec
1517. Sleeping for 0 sec, 30000 nsec
1520. Sleeping for 0 sec, 31000 nsec
1522. Sleeping for 0 sec, 10072000 nsec
1524. Sleeping for 0 sec, 30000 nsec
1526. Sleeping for 0 sec, 30246000 nsec
1527. Sleeping for 0 sec, 30000 nsec
1528. Sleeping for 0 sec, 636492998 nsec
1529. Sleeping for 0 sec, 31000 nsec
1531. Sleeping for 0 sec, 31000 nsec
1534. Sleeping for 0 sec, 9797000 nsec
1535. Sleeping for 0 sec, 30000 nsec
1538. Sleeping for 0 sec, 9461000 nsec
1539. Sleeping for 0 sec, 31000 nsec
1540. Sleeping for 0 sec, 338333737 nsec
1541. Sleeping for 0 sec, 30000 nsec
1542. Sleeping for 0 sec, 31000 nsec
1546. Sleeping for 0 sec, 10072000 nsec
1547. Sleeping for 0 sec, 30000 nsec
1550. Sleeping for 0 sec, 20327000 nsec
1551. Sleeping for 0 sec, 30000 nsec
1553. Sleeping for 0 sec, 19808000 nsec
1554. Sleeping for 0 sec, 30000 nsec
1555. Sleeping for 0 sec, 745745763 nsec
1556. Sleeping for 0 sec, 30000 nsec
1558. Sleeping for 0 sec, 31000 nsec
1561. Sleeping for 0 sec, 10132000 nsec
1562. Sleeping for 0 sec, 31000 nsec
1563. Sleeping for 0 sec, 31000 nsec
1564. Sleeping for 0 sec, 50755000 nsec
1565. Sleeping for 0 sec, 30000 nsec
1566. Sleeping for 0 sec, 31000 nsec
1568. Sleeping for 0 sec, 9492000 nsec
1570. Sleeping for 0 sec, 435497779 nsec
1571. Sleeping for 0 sec, 30000 nsec
1573. Sleeping for 0 sec, 31000 nsec
1576. Sleeping for 0 sec, 10041000 nsec
1577. Sleeping for 0 sec, 30000 nsec
1580. Sleeping for 0 sec, 10164000 nsec
1583. Sleeping for 0 sec, 10132000 nsec
1584. Sleeping for 0 sec, 31000 nsec
1586. Sleeping for 0 sec, 31000 nsec
1587. Sleeping for 0 sec, 10102000 nsec
1588. Sleeping for 0 sec, 30000 nsec
1591. Sleeping for 0 sec, 9523000 nsec
1593. Sleeping for 0 sec, 884844945 nsec
1594. Sleeping for 0 sec, 30000 nsec
1597. Sleeping for 0 sec, 31000 nsec
1598. Sleeping for 0 sec, 10102000 nsec
1599. Sleeping for 0 sec, 31000 nsec
1602. Sleeping for 0 sec, 20326000 nsec
1603. Sleeping for 0 sec, 31000 nsec
1604. Sleeping for 0 sec, 10132000 nsec
1605. Sleeping for 0 sec, 31000 nsec
1607. Sleeping for 0 sec, 10194000 nsec
1608. Sleeping for 0 sec, 30000 nsec
1610. Sleeping for 0 sec, 10102000 nsec
1612. Sleeping for 0 sec, 31000 nsec
1613. Sleeping for 0 sec, 10041000 nsec
1614. Sleeping for 0 sec, 31000 nsec
1617. Sleeping for 0 sec, 9583000 nsec
1618. Sleeping for 0 sec, 31000 nsec
1619. Sleeping for 0 sec, 769157566 nsec
1620. Sleeping for 0 sec, 30000 nsec
1623. Sleeping for 0 sec, 31000 nsec
1625. Sleeping for 0 sec, 10133000 nsec
1626. Sleeping for 0 sec, 30000 nsec
1627. Sleeping for 0 sec, 29819000 nsec
1628. Sleeping for 0 sec, 30000 nsec
1629. Sleeping for 1 sec, 200351929 nsec
1630. Sleeping for 0 sec, 61000 nsec
1631. Sleeping for 0 sec, 61000 nsec
1634. Sleeping for 0 sec, 10041000 nsec
1635. Sleeping for 0 sec, 30000 nsec
1637. Sleeping for 0 sec, 40104000 nsec
1638. Sleeping for 0 sec, 31000 nsec
1639. Sleeping for 0 sec, 524294140 nsec
1640. Sleeping for 0 sec, 61000 nsec
1641. Sleeping for 0 sec, 31000 nsec
1645. Sleeping for 0 sec, 9980000 nsec
1646. Sleeping for 0 sec, 31000 nsec
1647. Sleeping for 0 sec, 30000 nsec
1648. Sleeping for 0 sec, 31000 nsec
1649. Sleeping for 0 sec, 9491000 nsec
1650. Sleeping for 0 sec, 31000 nsec
1651. Sleeping for 0 sec, 586395296 nsec
1652. Sleeping for 0 sec, 31000 nsec
1655. Sleeping for 0 sec, 30000 nsec
1656. Sleeping for 0 sec, 10102000 nsec
1658. Sleeping for 0 sec, 31000 nsec
1659. Sleeping for 0 sec, 20326000 nsec
1661. Sleeping for 0 sec, 31000 nsec
1663. Sleeping for 0 sec, 10133000 nsec
1665. Sleeping for 0 sec, 30000 nsec
1666. Sleeping for 0 sec, 10133000 nsec
1667. Sleeping for 0 sec, 31000 nsec
1671. Sleeping for 0 sec, 9491000 nsec
1672. Sleeping for 0 sec, 31000 nsec
1673. Sleeping for 0 sec, 556821970 nsec
1674. Sleeping for 0 sec, 31000 nsec
1677. Sleeping for 0 sec, 30000 nsec
1679. Sleeping for 0 sec, 10102000 nsec
1681. Sleeping for 0 sec, 31000 nsec
1683. Sleeping for 0 sec, 40378000 nsec
1684. Sleeping for 0 sec, 31000 nsec
1685. Sleeping for 1 sec, 45651794 nsec
1686. Sleeping for 0 sec, 30000 nsec
1690. Sleeping for 0 sec, 10102000 nsec
1691. Sleeping for 0 sec, 31000 nsec
1693. Sleeping for 0 sec, 40043000 nsec
1695. Sleeping for 3 sec, 147828734 nsec
1696. Sleeping for 0 sec, 31000 nsec
1698. Sleeping for 0 sec, 30000 nsec
1700. Sleeping for 0 sec, 10041000 nsec
1702. Sleeping for 0 sec, 31000 nsec
1703. Sleeping for 0 sec, 874531000 nsec
1705. Sleeping for 1 sec, 336971419 nsec
1706. Sleeping for 0 sec, 31000 nsec
1709. Sleeping for 0 sec, 30000 nsec
1711. Sleeping for 0 sec, 10041000 nsec
1713. Sleeping for 0 sec, 50298000 nsec
1715. Sleeping for 1 sec, 927434210 nsec
1716. Sleeping for 0 sec, 30000 nsec
1721. Sleeping for 0 sec, 10102000 nsec
1725. Sleeping for 0 sec, 50237000 nsec
1726. Sleeping for 0 sec, 30000 nsec
1727. Sleeping for 1 sec, 654156893 nsec
1728. Sleeping for 0 sec, 30000 nsec
1730. Sleeping for 0 sec, 31000 nsec
1732. Sleeping for 0 sec, 10102000 nsec
1734. Sleeping for 0 sec, 31000 nsec
1735. Sleeping for 0 sec, 40042000 nsec
1736. Sleeping for 0 sec, 31000 nsec
1737. Sleeping for 1 sec, 235123810 nsec
1738. Sleeping for 0 sec, 31000 nsec
1739. Sleeping for 0 sec, 30000 nsec
1743. Sleeping for 0 sec, 10072000 nsec
1744. Sleeping for 0 sec, 31000 nsec
1747. Sleeping for 0 sec, 60491000 nsec
1748. Sleeping for 0 sec, 31000 nsec
1749. Sleeping for 1 sec, 83297492 nsec
1750. Sleeping for 0 sec, 30000 nsec
1753. Sleeping for 0 sec, 31000 nsec
1754. Sleeping for 0 sec, 10102000 nsec
1757. Sleeping for 0 sec, 10163000 nsec
1758. Sleeping for 0 sec, 31000 nsec
1759. Sleeping for 0 sec, 10224000 nsec
1760. Sleeping for 0 sec, 30000 nsec
1762. Sleeping for 0 sec, 10011000 nsec
1765. Sleeping for 0 sec, 10194000 nsec
1766. Sleeping for 0 sec, 30000 nsec
1768. Sleeping for 0 sec, 9553000 nsec
1770. Sleeping for 1 sec, 42553377 nsec
1771. Sleeping for 0 sec, 31000 nsec
1774. Sleeping for 0 sec, 30000 nsec
1776. Sleeping for 0 sec, 10072000 nsec
1778. Sleeping for 0 sec, 30000 nsec
1779. Sleeping for 0 sec, 40074000 nsec
1780. Sleeping for 0 sec, 30000 nsec
1781. Sleeping for 0 sec, 710545231 nsec
1782. Sleeping for 0 sec, 30000 nsec
1783. Sleeping for 0 sec, 31000 nsec
1787. Sleeping for 0 sec, 10102000 nsec
1788. Sleeping for 0 sec, 30000 nsec
1789. Sleeping for 0 sec, 20358000 nsec
1790. Sleeping for 0 sec, 30000 nsec
1792. Sleeping for 0 sec, 9492000 nsec
1794. Sleeping for 0 sec, 344916282 nsec
1795. Sleeping for 0 sec, 30000 nsec
1799. Sleeping for 0 sec, 10103000 nsec
1800. Sleeping for 0 sec, 30000 nsec
1802. Sleeping for 0 sec, 19716000 nsec
1804. Sleeping for 1 sec, 134280963 nsec
1805. Sleeping for 0 sec, 31000 nsec
1808. Sleeping for 0 sec, 30000 nsec
1810. Sleeping for 0 sec, 10102000 nsec
1812. Sleeping for 0 sec, 30795000 nsec
1813. Sleeping for 0 sec, 31000 nsec
1814. Sleeping for 0 sec, 30000 nsec
1815. Sleeping for 0 sec, 9340000 nsec
1817. Sleeping for 1 sec, 575580486 nsec
1818. Sleeping for 0 sec, 30000 nsec
1819. Sleeping for 0 sec, 31000 nsec
1823. Sleeping for 0 sec, 10133000 nsec
1824. Sleeping for 0 sec, 30000 nsec
1826. Sleeping for 0 sec, 29879000 nsec
1827. Sleeping for 0 sec, 31000 nsec
1828. Sleeping for 1 sec, 313225131 nsec
1829. Sleeping for 0 sec, 30000 nsec
1832. Sleeping for 0 sec, 31000 nsec
1834. Sleeping for 0 sec, 10072000 nsec
1837. Sleeping for 0 sec, 40103000 nsec
1838. Sleeping for 0 sec, 31000 nsec
1839. Sleeping for 0 sec, 627185723 nsec
1840. Sleeping for 0 sec, 31000 nsec
1844. Sleeping for 0 sec, 10011000 nsec
1845. Sleeping for 0 sec, 30000 nsec
1847. Sleeping for 0 sec, 50237000 nsec
1848. Sleeping for 0 sec, 30000 nsec
1849. Sleeping for 0 sec, 848972573 nsec
1851. Sleeping for 0 sec, 31000 nsec
1854. Sleeping for 0 sec, 10133000 nsec
1856. Sleeping for 0 sec, 20326000 nsec
1857. Sleeping for 0 sec, 31000 nsec
1859. Sleeping for 0 sec, 9553000 nsec
1860. Sleeping for 0 sec, 30000 nsec
1861. Sleeping for 1 sec, 546038134 nsec
1862. Sleeping for 0 sec, 30000 nsec
1863. Sleeping for 0 sec, 31000 nsec
1867. Sleeping for 0 sec, 10102000 nsec
1868. Sleeping for 0 sec, 30000 nsec
1869. Sleeping for 0 sec, 40074000 nsec
1871. Sleeping for 0 sec, 812582977 nsec
1872. Sleeping for 0 sec, 30000 nsec
1876. Sleeping for 0 sec, 31000 nsec
1877. Sleeping for 0 sec, 10071000 nsec
1881. Sleeping for 0 sec, 9553000 nsec
1883. Sleeping for 1 sec, 884536871 nsec
1884. Sleeping for 0 sec, 31000 nsec
1888. Sleeping for 0 sec, 30000 nsec
1889. Sleeping for 0 sec, 10957000 nsec
1891. Sleeping for 0 sec, 31000 nsec
1892. Sleeping for 0 sec, 39188000 nsec
1893. Sleeping for 0 sec, 30000 nsec
1894. Sleeping for 1 sec, 561674038 nsec
1895. Sleeping for 0 sec, 30000 nsec
1899. Sleeping for 0 sec, 31000 nsec
1900. Sleeping for 0 sec, 10102000 nsec
1903. Sleeping for 0 sec, 20326000 nsec
1904. Sleeping for 0 sec, 31000 nsec
1906. Sleeping for 0 sec, 10224000 nsec
1907. Sleeping for 0 sec, 31000 nsec
1909. Sleeping for 0 sec, 9400000 nsec
1910. Sleeping for 0 sec, 31000 nsec
1911. Sleeping for 0 sec, 762570485 nsec
1912. Sleeping for 0 sec, 31000 nsec
1917. Sleeping for 0 sec, 10102000 nsec
1918. Sleeping for 0 sec, 31000 nsec
1920. Sleeping for 0 sec, 40103000 nsec
1921. Sleeping for 0 sec, 31000 nsec
1922. Sleeping for 1 sec, 228595530 nsec
1923. Sleeping for 0 sec, 30000 nsec
1925. Sleeping for 0 sec, 31000 nsec
1928. Sleeping for 0 sec, 19624000 nsec
1929. Sleeping for 0 sec, 31000 nsec
1930. Sleeping for 0 sec, 782362993 nsec
1931. Sleeping for 0 sec, 30000 nsec
1932. Sleeping for 0 sec, 31000 nsec
1935. Sleeping for 0 sec, 60430000 nsec
1936. Sleeping for 0 sec, 31000 nsec
1937. Sleeping for 1 sec, 142549371 nsec
1938. Sleeping for 0 sec, 30000 nsec
1940. Sleeping for 0 sec, 31000 nsec
1943. Sleeping for 0 sec, 10132000 nsec
1944. Sleeping for 0 sec, 31000 nsec
1946. Sleeping for 0 sec, 40012000 nsec
1948. Sleeping for 1 sec, 523807662 nsec
1949. Sleeping for 0 sec, 31000 nsec
1953. Sleeping for 0 sec, 10102000 nsec
1954. Sleeping for 0 sec, 31000 nsec
1957. Sleeping for 0 sec, 29910000 nsec
1958. Sleeping for 0 sec, 30000 nsec
1959. Sleeping for 2 sec, 795933873 nsec
1960. Sleeping for 0 sec, 30000 nsec
1961. Sleeping for 0 sec, 31000 nsec
1965. Sleeping for 0 sec, 10071000 nsec
1968. Sleeping for 0 sec, 71296000 nsec
1969. Sleeping for 0 sec, 31000 nsec
1971. Sleeping for 0 sec, 50816000 nsec
1972. Sleeping for 0 sec, 30000 nsec
1975. Sleeping for 0 sec, 10072000 nsec
1976. Sleeping for 0 sec, 31000 nsec
1977. Sleeping for 0 sec, 10163000 nsec
1978. Sleeping for 0 sec, 31000 nsec
1979. Sleeping for 0 sec, 10132000 nsec
1981. Sleeping for 0 sec, 40775000 nsec
1982. Sleeping for 0 sec, 31000 nsec
1983. Sleeping for 0 sec, 20235000 nsec
1984. Sleeping for 0 sec, 31000 nsec
1986. Sleeping for 0 sec, 50938000 nsec
1987. Sleeping for 0 sec, 31000 nsec
1988. Sleeping for 0 sec, 50877000 nsec
1989. Sleeping for 0 sec, 31000 nsec
1990. Sleeping for 0 sec, 345582000 nsec
1991. Sleeping for 0 sec, 30000 nsec
1992. Sleeping for 1 sec, 292760903 nsec
1993. Sleeping for 0 sec, 30000 nsec
1998. Sleeping for 0 sec, 11751000 nsec
1999. Sleeping for 0 sec, 30000 nsec
2000. Sleeping for 0 sec, 31000 nsec
2002. Sleeping for 0 sec, 28841000 nsec
2003. Sleeping for 0 sec, 31000 nsec
2005. Sleeping for 0 sec, 10072000 nsec
2006. Sleeping for 0 sec, 30000 nsec
2007. Sleeping for 0 sec, 10194000 nsec
2008. Sleeping for 0 sec, 31000 nsec
2010. Sleeping for 0 sec, 10102000 nsec
2013. Sleeping for 0 sec, 10163000 nsec
2014. Sleeping for 0 sec, 31000 nsec
2016. Sleeping for 0 sec, 10163000 nsec
2017. Sleeping for 0 sec, 30000 nsec
2018. Sleeping for 0 sec, 10133000 nsec
2020. Sleeping for 0 sec, 31000 nsec
2021. Sleeping for 0 sec, 10194000 nsec
2022. Sleeping for 0 sec, 30000 nsec
2023. Sleeping for 0 sec, 31000 nsec
2024. Sleeping for 0 sec, 10071000 nsec
2026. Sleeping for 0 sec, 10164000 nsec
2027. Sleeping for 0 sec, 30000 nsec
2028. Sleeping for 0 sec, 10133000 nsec
2029. Sleeping for 0 sec, 30000 nsec
2030. Sleeping for 0 sec, 10164000 nsec
2032. Sleeping for 0 sec, 10193000 nsec
2033. Sleeping for 0 sec, 31000 nsec
2034. Sleeping for 0 sec, 10102000 nsec
2035. Sleeping for 0 sec, 31000 nsec
2036. Sleeping for 0 sec, 122173000 nsec
2037. Sleeping for 0 sec, 30000 nsec
2038. Sleeping for 0 sec, 436869000 nsec
2039. Sleeping for 0 sec, 30000 nsec
2040. Sleeping for 4 sec, 129382926 nsec
2041. Sleeping for 0 sec, 31000 nsec
2042. Sleeping for 0 sec, 30000 nsec
2044. Sleeping for 0 sec, 31000 nsec
2046. Sleeping for 0 sec, 9492000 nsec
2048. Sleeping for 1 sec, 200530130 nsec
2049. Sleeping for 0 sec, 31000 nsec
2053. Sleeping for 0 sec, 30000 nsec
2054. Sleeping for 0 sec, 10499000 nsec
2056. Sleeping for 0 sec, 31000 nsec
2057. Sleeping for 0 sec, 39615000 nsec
2059. Sleeping for 0 sec, 319412987 nsec
2060. Sleeping for 0 sec, 31000 nsec
2061. Sleeping for 0 sec, 30000 nsec
2065. Sleeping for 0 sec, 10102000 nsec
2067. Sleeping for 0 sec, 31000 nsec
2068. Sleeping for 0 sec, 29879000 nsec
2070. Sleeping for 0 sec, 239585276 nsec
2071. Sleeping for 0 sec, 30000 nsec
2073. Sleeping for 0 sec, 31000 nsec
2075. Sleeping for 0 sec, 10072000 nsec
2076. Sleeping for 0 sec, 30000 nsec
2078. Sleeping for 0 sec, 40134000 nsec
2079. Sleeping for 0 sec, 31000 nsec
2080. Sleeping for 0 sec, 319824579 nsec
2081. Sleeping for 0 sec, 31000 nsec
2082. Sleeping for 0 sec, 30000 nsec
2086. Sleeping for 0 sec, 10103000 nsec
2088. Sleeping for 0 sec, 30000 nsec
2089. Sleeping for 0 sec, 9492000 nsec
2090. Sleeping for 0 sec, 31000 nsec
2091. Sleeping for 0 sec, 471961418 nsec
2092. Sleeping for 0 sec, 30000 nsec
2096. Sleeping for 0 sec, 20021000 nsec
2097. Sleeping for 0 sec, 31000 nsec
2098. Sleeping for 1 sec, 894506721 nsec
2099. Sleeping for 0 sec, 31000 nsec
2101. Sleeping for 0 sec, 30000 nsec
2104. Sleeping for 0 sec, 60370000 nsec
2105. Sleeping for 0 sec, 30000 nsec
2106. Sleeping for 3 sec, 858030409 nsec
2107. Sleeping for 0 sec, 122000 nsec
2108. Sleeping for 0 sec, 62000 nsec
2109. Sleeping for 0 sec, 30000 nsec
2111. Sleeping for 0 sec, 9522000 nsec
2112. Sleeping for 0 sec, 31000 nsec
2114. Sleeping for 0 sec, 40653000 nsec
2116. Sleeping for 0 sec, 31000 nsec
2117. Sleeping for 0 sec, 10163000 nsec
2119. Sleeping for 0 sec, 30000 nsec
2120. Sleeping for 0 sec, 9523000 nsec
2122. Sleeping for 8 sec, 460057785 nsec
2123. Sleeping for 0 sec, 61000 nsec
2125. Sleeping for 0 sec, 30000 nsec
2127. Sleeping for 0 sec, 9950000 nsec
2128. Sleeping for 0 sec, 31000 nsec
2130. Sleeping for 0 sec, 30000 nsec
2131. Sleeping for 1 sec, 209950000 nsec
2132. Sleeping for 0 sec, 30000 nsec
2133. Sleeping for 8 sec, 511737812 nsec
2134. Sleeping for 0 sec, 61000 nsec
2137. Sleeping for 0 sec, 30000 nsec
2139. Sleeping for 0 sec, 9858000 nsec
2141. Sleeping for 0 sec, 31000 nsec
2142. Sleeping for 0 sec, 90767000 nsec
2143. Sleeping for 0 sec, 31000 nsec
2144. Sleeping for 2 sec, 329332531 nsec
2145. Sleeping for 0 sec, 92000 nsec
2146. Sleeping for 0 sec, 30000 nsec
2150. Sleeping for 0 sec, 10011000 nsec
2151. Sleeping for 0 sec, 31000 nsec
2152. Sleeping for 0 sec, 30000 nsec
2153. Sleeping for 0 sec, 90890000 nsec
2154. Sleeping for 0 sec, 244000 nsec
2155. Sleeping for 2 sec, 404055663 nsec
2156. Sleeping for 0 sec, 31000 nsec
2157. Sleeping for 0 sec, 30000 nsec
2160. Sleeping for 0 sec, 10072000 nsec
2161. Sleeping for 0 sec, 31000 nsec
2164. Sleeping for 0 sec, 10163000 nsec
2165. Sleeping for 0 sec, 30000 nsec
2166. Sleeping for 0 sec, 10133000 nsec
2167. Sleeping for 0 sec, 31000 nsec
2168. Sleeping for 0 sec, 10163000 nsec
2170. Sleeping for 0 sec, 30000 nsec
2171. Sleeping for 0 sec, 10103000 nsec
2172. Sleeping for 0 sec, 30000 nsec
2174. Sleeping for 0 sec, 10133000 nsec
2175. Sleeping for 0 sec, 31000 nsec
2177. Sleeping for 0 sec, 9552000 nsec
2178. Sleeping for 0 sec, 31000 nsec
2179. Sleeping for 2 sec, 105938529 nsec
2180. Sleeping for 0 sec, 61000 nsec
2181. Sleeping for 0 sec, 31000 nsec
2183. Sleeping for 0 sec, 30000 nsec
2185. Sleeping for 0 sec, 10011000 nsec
2187. Sleeping for 0 sec, 30000 nsec
2189. Sleeping for 0 sec, 10164000 nsec
2190. Sleeping for 0 sec, 30000 nsec
2191. Sleeping for 0 sec, 10163000 nsec
2194. Sleeping for 0 sec, 10164000 nsec
2196. Sleeping for 0 sec, 30000 nsec
2197. Sleeping for 0 sec, 10133000 nsec
2198. Sleeping for 0 sec, 30000 nsec
2200. Sleeping for 0 sec, 10194000 nsec
2203. Sleeping for 0 sec, 31000 nsec
2204. Sleeping for 0 sec, 10102000 nsec
2205. Sleeping for 0 sec, 31000 nsec
2207. Sleeping for 0 sec, 10193000 nsec
2209. Sleeping for 0 sec, 31000 nsec
2210. Sleeping for 0 sec, 10102000 nsec
2211. Sleeping for 0 sec, 31000 nsec
2213. Sleeping for 0 sec, 10071000 nsec
2214. Sleeping for 0 sec, 31000 nsec
2217. Sleeping for 0 sec, 9614000 nsec
2218. Sleeping for 0 sec, 30000 nsec
