Trial,Energy (J)
1,66.03264644123615
2,55.709895880283895
3,63.13271175153609
4,63.79493230047617
5,56.79533155769207
6,56.40078446677587
7,59.50365040953996
8,59.09347165114797
9,57.323737679664106
10,64.45203634234795
11,57.478909766236065
12,59.674935283424034
13,61.424763562524234
14,56.534093250119966
15,61.37799839213221
16,55.91777443307196
17,62.28068183075576
18,68.51098514556004
19,57.55581559329166
20,58.57267965578008
21,59.899887783099736
22,63.043154883863934
23,57.06536604998792
24,63.79811386196806
25,53.675181572948055
26,62.40584200212775
27,63.35629637869198
28,59.92153700903602
29,59.27441399794418
30,63.077904091400185
