App - Materialistic
Scenario - read_article
Level - 5sec
Measure - ARPicDistance
Test Statistic - Mann-Whitney U Test
Effect Size Measure - Simple Difference:Kerby
Alpha Level - 0.05


"Before.Version","After.Version","Diff","Direction","P.Value","Simple.Diff","Within.Diffs.Mean","Within.Diffs.SD","Between.Diffs.Mean","Between.Diffs.SD","Runtime"
"57","58",FALSE,NA,0.935,-0.051,0.347,0.241,0.331,0.247,4.243
"58","59",FALSE,NA,0,0.612,0.074,0.057,0.106,0.055,4.202
"59","60",FALSE,NA,0.323,0.016,0.029,0.026,0.031,0.026,3.67
