App - Minetest
Scenario - play_game
Level - 5sec
Measure - EuclideanDistance
Test Statistic - Mann-Whitney U Test
Effect Size Measure - Simple Difference:Kerby
Alpha Level - 0.05


"Before.Version","After.Version","Diff","Direction","P.Value","Simple.Diff","Within.Diffs.Mean","Within.Diffs.SD","Between.Diffs.Mean","Between.Diffs.SD","Runtime"
"0.4.12","0.4.13",FALSE,NA,0,0.123,8921.251,12705.173,7910.365,8466.937,0.85
"0.4.13","0.4.14",TRUE,"NEGATIVE",0,0.992,3597.659,1160.893,10437.447,7443.913,1.169
"0.4.14","0.4.15",TRUE,"NEGATIVE",0,0.867,7081.592,10034.904,13957.29,4270.871,0.922
