App - AnkiDroid
Scenario - learn_cards
Length - 5sec
Measure - TWED
Before Version - 2.5_b
After Version - 2.6_b


"Before.Trace.ID1","Before.Trace.ID2","Difference","Runtime"
1,2,62007.8966427757,0.0770000000002256
1,3,62654.1461790808,0.0770000000002256
1,4,62128.5838092726,0.081000000000131
1,5,62401.7675700142,0.0789999999997235
1,6,59996.0269535909,0.079000000000633
1,7,57904.2782604396,0.081000000000131
1,8,58609.4658384675,0.0789999999997235
1,9,62312.2032925065,0.0760000000000218
1,10,62147.515501903,0.0760000000000218
1,11,62713.2905292115,0.0769999999993161
1,12,62465.7310368867,0.0780000000004293
1,13,62438.0741388388,0.0770000000002256
1,14,62633.7912090466,0.0770000000002256
1,15,62116.3757293896,0.0780000000004293
1,16,62019.5560251671,0.0769999999993161
1,17,61962.4670737052,0.0780000000004293
1,18,62335.3073387628,0.0770000000002256
1,19,62187.9130629928,0.0779999999995198
1,20,58707.1703135757,0.0770000000002256
1,21,62074.9602846426,0.0770000000002256
1,22,62143.7173329608,0.0759999999991123
1,23,62678.8155536355,0.0770000000002256
1,24,59372.9828493752,0.0770000000002256
1,25,61558.4776785184,0.0760000000000218
1,26,62317.8634889412,0.0799999999999272
1,27,62021.9267689068,0.0789999999997235
1,28,61841.5879035139,0.151000000000749
1,29,62178.8060120701,0.0799999999999272
1,30,62167.1147140177,0.0779999999995198
2,3,64416.364069351,0.0789999999997235
2,4,64964.2371847593,0.0780000000004293
2,5,69899.9825265504,0.0779999999995198
2,6,59673.4880563468,0.0760000000000218
2,7,57581.7393631954,0.0760000000000218
2,8,58286.9269412234,0.0749999999998181
2,9,63332.1115502692,0.0760000000000218
2,10,70628.2692695976,0.0770000000002256
2,11,62748.4682812397,0.0789999999997235
2,12,69274.9627183921,0.079000000000633
2,13,66457.0766034391,0.0770000000002256
2,14,67392.9601492035,0.0760000000000218
2,15,61998.515496462,0.0760000000000218
2,16,74142.9230959311,0.0760000000000218
2,17,71927.0167742815,0.0770000000002256
2,18,62012.7684415186,0.0779999999995198
2,19,65517.9979622219,0.0770000000002256
2,20,58384.6314163316,0.0770000000002256
2,21,74927.8099965561,0.0760000000000218
2,22,75554.3643939012,0.0760000000000218
2,23,62485.0915214957,0.0799999999999272
2,24,59050.4439521311,0.0789999999997235
2,25,61235.9387812743,0.0760000000000218
2,26,71228.1773476245,0.0789999999997235
2,27,64132.8420144362,0.0770000000002256
2,28,70931.6335288665,0.0760000000000218
2,29,62554.4273763342,0.0760000000000218
2,30,71894.0845365178,0.0760000000000218
3,4,64537.0512358478,0.0760000000000218
3,5,64810.2349965894,0.0789999999997235
3,6,60319.7375926518,0.0770000000002256
3,7,58227.9888995005,0.0760000000000218
3,8,58933.1764775284,0.0760000000000218
3,9,63978.3610865743,0.0760000000000218
3,10,64555.9829284782,0.0789999999997235
3,11,63394.7178175448,0.0789999999997235
3,12,64874.1984634619,0.079000000000633
3,13,64846.541565414,0.0799999999999272
3,14,65042.2586356218,0.0789999999997235
3,15,62644.7650327671,0.0789999999997235
3,16,64428.0234517424,0.0799999999999272
3,17,64370.9345002805,0.079000000000633
3,18,62659.0179778237,0.0799999999999272
3,19,64596.3804895681,0.0799999999999272
3,20,59030.8809526367,0.0799999999999272
3,21,64483.4277112178,0.0780000000004293
3,22,64552.184759536,0.0770000000002256
3,23,63131.3410578008,0.0780000000004293
3,24,59696.6934884362,0.0789999999997235
3,25,61882.1883175793,0.0779999999995198
3,26,64726.3309155164,0.0770000000002256
3,27,64430.394195482,0.0760000000000218
3,28,64250.0553300892,0.0760000000000218
3,29,63200.6769126393,0.0770000000002256
3,30,64575.5821405929,0.0789999999997235
4,5,65358.1081119978,0.0799999999999272
4,6,59794.1752228436,0.0789999999997235
4,7,57702.4265296922,0.0789999999997235
4,8,58407.6141077202,0.079000000000633
4,9,63452.7987167661,0.0789999999997235
4,10,65103.8560438866,0.0799999999999272
4,11,62869.1554477365,0.0799999999999272
4,12,65422.0715788703,0.079000000000633
4,13,65394.4146808224,0.0779999999995198
4,14,65590.1317510301,0.0770000000002256
4,15,62119.2026629589,0.0779999999995198
4,16,64975.8965671507,0.0760000000000218
4,17,64918.8076156888,0.0770000000002256
4,18,62133.4556080155,0.0770000000002256
4,19,65144.2536049764,0.0769999999993161
4,20,58505.3185828284,0.0770000000002256
4,21,65031.3008266262,0.0799999999999272
4,22,65100.0578749444,0.0789999999997235
4,23,62605.7786879925,0.0770000000002256
4,24,59171.1311186279,0.0760000000000218
4,25,61356.6259477711,0.079000000000633
4,26,65274.2040309248,0.0779999999995198
4,27,64253.5291809331,0.0780000000004293
4,28,64797.9284454975,0.0769999999993161
4,29,62675.1145428311,0.0760000000000218
4,30,65123.4552560013,0.0770000000002256
5,6,60067.3589835852,0.0780000000004293
5,7,57975.6102904339,0.0789999999997235
5,8,58680.7978684618,0.0799999999999272
5,9,63725.9824775077,0.0799999999999272
5,10,70039.6013856776,0.0770000000002256
5,11,63142.3392084781,0.0769999999993161
5,12,69668.8336456306,0.0770000000002256
5,13,66850.9475306775,0.0760000000000218
5,14,67786.8310764419,0.0770000000002256
5,15,62392.3864237005,0.0770000000002256
5,16,69911.6419089418,0.0789999999997235
5,17,69854.5529574798,0.0779999999995198
5,18,62406.6393687571,0.0760000000000218
5,19,65911.8688894604,0.0760000000000218
5,20,58778.50234357,0.0770000000002256
5,21,69967.0461684172,0.079000000000633
5,22,70035.8032167354,0.0769999999993161
5,23,62878.9624487341,0.0760000000000218
5,24,59444.3148793695,0.0770000000002256
5,25,61629.8097085127,0.0770000000002256
5,26,70209.9493727158,0.0760000000000218
5,27,64526.7129416747,0.0769999999993161
5,28,69733.6737872886,0.0760000000000218
5,29,62948.2983035727,0.0770000000002256
5,30,70059.2005977923,0.0760000000000218
6,7,58119.1779853571,0.0770000000002256
6,8,58824.3655633851,0.0769999999993161
6,9,59977.7947060775,0.0770000000002256
6,10,59813.106915474,0.0770000000002256
6,11,60378.8819427825,0.0769999999993161
6,12,60131.3224504578,0.079000000000633
6,13,60103.6655524098,0.0770000000002256
6,14,60299.3826226176,0.0770000000002256
6,15,59781.9671429606,0.0770000000002256
6,16,59685.1474387381,0.0779999999995198
6,17,59628.0584872763,0.0799999999999272
6,18,60278.4193020878,0.0799999999999272
6,19,59853.5044765639,0.0799999999999272
6,20,58922.0700384933,0.0780000000004293
6,21,59740.5516982136,0.0770000000002256
6,22,59809.3087465318,0.0779999999995198
6,23,60344.4069672065,0.081000000000131
6,24,59587.8825742928,0.081000000000131
6,25,60251.7264405586,0.081000000000131
6,26,59983.4549025123,0.0789999999997235
6,27,59687.5181824778,0.0799999999999272
6,28,59507.179317085,0.0799999999999272
6,29,59844.3974256411,0.0799999999999272
6,30,59832.7061275887,0.0799999999999272
7,8,58053.5549346271,0.081000000000131
7,9,57886.0460129261,0.0799999999999272
7,10,57721.3582223226,0.081000000000131
7,11,58287.1332496312,0.0789999999997235
7,12,58039.5737573064,0.0770000000002256
7,13,58011.9168592585,0.0760000000000218
7,14,58207.6339294662,0.0770000000002256
7,15,57690.2184498092,0.0760000000000218
7,16,57593.3987455868,0.0760000000000218
7,17,57536.3097941249,0.0770000000002256
7,18,58186.6706089365,0.0770000000002256
7,19,57761.7557834125,0.0769999999993161
7,20,58341.6561954261,0.0770000000002256
7,21,57648.8030050622,0.0770000000002256
7,22,57717.5600533804,0.0779999999995198
7,23,58252.6582740552,0.0780000000004293
7,24,57751.2627138394,0.0799999999999272
7,25,58159.9777474072,0.0799999999999272
7,26,57891.7062093609,0.081000000000131
7,27,57595.7694893264,0.0799999999999272
7,28,57415.4306239336,0.0780000000004293
7,29,57752.6487324898,0.0769999999993161
7,30,57740.9574344373,0.081000000000131
8,9,58591.2335909541,0.079000000000633
8,10,58426.5458003506,0.0789999999997235
8,11,58992.3208276591,0.0779999999995198
8,12,58744.7613353343,0.079000000000633
8,13,58717.1044372864,0.0789999999997235
8,14,58912.8215074942,0.0799999999999272
8,15,58395.4060278372,0.081000000000131
8,16,58298.5863236147,0.0789999999997235
8,17,58241.4973721528,0.0820000000003347
8,18,58891.8581869644,0.0789999999997235
8,19,58466.9433614404,0.0799999999999272
8,20,58856.4469877633,0.0789999999997235
8,21,58353.9905830902,0.0799999999999272
8,22,58422.7476314084,0.0770000000002256
8,23,58957.8458520831,0.0770000000002256
8,24,58456.4502918674,0.0770000000002256
8,25,58865.1653254352,0.0769999999993161
8,26,58596.8937873889,0.0760000000000218
8,27,58300.9570673544,0.0770000000002256
8,28,58120.6182019616,0.0779999999995198
8,29,58457.8363105177,0.0799999999999272
8,30,58446.1450124653,0.0799999999999272
9,10,63471.7304093965,0.0799999999999272
9,11,63052.7749309704,0.081000000000131
9,12,63789.9459443802,0.081000000000131
9,13,63762.2890463323,0.0799999999999272
9,14,63958.0061165401,0.0799999999999272
9,15,62302.8221461928,0.081000000000131
9,16,63343.7709326606,0.0779999999995198
9,17,63286.6819811987,0.0780000000004293
9,18,62317.0750912494,0.0770000000002256
9,19,63512.1279704863,0.0789999999997235
9,20,58688.9380660623,0.0799999999999272
9,21,63399.1751921361,0.0770000000002256
9,22,63467.9322404543,0.0779999999995198
9,23,62789.3981712264,0.079000000000633
9,24,59354.7506018618,0.0789999999997235
9,25,61540.245431005,0.0789999999997235
9,26,63642.0783964347,0.0779999999995198
9,27,63346.1416764003,0.0780000000004293
9,28,63165.8028110074,0.0770000000002256
9,29,62858.734026065,0.0770000000002256
9,30,63491.3296215112,0.081000000000131
10,11,62888.0871403669,0.0799999999999272
10,12,69414.5815775193,0.0830000000005384
10,13,66596.6954625663,0.0789999999997235
10,14,67532.5790083307,0.0779999999995198
10,15,62138.1343555893,0.0780000000004293
10,16,70639.9286519889,0.0779999999995198
10,17,70582.839700527,0.0789999999997235
10,18,62152.3873006459,0.0799999999999272
10,19,65657.6168213492,0.079000000000633
10,20,58524.2502754588,0.0779999999995198
10,21,70695.3329114644,0.079000000000633
10,22,70764.0899597826,0.0779999999995198
10,23,62624.7103806229,0.0770000000002256
10,24,59190.0628112583,0.0760000000000218
10,25,61375.5576404015,0.0760000000000218
10,26,70938.236115763,0.0760000000000218
10,27,64272.4608735635,0.0779999999995198
10,28,70461.9605303357,0.0779999999995198
10,29,62694.0462354615,0.079000000000633
10,30,70787.4873408395,0.0799999999999272
11,12,63206.3026753507,0.0789999999997235
11,13,63178.6457773028,0.0799999999999272
11,14,63374.3628475105,0.0779999999995198
11,15,62703.9093828978,0.0760000000000218
11,16,62760.1276636311,0.0770000000002256
11,17,62703.0387121691,0.0760000000000218
11,18,62718.1623279544,0.0770000000002256
11,19,62928.4847014568,0.0770000000002256
11,20,59090.0253027673,0.0789999999997235
11,21,62815.5319231065,0.0800000000008367
11,22,62884.2889714247,0.0799999999999272
11,23,63190.4854079315,0.0789999999997235
11,24,59755.8378385669,0.0770000000002256
11,25,61941.33266771,0.0779999999995198
11,26,63058.4351274052,0.0780000000004293
11,27,62762.4984073707,0.0789999999997235
11,28,62582.1595419778,0.0789999999997235
11,29,62919.3776505341,0.079000000000633
11,30,62907.6863524816,0.0779999999995198
12,13,66914.9109975501,0.0770000000002256
12,14,67850.7945433145,0.0760000000000218
12,15,62456.3498905731,0.0760000000000218
12,16,69286.6221007835,0.0760000000000218
12,17,69229.5331493216,0.0760000000000218
12,18,62470.6028356296,0.0760000000000218
12,19,65975.8323563329,0.0760000000000218
12,20,58842.4658104426,0.0760000000000218
12,21,69342.0263602589,0.0760000000000218
12,22,69410.7834085771,0.0770000000002256
12,23,62942.9259156067,0.0770000000002256
12,24,59508.2783462421,0.0789999999997235
12,25,61693.7731753852,0.0770000000002256
12,26,69584.9295645576,0.0760000000000218
12,27,64590.6764085472,0.0760000000000218
12,28,69108.6539791303,0.0760000000000218
12,29,63012.2617704452,0.0769999999993161
12,30,69434.180789634,0.0760000000000218
13,14,67082.9711697099,0.0770000000002256
13,15,62428.6929925251,0.0760000000000218
13,16,66468.7359858304,0.0770000000002256
13,17,66411.6470343685,0.0760000000000218
13,18,62442.9459375817,0.0779999999995198
13,19,65948.175458285,0.0799999999999272
13,20,58814.8089123947,0.0780000000004293
13,21,66524.1402453059,0.0770000000002256
13,22,66592.8972936241,0.0760000000000218
13,23,62915.2690175588,0.0769999999993161
13,24,59480.6214481941,0.0780000000004293
13,25,61666.1162773373,0.0789999999997235
13,26,66767.0434496046,0.0770000000002256
13,27,64563.0195104993,0.0770000000002256
13,28,66290.7678641773,0.079000000000633
13,29,62984.6048723973,0.0769999999993161
13,30,66616.294674681,0.0760000000000218
14,15,62624.4100627329,0.0760000000000218
14,16,67404.6195315948,0.0770000000002256
14,17,67347.5305801329,0.0789999999997235
14,18,62638.6630077895,0.0780000000004293
14,19,66143.8925284928,0.0799999999999272
14,20,59010.5259826024,0.0799999999999272
14,21,67460.0237910703,0.081000000000131
14,22,67528.7808393885,0.0799999999999272
14,23,63110.9860877665,0.0799999999999272
14,24,59676.3385184019,0.0789999999997235
14,25,61861.8333475451,0.0770000000002256
14,26,67702.926995369,0.0770000000002256
14,27,64758.736580707,0.0779999999995198
14,28,67226.6514099417,0.0780000000004293
14,29,63180.321942605,0.0789999999997235
14,30,67552.1782204454,0.0799999999999272
15,16,62010.1748788534,0.0789999999997235
15,17,61953.0859273915,0.079000000000633
15,18,61905.7659866773,0.0799999999999272
15,19,62178.5319166791,0.0799999999999272
15,20,58493.1105029454,0.0789999999997235
15,21,62065.5791383289,0.0799999999999272
15,22,62134.3361866471,0.0780000000004293
15,23,62593.5706081095,0.0789999999997235
15,24,59158.9230387449,0.0779999999995198
15,25,61344.4178678881,0.079000000000633
15,26,62308.4823426275,0.0799999999999272
15,27,62012.5456225931,0.081000000000131
15,28,61832.2067572003,0.0799999999999272
15,29,62169.4248657564,0.0779999999995198
15,30,62157.733567704,0.0760000000000218
16,17,71938.6761566729,0.0770000000002256
16,18,62024.42782391,0.0769999999993161
16,19,65529.6573446133,0.0770000000002256
16,20,58396.2907987229,0.0760000000000218
16,21,74209.986737798,0.0770000000002256
16,22,74278.7437861161,0.0770000000002256
16,23,62496.7509038871,0.0789999999997235
16,24,59062.1033345224,0.0789999999997235
16,25,61247.5981636656,0.0799999999999272
16,26,71239.8367300159,0.0799999999999272
16,27,64144.5013968276,0.079000000000633
16,28,70943.2929112579,0.079000000000633
16,29,62566.0867587256,0.0769999999993161
16,30,71905.7439189091,0.0780000000004293
17,18,61967.3388724481,0.0770000000002256
17,19,65472.5683931514,0.0769999999993161
17,20,58339.2018472611,0.0780000000004293
17,21,71994.0804161483,0.0779999999995198
17,22,72062.8374644665,0.0770000000002256
17,23,62439.6619524252,0.0770000000002256
17,24,59005.0143830605,0.0779999999995198
17,25,61190.5092122038,0.0760000000000218
17,26,71182.747778554,0.0760000000000218
17,27,64087.4124453657,0.0770000000002256
17,28,70886.203959796,0.0770000000002256
17,29,62508.9978072637,0.0769999999993161
17,30,71848.6549674472,0.0770000000002256
18,19,62192.7848617357,0.0770000000002256
18,20,58989.5626620726,0.0770000000002256
18,21,62079.8320833855,0.0769999999993161
18,22,62148.5891317036,0.0770000000002256
18,23,62683.6873523784,0.0770000000002256
18,24,59655.3751978721,0.0770000000002256
18,25,61840.8700270153,0.0769999999993161
18,26,62322.7352876841,0.0770000000002256
18,27,62026.7985676496,0.0760000000000218
18,28,61846.4597022568,0.0760000000000218
18,29,62183.677810813,0.0760000000000218
18,30,62171.9865127606,0.0769999999993161
19,20,58564.6478365487,0.0780000000004293
19,21,65585.0616040888,0.0770000000002256
19,22,65653.8186524069,0.0770000000002256
19,23,62665.1079417128,0.0769999999993161
19,24,59230.4603723482,0.0770000000002256
19,25,61415.9552014914,0.0780000000004293
19,26,65827.9648083874,0.0789999999997235
19,27,64312.8584346533,0.0789999999997235
19,28,65351.6892229601,0.0789999999997235
19,29,62734.4437965513,0.0780000000004293
19,30,65677.2160334639,0.0770000000002256
20,21,58451.6950581984,0.0769999999993161
20,22,58520.4521065166,0.0770000000002256
20,23,59055.5503271913,0.0780000000004293
20,24,58554.1547669756,0.0769999999993161
20,25,58962.8698005434,0.079000000000633
20,26,58694.5982624971,0.0789999999997235
20,27,58398.6615424626,0.0799999999999272
20,28,58218.3226770698,0.0799999999999272
20,29,58555.540785626,0.0789999999997235
20,30,58543.8494875735,0.079000000000633
21,22,75063.6306867412,0.0789999999997235
21,23,62552.1551633625,0.0770000000002256
21,24,59117.5075939979,0.0770000000002256
21,25,61303.0024231411,0.0770000000002256
21,26,71295.2409894913,0.0780000000004293
21,27,64199.905656303,0.0769999999993161
21,28,70998.6971707334,0.0770000000002256
21,29,62621.4910182011,0.0770000000002256
21,30,71961.1481783846,0.0769999999993161
22,23,62620.9122116807,0.0770000000002256
22,24,59186.2646423161,0.0780000000004293
22,25,61371.7594714593,0.0769999999993161
22,26,71363.9980378095,0.0799999999999272
22,27,64268.6627046212,0.0780000000004293
22,28,71067.4542190515,0.0789999999997235
22,29,62690.2480665193,0.079000000000633
22,30,72029.9052267028,0.0789999999997235
23,24,59721.3628629908,0.081000000000131
23,25,61906.857692134,0.0799999999999272
23,26,62795.0583676612,0.0779999999995198
23,27,62499.1216476267,0.0780000000004293
23,28,62318.7827822339,0.0770000000002256
23,29,62656.00089079,0.0799999999999272
23,30,62644.3095927376,0.0799999999999272
24,25,59628.6823363429,0.0799999999999272
24,26,59360.4107982966,0.0799999999999272
24,27,59064.4740782621,0.0789999999997235
24,28,58884.1352128693,0.0780000000004293
24,29,59221.3533214254,0.0779999999995198
24,30,59209.662023373,0.0770000000002256
25,26,61545.9056274398,0.0780000000004293
25,27,61249.9689074053,0.0769999999993161
25,28,61069.6300420125,0.0780000000004293
25,29,61406.8481505687,0.0779999999995198
25,30,61395.1568525162,0.0780000000004293
26,27,64442.8088606017,0.0770000000002256
26,28,71061.8686083627,0.0789999999997235
26,29,62864.3942224997,0.0760000000000218
26,30,71387.3954188664,0.0760000000000218
27,28,63966.5332751744,0.0760000000000218
27,29,62568.4575024653,0.0760000000000218
27,30,64292.0600856782,0.0760000000000218
28,29,62388.1186370724,0.0760000000000218
28,30,71036.3847024188,0.0760000000000218
29,30,62713.6454475762,0.0749999999998181


"After.Trace.ID","Before.Trace.ID","Difference","Runtime"
1,1,61853.6738119428,0.0770000000002256
1,2,72465.0744849554,0.0779999999995198
1,3,64262.141238518,0.0770000000002256
1,4,64810.0143539264,0.0779999999995198
1,5,69745.7596957175,0.0780000000004293
1,6,59519.2652255138,0.0770000000002256
1,7,57427.5165323625,0.0779999999995198
1,8,58132.7041103904,0.0770000000002256
1,9,63177.8887194363,0.0769999999993161
1,10,70474.0464387646,0.0780000000004293
1,11,62594.2454504067,0.0779999999995198
1,12,69120.7398875591,0.0780000000004293
1,13,66302.8537726061,0.0780000000004293
1,14,67238.7373183705,0.0769999999993161
1,15,61844.2926656291,0.0770000000002256
1,16,72476.7338673468,0.0779999999995198
1,17,71772.7939434486,0.0780000000004293
1,18,61858.5456106857,0.0770000000002256
1,19,65363.775131389,0.0770000000002256
1,20,58230.4085854986,0.0780000000004293
1,21,72532.1381268223,0.0779999999995198
1,22,72600.8951751405,0.0780000000004293
1,23,62330.8686906628,0.0769999999993161
1,24,58896.2211212981,0.0770000000002256
1,25,61081.7159504413,0.0780000000004293
1,26,71073.9545167916,0.0770000000002256
1,27,63978.6191836033,0.0780000000004293
1,28,70777.4106980336,0.0779999999995198
1,29,62400.2045455013,0.0780000000004293
1,30,71739.8617056848,0.0779999999995198
2,1,60136.5659101721,0.0780000000004293
2,2,59814.027012928,0.0779999999995198
2,3,60460.2765492331,0.0780000000004293
2,4,59934.7141794248,0.0779999999995198
2,5,60207.8979401664,0.0780000000004293
2,6,59985.2007788677,0.0770000000002256
2,7,57893.4520857164,0.0770000000002256
2,8,58598.6396637443,0.0779999999995198
2,9,60118.3336626587,0.0780000000004293
2,10,59953.6458720552,0.0779999999995198
2,11,60519.4208993638,0.0780000000004293
2,12,60271.861407039,0.0780000000004293
2,13,60244.204508991,0.0779999999995198
2,14,60439.9215791988,0.0780000000004293
2,15,59922.5060995418,0.0779999999995198
2,16,59825.6863953193,0.0780000000004293
2,17,59768.5974438575,0.0770000000002256
2,18,60418.958258669,0.0779999999995198
2,19,59994.0434331451,0.0780000000004293
2,20,58696.3441388525,0.0780000000004293
2,21,59881.0906547948,0.0779999999995198
2,22,59949.847703113,0.081000000000131
2,23,60484.9459237877,0.0779999999995198
2,24,59362.156674652,0.0780000000004293
2,25,60392.2653971398,0.0779999999995198
2,26,60123.9938590935,0.0780000000004293
2,27,59828.057139059,0.0779999999995198
2,28,59647.7182736662,0.0780000000004293
2,29,59984.9363822224,0.0779999999995198
2,30,59973.2450841699,0.079000000000633
3,1,62029.5345076386,0.0779999999995198
3,2,68840.6064088653,0.0780000000004293
3,3,64438.0019342138,0.0779999999995198
3,4,64985.8750496221,0.0780000000004293
3,5,69234.4773361038,0.0779999999995198
3,6,59695.1259212096,0.0789999999997235
3,7,57603.3772280582,0.0780000000004293
3,8,58308.5648060862,0.0789999999997235
3,9,63353.7494151321,0.0780000000004293
3,10,68980.2252679926,0.0779999999995198
3,11,62770.1061461025,0.079000000000633
3,12,68969.0570238752,0.0779999999995198
3,13,66478.7144683019,0.0780000000004293
3,14,67414.5980140663,0.0780000000004293
3,15,62020.1533613249,0.0789999999997235
3,16,68852.2657912567,0.0780000000004293
3,17,68795.1768397948,0.0779999999995198
3,18,62034.4063063814,0.0780000000004293
3,19,65539.6358270847,0.0789999999997235
3,20,58406.2692811944,0.0779999999995198
3,21,68907.6700507322,0.079000000000633
3,22,68976.4270990504,0.0779999999995198
3,23,62506.7293863585,0.079000000000633
3,24,59072.0818169939,0.0779999999995198
3,25,61257.5766461371,0.0789999999997235
3,26,69150.5732550308,0.0780000000004293
3,27,64154.479879299,0.0789999999997235
3,28,68674.2976696035,0.0780000000004293
3,29,62576.0652411971,0.0789999999997235
3,30,68999.8244801073,0.0780000000004293
4,1,62399.3754554944,0.0789999999997235
4,2,65131.9301246658,0.0789999999997235
4,3,64807.8428820696,0.079000000000633
4,4,65252.6172911626,0.0779999999995198
4,5,65525.8010519043,0.0789999999997235
4,6,60064.9668690654,0.0780000000004293
4,7,57973.218175914,0.0779999999995198
4,8,58678.405753942,0.0780000000004293
4,9,63723.5903629879,0.0780000000004293
4,10,65271.548983793,0.0789999999997235
4,11,63139.9470939583,0.0780000000004293
4,12,65589.7645187768,0.0789999999997235
4,13,65562.1076207289,0.0780000000004293
4,14,65757.8246909366,0.0780000000004293
4,15,62389.9943091807,0.0789999999997235
4,16,65143.5895070572,0.0780000000004293
4,17,65086.5005555953,0.0789999999997235
4,18,62404.2472542372,0.0770000000002256
4,19,65311.9465448829,0.0769999999993161
4,20,58776.1102290502,0.0770000000002256
4,21,65198.9937665326,0.0760000000000218
4,22,65267.7508148508,0.0760000000000218
4,23,62876.5703342143,0.0770000000002256
4,24,59441.9227648497,0.0769999999993161
4,25,61627.4175939929,0.0770000000002256
4,26,65441.8969708313,0.0770000000002256
4,27,64524.3208271548,0.0770000000002256
4,28,64965.621385404,0.0769999999993161
4,29,62945.9061890528,0.0770000000002256
4,30,65291.1481959078,0.0770000000002256
5,1,62185.9992601802,0.0769999999993161
5,2,67796.983892051,0.0770000000002256
5,3,64594.4666867554,0.0760000000000218
5,4,65142.3398021638,0.0760000000000218
5,5,68190.8548192894,0.0760000000000218
5,6,59851.5906737513,0.0760000000000218
5,7,57759.8419805999,0.0770000000002256
5,8,58465.0295586278,0.0770000000002256
5,9,63510.2141676737,0.0760000000000218
5,10,67936.6027511783,0.0770000000002256
5,11,62926.5708986442,0.0770000000002256
5,12,68254.818286162,0.0770000000002256
5,13,66635.1792208436,0.0769999999993161
5,14,67571.062766608,0.0770000000002256
5,15,62176.6181138665,0.0770000000002256
5,16,67808.6432744424,0.0769999999993161
5,17,67751.5543229805,0.0770000000002256
5,18,62190.8710589231,0.0770000000002256
5,19,65696.1005796264,0.0770000000002256
5,20,58562.7340337361,0.0769999999993161
5,21,67864.0475339179,0.0770000000002256
5,22,67932.804582236,0.0770000000002256
5,23,62663.1941389002,0.0770000000002256
5,24,59228.5465695356,0.0769999999993161
5,25,61414.0413986788,0.0770000000002256
5,26,68106.9507382165,0.0770000000002256
5,27,64310.9446318407,0.0769999999993161
5,28,67630.6751527892,0.0780000000004293
5,29,62732.5299937387,0.0770000000002256
5,30,67956.201963293,0.0769999999993161
6,1,62018.0195784139,0.0780000000004293
6,2,68220.703464577,0.0770000000002256
6,3,64426.4870049891,0.0769999999993161
6,4,64974.3601203975,0.0770000000002256
6,5,68614.5743918155,0.0770000000002256
6,6,59683.6109919849,0.0769999999993161
6,7,57591.8622988335,0.0780000000004293
6,8,58297.0498768615,0.0770000000002256
6,9,63342.2344859074,0.0779999999995198
6,10,68360.3223237043,0.0770000000002256
6,11,62758.5912168778,0.0779999999995198
6,12,68678.537858688,0.0770000000002256
6,13,66467.1995390772,0.0780000000004293
6,14,67403.0830848416,0.0770000000002256
6,15,62008.6384321002,0.0779999999995198
6,16,68232.3628469684,0.0770000000002256
6,17,68175.2738955065,0.0779999999995198
6,18,62022.8913771567,0.0770000000002256
6,19,65528.12089786,0.0770000000002256
6,20,58394.7543519697,0.0770000000002256
6,21,68287.7671064439,0.0770000000002256
6,22,68356.5241547621,0.0769999999993161
6,23,62495.2144571338,0.0770000000002256
6,24,59060.5668877692,0.0770000000002256
6,25,61246.0617169124,0.0779999999995198
6,26,68530.6703107425,0.0780000000004293
6,27,64142.9649500743,0.0769999999993161
6,28,68054.3947253152,0.0780000000004293
6,29,62564.5503119724,0.0780000000004293
6,30,68379.921535819,0.0769999999993161
7,1,62043.6528879665,0.0780000000004293
7,2,64460.984455781,0.0779999999995198
7,3,64452.1203145418,0.0770000000002256
7,4,64581.6716222778,0.0780000000004293
7,5,64854.8553830195,0.0779999999995198
7,6,59709.2443015375,0.0770000000002256
7,7,57617.4956083862,0.0779999999995198
7,8,58322.6831864141,0.0780000000004293
7,9,63367.86779546,0.0780000000004293
7,10,64600.6033149082,0.0779999999995198
7,11,62784.2245264305,0.0780000000004293
7,12,64918.818849892,0.0779999999995198
7,13,64891.1619518441,0.0770000000002256
7,14,65086.8790220518,0.0779999999995198
7,15,62034.2717416528,0.0780000000004293
7,16,64472.6438381723,0.0779999999995198
7,17,64415.5548867105,0.0800000000008367
7,18,62048.5246867094,0.0799999999999272
7,19,64641.0008759981,0.0789999999997235
7,20,58420.3876615223,0.081000000000131
7,21,64528.0480976478,0.0779999999995198
7,22,64596.805145966,0.079000000000633
7,23,62520.8477666864,0.0789999999997235
7,24,59086.2001973218,0.0799999999999272
7,25,61271.695026465,0.081000000000131
7,26,64770.9513019465,0.0799999999999272
7,27,64168.598259627,0.0799999999999272
7,28,64294.6757165192,0.0789999999997235
7,29,62590.183621525,0.0789999999997235
7,30,64620.2025270229,0.079000000000633
8,1,62133.7671617998,0.0779999999995198
8,2,66172.2480603107,0.0789999999997235
8,3,64542.234588375,0.0800000000008367
8,4,65090.1077037834,0.0789999999997235
8,5,66566.1189875491,0.081000000000131
8,6,59799.3585753708,0.0799999999999272
8,7,57707.6098822194,0.0789999999997235
8,8,58412.7974602474,0.0780000000004293
8,9,63457.9820692933,0.0789999999997235
8,10,66311.8669194379,0.0779999999995198
8,11,62874.3388002637,0.0780000000004293
8,12,66630.0824544216,0.0780000000004293
8,13,66582.9471224631,0.0780000000004293
8,14,66798.1426265815,0.0779999999995198
8,15,62124.3860154861,0.0780000000004293
8,16,66183.9074427021,0.0779999999995198
8,17,66126.8184912402,0.0780000000004293
8,18,62138.6389605426,0.0789999999997235
8,19,65643.8684812459,0.0799999999999272
8,20,58510.5019353556,0.081000000000131
8,21,66239.3117021775,0.0799999999999272
8,22,66308.0687504957,0.0799999999999272
8,23,62610.9620405197,0.0789999999997235
8,24,59176.3144711551,0.079000000000633
8,25,61361.8093002983,0.0779999999995198
8,26,66482.2149064762,0.0780000000004293
8,27,64258.7125334602,0.0789999999997235
8,28,66005.9393210489,0.0780000000004293
8,29,62680.2978953582,0.0779999999995198
8,30,66331.4661315526,0.0789999999997235
9,1,62342.4544215837,0.0780000000004293
9,2,64743.8985986851,0.0780000000004293
9,3,64750.9218481589,0.0780000000004293
9,4,64864.5857651819,0.0779999999995198
9,5,65137.7695259235,0.079000000000633
9,6,60008.0458351547,0.0779999999995198
9,7,57916.2971420033,0.0780000000004293
9,8,58621.4847200313,0.0789999999997235
9,9,63666.6693290772,0.0780000000004293
9,10,64883.5174578123,0.0779999999995198
9,11,63083.0260600476,0.0789999999997235
9,12,65201.732992796,0.0780000000004293
9,13,65174.0760947481,0.0789999999997235
9,14,65369.7931649559,0.0780000000004293
9,15,62333.07327527,0.0789999999997235
9,16,64755.5579810764,0.0780000000004293
9,17,64698.4690296145,0.0780000000004293
9,18,62347.3262203266,0.0779999999995198
9,19,64923.9150189022,0.0780000000004293
9,20,58719.1891951395,0.0779999999995198
9,21,64810.9622405519,0.0780000000004293
9,22,64879.7192888701,0.0779999999995198
9,23,62819.6493003036,0.0779999999995198
9,24,59385.001730939,0.079000000000633
9,25,61570.4965600822,0.0779999999995198
9,26,65053.8654448506,0.0789999999997235
9,27,64467.3997932441,0.0780000000004293
9,28,64577.5898594233,0.0779999999995198
9,29,62888.9851551421,0.079000000000633
9,30,64903.116669927,0.0779999999995198
10,1,61944.2722247749,0.0770000000002256
10,2,67630.7777741655,0.0770000000002256
10,3,64352.7396513501,0.0760000000000218
10,4,64900.6127667584,0.0770000000002256
10,5,68024.648701404,0.0769999999993161
10,6,59609.8636383459,0.0770000000002256
10,7,57518.1149451945,0.0770000000002256
10,8,58223.3025232225,0.0760000000000218
10,9,63268.4871322684,0.0770000000002256
10,10,67770.3966332928,0.0769999999993161
10,11,62684.8438632388,0.0770000000002256
10,12,68088.6121682766,0.0770000000002256
10,13,66393.4521854382,0.0770000000002256
10,14,67329.3357312026,0.0769999999993161
10,15,61934.8910784612,0.0770000000002256
10,16,67642.4371565569,0.0770000000002256
10,17,67585.348205095,0.0770000000002256
10,18,61949.1440235177,0.0769999999993161
10,19,65454.373544221,0.0770000000002256
10,20,58321.0069983307,0.0770000000002256
10,21,67697.8414160324,0.0770000000002256
10,22,67766.5984643506,0.0769999999993161
10,23,62421.4671034948,0.0770000000002256
10,24,58986.8195341302,0.0770000000002256
10,25,61172.3143632734,0.0770000000002256
10,26,67940.7446203311,0.0769999999993161
10,27,64069.2175964353,0.0780000000004293
10,28,67464.4690349037,0.0770000000002256
10,29,62490.8029583334,0.0770000000002256
10,30,67789.9958454075,0.0769999999993161
11,1,60788.6894974733,0.0770000000002256
11,2,60466.1506002291,0.0770000000002256
11,3,61112.4001365342,0.0770000000002256
11,4,60586.837766726,0.0770000000002256
11,5,60860.0215274676,0.0770000000002256
11,6,59823.4552993033,0.0770000000002256
11,7,57731.7066061519,0.0769999999993161
11,8,58436.8941841799,0.0770000000002256
11,9,60770.4572499599,0.0770000000002256
11,10,60605.7694593564,0.0769999999993161
11,11,61171.5444866649,0.0770000000002256
11,12,60923.9849943401,0.0780000000004293
11,13,60896.3280962922,0.0769999999993161
11,14,61092.0451664999,0.0770000000002256
11,15,60574.6296868429,0.0770000000002256
11,16,60477.8099826205,0.0779999999995198
11,17,60420.7210311586,0.0770000000002256
11,18,61071.0818459702,0.0770000000002256
11,19,60646.1670204462,0.0770000000002256
11,20,58534.5986592881,0.0770000000002256
11,21,60533.214242096,0.0770000000002256
11,22,60601.9712904142,0.0770000000002256
11,23,61137.0695110889,0.0770000000002256
11,24,59200.4111950876,0.0770000000002256
11,25,61044.3889844409,0.0770000000002256
11,26,60776.1174463946,0.0769999999993161
11,27,60480.1807263602,0.0770000000002256
11,28,60299.8418609673,0.0770000000002256
11,29,60637.0599695235,0.0779999999995198
11,30,60625.3686714711,0.0770000000002256
12,1,58765.0384397979,0.0779999999995198
12,2,58442.4995425537,0.0770000000002256
12,3,59088.7490788588,0.0770000000002256
12,4,58563.1867090505,0.0769999999993161
12,5,58836.3704697922,0.0780000000004293
12,6,58979.9381647154,0.0770000000002256
12,7,57809.3883231984,0.0779999999995198
12,8,58514.5759012264,0.0780000000004293
12,9,58746.8061922844,0.0769999999993161
12,10,58582.1184016809,0.0770000000002256
12,11,59147.8934289895,0.0780000000004293
12,12,58900.3339366647,0.0769999999993161
12,13,58872.6770386168,0.0780000000004293
12,14,59068.3941088245,0.0779999999995198
12,15,58550.9786291675,0.0770000000002256
12,16,58454.158924945,0.0780000000004293
12,17,58397.0699734832,0.0769999999993161
12,18,59047.4307882947,0.0770000000002256
12,19,58622.5159627708,0.0779999999995198
12,20,58612.2803763346,0.0780000000004293
12,21,58509.5631844205,0.0779999999995198
12,22,58578.3202327387,0.0780000000004293
12,23,59113.4184534135,0.0770000000002256
12,24,58612.0228931977,0.0769999999993161
12,25,59020.7379267655,0.0780000000004293
12,26,58752.4663887192,0.0779999999995198
12,27,58456.5296686847,0.0770000000002256
12,28,58276.1908032919,0.0770000000002256
12,29,58613.4089118481,0.0789999999997235
12,30,58601.7176137956,0.0779999999995198
13,1,62172.4539125701,0.0780000000004293
13,2,64298.3880135201,0.0770000000002256
13,3,64580.9213391453,0.0769999999993161
13,4,64419.075180017,0.0780000000004293
13,5,64692.2589407586,0.0779999999995198
13,6,59838.0453261411,0.0780000000004293
13,7,57746.2966329897,0.0779999999995198
13,8,58451.4842110177,0.0780000000004293
13,9,63496.6688200636,0.0779999999995198
13,10,64438.0068726474,0.0780000000004293
13,11,62913.025551034,0.0779999999995198
13,12,64756.2224076311,0.0780000000004293
13,13,64728.5655095832,0.0780000000004293
13,14,64924.282579791,0.0769999999993161
13,15,62163.0727662564,0.0770000000002256
13,16,64310.0473959115,0.0769999999993161
13,17,64252.9584444496,0.0770000000002256
13,18,62177.325711313,0.0779999999995198
13,19,64478.4044337373,0.079000000000633
13,20,58549.1886861259,0.0779999999995198
13,21,64365.451655387,0.0780000000004293
13,22,64434.2087037052,0.0779999999995198
13,23,62649.64879129,0.0780000000004293
13,24,59215.0012219254,0.0779999999995198
13,25,61400.4960510686,0.0780000000004293
13,26,64608.3548596857,0.0779999999995198
13,27,64297.3992842306,0.0780000000004293
13,28,64132.0792742584,0.0779999999995198
13,29,62718.9846461286,0.0780000000004293
13,30,64457.6060847621,0.0780000000004293
14,1,61861.3312073463,0.0779999999995198
14,2,77358.1234555592,0.0779999999995198
14,3,64269.7986339215,0.0780000000004293
14,4,64817.6717493299,0.0779999999995198
14,5,69753.4170911209,0.0780000000004293
14,6,59526.9226209173,0.0779999999995198
14,7,57435.1739277659,0.0780000000004293
14,8,58140.3615057939,0.0779999999995198
14,9,63185.5461148398,0.079000000000633
14,10,70481.7038341681,0.0779999999995198
14,11,62601.9028458102,0.0780000000004293
14,12,69128.3972829626,0.0779999999995198
14,13,66310.5111680096,0.0780000000004293
14,14,67246.394713774,0.0780000000004293
14,15,61851.9500610326,0.0780000000004293
14,16,73996.3576605017,0.0789999999997235
14,17,71780.4513388521,0.0779999999995198
14,18,61866.2030060892,0.0780000000004293
14,19,65371.4325267925,0.0789999999997235
14,20,58238.0659809021,0.0780000000004293
14,21,74781.2445611267,0.0779999999995198
14,22,75407.7989584718,0.079000000000633
14,23,62338.5260860662,0.0779999999995198
14,24,58903.8785167016,0.0789999999997235
14,25,61089.3733458448,0.0780000000004293
14,26,71081.6119121951,0.0789999999997235
14,27,63986.2765790067,0.0780000000004293
14,28,70785.068093437,0.0779999999995198
14,29,62407.8619409048,0.079000000000633
14,30,71747.5191010883,0.0789999999997235
15,1,62275.1660351497,0.0779999999995198
15,2,62678.1935040287,0.0780000000004293
15,3,63324.4430403338,0.0779999999995198
15,4,62798.8806705255,0.0780000000004293
15,5,63072.0644312671,0.0789999999997235
15,6,59940.7574487207,0.0779999999995198
15,7,57849.0087555693,0.079000000000633
15,8,58554.1963335973,0.0779999999995198
15,9,62982.5001537594,0.079000000000633
15,10,62817.8123631559,0.0779999999995198
15,11,63015.7376736136,0.0789999999997235
15,12,63136.0278981397,0.0780000000004293
15,13,63108.3710000917,0.0779999999995198
15,14,63304.0880702995,0.0760000000000218
15,15,62265.784888836,0.0770000000002256
15,16,62689.85288642,0.0770000000002256
15,17,62632.7639349582,0.0770000000002256
15,18,62280.0378338926,0.0759999999991123
15,19,62858.2099242458,0.0760000000000218
15,20,58651.9008087055,0.0770000000002256
15,21,62745.2571458955,0.0770000000002256
15,22,62814.0141942137,0.0770000000002256
15,23,62752.3609138696,0.0769999999993161
15,24,59317.713344505,0.0770000000002256
15,25,61503.2081736482,0.0760000000000218
15,26,62988.1603501942,0.0770000000002256
15,27,62692.2236301597,0.0769999999993161
15,28,62511.8847647669,0.0770000000002256
15,29,62610.349324747,0.0770000000002256
15,30,62837.4115752706,0.0770000000002256
16,1,62204.6758842036,0.0769999999993161
16,2,75333.4326090627,0.0770000000002256
16,3,64613.1433107788,0.0770000000002256
16,4,65161.0164261872,0.0770000000002256
16,5,70096.7617679782,0.0769999999993161
16,6,59870.2672977746,0.0780000000004293
16,7,57778.5186046232,0.0789999999997235
16,8,58483.7061826512,0.0799999999999272
16,9,63528.8907916971,0.0789999999997235
16,10,70825.0485110254,0.079000000000633
16,11,62945.2475226675,0.0789999999997235
16,12,69471.7419598199,0.0789999999997235
16,13,66653.8558448669,0.0799999999999272
16,14,67589.7393906313,0.0799999999999272
16,15,62195.2947378899,0.0799999999999272
16,16,74339.702337359,0.079000000000633
16,17,72123.7960157093,0.0789999999997235
16,18,62209.5476829465,0.0789999999997235
16,19,65714.7772036497,0.0789999999997235
16,20,58581.4106577594,0.0799999999999272
16,21,75124.589237984,0.0799999999999272
16,22,75469.2532992476,0.081000000000131
16,23,62681.8707629235,0.0799999999999272
16,24,59247.2231935589,0.079000000000633
16,25,61432.7180227021,0.0789999999997235
16,26,71424.9565890523,0.0779999999995198
16,27,64329.6212558641,0.0780000000004293
16,28,71128.4127702944,0.0770000000002256
16,29,62751.2066177621,0.079000000000633
16,30,72090.8637779456,0.0799999999999272
17,1,62098.3370682295,0.0779999999995198
17,2,72313.1351219364,0.0780000000004293
17,3,64506.8044948047,0.0770000000002256
17,4,65054.6776102131,0.0799999999999272
17,5,69990.4229520042,0.0799999999999272
17,6,59763.9284818006,0.081000000000131
17,7,57672.1797886492,0.0819999999994252
17,8,58377.3673666771,0.081000000000131
17,9,63422.551975723,0.0799999999999272
17,10,70718.7096950514,0.0780000000004293
17,11,62838.9087066935,0.0770000000002256
17,12,69365.4031438459,0.0779999999995198
17,13,66547.5170288928,0.0780000000004293
17,14,67483.4005746573,0.0769999999993161
17,15,62088.9559219158,0.0780000000004293
17,16,72324.7945043277,0.0779999999995198
17,17,72017.4571997353,0.0770000000002256
17,18,62103.2088669724,0.0780000000004293
17,19,65608.4383876757,0.0779999999995198
17,20,58475.0718417854,0.0789999999997235
17,21,72380.1987638032,0.079000000000633
17,22,72448.9558121214,0.0789999999997235
17,23,62575.5319469495,0.0779999999995198
17,24,59140.8843775849,0.079000000000633
17,25,61326.3792067281,0.0789999999997235
17,26,71318.6177730783,0.0789999999997235
17,27,64223.28243989,0.0799999999999272
17,28,71022.0739543203,0.0820000000003347
17,29,62644.867801788,0.0819999999994252
17,30,71984.5249619716,0.081000000000131
18,1,62153.6114119884,0.0799999999999272
18,2,67707.2209666446,0.0780000000004293
18,3,64562.0788385636,0.0770000000002256
18,4,65109.951953972,0.0800000000008367
18,5,68101.0918938831,0.0779999999995198
18,6,59819.2028255594,0.0780000000004293
18,7,57727.454132408,0.0779999999995198
18,8,58432.641710436,0.0780000000004293
18,9,63477.8263194819,0.0769999999993161
18,10,67846.8398257719,0.0770000000002256
18,11,62894.1830504523,0.0799999999999272
18,12,68165.0553607556,0.0820000000003347
18,13,66602.7913726517,0.0799999999999272
18,14,67538.6749184161,0.0779999999995198
18,15,62144.2302656747,0.0780000000004293
18,16,67718.880349036,0.0779999999995198
18,17,67661.7913975741,0.0780000000004293
18,18,62158.4832107312,0.0779999999995198
18,19,65663.7127314346,0.0780000000004293
18,20,58530.3461855442,0.0789999999997235
18,21,67774.2846085115,0.0780000000004293
18,22,67843.0416568297,0.0779999999995198
18,23,62630.8062907083,0.0780000000004293
18,24,59196.1587213437,0.0779999999995198
18,25,61381.6535504869,0.0770000000002256
18,26,68017.1878128102,0.0779999999995198
18,27,64278.5567836488,0.0789999999997235
18,28,67540.9122273828,0.079000000000633
18,29,62700.1421455469,0.0779999999995198
18,30,67866.4390378866,0.0789999999997235
19,1,61963.2966996491,0.0780000000004293
19,2,72364.74995025,0.0779999999995198
19,3,64371.7641262243,0.0780000000004293
19,4,64919.6372416327,0.0779999999995198
19,5,69855.3825834237,0.0780000000004293
19,6,59628.8881132201,0.0789999999997235
19,7,57537.1394200688,0.081000000000131
19,8,58242.3269980967,0.0779999999995198
19,9,63287.5116071426,0.0780000000004293
19,10,70583.6693264709,0.0780000000004293
19,11,62703.868338113,0.0789999999997235
19,12,69230.3627752654,0.0779999999995198
19,13,66412.4766603124,0.0780000000004293
19,14,67348.3602060768,0.0789999999997235
19,15,61953.9155533354,0.0799999999999272
19,16,72376.4093326413,0.0780000000004293
19,17,71882.4168311549,0.0789999999997235
19,18,61968.168498392,0.0780000000004293
19,19,65473.3980190953,0.0779999999995198
19,20,58340.0314732049,0.0780000000004293
19,21,72431.8135921168,0.0779999999995198
19,22,72500.570640435,0.0789999999997235
19,23,62440.491578369,0.0780000000004293
19,24,59005.8440090044,0.0789999999997235
19,25,61191.3388381476,0.0780000000004293
19,26,71183.5774044979,0.0779999999995198
19,27,64088.2420713096,0.0780000000004293
19,28,70887.0335857399,0.0789999999997235
19,29,62509.8274332076,0.0780000000004293
19,30,71849.4845933911,0.0789999999997235
20,1,61980.3148016495,0.0780000000004293
20,2,71442.1553724535,0.0779999999995198
20,3,64388.7822282248,0.0780000000004293
20,4,64936.6553436331,0.0780000000004293
20,5,69872.4006854242,0.0779999999995198
20,6,59645.9062152206,0.0780000000004293
20,7,57554.1575220692,0.0779999999995198
20,8,58259.3451000971,0.0780000000004293
20,9,63304.529709143,0.0789999999997235
20,10,70600.6874284714,0.0780000000004293
20,11,62720.8864401134,0.0799999999999272
20,12,69247.3808772659,0.0779999999995198
20,13,66429.4947623129,0.0780000000004293
20,14,67365.3783080773,0.0779999999995198
20,15,61970.9336553358,0.0779999999995198
20,16,71453.8147548449,0.0780000000004293
20,17,71396.725803383,0.0789999999997235
20,18,61985.1866003924,0.079000000000633
20,19,65490.4161210957,0.0779999999995198
20,20,58357.0495752054,0.0789999999997235
20,21,71509.2190143203,0.0780000000004293
20,22,71577.9760626385,0.0789999999997235
20,23,62457.5096803695,0.0780000000004293
20,24,59022.8621110048,0.0789999999997235
20,25,61208.3569401481,0.0789999999997235
20,26,71200.5955064983,0.0799999999999272
20,27,64105.26017331,0.0770000000002256
20,28,70904.0516877403,0.0760000000000218
20,29,62526.845535208,0.0760000000000218
20,30,70824.2053710769,0.0760000000000218
21,1,61725.9679869058,0.0769999999993161
21,2,61403.4290896617,0.0770000000002256
21,3,62049.6786259668,0.0770000000002256
21,4,61524.1162561585,0.0770000000002256
21,5,61797.3000169001,0.0770000000002256
21,6,59762.088627623,0.0770000000002256
21,7,57670.3399344716,0.0770000000002256
21,8,58375.5275124996,0.0769999999993161
21,9,61707.7357393924,0.0770000000002256
21,10,61543.0479487889,0.0770000000002256
21,11,62108.8229760974,0.0770000000002256
21,12,61861.2634837727,0.0770000000002256
21,13,61833.6065857247,0.0770000000002256
21,14,62029.3236559325,0.0770000000002256
21,15,61511.9081762755,0.0769999999993161
21,16,61415.088472053,0.0770000000002256
21,17,61357.9995205912,0.0770000000002256
21,18,62008.3603354027,0.0770000000002256
21,19,61583.4455098788,0.0769999999993161
21,20,58473.2319876078,0.0770000000002256
21,21,61470.4927315285,0.0770000000002256
21,22,61539.2497798467,0.0769999999993161
21,23,62074.3480005214,0.0770000000002256
21,24,59139.0445234073,0.0770000000002256
21,25,61324.5393525505,0.0770000000002256
21,26,61713.3959358272,0.0770000000002256
21,27,61417.4592157927,0.0770000000002256
21,28,61237.1203503999,0.0770000000002256
21,29,61574.3384589561,0.0769999999993161
21,30,61562.6471609036,0.0770000000002256
22,1,62256.7045237397,0.0779999999995198
22,2,69460.3662935021,0.079000000000633
22,3,64665.1719503149,0.0799999999999272
22,4,65213.0450657233,0.0789999999997235
22,5,69854.2372207406,0.0789999999997235
22,6,59922.2959373107,0.0780000000004293
22,7,57830.5472441594,0.0779999999995198
22,8,58535.7348221873,0.0770000000002256
22,9,63580.9194312332,0.0780000000004293
22,10,69599.9851526293,0.0769999999993161
22,11,62997.2761622036,0.0770000000002256
22,12,69523.7705993561,0.0780000000004293
22,13,66705.884484403,0.0770000000002256
22,14,67641.7680301675,0.0769999999993161
22,15,62247.323377426,0.0770000000002256
22,16,69472.0256758935,0.0770000000002256
22,17,69414.9367244316,0.0779999999995198
22,18,62261.5763224826,0.0770000000002256
22,19,65766.8058431859,0.0779999999995198
22,20,58633.4392972955,0.0780000000004293
22,21,69527.429935369,0.0779999999995198
22,22,69596.1869836871,0.079000000000633
22,23,62733.8994024597,0.0789999999997235
22,24,59299.2518330951,0.0799999999999272
22,25,61484.7466622383,0.0799999999999272
22,26,69770.3331396676,0.0789999999997235
22,27,64381.6498954002,0.0800000000008367
22,28,69294.0575542403,0.0850000000000364
22,29,62803.2352572982,0.0979999999999563
22,30,69619.5843647441,0.0780000000004293
23,1,62369.6727805624,0.0789999999997235
23,2,66089.5742896855,0.0789999999997235
23,3,64778.1402071376,0.079000000000633
23,4,65326.013322546,0.0769999999993161
23,5,66483.4452169239,0.0780000000004293
23,6,60035.2641941334,0.0779999999995198
23,7,57943.5155009821,0.0780000000004293
23,8,58648.70307901,0.0789999999997235
23,9,63693.8876880559,0.0780000000004293
23,10,66229.1931488127,0.0779999999995198
23,11,63110.2444190263,0.0799999999999272
23,12,66547.4086837965,0.0780000000004293
23,13,66519.7517857486,0.0780000000004293
23,14,66715.4688559563,0.0770000000002256
23,15,62360.2916342487,0.0779999999995198
23,16,66101.2336720768,0.0780000000004293
23,17,66044.1447206149,0.0779999999995198
23,18,62374.5445793053,0.0780000000004293
23,19,65879.7741000086,0.0779999999995198
23,20,58746.4075541182,0.0770000000002256
23,21,66156.6379315523,0.0779999999995198
23,22,66225.3949798705,0.0780000000004293
23,23,62846.8676592824,0.0779999999995198
23,24,59412.2200899177,0.0780000000004293
23,25,61597.7149190609,0.0779999999995198
23,26,66399.5411358509,0.0780000000004293
23,27,64494.6181522229,0.0770000000002256
23,28,65923.2655504237,0.0779999999995198
23,29,62916.2035141209,0.0799999999999272
23,30,66248.7923609274,0.0799999999999272
24,1,62446.3057477502,0.0799999999999272
24,2,64687.6860363758,0.0799999999999272
24,3,64854.7731743254,0.0799999999999272
24,4,64808.3732028726,0.0789999999997235
24,5,65081.5569636142,0.0780000000004293
24,6,60111.8971613212,0.0789999999997235
24,7,58020.1484681699,0.0779999999995198
24,8,58725.3360461978,0.079000000000633
24,9,63770.5206552437,0.0770000000002256
24,10,64827.304895503,0.0780000000004293
24,11,63186.8773862141,0.0779999999995198
24,12,65145.5204304868,0.0780000000004293
24,13,65117.8635324388,0.0789999999997235
24,14,65313.5806026466,0.0780000000004293
24,15,62436.9246014365,0.0779999999995198
24,16,64699.3454187671,0.0780000000004293
24,17,64642.2564673052,0.0779999999995198
24,18,62451.1775464931,0.0780000000004293
24,19,64867.7024565929,0.0779999999995198
24,20,58823.040521306,0.0780000000004293
24,21,64754.7496782426,0.0779999999995198
24,22,64823.5067265608,0.0789999999997235
24,23,62923.5006264701,0.0780000000004293
24,24,59488.8530571055,0.0789999999997235
24,25,61674.3478862487,0.0780000000004293
24,26,64997.6528825413,0.0779999999995198
24,27,64571.2511194107,0.079000000000633
24,28,64521.377297114,0.0779999999995198
24,29,62992.8364813086,0.0780000000004293
24,30,64846.9041076177,0.0789999999997235
25,1,61963.8678675651,0.0780000000004293
25,2,74777.3431054796,0.0779999999995198
25,3,64372.3352941403,0.0780000000004293
25,4,64920.2084095487,0.0789999999997235
25,5,69855.9537513397,0.0779999999995198
25,6,59629.4592811361,0.0780000000004293
25,7,57537.7105879848,0.0789999999997235
25,8,58242.8981660127,0.0780000000004293
25,9,63288.0827750586,0.0779999999995198
25,10,70584.2404943869,0.079000000000633
25,11,62704.439506029,0.0789999999997235
25,12,69230.9339431814,0.0789999999997235
25,13,66413.0478282284,0.079000000000633
25,14,67348.9313739928,0.0789999999997235
25,15,61954.4867212514,0.0779999999995198
25,16,74098.8943207205,0.079000000000633
25,17,71882.9879990709,0.0779999999995198
25,18,61968.739666308,0.0780000000004293
25,19,65473.9691870113,0.0779999999995198
25,20,58340.6026411209,0.0780000000004293
25,21,74844.4067473464,0.0789999999997235
25,22,74526.3873065231,0.0799999999999272
25,23,62441.0627462851,0.0789999999997235
25,24,59006.4151769204,0.079000000000633
25,25,61191.9100060636,0.0779999999995198
25,26,71184.1485724139,0.0789999999997235
25,27,64088.8132392256,0.079000000000633
25,28,70887.6047536559,0.0789999999997235
25,29,62510.3986011236,0.0780000000004293
25,30,71850.0557613071,0.0789999999997235
26,1,61920.582448631,0.0779999999995198
26,2,64929.4085668506,0.0780000000004293
26,3,64329.0498752062,0.0789999999997235
26,4,64876.9229906145,0.0780000000004293
26,5,65323.2794940891,0.0789999999997235
26,6,59586.173862202,0.0779999999995198
26,7,57494.4251690506,0.0789999999997235
26,8,58199.6127470786,0.0800000000008367
26,9,63244.7973561244,0.0769999999993161
26,10,65069.0274259779,0.0760000000000218
26,11,62661.1540870949,0.0760000000000218
26,12,65387.2429609617,0.0760000000000218
26,13,65359.5860629138,0.0769999999993161
26,14,65555.3031331215,0.0770000000002256
26,15,61911.2013023172,0.0780000000004293
26,16,64941.067949242,0.0770000000002256
26,17,64883.9789977801,0.0769999999993161
26,18,61925.4542473738,0.0770000000002256
26,19,65109.4249870678,0.0770000000002256
26,20,58297.3172221868,0.0770000000002256
26,21,64996.4722087175,0.0769999999993161
26,22,65065.2292570357,0.0770000000002256
26,23,62397.7773273509,0.0770000000002256
26,24,58963.1297579863,0.0769999999993161
26,25,61148.6245871295,0.0770000000002256
26,26,65239.3754130162,0.0770000000002256
26,27,64045.5278202914,0.0770000000002256
26,28,64763.0998275888,0.0769999999993161
26,29,62467.1131821894,0.0780000000004293
26,30,65088.6266380926,0.0770000000002256
27,1,61763.7597685357,0.0769999999993161
27,2,61441.2208712915,0.0770000000002256
27,3,62087.4704075966,0.0770000000002256
27,4,61561.9080377883,0.0789999999997235
27,5,61835.09179853,0.0780000000004293
27,6,59666.9418706091,0.0769999999993161
27,7,57575.1931774577,0.0770000000002256
27,8,58280.3807554857,0.0780000000004293
27,9,61745.5275210223,0.0769999999993161
27,10,61580.8397304187,0.0770000000002256
27,11,62146.6147577273,0.0770000000002256
27,12,61899.0552654025,0.0779999999995198
27,13,61871.3983673546,0.0770000000002256
27,14,62067.1154375623,0.0779999999995198
27,15,61549.6999579053,0.0780000000004293
27,16,61452.8802536829,0.0770000000002256
27,17,61395.791302221,0.0770000000002256
27,18,62006.222255781,0.0770000000002256
27,19,61621.2372915086,0.0769999999993161
27,20,58378.0852305939,0.0770000000002256
27,21,61508.2845131583,0.0770000000002256
27,22,61577.0415614765,0.0779999999995198
27,23,62112.1397821513,0.0770000000002256
27,24,59043.8977663934,0.0770000000002256
27,25,61229.3925955366,0.0779999999995198
27,26,61751.187717457,0.0770000000002256
27,27,61455.2509974225,0.0780000000004293
27,28,61274.9121320297,0.0769999999993161
27,29,61612.1302405859,0.0770000000002256
27,30,61600.4389425334,0.0779999999995198
28,1,62253.2649530921,0.0770000000002256
28,2,66308.1675788823,0.0780000000004293
28,3,64661.7323796673,0.0779999999995198
28,4,65209.6054950757,0.0770000000002256
28,5,66702.0385061208,0.0779999999995198
28,6,59918.8563666631,0.0770000000002256
28,7,57827.1076735117,0.0770000000002256
28,8,58532.2952515397,0.0769999999993161
28,9,63577.4798605856,0.0780000000004293
28,10,66447.7864380096,0.0769999999993161
28,11,62993.836591556,0.0780000000004293
28,12,66766.0019729933,0.0779999999995198
28,13,66702.4449137554,0.0780000000004293
28,14,66934.0621451531,0.0779999999995198
28,15,62243.8838067784,0.0780000000004293
28,16,66319.8269612737,0.0789999999997235
28,17,66262.7380098118,0.0780000000004293
28,18,62258.136751835,0.0779999999995198
28,19,65763.3662725382,0.0770000000002256
28,20,58629.9997266479,0.0789999999997235
28,21,66375.2312207491,0.0780000000004293
28,22,66443.9882690673,0.0779999999995198
28,23,62730.459831812,0.0780000000004293
28,24,59295.8122624474,0.0779999999995198
28,25,61481.3070915906,0.0770000000002256
28,26,66618.1344250478,0.0779999999995198
28,27,64378.2103247526,0.079000000000633
28,28,66141.8588396205,0.0779999999995198
28,29,62799.7956866506,0.0780000000004293
28,30,66467.3856501243,0.0779999999995198
29,1,61926.8856173539,0.0780000000004293
29,2,71535.0719875415,0.0769999999993161
29,3,64335.3530439291,0.0780000000004293
29,4,64883.2261593375,0.0770000000002256
29,5,69818.9715011285,0.0770000000002256
29,6,59592.4770309249,0.0789999999997235
29,7,57500.7283377736,0.0780000000004293
29,8,58205.9159158015,0.0779999999995198
29,9,63251.1005248474,0.0780000000004293
29,10,70547.2582441757,0.0779999999995198
29,11,62667.4572558178,0.079000000000633
29,12,69193.9516929703,0.0779999999995198
29,13,66376.0655780172,0.0780000000004293
29,14,67311.9491237816,0.0769999999993161
29,15,61917.5044710402,0.079000000000633
29,16,71546.7313699329,0.0769999999993161
29,17,71489.642418471,0.0770000000002256
29,18,61931.7574160968,0.0779999999995198
29,19,65436.9869368001,0.0780000000004293
29,20,58303.6203909097,0.0789999999997235
29,21,71602.1356294083,0.0770000000002256
29,22,71670.8926777265,0.0770000000002256
29,23,62404.0804960739,0.0770000000002256
29,24,58969.4329267092,0.0779999999995198
29,25,61154.9277558524,0.0780000000004293
29,26,71147.1663222027,0.0779999999995198
29,27,64051.8309890144,0.079000000000633
29,28,70850.6225034447,0.0779999999995198
29,29,62473.4163509124,0.0780000000004293
29,30,71694.2900587834,0.0779999999995198
30,1,53060.1957887267,0.0789999999997235
30,2,52737.6568914825,0.0780000000004293
30,3,53383.9064277876,0.0789999999997235
30,4,52858.3440579794,0.0799999999999272
30,5,53131.527818721,0.0780000000004293
30,6,53275.0955136443,0.0779999999995198
30,7,53366.0556266557,0.079000000000633
30,8,53209.4724629142,0.0789999999997235
30,9,53041.9635412133,0.0780000000004293
30,10,52877.2757506098,0.0789999999997235
30,11,53443.0507779183,0.0789999999997235
30,12,53195.4912855935,0.0780000000004293
30,13,53167.8343875456,0.0779999999995198
30,14,53363.5514577534,0.0780000000004293
30,15,52846.1359780963,0.0779999999995198
30,16,52749.3162738739,0.0780000000004293
30,17,52692.227322412,0.0779999999995198
30,18,53342.5881372236,0.0779999999995198
30,19,52917.6733116996,0.0780000000004293
30,20,53497.5737237132,0.0789999999997235
30,21,52804.7205333494,0.0780000000004293
30,22,52873.4775816676,0.0789999999997235
30,23,53408.5758023423,0.0780000000004293
30,24,52907.1802421266,0.0789999999997235
30,25,53315.8952756944,0.0779999999995198
30,26,53047.623737648,0.079000000000633
30,27,52751.6870176136,0.0779999999995198
30,28,52571.3481522208,0.0780000000004293
30,29,52908.5662607769,0.0779999999995198
30,30,52896.8749627245,0.0789999999997235
