App - EBookDroid
Scenario - open_pdf
Length - 5sec
Measure - EuclideanDistance
Before Version - 1.1.4_f_m
After Version - 1.2.0_f


"Before.Trace.ID1","Before.Trace.ID2","Difference","Runtime"
1,2,3868.32311167168,0
1,3,5749.08365067692,0.000999999996565748
1,4,3653.61486249613,0.00100000000384171
1,5,5005.74030432132,0
1,6,4424.21225337155,0
1,7,6646.62496835238,0.0140000000028522
1,8,4906.91260046956,0
1,9,4688.88049125086,0.000999999996565748
1,10,3487.05618261444,0.00100000000384171
1,11,7544.77259222136,0
1,12,5523.80599065006,0.000999999996565748
1,13,3498.68053680333,0.00100000000384171
1,14,6003.75865680222,0
1,15,4728.0259126761,0.000999999996565748
1,16,4710.81917484599,0.00100000000384171
1,17,6500.49542730781,0
1,18,4368.57913810617,0.000999999996565748
1,19,7636.8472831377,0.00100000000384171
1,20,4564.29678075839,0
1,21,5487.85648443355,0.000999999996565748
1,22,8244.16934574244,0.00100000000384171
1,23,3284.79665474947,0
1,24,4665.25561462198,0.000999999996565748
1,25,6621.07794715898,0.00100000000384171
1,26,7598.86069573818,0
1,27,6745.969075722,0.000999999996565748
1,28,3741.41249712739,0.00100000000384171
1,29,7812.02498547829,0
1,30,4143.35834328434,0.000999999996565748
2,3,4312.1519872723,0.00100000000384171
2,4,3023.87373577883,0
2,5,2210.75060210715,0.000999999996565748
2,6,4255.1446682754,0.000999999996565748
2,7,7793.11453594032,0
2,8,2019.03606550608,0.00100000000384171
2,9,3729.69857754886,0.000999999996565748
2,10,3066.24595716343,0
2,11,9071.73144976749,0.00100000000384171
2,12,2715.10529682636,0.000999999996565748
2,13,2476.64407249107,0
2,14,6779.38688483246,0.00100000000384171
2,15,5641.21444181763,0.000999999996565748
2,16,1589.17919945474,0
2,17,7216.57199733262,0.00100000000384171
2,18,5222.60020106263,0.000999999996565748
2,19,5146.96983831561,0
2,20,4897.17638840467,0.00100000000384171
2,21,3936.45945465134,0.000999999996565748
2,22,9588.41098347838,0
2,23,2693.19064954457,0
2,24,3810.08412737733,0.000999999996565748
2,25,7751.29521211539,0.0129999999990105
2,26,4730.89401761755,0.00100000000384171
2,27,7753.304062114,0.000999999996565748
2,28,3971.13360959152,0
2,29,5504.07231917671,0.00100000000384171
2,30,5351.60752087825,0.000999999996565748
3,4,3981.89285586743,0
3,5,3351.09500892806,0.00100000000384171
3,6,6375.44437954368,0.000999999996565748
3,7,9370.70461758132,0
3,8,3605.21217814272,0.00100000000384171
3,9,4544.28558932012,0.000999999996565748
3,10,6011.43474197677,0
3,11,10734.4601221599,0.000999999996565748
3,12,4984.3235920184,0.00100000000384171
3,13,5746.04207709438,0
3,14,7406.69797196337,0.000999999996565748
3,15,7385.06512725049,0.00100000000384171
3,16,5326.58319885261,0
3,17,9254.36090534402,0.000999999996565748
3,18,6403.31550513439,0.00100000000384171
3,19,3922.11227801379,0
3,20,6502.384591909,0.000999999996565748
3,21,3962.99298526562,0.00100000000384171
3,22,11154.1168983293,0
3,23,4946.14053437963,0.000999999996565748
3,24,2956.59090145618,0.00100000000384171
3,25,8981.76670170789,0
3,26,3676.9586947606,0.000999999996565748
3,27,8893.06492265548,0.00100000000384171
3,28,5770.13930161461,0
3,29,5138.20549055119,0.000999999996565748
3,30,6345.58849527934,0.00100000000384171
4,5,3208.03595497612,0
4,6,3286.92417850283,0.000999999996565748
4,7,6302.2965865084,0.00100000000384171
4,8,3053.90807273122,0
4,9,1956.0088827389,0.000999999996565748
4,10,2903.79985528219,0.00100000000384171
4,11,7678.61638341968,0
4,12,4952.26262310204,0.000999999996565748
4,13,3018.73241981319,0.000999999996565748
4,14,4873.11941925704,0
4,15,4214.74525326927,0.00100000000384171
4,16,3825.831629907,0.000999999996565748
4,17,6006.66853895625,0
4,18,3219.08063576738,0.00100000000384171
4,19,6408.5475732194,0.0139999999955762
4,20,3247.79554934094,0
4,21,3070.24086450553,0.00100000000384171
4,22,8156.75567398834,0.000999999996565748
4,23,1658.36218278207,0
4,24,1821.6618771786,0.00100000000384171
4,25,6111.37686500822,0.000999999996565748
4,26,5997.46301388228,0
4,27,6203.29327194164,0.00100000000384171
4,28,2125.40215541671,0.000999999996565748
4,29,7090.63697254934,0
4,30,3421.0407900059,0.00100000000384171
5,6,4515.5983673031,0.000999999996565748
5,7,8590.17369656805,0
5,8,1569.74841125684,0.00100000000384171
5,9,3263.4945987393,0.000999999996565748
5,10,3872.9161380168,0
5,11,9898.97681402877,0.00100000000384171
5,12,3689.47744134063,0.000999999996565748
5,13,3527.80019689652,0
5,14,6870.75956929561,0.00100000000384171
5,15,6191.55311807899,0.000999999996565748
5,16,3014.08142689559,0
5,17,7633.22607536825,0.00100000000384171
5,18,5693.98346817484,0.000999999996565748
5,19,4603.18017055071,0
5,20,5120.11014280578,0.00100000000384171
5,21,2571.21533705051,0.000999999996565748
5,22,10444.3923340194,0
5,23,3246.46816462658,0.000999999996565748
5,24,3319.41690861089,0.00100000000384171
5,25,8412.84223167301,0
5,26,3955.33334969454,0.000999999996565748
5,27,8354.32432092989,0.00100000000384171
5,28,4682.80651690545,0
5,29,5572.77229966092,0.000999999996565748
5,30,5753.40858113109,0.00100000000384171
6,7,5670.49832390769,0
6,8,4620.66111962938,0.000999999996565748
6,9,3387.67029942152,0.00100000000384171
6,10,2105.39303728409,0
6,11,6684.65986121312,0.000999999996565748
6,12,6383.50685935858,0.00100000000384171
6,13,2962.29166060844,0
6,14,4590.60950674274,0.000999999996565748
6,15,3110.45360930546,0.00100000000384171
6,16,4364.79086447576,0.0129999999990105
6,17,3815.69844803332,0.000999999996565748
6,18,3664.73279752444,0.00100000000384171
6,19,8405.09824270199,0
6,20,2470.49800588906,0.000999999996565748
6,21,4476.69723693229,0.00100000000384171
6,22,7204.82639183801,0
6,23,2452.63470473594,0.000999999996565748
6,24,4502.80101097998,0.00100000000384171
6,25,5738.74631681909,0
6,26,7880.52283590743,0.000999999996565748
6,27,5719.51064979826,0.00100000000384171
6,28,2527.69132766986,0
6,29,9076.50173450843,0.000999999996565748
6,30,4397.37948576746,0.00100000000384171
7,8,8428.51868064108,0
7,9,6481.77759761282,0.000999999996565748
7,10,6074.08842916553,0.000999999996565748
7,11,2380.67570665962,0
7,12,9615.06203403144,0.00100000000384171
7,13,6705.17044034837,0.000999999996565748
7,14,3669.95443354427,0
7,15,3335.22973193488,0.00100000000384171
7,16,7899.32848535112,0.000999999996565748
7,17,4464.15797617624,0
7,18,3803.43381827353,0.00100000000384171
7,19,11479.6031867664,0.000999999996565748
7,20,4529.77594662768,0
7,21,8088.71974958363,0.00100000000384171
7,22,2875.93413068166,0.000999999996565748
7,23,6219.79305920932,0
7,24,7105.01165982814,0.00100000000384171
7,25,1440.08855250472,0.000999999996565748
7,26,11227.0959001405,0
7,27,1967.36156860498,0.00100000000384171
7,28,5141.14965272469,0.000999999996565748
7,29,11875.7774147175,0
7,30,4656.62738858977,0.00100000000384171
8,9,3507.24821907685,0.000999999996565748
8,10,3692.58670500501,0
8,11,9802.41005499258,0.00100000000384171
8,12,3189.98345562243,0.000999999996565748
8,13,3070.5439964843,0
8,14,7149.91297852971,0.000999999996565748
8,15,6194.14039985544,0.00100000000384171
8,16,2563.98547923818,0
8,17,7584.26715955776,0.0290000000022701
8,18,5595.12236430822,0.000999999996565748
8,19,4834.89328306577,0.00100000000384171
8,20,5161.42493105319,0.000999999996565748
8,21,3164.18518938178,0
8,22,10270.0693483457,0.00100000000384171
8,23,3024.63743625686,0.000999999996565748
8,24,3412.22356517653,0
8,25,8341.39875168329,0.000999999996565748
8,26,4023.16923240122,0.00100000000384171
8,27,8339.22389831676,0
8,28,4309.0705047707,0.000999999996565748
8,29,5480.79963324473,0.00100000000384171
8,30,5772.90855127336,0
9,10,3420.06599486823,0
9,11,7888.56949180852,0.00100000000384171
9,12,5750.18801921087,0
9,13,3607.49543156315,0
9,14,4482.12541291743,0.00100000000384171
9,15,4248.88389946854,0.000999999996565748
9,16,4353.39475856014,0
9,17,5792.56440422458,0.00100000000384171
9,18,3207.83338263112,0.000999999996565748
9,19,6845.26207281885,0
9,20,2846.21581810174,0.00100000000384171
9,21,1984.83260297777,0.000999999996565748
9,22,8399.81773869509,0
9,23,2497.48092259818,0.00100000000384171
9,24,2189.32831206968,0.000999999996565748
9,25,6265.45134736565,0
9,26,6287.775907805,0.00100000000384171
9,27,6325.58908100459,0.000999999996565748
9,28,3046.52176734121,0
9,29,7806.0046128668,0
9,30,3288.97401332506,0.00100000000384171
10,11,7276.95831004418,0
10,12,5142.73907085836,0
10,13,1276.29453587953,0.00100000000384171
10,14,5443.85961758444,0.000999999996565748
10,15,3693.87624379014,0
10,16,3139.28592228337,0.00100000000384171
10,17,4690.02704148724,0.000999999996565748
10,18,3847.73314174854,0
10,19,7627.46527418896,0.00100000000384171
10,20,2986.62679204234,0.000999999996565748
10,21,4406.49436911558,0
10,22,7874.91501859763,0
10,23,1519.16437170918,0.000999999996565748
10,24,4428.83280672983,0.00100000000384171
10,25,6278.41354452067,0
10,26,7127.3794946131,0.000999999996565748
10,27,6381.2971289749,0.00100000000384171
10,28,2553.53974735946,0
10,29,8004.66814380134,0.000999999996565748
10,30,4319.01135563623,0.00100000000384171
11,12,10987.9645065042,0.010999999998603
11,13,7980.33690761391,0.000999999996565748
11,14,4855.00326092151,0.00100000000384171
11,15,4430.96599478124,0
11,16,9290.74799676541,0
11,17,4977.37698626888,0.00100000000384171
11,18,5371.73269779172,0.000999999996565748
11,19,12894.7040016832,0
11,20,5903.29387849374,0.00100000000384171
11,21,9347.53942676858,0.000999999996565748
11,22,1652.30087614621,0
11,23,7565.5755683525,0.00100000000384171
11,24,8540.98996946358,0.000999999996565748
11,25,2436.7448637065,0
11,26,12659.5071802035,0.000999999996565748
11,27,2763.62725939227,0.00100000000384171
11,28,6490.74254982838,0
11,29,13326.3821477856,0.000999999996565748
11,30,5982.4788407106,0.00100000000384171
12,13,4311.20153452457,0
12,14,8905.72355341326,0.000999999996565748
12,15,7637.86731072099,0.00100000000384171
12,16,2707.8836956316,0
12,17,9273.7543483736,0.000999999996565748
12,18,7191.84105236893,0.00100000000384171
12,19,4164.41882429029,0
12,20,6891.71827762586,0.000999999996565748
12,21,5665.5676169006,0.00100000000384171
12,22,11520.9261420038,0
12,23,4726.88182589879,0.000999999996565748
12,24,5377.18846001655,0.00100000000384171
12,25,9665.53026938962,0
12,26,4056.59141916089,0.000999999996565748
12,27,9711.78054261092,0.00100000000384171
12,28,5893.21380511555,0
12,29,3701.83669807605,0.000999999996565748
12,30,7345.3090078134,0.00100000000384171
13,14,6203.03692796501,0
13,15,4502.39604009346,0.000999999996565748
13,16,2355.22179984618,0.00100000000384171
13,17,5490.08205854164,0
13,18,4378.13814307684,0.000999999996565748
13,19,7041.80609513649,0.000999999996565748
13,20,3680.53842458353,0
13,21,4377.47881633222,0.00100000000384171
13,22,8517.20251647938,0.000999999996565748
13,23,1751.27402857964,0
13,24,4446.08264712682,0.00100000000384171
13,25,6917.06913468198,0.000999999996565748
13,26,6495.84427629894,0
13,27,7034.46421559622,0.00100000000384171
13,28,2924.97405816327,0.000999999996565748
13,29,7272.01837285731,0
13,30,4777.68115959337,0
14,15,2977.82552756076,0.0119999999951688
14,16,7245.37799883365,0
14,17,4907.17220493804,0.00100000000384171
14,18,2624.09408602892,0.000999999996565748
14,19,9897.98408241868,0
14,20,3295.17479214214,0
14,21,5842.0949650771,0.000999999996565748
14,22,5381.45612328074,0
14,23,5208.66509745065,0
14,24,5107.76495771088,0.000999999996565748
14,25,3108.82682234835,0
14,26,9636.48662168248,0
14,27,2982.51686870563,0.000999999996565748
14,28,4415.76275055383,0.00100000000384171
14,29,10825.6693609474,0
14,30,3158.76431331299,0.000999999996565748
15,16,5897.70945559409,0.00100000000384171
15,17,3056.92059938062,0
15,18,2297.67123598021,0.000999999996565748
15,19,9483.91256262561,0.00100000000384171
15,20,1899.92425599923,0
15,21,5658.95252250267,0.000999999996565748
15,22,5278.3683095742,0.000999999996565748
15,23,3865.91494734255,0
15,24,5197.72806008733,0.00100000000384171
15,25,3533.54250666846,0.000999999996565748
15,26,9143.39346493149,0
15,27,3729.83552547663,0.00100000000384171
15,28,3382.14760645079,0.000999999996565748
15,29,10045.6670485161,0
15,30,3253.93960999125,0.00100000000384171
16,17,7181.24451692631,0
16,18,5629.33286447496,0
16,19,5597.20182686764,0.00100000000384171
16,20,5136.85083156507,0
16,21,4704.12100669902,0
16,22,9737.55643054138,0.00100000000384171
16,23,3119.77552022538,0
16,24,4749.64029530317,0
16,25,8037.63448634698,0.00100000000384171
16,26,5074.18717479983,0.000999999996565748
16,27,8036.14893899056,0
16,28,4265.67405987159,0.00100000000384171
16,29,5733.76747157585,0.000999999996565748
16,30,5997.44724543927,0
17,18,4609.23935358449,0.00100000000384171
17,19,11322.1905958379,0.000999999996565748
17,20,3596.46237942723,0
17,21,7003.89778904202,0.00100000000384171
17,22,5497.46993004508,0.000999999996565748
17,23,5334.5185504403,0
17,24,7122.3849207612,0.000999999996565748
17,25,4955.89799898758,0.00100000000384171
17,26,10751.4151066874,0
17,27,5140.27496703302,0.0120000000024447
17,28,4905.06676765987,0.000999999996565748
17,29,11886.8379994614,0
17,30,5550.7446766149,0.00100000000384171
18,19,8770.01657614815,0.000999999996565748
18,20,1922.67051877746,0
18,21,4897.12295102089,0.000999999996565748
18,22,5930.6700282186,0.00100000000384171
18,23,3412.68905776565,0
18,24,3914.64668314391,0.000999999996565748
18,25,3727.97632668523,0.00100000000384171
18,26,8453.74746925839,0
18,27,3945.25499882474,0.000999999996565748
18,28,2640.65627922471,0.00100000000384171
18,29,9377.99553779573,0
18,30,1568.21433979875,0.000999999996565748
19,20,8640.96382994783,0.00100000000384171
19,21,6040.66852172235,0
19,22,13383.7075178172,0.000999999996565748
19,23,6873.64314414076,0.00100000000384171
19,24,5920.0911373492,0
19,25,11229.950377976,0.000999999996565748
19,26,1653.98294462978,0.00100000000384171
19,27,11133.6811952058,0
19,28,8048.11008060519,0.000999999996565748
19,29,2145.97780566176,0.00100000000384171
19,30,8787.23389781458,0
20,21,4387.63454447868,0.000999999996565748
20,22,6576.86934610641,0.00100000000384171
20,23,2877.50082410494,0
20,24,4172.47429298157,0.000999999996565748
20,25,4624.23431579904,0.00100000000384171
20,26,8203.94355705642,0
20,27,4811.53078982516,0.000999999996565748
20,28,2682.85435461663,0.000999999996565748
20,29,9289.33584569916,0
20,30,2811.62938771776,0
21,22,9903.72613176695,0.000999999996565748
21,23,3564.17719115931,0
21,24,2740.72730650103,0
21,25,7804.4993886965,0.000999999996565748
21,26,5337.8435846823,0.00100000000384171
21,27,7786.08565736263,0
21,28,4594.74862794509,0.000999999996565748
21,29,7292.69450005958,0.00100000000384171
21,30,4803.62570825084,0
22,23,8139.23863476825,0.000999999996565748
22,24,8969.37223668269,0.00100000000384171
22,25,2839.78005624076,0
22,26,13090.4972686915,0.000999999996565748
22,27,3013.40437015668,0.00100000000384171
22,28,6857.3234065588,0
22,29,13826.0393614881,0.000999999996565748
22,30,6673.60134393776,0.00100000000384171
23,24,3192.07569692622,0.010999999998603
23,25,6291.27456063877,0.000999999996565748
23,26,6408.63682744502,0.00100000000384171
23,27,6397.62164763193,0
23,28,2032.33137295364,0.000999999996565748
23,29,7338.80989366421,0.00100000000384171
23,30,3712.82156967729,0
24,25,6737.80671125973,0.000999999996565748
24,26,5545.60244853758,0.00100000000384171
24,27,6746.9384520199,0
24,28,3476.50722254659,0.000999999996565748
24,29,6904.52104680841,0.00100000000384171
24,30,3939.3431071255,0
25,26,11010.0729941013,0
25,27,943.484965627516,0.00100000000384171
25,28,5106.82876934832,0
25,29,11783.6364367405,0
25,30,4465.13544886188,0.000999999996565748
26,27,10927.4931229791,0
26,28,7619.9823059474,0
26,29,3013.7766378945,0.000999999996565748
26,30,8546.0856599346,0
27,28,5242.51486949017,0
27,29,11777.4027300505,0.000999999996565748
27,30,4697.2133599605,0
28,29,8530.49840966737,0
28,30,3361.91909312917,0.000999999996565748
29,30,9411.13774196615,0


"After.Trace.ID","Before.Trace.ID","Difference","Runtime"
1,1,4144.48938150481,0
1,2,5961.231547136,0.00100000000384171
1,3,6950.44691812242,0.000999999996565748
1,4,4163.17596022274,0.010999999998603
1,5,6667.44241952019,0.00100000000384171
1,6,4173.74037130127,0.000999999996565748
1,7,3876.52515883252,0.00100000000384171
1,8,6552.88094613252,0
1,9,4791.55169657863,0.000999999996565748
1,10,4529.71462404829,0.00100000000384171
1,11,4958.59649692253,0
1,12,7772.41770129883,0.000999999996565748
1,13,5073.2809311658,0.00100000000384171
1,14,3774.33549833156,0
1,15,2759.29877951244,0.000999999996565748
1,16,6472.89564369948,0.00100000000384171
1,17,4487.5705959846,0
1,18,2738.86265918217,0.000999999996565748
1,19,9437.09370061577,0.00100000000384171
1,20,3270.60406863261,0
1,21,6261.85547770184,0
1,22,5507.56973037975,0.000999999996565748
1,23,4282.05691685412,0
1,24,4896.3113991457,0
1,25,3879.88354225015,0.000999999996565748
1,26,9285.99784675366,0
1,27,4091.04491601932,0
1,28,3394.79732146453,0.000999999996565748
1,29,9866.95266681267,0
1,30,3448.7617509118,0
2,1,3050.33289653439,0.000999999996565748
2,2,3233.70677886678,0
2,3,4187.12549014797,0
2,4,1533.81154347988,0.000999999996565748
2,5,3652.45496938616,0
2,6,3579.89363861907,0
2,7,6605.84094891763,0.000999999996565748
2,8,3467.89296252753,0
2,9,2999.0722230732,0
2,10,3071.34461231792,0.000999999996565748
2,11,7830.73120323049,0.00100000000384171
2,12,4957.2326899485,0
2,13,3129.47122523202,0.000999999996565748
2,14,5437.77838380673,0.00100000000384171
2,15,4538.29064492605,0
2,16,4104.33070623498,0.000999999996565748
2,17,6251.15105430654,0.000999999996565748
2,18,3805.53811594308,0
2,19,6627.49818543459,0.00100000000384171
2,20,3806.74441294908,0.000999999996565748
2,21,3870.11103353482,0
2,22,8351.87684540149,0.00100000000384171
2,23,2036.17560265121,0.000999999996565748
2,24,2593.15879197944,0
2,25,6467.90450830357,0.00100000000384171
2,26,6343.31016459083,0.000999999996565748
2,27,6587.12253419319,0
2,28,2511.95353395941,0.0120000000024447
2,29,7125.18866125146,0.000999999996565748
2,30,3873.27814653203,0
3,1,8273.67494144386,0.00100000000384171
3,2,9910.71985259148,0.000999999996565748
3,3,11685.5746381225,0
3,4,8567.81122064879,0.00100000000384171
3,5,10334.7983556343,0.000999999996565748
3,6,7043.00216783505,0
3,7,5187.74476017188,0.00100000000384171
3,8,10456.1827727852,0.000999999996565748
3,9,8148.02771617621,0
3,10,7670.5287983207,0
3,11,4553.91140582355,0.000999999996565748
3,12,12106.93033102,0.00100000000384171
3,13,8535.95504730264,0
3,14,5720.50586669996,0.000999999996565748
3,15,5088.89822443792,0
3,16,10209.9193137916,0
3,17,4678.29872324142,0.000999999996565748
3,18,6267.54787289962,0.00100000000384171
3,19,13986.7416756177,0
3,20,6090.56234032859,0.000999999996565748
3,21,9307.95129765855,0.00100000000384171
3,22,5522.80579654789,0
3,23,8119.67935725937,0.000999999996565748
3,24,9434.83034854388,0.000999999996565748
3,25,5444.52317565735,0
3,26,13577.0906583536,0.00100000000384171
3,27,5720.86676346873,0.000999999996565748
3,28,7646.71670010317,0
3,29,14605.9410080184,0.00100000000384171
3,30,6387.02894857495,0.000999999996565748
4,1,5997.67213116688,0
4,2,7381.99901573777,0.00100000000384171
4,3,8979.43428353624,0.000999999996565748
4,4,5896.53234261655,0
4,5,7924.00824922188,0.00100000000384171
4,6,4748.13910412117,0.000999999996565748
4,7,2952.62451178414,0
4,8,7957.53444532304,0.00100000000384171
4,9,5888.70096167583,0.000999999996565748
4,10,5354.08207926032,0
4,11,3356.89108590622,0.00100000000384171
4,12,9342.89569189345,0.000999999996565748
4,13,6170.9828583096,0
4,14,3633.51609403999,0.00100000000384171
4,15,2134.47816223768,0.000999999996565748
4,16,7674.66530751673,0
4,17,3260.21055185842,0.00100000000384171
4,18,3708.28174314144,0.000999999996565748
4,19,11144.4954372874,0
4,20,3590.44590874655,0
4,21,7222.94902764548,0.00100000000384171
4,22,4477.53262968645,0.010999999998603
4,23,5601.98934118495,0.00100000000384171
4,24,6814.3507294707,0.000999999996565748
4,25,3297.11648503486,0.00100000000384171
4,26,10844.3063402858,0
4,27,3667.7828043437,0.000999999996565748
4,28,5051.84885940792,0.00100000000384171
4,29,11656.6846018224,0
4,30,4304.0648780964,0.000999999996565748
5,1,6184.51675051944,0.000999999996565748
5,2,4118.8605036315,0
5,3,2142.79123027487,0.00100000000384171
5,4,4974.08022960399,0.000999999996565748
5,5,3596.69357228654,0
5,6,6965.48634982907,0.00100000000384171
5,7,10127.7420195969,0.000999999996565748
5,8,3730.05515950669,0
5,9,5660.70618649114,0.00100000000384171
5,10,6366.93748763104,0.000999999996565748
5,11,11470.7271078138,0
5,12,4142.99899911216,0
5,13,5920.92203455491,0.000999999996565748
5,14,8478.52223019537,0
5,15,8113.94570494377,0
5,16,4927.95004497874,0.000999999996565748
5,17,9921.60012206558,0
5,18,7395.82746849323,0
5,19,2799.86443508231,0.000999999996565748
5,20,7348.50933864048,0
5,21,5073.84430949274,0
5,22,11889.0428641251,0.000999999996565748
5,23,5550.38143348452,0
5,24,4404.54297744761,0
5,25,9831.64499672446,0.000999999996565748
5,26,2690.45214254652,0
5,27,9709.17031109071,0
5,28,6544.22773479908,0.00100000000384171
5,29,3851.79651801021,0.000999999996565748
5,30,7444.26934899289,0
6,1,3921.91934590138,0.00100000000384171
6,2,4994.01953885494,0.000999999996565748
6,3,7336.13210116665,0
6,4,3860.23216009681,0.00100000000384171
6,5,5652.09354927069,0.000999999996565748
6,6,2984.19971426756,0
6,7,5178.24982262059,0.00100000000384171
6,8,5460.71913229182,0.000999999996565748
6,9,3995.93725792916,0
6,10,2668.85800616948,0.00100000000384171
6,11,6166.95339376514,0.000999999996565748
6,12,6897.39351876745,0
6,13,3219.15474525187,0.00100000000384171
6,14,4965.90341827132,0.000999999996565748
6,15,2893.82508052018,0
6,16,5193.73129436801,0.010999999998603
6,17,3699.31711457822,0.000999999996565748
6,18,3260.0940337143,0
6,19,9263.1919326733,0
6,20,2466.1222719462,0.000999999996565748
6,21,5207.24582177911,0.00100000000384171
6,22,6932.016886774,0
6,23,2921.59560370631,0.000999999996565748
6,24,5251.54721140849,0.00100000000384171
6,25,5529.50791916601,0
6,26,8810.37758863731,0.000999999996565748
6,27,5844.91277736017,0.00100000000384171
6,28,3123.60048929909,0
6,29,9599.0625735473,0.000999999996565748
6,30,3580.59772869166,0.00100000000384171
7,1,5925.34539799655,0
7,2,6386.38147988687,0.000999999996565748
7,3,6956.80353630874,0.000999999996565748
7,4,4403.71470229433,0
7,5,6474.45188379555,0.00100000000384171
7,6,4623.35226641956,0.000999999996565748
7,7,3990.84044501401,0
7,8,6658.82741518399,0.00100000000384171
7,9,3969.1344656505,0.000999999996565748
7,10,5234.71050064179,0
7,11,5447.15256875697,0.00100000000384171
7,12,8452.23537936817,0.000999999996565748
7,13,5914.01455590157,0
7,14,1524.67435503439,0.00100000000384171
7,15,3357.02062918147,0.000999999996565748
7,16,6842.77548930817,0
7,17,5359.52934528552,0.00100000000384171
7,18,2335.49546486374,0.000999999996565748
7,19,9457.22805091785,0
7,20,3237.44530964024,0.00100000000384171
7,21,5464.37409085666,0.000999999996565748
7,22,5883.80909044494,0
7,23,4819.5153253184,0.00100000000384171
7,24,4566.07107141974,0.000999999996565748
7,25,3551.48443408711,0
7,26,9172.99750177445,0
7,27,3498.75514199665,0.000999999996565748
7,28,4077.78356647473,0.000999999996565748
7,29,10345.6905764672,0
7,30,2710.47332135404,0.00100000000384171
8,1,3490.7792153592,0.000999999996565748
8,2,5265.67545563472,0
8,3,6907.8884919908,0.00100000000384171
8,4,3745.58384618806,0.000999999996565748
8,5,6125.23363982224,0
8,6,3390.63094674961,0.00100000000384171
8,7,4394.22852063455,0.000999999996565748
8,8,5918.11955504097,0
8,9,4611.54907776854,0.0120000000024447
8,10,3428.03643692278,0
8,11,5410.21325789694,0
8,12,7058.27749469701,0.00100000000384171
8,13,4039.82217586157,0.000999999996565748
8,14,4467.49281953338,0
8,15,2636.85932527675,0.00100000000384171
8,16,5682.09493260925,0.000999999996565748
8,17,4053.61837210814,0
8,18,3063.15047186182,0.00100000000384171
8,19,9141.87366045686,0.000999999996565748
8,20,3015.20257430614,0
8,21,5998.38037121934,0.00100000000384171
8,22,6048.48530974223,0.000999999996565748
8,23,3421.3535306484,0
8,24,4936.9306965319,0.00100000000384171
8,25,4583.79822398165,0.000999999996565748
8,26,8930.84221061373,0
8,27,4827.8714977472,0.00100000000384171
8,28,2783.4963433472,0.000999999996565748
8,29,9456.41958637579,0
8,30,3768.96154184608,0.00100000000384171
9,1,5479.12955123384,0.000999999996565748
9,2,4348.605581103,0
9,3,3993.9645069434,0.00100000000384171
9,4,3056.67825760678,0.000999999996565748
9,5,3299.09981673267,0
9,6,4263.23672247527,0.000999999996565748
9,7,7443.69182655351,0.00100000000384171
9,8,3916.53623933774,0
9,9,1936.56684290852,0.000999999996565748
9,10,4646.2408253798,0.00100000000384171
9,11,8726.38196043215,0
9,12,6148.23430363739,0.000999999996565748
9,13,4811.13524117275,0.00100000000384171
9,14,4935.31446182282,0
9,15,5134.60670095213,0.000999999996565748
9,16,5114.4578033691,0.00100000000384171
9,17,6733.05586265608,0
9,18,4293.72005418322,0
9,19,6443.42368873925,0.00100000000384171
9,20,3943.26680676727,0.000999999996565748
9,21,1869.0764225939,0
9,22,9246.01502024234,0.00100000000384171
9,23,3757.46922456922,0.000999999996565748
9,24,2346.15130687959,0
9,25,7087.40127557671,0.00100000000384171
9,26,5946.12459999167,0.000999999996565748
9,27,6996.36055418401,0
9,28,4351.19842354616,0.00100000000384171
9,29,7720.61847729613,0.000999999996565748
9,30,4281.2794103387,0
10,1,3292.63906645598,0.00100000000384171
10,2,2392.07483719102,0.000999999996565748
10,3,4760.45105556356,0.010999999998603
10,4,3199.9397810034,0.00100000000384171
10,5,3648.87951992083,0.000999999996565748
10,6,3920.97624405991,0
10,7,7252.69441850655,0.00100000000384171
10,8,3360.64643082444,0.000999999996565748
10,9,4534.76027959249,0.00100000000384171
10,10,3019.18392577523,0
10,11,8413.19022104426,0.000999999996565748
10,12,3818.33510679049,0.000999999996565748
10,13,2837.32813433696,0
10,14,6586.19175225361,0.00100000000384171
10,15,5173.06791753517,0.000999999996565748
10,16,2985.44819363071,0
10,17,6774.19537474672,0.00100000000384171
10,18,5040.84711124134,0.000999999996565748
10,19,6168.27021002673,0
10,20,4780.49220859538,0.00100000000384171
10,21,5148.37969898187,0.000999999996565748
10,22,8923.02662416925,0
10,23,2764.96558893481,0.00100000000384171
10,24,4229.03612706877,0.000999999996565748
10,25,7269.86761671119,0
10,26,5958.37455231681,0.00100000000384171
10,27,7277.08914139007,0.000999999996565748
10,28,3562.91729824753,0
10,29,6305.57434117753,0.00100000000384171
10,30,5367.02371658164,0.000999999996565748
11,1,3868.66194511224,0
11,2,4591.71676001215,0.00100000000384171
11,3,5866.70474928259,0.000999999996565748
11,4,2751.2170863581,0
11,5,4986.68060277396,0.00100000000384171
11,6,3869.48494033358,0.000999999996565748
11,7,5233.62027262955,0
11,8,4924.82693717659,0.00100000000384171
11,9,2614.59807981122,0.000999999996565748
11,10,3603.27089577978,0
11,11,6567.23224520646,0.000999999996565748
11,12,6500.64562584145,0.00100000000384171
11,13,3917.35405071143,0
11,14,3975.28728935781,0.000999999996565748
11,15,3341.02869645146,0.00100000000384171
11,16,5175.13738823097,0
11,17,5377.13446874154,0
11,18,1987.39638151039,0.00100000000384171
11,19,8107.11364887506,0.000999999996565748
11,20,2455.05655072894,0
11,21,4105.23849743054,0.00100000000384171
11,22,7246.68877559846,0.000999999996565748
11,23,2894.87675973828,0
11,24,3519.58224934089,0.00100000000384171
11,25,5167.9779390353,0.000999999996565748
11,26,7780.0516697325,0
11,27,5418.36397748733,0.0120000000024447
11,28,2936.9110889929,0
11,29,8671.19465727177,0.00100000000384171
11,30,1559.32893376881,0.000999999996565748
12,1,1976.4709984424,0
12,2,3966.89232113728,0.00100000000384171
12,3,5279.13475699669,0.000999999996565748
12,4,2792.75796409191,0
12,5,4824.61374002197,0.00100000000384171
12,6,3716.73923059219,0.000999999996565748
12,7,6095.08359877704,0
12,8,4701.09939801085,0
12,9,4118.35739651866,0.000999999996565748
12,10,3286.68792952759,0
12,11,7089.07574230056,0
12,12,5768.91097733396,0.000999999996565748
12,13,3551.00376190068,0.000999999996565748
12,14,5321.81796735884,0
12,15,4177.24294428625,0.00100000000384171
12,16,4797.77981921446,0.000999999996565748
12,17,5941.7130866462,0
12,18,3768.5032810151,0.00100000000384171
12,19,7675.94022532188,0.000999999996565748
12,20,3963.96341147355,0
12,21,5163.2281568517,0.00100000000384171
12,22,7667.58721835356,0.000999999996565748
12,23,2751.7354450002,0
12,24,3855.14768321936,0.00100000000384171
12,25,6023.23786109417,0.000999999996565748
12,26,7554.73695259516,0
12,27,6145.0625584264,0.00100000000384171
12,28,2826.02768351921,0.000999999996565748
12,29,7992.63704445859,0
12,30,3798.07095342523,0.00100000000384171
13,1,7433.70330380334,0.000999999996565748
13,2,4397.88777946462,0
13,3,4284.88471580863,0.00100000000384171
13,4,5990.11845132841,0.000999999996565748
13,5,3757.45655937421,0
13,6,7685.9247802413,0.00100000000384171
13,7,11239.0004923617,0.000999999996565748
13,8,3657.55460416971,0
13,9,6260.17107527935,0.00100000000384171
13,10,6762.9839360517,0.000999999996565748
13,11,12636.198438623,0
13,12,3693.37169190086,0
13,13,6050.9952932553,0.00100000000384171
13,14,9800.94155003771,0.000999999996565748
13,15,9065.40503460299,0
13,16,4634.50564664784,0.00100000000384171
13,17,10508.7395485498,0.000999999996565748
13,18,8475.23295497544,0
13,19,2515.35615271009,0.00100000000384171
13,20,8103.29472577335,0.000999999996565748
13,21,5279.2462154952,0.010999999998603
13,22,13095.6024042157,0.00100000000384171
13,23,6180.40344487392,0.000999999996565748
13,24,5816.15741361481,0
13,25,11096.9594641744,0.00100000000384171
13,26,1419.58835489132,0.000999999996565748
13,27,11046.1546242211,0
13,28,7515.82927435674,0.00100000000384171
13,29,3352.68719218854,0.000999999996565748
13,30,8551.40319808899,0
14,1,5625.79439449654,0.00100000000384171
14,2,2483.69185853188,0.000999999996565748
14,3,3932.10258551922,0
14,4,4240.65489369731,0
14,5,1935.76582198543,0.000999999996565748
14,6,5604.00551288901,0
14,7,9444.79274066794,0
14,8,1628.27953526578,0.000999999996565748
14,9,4497.71299839842,0.00100000000384171
14,10,4551.3755445422,0
14,11,10810.4367471379,0.000999999996565748
14,12,2922.22555553821,0.00100000000384171
14,13,3851.64386862649,0
14,14,8158.0737669462,0.000999999996565748
14,15,7170.95354196761,0.00100000000384171
14,16,2862.57823234408,0
14,17,8472.43239292679,0.000999999996565748
14,18,6689.89144736317,0.000999999996565748
14,19,4159.73287784014,0
14,20,6160.80605778374,0.00100000000384171
14,21,3812.18787823578,0.000999999996565748
14,22,11314.7398270146,0
14,23,4091.23927279271,0.00100000000384171
14,24,4466.43019496552,0.000999999996565748
14,25,9395.04206093625,0
14,26,3292.17064911521,0.00100000000384171
14,27,9383.14503948792,0.000999999996565748
14,28,5564.43036701894,0
14,29,4747.95303269876,0.00100000000384171
14,30,6791.09201362445,0.000999999996565748
15,1,5421.85457273354,0
15,2,5617.99375277786,0.00100000000384171
15,3,6499.89875945323,0.000999999996565748
15,4,3765.77028165035,0
15,5,5408.05883278406,0.00100000000384171
15,6,3388.89051523308,0.000999999996565748
15,7,5027.22836042657,0
15,8,5738.2079571635,0.00100000000384171
15,9,2815.92741123162,0.000999999996565748
15,10,4152.11683667053,0
15,11,6336.77135610956,0.00100000000384171
15,12,7733.91039310253,0.000999999996565748
15,13,4836.66122409339,0
15,14,2765.57188211004,0
15,15,2912.08574385363,0.011000000005879
15,16,6022.85010707449,0
15,17,4443.74316997949,0.00100000000384171
15,18,2393.49465286248,0.000999999996565748
15,19,8889.97728051055,0
15,20,1845.56511441749,0.00100000000384171
15,21,4205.75942473946,0.000999999996565748
15,22,6939.70779205767,0
15,23,3814.07464494927,0.00100000000384171
15,24,4167.8016900177,0.000999999996565748
15,25,4886.73039397485,0
15,26,8454.33893613027,0
15,27,4962.55814340273,0.00100000000384171
15,28,3691.24670541421,0
15,29,9785.24304853309,0
15,30,2778.06640777583,0.00100000000384171
16,1,5580.23740648129,0.000999999996565748
16,2,6798.04424609287,0
16,3,8576.15473088458,0.00100000000384171
16,4,5392.21312165342,0.000999999996565748
16,5,7601.03588861695,0
16,6,4689.5517259061,0.00100000000384171
16,7,1803.26667369059,0.000999999996565748
16,8,7458.72583748174,0
16,9,5484.31574033812,0.00100000000384171
16,10,4978.25368444988,0.000999999996565748
16,11,3386.38202376445,0
16,12,8694.83800626253,0.00100000000384171
16,13,5618.87997964654,0.000999999996565748
16,14,3283.48123154662,0
16,15,2252.0502215051,0.00100000000384171
16,16,6954.65421819573,0.000999999996565748
16,17,3777.70822080846,0
16,18,2811.09224856493,0.00100000000384171
16,19,10684.9767142931,0.000999999996565748
16,20,3342.94966313562,0
16,21,7096.10967729012,0.000999999996565748
16,22,4060.78745790878,0.00100000000384171
16,23,5161.32054136214,0
16,24,6283.3456947833,0.000999999996565748
16,25,2425.6952681234,0.00100000000384171
16,26,10411.6833391287,0
16,27,2822.52052631442,0.000999999996565748
16,28,4258.81151087913,0.00100000000384171
16,29,11083.7999637042,0
16,30,3648.88139505435,0.000999999996565748
17,1,5010.82334427928,0.00100000000384171
17,2,2996.21606873092,0
17,3,2430.95091992016,0.000999999996565748
17,4,3211.24901265519,0.00100000000384171
17,5,2136.07879705518,0
17,6,5486.93439269919,0.000999999996565748
17,7,8874.39158835012,0.00100000000384171
17,8,2077.72730980982,0
17,9,3764.26000611655,0
17,10,4668.10548385308,0.0120000000024447
17,11,10182.0725104618,0
17,12,3964.01227883716,0.000999999996565748
17,13,4268.28442887873,0.00100000000384171
17,14,7266.09787929832,0
17,15,6717.03925143298,0.000999999996565748
17,16,4019.35148957905,0.00100000000384171
17,17,8340.32920197127,0
17,18,5917.94856518893,0
17,19,4300.15485550519,0.00100000000384171
17,20,5755.61368898046,0
17,21,3094.21125097464,0
17,22,10684.4817028325,0.00100000000384171
17,23,3798.28583344746,0.000999999996565748
17,24,3029.68733115739,0
17,25,8615.50086983588,0.00100000000384171
17,26,3710.9808456616,0.000999999996565748
17,27,8624.09757320183,0
17,28,4969.6915908914,0.000999999996565748
17,29,5207.84862195627,0.00100000000384171
17,30,5848.55862827011,0
18,1,5956.7652799639,0.000999999996565748
18,2,7103.07306000917,0.00100000000384171
18,3,8359.33800160522,0
18,4,5489.88926828442,0.000999999996565748
18,5,7533.77015191893,0.00100000000384171
18,6,4573.34214148481,0
18,7,2613.48895219701,0.000999999996565748
18,8,7660.19451050118,0.00100000000384171
18,9,5439.51904745849,0
18,10,5364.99440270407,0.000999999996565748
18,11,3274.46168458291,0.00100000000384171
18,12,9188.56566917732,0
18,13,6213.22465362281,0.000999999996565748
18,14,2437.74210665544,0.00100000000384171
18,15,2122.53249893104,0
18,16,7482.0179319281,0.000999999996565748
18,17,3824.40255795128,0.00100000000384171
18,18,3243.65500460849,0
18,19,10664.967925665,0.000999999996565748
18,20,3485.10425327484,0.00100000000384171
18,21,6808.34467399904,0
18,22,4187.63606433834,0.000999999996565748
18,23,5443.13380771712,0.000999999996565748
18,24,6190.14028947484,0
18,25,2442.9339180851,0.00100000000384171
18,26,10390.3540320783,0.000999999996565748
18,27,2557.88818764916,0
18,28,4734.7438896725,0.00100000000384171
18,29,11345.4638600017,0.000999999996565748
18,30,3885.17476347352,0
19,1,2194.92525109071,0.00100000000384171
19,2,2712.70655345128,0.000999999996565748
19,3,5361.2501868624,0
19,4,2556.64929990852,0.010999999998603
19,5,3888.61834475785,0.000999999996565748
19,6,3274.56225740217,0
19,7,6319.81309492192,0.00100000000384171
19,8,3559.21093431856,0.000999999996565748
19,9,3687.76824121505,0
19,10,1825.60959611378,0
19,11,7484.66215980561,0.000999999996565748
19,12,4716.61606540292,0.00100000000384171
19,13,1832.45716358673,0
19,14,5687.41142769566,0.000999999996565748
19,15,4242.80012551389,0.00100000000384171
19,16,3296.20069190173,0
19,17,5805.97204009702,0.000999999996565748
19,18,3875.33619332056,0.00100000000384171
19,19,7131.62029902741,0
19,20,3734.07955092316,0.000999999996565748
19,21,4606.14973807905,0.00100000000384171
19,22,8082.89595508951,0
19,23,1743.16842191398,0.000999999996565748
19,24,4028.20598468572,0.00100000000384171
19,25,6378.93405838684,0
19,26,6812.49313897844,0.000999999996565748
19,27,6498.77064481202,0.00100000000384171
19,28,2598.36509331646,0
19,29,7383.60179109398,0.000999999996565748
19,30,3975.90545375788,0.000999999996565748
20,1,5380.22204063499,0
20,2,6584.55139213809,0.00100000000384171
20,3,7944.13288043553,0.000999999996565748
20,4,5056.00201826789,0
20,5,7309.40450730127,0.00100000000384171
20,6,4588.04603310802,0.000999999996565748
20,7,2334.00494826711,0
20,8,7241.70565032752,0.00100000000384171
20,9,5325.75392931784,0.000999999996565748
20,10,5003.18681445518,0
20,11,3942.63657583188,0.00100000000384171
20,12,8372.22966680291,0.000999999996565748
20,13,5662.22936815972,0
20,14,3038.51107054973,0.00100000000384171
20,15,2274.88556588259,0.000999999996565748
20,16,6817.2693829414,0
20,17,4298.63776848855,0
20,18,2674.77207471738,0.000999999996565748
20,19,10114.9172828133,0.00100000000384171
20,20,3301.71764076233,0
20,21,6925.39308822181,0.000999999996565748
20,22,4580.56705494087,0.00100000000384171
20,23,4971.06576966967,0
20,24,5784.30195525711,0.000999999996565748
20,25,2697.36965779769,0.00100000000384171
20,26,9946.57299804512,0
20,27,2921.02695800036,0.000999999996565748
20,28,4104.31324208144,0.010999999998603
20,29,10530.2554485948,0.00100000000384171
20,30,3590.4344829601,0.000999999996565748
21,1,6805.73358078197,0.00100000000384171
21,2,8035.51803218271,0
21,3,9920.42832486303,0.000999999996565748
21,4,6739.35382817173,0.00100000000384171
21,5,8407.72756849208,0
21,6,5054.99448143,0.000999999996565748
21,7,4836.63756582313,0.000999999996565748
21,8,8437.93751298193,0
21,9,6356.27973965433,0.00100000000384171
21,10,5686.77074096535,0.000999999996565748
21,11,4928.2065256471,0
21,12,10104.2046063529,0.00100000000384171
21,13,6419.24956272972,0.000999999996565748
21,14,5280.91119159202,0
21,15,3655.14198662449,0.00100000000384171
21,16,8212.40482026734,0.000999999996565748
21,17,2487.19111729235,0
21,18,4977.2167064035,0.00100000000384171
21,19,12064.0066334668,0.000999999996565748
21,20,4238.27634840068,0
21,21,7470.04510558734,0.00100000000384171
21,22,5720.97558317829,0.000999999996565748
21,23,6151.67474688238,0
21,24,7781.68713853198,0.00100000000384171
21,25,5275.52479818139,0.000999999996565748
21,26,11546.1497114083,0
21,27,5602.78552722375,0.00100000000384171
21,28,5931.42641464019,0.000999999996565748
21,29,12593.076294864,0
21,30,5433.94973608617,0.00100000000384171
22,1,8445.05358301753,0.000999999996565748
22,2,9705.17929034595,0
22,3,11214.0817187926,0.000999999996565748
22,4,8233.39562109124,0.00100000000384171
22,5,10355.9889546532,0
22,6,7046.81627039873,0
22,7,2956.75494635998,0.00100000000384171
22,8,10323.4735237163,0.000999999996565748
22,9,8247.11964604986,0
22,10,7871.48733264388,0.00100000000384171
22,11,1933.84856128668,0.000999999996565748
22,12,11704.3854748164,0
22,13,8615.66616962927,0.00100000000384171
22,14,4886.48035832964,0.000999999996565748
22,15,4969.40636219773,0
22,16,9866.09987923124,0.00100000000384171
22,17,5131.34431867841,0.000999999996565748
22,18,5868.40725653468,0
22,19,13451.2793811727,0.00100000000384171
22,20,6295.98220990161,0.000999999996565748
22,21,9680.3337210769,0
22,22,2114.54639260125,0.0120000000024447
22,23,8173.65173402555,0.000999999996565748
22,24,8964.68642504072,0
22,25,2929.24736020647,0.00100000000384171
22,26,13169.9091607363,0.000999999996565748
22,27,2990.6069862458,0
22,28,7022.97261956525,0.00100000000384171
22,29,14025.4270463535,0.000999999996565748
22,30,6569.54473113234,0
23,1,7371.02955903684,0.00100000000384171
23,2,5098.62846515648,0.000999999996565748
23,3,4621.45058342317,0
23,4,6567.36535743192,0
23,5,5113.062616346,0.000999999996565748
23,6,8416.57564630999,0
23,7,11255.6396438672,0
23,8,5136.02611946748,0.000999999996565748
23,9,7259.46536846723,0
23,10,7543.03926119998,0
23,11,12634.5008716421,0.00100000000384171
23,12,3703.41569458965,0.000999999996565748
23,13,6877.41129122829,0
23,14,10077.9390440043,0.00100000000384171
23,15,9354.93263486922,0
23,16,5389.32413116831,0
23,17,11207.4089562291,0.00100000000384171
23,18,8778.09368756641,0
23,19,1847.76609374656,0
23,20,8667.59856890031,0.00100000000384171
23,21,6734.22859060625,0
23,22,13128.6450330286,0
23,23,6894.48845663615,0.00100000000384171
23,24,6344.18369470257,0
23,25,11109.9009362283,0
23,26,2736.27982265066,0.00100000000384171
23,27,11057.2944994,0
23,28,7992.74456171742,0
23,29,1597.92038485455,0.00100000000384171
23,30,8886.66149919563,0.000999999996565748
24,1,5833.1963603075,0
24,2,2904.27387611248,0.00100000000384171
24,3,3541.70640662476,0.000999999996565748
24,4,4700.42658941142,0
24,5,2623.47405083324,0.00100000000384171
24,6,6359.27744523263,0.000999999996565748
24,7,9831.33711974691,0
24,8,2406.89896927959,0.000999999996565748
24,9,5086.31743130906,0.00100000000384171
24,10,5358.87846908308,0
24,11,11209.4738690016,0.000999999996565748
24,12,2768.02488860329,0.00100000000384171
24,13,4652.31755061807,0
24,14,8486.73326943184,0.000999999996565748
24,15,7665.67832516143,0.00100000000384171
24,16,3373.78676411894,0.010999999998603
24,17,9233.46346680969,0.000999999996565748
24,18,7083.58305514002,0.00100000000384171
24,19,3183.90696774275,0
24,20,6769.20082825431,0.000999999996565748
24,21,4393.20847377957,0.00100000000384171
24,22,11709.8003881459,0
24,23,4763.3341223799,0.000999999996565748
24,24,4656.26448881445,0.00100000000384171
24,25,9717.89878293627,0.000999999996565748
24,26,2457.67887811807,0
24,27,9669.10153693783,0.00100000000384171
24,28,6119.97390043407,0.000999999996565748
24,29,3812.26357687751,0
24,30,7114.46879717977,0.00100000000384171
25,1,5330.13904718645,0.000999999996565748
25,2,6506.89500430646,0
25,3,8267.25451470101,0.00100000000384171
25,4,5025.94210311927,0.000999999996565748
25,5,7172.67732425674,0
25,6,4037.45940537698,0.00100000000384171
25,7,2621.95682064856,0.000999999996565748
25,8,7173.57582229096,0
25,9,5040.38086430343,0.00100000000384171
25,10,4515.94097709429,0.000999999996565748
25,11,3850.92484235494,0
25,12,8478.71331422869,0.00100000000384171
25,13,5260.00530920912,0.000999999996565748
25,14,3019.21188751837,0
25,15,1698.90950715574,0.000999999996565748
25,16,6699.7072091105,0.00100000000384171
25,17,3265.31961415351,0
25,18,2592.5385421336,0.000999999996565748
25,19,10368.5272778843,0.00100000000384171
25,20,2669.4720669809,0
25,21,6609.0791194924,0.000999999996565748
25,22,4572.12945029628,0.00100000000384171
25,23,4757.93417893746,0
25,24,5980.12359023142,0.000999999996565748
25,25,2955.70100237265,0.00100000000384171
25,26,10084.2730600809,0
25,27,3304.1651590517,0.000999999996565748
25,28,3964.78630189676,0.00100000000384171
25,29,10840.3670972347,0
25,30,3517.59444460668,0.000999999996565748
26,1,4075.73346960868,0.00100000000384171
26,2,4825.75484020181,0
26,3,6166.56848795748,0
26,4,2787.27760591237,0.00100000000384171
26,5,5238.32914000577,0
26,6,3083.48853732419,0
26,7,4579.61606563661,0.00100000000384171
26,8,5090.97820467478,0.000999999996565748
26,9,2773.50518926485,0
26,10,3282.78648306561,0.0120000000024447
26,11,5961.09541373196,0
26,12,6796.99122113543,0.000999999996565748
26,13,3722.4607696853,0.00100000000384171
26,14,3537.5278603503,0.000999999996565748
26,15,2661.04718974076,0
26,16,5191.19264682508,0.00100000000384171
26,17,4355.14558603796,0.000999999996565748
26,18,1617.86538463125,0
26,19,8510.03837176253,0.000999999996565748
26,20,1741.67603542587,0.00100000000384171
26,21,4434.29265559524,0
26,22,6502.14959302816,0.000999999996565748
26,23,2777.21407135195,0.00100000000384171
26,24,3704.36226080598,0
26,25,4596.46605528925,0.000999999996565748
26,26,8117.19303215706,0.00100000000384171
26,27,4814.21951358947,0
26,28,2227.55376810845,0.000999999996565748
26,29,9096.64730907935,0.00100000000384171
26,30,2209.46144406973,0
27,1,5023.77628310821,0.000999999996565748
27,2,6487.23971979073,0.00100000000384171
27,3,8119.6470127497,0
27,4,4781.87714935919,0.000999999996565748
27,5,7241.13981616712,0.00100000000384171
27,6,4310.70850435261,0
27,7,3066.5263964429,0.000999999996565748
27,8,6984.80355798868,0.00100000000384171
27,9,4999.09747666859,0
27,10,4508.68661922463,0.000999999996565748
27,11,4367.35438524575,0.00100000000384171
27,12,8252.50639853671,0
27,13,5068.11482283455,0.000999999996565748
27,14,3850.65695524074,0.00100000000384171
27,15,2240.3218751052,0
27,16,6675.23096010779,0.000999999996565748
27,17,3661.58337268091,0.000999999996565748
27,18,2455.55532505935,0
27,19,10297.5798001503,0.00100000000384171
27,20,2761.90356686517,0.000999999996565748
27,21,6615.02670562628,0
27,22,5029.34731828194,0.00100000000384171
27,23,4533.33166672066,0.000999999996565748
27,24,5789.8914801683,0
27,25,3521.78746726202,0.00100000000384171
27,26,9990.87409593821,0.000999999996565748
27,27,4005.19480328904,0
27,28,3664.11871457443,0
27,29,10630.1945290644,0.000999999996565748
27,30,3317.44835110228,0.00100000000384171
28,1,4557.22052233571,0
28,2,2452.58060746499,0.000999999996565748
28,3,6069.64108919988,0.00100000000384171
28,4,4008.41768048172,0.010999999998603
28,5,3292.639392242,0.000999999996565748
28,6,3940.08072828274,0.00100000000384171
28,7,7771.30499078575,0
28,8,2995.94344291704,0.000999999996565748
28,9,4145.27219984036,0.00100000000384171
28,10,2532.2289478681,0
28,11,9015.7810941668,0.000999999996565748
28,12,4013.29399440603,0.00100000000384171
28,13,1881.28097206244,0
28,14,7131.37087781972,0
28,15,5587.59985024936,0.00100000000384171
28,16,2163.41695709634,0
28,17,6467.74915221116,0
28,18,5503.04375387351,0.00100000000384171
28,19,6845.81333704985,0
28,20,4698.89708453071,0
28,21,4497.03260738211,0.00100000000384171
28,22,9581.96010386916,0.000999999996565748
28,23,2878.10400119574,0
28,24,5119.53430689797,0.000999999996565748
28,25,7968.81448541886,0.00100000000384171
28,26,6236.31689013394,0
28,27,8035.24631036123,0.000999999996565748
28,28,4249.381718569,0.00100000000384171
28,29,7073.5249669431,0
28,30,5689.32584393988,0.000999999996565748
29,1,5113.46057157362,0.00100000000384171
29,2,5847.04454629227,0
29,3,6841.94513918755,0.000999999996565748
29,4,3961.42478733883,0.00100000000384171
29,5,6210.78836070772,0
29,6,4250.18886273792,0.000999999996565748
29,7,3731.15498597161,0
29,8,6298.75318307157,0
29,9,3823.22241385235,0.000999999996565748
29,10,4556.28243704342,0.00100000000384171
29,11,5140.98622562063,0
29,12,7855.60287729923,0.000999999996565748
29,13,5171.1706722687,0.00100000000384171
29,14,2379.76232891499,0
29,15,2677.41925417197,0.000999999996565748
29,16,6265.81365278395,0.00100000000384171
29,17,4814.44710652822,0
29,18,1771.89903069497,0.000999999996565748
29,19,9132.31886912377,0.000999999996565748
29,20,2702.17950761881,0
29,21,5384.07883792017,0.00100000000384171
29,22,5710.8004619353,0.000999999996565748
29,23,4220.47351706811,0
29,24,4521.91633508083,0.00100000000384171
29,25,3556.82500152465,0.000999999996565748
29,26,8876.47887458063,0
29,27,3715.22095055844,0
29,28,3638.19625563868,0.010999999998603
29,29,9811.58211772525,0
29,30,2318.38563189579,0.000999999996565748
30,1,5185.51985044216,0.000999999996565748
30,2,4560.87397880319,0
30,3,4725.82086928094,0
30,4,2889.65899262497,0.000999999996565748
30,5,3864.08539370625,0.00100000000384171
30,6,4065.02192434489,0
30,7,6563.99080250065,0.000999999996565748
30,8,4363.77597769945,0.00100000000384171
30,9,1577.15393633458,0
30,10,4341.2636370572,0.000999999996565748
30,11,7841.35777373752,0.00100000000384171
30,12,6593.85054102024,0
30,13,4671.37974870776,0.000999999996565748
30,14,4045.55041614696,0.00100000000384171
30,15,4371.43075256196,0
30,16,5331.94597675531,0.000999999996565748
30,17,6082.41973080692,0.00100000000384171
30,18,3375.34512944771,0
30,19,7192.01047901543,0.000999999996565748
30,20,3209.30803714962,0.00100000000384171
30,21,2292.94667931247,0
30,22,8414.94677152746,0.000999999996565748
30,23,3550.14834386467,0.00100000000384171
30,24,2587.34315636718,0
30,25,6199.64525316912,0.000999999996565748
30,26,6742.24609087849,0.000999999996565748
30,27,6179.34099767319,0
30,28,3969.42374943434,0.00100000000384171
30,29,8338.24883375414,0.000999999996565748
30,30,3253.91551733432,0
