"Before.Trace.ID1","Before.Trace.ID2","Difference","Runtime"
1,2,571654.177990512,0
1,3,451885.681293942,0.00100000000020373
1,4,443218.371605649,0
1,5,242994.541292826,0.00100000000020373
1,6,213954.148719138,0
1,7,341381.979482374,0
1,8,109327.867799573,0.00100000000020373
1,9,135009.119801134,0
1,10,254237.836916786,0.00100000000020373
1,11,272002.696553162,0
1,12,265700.570278455,0
1,13,414204.816225357,0
1,14,358107.391899371,0
1,15,340196.560547891,0.00100000000020373
1,16,292343.385446643,0
1,17,344812.851865378,0.00100000000020373
1,18,328324.790284883,0
1,19,453835.59330173,0
1,20,335460.524579963,0.00100000000020373
1,21,343124.963149026,0
1,22,142142.980881707,0.00100000000020373
1,23,277757.253738668,0
1,24,336747.786397179,0
1,25,466758.391693339,0.00100000000020373
1,26,404872.534436236,0
1,27,376968.03453462,0.000999999996565748
1,28,330519.203570843,0
1,29,271323.245761668,0.00100000000020373
1,30,421137.127471857,0
2,3,159341.993116985,0
2,4,188522.000298197,0.00100000000020373
2,5,429718.704089675,0
2,6,480860.378105201,0.00100000000020373
2,7,316874.113438647,0
2,8,571097.106656194,0
2,9,666404.485446546,0.00100000000020373
2,10,379657.687172234,0
2,11,403875.860409681,0.00100000000020373
2,12,388103.314482262,0
2,13,214014.969948084,0
2,14,339170.742163816,0
2,15,334669.338921101,0
2,16,440014.309482102,0.00100000000020373
2,17,839122.20258168,0
2,18,337991.040186313,0.00100000000020373
2,19,218191.374752157,0
2,20,298191.685355774,0
2,21,283126.078639752,0.00100000000020373
2,22,586082.041517974,0
2,23,674067.61415227,0.00100000000020373
2,24,374792.141011977,0
2,25,156732.629741175,0
2,26,193143.423569472,0
2,27,297244.392296609,0
2,28,319340.899153405,0.00100000000020373
2,29,354728.09917341,0
2,30,244214.493533442,0.00100000000020373
3,4,118922.567601033,0
3,5,306661.175343077,0
3,6,349004.532487451,0.00100000000020373
3,7,219911.943457124,0
3,8,446687.247792963,0.00100000000020373
3,9,557772.955428013,0
3,10,255846.151953102,0
3,11,277449.202418917,0.00100000000020373
3,12,258768.379298698,0
3,13,120682.907469377,0.00100000000020373
3,14,218277.51448063,0
3,15,237131.025545815,0
3,16,319252.110822655,0
3,17,742452.530230399,0
3,18,224277.465956709,0.00100000000020373
3,19,113736.494822172,0
3,20,176371.063933533,0.00100000000020373
3,21,166908.556090347,0
3,22,476799.358392142,0
3,23,580899.300761713,0.00100000000020373
3,24,268316.187096103,0
3,25,83509.1682790869,0.00100000000020373
3,26,96841.7557174955,0
3,27,184525.405132417,0
3,28,184855.066751389,0.00100000000020373
3,29,229688.1959954,0
3,30,190460.437433601,0.00100000000020373
4,5,265794.797165463,0
4,6,327041.907311129,0
4,7,227961.565874979,0
4,8,428114.401079522,0
4,9,542677.822378801,0.00100000000020373
4,10,281123.798578957,0
4,11,250047.227799095,0.00100000000020373
4,12,245949.127307451,0
4,13,89467.845595498,0
4,14,174723.262992908,0.00100000000020373
4,15,238241.93546639,0
4,16,296658.824010696,0.00100000000020373
4,17,713604.594137439,0
4,18,183353.49337047,0
4,19,139980.861644469,0
4,20,168124.525453501,0
4,21,168486.147711664,0.00100000000020373
4,22,464338.933341414,0
4,23,568468.652790614,0.00100000000020373
4,24,218633.08324754,0
4,25,100416.03427154,0
4,26,154321.840457592,0.00100000000020373
4,27,129076.498668782,0
4,28,188799.562321253,0.00100000000020373
4,29,219404.986196618,0.00999999999839929
4,30,179835.766709656,0.00100000000020373
5,6,117997.619980121,0
5,7,239685.719784773,0.00100000000020373
5,8,211722.518768451,0
5,9,342293.238731041,0
5,10,216471.225771589,0.00100000000020373
5,11,103644.360250572,0
5,12,119219.774905725,0.00100000000020373
5,13,249363.613434091,0
5,14,150108.828534087,0
5,15,242660.547957239,0
5,16,173861.866538766,0
5,17,505278.566303237,0.00100000000020373
5,18,135060.046115778,0
5,19,292150.23236943,0.00100000000020373
5,20,185191.96288874,0
5,21,203943.738884705,0
5,22,288761.1248226,0.00100000000020373
5,23,407343.384757971,0
5,24,139334.776775456,0.000999999996565748
5,25,305876.787418054,0
5,26,285336.942290481,0
5,27,169865.081900966,0.00100000000020373
5,28,166624.401465694,0
5,29,133587.853738393,0.00100000000020373
5,30,296893.848484579,0
6,7,308031.712965846,0
6,8,165779.148621484,0
6,9,323885.526481238,0
6,10,198324.196371155,0.00100000000020373
6,11,170218.223886312,0
6,12,117292.439752427,0.00100000000020373
6,13,304164.779194012,0
6,14,213592.395647477,0
6,15,311237.933471254,0.00100000000020373
6,16,124671.454956706,0
6,17,488044.785204725,0.00100000000020373
6,18,197895.938102015,0
6,19,317352.322409602,0
6,20,243296.594879071,0
6,21,270914.409539621,0
6,22,255770.097377929,0.00100000000020373
6,23,375342.184810502,0
6,24,212546.82776534,0.00100000000020373
6,25,346600.454223926,0
6,26,324987.962138645,0
6,27,226831.353363698,0.00100000000020373
6,28,192226.539197111,0
6,29,192072.641872146,0.00100000000020373
6,30,368621.11635905,0
7,8,358850.883319937,0
7,9,431665.222943201,0.00100000000020373
7,10,252116.939195606,0
7,11,179753.627779812,0.00100000000020373
7,12,240038.564987045,0
7,13,196904.497738249,0
7,14,214378.001842044,0
7,15,94213.6045144073,0
7,16,348609.921560351,0.00100000000020373
7,17,634232.167523912,0
7,18,186315.272183132,0.00100000000020373
7,19,278377.932634348,0
7,20,132964.829684185,0
7,21,89482.8115751725,0.000999999996565748
7,22,407440.941814585,0
7,23,531768.634120729,0.00100000000020373
7,24,195710.412667986,0
7,25,250905.097656426,0
7,26,198435.370369787,0.00100000000020373
7,27,231664.978020753,0
7,28,201811.619821151,0.00100000000020373
7,29,141702.550225776,0
7,30,131128.08802733,0
8,9,184232.450192928,0
8,10,255935.124435639,0
8,11,249528.328204734,0.00100000000020373
8,12,227838.348923945,0
8,13,399705.267553681,0.00100000000020373
8,14,319806.760321064,0
8,15,360041.439292929,0
8,16,244363.185829929,0.00100000000020373
8,17,364585.019995845,0
8,18,305708.950389239,0.00100000000020373
8,19,430450.989525576,0
8,20,327480.666841902,0
8,21,343096.431160445,0.00100000000020373
8,22,149602.81385399,0
8,23,308921.113538492,0.00100000000020373
8,24,312871.790825839,0
8,25,451236.067353327,0
8,26,409504.086041652,0
8,27,349301.181064987,0
8,28,308001.242128346,0.00100000000020373
8,29,265230.621119598,0
8,30,431071.755054617,0.00100000000020373
9,10,357210.601821369,0
9,11,375040.343494754,0
9,12,370825.004231528,0.00100000000020373
9,13,512078.308949719,0
9,14,459350.109072739,0.00100000000020373
9,15,424136.064132878,0
9,16,397388.993249686,0
9,17,254821.35779198,0.00100000000020373
9,18,428637.2335959,0
9,19,561971.922141305,0.00100000000020373
9,20,435335.643748745,0
9,21,440829.096831494,0.000999999996565748
9,22,158962.147121716,0
9,23,271523.503586634,0
9,24,433877.724078646,0.00100000000020373
9,25,570037.410755002,0
9,26,506228.150897896,0.00100000000020373
9,27,480977.398618962,0
9,28,444393.061714414,0
9,29,371923.563652001,0.00100000000020373
9,30,505494.067003878,0
10,11,234992.228115537,0.00100000000020373
10,12,146040.383940564,0
10,13,244108.793046782,0
10,14,251523.68910588,0
10,15,244235.7076167,0
10,16,201026.584998619,0.00100000000020373
10,17,549721.327583339,0
10,18,224512.135544978,0.00100000000020373
10,19,262246.412063361,0
10,20,197284.669441367,0
10,21,215259.28171248,0.00100000000020373
10,22,265263.054013716,0
10,23,390298.486167967,0.00100000000020373
10,24,277393.754335546,0
10,25,277542.071828841,0
10,26,207223.462602844,0.00100000000020373
10,27,240664.730550531,0
10,28,188777.172292147,0.00100000000020373
10,29,173329.575233998,0
10,30,295370.883100103,0
11,12,140210.143739358,0.00100000000020373
11,13,225550.460420412,0
11,14,121526.767849986,0.00100000000020373
11,15,200879.880607795,0
11,16,234997.481980206,0
11,17,562315.685224812,0
11,18,109540.799260958,0
11,19,278319.432761961,0.00100000000020373
11,20,145689.197926944,0
11,21,153945.289585431,0.00100000000020373
11,22,343384.314577442,0
11,23,475084.251130303,0
11,24,100420.182314581,0.00100000000020373
11,25,283434.649623673,0
11,26,269497.305729763,0.000999999996565748
11,27,173189.839249011,0
11,28,139166.584617284,0
11,29,104217.163529012,0.00100000000020373
11,30,251686.896543783,0
12,13,209664.035779292,0.00100000000020373
12,14,148356.109712977,0
12,15,246990.228601451,0
12,16,143953.564190525,0
12,17,550257.965719235,0
12,18,125258.221567549,0.00100000000020373
12,19,233040.83284461,0
12,20,160730.149455675,0.00100000000020373
12,21,187940.064789472,0
12,22,292969.126848393,0
12,23,424953.694739216,0.00100000000020373
12,24,169665.769095497,0
12,25,254042.955595236,0.00100000000020373
12,26,234390.19909926,0
12,27,160365.546445297,0
12,28,114465.712905494,0.00100000000020373
12,29,124929.500039603,0
12,30,287693.311910848,0.00100000000020373
13,14,165545.845239598,0
13,15,199156.446007009,0
13,16,292221.009771599,0
13,17,696322.66941022,0
13,18,150406.892174543,0.00100000000020373
13,19,149789.050139497,0
13,20,115027.934845223,0.00100000000020373
13,21,131160.071301463,0
13,22,435474.415280828,0
13,23,556865.957708087,0.00100000000020373
13,24,201134.899736937,0
13,25,107480.156093236,0.00100000000020373
13,26,140881.312379644,0
13,27,129149.296379844,0
13,28,166903.232265045,0.00100000000020373
13,29,174120.956535797,0
13,30,150913.892166123,0.00100000000020373
14,15,229922.264193379,0
14,16,220867.15566057,0
14,17,632760.973420576,0.00100000000020373
14,18,101891.251378374,0
14,19,194665.135343017,0.000999999996565748
14,20,138892.698134767,0
14,21,152196.781775815,0
14,22,396575.967721637,0
14,23,521773.798684861,0
14,24,117502.355555708,0.00100000000020373
14,25,211650.59341183,0
14,26,233912.517209677,0.00100000000020373
14,27,95621.0723978806,0
14,28,120479.255024984,0
14,29,149210.993993383,0.00100000000020373
14,30,240559.590528088,0
15,16,354984.646921433,0.00100000000020373
15,17,634551.890303606,0
15,18,198445.036231849,0
15,19,298382.143178809,0.00100000000020373
15,20,122726.774290359,0
15,21,119739.060891081,0.00100000000020373
15,22,397392.965475649,0
15,23,531081.159082729,0
15,24,222784.56923976,0.00100000000020373
15,25,274012.2385632,0
15,26,222620.233837231,0.00100000000020373
15,27,232846.719471679,0
15,28,233270.844377053,0
15,29,138031.074298298,0
15,30,119724.485809971,0
16,17,531393.361709828,0.00100000000020373
16,18,225859.591230583,0
16,19,265624.152285676,0.00100000000020373
16,20,270851.684129688,0
16,21,293659.551123771,0
16,22,292774.245507783,0.00100000000020373
16,23,377121.481461382,0
16,24,254112.08112321,0.00100000000020373
16,25,308189.484437134,0
16,26,296989.006553632,0
16,27,210765.430751534,0.00100000000020373
16,28,192808.25953857,0
16,29,242380.278883831,0.00100000000020373
16,30,389002.483174879,0
17,18,608122.651126874,0
17,19,729734.908977109,0.00100000000020373
17,20,635593.807331736,0
17,21,636470.860752448,0.000999999996565748
17,22,309380.835687392,0
17,23,254719.441781167,0
17,24,603991.534291629,0
17,25,743644.451996577,0
17,26,685406.826754707,0.00100000000020373
17,27,648430.356622147,0
17,28,623787.962576043,0.00100000000020373
17,29,571720.279864057,0
17,30,705872.461543523,0
18,19,218675.754830667,0.00100000000020373
18,20,110184.120900813,0
18,21,134220.476546265,0.00100000000020373
18,22,374983.960487919,0
18,23,496108.213424141,0
18,24,78482.0816293241,0.00100000000020373
18,25,211487.890976966,0
18,26,218318.069880308,0.00100000000020373
18,27,107295.071490893,0
18,28,109689.84338792,0
18,29,105804.600575458,0
18,30,215971.325504821,0
19,20,211205.311198481,0.00100000000020373
19,21,211697.574371462,0
19,22,467143.023278806,0.00100000000020373
19,23,562933.324642299,0
19,24,261393.221143467,0
19,25,94774.4178503533,0.00100000000020373
19,26,154068.784813696,0
19,27,159830.474978833,0.00100000000020373
19,28,169566.47576754,0
19,29,251572.0185684,0
19,30,264050.676615649,0.00100000000020373
20,21,75566.1970823668,0
20,22,378778.588163127,0.00100000000020373
20,23,515801.46273857,0.00999999999839929
20,24,156645.944598545,0
20,25,193804.922207393,0
20,26,176009.420106602,0.00100000000020373
20,27,138011.716939619,0
20,28,137765.201661636,0.00100000000020373
20,29,78706.0175894812,0
20,30,145502.446760906,0.00100000000020373
21,22,391953.622728529,0
21,23,518568.710938547,0
21,24,163360.407937315,0.00100000000020373
21,25,191123.506614659,0
21,26,155122.167355656,0.00100000000020373
21,27,166531.519317297,0
21,28,143445.382323442,0
21,29,108394.371836785,0
21,30,133026.621860901,0
22,23,209054.695956886,0.00100000000020373
22,24,397418.355373685,0
22,25,484428.49058663,0.00100000000020373
22,26,424742.608596857,0
22,27,403515.19494332,0
22,28,375657.986456958,0.00100000000020373
22,29,323063.91172091,0
22,30,464888.981886981,0.000999999996565748
23,24,511722.605087993,0
23,25,584303.459584813,0
23,26,520322.371385425,0.00100000000020373
23,27,512131.501945685,0
23,28,487603.245538429,0.00100000000020373
23,29,461990.123135679,0
23,30,591019.751809377,0
24,25,253479.44038958,0
24,26,263804.214031736,0
24,27,145830.29478445,0.00100000000020373
24,28,145342.851927482,0
24,29,145420.174416085,0.00100000000020373
24,30,241732.846959177,0
25,26,123592.83983025,0
25,27,169751.436448004,0.00100000000020373
25,28,182254.629336847,0
25,29,244716.154978699,0.00100000000020373
25,30,215144.110622362,0
26,27,202005.232219986,0
26,28,176578.553280772,0.00100000000020373
26,29,210394.836494588,0
26,30,195894.752116414,0.00100000000020373
27,28,129886.708833457,0
27,29,160279.833054542,0
27,30,228203.926119985,0
28,29,136495.122299431,0
28,30,249917.513192572,0.00100000000020373
29,30,194309.512517551,0


"After.Trace.ID","Before.Trace.ID","Difference","Runtime"
1,1,194778.977019936,0
1,2,521873.448505373,0.00100000000020373
1,3,395300.211515312,0
1,4,369142.957305101,0.00100000000020373
1,5,141146.411539774,0
1,6,99140.9389058526,0
1,7,315784.136770095,0.00100000000020373
1,8,130752.333383174,0
1,9,287992.757524088,0.00100000000020373
1,10,250243.253797928,0
1,11,170997.657481009,0.000999999996565748
1,12,158412.999472482,0
1,13,340227.29363572,0
1,14,237012.972825284,0.00100000000020373
1,15,328291.204983076,0
1,16,194595.59063168,0.00100000000020373
1,17,448842.687474717,0
1,18,221833.9208789,0
1,19,365369.550513722,0.00100000000020373
1,20,272529.393915744,0
1,21,289651.853901691,0.00100000000020373
1,22,250144.917372159,0
1,23,379679.680050044,0.00100000000020373
1,24,218745.458766192,0
1,25,389622.64184395,0
1,26,368193.235023169,0.00100000000020373
1,27,274294.227097577,0
1,28,232085.609623057,0.00100000000020373
1,29,214028.590674632,0
1,30,388201.236857303,0
2,1,201975.81886698,0.00100000000020373
2,2,741952.42343429,0
2,3,632448.189947938,0.00100000000020373
2,4,613202.215355066,0
2,5,400449.338543462,0
2,6,371549.745712529,0
2,7,516405.03648994,0
2,8,235418.111983047,0.00100000000020373
2,9,111666.027756769,0
2,10,430079.555561255,0.00100000000020373
2,11,444571.509522737,0
2,12,436272.060687342,0
2,13,588236.928182802,0.00100000000020373
2,14,525850.396851792,0
2,15,513478.452058199,0.00100000000020373
2,16,435541.932425359,0
2,17,171138.543239158,0
2,18,498725.799102368,0
2,19,626540.327437393,0
2,20,516993.840440005,0.00100000000020373
2,21,522145.456712586,0
2,22,201750.797809155,0.00100000000020373
2,23,238846.379530914,0
2,24,498107.923680917,0
2,25,640161.091803601,0.000999999996565748
2,26,579719.59965408,0
2,27,545178.644781373,0.00100000000020373
2,28,509875.865674481,0
2,29,451994.776062538,0
2,30,592802.201689606,0.00100000000020373
3,1,728418.88091181,0
3,2,230982.965464229,0.00100000000020373
3,3,340264.749968793,0
3,4,386399.298940987,0
3,5,611901.571955596,0
3,6,641858.881718228,0
3,7,513728.482997294,0.00100000000020373
3,8,728621.4656717,0
3,9,818221.254401461,0.00100000000020373
3,10,521427.668450967,0
3,11,593244.396146817,0
3,12,552096.058476284,0.00100000000020373
3,13,409356.432631636,0
3,14,524194.119625383,0.00100000000020373
3,15,533237.855424634,0
3,16,578104.174162947,0
3,17,976866.217684093,0.00100000000020373
3,18,526953.082395384,0
3,19,365299.758640237,0.00100000000020373
3,20,494463.3349586,0
3,21,481525.05709245,0
3,22,722867.071486932,0
3,23,785570.800370104,0
3,24,569963.230919423,0.00100000000020373
3,25,333905.961096315,0
3,26,360778.286545473,0.00100000000020373
3,27,481430.8078724,0
3,28,488894.173235724,0
3,29,544173.305507978,0.00100000000020373
3,30,454270.483089951,0
4,1,137606.890650369,0.00100000000020373
4,2,514737.725239133,0
4,3,393088.671867593,0
4,4,378246.328736803,0
4,5,166752.910674028,0
4,6,167628.027567748,0.00100000000020373
4,7,262393.038334673,0
4,8,140436.929258777,0.000999999996565748
4,9,232297.925457549,0
4,10,240444.69750152,0
4,11,169805.13902704,0.00100000000020373
4,12,199257.354929094,0
4,13,346243.357344907,0.00100000000020373
4,14,273644.241185199,0
4,15,276515.879056464,0
4,16,267219.488267645,0.00100000000020373
4,17,429407.253983814,0
4,18,237230.855238484,0.00100000000020373
4,19,397982.657954196,0
4,20,258268.751195585,0
4,21,264917.809357787,0
4,22,238321.149521631,0
4,23,374552.450681072,0.00100000000020373
4,24,232267.784906794,0
4,25,401480.588697854,0.00100000000020373
4,26,355127.49828339,0
4,27,306596.309097379,0
4,28,250234.548690082,0.00100000000020373
4,29,190259.91867987,0
4,30,352256.972525396,0.00100000000020373
5,1,171960.745904121,0
5,2,437955.881409787,0
5,3,310125.790069106,0.00100000000020373
5,4,318023.668735028,0
5,5,181104.051740888,0.00100000000020373
5,6,179479.341714629,0
5,7,229146.112479848,0
5,8,178255.500093482,0
5,9,275296.212442325,0
5,10,134925.606598824,0.00100000000020373
5,11,190239.87125104,0
5,12,165477.474391485,0.00100000000020373
5,13,284012.404777214,0
5,14,249240.222950839,0
5,15,220787.97046793,0.00100000000020373
5,16,236223.162751778,0
5,17,487259.433073156,0.00100000000020373
5,18,232302.871030101,0
5,19,324174.117633512,0
5,20,203068.721342081,0.000999999996565748
5,21,216048.438483294,0
5,22,219142.693268432,0.00100000000020373
5,23,376720.53951015,0
5,24,261631.880674725,0
5,25,336875.573646331,0
5,26,274284.430323188,0
5,27,265555.783708498,0.00100000000020373
5,28,218838.806314705,0
5,29,152217.559911593,0.00100000000020373
5,30,295168.018827672,0
6,1,248299.294719929,0
6,2,384628.345490109,0.00100000000020373
6,3,256021.474742752,0
6,4,243384.725783375,0.00100000000020373
6,5,112722.001219117,0
6,6,156294.075300679,0
6,7,177993.139109998,0
6,8,231192.801102371,0
6,9,352474.16604224,0.00100000000020373
6,10,161877.957213072,0
6,11,95596.1346855352,0.00100000000020373
6,12,100021.800061117,0
6,13,207207.032795131,0
6,14,151324.173348909,0.00100000000020373
6,15,186503.632550913,0
6,16,211785.925701758,0.00100000000020373
6,17,549325.892384406,0
6,18,121826.970955154,0
6,19,266580.063460119,0
6,20,122186.688288859,0
6,21,143218.503407043,0.00100000000020373
6,22,300755.560414977,0
6,23,444313.60596651,0.00100000000020373
6,24,151896.084120796,0
6,25,266928.279010926,0
6,26,231513.706972355,0.00100000000020373
6,27,178281.310273832,0
6,28,129771.863858409,0.00100000000020373
6,29,70047.4220398941,0
6,30,243552.044241941,0
7,1,516835.441331648,0
7,2,128127.630123167,0
7,3,132092.715123637,0.000999999996565748
7,4,113708.184352606,0
7,5,352603.735079718,0.00100000000020373
7,6,402911.883924699,0
7,7,277868.349246575,0
7,8,506716.112956709,0.00100000000020373
7,9,615697.172662785,0
7,10,332262.486050438,0.00100000000020373
7,11,326581.524930288,0
7,12,310937.069267014,0
7,13,132109.842355006,0
7,14,255700.224006978,0
7,15,292467.984494864,0.00100000000020373
7,16,367981.67994361,0
7,17,790460.823255559,0.00100000000020373
7,18,245512.639579165,0
7,19,163471.557156639,0
7,20,229407.910559965,0.00100000000020373
7,21,225833.975137663,0
7,22,537422.173993758,0.00100000000020373
7,23,635508.211830656,0
7,24,285966.197708746,0
7,25,91704.5289545775,0
7,26,171565.07994427,0
7,27,211073.504406417,0.00100000000020373
7,28,243671.61146829,0
7,29,287719.551356267,0.00100000000020373
7,30,212807.463449716,0
8,1,359252.968143613,0
8,2,324152.38036175,0.00100000000020373
8,3,206038.714174992,0
8,4,172969.589992556,0.00100000000020373
8,5,167245.212417605,0
8,6,197109.445629389,0
8,7,253696.737427456,0.00100000000020373
8,8,323992.166849473,0
8,9,463031.714376274,0.00100000000020373
8,10,210005.200539466,0
8,11,175920.347466016,0
8,12,115298.02001446,0
8,13,144672.651290289,0
8,14,113754.385847979,0.00100000000020373
8,15,254314.368417404,0
8,16,180254.823565889,0.000999999996565748
8,17,633164.977037577,0
8,18,101235.985829266,0
8,19,166335.768485903,0.00100000000020373
8,20,147153.406696272,0
8,21,183740.225822821,0.00100000000020373
8,22,378953.320349926,0
8,23,494982.390103494,0
8,24,159739.948260786,0.00100000000020373
8,25,184521.059991763,0
8,26,210621.897621416,0.00100000000020373
8,27,78984.5472849012,0
8,28,111946.102285523,0
8,29,157066.86510126,0
8,30,260257.1057735,0
9,1,215966.013412285,0.00100000000020373
9,2,391361.638294787,0
9,3,260107.525881761,0.00100000000020373
9,4,258685.736762663,0
9,5,125954.517958673,0
9,6,135854.996500242,0.00100000000020373
9,7,213370.672245409,0
9,8,201298.968480031,0.00100000000020373
9,9,328166.296821817,0
9,10,124941.86793729,0
9,11,143857.074737547,0.00100000000020373
9,12,97684.1795834521,0
9,13,226986.572925885,0.00100000000020373
9,14,185511.228210113,0
9,15,220200.549666395,0
9,16,175992.121177413,0
9,17,516653.053792563,0
9,18,166785.586520169,0.00100000000020373
9,19,260198.993744328,0
9,20,160747.403045656,0.00100000000020373
9,21,177167.624938321,0
9,22,252610.596354864,0
9,23,389986.161623809,0.00100000000020373
9,24,200066.206193858,0
9,25,273474.16493405,0.00100000000020373
9,26,227167.143123655,0
9,27,194290.836025809,0
9,28,144529.557933265,0
9,29,110300.208365789,0
9,30,273663.829267222,0.000999999996565748
10,1,324687.831073997,0
10,2,283325.358566688,0.00100000000020373
10,3,168907.079161948,0
10,4,179737.715404728,0
10,5,206539.575024892,0.00100000000020373
10,6,266583.308191268,0
10,7,94443.9813905411,0.00100000000020373
10,8,331105.735621618,0
10,9,420862.132221568,0
10,10,186835.733951993,0.00100000000020373
10,11,173885.307562559,0
10,12,185658.25028294,0.00100000000020373
10,13,143195.158772486,0
10,14,179187.773281607,0
10,15,110415.922711084,0
10,16,287608.321866198,0
10,17,619623.940166945,0.00100000000020373
10,18,154950.599174225,0
10,19,221647.076633208,0.00100000000020373
10,20,86630.8036636049,0
10,21,67284.4012924941,0
10,22,366844.908381502,0.00100000000020373
10,23,494854.105330528,0
10,24,189716.686822039,0.00100000000020373
10,25,199442.120316355,0
10,26,139633.690939365,0
10,27,179073.611605622,0.00100000000020373
10,28,155838.034139812,0
10,29,105888.497445362,0.00100000000020373
10,30,137736.155909282,0
11,1,242591.972606806,0
11,2,380059.587441844,0
11,3,254289.396021794,0
11,4,266136.415951292,0.00100000000020373
11,5,176913.861728275,0
11,6,212158.922410262,0.00100000000020373
11,7,141057.409421871,0
11,8,252803.454842044,0
11,9,342070.644325635,0.00100000000020373
11,10,157594.795181557,0
11,11,149176.622042204,0.00100000000020373
11,12,160911.623614332,0
11,13,223896.490165022,0
11,14,206730.350275653,0.000999999996565748
11,15,135095.579403952,0
11,16,269374.564289636,0.00100000000020373
11,17,556302.795894422,0
11,18,179568.571505384,0
11,19,285014.812492076,0
11,20,128977.363158356,0
11,21,138459.311895818,0.00100000000020373
11,22,301997.535103836,0
11,23,448089.657019971,0.00100000000020373
11,24,207946.769322449,0
11,25,284287.852862549,0
11,26,224175.900011623,0.00100000000020373
11,27,223965.278305757,0
11,28,178486.549312302,0.00100000000020373
11,29,89030.0907538044,0
11,30,213992.81135365,0
12,1,450529.387874084,0.00100000000020373
12,2,181330.326133679,0
12,3,103366.272051707,0.00100000000020373
12,4,93551.1210614182,0
12,5,284507.619363879,0
12,6,332880.193079999,0
12,7,228229.351178409,0
12,8,434201.086598404,0.00100000000020373
12,9,553947.975732551,0
12,10,282462.665263481,0.00100000000020373
12,11,253481.332494592,0
12,12,243342.822401309,0
12,13,110200.740014279,0.00100000000020373
12,14,183605.756355394,0
12,15,264057.318943086,0.00100000000020373
12,16,301413.125386739,0
12,17,725130.615356847,0
12,18,189664.588677944,0
12,19,107151.395548298,0
12,20,185189.337157608,0.00100000000020373
12,21,169048.802605018,0
12,22,476343.867530623,0.00100000000020373
12,23,576183.474892742,0
12,24,222992.792516204,0
12,25,61337.7532990662,0.00100000000020373
12,26,134399.794664381,0
12,27,158846.636086842,0.000999999996565748
12,28,164347.84830538,0
12,29,230294.256590926,0
12,30,207475.415868985,0
13,1,325058.186824519,0.00400000000081491
13,2,297781.231183805,0
13,3,179583.641172782,0
13,4,216407.464673353,0.00100000000020373
13,5,230484.43780205,0
13,6,269769.460101979,0.00100000000020373
13,7,120803.464488376,0
13,8,333418.568717297,0
13,9,423230.003460343,0.00100000000020373
13,10,165944.17927397,0
13,11,197125.583967892,0.00100000000020373
13,12,185683.986163214,0
13,13,166721.274260067,0
13,14,211009.497101811,0.00100000000020373
13,15,130716.510251546,0
13,16,294768.962612276,0.00100000000020373
13,17,630451.61375677,0
13,18,178989.630388473,0
13,19,231168.084779137,0
13,20,107146.325881453,0
13,21,103977.294325318,0.00100000000020373
13,22,367829.870611166,0
13,23,500050.080073312,0.00100000000020373
13,24,219625.220250263,0
13,25,212335.484224606,0
13,26,142521.267210144,0.00100000000020373
13,27,208020.752097987,0
13,28,161418.442322021,0.00100000000020373
13,29,120094.777817729,0
13,30,166933.832817653,0
14,1,157898.07942094,0.000999999996565748
14,2,457282.581575037,0
14,3,331744.070096176,0.00100000000020373
14,4,339846.948516647,0
14,5,185838.455230075,0
14,6,163267.398768142,0
14,7,241820.45990963,0
14,8,165314.424332349,0.00100000000020373
14,9,262782.988856888,0
14,10,133333.643854418,0.00100000000020373
14,11,190846.79187743,0
14,12,151142.971014421,0
14,13,297455.151260591,0.00100000000020373
14,14,261737.257250197,0
14,15,247143.148008185,0.00100000000020373
14,16,231882.645010146,0
14,17,473808.679002922,0
14,18,223765.681083651,0
14,19,338385.556452264,0
14,20,218981.56263436,0.00100000000020373
14,21,228976.45434458,0
14,22,217058.716642733,0.00100000000020373
14,23,366829.088459298,0
14,24,252265.453820552,0
14,25,346978.007826804,0.00100000000020373
14,26,284785.819187099,0
14,27,281157.276075208,0.00100000000020373
14,28,212085.978588717,0
14,29,161614.744632902,0
14,30,319428.56474401,0.00100000000020373
15,1,294040.953765851,0
15,2,759916.31671911,0.00100000000020373
15,3,655071.782102642,0
15,4,623799.527243841,0
15,5,416268.94087314,0
15,6,386510.708680898,0
15,7,579960.771914291,0.00100000000020373
15,8,285165.10383718,0
15,9,253407.690036939,0.00100000000020373
15,10,469344.197778574,0
15,11,484578.886355633,0
15,12,458498.091310458,0.000999999996565748
15,13,614546.595626244,0
15,14,537543.392673825,0.00100000000020373
15,15,580520.196340072,0
15,16,411297.086694083,0
15,17,164559.477283581,0.00100000000020373
15,18,527789.461964575,0
15,19,626931.069478092,0.00100000000020373
15,20,561991.74600056,0
15,21,568224.034072166,0
15,22,242604.881199892,0
15,23,194686.222145426,0
15,24,526429.802283458,0.00100000000020373
15,25,653845.298982892,0
15,26,607249.896585638,0.00100000000020373
15,27,550172.038715122,0
15,28,533114.904475843,0
15,29,501402.425367627,0.00100000000020373
15,30,647307.23389555,0
16,1,340902.374560624,0.00100000000020373
16,2,288934.890503051,0
16,3,171358.703468012,0
16,4,156042.506095943,0.00100000000020373
16,5,171836.85835134,0
16,6,236139.533301853,0.00100000000020373
16,7,141365.883435536,0
16,8,332065.180170511,0
16,9,444900.838638633,0
16,10,210862.996532291,0
16,11,137529.532697348,0.00100000000020373
16,12,154491.88275562,0
16,13,127847.536870186,0.00100000000020373
16,14,127593.44347798,0
16,15,175940.60429842,0
16,16,248409.969791806,0.00100000000020373
16,17,626814.950347057,0
16,18,88088.8722650686,0.00100000000020373
16,19,192361.720821392,0
16,20,96473.2380294483,0
16,21,85259.7626872579,0.00100000000020373
16,22,387346.898324923,0
16,23,501567.376869089,0.00100000000020373
16,24,121882.550665887,0
16,25,171847.088930175,0
16,26,153587.606670677,0
16,27,126742.674379378,0
16,28,93017.711004063,0.00100000000020373
16,29,109409.951214724,0
16,30,183763.433837146,0.00100000000020373
17,1,317658.330913088,0
17,2,428686.35760984,0
17,3,315778.976609462,0.00100000000020373
17,4,321204.803423204,0
17,5,258733.562154119,0.00100000000020373
17,6,197657.86640533,0
17,7,375650.068858788,0
17,8,287369.592291717,0.00100000000020373
17,9,421212.2085726,0
17,10,183427.485824378,0.00100000000020373
17,11,298862.991972086,0
17,12,185020.029292053,0
17,13,304021.248604875,0
17,14,285876.068786095,0
17,15,382983.471656312,0.00100000000020373
17,16,127513.052620525,0
17,17,564892.456534448,0.00100000000020373
17,18,271765.901929007,0
17,19,264142.679993385,0
17,20,299597.761161221,0.00100000000020373
17,21,320460.303074589,0
17,22,304456.666102745,0.00100000000020373
17,23,382509.217505077,0
17,24,317068.28767936,0
17,25,303601.293010415,0.00100000000020373
17,26,283826.822779001,0
17,27,262397.924406716,0.00100000000020373
17,28,220382.216948781,0
17,29,280086.103426517,0
17,30,408763.686516259,0.00100000000020373
18,1,206957.979625929,0
18,2,446368.885714452,0.00100000000020373
18,3,318879.805138615,0
18,4,299833.998204768,0
18,5,120072.025031381,0
18,6,85248.4198403295,0
18,7,273583.558223763,0.00100000000020373
18,8,165598.344698338,0
18,9,312137.615343341,0.000999999996565748
18,10,155788.302778473,0
18,11,157965.350968722,0
18,12,84913.4177626032,0.00100000000020373
18,13,266726.809223861,0
18,14,200708.029197576,0.00100000000020373
18,15,276266.367127797,0
18,16,145316.162193516,0
18,17,492795.456002061,0.00100000000020373
18,18,173379.185359422,0
18,19,299905.267787128,0.00100000000020373
18,20,207077.882412418,0
18,21,233361.260727169,0
18,22,239170.095854966,0
18,23,380919.288393918,0
18,24,205043.949721784,0.00100000000020373
18,25,317106.806017742,0
18,26,287016.63836573,0.00100000000020373
18,27,217231.380674943,0
18,28,173079.093622114,0
18,29,156464.364888676,0.00100000000020373
18,30,330825.456131876,0
19,1,483517.609911466,0.00100000000020373
19,2,196330.757059765,0
19,3,122903.948134319,0
19,4,103301.080427401,0.00100000000020373
19,5,302275.867538194,0
19,6,340828.176886182,0.00100000000020373
19,7,284309.137816808,0
19,8,458056.026922839,0
19,9,589025.110473612,0
19,10,295439.383062714,0
19,11,284850.541865279,0.00100000000020373
19,12,253493.705501593,0
19,13,125739.988436866,0.00100000000020373
19,14,194868.014681369,0
19,15,301670.066708881,0
19,16,293825.913445611,0.00100000000020373
19,17,758788.597242306,0
19,18,209968.313595304,0.00100000000020373
19,19,92560.9650210579,0
19,20,211357.859168086,0
19,21,216069.75656013,0.00100000000020373
19,22,500202.036320542,0
19,23,601342.4783818,0.000999999996565748
19,24,250916.924205693,0
19,25,74165.833715248,0.00100000000020373
19,26,170365.319871108,0
19,27,153210.794830049,0
19,28,185993.932253419,0.00100000000020373
19,29,261316.673787025,0
19,30,250144.624676969,0.00100000000020373
20,1,159892.855129216,0
20,2,611279.27163066,0
20,3,493491.464464191,0.00100000000020373
20,4,468768.430008284,0
20,5,249304.694557329,0.00100000000020373
20,6,249774.552075196,0
20,7,341718.645102667,0
20,8,168841.937360845,0
20,9,195951.840935623,0
20,10,329365.28561457,0.00100000000020373
20,11,255825.249871275,0
20,12,294121.423158768,0.00100000000020373
20,13,432838.032474977,0
20,14,359174.143331252,0
20,15,338310.03692113,0.00100000000020373
20,16,357064.445948526,0
20,17,394801.793203205,0.00100000000020373
20,18,324505.237763489,0
20,19,501390.195568889,0
20,20,341363.52785766,0.00100000000020373
20,21,352633.861013047,0
20,22,257637.18162335,0.00100000000020373
20,23,403319.207069083,0
20,24,315749.421901902,0
20,25,503876.826830972,0
20,26,457508.268969107,0
20,27,396767.824226865,0.00100000000020373
20,28,358922.78393299,0
20,29,276594.28779963,0.00100000000020373
20,30,422048.780058142,0
21,1,128300.75424872,0
21,2,480115.516054045,0.00100000000020373
21,3,355945.007461187,0
21,4,351465.788198941,0.00100000000020373
21,5,168855.998758948,0
21,6,159674.370468783,0
21,7,247529.762954984,0.000999999996565748
21,8,130212.26446876,0
21,9,231860.962429437,0.00100000000020373
21,10,179675.270086921,0
21,11,180349.173124725,0
21,12,170984.668619514,0
21,13,314439.542362061,0
21,14,262839.820119164,0.00100000000020373
21,15,251418.792502233,0
21,16,243025.033480713,0.00100000000020373
21,17,442950.857900723,0
21,18,234281.916893947,0
21,19,363416.583365098,0.00100000000020373
21,20,230875.247692885,0
21,21,241966.159504246,0.00100000000020373
21,22,198124.71483393,0
21,23,358647.003341919,0
21,24,248753.809387591,0.00100000000020373
21,25,370723.150292738,0
21,26,314630.964653307,0.00100000000020373
21,27,287805.684775677,0
21,28,234097.670194341,0
21,29,166637.065513761,0
21,30,326376.026302487,0
22,1,194787.558927306,0.00100000000020373
22,2,440228.528818038,0
22,3,315440.717914356,0.00100000000020373
22,4,323126.116108066,0
22,5,198898.507593673,0
22,6,218190.888607428,0.00100000000020373
22,7,207776.908359183,0
22,8,220215.206556314,0.00100000000020373
22,9,288775.094025894,0
22,10,179641.557057419,0.00100000000020373
22,11,194538.810077708,0
22,12,206466.967882009,0
22,13,293027.268324242,0.00100000000020373
22,14,259088.392244042,0
22,15,190448.751803423,0.00100000000020373
22,16,278641.680667209,0
22,17,498879.374735993,0
22,18,243847.644788498,0.00100000000020373
22,19,337552.629557295,0
22,20,205094.816072043,0.000999999996565748
22,21,211125.406894189,0
22,22,255355.11572008,0
22,23,394219.627958492,0
22,24,266517.66920125,0
22,25,350512.563590661,0.00100000000020373
22,26,285615.525844815,0
22,27,276121.3829942,0.00100000000020373
22,28,242611.978368477,0
22,29,158961.935545034,0
22,30,276806.958406509,0.00100000000020373
23,1,448568.662051289,0
23,2,190612.008763509,0.00100000000020373
23,3,101416.251161065,0
23,4,78597.441205354,0
23,5,270749.295653011,0
23,6,321063.312430079,0
23,7,238715.340764618,0.00100000000020373
23,8,429593.232089308,0
23,9,552316.076400902,0.00100000000020373
23,10,274095.30370739,0
23,11,249896.173634088,0
23,12,232709.601121396,0.00100000000020373
23,13,105954.726563414,0
23,14,169999.172748598,0.00100000000020373
23,15,263880.622485611,0
23,16,282787.524459641,0
23,17,720084.571024156,0.00100000000020373
23,18,181749.504224832,0
23,19,92022.4943295686,0.00100000000020373
23,20,180110.636742488,0
23,21,172413.50728287,0
23,22,470168.055688333,0
23,23,567380.088689762,0
23,24,219734.499940397,0.00100000000020373
23,25,64674.3650910224,0
23,26,138177.517587219,0.00100000000020373
23,27,133765.48113351,0
23,28,158866.488384102,0
23,29,225332.435060962,0.00100000000020373
23,30,215372.691337821,0
24,1,286078.96001755,0.00100000000020373
24,2,375007.61102217,0
24,3,242180.184427298,0
24,4,226191.193823335,0
24,5,116036.899406434,0
24,6,128361.883625185,0.00100000000020373
24,7,236310.138725921,0
24,8,248675.159808992,0.00100000000020373
24,9,396235.904349448,0
24,10,170734.869320634,0
24,11,125765.326845782,0.00100000000020373
24,12,65875.4283865785,0
24,13,205417.06248583,0.00100000000020373
24,14,121975.767226775,0
24,15,253277.215982309,0
24,16,138938.660873646,0
24,17,570419.502633451,0
24,18,118095.562842587,0.00100000000020373
24,19,215608.278063913,0
24,20,161144.241988261,0.00100000000020373
24,21,179738.175369771,0
24,22,322197.301479014,0
24,23,443578.818772264,0.00100000000020373
24,24,152426.783313953,0
24,25,238270.926360759,0.00100000000020373
24,26,225726.226233934,0
24,27,141750.956014148,0
24,28,82161.7105100945,0.00100000000020373
24,29,135082.107754213,0
24,30,288232.319847575,0.00100000000020373
25,1,272369.280643616,0
25,2,363968.463447277,0
25,3,239495.587539195,0
25,4,258976.67438442,0
25,5,189406.214322647,0.00100000000020373
25,6,222160.016710271,0
25,7,129313.678849506,0.00100000000020373
25,8,281937.862262908,0
25,9,373484.145592586,0
25,10,166423.48637928,0.00100000000020373
25,11,146528.396992233,0
25,12,155484.007631759,0.00100000000020373
25,13,206089.869189135,0
25,14,201225.658693576,0
25,15,140278.76957639,0.000999999996565748
25,16,277354.028080211,0
25,17,584818.094646662,0.00100000000020373
25,18,155837.018299441,0
25,19,270844.370070848,0
25,20,115633.178447387,0
25,21,121368.111865155,0
25,22,334876.277470825,0.00100000000020373
25,23,471999.424799591,0
25,24,187716.009347796,0.00100000000020373
25,25,262776.29198181,0
25,26,206823.93112516,0
25,27,216787.342350967,0.00100000000020373
25,28,153595.358401377,0
25,29,85264.6502573126,0.00100000000020373
25,30,206976.267178534,0
26,1,223179.835689268,0
26,2,403455.018429724,0
26,3,272174.099309536,0
26,4,267696.660951179,0.00100000000020373
26,5,124975.026181188,0
26,6,121053.432876008,0.00100000000020373
26,7,220909.860204531,0
26,8,197935.429572481,0
26,9,334109.489364507,0.00100000000020373
26,10,145261.776715638,0
26,11,125759.71781094,0.00100000000020373
26,12,84030.2927597645,0
26,13,238428.727704765,0
26,14,174206.445435872,0.00100000000020373
26,15,240557.065884811,0
26,16,168599.605838675,0.00100000000020373
26,17,522474.9259757,0
26,18,152332.80004134,0.00100000000020373
26,19,264239.133628295,0
26,20,172551.550951147,0
26,21,182914.507121586,0.00100000000020373
26,22,272704.634384789,0
26,23,405421.100023951,0.00100000000020373
26,24,178684.970014462,0
26,25,277481.192744831,0
26,26,240274.148630633,0.00100000000020373
26,27,200257.625093618,0
26,28,122201.672669567,0.000999999996565748
26,29,125338.377293117,0
26,30,291354.05345747,0
27,1,343616.891603077,0
27,2,377648.189535856,0
27,3,255196.767845407,0.00100000000020373
27,4,228659.182324642,0
27,5,156309.552370831,0.00100000000020373
27,6,163191.704788,0
27,7,279218.501031124,0
27,8,306172.743575107,0.00100000000020373
27,9,454616.691239731,0
27,10,227376.480199435,0.00100000000020373
27,11,166568.331024662,0
27,12,117102.822791337,0
27,13,210797.779469806,0.00100000000020373
27,14,135904.08732597,0
27,15,289468.771449001,0.00100000000020373
27,16,155576.439373165,0
27,17,618423.694869434,0.00100000000020373
27,18,123528.424427532,0
27,19,210054.047560938,0
27,20,191535.880390748,0.00100000000020373
27,21,219786.987821491,0
27,22,380763.42833714,0.00100000000020373
27,23,486301.201716005,0
27,24,154053.398913632,0.00100000000020373
27,25,236179.818357871,0
27,26,254166.717620622,0.00100000000020373
27,27,129741.073340622,0
27,28,110497.008360025,0
27,29,184220.216600154,0.00100000000020373
27,30,310310.12279325,0
28,1,119906.679077936,0.000999999996565748
28,2,638156.033917549,0
28,3,521972.932655405,0
28,4,505916.65639601,0.00100000000020373
28,5,294928.473204674,0
28,6,250545.957482903,0.00100000000020373
28,7,429594.277722714,0
28,8,132339.754653503,0
28,9,134412.813912796,0
28,10,323524.192643937,0
28,11,340672.703598667,0.00100000000020373
28,12,318706.731842032,0
28,13,481838.792386206,0.00100000000020373
28,14,415061.870607066,0
28,15,432748.030149193,0
28,16,311516.277046795,0.00100000000020373
28,17,268464.141299541,0
28,18,389413.553176035,0.00100000000020373
28,19,506780.800064118,0
28,20,415425.986027767,0
28,21,423723.839231823,0.00100000000020373
28,22,139233.614978489,0
28,23,219041.319419299,0.00100000000020373
28,24,392910.526784547,0
28,25,525638.074151011,0.00100000000020373
28,26,473545.643691336,0
28,27,431773.756818814,0
28,28,389761.142405284,0.00100000000020373
28,29,351591.4714307,0
28,30,506183.545162216,0.00100000000020373
29,1,569720.609859755,0
29,2,85916.6505691729,0
29,3,177184.698732242,0.00100000000020373
29,4,212302.914233953,0
29,5,437636.800935611,0.00100000000020373
29,6,494052.711238443,0
29,7,287387.296185163,0
29,8,575245.771643157,0
29,9,660312.610731678,0
29,10,385138.287135699,0.00100000000020373
29,11,399911.820276525,0
29,12,398620.771339626,0.00100000000020373
29,13,223571.354080928,0
29,14,347690.811009554,0
29,15,307428.573963259,0.000999999996565748
29,16,468873.074908799,0
29,17,844431.576067456,0.00100000000020373
29,18,342404.682510738,0
29,19,255407.277351399,0
29,20,291676.98994898,0.00100000000020373
29,21,268371.092429567,0
29,22,592835.248139899,0.00100000000020373
29,23,691145.137356881,0
29,24,376547.659067394,0
29,25,191590.686274702,0
29,26,200791.172796607,0
29,27,318919.516445369,0.00100000000020373
29,28,330634.873085513,0
29,29,348121.774137654,0.00100000000020373
29,30,213710.853613123,0
30,1,155035.780586965,0
30,2,626153.02735318,0.00100000000020373
30,3,508571.519853092,0
30,4,485238.234748512,0.00100000000020373
30,5,271584.453153698,0
30,6,212332.022789653,0
30,7,437836.238825177,0.00100000000020373
30,8,122367.717795729,0
30,9,197399.618583383,0.00100000000020373
30,10,316732.595355546,0
30,11,326995.013391367,0
30,12,292278.439564633,0
30,13,466283.332737447,0
30,14,388528.552688844,0.00100000000020373
30,15,443628.484638461,0
30,16,263030.764100557,0.00100000000020373
30,17,306600.915500591,0
30,18,369504.532914445,0
30,19,480297.668040393,0.00100000000020373
30,20,408090.492448122,0
30,21,420510.886227574,0.00100000000020373
30,22,159560.544831786,0
30,23,239822.662408226,0
30,24,372695.316275047,0.00100000000020373
30,25,505356.040534638,0
30,26,464828.91495083,0.00100000000020373
30,27,404081.795862449,0
30,28,366747.406367841,0
30,29,347219.798889466,0
30,30,509330.541433226,0
