"Before.Version","After.Version","Diff","Direction","P.Value","Simple.Diff","Within.Diffs.Mean","Within.Diffs.SD","Between.Diffs.Mean","Between.Diffs.SD","Runtime"
"v1","v2",FALSE,NA,0.807,-0.029,0.065,0.038,0.061,0.031,3.259
"v2","v3",TRUE,"NEGATIVE",0,0.841,0.058,0.024,0.104,0.024,2.842
"v3","v4",FALSE,NA,0,0.156,0.001,0.001,0.004,0.01,2.156
