App - Minetest
Scenario - play_game
Length - 5sec
Measure - ARPicDistance
Before Version - 0.4.12
After Version - 0.4.13


"Before.Trace.ID1","Before.Trace.ID2","Difference","Runtime"
1,2,0.000599027219486015,0.00300000000061118
1,3,0.000197262758586447,0.00200000000040745
1,4,0.00019338239581268,0.00300000000061118
1,5,0.00021467323140878,0.00299999999879219
1,6,0.000267451994209966,0.00200000000040745
1,7,0.362045570250692,0.00300000000061118
1,8,0.000231072418212075,0.00200000000040745
1,9,6.00433424294833e-05,0.00299999999879219
1,10,0.000673166321936924,0.00200000000040745
1,11,3.5963720932175e-05,0.00200000000040745
1,12,0.000632631287484475,0.00299999999879219
1,13,6.78019475971459e-05,0.00200000000040745
1,14,0.000415205612339875,0.00200000000040745
1,15,0.000229878974328912,0.00299999999879219
1,16,4.28130979545083e-05,0.00200000000040745
1,17,0.00022352774047385,0.00300000000061118
1,18,1.89287034608743e-05,0.00300000000061118
1,19,0.000171500168320016,0.00199999999858846
1,20,7.61056837836893e-05,0.00300000000061118
1,21,5.707084166795e-05,0.00300000000061118
1,22,5.9035851030953e-05,0.00199999999858846
1,23,0.000100585221992633,0.00300000000061118
1,24,0.000176669298049159,0.00300000000061118
1,25,7.08091290418933e-05,0.00200000000040745
1,26,0.000197010239702977,0.00299999999879219
1,27,0.000232613472306631,0.00300000000061118
1,28,0.000172713059010565,0.00599999999940337
1,29,9.63810674297072e-05,0.00200000000040745
1,30,0.000492510632728371,0.00300000000061118
2,3,0.000401764460899567,0.00299999999879219
2,4,0.000792409615298695,0.00200000000040745
2,5,0.000813700450894794,0.00300000000061118
2,6,0.000866479213695981,0.00200000000040745
2,7,0.362578176951785,0.00299999999879219
2,8,0.00083009963769809,0.00200000000040745
2,9,0.000659070561915498,0.00300000000061118
2,10,0.00127219354142294,0.00199999999858846
2,11,0.00063499094041819,0.00300000000061118
2,12,0.00123165850697049,0.00300000000061118
2,13,0.000531225271888869,0.00199999999858846
2,14,0.00101423283182589,0.00300000000061118
2,15,0.000828906193814927,0.00200000000040745
2,16,0.000556214121531506,0.00300000000061118
2,17,0.000822554959959865,0.00299999999879219
2,18,0.00058009851602514,0.00200000000040745
2,19,0.000427527051165999,0.00300000000061118
2,20,0.000522921535702325,0.00299999999879219
2,21,0.000656098061153965,0.00200000000040745
2,22,0.000539991368455062,0.00300000000061118
2,23,0.000699612441478648,0.00299999999879219
2,24,0.000422357921436856,0.00200000000040745
2,25,0.000528218090444121,0.00300000000061118
2,26,0.000796037459188992,0.00299999999879219
2,27,0.000831640691792646,0.00200000000040745
2,28,0.00077174027849658,0.00300000000061118
2,29,0.000695408286915722,0.00300000000061118
2,30,0.000106516586757643,0.00199999999858846
3,4,0.000390645154399127,0.00300000000061118
3,5,0.000411935989995227,0.00200000000040745
3,6,0.000464714752796413,0.00199999999858846
3,7,0.362220937473935,0.00300000000061118
3,8,0.000428335176798522,0.00300000000061118
3,9,0.000257306101015931,0.00200000000040745
3,10,0.000870429080523372,0.00599999999940337
3,11,0.000233226479518622,0.00200000000040745
3,12,0.000829894046070923,0.00299999999879219
3,13,0.000129460810989301,0.00200000000040745
3,14,0.000612468370926322,0.00300000000061118
3,15,0.000427141732915359,0.00299999999879219
3,16,0.000154449660631939,0.00200000000040745
3,17,0.000420790499060297,0.00300000000061118
3,18,0.000178334055125573,0.00299999999879219
3,19,2.57625902664316e-05,0.00200000000040745
3,20,0.000121157074802758,0.00300000000061118
3,21,0.000254333600254397,0.00200000000040745
3,22,0.000138226907555494,0.00299999999879219
3,23,0.00029784798057908,0.00300000000061118
3,24,2.05934605372882e-05,0.00200000000040745
3,25,0.000126453629544554,0.00299999999879219
3,26,0.000394272998289424,0.00200000000040745
3,27,0.000429876230893078,0.00300000000061118
3,28,0.000369975817597012,0.00300000000061118
3,29,0.000293643826016154,0.00199999999858846
3,30,0.000295247874141924,0.00300000000061118
4,5,2.12908355960995e-05,0.00300000000061118
4,6,7.40695983972861e-05,0.00199999999858846
4,7,0.361873674567818,0.00300000000061118
4,8,3.76900223993948e-05,0.00300000000061118
4,9,0.000133339053383197,0.00299999999879219
4,10,0.000479783926124244,0.00200000000040745
4,11,0.000157418674880505,0.00300000000061118
4,12,0.000439248891671795,0.00200000000040745
4,13,0.000261184343409826,0.00199999999858846
4,14,0.000221823216527195,0.00300000000061118
4,15,3.64965785162319e-05,0.00200000000040745
4,16,0.000236195493767188,0.00199999999858846
4,17,3.01453446611699e-05,0.00300000000061118
4,18,0.000212311099273554,0.00200000000040745
4,19,0.000364882564132696,0.00299999999879219
4,20,0.000269488079596369,0.00300000000061118
4,21,0.00013631155414473,0.00299999999879219
4,22,0.000252418246843633,0.00200000000040745
4,23,9.27971738200473e-05,0.00300000000061118
4,24,0.000370051693861839,0.00300000000061118
4,25,0.000264191524854573,0.00199999999858846
4,26,3.62784389029702e-06,0.00300000000061118
4,27,3.92310764939507e-05,0.00300000000061118
4,28,2.06693368021149e-05,0.00199999999858846
4,29,9.70013283829729e-05,0.00300000000061118
4,30,0.000685893028541051,0.00200000000040745
5,6,5.27787628011867e-05,0.00300000000061118
5,7,0.361854750681867,0.00299999999879219
5,8,1.63991868032953e-05,0.00300000000061118
5,9,0.000154629888979296,0.00200000000040745
5,10,0.000458493090528145,0.00299999999879219
5,11,0.000178709510476605,0.00200000000040745
5,12,0.000417958056075696,0.00300000000061118
5,13,0.000282475179005925,0.00299999999879219
5,14,0.000200532380931095,0.00200000000040745
5,15,1.52057429201324e-05,0.00300000000061118
5,16,0.000257486329363288,0.00300000000061118
5,17,8.85450906507046e-06,0.00199999999858846
5,18,0.000233601934869654,0.00300000000061118
5,19,0.000386173399728795,0.00300000000061118
5,20,0.000290778915192469,0.00199999999858846
5,21,0.00015760238974083,0.00300000000061118
5,22,0.000273709082439733,0.00200000000040745
5,23,0.000114088009416147,0.00200000000040745
5,24,0.000391342529457939,0.00299999999879219
5,25,0.000285482360450673,0.00200000000040745
5,26,1.76629917058024e-05,0.00300000000061118
5,27,1.79402408978513e-05,0.00299999999879219
5,28,4.19601723982144e-05,0.00200000000040745
5,29,0.000118292163979072,0.00300000000061118
5,30,0.000707183864137151,0.00299999999879219
6,7,0.36180784058619,0.00300000000061118
6,8,3.63795759978913e-05,0.00599999999940337
6,9,0.000207408651780483,0.00200000000040745
6,10,0.000405714327726958,0.00300000000061118
6,11,0.000231488273277791,0.00299999999879219
6,12,0.000365179293274509,0.00200000000040745
6,13,0.000335253941807112,0.00300000000061118
6,14,0.000147753618129909,0.00200000000040745
6,15,3.75730198810542e-05,0.00199999999858846
6,16,0.000310265092164475,0.00300000000061118
6,17,4.39242537361162e-05,0.00200000000040745
6,18,0.000286380697670841,0.00299999999879219
6,19,0.000438952162529982,0.00200000000040745
6,20,0.000343557677993656,0.00200000000040745
6,21,0.000210381152542016,0.00300000000061118
6,22,0.000326487845240919,0.00199999999858846
6,23,0.000166866772217333,0.00300000000061118
6,24,0.000444121292259125,0.00300000000061118
6,25,0.00033826112325186,0.00199999999858846
6,26,7.04417545069891e-05,0.00300000000061118
6,27,3.48385219033354e-05,0.00200000000040745
6,28,9.4738935199401e-05,0.00200000000040745
6,29,0.000171070926780259,0.00299999999879219
6,30,0.000759962626938337,0.00200000000040745
7,8,0.361840174808555,0.00300000000061118
7,9,0.361992196001588,0.00299999999879219
7,10,0.36144729318879,0.00300000000061118
7,11,0.362013600816787,0.00300000000061118
7,12,0.3614833112773,0.00299999999879219
7,13,0.362105843857628,0.00300000000061118
7,14,0.361676524845733,0.00300000000061118
7,15,0.361841235556304,0.00299999999879219
7,16,0.362083629317137,0.00300000000061118
7,17,0.361846880625758,0.00599999999940337
7,18,0.362062396951175,0.00300000000061118
7,19,0.362198033169943,0.00300000000061118
7,20,0.362113225777437,0.00299999999879219
7,21,0.361994838293604,0.00300000000061118
7,22,0.362098050948431,0.00300000000061118
7,23,0.36195615834399,0.00200000000040745
7,24,0.3622026287686,0.00300000000061118
7,25,0.362108517200504,0.00299999999879219
7,26,0.361870450020827,0.00300000000061118
7,27,0.361838805101755,0.00300000000061118
7,28,0.361892046300001,0.00299999999879219
7,29,0.361959895370709,0.00300000000061118
7,30,0.362483455834214,0.00300000000061118
8,9,0.000171029075782592,0.00199999999858846
8,10,0.000442093903724849,0.00300000000061118
8,11,0.0001951086972799,0.00300000000061118
8,12,0.0004015588692724,0.00200000000040745
8,13,0.000298874365809221,0.00299999999879219
8,14,0.0001841331941278,0.00300000000061118
8,15,1.19344388316289e-06,0.00200000000040745
8,16,0.000273885516166583,0.00299999999879219
8,17,7.54467773822487e-06,0.00200000000040745
8,18,0.000250001121672949,0.00300000000061118
8,19,0.000402572586532091,0.00299999999879219
8,20,0.000307178101995764,0.00200000000040745
8,21,0.000174001576544125,0.00300000000061118
8,22,0.000290108269243028,0.00300000000061118
8,23,0.000130487196219442,0.00199999999858846
8,24,0.000407741716261234,0.00300000000061118
8,25,0.000301881547253968,0.00300000000061118
8,26,3.40621785090978e-05,0.00199999999858846
8,27,1.54105409455596e-06,0.00600000000122236
8,28,5.83593592015097e-05,0.00299999999879219
8,29,0.000134691350782368,0.00200000000040745
8,30,0.000723583050940446,0.00300000000061118
9,10,0.000613122979507441,0.00300000000061118
9,11,2.40796214973082e-05,0.00199999999858846
9,12,0.000572587945054992,0.00300000000061118
9,13,0.000127845290026629,0.00200000000040745
9,14,0.000355162269910392,0.00199999999858846
9,15,0.000169835631899429,0.00300000000061118
9,16,0.000102856440383992,0.00200000000040745
9,17,0.000163484398044367,0.00300000000061118
9,18,7.89720458903576e-05,0.00299999999879219
9,19,0.000231543510749499,0.00200000000040745
9,20,0.000136149026213173,0.00300000000061118
9,21,2.97250076153333e-06,0.00199999999858846
9,22,0.000119079193460436,0.00300000000061118
9,23,4.05418795631496e-05,0.00300000000061118
9,24,0.000236712640478642,0.00200000000040745
9,25,0.000130852471471377,0.00299999999879219
9,26,0.000136966897273494,0.00300000000061118
9,27,0.000172570129877148,0.00200000000040745
9,28,0.000112669716581082,0.00299999999879219
9,29,3.63377250002239e-05,0.00200000000040745
9,30,0.000552553975157855,0.00200000000040745
10,11,0.000637202601004749,0.00299999999879219
10,12,4.05350344524491e-05,0.00200000000040745
10,13,0.00074096826953407,0.00300000000061118
10,14,0.000257960709597049,0.00299999999879219
10,15,0.000443287347608012,0.00200000000040745
10,16,0.000715979419891433,0.00300000000061118
10,17,0.000449638581463074,0.00300000000061118
10,18,0.000692095025397799,0.00199999999858846
10,19,0.00084466649025694,0.00300000000061118
10,20,0.000749272005720614,0.00200000000040745
10,21,0.000616095480268974,0.00199999999858846
10,22,0.000732202172967877,0.00600000000122236
10,23,0.000572581099944292,0.00299999999879219
10,24,0.000849835619986083,0.00200000000040745
10,25,0.000743975450978818,0.00200000000040745
10,26,0.000476156082233947,0.00300000000061118
10,27,0.000440552849630294,0.00199999999858846
10,28,0.000500453262926359,0.00300000000061118
10,29,0.000576785254507217,0.00300000000061118
10,30,0.0011656769546653,0.00199999999858846
11,12,0.0005966675665523,0.00300000000061118
11,13,0.000103765668529321,0.00200000000040745
11,14,0.0003792418914077,0.00300000000061118
11,15,0.000193915253396737,0.00299999999879219
11,16,7.87768188866833e-05,0.00200000000040745
11,17,0.000187564019541675,0.00300000000061118
11,18,5.48924243930493e-05,0.00199999999858846
11,19,0.000207463889252191,0.00300000000061118
11,20,0.000112069404715864,0.00300000000061118
11,21,2.11071207357749e-05,0.00200000000040745
11,22,9.4999571963128e-05,0.00299999999879219
11,23,6.46215010604578e-05,0.00300000000061118
11,24,0.000212633018981334,0.00200000000040745
11,25,0.000106772849974068,0.00299999999879219
11,26,0.000161046518770802,0.00200000000040745
11,27,0.000196649751374456,0.00200000000040745
11,28,0.00013674933807839,0.00299999999879219
11,29,6.04173464975322e-05,0.00200000000040745
11,30,0.000528474353660546,0.00300000000061118
12,13,0.000700433235081621,0.00300000000061118
12,14,0.0002174256751446,0.00199999999858846
12,15,0.000402752313155563,0.00300000000061118
12,16,0.000675444385438984,0.00300000000061118
12,17,0.000409103547010625,0.00199999999858846
12,18,0.00065155999094535,0.00300000000061118
12,19,0.000804131455804491,0.00200000000040745
12,20,0.000708736971268165,0.00200000000040745
12,21,0.000575560445816525,0.00299999999879219
12,22,0.000691667138515428,0.00599999999940337
12,23,0.000532046065491842,0.00200000000040745
12,24,0.000809300585533634,0.00300000000061118
12,25,0.000703440416526369,0.00300000000061118
12,26,0.000435621047781498,0.00199999999858846
12,27,0.000400017815177844,0.00300000000061118
12,28,0.00045991822847391,0.00300000000061118
12,29,0.000536250220054768,0.00199999999858846
12,30,0.00112514192021285,0.00300000000061118
13,14,0.000483007559937021,0.00200000000040745
13,15,0.000297680921926058,0.00300000000061118
13,16,2.49888496426376e-05,0.00299999999879219
13,17,0.000291329688070996,0.00200000000040745
13,18,4.88732441362716e-05,0.00300000000061118
13,19,0.00010369822072287,0.00199999999858846
13,20,8.30373618654345e-06,0.00300000000061118
13,21,0.000124872789265096,0.00300000000061118
13,22,8.76609656619287e-06,0.00200000000040745
13,23,0.000168387169589779,0.00299999999879219
13,24,0.000108867350452013,0.00300000000061118
13,25,3.00718144474743e-06,0.00200000000040745
13,26,0.000264812187300123,0.00299999999879219
13,27,0.000300415419903777,0.00200000000040745
13,28,0.000240515006607711,0.00200000000040745
13,29,0.000164183015026853,0.00299999999879219
13,30,0.000424708685131225,0.00200000000040745
14,15,0.000185326638010963,0.00300000000061118
14,16,0.000458018710294383,0.00300000000061118
14,17,0.000191677871866025,0.00199999999858846
14,18,0.000434134315800749,0.00300000000061118
14,19,0.000586705780659891,0.00300000000061118
14,20,0.000491311296123564,0.00199999999858846
14,21,0.000358134770671925,0.00300000000061118
14,22,0.000474241463370828,0.00200000000040745
14,23,0.000314620390347242,0.00200000000040745
14,24,0.000591874910389034,0.00299999999879219
14,25,0.000486014741381768,0.00200000000040745
14,26,0.000218195372636898,0.00599999999940337
14,27,0.000182592140033244,0.00300000000061118
14,28,0.00024249255332931,0.00300000000061118
14,29,0.000318824544910168,0.00199999999858846
14,30,0.000907716245068246,0.00300000000061118
15,16,0.00027269207228342,0.00300000000061118
15,17,6.35123385506198e-06,0.00200000000040745
15,18,0.000248807677789786,0.00299999999879219
15,19,0.000401379142648928,0.00200000000040745
15,20,0.000305984658112601,0.00300000000061118
15,21,0.000172808132660962,0.00299999999879219
15,22,0.000288914825359865,0.00200000000040745
15,23,0.000129293752336279,0.00300000000061118
15,24,0.000406548272378071,0.00199999999858846
15,25,0.000300688103370805,0.00300000000061118
15,26,3.28687346259349e-05,0.00300000000061118
15,27,2.73449797771885e-06,0.00200000000040745
15,28,5.71659153183468e-05,0.00299999999879219
15,29,0.000133497906899205,0.00300000000061118
15,30,0.000722389607057283,0.00200000000040745
16,17,0.000266340838428358,0.00299999999879219
16,18,2.3884394493634e-05,0.00200000000040745
16,19,0.000128687070365507,0.00300000000061118
16,20,3.3292585829181e-05,0.00299999999879219
16,21,9.98839396224582e-05,0.00200000000040745
16,22,1.62227530764447e-05,0.00300000000061118
16,23,0.000143398319947141,0.00300000000061118
16,24,0.000133856200094651,0.00199999999858846
16,25,2.7996031087385e-05,0.00300000000061118
16,26,0.000239823337657485,0.00200000000040745
16,27,0.000275426570261139,0.00199999999858846
16,28,0.000215526156965073,0.00300000000061118
16,29,0.000139194165384215,0.00200000000040745
16,30,0.000449697534773863,0.00300000000061118
17,18,0.000242456443934724,0.00299999999879219
17,19,0.000395027908793866,0.00200000000040745
17,20,0.000299633424257539,0.00599999999940337
17,21,0.0001664568988059,0.00300000000061118
17,22,0.000282563591504803,0.00300000000061118
17,23,0.000122942518481217,0.00199999999858846
17,24,0.000400197038523009,0.00300000000061118
17,25,0.000294336869515743,0.00300000000061118
17,26,2.65175007708729e-05,0.00200000000040745
17,27,9.08573183278083e-06,0.00299999999879219
17,28,5.08146814632848e-05,0.00200000000040745
17,29,0.000127146673044143,0.00300000000061118
17,30,0.000716038373202221,0.00299999999879219
18,19,0.000152571464859141,0.00200000000040745
18,20,5.7176980322815e-05,0.00300000000061118
18,21,7.59995451288242e-05,0.00200000000040745
18,22,4.01071475700787e-05,0.00200000000040745
18,23,0.000119513925453507,0.00300000000061118
18,24,0.000157740594588285,0.00200000000040745
18,25,5.1880425581019e-05,0.00299999999879219
18,26,0.000215938943163851,0.00300000000061118
18,27,0.000251542175767505,0.00200000000040745
18,28,0.000191641762471439,0.00299999999879219
18,29,0.000115309770890581,0.00200000000040745
18,30,0.000473581929267497,0.00200000000040745
19,20,9.53944845363264e-05,0.00299999999879219
19,21,0.000228571009987966,0.00200000000040745
19,22,0.000112464317289063,0.00300000000061118
19,23,0.000272085390312649,0.00300000000061118
19,24,5.16912972914341e-06,0.00199999999858846
19,25,0.000100691039278122,0.00300000000061118
19,26,0.000368510408022993,0.00300000000061118
19,27,0.000404113640626647,0.00199999999858846
19,28,0.000344213227330581,0.00300000000061118
19,29,0.000267881235749723,0.00200000000040745
19,30,0.000321010464408356,0.00300000000061118
20,21,0.000133176525451639,0.00299999999879219
20,22,1.70698327527363e-05,0.00200000000040745
20,23,0.000176690905776322,0.00300000000061118
20,24,0.00010056361426547,0.00599999999940337
20,25,5.29655474179602e-06,0.00300000000061118
20,26,0.000273115923486666,0.00199999999858846
20,27,0.00030871915609032,0.00300000000061118
20,28,0.000248818742794255,0.00300000000061118
20,29,0.000172486751213397,0.00200000000040745
20,30,0.000416404948944682,0.00299999999879219
21,22,0.000116106692698903,0.00200000000040745
21,23,4.35143803246829e-05,0.00300000000061118
21,24,0.000233740139717109,0.00299999999879219
21,25,0.000127879970709843,0.00200000000040745
21,26,0.000139939398035027,0.00300000000061118
21,27,0.000175542630638681,0.00200000000040745
21,28,0.000115642217342615,0.00200000000040745
21,29,3.93102257617572e-05,0.00300000000061118
21,30,0.000549581474396321,0.00200000000040745
22,23,0.000159621073023586,0.00299999999879219
22,24,0.000117633447018206,0.00300000000061118
22,25,1.17732780109403e-05,0.00200000000040745
22,26,0.00025604609073393,0.00299999999879219
22,27,0.000291649323337584,0.00200000000040745
22,28,0.000231748910041518,0.00200000000040745
22,29,0.00015541691846066,0.00300000000061118
22,30,0.000433474781697418,0.00199999999858846
23,24,0.000277254520041792,0.00300000000061118
23,25,0.000171394351034526,0.00300000000061118
23,26,9.64250177103443e-05,0.00199999999858846
23,27,0.000132028250313998,0.00300000000061118
23,28,7.21278370179324e-05,0.00300000000061118
23,29,4.20415456292567e-06,0.00199999999858846
23,30,0.000593095854721004,0.00300000000061118
24,25,0.000105860169007266,0.00200000000040745
24,26,0.000373679537752136,0.00200000000040745
24,27,0.00040928277035579,0.00299999999879219
24,28,0.000349382357059724,0.00200000000040745
24,29,0.000273050365478866,0.00300000000061118
24,30,0.000315841334679212,0.0409999999992579
25,26,0.00026781936874487,0.00300000000061118
25,27,0.000303422601348524,0.00200000000040745
25,28,0.000243522188052459,0.00299999999879219
25,29,0.0001671901964716,0.00300000000061118
25,30,0.000421701503686478,0.00200000000040745
26,27,3.56032326036537e-05,0.00299999999879219
26,28,2.42971806924119e-05,0.00200000000040745
26,29,0.00010062917227327,0.00300000000061118
26,30,0.000689520872431348,0.00200000000040745
27,28,5.99004132960657e-05,0.00200000000040745
27,29,0.000136232404876924,0.00300000000061118
27,30,0.000725124105035002,0.00200000000040745
28,29,7.6331991580858e-05,0.00299999999879219
28,30,0.000665223691738936,0.00200000000040745
29,30,0.000588891700158078,0.00300000000061118


"After.Trace.ID","Before.Trace.ID","Difference","Runtime"
1,1,0.000474038239128949,0.00300000000061118
1,2,0.000124988980357066,0.00200000000040745
1,3,0.000276775480542502,0.00299999999879219
1,4,0.000667420634941629,0.00200000000040745
1,5,0.000688711470537728,0.00300000000061118
1,6,0.000741490233338915,0.00300000000061118
1,7,0.362467029709002,0.00299999999879219
1,8,0.000705110657341024,0.00200000000040745
1,9,0.000534081581558432,0.00300000000061118
1,10,0.00114720456106587,0.00199999999858846
1,11,0.000510001960061124,0.00600000000122236
1,12,0.00110666952661342,0.00299999999879219
1,13,0.000406236291531803,0.00200000000040745
1,14,0.000889243851468824,0.00300000000061118
1,15,0.000703917213457861,0.00200000000040745
1,16,0.000431225141174441,0.00299999999879219
1,17,0.000697565979602799,0.00300000000061118
1,18,0.000455109535668075,0.00200000000040745
1,19,0.000302538070808933,0.00299999999879219
1,20,0.00039793255534526,0.00200000000040745
1,21,0.000531109080796899,0.00300000000061118
1,22,0.000415002388097996,0.00299999999879219
1,23,0.000574623461121582,0.00200000000040745
1,24,0.00029736894107979,0.00300000000061118
1,25,0.000403229110087056,0.00200000000040745
1,26,0.000671048478831926,0.00299999999879219
1,27,0.00070665171143558,0.00300000000061118
1,28,0.000646751298139514,0.00200000000040745
1,29,0.000570419306558656,0.00299999999879219
1,30,1.84723935994224e-05,0.00200000000040745
2,1,0.000400166371243627,0.00300000000061118
2,2,0.000198860848242388,0.00200000000040745
2,3,0.000202903612657179,0.00199999999858846
2,4,0.000593548767056307,0.00300000000061118
2,5,0.000614839602652406,0.00200000000040745
2,6,0.000667618365453593,0.00299999999879219
2,7,0.362401342922903,0.00300000000061118
2,8,0.000631238789455701,0.00200000000040745
2,9,0.00046020971367311,0.00200000000040745
2,10,0.00107333269318055,0.00299999999879219
2,11,0.000436130092175802,0.00200000000040745
2,12,0.0010327976587281,0.00300000000061118
2,13,0.000332364423646481,0.00199999999858846
2,14,0.000815371983583502,0.00300000000061118
2,15,0.000630045345572539,0.00300000000061118
2,16,0.000357353273289118,0.00200000000040745
2,17,0.000623694111717477,0.00299999999879219
2,18,0.000381237667782752,0.00600000000122236
2,19,0.000228666202923611,0.00199999999858846
2,20,0.000324060687459937,0.00300000000061118
2,21,0.000457237212911576,0.00200000000040745
2,22,0.000341130520212674,0.00299999999879219
2,23,0.000500751593236259,0.00200000000040745
2,24,0.000223497073194467,0.00200000000040745
2,25,0.000329357242201733,0.00300000000061118
2,26,0.000597176610946604,0.00199999999858846
2,27,0.000632779843550257,0.00300000000061118
2,28,0.000572879430254192,0.00200000000040745
2,29,0.000496547438673334,0.00299999999879219
2,30,9.23442614847447e-05,0.00300000000061118
3,1,0.000961105394381767,0.00200000000040745
3,2,0.000362078174895752,0.00299999999879219
3,3,0.00076384263579532,0.00200000000040745
3,4,0.00115448779019445,0.00300000000061118
3,5,0.00117577862579055,0.00300000000061118
3,6,0.00122855738859173,0.00199999999858846
3,7,0.362900208100597,0.00300000000061118
3,8,0.00119217781259384,0.00300000000061118
3,9,0.00102114873681125,0.00199999999858846
3,10,0.00163427171631869,0.00300000000061118
3,11,0.000997069115313942,0.00300000000061118
3,12,0.00159373668186624,0.00200000000040745
3,13,0.000893303446784621,0.00299999999879219
3,14,0.00137631100672164,0.00200000000040745
3,15,0.00119098436871068,0.00300000000061118
3,16,0.000918292296427259,0.00299999999879219
3,17,0.00118463313485562,0.00200000000040745
3,18,0.000942176690920893,0.00300000000061118
3,19,0.000789605226061751,0.00200000000040745
3,20,0.000884999710598078,0.00299999999879219
3,21,0.00101817623604972,0.00300000000061118
3,22,0.000902069543350814,0.00200000000040745
3,23,0.0010616906163744,0.00299999999879219
3,24,0.000784436096332608,0.00500000000101863
3,25,0.000890296265339874,0.00299999999879219
3,26,0.00115811563408474,0.00300000000061118
3,27,0.0011937188666884,0.00200000000040745
3,28,0.00113381845339233,0.00300000000061118
3,29,0.00105748646181147,0.00199999999858846
3,30,0.000468594761653396,0.00300000000061118
4,1,0.000279672390507635,0.00300000000061118
4,2,0.00031935482897838,0.00199999999858846
4,3,8.24096319211876e-05,0.00300000000061118
4,4,0.000473054786320315,0.00200000000040745
4,5,0.000494345621916414,0.00300000000061118
4,6,0.000547124384717601,0.00199999999858846
4,7,0.36229420656955,0.00200000000040745
4,8,0.00051074480871971,0.00200000000040745
4,9,0.000339715732937118,0.00299999999879219
4,10,0.000952838712444559,0.00200000000040745
4,11,0.00031563611143981,0.00300000000061118
4,12,0.00091230367799211,0.00200000000040745
4,13,0.000211870442910489,0.00299999999879219
4,14,0.00069487800284751,0.00300000000061118
4,15,0.000509551364836547,0.00200000000040745
4,16,0.000236859292553127,0.00299999999879219
4,17,0.000503200130981485,0.00200000000040745
4,18,0.000260743687046761,0.00300000000061118
4,19,0.000108172222187619,0.00299999999879219
4,20,0.000203566706723946,0.00200000000040745
4,21,0.000336743232175585,0.00300000000061118
4,22,0.000220636539476682,0.00200000000040745
4,23,0.000380257612500268,0.00299999999879219
4,24,0.000103003092458476,0.00300000000061118
4,25,0.000208863261465742,0.00200000000040745
4,26,0.000476682630210612,0.00299999999879219
4,27,0.000512285862814266,0.00200000000040745
4,28,0.0004523854495182,0.00300000000061118
4,29,0.000376053457937342,0.00299999999879219
4,30,0.000212838242220736,0.00300000000061118
5,1,0.000327549803129101,0.00300000000061118
5,2,0.000271477416356913,0.00199999999858846
5,3,0.000130287044542654,0.00300000000061118
5,4,0.000520932198941781,0.00300000000061118
5,5,0.000542223034537881,0.00199999999858846
5,6,0.000595001797339068,0.00300000000061118
5,7,0.362336775420708,0.00300000000061118
5,8,0.000558622221341176,0.00200000000040745
5,9,0.000387593145558585,0.00299999999879219
5,10,0.00100071612506603,0.00300000000061118
5,11,0.000363513524061276,0.00200000000040745
5,12,0.000960181090613577,0.00299999999879219
5,13,0.000259747855531955,0.00200000000040745
5,14,0.000742755415468976,0.00300000000061118
5,15,0.000557428777458013,0.00200000000040745
5,16,0.000284736705174593,0.00200000000040745
5,17,0.000551077543602951,0.00300000000061118
5,18,0.000308621099668227,0.00200000000040745
5,19,0.000156049634809086,0.00299999999879219
5,20,0.000251444119345412,0.00200000000040745
5,21,0.000384620644797051,0.00200000000040745
5,22,0.000268513952098148,0.00299999999879219
5,23,0.000428135025121734,0.00200000000040745
5,24,0.000150880505079942,0.00300000000061118
5,25,0.000256740674087208,0.00200000000040745
5,26,0.000524560042832078,0.00299999999879219
5,27,0.000560163275435732,0.00300000000061118
5,28,0.000500262862139667,0.00200000000040745
5,29,0.000423930870558809,0.00299999999879219
5,30,0.00016496082959927,0.00200000000040745
6,1,0.00116736737938061,0.00300000000061118
6,2,0.000568340159894598,0.00300000000061118
6,3,0.000970104620794165,0.00199999999858846
6,4,0.00136074977519329,0.00300000000061118
6,5,0.00138204061078939,0.00499999999919964
6,6,0.00143481937359058,0.00300000000061118
6,7,0.36308369057298,0.00300000000061118
6,8,0.00139843979759269,0.00299999999879219
6,9,0.0012274107218101,0.00200000000040745
6,10,0.00184053370131754,0.00300000000061118
6,11,0.00120333110031279,0.00200000000040745
6,12,0.00179999866686509,0.00200000000040745
6,13,0.00109956543178347,0.00300000000061118
6,14,0.00158257299172049,0.00200000000040745
6,15,0.00139724635370952,0.00299999999879219
6,16,0.0011245542814261,0.00200000000040745
6,17,0.00139089511985446,0.00300000000061118
6,18,0.00114843867591974,0.00299999999879219
6,19,0.000995867211060597,0.00200000000040745
6,20,0.00109126169559692,0.00300000000061118
6,21,0.00122443822104856,0.00200000000040745
6,22,0.00110833152834966,0.00299999999879219
6,23,0.00126795260137325,0.00300000000061118
6,24,0.000990698081331454,0.00200000000040745
6,25,0.00109655825033872,0.00299999999879219
6,26,0.00136437761908359,0.00200000000040745
6,27,0.00139998085168724,0.00300000000061118
6,28,0.00134008043839118,0.00300000000061118
6,29,0.00126374844681032,0.00199999999858846
6,30,0.000674856746652241,0.00300000000061118
7,1,0.000889044136902273,0.00200000000040745
7,2,0.000290016917416258,0.00299999999879219
7,3,0.000691781378315826,0.00200000000040745
7,4,0.00108242653271495,0.00200000000040745
7,5,0.00110371736831105,0.00300000000061118
7,6,0.00115649613111224,0.00199999999858846
7,7,0.362836111034701,0.00300000000061118
7,8,0.00112011655511435,0.00300000000061118
7,9,0.000949087479331756,0.00199999999858846
7,10,0.0015622104588392,0.00200000000040745
7,11,0.000925007857834448,0.00599999999940337
7,12,0.00152167542438675,0.00200000000040745
7,13,0.000821242189305127,0.00300000000061118
7,14,0.00130424974924215,0.00300000000061118
7,15,0.00111892311123118,0.00199999999858846
7,16,0.000846231038947765,0.00300000000061118
7,17,0.00111257187737612,0.00200000000040745
7,18,0.000870115433441399,0.00299999999879219
7,19,0.000717543968582257,0.00200000000040745
7,20,0.000812938453118583,0.00300000000061118
7,21,0.000946114978570223,0.00299999999879219
7,22,0.00083000828587132,0.00200000000040745
7,23,0.000989629358894906,0.00300000000061118
7,24,0.000712374838853114,0.00200000000040745
7,25,0.00081823500786038,0.00299999999879219
7,26,0.00108605437660525,0.00300000000061118
7,27,0.0011216576092089,0.00200000000040745
7,28,0.00106175719591284,0.00299999999879219
7,29,0.00098542520433198,0.00200000000040745
7,30,0.000396533504173902,0.00300000000061118
8,1,0.000285459051264536,0.00200000000040745
8,2,0.000313568168221479,0.00199999999858846
8,3,8.81962926780888e-05,0.00300000000061118
8,4,0.000478841447077216,0.00200000000040745
8,5,0.000500132282673316,0.00299999999879219
8,6,0.000552911045474502,0.00200000000040745
8,7,0.362299351545354,0.00300000000061118
8,8,0.000516531469476611,0.00200000000040745
8,9,0.000345502393694019,0.00299999999879219
8,10,0.00095862537320146,0.00200000000040745
8,11,0.000321422772196711,0.00300000000061118
8,12,0.000918090338749011,0.00199999999858846
8,13,0.00021765710366739,0.00300000000061118
8,14,0.000700664663604411,0.00300000000061118
8,15,0.000515338025593448,0.00200000000040745
8,16,0.000242645953310028,0.00599999999940337
8,17,0.000508986791738386,0.00300000000061118
8,18,0.000266530347803662,0.00199999999858846
8,19,0.00011395888294452,0.00300000000061118
8,20,0.000209353367480847,0.00200000000040745
8,21,0.000342529892932486,0.00299999999879219
8,22,0.000226423200233583,0.00200000000040745
8,23,0.000386044273257169,0.00300000000061118
8,24,0.000108789753215377,0.00300000000061118
8,25,0.000214649922222643,0.00199999999858846
8,26,0.000482469290967513,0.00300000000061118
8,27,0.000518072523571167,0.00200000000040745
8,28,0.000458172110275101,0.00299999999879219
8,29,0.000381840118694243,0.00300000000061118
8,30,0.000207051581463835,0.00200000000040745
9,1,0.000760403232085705,0.00300000000061118
9,2,0.00016137601259969,0.00199999999858846
9,3,0.000563140473499257,0.00300000000061118
9,4,0.000953785627898385,0.00200000000040745
9,5,0.000975076463494484,0.00199999999858846
9,6,0.00102785522629567,0.00300000000061118
9,7,0.362721694921565,0.00300000000061118
9,8,0.00099147565029778,0.00199999999858846
9,9,0.000820446574515188,0.00300000000061118
9,10,0.00143356955402263,0.00200000000040745
9,11,0.00079636695301788,0.00200000000040745
9,12,0.00139303451957018,0.00299999999879219
9,13,0.000692601284488559,0.00200000000040745
9,14,0.00117560884442558,0.00300000000061118
9,15,0.000990282206414617,0.00199999999858846
9,16,0.000717590134131196,0.00300000000061118
9,17,0.000983930972559555,0.00300000000061118
9,18,0.00074147452862483,0.00200000000040745
9,19,0.000588903063765689,0.00299999999879219
9,20,0.000684297548302015,0.00200000000040745
9,21,0.000817474073753655,0.00300000000061118
9,22,0.000701367381054752,0.00300000000061118
9,23,0.000860988454078337,0.00200000000040745
9,24,0.000583733934036545,0.00299999999879219
9,25,0.000689594103043811,0.00200000000040745
9,26,0.000957413471788682,0.00300000000061118
9,27,0.000993016704392335,0.00300000000061118
9,28,0.00093311629109627,0.00199999999858846
9,29,0.000856784299515412,0.00300000000061118
9,30,0.000267892599357333,0.00200000000040745
10,1,0.000691097265429153,0.00299999999879219
10,2,9.20700459431378e-05,0.00300000000061118
10,3,0.000493834506842705,0.00200000000040745
10,4,0.000884479661241833,0.00300000000061118
10,5,0.000905770496837932,0.00199999999858846
10,6,0.000958549259639119,0.00300000000061118
10,7,0.362660056588242,0.00300000000061118
10,8,0.000922169683641227,0.00199999999858846
10,9,0.000751140607858636,0.00200000000040745
10,10,0.00136426358736608,0.00300000000061118
10,11,0.000727060986361328,0.00200000000040745
10,12,0.00132372855291363,0.00299999999879219
10,13,0.000623295317832007,0.00200000000040745
10,14,0.00110630287776903,0.00200000000040745
10,15,0.000920976239758065,0.00299999999879219
10,16,0.000648284167474644,0.00200000000040745
10,17,0.000914625005903003,0.00300000000061118
10,18,0.000672168561968278,0.00200000000040745
10,19,0.000519597097109137,0.00299999999879219
10,20,0.000614991581645463,0.00300000000061118
10,21,0.000748168107097102,0.00200000000040745
10,22,0.0006320614143982,0.00299999999879219
10,23,0.000791682487421785,0.00200000000040745
10,24,0.000514427967379993,0.00200000000040745
10,25,0.000620288136387259,0.00299999999879219
10,26,0.00088810750513213,0.00200000000040745
10,27,0.000923710737735783,0.00599999999940337
10,28,0.000863810324439718,0.00300000000061118
10,29,0.00078747833285886,0.00200000000040745
10,30,0.000198586632700781,0.00300000000061118
11,1,0.00106184777587992,0.00199999999858846
11,2,0.000462820556393906,0.00300000000061118
11,3,0.000864585017293473,0.00300000000061118
11,4,0.0012552301716926,0.00199999999858846
11,5,0.0012765210072887,0.00300000000061118
11,6,0.00132929977008989,0.00200000000040745
11,7,0.362989821467607,0.00300000000061118
11,8,0.001292920194092,0.00299999999879219
11,9,0.0011218911183094,0.00200000000040745
11,10,0.00173501409781684,0.00200000000040745
11,11,0.0010978114968121,0.00299999999879219
11,12,0.0016944790633644,0.00200000000040745
11,13,0.000994045828282775,0.00300000000061118
11,14,0.0014770533882198,0.00200000000040745
11,15,0.00129172675020883,0.00200000000040745
11,16,0.00101903467792541,0.00300000000061118
11,17,0.00128537551635377,0.00200000000040745
11,18,0.00104291907241905,0.00299999999879219
11,19,0.000890347607559905,0.00200000000040745
11,20,0.000985742092096231,0.00300000000061118
11,21,0.00111891861754787,0.00299999999879219
11,22,0.00100281192484897,0.00200000000040745
11,23,0.00116243299787255,0.00300000000061118
11,24,0.000885178477830761,0.00200000000040745
11,25,0.000991038646838027,0.00299999999879219
11,26,0.0012588580155829,0.00300000000061118
11,27,0.00129446124818655,0.00200000000040745
11,28,0.00123456083489049,0.00299999999879219
11,29,0.00115822884330963,0.00200000000040745
11,30,0.000569337143151549,0.00200000000040745
12,1,3.19144749916234e-06,0.00300000000061118
12,2,0.000595835771986852,0.00499999999919964
12,3,0.000194071311087285,0.00300000000061118
12,4,0.000196573843311842,0.00299999999879219
12,5,0.000217864678907942,0.00200000000040745
12,6,0.000270643441709129,0.00300000000061118
12,7,0.362048407278377,0.00299999999879219
12,8,0.000234263865711237,0.00200000000040745
12,9,6.32347899286456e-05,0.00300000000061118
12,10,0.000676357769436087,0.00200000000040745
12,11,3.91551684313374e-05,0.00200000000040745
12,12,0.000635822734983638,0.00300000000061118
12,13,6.46105000979835e-05,0.00200000000040745
12,14,0.000418397059839037,0.00299999999879219
12,15,0.000233070421828074,0.00200000000040745
12,16,3.96216504553459e-05,0.00300000000061118
12,17,0.000226719187973012,0.00299999999879219
12,18,1.57372559617119e-05,0.00200000000040745
12,19,0.000168308720820853,0.00300000000061118
12,20,7.2914236284527e-05,0.00200000000040745
12,21,6.02622891671123e-05,0.00299999999879219
12,22,5.58444035317907e-05,0.00300000000061118
12,23,0.000103776669491795,0.00200000000040745
12,24,0.000173477850549997,0.00299999999879219
12,25,6.7617681542731e-05,0.00200000000040745
12,26,0.000200201687202139,0.00300000000061118
12,27,0.000235804919805793,0.00200000000040745
12,28,0.000175904506509728,0.00199999999858846
12,29,9.95725149288695e-05,0.00300000000061118
12,30,0.000489319185229209,0.00200000000040745
13,1,0.000863156627821882,0.00299999999879219
13,2,0.000264129408335867,0.00300000000061118
13,3,0.000665893869235434,0.00200000000040745
13,4,0.00105653902363456,0.00300000000061118
13,5,0.00107782985923066,0.00199999999858846
13,6,0.00113060862203185,0.00300000000061118
13,7,0.362813085336169,0.00599999999940337
13,8,0.00109422904603396,0.00300000000061118
13,9,0.000923199970251365,0.00200000000040745
13,10,0.00153632294975881,0.00299999999879219
13,11,0.000899120348754057,0.00200000000040745
13,12,0.00149578791530636,0.00300000000061118
13,13,0.000795354680224736,0.00300000000061118
13,14,0.00127836224016176,0.00199999999858846
13,15,0.00109303560215079,0.00300000000061118
13,16,0.000820343529867373,0.00200000000040745
13,17,0.00108668436829573,0.00299999999879219
13,18,0.000844227924361007,0.00200000000040745
13,19,0.000691656459501866,0.00200000000040745
13,20,0.000787050944038192,0.00300000000061118
13,21,0.000920227469489832,0.00199999999858846
13,22,0.000804120776790929,0.00300000000061118
13,23,0.000963741849814514,0.00200000000040745
13,24,0.000686487329772723,0.00299999999879219
13,25,0.000792347498779988,0.00300000000061118
13,26,0.00106016686752486,0.00200000000040745
13,27,0.00109577010012851,0.00299999999879219
13,28,0.00103586968683245,0.00200000000040745
13,29,0.000959537695251589,0.00300000000061118
13,30,0.00037064599509351,0.00300000000061118
14,1,0.00097474826639532,0.00199999999858846
14,2,0.000375721046909305,0.00300000000061118
14,3,0.000777485507808873,0.00200000000040745
14,4,0.001168130662208,0.00299999999879219
14,5,0.0011894214978041,0.00300000000061118
14,6,0.00124220026060529,0.00200000000040745
14,7,0.362912343502317,0.00300000000061118
14,8,0.00120582068460739,0.00299999999879219
14,9,0.0010347916088248,0.00200000000040745
14,10,0.00164791458833224,0.00300000000061118
14,11,0.0010107119873275,0.00599999999940337
14,12,0.0016073795538798,0.00200000000040745
14,13,0.000906946318798174,0.00299999999879219
14,14,0.0013899538787352,0.00200000000040745
14,15,0.00120462724072423,0.00200000000040745
14,16,0.000931935168440812,0.00300000000061118
14,17,0.00119827600686917,0.00199999999858846
14,18,0.000955819562934446,0.00300000000061118
14,19,0.000803248098075304,0.00200000000040745
14,20,0.000898642582611631,0.00199999999858846
14,21,0.00103181910806327,0.00300000000061118
14,22,0.000915712415364367,0.00200000000040745
14,23,0.00107533348838795,0.00300000000061118
14,24,0.000798078968346161,0.00199999999858846
14,25,0.000903939137353427,0.00300000000061118
14,26,0.0011717585060983,0.00300000000061118
14,27,0.00120736173870195,0.00199999999858846
14,28,0.00114746132540589,0.00300000000061118
14,29,0.00107112933382503,0.00200000000040745
14,30,0.000482237633666949,0.00300000000061118
15,1,0.000732174853252499,0.00299999999879219
15,2,0.000133147633766484,0.00200000000040745
15,3,0.000534912094666051,0.00300000000061118
15,4,0.000925557249065179,0.00199999999858846
15,5,0.000946848084661278,0.00300000000061118
15,6,0.000999626847462465,0.00300000000061118
15,7,0.362696589242137,0.00299999999879219
15,8,0.000963247271464573,0.00200000000040745
15,9,0.000792218195681982,0.00300000000061118
15,10,0.00140534117518942,0.00200000000040745
15,11,0.000768138574184674,0.00299999999879219
15,12,0.00136480614073697,0.00300000000061118
15,13,0.000664372905655353,0.00200000000040745
15,14,0.00114738046559237,0.00299999999879219
15,15,0.000962053827581411,0.00200000000040745
15,16,0.00068936175529799,0.00599999999940337
15,17,0.000955702593726349,0.00300000000061118
15,18,0.000713246149791624,0.00200000000040745
15,19,0.000560674684932483,0.00300000000061118
15,20,0.000656069169468809,0.00299999999879219
15,21,0.000789245694920448,0.00200000000040745
15,22,0.000673139002221546,0.00300000000061118
15,23,0.000832760075245131,0.00199999999858846
15,24,0.000555505555203339,0.00300000000061118
15,25,0.000661365724210605,0.00200000000040745
15,26,0.000929185092955476,0.00200000000040745
15,27,0.000964788325559129,0.00299999999879219
15,28,0.000904887912263064,0.00200000000040745
15,29,0.000828555920682206,0.00300000000061118
15,30,0.000239664220524127,0.00199999999858846
16,1,0.000471440010437085,0.00200000000040745
16,2,0.0010704672299231,0.00300000000061118
16,3,0.000668702769023533,0.00200000000040745
16,4,0.000278057614624405,0.00299999999879219
16,5,0.000256766779028306,0.00200000000040745
16,6,0.000203988016227119,0.00200000000040745
16,7,0.361626549966618,0.00299999999879219
16,8,0.00024036759222501,0.00300000000061118
16,9,0.000411396668007602,0.00200000000040745
16,10,0.000201726311499839,0.00299999999879219
16,11,0.00043547628950491,0.00200000000040745
16,12,0.00016119127704739,0.00200000000040745
16,13,0.000539241958034231,0.00300000000061118
16,14,5.62343980972102e-05,0.00199999999858846
16,15,0.000241561036108173,0.00300000000061118
16,16,0.000514253108391594,0.00200000000040745
16,17,0.000247912269963235,0.00199999999858846
16,18,0.00049036871389796,0.00300000000061118
16,19,0.000642940178757101,0.00200000000040745
16,20,0.000547545694220775,0.00599999999940337
16,21,0.000414369168769135,0.00300000000061118
16,22,0.000530475861468038,0.00200000000040745
16,23,0.000370854788444452,0.00299999999879219
16,24,0.000648109308486244,0.00200000000040745
16,25,0.000542249139478979,0.00200000000040745
16,26,0.000274429770734108,0.00299999999879219
16,27,0.000238826538130454,0.00200000000040745
16,28,0.00029872695142652,0.00300000000061118
16,29,0.000375058943007378,0.00200000000040745
16,30,0.000963950643165457,0.00299999999879219
17,1,0.000414213071295411,0.00300000000061118
17,2,0.000184814148190604,0.00200000000040745
17,3,0.000216950312708963,0.00299999999879219
17,4,0.000607595467108091,0.00200000000040745
17,5,0.00062888630270419,0.00300000000061118
17,6,0.000681665065505377,0.00299999999879219
17,7,0.362413832990915,0.00300000000061118
17,8,0.000645285489507486,0.00200000000040745
17,9,0.000474256413724894,0.00300000000061118
17,10,0.00108737939323234,0.00199999999858846
17,11,0.000450176792227586,0.00300000000061118
17,12,0.00104684435877989,0.00300000000061118
17,13,0.000346411123698265,0.00199999999858846
17,14,0.000829418683635286,0.00300000000061118
17,15,0.000644092045624323,0.00200000000040745
17,16,0.000371399973340902,0.00300000000061118
17,17,0.000637740811769261,0.00299999999879219
17,18,0.000395284367834536,0.00200000000040745
17,19,0.000242712902975395,0.00300000000061118
17,20,0.000338107387511721,0.00199999999858846
17,21,0.000471283912963361,0.00300000000061118
17,22,0.000355177220264458,0.00300000000061118
17,23,0.000514798293288043,0.00200000000040745
17,24,0.000237543773246252,0.00900000000001455
17,25,0.000343403942253517,0.00299999999879219
17,26,0.000611223310998388,0.00200000000040745
17,27,0.000646826543602042,0.00300000000061118
17,28,0.000586926130305976,0.00199999999858846
17,29,0.000510594138725118,0.00200000000040745
17,30,7.82975614329606e-05,0.00300000000061118
18,1,0.0003993814261114,0.00200000000040745
18,2,0.000199645793374614,0.00299999999879219
18,3,0.000202118667524953,0.00300000000061118
18,4,0.000592763821924081,0.00200000000040745
18,5,0.00061405465752018,0.00299999999879219
18,6,0.000666833420321367,0.00200000000040745
18,7,0.362400644967454,0.00300000000061118
18,8,0.000630453844323475,0.00199999999858846
18,9,0.000459424768540884,0.00300000000061118
18,10,0.00107254774804832,0.00200000000040745
18,11,0.000435345147043575,0.00300000000061118
18,12,0.00103201271359588,0.00299999999879219
18,13,0.000331579478514255,0.00200000000040745
18,14,0.000814587038451275,0.00300000000061118
18,15,0.000629260400440312,0.00299999999879219
18,16,0.000356568328156892,0.00200000000040745
18,17,0.00062290916658525,0.00300000000061118
18,18,0.000380452722650526,0.00299999999879219
18,19,0.000227881257791385,0.00200000000040745
18,20,0.000323275742327711,0.00300000000061118
18,21,0.00045645226777935,0.00200000000040745
18,22,0.000340345575080447,0.00200000000040745
18,23,0.000499966648104033,0.00300000000061118
18,24,0.000222712128062241,0.00200000000040745
18,25,0.000328572297069507,0.00299999999879219
18,26,0.000596391665814378,0.00300000000061118
18,27,0.000631994898418031,0.00200000000040745
18,28,0.000572094485121966,0.00299999999879219
18,29,0.000495762493541108,0.00300000000061118
18,30,9.31292066169709e-05,0.00500000000101863
19,1,0.000388738315102444,0.00200000000040745
19,2,0.000210288904383571,0.00300000000061118
19,3,0.000191475556515996,0.00200000000040745
19,4,0.000582120710915124,0.00299999999879219
19,5,0.000603411546511223,0.00300000000061118
19,6,0.00065619030931241,0.00200000000040745
19,7,0.362391181389114,0.00299999999879219
19,8,0.000619810733314519,0.00300000000061118
19,9,0.000448781657531927,0.00200000000040745
19,10,0.00106190463703937,0.00300000000061118
19,11,0.000424702036034619,0.00299999999879219
19,12,0.00102136960258692,0.00200000000040745
19,13,0.000320936367505298,0.00300000000061118
19,14,0.000803943927442319,0.00199999999858846
19,15,0.000618617289431356,0.00300000000061118
19,16,0.000345925217147935,0.00300000000061118
19,17,0.000612266055576294,0.00200000000040745
19,18,0.000369809611641569,0.00299999999879219
19,19,0.000217238146782428,0.00300000000061118
19,20,0.000312632631318754,0.00200000000040745
19,21,0.000445809156770394,0.00299999999879219
19,22,0.000329702464071491,0.00200000000040745
19,23,0.000489323537095077,0.00200000000040745
19,24,0.000212069017053285,0.00299999999879219
19,25,0.00031792918606055,0.00200000000040745
19,26,0.000585748554805421,0.00300000000061118
19,27,0.000621351787409075,0.00300000000061118
19,28,0.000561451374113009,0.00199999999858846
19,29,0.000485119382532151,0.00300000000061118
19,30,0.000103772317625928,0.00300000000061118
20,1,0.000322782666756338,0.00199999999858846
20,2,0.000276244552729676,0.00300000000061118
20,3,0.000125519908169891,0.00200000000040745
20,4,0.000516165062569018,0.00299999999879219
20,5,0.000537455898165118,0.00300000000061118
20,6,0.000590234660966305,0.00500000000101863
20,7,0.362332536796446,0.00300000000061118
20,8,0.000553855084968413,0.00200000000040745
20,9,0.000382826009185822,0.00300000000061118
20,10,0.000995948988693263,0.00299999999879219
20,11,0.000358746387688513,0.00200000000040745
20,12,0.000955413954240814,0.00300000000061118
20,13,0.000254980719159192,0.00199999999858846
20,14,0.000737988279096213,0.00300000000061118
20,15,0.00055266164108525,0.00300000000061118
20,16,0.00027996956880183,0.00200000000040745
20,17,0.000546310407230188,0.00299999999879219
20,18,0.000303853963295464,0.00200000000040745
20,19,0.000151282498436323,0.00300000000061118
20,20,0.000246676982972649,0.00299999999879219
20,21,0.000379853508424288,0.00200000000040745
20,22,0.000263746815725385,0.00300000000061118
20,23,0.000423367888748971,0.00200000000040745
20,24,0.000146113368707179,0.00299999999879219
20,25,0.000251973537714445,0.00300000000061118
20,26,0.000519792906459315,0.00200000000040745
20,27,0.000555396139062969,0.00299999999879219
20,28,0.000495495725766903,0.00300000000061118
20,29,0.000419163734186045,0.00200000000040745
20,30,0.000169727965972033,0.00299999999879219
21,1,0.000220648424627767,0.00200000000040745
21,2,0.000378378794858247,0.00200000000040745
21,3,2.33856660413201e-05,0.00300000000061118
21,4,0.000414030820440447,0.00199999999858846
21,5,0.000435321656036547,0.00300000000061118
21,6,0.000488100418837734,0.00300000000061118
21,7,0.362241728899197,0.00299999999879219
21,8,0.000451720842839842,0.00200000000040745
21,9,0.000280691767057251,0.00300000000061118
21,10,0.000893814746564692,0.00299999999879219
21,11,0.000256612145559942,0.00200000000040745
21,12,0.000853279712112243,0.00600000000122236
21,13,0.000152846477030621,0.00299999999879219
21,14,0.000635854036967642,0.00300000000061118
21,15,0.000450527398956679,0.00200000000040745
21,16,0.000177835326673259,0.00299999999879219
21,17,0.000444176165101617,0.00200000000040745
21,18,0.000201719721166893,0.00300000000061118
21,19,4.91482563077517e-05,0.00299999999879219
21,20,0.000144542740844078,0.00200000000040745
21,21,0.000277719266295717,0.00300000000061118
21,22,0.000161612573596814,0.00200000000040745
21,23,0.0003212336466204,0.00200000000040745
21,24,4.39791265786083e-05,0.00300000000061118
21,25,0.000149839295585874,0.00200000000040745
21,26,0.000417658664330745,0.00299999999879219
21,27,0.000453261896934398,0.00300000000061118
21,28,0.000393361483638333,0.00200000000040745
21,29,0.000317029492057475,0.00299999999879219
21,30,0.000271862208100604,0.00200000000040745
22,1,0.000722396807792403,0.00200000000040745
22,2,0.000123369588306388,0.00300000000061118
22,3,0.000525134049205955,0.00199999999858846
22,4,0.000915779203605083,0.00300000000061118
22,5,0.000937070039201182,0.00300000000061118
22,6,0.000989848802002369,0.00199999999858846
22,7,0.362687892977519,0.00300000000061118
22,8,0.000953469226004477,0.00300000000061118
22,9,0.000782440150221886,0.00299999999879219
22,10,0.00139556312972933,0.00200000000040745
22,11,0.000758360528724578,0.00300000000061118
22,12,0.00135502809527688,0.00300000000061118
22,13,0.000654594860195257,0.00199999999858846
22,14,0.00113760242013228,0.00300000000061118
22,15,0.000952275782121315,0.00200000000040745
22,16,0.000679583709837894,0.00199999999858846
22,17,0.000945924548266253,0.00300000000061118
22,18,0.000703468104331528,0.00299999999879219
22,19,0.000550896639472387,0.00200000000040745
22,20,0.000646291124008713,0.00300000000061118
22,21,0.000779467649460353,0.00300000000061118
22,22,0.00066336095676145,0.00199999999858846
22,23,0.000822982029785035,0.00300000000061118
22,24,0.000545727509743243,0.00200000000040745
22,25,0.000651587678750509,0.00199999999858846
22,26,0.00091940704749538,0.00300000000061118
22,27,0.000955010280099033,0.00200000000040745
22,28,0.000895109866802968,0.00300000000061118
22,29,0.00081877787522211,0.00299999999879219
22,30,0.000229886175064031,0.00200000000040745
23,1,0.000786758385416975,0.00300000000061118
23,2,0.00018773116593096,0.00199999999858846
23,3,0.000589495626830527,0.00300000000061118
23,4,0.000980140781229655,0.00300000000061118
23,5,0.00100143161682575,0.00199999999858846
23,6,0.00105421037962694,0.00300000000061118
23,7,0.362745135011186,0.00300000000061118
23,8,0.00101783080362905,0.00299999999879219
23,9,0.000846801727846458,0.00200000000040745
23,10,0.0014599247073539,0.00300000000061118
23,11,0.00082272210634915,0.00200000000040745
23,12,0.00141938967290145,0.00199999999858846
23,13,0.000718956437819829,0.00300000000061118
23,14,0.00120196399775685,0.00200000000040745
23,15,0.00101663735974589,0.00299999999879219
23,16,0.000743945287462466,0.00300000000061118
23,17,0.00101028612589082,0.00200000000040745
23,18,0.0007678296819561,0.00300000000061118
23,19,0.000615258217096959,0.00299999999879219
23,20,0.000710652701633285,0.00200000000040745
23,21,0.000843829227084925,0.00300000000061118
23,22,0.000727722534386022,0.00199999999858846
23,23,0.000887343607409607,0.00500000000101863
23,24,0.000610089087367816,0.00299999999879219
23,25,0.000715949256375081,0.00300000000061118
23,26,0.000983768625119952,0.00200000000040745
23,27,0.00101937185772361,0.00200000000040745
23,28,0.00095947144442754,0.00299999999879219
23,29,0.000883139452846682,0.00200000000040745
23,30,0.000294247752688603,0.00300000000061118
24,1,0.000733774984653657,0.00299999999879219
24,2,0.000134747765167642,0.00200000000040745
24,3,0.000536512226067209,0.00300000000061118
24,4,0.000927157380466337,0.00200000000040745
24,5,0.000948448216062436,0.00299999999879219
24,6,0.00100122697886362,0.00300000000061118
24,7,0.362698012350409,0.00300000000061118
24,8,0.000964847402865732,0.00199999999858846
24,9,0.00079381832708314,0.00300000000061118
24,10,0.00140694130659058,0.00200000000040745
24,11,0.000769738705585832,0.00199999999858846
24,12,0.00136640627213813,0.00300000000061118
24,13,0.000665973037056511,0.00200000000040745
24,14,0.00114898059699353,0.00200000000040745
24,15,0.000963653958982569,0.00299999999879219
24,16,0.000690961886699148,0.00200000000040745
24,17,0.000957302725127507,0.00300000000061118
24,18,0.000714846281192782,0.00299999999879219
24,19,0.000562274816333641,0.00200000000040745
24,20,0.000657669300869967,0.00300000000061118
24,21,0.000790845826321607,0.00299999999879219
24,22,0.000674739133622704,0.00200000000040745
24,23,0.00083436020664629,0.00300000000061118
24,24,0.000557105686604498,0.00200000000040745
24,25,0.000662965855611763,0.00200000000040745
24,26,0.000930785224356634,0.00300000000061118
24,27,0.000966388456960288,0.00200000000040745
24,28,0.000906488043664222,0.00299999999879219
24,29,0.000830156052083364,0.00600000000122236
24,30,0.000241264351925286,0.00299999999879219
25,1,4.82393111098656e-05,0.00200000000040745
25,2,0.000550787908376149,0.00300000000061118
25,3,0.000149023447476582,0.00299999999879219
25,4,0.000241621706922546,0.00200000000040745
25,5,0.000262912542518645,0.00300000000061118
25,6,0.000315691305319832,0.00200000000040745
25,7,0.362088453071147,0.00299999999879219
25,8,0.00027931172932194,0.00300000000061118
25,9,0.000108282653539349,0.00300000000061118
25,10,0.00072140563304679,0.00199999999858846
25,11,8.42030320420406e-05,0.00300000000061118
25,12,0.000680870598594341,0.00300000000061118
25,13,1.95626364872803e-05,0.00200000000040745
25,14,0.000463444923449741,0.00299999999879219
25,15,0.000278118285438778,0.00200000000040745
25,16,5.4262131553573e-06,0.00300000000061118
25,17,0.000271767051583716,0.00299999999879219
25,18,2.93106076489913e-05,0.00200000000040745
25,19,0.00012326085721015,0.00300000000061118
25,20,2.78663726738237e-05,0.00299999999879219
25,21,0.000105310152777816,0.00200000000040745
25,22,1.07965399210874e-05,0.00300000000061118
25,23,0.000148824533102498,0.00300000000061118
25,24,0.000128429986939294,0.00199999999858846
25,25,2.25698179320277e-05,0.00300000000061118
25,26,0.000245249550812843,0.00300000000061118
25,27,0.000280852783416496,0.00199999999858846
25,28,0.000220952370120431,0.00300000000061118
25,29,0.000144620378539573,0.00200000000040745
25,30,0.000444271321618506,0.00200000000040745
26,1,0.000870645602091047,0.00299999999879219
26,2,0.000271618382605032,0.00200000000040745
26,3,0.0006733828435046,0.00300000000061118
26,4,0.00106402799790373,0.00599999999940337
26,5,0.00108531883349983,0.00300000000061118
26,6,0.00113809759630101,0.00199999999858846
26,7,0.362819746380171,0.00300000000061118
26,8,0.00110171802030312,0.00300000000061118
26,9,0.00093068894452053,0.00299999999879219
26,10,0.00154381192402797,0.00200000000040745
26,11,0.000906609323023222,0.00300000000061118
26,12,0.00150327688957552,0.00200000000040745
26,13,0.000802843654493901,0.00299999999879219
26,14,0.00128585121443092,0.00300000000061118
26,15,0.00110052457641996,0.00200000000040745
26,16,0.000827832504136539,0.00299999999879219
26,17,0.0010941733425649,0.00200000000040745
26,18,0.000851716898630173,0.00200000000040745
26,19,0.000699145433771031,0.00299999999879219
26,20,0.000794539918307358,0.00200000000040745
26,21,0.000927716443758997,0.00300000000061118
26,22,0.000811609751060094,0.00300000000061118
26,23,0.00097123082408368,0.00199999999858846
26,24,0.000693976304041888,0.00300000000061118
26,25,0.000799836473049154,0.00300000000061118
26,26,0.00106765584179402,0.00199999999858846
26,27,0.00110325907439768,0.00300000000061118
26,28,0.00104335866110161,0.00200000000040745
26,29,0.000967026669520754,0.00300000000061118
26,30,0.000378134969362676,0.00299999999879219
27,1,1.63041884766457e-05,0.00200000000040745
27,2,0.000582723031009369,0.00300000000061118
27,3,0.000180958570109802,0.00299999999879219
27,4,0.000209686584289326,0.00200000000040745
27,5,0.000230977419885425,0.00300000000061118
27,6,0.000283756182686612,0.00200000000040745
27,7,0.362060063872088,0.00300000000061118
27,8,0.000247376606688721,0.00200000000040745
27,9,7.6347530906129e-05,0.00599999999940337
27,10,0.00068947051041357,0.00300000000061118
27,11,5.22679094088208e-05,0.00200000000040745
27,12,0.000648935475961121,0.00199999999858846
27,13,5.14977591205001e-05,0.00300000000061118
27,14,0.000431509800816521,0.00200000000040745
27,15,0.000246183162805558,0.00299999999879219
27,16,2.65089094778626e-05,0.00200000000040745
27,17,0.000239831928950496,0.00200000000040745
27,18,2.62451498422855e-06,0.00299999999879219
27,19,0.00015519597984337,0.00200000000040745
27,20,5.98014953070436e-05,0.00300000000061118
27,21,7.33750301445957e-05,0.00300000000061118
27,22,4.27316625543073e-05,0.00199999999858846
27,23,0.000116889410469279,0.00300000000061118
27,24,0.000160365109572513,0.00200000000040745
27,25,5.45049405652476e-05,0.00299999999879219
27,26,0.000213314428179623,0.00300000000061118
27,27,0.000248917660783277,0.00200000000040745
27,28,0.000189017247487211,0.00300000000061118
27,29,0.000112685255906353,0.00299999999879219
27,30,0.000476206444251726,0.00200000000040745
28,1,0.000285020506506584,0.00300000000061118
28,2,0.000314006712979431,0.00199999999858846
28,3,8.77577479201364e-05,0.00200000000040745
28,4,0.000478402902319264,0.00300000000061118
28,5,0.000499693737915363,0.00200000000040745
28,6,0.00055247250071655,0.00299999999879219
28,7,0.362298961630309,0.00300000000061118
28,8,0.000516092924718659,0.00300000000061118
28,9,0.000345063848936067,0.00199999999858846
28,10,0.000958186828443508,0.00300000000061118
28,11,0.000320984227438759,0.00300000000061118
28,12,0.000917651793991059,0.00199999999858846
28,13,0.000217218558909438,0.00300000000061118
28,14,0.000700226118846459,0.00599999999940337
28,15,0.000514899480835496,0.00300000000061118
28,16,0.000242207408552075,0.00200000000040745
28,17,0.000508548246980434,0.00300000000061118
28,18,0.000266091803045709,0.00299999999879219
28,19,0.000113520338186568,0.00200000000040745
28,20,0.000208914822722894,0.00300000000061118
28,21,0.000342091348174534,0.00199999999858846
28,22,0.000225984655475631,0.00300000000061118
28,23,0.000385605728499216,0.00300000000061118
28,24,0.000108351208457425,0.00200000000040745
28,25,0.00021421137746469,0.00299999999879219
28,26,0.000482030746209561,0.00200000000040745
28,27,0.000517633978813214,0.00300000000061118
28,28,0.000457733565517149,0.00299999999879219
28,29,0.000381401573936291,0.00200000000040745
28,30,0.000207490126221788,0.00300000000061118
29,1,0.000590101499906015,0.00299999999879219
29,2,8.92571957999966e-06,0.00200000000040745
29,3,0.000392838741319568,0.00300000000061118
29,4,0.000783483895718695,0.00299999999879219
29,5,0.000804774731314795,0.00200000000040745
29,6,0.000857553494115981,0.00300000000061118
29,7,0.362570239400191,0.00300000000061118
29,8,0.00082117391811809,0.00199999999858846
29,9,0.000650144842335498,0.00200000000040745
29,10,0.00126326782184294,0.00300000000061118
29,11,0.00062606522083819,0.00199999999858846
29,12,0.00122273278739049,0.00300000000061118
29,13,0.000522299552308869,0.00300000000061118
29,14,0.00100530711224589,0.00200000000040745
29,15,0.000819980474234927,0.00299999999879219
29,16,0.000547288401951507,0.00300000000061118
29,17,0.000813629240379865,0.00200000000040745
29,18,0.000571172796445141,0.00299999999879219
29,19,0.000418601331585999,0.00600000000122236
29,20,0.000513995816122326,0.00299999999879219
29,21,0.000647172341573965,0.00200000000040745
29,22,0.000531065648875062,0.00300000000061118
29,23,0.000690686721898648,0.00200000000040745
29,24,0.000413432201856856,0.00200000000040745
29,25,0.000519292370864122,0.00300000000061118
29,26,0.000787111739608992,0.00200000000040745
29,27,0.000822714972212646,0.00299999999879219
29,28,0.00076281455891658,0.00300000000061118
29,29,0.000686482567335722,0.00200000000040745
29,30,9.75908671776438e-05,0.00299999999879219
30,1,0.000834988730329167,0.00200000000040745
30,2,0.000235961510843152,0.00300000000061118
30,3,0.00063772597174272,0.00300000000061118
30,4,0.00102837112614185,0.00199999999858846
30,5,0.00104966196173795,0.00300000000061118
30,6,0.00110244072453913,0.00300000000061118
30,7,0.362788031779769,0.00299999999879219
30,8,0.00106606114854124,0.00200000000040745
30,9,0.00089503207275865,0.00300000000061118
30,10,0.00150815505226609,0.00299999999879219
30,11,0.000870952451261342,0.00200000000040745
30,12,0.00146762001781364,0.00300000000061118
30,13,0.000767186782732021,0.00200000000040745
30,14,0.00125019434266904,0.00199999999858846
30,15,0.00106486770465808,0.00300000000061118
30,16,0.000792175632374659,0.00200000000040745
30,17,0.00105851647080302,0.00299999999879219
30,18,0.000816060026868293,0.00300000000061118
30,19,0.000663488562009151,0.00200000000040745
30,20,0.000758883046545478,0.00299999999879219
30,21,0.000892059571997117,0.00300000000061118
30,22,0.000775952879298214,0.00200000000040745
30,23,0.0009355739523218,0.00300000000061118
30,24,0.000658319432280008,0.00599999999940337
30,25,0.000764179601287274,0.00300000000061118
30,26,0.00103199897003214,0.00199999999858846
30,27,0.0010676022026358,0.00300000000061118
30,28,0.00100770178933973,0.00200000000040745
30,29,0.000931369797758874,0.00299999999879219
30,30,0.000342478097600796,0.00300000000061118
