App - Minetest
Scenario - play_game
Length - 5sec
Measure - ARPicDistance
Before Version - 0.4.14
After Version - 0.4.15


"Before.Trace.ID1","Before.Trace.ID2","Difference","Runtime"
1,2,0.000745736218148996,0.0029999999969732
1,3,0.000157479978868391,0.00200000000040745
1,4,0.000503378932291243,0.00200000000040745
1,5,0.091760751035385,0.00300000000061118
1,6,0.000649934267453078,0.00300000000061118
1,7,0.000446643261974744,0.00200000000040745
1,8,0.00034644143718221,0.00200000000040745
1,9,0.000481952290636301,0.0029999999969732
1,10,0.00015301939308765,0.00200000000040745
1,11,0.00015665044117541,0.00300000000061118
1,12,0.000641175574208952,0.00300000000061118
1,13,0.000703337464732501,0.00200000000040745
1,14,0.000564210994268843,0.00300000000061118
1,15,0.000604445524342911,0.0029999999969732
1,16,0.0001428004745615,0.00200000000040745
1,17,0.000972060690656473,0.00300000000061118
1,18,0.000302083409386422,0.00200000000040745
1,19,0.00039105242111237,0.00200000000040745
1,20,0.000268957831205507,0.00300000000061118
1,21,0.000374843706696493,0.00200000000040745
1,22,0.00037835840180267,0.0029999999969732
1,23,0.000500406458869396,0.00600000000122236
1,24,9.71725709716376e-05,0.00200000000040745
1,25,0.000659886542687893,0.00300000000061118
1,26,0.000622254915979448,0.00300000000061118
1,27,0.000154023797421021,0.00200000000040745
1,28,0.000559884303656499,0.0029999999969732
1,29,0.000361456661331583,0.00200000000040745
1,30,0.00041047139700956,0.00300000000061118
2,3,0.000588256239280605,0.00300000000061118
2,4,0.000242357285857753,0.00200000000040745
2,5,0.0911239359554547,0.00300000000061118
2,6,9.58019506959173e-05,0.0029999999969732
2,7,0.000299092956174252,0.00200000000040745
2,8,0.000399294780966786,0.00300000000061118
2,9,0.000263783927512695,0.00300000000061118
2,10,0.000592716825061346,0.00200000000040745
2,11,0.000589085776973586,0.00300000000061118
2,12,0.000104560643940044,0.00200000000040745
2,13,4.23987534164949e-05,0.00199999999676947
2,14,0.000181525223880152,0.00300000000061118
2,15,0.000141290693806084,0.00200000000040745
2,16,0.000602935743587496,0.00300000000061118
2,17,0.000226324472507478,0.00300000000061118
2,18,0.000443652808762574,0.00200000000040745
2,19,0.000354683797036626,0.00300000000061118
2,20,0.000476778386943488,0.0029999999969732
2,21,0.000370892511452503,0.00200000000040745
2,22,0.000367377816346326,0.00300000000061118
2,23,0.0002453297592796,0.00200000000040745
2,24,0.000648563647177358,0.00200000000040745
2,25,8.58496754611027e-05,0.00300000000061118
2,26,0.000123481302169548,0.00200000000040745
2,27,0.000591712420727974,0.0029999999969732
2,28,0.000185851914492496,0.00300000000061118
2,29,0.000384279556817413,0.00200000000040745
2,30,0.000335264821139436,0.00600000000122236
3,4,0.000345898953422852,0.00300000000061118
3,5,0.0916261354633181,0.0029999999969732
3,6,0.000492454288584687,0.00200000000040745
3,7,0.000289163283106353,0.00300000000061118
3,8,0.000188961458313819,0.00300000000061118
3,9,0.000324472311767909,0.00200000000040745
3,10,4.46058578074116e-06,0.00300000000061118
3,11,8.29537692981219e-07,0.00200000000040745
3,12,0.000483695595340561,0.0029999999969732
3,13,0.00054585748586411,0.00300000000061118
3,14,0.000406731015400452,0.00200000000040745
3,15,0.00044696554547452,0.00300000000061118
3,16,1.46795043068915e-05,0.00200000000040745
3,17,0.000814580711788082,0.00300000000061118
3,18,0.000144603430518031,0.00300000000061118
3,19,0.000233572442243979,0.00199999999676947
3,20,0.000111477852337116,0.00300000000061118
3,21,0.000217363727828102,0.00200000000040745
3,22,0.000220878422934279,0.00300000000061118
3,23,0.000342926480001005,0.00300000000061118
3,24,6.03074078967536e-05,0.00200000000040745
3,25,0.000502406563819502,0.00300000000061118
3,26,0.000464774937111057,0.0029999999969732
3,27,3.45618144736992e-06,0.00200000000040745
3,28,0.000402404324788108,0.00300000000061118
3,29,0.000203976682463192,0.00200000000040745
3,30,0.000252991418141169,0.00200000000040745
4,5,0.0913307140381693,0.00300000000061118
4,6,0.000146555335161835,0.0029999999969732
4,7,5.6735670316499e-05,0.00200000000040745
4,8,0.000156937495109033,0.00200000000040745
4,9,2.14266416549425e-05,0.00300000000061118
4,10,0.000350359539203593,0.00200000000040745
4,11,0.000346728491115833,0.00600000000122236
4,12,0.000137796641917709,0.0029999999969732
4,13,0.000199958532441258,0.00200000000040745
4,14,6.08320619776004e-05,0.00300000000061118
4,15,0.000101066592051668,0.00300000000061118
4,16,0.000360578457729743,0.00200000000040745
4,17,0.00046868175836523,0.00300000000061118
4,18,0.000201295522904821,0.00200000000040745
4,19,0.000112326511178873,0.0029999999969732
4,20,0.000234421101085736,0.00300000000061118
4,21,0.00012853522559475,0.00200000000040745
4,22,0.000125020530488573,0.00300000000061118
4,23,2.97247342184725e-06,0.00200000000040745
4,24,0.000406206361319605,0.00300000000061118
4,25,0.00015650761039665,0.00300000000061118
4,26,0.000118875983688205,0.00199999999676947
4,27,0.000349355134870222,0.00300000000061118
4,28,5.65053713652564e-05,0.00200000000040745
4,29,0.00014192227095966,0.00300000000061118
4,30,9.29075352816833e-05,0.00300000000061118
5,6,0.0912056527833623,0.00300000000061118
5,7,0.0913791459028056,0.0029999999969732
5,8,0.0914647055582316,0.00300000000061118
5,9,0.0913490035633118,0.00300000000061118
5,10,0.091629947416793,0.00300000000061118
5,11,0.0916268443700569,0.00300000000061118
5,12,0.0912131251119247,0.00300000000061118
5,13,0.0911600977192139,0.0029999999969732
5,14,0.0912787959561896,0.00300000000061118
5,15,0.0912444632143482,0.00300000000061118
5,16,0.0916386805806611,0.00600000000122236
5,17,0.0909309956753804,0.00300000000061118
5,18,0.0915025911827312,0.0029999999969732
5,19,0.0914266097593398,0.00300000000061118
5,20,0.0915308871087445,0.00300000000061118
5,21,0.0914404505999643,0.00300000000061118
5,22,0.0914374492881675,0.00300000000061118
5,23,0.0913332512244464,0.0029999999969732
5,24,0.0916776782742349,0.00300000000061118
5,25,0.0911971624487126,0.00300000000061118
5,26,0.0912292677274053,0.00300000000061118
5,27,0.0916290890619571,0.00300000000061118
5,28,0.0912824882747722,0.00300000000061118
5,29,0.091451882565861,0.0029999999969732
5,30,0.0914100286579047,0.00300000000061118
6,7,0.000203291005478334,0.00300000000061118
6,8,0.000303492830270868,0.00200000000040745
6,9,0.000167981976816778,0.00300000000061118
6,10,0.000496914874365428,0.00300000000061118
6,11,0.000493283826277668,0.00200000000040745
6,12,8.75869324412637e-06,0.0029999999969732
6,13,5.34031972794224e-05,0.00300000000061118
6,14,8.5723273184235e-05,0.00200000000040745
6,15,4.54887431101669e-05,0.00300000000061118
6,16,0.000507133792891579,0.00300000000061118
6,17,0.000322126423203395,0.00200000000040745
6,18,0.000347850858066656,0.00300000000061118
6,19,0.000258881846340708,0.00599999999758438
6,20,0.000380976436247571,0.00200000000040745
6,21,0.000275090560756586,0.00300000000061118
6,22,0.000271575865650409,0.00300000000061118
6,23,0.000149527808583683,0.00200000000040745
6,24,0.000552761696481441,0.0029999999969732
6,25,9.95227523481468e-06,0.00200000000040745
6,26,2.76793514736307e-05,0.00200000000040745
6,27,0.000495910470032057,0.00300000000061118
6,28,9.0049963796579e-05,0.00200000000040745
6,29,0.000288477606121496,0.00300000000061118
6,30,0.000239462870443519,0.00300000000061118
7,8,0.000100201824792534,0.00199999999676947
7,9,3.53090286615565e-05,0.00300000000061118
7,10,0.000293623868887094,0.00200000000040745
7,11,0.000289992820799334,0.00300000000061118
7,12,0.000194532312234208,0.00300000000061118
7,13,0.000256694202757757,0.00200000000040745
7,14,0.000117567732294099,0.00300000000061118
7,15,0.000157802262368167,0.0029999999969732
7,16,0.000303842787413244,0.00200000000040745
7,17,0.000525417428681729,0.00300000000061118
7,18,0.000144559852588322,0.00300000000061118
7,19,5.5590840862374e-05,0.00200000000040745
7,20,0.000177685430769237,0.00300000000061118
7,21,7.17995552782513e-05,0.00200000000040745
7,22,6.82848601720742e-05,0.0029999999969732
7,23,5.37631968946517e-05,0.00300000000061118
7,24,0.000349470691003106,0.00200000000040745
7,25,0.000213243280713149,0.00300000000061118
7,26,0.000175611654004704,0.00300000000061118
7,27,0.000292619464553723,0.00200000000040745
7,28,0.000113241041681755,0.0029999999969732
7,29,8.51866006431612e-05,0.00300000000061118
7,30,3.61718649651843e-05,0.00200000000040745
8,9,0.000135510853454091,0.00600000000122236
8,10,0.00019342204409456,0.00300000000061118
8,11,0.0001897909960068,0.00200000000040745
8,12,0.000294734137026742,0.0029999999969732
8,13,0.000356896027550291,0.00300000000061118
8,14,0.000217769557086633,0.00200000000040745
8,15,0.000258004087160701,0.00300000000061118
8,16,0.00020364096262071,0.00300000000061118
8,17,0.000625619253474263,0.00200000000040745
8,18,4.43580277957878e-05,0.00300000000061118
8,19,4.46109839301601e-05,0.00199999999676947
8,20,7.74836059767026e-05,0.00300000000061118
8,21,2.84022695142827e-05,0.00300000000061118
8,22,3.19169646204598e-05,0.00200000000040745
8,23,0.000153965021687186,0.00300000000061118
8,24,0.000249268866210572,0.00200000000040745
8,25,0.000313445105505683,0.00300000000061118
8,26,0.000275813478797238,0.0029999999969732
8,27,0.000192417639761189,0.00200000000040745
8,28,0.000213442866474289,0.00300000000061118
8,29,1.50152241493728e-05,0.00300000000061118
8,30,6.40299598273497e-05,0.00200000000040745
9,10,0.000328932897548651,0.00300000000061118
9,11,0.000325301849460891,0.0029999999969732
9,12,0.000159223283572651,0.00200000000040745
9,13,0.0002213851740962,0.00300000000061118
9,14,8.22587036325428e-05,0.00200000000040745
9,15,0.000122493233706611,0.00200000000040745
9,16,0.000339151816074801,0.00300000000061118
9,17,0.000490108400020173,0.00200000000040745
9,18,0.000179868881249878,0.0029999999969732
9,19,9.08998695239305e-05,0.00300000000061118
9,20,0.000212994459430793,0.00200000000040745
9,21,0.000107108583939808,0.00300000000061118
9,22,0.000103593888833631,0.00600000000122236
9,23,1.84541682330952e-05,0.0029999999969732
9,24,0.000384779719664663,0.00200000000040745
9,25,0.000177934252051593,0.00300000000061118
9,26,0.000140302625343147,0.00200000000040745
9,27,0.000327928493215279,0.00300000000061118
9,28,7.79320130201988e-05,0.00300000000061118
9,29,0.000120495629304718,0.00200000000040745
9,30,7.14808936267408e-05,0.0029999999969732
10,11,3.63104808775994e-06,0.00300000000061118
10,12,0.000488156181121302,0.00200000000040745
10,13,0.000550318071644851,0.00300000000061118
10,14,0.000411191601181193,0.00200000000040745
10,15,0.000451426131255261,0.00300000000061118
10,16,1.02189185261503e-05,0.00300000000061118
10,17,0.000819041297568823,0.00199999999676947
10,18,0.000149064016298772,0.00300000000061118
10,19,0.00023803302802472,0.00300000000061118
10,20,0.000115938438117857,0.00200000000040745
10,21,0.000221824313608843,0.00300000000061118
10,22,0.00022533900871502,0.00300000000061118
10,23,0.000347387065781746,0.00200000000040745
10,24,5.58468221160124e-05,0.0029999999969732
10,25,0.000506867149600243,0.00200000000040745
10,26,0.000469235522891798,0.00300000000061118
10,27,1.00440433337123e-06,0.00300000000061118
10,28,0.000406864910568849,0.00200000000040745
10,29,0.000208437268243933,0.00300000000061118
10,30,0.00025745200392191,0.00300000000061118
11,12,0.000484525133033542,0.00199999999676947
11,13,0.000546687023557091,0.00300000000061118
11,14,0.000407560553093433,0.00300000000061118
11,15,0.000447795083167501,0.00200000000040745
11,16,1.38499666139102e-05,0.00300000000061118
11,17,0.000815410249481063,0.00599999999758438
11,18,0.000145432968211012,0.00200000000040745
11,19,0.00023440197993696,0.00200000000040745
11,20,0.000112307390030097,0.00300000000061118
11,21,0.000218193265521083,0.00200000000040745
11,22,0.00022170796062726,0.00300000000061118
11,23,0.000343756017693986,0.00300000000061118
11,24,5.94778702037724e-05,0.00199999999676947
11,25,0.000503236101512483,0.00300000000061118
11,26,0.000465604474804038,0.00200000000040745
11,27,2.6266437543887e-06,0.00300000000061118
11,28,0.000403233862481089,0.00300000000061118
11,29,0.000204806220156173,0.00200000000040745
11,30,0.00025382095583415,0.00300000000061118
12,13,6.21618905235488e-05,0.00199999999676947
12,14,7.69645799401086e-05,0.00200000000040745
12,15,3.67300498660406e-05,0.00300000000061118
12,16,0.000498375099647452,0.00200000000040745
12,17,0.000330885116447521,0.00300000000061118
12,18,0.00033909216482253,0.00300000000061118
12,19,0.000250123153096582,0.00200000000040745
12,20,0.000372217743003445,0.0029999999969732
12,21,0.000266331867512459,0.00300000000061118
12,22,0.000262817172406282,0.00200000000040745
12,23,0.000140769115339556,0.00300000000061118
12,24,0.000544003003237314,0.00200000000040745
12,25,1.8710968478941e-05,0.00300000000061118
12,26,1.89206582295043e-05,0.0029999999969732
12,27,0.000487151776787931,0.00200000000040745
12,28,8.12912705524527e-05,0.00300000000061118
12,29,0.000279718912877369,0.00300000000061118
12,30,0.000230704177199392,0.00200000000040745
13,14,0.000139126470463657,0.00300000000061118
13,15,9.88919403895894e-05,0.00300000000061118
13,16,0.000560536990171001,0.00199999999676947
13,17,0.000268723225923972,0.00600000000122236
13,18,0.000401254055346079,0.00300000000061118
13,19,0.000312285043620131,0.00200000000040745
13,20,0.000434379633526993,0.00200000000040745
13,21,0.000328493758036008,0.00300000000061118
13,22,0.000324979062929831,0.00199999999676947
13,23,0.000202931005863105,0.00300000000061118
13,24,0.000606164893760863,0.00300000000061118
13,25,4.34509220446078e-05,0.00200000000040745
13,26,8.10825487530531e-05,0.00300000000061118
13,27,0.00054931366731148,0.00200000000040745
13,28,0.000143453161076001,0.00300000000061118
13,29,0.000341880803400918,0.0029999999969732
13,30,0.000292866067722941,0.00200000000040745
14,15,4.02345300740681e-05,0.00300000000061118
14,16,0.000421410519707344,0.00200000000040745
14,17,0.00040784969638763,0.00300000000061118
14,18,0.000262127584882421,0.00300000000061118
14,19,0.000173158573156473,0.00199999999676947
14,20,0.000295253163063336,0.00300000000061118
14,21,0.000189367287572351,0.00300000000061118
14,22,0.000185852592466174,0.00200000000040745
14,23,6.38045353994476e-05,0.00300000000061118
14,24,0.000467038423297206,0.00300000000061118
14,25,9.56755484190497e-05,0.00200000000040745
14,26,5.80439217106044e-05,0.0029999999969732
14,27,0.000410187196847822,0.00200000000040745
14,28,4.32669061234403e-06,0.00200000000040745
14,29,0.000202754332937261,0.00300000000061118
14,30,0.000153739597259284,0.00200000000040745
15,16,0.000461645049781412,0.00300000000061118
15,17,0.000367615166313562,0.00300000000061118
15,18,0.000302362114956489,0.00199999999676947
15,19,0.000213393103230541,0.00300000000061118
15,20,0.000335487693137404,0.00600000000122236
15,21,0.000229601817646419,0.00300000000061118
15,22,0.000226087122540242,0.00200000000040745
15,23,0.000104039065473516,0.0029999999969732
15,24,0.000507272953371274,0.00200000000040745
15,25,5.54410183449816e-05,0.00300000000061118
15,26,1.78093916365363e-05,0.00300000000061118
15,27,0.00045042172692189,0.00200000000040745
15,28,4.45612206864121e-05,0.00300000000061118
15,29,0.000242988863011329,0.00200000000040745
15,30,0.000193974127333352,0.00199999999676947
16,17,0.000829260216094974,0.00300000000061118
16,18,0.000159282934824923,0.00200000000040745
16,19,0.00024825194655087,0.00300000000061118
16,20,0.000126157356644008,0.00300000000061118
16,21,0.000232043232134993,0.00200000000040745
16,22,0.00023555792724117,0.00300000000061118
16,23,0.000357605984307896,0.00199999999676947
16,24,4.56279035898621e-05,0.00300000000061118
16,25,0.000517086068126393,0.00300000000061118
16,26,0.000479454441417948,0.00200000000040745
16,27,1.12233228595215e-05,0.00300000000061118
16,28,0.000417083829095,0.00300000000061118
16,29,0.000218656186770083,0.00200000000040745
16,30,0.00026767092244806,0.0029999999969732
17,18,0.000669977281270051,0.00200000000040745
17,19,0.000581008269544103,0.00200000000040745
17,20,0.000703102859450966,0.00300000000061118
17,21,0.000597216983959981,0.00200000000040745
17,22,0.000593702288853803,0.00300000000061118
17,23,0.000471654231787078,0.0029999999969732
17,24,0.000874888119684836,0.00200000000040745
17,25,0.00031217414796858,0.00300000000061118
17,26,0.000349805774677026,0.00300000000061118
17,27,0.000818036893235452,0.00600000000122236
17,28,0.000412176386999974,0.00200000000040745
17,29,0.00061060402932489,0.0029999999969732
17,30,0.000561589293646914,0.00200000000040745
18,19,8.89690117259478e-05,0.00200000000040745
18,20,3.31255781809148e-05,0.00300000000061118
18,21,7.27602973100705e-05,0.00200000000040745
18,22,7.62749924162476e-05,0.00300000000061118
18,23,0.000198323049482974,0.00300000000061118
18,24,0.000204910838414785,0.00199999999676947
18,25,0.000357803133301471,0.00300000000061118
18,26,0.000320171506593026,0.00200000000040745
18,27,0.000148059611965401,0.00300000000061118
18,28,0.000257800894270077,0.00300000000061118
18,29,5.93732519451606e-05,0.00200000000040745
18,30,0.000108387987623138,0.00300000000061118
19,20,0.000122094589906863,0.00199999999676947
19,21,1.62087144158773e-05,0.00200000000040745
19,22,1.26940193097003e-05,0.00300000000061118
19,23,0.000109354037757026,0.00200000000040745
19,24,0.000293879850140732,0.00300000000061118
19,25,0.000268834121575523,0.00300000000061118
19,26,0.000231202494867078,0.00200000000040745
19,27,0.000237028623691349,0.0029999999969732
19,28,0.000168831882544129,0.00300000000061118
19,29,2.95957597807872e-05,0.00200000000040745
19,30,1.94189758971897e-05,0.00300000000061118
20,21,0.000105885875490985,0.00200000000040745
20,22,0.000109400570597162,0.00200000000040745
20,23,0.000231448627663888,0.0029999999969732
20,24,0.00017178526023387,0.00200000000040745
20,25,0.000390928711482386,0.00300000000061118
20,26,0.00035329708477394,0.00300000000061118
20,27,0.000114934033784486,0.00200000000040745
20,28,0.000290926472450992,0.00600000000122236
20,29,9.24988301260754e-05,0.0029999999969732
20,30,0.000141513565804052,0.00300000000061118
21,22,3.51469510617708e-06,0.00200000000040745
21,23,0.000125562752172903,0.00300000000061118
21,24,0.000277671135724855,0.00200000000040745
21,25,0.0002850428359914,0.00200000000040745
21,26,0.000247411209282955,0.0029999999969732
21,27,0.000220819909275471,0.00200000000040745
21,28,0.000185040596960007,0.00300000000061118
21,29,1.33870453649099e-05,0.00300000000061118
21,30,3.5627690313067e-05,0.00200000000040745
22,23,0.000122048057066726,0.00300000000061118
22,24,0.000281185830831032,0.00200000000040745
22,25,0.000281528140885223,0.0029999999969732
22,26,0.000243896514176778,0.00300000000061118
22,27,0.000224334604381649,0.00200000000040745
22,28,0.00018152590185383,0.00300000000061118
22,29,1.69017404710869e-05,0.00200000000040745
22,30,3.21129952068899e-05,0.00200000000040745
23,24,0.000403233887897758,0.00300000000061118
23,25,0.000159480083818497,0.00199999999676947
23,26,0.000121848457110052,0.00300000000061118
23,27,0.000346382661448374,0.00300000000061118
23,28,5.94778447871036e-05,0.00200000000040745
23,29,0.000138949797537813,0.00300000000061118
23,30,8.9935061859836e-05,0.00300000000061118
24,25,0.000562713971716255,0.00200000000040745
24,26,0.00052508234500781,0.0029999999969732
24,27,5.68512264493837e-05,0.00200000000040745
24,28,0.000462711732684862,0.00200000000040745
24,29,0.000264284090359945,0.00300000000061118
24,30,0.000313298826037922,0.00200000000040745
25,26,3.76316267084453e-05,0.00600000000122236
25,27,0.000505862745266872,0.0029999999969732
25,28,0.000100002239031394,0.00300000000061118
25,29,0.00029842988135631,0.00200000000040745
25,30,0.000249415145678333,0.00300000000061118
26,27,0.000468231118558426,0.00300000000061118
26,28,6.23706123229484e-05,0.00200000000040745
26,29,0.000260798254647865,0.0029999999969732
26,30,0.000211783518969888,0.00200000000040745
27,28,0.000405860506235478,0.00300000000061118
27,29,0.000207432863910562,0.00300000000061118
27,30,0.000256447599588538,0.00200000000040745
28,29,0.000198427642324916,0.00300000000061118
28,30,0.00014941290664694,0.00200000000040745
29,30,4.90147356779769e-05,0.0029999999969732


"After.Trace.ID","Before.Trace.ID","Difference","Runtime"
1,1,0.00465724177394389,0.00300000000061118
1,2,0.00540297799209288,0.0029999999969732
1,3,0.00481472175281228,0.00300000000061118
1,4,0.00516062070623513,0.00200000000040745
1,5,0.0957733416805036,0.00400000000081491
1,6,0.00530717604139697,0.00200000000040745
1,7,0.00510388503591863,0.00300000000061118
1,8,0.0050036832111261,0.0029999999969732
1,9,0.00513919406458019,0.00200000000040745
1,10,0.00481026116703154,0.00600000000122236
1,11,0.0048138922151193,0.00300000000061118
1,12,0.00529841734815284,0.00200000000040745
1,13,0.00536057923867639,0.00199999999676947
1,14,0.00522145276821273,0.00300000000061118
1,15,0.0052616872982868,0.00200000000040745
1,16,0.00480004224850539,0.00300000000061118
1,17,0.00562930246460036,0.00200000000040745
1,18,0.00495932518333031,0.00200000000040745
1,19,0.00504829419505626,0.00300000000061118
1,20,0.0049261996051494,0.00199999999676947
1,21,0.00503208548064038,0.00300000000061118
1,22,0.00503560017574656,0.00300000000061118
1,23,0.00515764823281328,0.00200000000040745
1,24,0.00475441434491553,0.00300000000061118
1,25,0.00531712831663178,0.00200000000040745
1,26,0.00527949668992334,0.00300000000061118
1,27,0.00481126557136491,0.0029999999969732
1,28,0.00521712607760039,0.00200000000040745
1,29,0.00501869843527547,0.00300000000061118
1,30,0.00506771317095345,0.00300000000061118
2,1,0.00338143531706103,0.00200000000040745
2,2,0.00412717153521003,0.00300000000061118
2,3,0.00353891529592942,0.00200000000040745
2,4,0.00388481424935228,0.00199999999676947
2,5,0.0946682601299033,0.00300000000061118
2,6,0.00403136958451411,0.00300000000061118
2,7,0.00382807857903578,0.00200000000040745
2,8,0.00372787675424324,0.00200000000040745
2,9,0.00386338760769733,0.00300000000061118
2,10,0.00353445471014868,0.00200000000040745
2,11,0.00353808575823644,0.0029999999969732
2,12,0.00402261089126998,0.00300000000061118
2,13,0.00408477278179353,0.00200000000040745
2,14,0.00394564631132988,0.00600000000122236
2,15,0.00398588084140394,0.00300000000061118
2,16,0.00352423579162253,0.0029999999969732
2,17,0.00435349600771751,0.00200000000040745
2,18,0.00368351872644745,0.00300000000061118
2,19,0.0037724877381734,0.00200000000040745
2,20,0.00365039314826654,0.00200000000040745
2,21,0.00375627902375752,0.00300000000061118
2,22,0.0037597937188637,0.00200000000040745
2,23,0.00388184177593043,0.0029999999969732
2,24,0.00347860788803267,0.00300000000061118
2,25,0.00404132185974893,0.00200000000040745
2,26,0.00400369023304048,0.00300000000061118
2,27,0.00353545911448205,0.00200000000040745
2,28,0.00394131962071753,0.00300000000061118
2,29,0.00374289197839262,0.0029999999969732
2,30,0.00379190671407059,0.00200000000040745
3,1,0.00574221886566817,0.00300000000061118
3,2,0.00648795508381717,0.00300000000061118
3,3,0.00589969884453656,0.00200000000040745
3,4,0.00624559779795941,0.00300000000061118
3,5,0.0967164370189758,0.00300000000061118
3,6,0.00639215313312125,0.0029999999969732
3,7,0.00618886212764291,0.00200000000040745
3,8,0.00608866030285038,0.00300000000061118
3,9,0.00622417115630447,0.00300000000061118
3,10,0.00589523825875582,0.00200000000040745
3,11,0.00589886930684358,0.00300000000061118
3,12,0.00638339443987712,0.00200000000040745
3,13,0.00644555633040067,0.0029999999969732
3,14,0.00630642985993701,0.00300000000061118
3,15,0.00634666439001108,0.00200000000040745
3,16,0.00588501934022967,0.00300000000061118
3,17,0.00671427955632464,0.00300000000061118
3,18,0.00604430227505459,0.00599999999758438
3,19,0.00613327128678054,0.00200000000040745
3,20,0.00601117669687368,0.00300000000061118
3,21,0.00611706257236466,0.00300000000061118
3,22,0.00612057726747084,0.00200000000040745
3,23,0.00624262532453757,0.00300000000061118
3,24,0.00583939143663981,0.00300000000061118
3,25,0.00640210540835606,0.00199999999676947
3,26,0.00636447378164762,0.00300000000061118
3,27,0.00589624266308919,0.00200000000040745
3,28,0.00630210316932467,0.00300000000061118
3,29,0.00610367552699975,0.00300000000061118
3,30,0.00615269026267773,0.00200000000040745
4,1,0.00367467209898265,0.00300000000061118
4,2,0.00442040831713164,0.00199999999676947
4,3,0.00383215207785104,0.00200000000040745
4,4,0.00417805103127389,0.00300000000061118
4,5,0.0949218777631085,0.00300000000061118
4,6,0.00432460636643572,0.00200000000040745
4,7,0.00412131536095739,0.00300000000061118
4,8,0.00402111353616486,0.0029999999969732
4,9,0.00415662438961895,0.00200000000040745
4,10,0.0038276914920703,0.00300000000061118
4,11,0.00383132254015806,0.00300000000061118
4,12,0.0043158476731916,0.00200000000040745
4,13,0.00437800956371515,0.00300000000061118
4,14,0.00423888309325149,0.00300000000061118
4,15,0.00427911762332556,0.00199999999676947
4,16,0.00381747257354415,0.00300000000061118
4,17,0.00464673278963912,0.00200000000040745
4,18,0.00397675550836907,0.00200000000040745
4,19,0.00406572452009502,0.00300000000061118
4,20,0.00394362993018815,0.00200000000040745
4,21,0.00404951580567914,0.00599999999758438
4,22,0.00405303050078532,0.00300000000061118
4,23,0.00417507855785204,0.00300000000061118
4,24,0.00377184466995428,0.00200000000040745
4,25,0.00433455864167054,0.00300000000061118
4,26,0.00429692701496209,0.00300000000061118
4,27,0.00382869589640367,0.00200000000040745
4,28,0.00423455640263914,0.0029999999969732
4,29,0.00403612876031423,0.00200000000040745
4,30,0.00408514349599221,0.00200000000040745
5,1,0.00549180299640839,0.00300000000061118
5,2,0.00623753921455739,0.00200000000040745
5,3,0.00564928297527678,0.00300000000061118
5,4,0.00599518192869963,0.0029999999969732
5,5,0.0964985031810063,0.00300000000061118
5,6,0.00614173726386147,0.00200000000040745
5,7,0.00593844625838313,0.00300000000061118
5,8,0.0058382444335906,0.00300000000061118
5,9,0.00597375528704469,0.00200000000040745
5,10,0.00564482238949604,0.00300000000061118
5,11,0.0056484534375838,0.00199999999676947
5,12,0.00613297857061734,0.00200000000040745
5,13,0.00619514046114089,0.00300000000061118
5,14,0.00605601399067723,0.00200000000040745
5,15,0.0060962485207513,0.00300000000061118
5,16,0.00563460347096989,0.00300000000061118
5,17,0.00646386368706486,0.00200000000040745
5,18,0.00579388640579481,0.0029999999969732
5,19,0.00588285541752076,0.00300000000061118
5,20,0.0057607608276139,0.00200000000040745
5,21,0.00586664670310488,0.00300000000061118
5,22,0.00587016139821106,0.00300000000061118
5,23,0.00599220945527779,0.00200000000040745
5,24,0.00558897556738003,0.0029999999969732
5,25,0.00615168953909628,0.00600000000122236
5,26,0.00611405791238784,0.00300000000061118
5,27,0.00564582679382941,0.00200000000040745
5,28,0.00605168730006489,0.00300000000061118
5,29,0.00585325965773997,0.00300000000061118
5,30,0.00590227439341795,0.00199999999676947
6,1,0.00540572335360301,0.00300000000061118
6,2,0.006151459571752,0.00200000000040745
6,3,0.0055632033324714,0.00300000000061118
6,4,0.00590910228589425,0.00300000000061118
6,5,0.0964236255692293,0.00300000000061118
6,6,0.00605565762105609,0.00200000000040745
6,7,0.00585236661557775,0.0029999999969732
6,8,0.00575216479078522,0.00300000000061118
6,9,0.00588767564423931,0.00200000000040745
6,10,0.00555874274669066,0.00300000000061118
6,11,0.00556237379477842,0.00200000000040745
6,12,0.00604689892781196,0.00300000000061118
6,13,0.00610906081833551,0.0029999999969732
6,14,0.00596993434787185,0.00200000000040745
6,15,0.00601016887794592,0.00300000000061118
6,16,0.00554852382816451,0.00300000000061118
6,17,0.00637778404425948,0.00200000000040745
6,18,0.00570780676298943,0.00300000000061118
6,19,0.00579677577471538,0.00200000000040745
6,20,0.00567468118480852,0.00199999999676947
6,21,0.0057805670602995,0.00300000000061118
6,22,0.00578408175540568,0.00200000000040745
6,23,0.0059061298124724,0.00300000000061118
6,24,0.00550289592457465,0.00300000000061118
6,25,0.0060656098962909,0.00200000000040745
6,26,0.00602797826958246,0.00300000000061118
6,27,0.00555974715102403,0.0029999999969732
6,28,0.00596560765725951,0.00600000000122236
6,29,0.00576718001493459,0.00200000000040745
6,30,0.00581619475061257,0.00300000000061118
7,1,0.00389528688147889,0.00300000000061118
7,2,0.00464102309962788,0.00200000000040745
7,3,0.00405276686034728,0.0029999999969732
7,4,0.00439866581377013,0.00200000000040745
7,5,0.0951128354934535,0.00300000000061118
7,6,0.00454522114893197,0.00200000000040745
7,7,0.00434193014345363,0.00300000000061118
7,8,0.0042417283186611,0.00200000000040745
7,9,0.00437723917211519,0.0029999999969732
7,10,0.00404830627456654,0.00300000000061118
7,11,0.0040519373226543,0.00200000000040745
7,12,0.00453646245568784,0.00300000000061118
7,13,0.00459862434621139,0.00200000000040745
7,14,0.00445949787574773,0.00300000000061118
7,15,0.0044997324058218,0.00300000000061118
7,16,0.00403808735604039,0.00199999999676947
7,17,0.00486734757213536,0.00300000000061118
7,18,0.00419737029086531,0.00300000000061118
7,19,0.00428633930259126,0.00200000000040745
7,20,0.0041642447126844,0.00300000000061118
7,21,0.00427013058817538,0.00300000000061118
7,22,0.00427364528328156,0.00200000000040745
7,23,0.00439569334034828,0.0029999999969732
7,24,0.00399245945245053,0.00200000000040745
7,25,0.00455517342416678,0.00200000000040745
7,26,0.00451754179745834,0.00300000000061118
7,27,0.00404931067889991,0.00200000000040745
7,28,0.00445517118513539,0.00300000000061118
7,29,0.00425674354281047,0.0029999999969732
7,30,0.00430575827848845,0.00200000000040745
8,1,0.00533532386631319,0.00600000000122236
8,2,0.00608106008446219,0.00300000000061118
8,3,0.00549280384518158,0.00300000000061118
8,4,0.00583870279860443,0.00200000000040745
8,5,0.0963624014745625,0.0029999999969732
8,6,0.00598525813376627,0.00300000000061118
8,7,0.00578196712828793,0.00300000000061118
8,8,0.0056817653034954,0.00200000000040745
8,9,0.00581727615694949,0.00300000000061118
8,10,0.00548834325940084,0.00200000000040745
8,11,0.0054919743074886,0.00300000000061118
8,12,0.00597649944052214,0.0029999999969732
8,13,0.00603866133104569,0.00200000000040745
8,14,0.00589953486058203,0.00300000000061118
8,15,0.0059397693906561,0.00200000000040745
8,16,0.00547812434087469,0.00200000000040745
8,17,0.00630738455696966,0.00300000000061118
8,18,0.00563740727569961,0.00200000000040745
8,19,0.00572637628742556,0.0029999999969732
8,20,0.0056042816975187,0.00300000000061118
8,21,0.00571016757300968,0.00200000000040745
8,22,0.00571368226811586,0.00300000000061118
8,23,0.00583573032518259,0.00300000000061118
8,24,0.00543249643728483,0.00200000000040745
8,25,0.00599521040900108,0.0029999999969732
8,26,0.00595757878229264,0.00200000000040745
8,27,0.00548934766373421,0.00200000000040745
8,28,0.00589520816996969,0.00300000000061118
8,29,0.00569678052764477,0.00200000000040745
8,30,0.00574579526332275,0.00300000000061118
9,1,0.00652226979380766,0.00300000000061118
9,2,0.00726800601195665,0.00199999999676947
9,3,0.00667974977267605,0.00300000000061118
9,4,0.0070256487260989,0.00600000000122236
9,5,0.097396306804487,0.00300000000061118
9,6,0.00717220406126073,0.00300000000061118
9,7,0.0069689130557824,0.00199999999676947
9,8,0.00686871123098987,0.00300000000061118
9,9,0.00700422208444396,0.00300000000061118
9,10,0.00667528918689531,0.00200000000040745
9,11,0.00667892023498307,0.00300000000061118
9,12,0.00716344536801661,0.00200000000040745
9,13,0.00722560725854016,0.00200000000040745
9,14,0.0070864807880765,0.0029999999969732
9,15,0.00712671531815057,0.00200000000040745
9,16,0.00666507026836916,0.00300000000061118
9,17,0.00749433048446413,0.00300000000061118
9,18,0.00682435320319408,0.00200000000040745
9,19,0.00691332221492003,0.00300000000061118
9,20,0.00679122762501316,0.00200000000040745
9,21,0.00689711350050415,0.0029999999969732
9,22,0.00690062819561033,0.00300000000061118
9,23,0.00702267625267705,0.00200000000040745
9,24,0.00661944236477929,0.00300000000061118
9,25,0.00718215633649555,0.00300000000061118
9,26,0.0071445247097871,0.00200000000040745
9,27,0.00667629359122868,0.00300000000061118
9,28,0.00708215409746416,0.0029999999969732
9,29,0.00688372645513924,0.00200000000040745
9,30,0.00693274119081722,0.00300000000061118
10,1,0.00467809823287668,0.00200000000040745
10,2,0.00542383445102568,0.00300000000061118
10,3,0.00483557821174507,0.00300000000061118
10,4,0.00518147716516792,0.00200000000040745
10,5,0.0957914424370192,0.0029999999969732
10,6,0.00532803250032976,0.00500000000101863
10,7,0.00512474149485143,0.00300000000061118
10,8,0.00502453967005889,0.00300000000061118
10,9,0.00516005052351298,0.00200000000040745
10,10,0.00483111762596433,0.0029999999969732
10,11,0.00483474867405209,0.00300000000061118
10,12,0.00531927380708563,0.00200000000040745
10,13,0.00538143569760918,0.00300000000061118
10,14,0.00524230922714553,0.00300000000061118
10,15,0.00528254375721959,0.00200000000040745
10,16,0.00482089870743818,0.0029999999969732
10,17,0.00565015892353316,0.00200000000040745
10,18,0.0049801816422631,0.00300000000061118
10,19,0.00506915065398905,0.00300000000061118
10,20,0.00494705606408219,0.00200000000040745
10,21,0.00505294193957317,0.00300000000061118
10,22,0.00505645663467935,0.00200000000040745
10,23,0.00517850469174608,0.0029999999969732
10,24,0.00477527080384832,0.00300000000061118
10,25,0.00533798477556457,0.00200000000040745
10,26,0.00530035314885613,0.00300000000061118
10,27,0.0048321220302977,0.00300000000061118
10,28,0.00523798253653318,0.00200000000040745
10,29,0.00503955489420826,0.00300000000061118
10,30,0.00508856962988624,0.0029999999969732
11,1,0.00575352513134519,0.00200000000040745
11,2,0.00649926134949419,0.00300000000061118
11,3,0.00591100511021359,0.00200000000040745
11,4,0.00625690406363644,0.00200000000040745
11,5,0.0967262804332064,0.00300000000061118
11,6,0.00640345939879827,0.00300000000061118
11,7,0.00620016839331994,0.00199999999676947
11,8,0.0060999665685274,0.00200000000040745
11,9,0.00623547742198149,0.00600000000122236
11,10,0.00590654452443284,0.00300000000061118
11,11,0.0059101755725206,0.00200000000040745
11,12,0.00639470070555415,0.0029999999969732
11,13,0.00645686259607769,0.00300000000061118
11,14,0.00631773612561404,0.00200000000040745
11,15,0.00635797065568811,0.00300000000061118
11,16,0.00589632560590669,0.00300000000061118
11,17,0.00672558582200167,0.00200000000040745
11,18,0.00605560854073162,0.00300000000061118
11,19,0.00614457755245756,0.00199999999676947
11,20,0.0060224829625507,0.00300000000061118
11,21,0.00612836883804169,0.00300000000061118
11,22,0.00613188353314786,0.00200000000040745
11,23,0.00625393159021459,0.00300000000061118
11,24,0.00585069770231683,0.00200000000040745
11,25,0.00641341167403309,0.00200000000040745
11,26,0.00637578004732464,0.0029999999969732
11,27,0.00590754892876622,0.00200000000040745
11,28,0.00631340943500169,0.00300000000061118
11,29,0.00611498179267678,0.00300000000061118
11,30,0.00616399652835475,0.00200000000040745
12,1,0.00509846970208139,0.00300000000061118
12,2,0.00584420592023038,0.0029999999969732
12,3,0.00525594968094978,0.00200000000040745
12,4,0.00560184863437263,0.00300000000061118
12,5,0.0961565094911007,0.00300000000061118
12,6,0.00574840396953447,0.00300000000061118
12,7,0.00554511296405613,0.00200000000040745
12,8,0.0054449111392636,0.00300000000061118
12,9,0.00558042199271769,0.0029999999969732
12,10,0.00525148909516904,0.00200000000040745
12,11,0.0052551201432568,0.00600000000122236
12,12,0.00573964527629034,0.00300000000061118
12,13,0.00580180716681389,0.00200000000040745
12,14,0.00566268069635023,0.00200000000040745
12,15,0.0057029152264243,0.0029999999969732
12,16,0.00524127017664289,0.00200000000040745
12,17,0.00607053039273786,0.00300000000061118
12,18,0.00540055311146781,0.00300000000061118
12,19,0.00548952212319376,0.00200000000040745
12,20,0.00536742753328689,0.00300000000061118
12,21,0.00547331340877788,0.00200000000040745
12,22,0.00547682810388406,0.00200000000040745
12,23,0.00559887616095078,0.00300000000061118
12,24,0.00519564227305302,0.00200000000040745
12,25,0.00575835624476928,0.00300000000061118
12,26,0.00572072461806084,0.00300000000061118
12,27,0.00525249349950241,0.00200000000040745
12,28,0.00565835400573789,0.0029999999969732
12,29,0.00545992636341297,0.00200000000040745
12,30,0.00550894109909095,0.00300000000061118
13,1,0.00487351057068652,0.00300000000061118
13,2,0.00561924678883552,0.00200000000040745
13,3,0.00503099054955491,0.00300000000061118
13,4,0.00537688950297777,0.00300000000061118
13,5,0.095961089863902,0.0029999999969732
13,6,0.0055234448381396,0.00200000000040745
13,7,0.00532015383266127,0.00300000000061118
13,8,0.00521995200786873,0.00300000000061118
13,9,0.00535546286132282,0.00200000000040745
13,10,0.00502652996377417,0.00300000000061118
13,11,0.00503016101186193,0.0029999999969732
13,12,0.00551468614489548,0.00200000000040745
13,13,0.00557684803541902,0.00300000000061118
13,14,0.00543772156495537,0.00600000000122236
13,15,0.00547795609502943,0.00300000000061118
13,16,0.00501631104524802,0.00200000000040745
13,17,0.005845571261343,0.0029999999969732
13,18,0.00517559398007295,0.00200000000040745
13,19,0.00526456299179889,0.00300000000061118
13,20,0.00514246840189203,0.00300000000061118
13,21,0.00524835427738302,0.00200000000040745
13,22,0.00525186897248919,0.00300000000061118
13,23,0.00537391702955592,0.00200000000040745
13,24,0.00497068314165816,0.00199999999676947
13,25,0.00553339711337442,0.00300000000061118
13,26,0.00549576548666597,0.00200000000040745
13,27,0.00502753436810754,0.00300000000061118
13,28,0.00543339487434302,0.00300000000061118
13,29,0.00523496723201811,0.00200000000040745
13,30,0.00528398196769608,0.00300000000061118
14,1,0.00504310563647792,0.00199999999676947
14,2,0.00578884185462691,0.00300000000061118
14,3,0.00520058561534631,0.00300000000061118
14,4,0.00554648456876916,0.00200000000040745
14,5,0.0961084033243073,0.00300000000061118
14,6,0.005693039903931,0.00200000000040745
14,7,0.00548974889845266,0.0029999999969732
14,8,0.00538954707366013,0.00200000000040745
14,9,0.00552505792711422,0.00300000000061118
14,10,0.00519612502956557,0.00300000000061118
14,11,0.00519975607765333,0.00200000000040745
14,12,0.00568428121068687,0.00300000000061118
14,13,0.00574644310121042,0.00300000000061118
14,14,0.00560731663074676,0.00199999999676947
14,15,0.00564755116082083,0.00300000000061118
14,16,0.00518590611103942,0.00600000000122236
14,17,0.00601516632713439,0.00300000000061118
14,18,0.00534518904586434,0.00200000000040745
14,19,0.00543415805759029,0.00300000000061118
14,20,0.00531206346768343,0.00199999999676947
14,21,0.00541794934317441,0.00300000000061118
14,22,0.00542146403828059,0.00300000000061118
14,23,0.00554351209534731,0.00200000000040745
14,24,0.00514027820744956,0.00300000000061118
14,25,0.00570299217916581,0.00300000000061118
14,26,0.00566536055245737,0.00199999999676947
14,27,0.00519712943389894,0.00300000000061118
14,28,0.00560298994013442,0.00200000000040745
14,29,0.0054045622978095,0.00300000000061118
14,30,0.00545357703348748,0.00300000000061118
15,1,0.00659029488176677,0.00200000000040745
15,2,0.00733603109991576,0.00300000000061118
15,3,0.00674777486063516,0.00199999999676947
15,4,0.00709367381405801,0.00200000000040745
15,5,0.0974556666436712,0.00300000000061118
15,6,0.00724022914921985,0.00300000000061118
15,7,0.00703693814374151,0.00200000000040745
15,8,0.00693673631894898,0.00200000000040745
15,9,0.00707224717240307,0.00300000000061118
15,10,0.00674331427485442,0.00199999999676947
15,11,0.00674694532294218,0.00300000000061118
15,12,0.00723147045597572,0.00300000000061118
15,13,0.00729363234649927,0.00200000000040745
15,14,0.00715450587603561,0.00300000000061118
15,15,0.00719474040610968,0.00300000000061118
15,16,0.00673309535632827,0.00200000000040745
15,17,0.00756235557242324,0.0029999999969732
15,18,0.00689237829115319,0.00600000000122236
15,19,0.00698134730287914,0.00300000000061118
15,20,0.00685925271297227,0.00200000000040745
15,21,0.00696513858846326,0.00300000000061118
15,22,0.00696865328356944,0.00199999999676947
15,23,0.00709070134063616,0.00200000000040745
15,24,0.0066874674527384,0.00300000000061118
15,25,0.00725018142445466,0.00200000000040745
15,26,0.00721254979774621,0.00300000000061118
15,27,0.00674431867918779,0.00300000000061118
15,28,0.00715017918542327,0.00200000000040745
15,29,0.00695175154309835,0.0029999999969732
15,30,0.00700076627877633,0.00200000000040745
16,1,0.00528116223732999,0.00300000000061118
16,2,0.00602689845547899,0.00300000000061118
16,3,0.00543864221619839,0.00200000000040745
16,4,0.00578454116962124,0.00300000000061118
16,5,0.0963153074399759,0.00300000000061118
16,6,0.00593109650478307,0.0029999999969732
16,7,0.00572780549930474,0.00200000000040745
16,8,0.0056276036745122,0.00300000000061118
16,9,0.0057631145279663,0.00300000000061118
16,10,0.00543418163041764,0.00200000000040745
16,11,0.0054378126785054,0.00300000000061118
16,12,0.00592233781153895,0.0029999999969732
16,13,0.0059844997020625,0.00200000000040745
16,14,0.00584537323159884,0.00300000000061118
16,15,0.00588560776167291,0.00300000000061118
16,16,0.00542396271189149,0.00200000000040745
16,17,0.00625322292798647,0.00300000000061118
16,18,0.00558324564671642,0.00200000000040745
16,19,0.00567221465844236,0.00199999999676947
16,20,0.0055501200685355,0.00600000000122236
16,21,0.00565600594402649,0.00300000000061118
16,22,0.00565952063913266,0.00200000000040745
16,23,0.00578156869619939,0.00200000000040745
16,24,0.00537833480830163,0.0029999999969732
16,25,0.00594104878001789,0.00200000000040745
16,26,0.00590341715330944,0.00300000000061118
16,27,0.00543518603475102,0.00300000000061118
16,28,0.00584104654098649,0.00200000000040745
16,29,0.00564261889866158,0.00300000000061118
16,30,0.00569163363433955,0.00200000000040745
17,1,0.00508426923811478,0.00199999999676947
17,2,0.00583000545626378,0.00300000000061118
17,3,0.00524174921698317,0.00200000000040745
17,4,0.00558764817040602,0.00300000000061118
17,5,0.0961441698784796,0.00300000000061118
17,6,0.00573420350556786,0.00300000000061118
17,7,0.00553091250008952,0.00200000000040745
17,8,0.00543071067529699,0.0029999999969732
17,9,0.00556622152875108,0.00300000000061118
17,10,0.00523728863120243,0.00200000000040745
17,11,0.00524091967929019,0.00300000000061118
17,12,0.00572544481232373,0.00200000000040745
17,13,0.00578760670284728,0.00200000000040745
17,14,0.00564848023238362,0.00300000000061118
17,15,0.00568871476245769,0.00199999999676947
17,16,0.00522706971267628,0.00300000000061118
17,17,0.00605632992877125,0.00300000000061118
17,18,0.0053863526475012,0.00200000000040745
17,19,0.00547532165922715,0.00300000000061118
17,20,0.00535322706932029,0.00300000000061118
17,21,0.00545911294481127,0.00499999999738066
17,22,0.00546262763991745,0.00200000000040745
17,23,0.00558467569698418,0.00300000000061118
17,24,0.00518144180908642,0.00300000000061118
17,25,0.00574415578080267,0.00200000000040745
17,26,0.00570652415409423,0.00300000000061118
17,27,0.0052382930355358,0.00199999999676947
17,28,0.00564415354177128,0.00300000000061118
17,29,0.00544572589944636,0.00300000000061118
17,30,0.00549474063512434,0.00200000000040745
18,1,0.00477627171749873,0.00300000000061118
18,2,0.00552200793564772,0.00200000000040745
18,3,0.00493375169636712,0.00200000000040745
18,4,0.00527965064978997,0.0029999999969732
18,5,0.0958766595885714,0.00300000000061118
18,6,0.0054262059849518,0.00200000000040745
18,7,0.00522291497947347,0.00300000000061118
18,8,0.00512271315468094,0.00300000000061118
18,9,0.00525822400813503,0.00200000000040745
18,10,0.00492929111058638,0.0029999999969732
18,11,0.00493292215867414,0.00300000000061118
18,12,0.00541744729170768,0.00200000000040745
18,13,0.00547960918223123,0.00300000000061118
18,14,0.00534048271176757,0.00200000000040745
18,15,0.00538071724184164,0.00200000000040745
18,16,0.00491907219206023,0.00300000000061118
18,17,0.0057483324081552,0.00199999999676947
18,18,0.00507835512688515,0.00300000000061118
18,19,0.0051673241386111,0.00300000000061118
18,20,0.00504522954870423,0.00200000000040745
18,21,0.00515111542419522,0.00300000000061118
18,22,0.0051546301193014,0.00300000000061118
18,23,0.00527667817636812,0.00599999999758438
18,24,0.00487344428847036,0.00200000000040745
18,25,0.00543615826018662,0.00300000000061118
18,26,0.00539852663347817,0.00300000000061118
18,27,0.00493029551491975,0.00200000000040745
18,28,0.00533615602115523,0.00300000000061118
18,29,0.00513772837883031,0.00200000000040745
18,30,0.00518674311450829,0.00200000000040745
19,1,0.00398458494452603,0.00300000000061118
19,2,0.00473032116267502,0.00200000000040745
19,3,0.00414206492339442,0.00300000000061118
19,4,0.00448796387681727,0.00300000000061118
19,5,0.0951901657516713,0.00300000000061118
19,6,0.0046345192119791,0.00199999999676947
19,7,0.00443122820650077,0.00300000000061118
19,8,0.00433102638170824,0.00200000000040745
19,9,0.00446653723516233,0.00200000000040745
19,10,0.00413760433761368,0.00300000000061118
19,11,0.00414123538570144,0.00200000000040745
19,12,0.00462576051873498,0.00300000000061118
19,13,0.00468792240925853,0.0029999999969732
19,14,0.00454879593879487,0.00200000000040745
19,15,0.00458903046886894,0.00300000000061118
19,16,0.00412738541908753,0.00300000000061118
19,17,0.0049566456351825,0.00200000000040745
19,18,0.00428666835391245,0.00300000000061118
19,19,0.0043756373656384,0.00200000000040745
19,20,0.00425354277573153,0.00200000000040745
19,21,0.00435942865122252,0.00300000000061118
19,22,0.0043629433463287,0.00200000000040745
19,23,0.00448499140339542,0.00300000000061118
19,24,0.00408175751549766,0.00600000000122236
19,25,0.00464447148721392,0.0029999999969732
19,26,0.00460683986050547,0.00200000000040745
19,27,0.00413860874194705,0.00300000000061118
19,28,0.00454446924818253,0.00300000000061118
19,29,0.00434604160585761,0.00200000000040745
19,30,0.00439505634153559,0.00300000000061118
20,1,0.00407579270742264,0.00200000000040745
20,2,0.00482152892557164,0.00199999999676947
20,3,0.00423327268629103,0.00300000000061118
20,4,0.00457917163971389,0.00200000000040745
20,5,0.0952691713783546,0.00300000000061118
20,6,0.00472572697487572,0.00300000000061118
20,7,0.00452243596939739,0.00300000000061118
20,8,0.00442223414460485,0.00200000000040745
20,9,0.00455774499805894,0.0029999999969732
20,10,0.00422881210051029,0.00200000000040745
20,11,0.00423244314859805,0.00200000000040745
20,12,0.00471696828163159,0.00300000000061118
20,13,0.00477913017215514,0.00200000000040745
20,14,0.00464000370169149,0.00300000000061118
20,15,0.00468023823176555,0.0029999999969732
20,16,0.00421859318198414,0.00200000000040745
20,17,0.00504785339807912,0.00300000000061118
20,18,0.00437787611680907,0.00300000000061118
20,19,0.00446684512853501,0.00200000000040745
20,20,0.00434475053862815,0.00300000000061118
20,21,0.00445063641411914,0.00200000000040745
20,22,0.00445415110922531,0.00199999999676947
20,23,0.00457619916629204,0.00300000000061118
20,24,0.00417296527839428,0.00200000000040745
20,25,0.00473567925011054,0.00300000000061118
20,26,0.00469804762340209,0.00899999999819556
20,27,0.00422981650484366,0.00300000000061118
20,28,0.00463567701107914,0.00200000000040745
20,29,0.00443724936875423,0.00300000000061118
20,30,0.0044862641044322,0.00300000000061118
21,1,0.00296897098865601,0.00200000000040745
21,2,0.003714707206805,0.00300000000061118
21,3,0.0031264509675244,0.0029999999969732
21,4,0.00347234992094725,0.00200000000040745
21,5,0.0943119125769984,0.00300000000061118
21,6,0.00361890525610908,0.00300000000061118
21,7,0.00341561425063075,0.00300000000061118
21,8,0.00331541242583822,0.00200000000040745
21,9,0.00345092327929231,0.00300000000061118
21,10,0.00312199038174366,0.00199999999676947
21,11,0.00312562142983142,0.00300000000061118
21,12,0.00361014656286496,0.00300000000061118
21,13,0.00367230845338851,0.00200000000040745
21,14,0.00353318198292485,0.00300000000061118
21,15,0.00357341651299892,0.00300000000061118
21,16,0.00311177146321751,0.00200000000040745
21,17,0.00394103167931248,0.0029999999969732
21,18,0.00327105439804243,0.00300000000061118
21,19,0.00336002340976838,0.00200000000040745
21,20,0.00323792881986151,0.00300000000061118
21,21,0.0033438146953525,0.00300000000061118
21,22,0.00334732939045868,0.00200000000040745
21,23,0.0034693774475254,0.0029999999969732
21,24,0.00306614355962764,0.00200000000040745
21,25,0.0036288575313439,0.00200000000040745
21,26,0.00359122590463545,0.00300000000061118
21,27,0.00312299478607703,0.00200000000040745
21,28,0.0035288552923125,0.00300000000061118
21,29,0.00333042764998759,0.00599999999758438
21,30,0.00337944238566557,0.00300000000061118
22,1,0.00586059651268855,0.00200000000040745
22,2,0.00660633273083755,0.00300000000061118
22,3,0.00601807649155695,0.00300000000061118
22,4,0.0063639754449798,0.00200000000040745
22,5,0.0968195143183114,0.00300000000061118
22,6,0.00651053078014163,0.0029999999969732
22,7,0.0063072397746633,0.00300000000061118
22,8,0.00620703794987076,0.00200000000040745
22,9,0.00634254880332485,0.00300000000061118
22,10,0.0060136159057762,0.00200000000040745
22,11,0.00601724695386396,0.00300000000061118
22,12,0.00650177208689751,0.0029999999969732
22,13,0.00656393397742105,0.00200000000040745
22,14,0.0064248075069574,0.00300000000061118
22,15,0.00646504203703147,0.00200000000040745
22,16,0.00600339698725005,0.00200000000040745
22,17,0.00683265720334503,0.00300000000061118
22,18,0.00616267992207498,0.00200000000040745
22,19,0.00625164893380092,0.0029999999969732
22,20,0.00612955434389406,0.00300000000061118
22,21,0.00623544021938505,0.00200000000040745
22,22,0.00623895491449122,0.00300000000061118
22,23,0.00636100297155795,0.00300000000061118
22,24,0.00595776908366019,0.00200000000040745
22,25,0.00652048305537645,0.00300000000061118
22,26,0.006482851428668,0.0029999999969732
22,27,0.00601462031010958,0.00200000000040745
22,28,0.00642048081634505,0.00300000000061118
22,29,0.00622205317402014,0.00200000000040745
22,30,0.00627106790969811,0.00200000000040745
23,1,0.00464088487465886,0.00300000000061118
23,2,0.00538662109280785,0.00200000000040745
23,3,0.00479836485352725,0.00599999999758438
23,4,0.0051442638069501,0.00300000000061118
23,5,0.0957591467544717,0.00300000000061118
23,6,0.00529081914211194,0.00300000000061118
23,7,0.0050875281366336,0.00200000000040745
23,8,0.00498732631184107,0.00199999999676947
23,9,0.00512283716529516,0.00300000000061118
23,10,0.00479390426774651,0.00200000000040745
23,11,0.00479753531583427,0.00300000000061118
23,12,0.00528206044886781,0.00300000000061118
23,13,0.00534422233939136,0.00200000000040745
23,14,0.0052050958689277,0.00300000000061118
23,15,0.00524533039900177,0.00199999999676947
23,16,0.00478368534922036,0.00300000000061118
23,17,0.00561294556531533,0.00300000000061118
23,18,0.00494296828404528,0.00200000000040745
23,19,0.00503193729577123,0.00300000000061118
23,20,0.00490984270586436,0.00200000000040745
23,21,0.00501572858135535,0.00200000000040745
23,22,0.00501924327646153,0.0029999999969732
23,23,0.00514129133352825,0.00200000000040745
23,24,0.00473805744563049,0.00300000000061118
23,25,0.00530077141734675,0.00300000000061118
23,26,0.0052631397906383,0.00200000000040745
23,27,0.00479490867207988,0.00300000000061118
23,28,0.00520076917831536,0.0029999999969732
23,29,0.00500234153599044,0.00200000000040745
23,30,0.00505135627166842,0.00300000000061118
24,1,0.00549044057888159,0.00300000000061118
24,2,0.00623617679703059,0.00200000000040745
24,3,0.00564792055774999,0.00300000000061118
24,4,0.00599381951117284,0.00200000000040745
24,5,0.0964973179170551,0.00399999999717693
24,6,0.00614037484633467,0.00500000000101863
24,7,0.00593708384085634,0.00300000000061118
24,8,0.0058368820160638,0.00300000000061118
24,9,0.0059723928695179,0.00200000000040745
24,10,0.00564345997196924,0.00199999999676947
24,11,0.005647091020057,0.00300000000061118
24,12,0.00613161615309055,0.00200000000040745
24,13,0.0061937780436141,0.00300000000061118
24,14,0.00605465157315044,0.00300000000061118
24,15,0.00609488610322451,0.00200000000040745
24,16,0.00563324105344309,0.00300000000061118
24,17,0.00646250126953807,0.00199999999676947
24,18,0.00579252398826802,0.00300000000061118
24,19,0.00588149299999396,0.00300000000061118
24,20,0.0057593984100871,0.00200000000040745
24,21,0.00586528428557809,0.00300000000061118
24,22,0.00586879898068426,0.00200000000040745
24,23,0.00599084703775099,0.00200000000040745
24,24,0.00558761314985323,0.0029999999969732
24,25,0.00615032712156949,0.00200000000040745
24,26,0.00611269549486104,0.00300000000061118
24,27,0.00564446437630262,0.00300000000061118
24,28,0.00605032488253809,0.00200000000040745
24,29,0.00585189724021318,0.00300000000061118
24,30,0.00590091197589115,0.00300000000061118
25,1,0.00425662127631909,0.00199999999676947
25,2,0.00500235749446809,0.00300000000061118
25,3,0.00441410125518749,0.00200000000040745
25,4,0.00476000020861034,0.00200000000040745
25,5,0.0954258723364926,0.00300000000061118
25,6,0.00490655554377217,0.00300000000061118
25,7,0.00470326453829384,0.00200000000040745
25,8,0.0046030627135013,0.00200000000040745
25,9,0.0047385735669554,0.00300000000061118
25,10,0.00440964066940674,0.00600000000122236
25,11,0.0044132717174945,0.00200000000040745
25,12,0.00489779685052805,0.00300000000061118
25,13,0.0049599587410516,0.0029999999969732
25,14,0.00482083227058794,0.00200000000040745
25,15,0.00486106680066201,0.00300000000061118
25,16,0.00439942175088059,0.00300000000061118
25,17,0.00522868196697557,0.00200000000040745
25,18,0.00455870468570552,0.00300000000061118
25,19,0.00464767369743146,0.00200000000040745
25,20,0.0045255791075246,0.0029999999969732
25,21,0.00463146498301559,0.00300000000061118
25,22,0.00463497967812176,0.00200000000040745
25,23,0.00475702773518849,0.00300000000061118
25,24,0.00435379384729073,0.00200000000040745
25,25,0.00491650781900699,0.00200000000040745
25,26,0.00487887619229854,0.0029999999969732
25,27,0.00441064507374012,0.00200000000040745
25,28,0.00481650557997559,0.00300000000061118
25,29,0.00461807793765068,0.00300000000061118
25,30,0.00466709267332865,0.00200000000040745
26,1,0.00586771988949109,0.00300000000061118
26,2,0.00661345610764008,0.00300000000061118
26,3,0.00602519986835948,0.00199999999676947
26,4,0.00637109882178233,0.00300000000061118
26,5,0.0968257181126929,0.00300000000061118
26,6,0.00651765415694416,0.00300000000061118
26,7,0.00631436315146583,0.00200000000040745
26,8,0.0062141613266733,0.00300000000061118
26,9,0.00634967218012739,0.00200000000040745
26,10,0.00602073928257874,0.00199999999676947
26,11,0.0060243703306665,0.00300000000061118
26,12,0.00650889546370004,0.00200000000040745
26,13,0.00657105735422359,0.00600000000122236
26,14,0.00643193088375993,0.00300000000061118
26,15,0.006472165413834,0.0029999999969732
26,16,0.00601052036405259,0.00200000000040745
26,17,0.00683978058014756,0.00300000000061118
26,18,0.00616980329887751,0.00300000000061118
26,19,0.00625877231060346,0.00200000000040745
26,20,0.00613667772069659,0.00300000000061118
26,21,0.00624256359618758,0.00200000000040745
26,22,0.00624607829129376,0.0029999999969732
26,23,0.00636812634836048,0.00300000000061118
26,24,0.00596489246046272,0.00200000000040745
26,25,0.00652760643217898,0.00300000000061118
26,26,0.00648997480547053,0.00200000000040745
26,27,0.00602174368691211,0.00200000000040745
26,28,0.00642760419314758,0.00300000000061118
26,29,0.00622917655082267,0.00199999999676947
26,30,0.00627819128650065,0.00300000000061118
27,1,0.00721823591073723,0.00300000000061118
27,2,0.00796397212888622,0.00200000000040745
27,3,0.00737571588960562,0.00300000000061118
27,4,0.00772161484302847,0.00300000000061118
27,5,0.098004150434078,0.0029999999969732
27,6,0.0078681701781903,0.00200000000040745
27,7,0.00766487917271197,0.00300000000061118
27,8,0.00756467734791944,0.00300000000061118
27,9,0.00770018820137353,0.00200000000040745
27,10,0.00737125530382488,0.00300000000061118
27,11,0.00737488635191264,0.00200000000040745
27,12,0.00785941148494618,0.0029999999969732
27,13,0.00792157337546973,0.00300000000061118
27,14,0.00778244690500607,0.00200000000040745
27,15,0.00782268143508014,0.00300000000061118
27,16,0.00736103638529872,0.00600000000122236
27,17,0.0081902966013937,0.00300000000061118
27,18,0.00752031932012365,0.00199999999676947
27,19,0.0076092883318496,0.00300000000061118
27,20,0.00748719374194273,0.00200000000040745
27,21,0.00759307961743372,0.00200000000040745
27,22,0.00759659431253989,0.00300000000061118
27,23,0.00771864236960662,0.00200000000040745
27,24,0.00731540848170886,0.00300000000061118
27,25,0.00787812245342512,0.0029999999969732
27,26,0.00784049082671667,0.00200000000040745
27,27,0.00737225970815825,0.00300000000061118
27,28,0.00777812021439372,0.00200000000040745
27,29,0.00757969257206881,0.00300000000061118
27,30,0.00762870730774678,0.00300000000061118
28,1,0.00606149181290483,0.00200000000040745
28,2,0.00680722803105382,0.0029999999969732
28,3,0.00621897179177322,0.00200000000040745
28,4,0.00656487074519607,0.00200000000040745
28,5,0.0969945237855051,0.00300000000061118
28,6,0.00671142608035791,0.00300000000061118
28,7,0.00650813507487957,0.00300000000061118
28,8,0.00640793325008704,0.00199999999676947
28,9,0.00654344410354113,0.00300000000061118
28,10,0.00621451120599248,0.00200000000040745
28,11,0.00621814225408024,0.00200000000040745
28,12,0.00670266738711378,0.00300000000061118
28,13,0.00676482927763733,0.00200000000040745
28,14,0.00662570280717367,0.00300000000061118
28,15,0.00666593733724774,0.0029999999969732
28,16,0.00620429228746633,0.00200000000040745
28,17,0.0070335525035613,0.00300000000061118
28,18,0.00636357522229125,0.00300000000061118
28,19,0.0064525442340172,0.00600000000122236
28,20,0.00633044964411034,0.00199999999676947
28,21,0.00643633551960132,0.00300000000061118
28,22,0.0064398502147075,0.00300000000061118
28,23,0.00656189827177422,0.00200000000040745
28,24,0.00615866438387647,0.00300000000061118
28,25,0.00672137835559272,0.00200000000040745
28,26,0.00668374672888428,0.00300000000061118
28,27,0.00621551561032585,0.0029999999969732
28,28,0.00662137611656133,0.00200000000040745
28,29,0.00642294847423641,0.00300000000061118
28,30,0.00647196320991439,0.00200000000040745
29,1,0.00488967529097339,0.00200000000040745
29,2,0.00563541150912239,0.00300000000061118
29,3,0.00504715526984179,0.00200000000040745
29,4,0.00539305422326464,0.0029999999969732
29,5,0.0959751276715527,0.00300000000061118
29,6,0.00553960955842647,0.00300000000061118
29,7,0.00533631855294814,0.00200000000040745
29,8,0.0052361167281556,0.00300000000061118
29,9,0.00537162758160969,0.00300000000061118
29,10,0.00504269468406104,0.00200000000040745
29,11,0.0050463257321488,0.0029999999969732
29,12,0.00553085086518235,0.00200000000040745
29,13,0.0055930127557059,0.00200000000040745
29,14,0.00545388628524224,0.00300000000061118
29,15,0.00549412081531631,0.00200000000040745
29,16,0.00503247576553489,0.00300000000061118
29,17,0.00586173598162987,0.0029999999969732
29,18,0.00519175870035982,0.00200000000040745
29,19,0.00528072771208576,0.00300000000061118
29,20,0.0051586331221789,0.00300000000061118
29,21,0.00526451899766989,0.00200000000040745
29,22,0.00526803369277606,0.00600000000122236
29,23,0.00539008174984279,0.0029999999969732
29,24,0.00498684786194503,0.00300000000061118
29,25,0.00554956183366129,0.00200000000040745
29,26,0.00551193020695284,0.00300000000061118
29,27,0.00504369908839442,0.00200000000040745
29,28,0.00544955959462989,0.00200000000040745
29,29,0.00525113195230498,0.0029999999969732
29,30,0.00530014668798295,0.00200000000040745
30,1,0.00681333730597822,0.00300000000061118
30,2,0.00755907352412721,0.00300000000061118
30,3,0.00697081728484661,0.00200000000040745
30,4,0.00731671623826946,0.00300000000061118
30,5,0.0976503765188991,0.00300000000061118
30,6,0.0074632715734313,0.00199999999676947
30,7,0.00725998056795296,0.00200000000040745
30,8,0.00715977874316043,0.00300000000061118
30,9,0.00729528959661452,0.00200000000040745
30,10,0.00696635669906587,0.00300000000061118
30,11,0.00696998774715363,0.00300000000061118
30,12,0.00745451288018717,0.00200000000040745
30,13,0.00751667477071072,0.0029999999969732
30,14,0.00737754830024706,0.00300000000061118
30,15,0.00741778283032113,0.00200000000040745
30,16,0.00695613778053972,0.00300000000061118
30,17,0.00778539799663469,0.00300000000061118
30,18,0.00711542071536464,0.00200000000040745
30,19,0.00720438972709059,0.00300000000061118
30,20,0.00708229513718373,0.00199999999676947
30,21,0.00718818101267471,0.00300000000061118
30,22,0.00719169570778089,0.00300000000061118
30,23,0.00731374376484761,0.00200000000040745
30,24,0.00691050987694986,0.00300000000061118
30,25,0.00747322384866611,0.00599999999758438
30,26,0.00743559222195767,0.00300000000061118
30,27,0.00696736110339924,0.00200000000040745
30,28,0.00737322160963472,0.00300000000061118
30,29,0.0071747939673098,0.00300000000061118
30,30,0.00722380870298778,0.00200000000040745
