App - Shortyz
Scenario - download_puzzles
Length - 1sec
Measure - TWED
Before Version - 4.0.0_b
After Version - 4.0.2_b_m


"Before.Trace.ID1","Before.Trace.ID2","Difference","Runtime"
1,2,69465.3889361772,0.0790000000000077
1,3,68204.2407150806,0.0790000000000077
1,4,69122.6124097131,0.0780000000000314
1,5,68958.9804125446,0.0779999999999745
1,6,68221.4913129175,0.0790000000000077
1,7,70186.5596473882,0.0780000000000314
1,8,69458.8860229127,0.0790000000000077
1,9,71056.0646313645,0.0790000000000077
1,10,70113.8112845873,0.0779999999999745
1,11,67480.0772452444,0.0790000000000077
1,12,67617.6251250486,0.0790000000000077
1,13,68780.7531078582,0.0779999999999745
1,14,70604.3282568175,0.0799999999999841
1,15,71204.3620227898,0.0790000000000077
1,16,70635.6156978275,0.0790000000000077
1,17,69074.6143231622,0.0780000000000314
1,18,69640.7445164276,0.0779999999999745
1,19,69901.5893522073,0.0790000000000077
1,20,70516.7126035056,0.0790000000000077
1,21,71103.3827834872,0.0780000000000314
1,22,70462.2770334965,0.0780000000000314
1,23,69653.7822524079,0.0789999999999509
1,24,70558.6620966172,0.0790000000000077
1,25,69951.7992515501,0.0780000000000314
1,26,71273.8754673291,0.0780000000000314
1,27,69035.8199879749,0.0799999999999841
1,28,70089.1312546915,0.0790000000000077
1,29,69943.8811932664,0.0790000000000077
1,30,68545.8488029896,0.0789999999999509
2,3,68273.6394533601,0.0790000000000077
2,4,68641.6176842407,0.0780000000000314
2,5,69028.3791508241,0.0780000000000314
2,6,68290.890051197,0.0789999999999509
2,7,69459.2894589593,0.0790000000000077
2,8,69432.4205050287,0.0790000000000077
2,9,69308.4824657716,0.0780000000000314
2,10,69511.3452774015,0.0790000000000077
2,11,67549.4759835239,0.0789999999999509
2,12,67687.0238633281,0.0840000000000032
2,13,68850.1518461377,0.0790000000000077
2,14,69472.2006520393,0.0790000000000077
2,15,69255.0348194633,0.0790000000000077
2,16,69526.1499008011,0.0790000000000077
2,17,69144.0130614418,0.0779999999999745
2,18,69412.9613019803,0.0779999999999745
2,19,69230.8865745694,0.0790000000000077
2,20,69436.095994636,0.0790000000000077
2,21,69318.2080307961,0.0790000000000077
2,22,69523.3235986301,0.0779999999999745
2,23,69380.2348929272,0.0790000000000077
2,24,69546.113086639,0.0790000000000077
2,25,69509.5594909633,0.0780000000000314
2,26,69324.5482640026,0.0790000000000077
2,27,69105.2187262544,0.0789999999999509
2,28,69439.9922665412,0.0790000000000077
2,29,69523.9082423991,0.0790000000000077
2,30,68615.2475412691,0.0790000000000077
3,4,68010.057714778,0.0790000000000077
3,5,68309.2616045877,0.0779999999999745
3,6,68129.4138512251,0.0790000000000077
3,7,68198.1412378627,0.0790000000000077
3,8,68171.2722839321,0.0780000000000314
3,9,68047.334244675,0.0779999999999745
3,10,68250.1970563049,0.0790000000000077
3,11,67466.9741466102,0.0790000000000077
3,12,67222.1998794607,0.0779999999999745
3,13,68020.1898899503,0.0780000000000314
3,14,68211.0524309426,0.0780000000000314
3,15,67993.8865983666,0.0790000000000077
3,16,68265.0016797045,0.0789999999999509
3,17,68008.0647421654,0.0790000000000077
3,18,68151.8130808837,0.0780000000000314
3,19,67969.7383534728,0.0780000000000314
3,20,68174.9477735393,0.0789999999999509
3,21,68057.0598096995,0.0790000000000077
3,22,68262.1753775335,0.0790000000000077
3,23,68119.0866718306,0.0790000000000077
3,24,68284.9648655423,0.0790000000000077
3,25,68248.4112698667,0.0790000000000077
3,26,68063.400042906,0.0779999999999745
3,27,68127.4338547395,0.0790000000000077
3,28,68178.8440454446,0.0830000000000268
3,29,68262.7600213024,0.0790000000000077
3,30,68182.7441457342,0.0789999999999509
4,5,68764.797412242,0.0780000000000314
4,6,68027.3083126149,0.0790000000000077
4,7,69116.5129324951,0.0779999999999745
4,8,69089.6439785646,0.0790000000000077
4,9,68965.7059393074,0.0790000000000077
4,10,69168.5687509374,0.0790000000000077
4,11,67285.8942449418,0.0779999999999745
4,12,67423.4421247459,0.0790000000000077
4,13,68586.5701075555,0.0779999999999745
4,14,69129.4241255751,0.0779999999999745
4,15,68912.2582929991,0.0790000000000077
4,16,69183.373374337,0.0780000000000314
4,17,68880.4313228596,0.0780000000000314
4,18,69070.1847755162,0.0789999999999509
4,19,68888.1100481052,0.0780000000000314
4,20,69093.3194681718,0.0790000000000077
4,21,68975.4315043319,0.0790000000000077
4,22,69180.5470721659,0.0789999999999509
4,23,69037.458366463,0.0790000000000077
4,24,69203.3365601748,0.0780000000000314
4,25,69166.7829644991,0.0790000000000077
4,26,68981.7717375384,0.0789999999999509
4,27,68841.6369876722,0.0780000000000314
4,28,69097.215740077,0.0790000000000077
4,29,69181.1317159349,0.0790000000000077
4,30,68351.665802687,0.0790000000000077
5,6,68326.5122024246,0.0779999999999745
5,7,68952.8809353267,0.0790000000000077
5,8,68926.0119813961,0.0790000000000077
5,9,68802.073942139,0.0790000000000077
5,10,69004.9367537689,0.0789999999999509
5,11,67585.0981347515,0.0790000000000077
5,12,67722.6460145556,0.0780000000000314
5,13,68468.4115733147,0.0790000000000077
5,14,68965.7921284066,0.0789999999999509
5,15,68748.6262958307,0.0780000000000314
5,16,69019.7413771685,0.0780000000000314
5,17,68762.8044396294,0.0790000000000077
5,18,68906.5527783477,0.0789999999999509
5,19,68724.4780509368,0.0830000000000268
5,20,68929.6874710033,0.0790000000000077
5,21,68811.7995071635,0.0779999999999745
5,22,69016.9150749975,0.0800000000000409
5,23,68873.8263692946,0.0779999999999745
5,24,69039.7045630064,0.0790000000000077
5,25,69003.1509673307,0.0779999999999745
5,26,68818.13974037,0.0790000000000077
5,27,68882.1735522035,0.0780000000000314
5,28,68933.5837429086,0.0780000000000314
5,29,69017.4997187665,0.0779999999999745
5,30,68650.8696924967,0.0780000000000314
6,7,68215.3918356996,0.0790000000000077
6,8,68188.522881769,0.0790000000000077
6,9,68064.5848425119,0.0779999999999745
6,10,68267.4476541418,0.0790000000000077
6,11,67405.2503813888,0.0790000000000077
6,12,67542.798261193,0.0780000000000314
6,13,68037.4404877872,0.0789999999999509
6,14,68228.3030287795,0.0780000000000314
6,15,68011.1371962035,0.0790000000000077
6,16,68282.2522775414,0.0790000000000077
6,17,68025.3153400023,0.0779999999999745
6,18,68169.0636787206,0.0790000000000077
6,19,67986.9889513097,0.0790000000000077
6,20,68192.1983713762,0.0779999999999745
6,21,68074.3104075364,0.0779999999999745
6,22,68279.4259753704,0.0790000000000077
6,23,68136.3372696675,0.0790000000000077
6,24,68302.2154633792,0.0790000000000077
6,25,68265.6618677036,0.0790000000000077
6,26,68080.6506407429,0.0789999999999509
6,27,68144.6844525764,0.0790000000000077
6,28,68196.0946432815,0.0780000000000314
6,29,68280.0106191393,0.0790000000000077
6,30,68199.9947435711,0.0790000000000077
7,8,69452.7865456948,0.0779999999999745
7,9,70029.6531769825,0.0790000000000077
7,10,70107.7118073693,0.0790000000000077
7,11,67473.9777680264,0.0790000000000077
7,12,67611.5256478306,0.0789999999999509
7,13,68774.6536306402,0.0840000000000032
7,14,70193.3713632502,0.0790000000000077
7,15,69976.2055306742,0.0780000000000314
7,16,70247.3206120121,0.0790000000000077
7,17,69068.5148459443,0.0789999999999509
7,18,69634.6450392097,0.0780000000000314
7,19,69895.4898749894,0.0790000000000077
7,20,70157.2667058469,0.0779999999999745
7,21,70039.378742007,0.0790000000000077
7,22,70204.684144738,0.0779999999999745
7,23,69647.6827751899,0.0790000000000077
7,24,70267.2837978499,0.0790000000000077
7,25,69945.6997743321,0.0780000000000314
7,26,70045.7189752135,0.0780000000000314
7,27,69029.7205107569,0.0789999999999509
7,28,70083.0317774736,0.0780000000000314
7,29,69937.7817160485,0.0790000000000077
7,30,68539.7493257716,0.0779999999999745
8,9,69301.9795525071,0.0790000000000077
8,10,69504.842364137,0.0790000000000077
8,11,67447.1088140959,0.0779999999999745
8,12,67584.6566939,0.0790000000000077
8,13,68747.7846767096,0.0780000000000314
8,14,69465.6977387748,0.0779999999999745
8,15,69248.5319061988,0.0790000000000077
8,16,69519.6469875366,0.0790000000000077
8,17,69041.6458920137,0.0800000000000409
8,18,69406.4583887158,0.0789999999999509
8,19,69224.3836613049,0.0790000000000077
8,20,69429.5930813715,0.0800000000000409
8,21,69311.7051175316,0.0789999999999509
8,22,69516.8206853656,0.0790000000000077
8,23,68680.9528335384,0.0790000000000077
8,24,69539.6101733745,0.0780000000000314
8,25,69503.0565776988,0.0789999999999509
8,26,69318.0453507381,0.0790000000000077
8,27,69002.8515568264,0.0790000000000077
8,28,69433.4893532767,0.0780000000000314
8,29,69517.4053291346,0.0790000000000077
8,30,68512.8803718411,0.0790000000000077
9,10,69956.9048141816,0.08299999999997
9,11,67323.1707748388,0.0780000000000314
9,12,67460.7186546429,0.0790000000000077
9,13,68623.8466374525,0.0779999999999745
9,14,70447.4217864119,0.0790000000000077
9,15,70845.7105146505,0.0779999999999745
9,16,70478.7092274218,0.0790000000000077
9,17,68917.7078527566,0.0780000000000314
9,18,69483.838046022,0.0780000000000314
9,19,69744.6828818017,0.0789999999999509
9,20,70359.8061330999,0.0780000000000314
9,21,70721.1532643046,0.0799999999999841
9,22,70305.3705630909,0.0790000000000077
9,23,69496.8757820022,0.0790000000000077
9,24,70401.7556262115,0.0779999999999745
9,25,69794.8927811445,0.0779999999999745
9,26,70915.2239591899,0.0790000000000077
9,27,68878.9135175692,0.0790000000000077
9,28,69932.2247842859,0.0779999999999745
9,29,69786.9747228608,0.0790000000000077
9,30,68388.9423325839,0.0790000000000077
10,11,67526.0335864687,0.0779999999999745
10,12,67663.5814662728,0.0790000000000077
10,13,68826.7094490825,0.0790000000000077
10,14,70120.6230004493,0.0790000000000077
10,15,69903.4571678733,0.0790000000000077
10,16,70174.5722492111,0.0790000000000077
10,17,69120.5706643865,0.0790000000000077
10,18,69686.7008576519,0.0779999999999745
10,19,69879.3089229794,0.0790000000000077
10,20,70084.518343046,0.0790000000000077
10,21,69966.6303792061,0.0779999999999745
10,22,70171.7459470401,0.0779999999999745
10,23,69699.7385936322,0.0790000000000077
10,24,70194.535435049,0.0790000000000077
10,25,69997.7555927744,0.0790000000000077
10,26,69972.9706124126,0.0799999999999841
10,27,69081.7763291992,0.0790000000000077
10,28,70088.4146149512,0.0790000000000077
10,29,69989.8375344907,0.0790000000000077
10,30,68591.8051442139,0.0779999999999745
11,12,67254.4589824901,0.0790000000000077
11,13,67296.0264201141,0.0779999999999745
11,14,67486.8889611064,0.0790000000000077
11,15,67269.7231285304,0.0780000000000314
11,16,67540.8382098682,0.0780000000000314
11,17,67283.9012723292,0.0790000000000077
11,18,67427.6496110475,0.0779999999999745
11,19,67245.5748836366,0.0790000000000077
11,20,67450.7843037031,0.0790000000000077
11,21,67332.8963398632,0.0790000000000077
11,22,67538.0119076972,0.0779999999999745
11,23,67394.9232019944,0.0790000000000077
11,24,67560.8013957061,0.0780000000000314
11,25,67524.2478000305,0.0790000000000077
11,26,67339.2365730698,0.0789999999999509
11,27,67403.2703849033,0.0780000000000314
11,28,67454.6805756083,0.0790000000000077
11,29,67538.5965514662,0.0790000000000077
11,30,67458.5806758979,0.0779999999999745
12,13,67433.5742999183,0.0790000000000077
12,14,67624.4368409106,0.0779999999999745
12,15,67407.2710083346,0.0790000000000077
12,16,67678.3860896724,0.0779999999999745
12,17,67421.4491521333,0.0790000000000077
12,18,67565.1974908516,0.0790000000000077
12,19,67383.1227634407,0.0790000000000077
12,20,67588.3321835073,0.0790000000000077
12,21,67470.4442196674,0.0789999999999509
12,22,67675.5597875014,0.0780000000000314
12,23,67532.4710817985,0.0790000000000077
12,24,67698.3492755103,0.0790000000000077
12,25,67661.7956798346,0.0789999999999509
12,26,67476.7844528739,0.0780000000000314
12,27,67540.8182647074,0.0790000000000077
12,28,67592.2284554125,0.0790000000000077
12,29,67676.1444312704,0.0790000000000077
12,30,67596.1285557021,0.0790000000000077
13,14,68787.5648237202,0.08299999999997
13,15,68570.3989911442,0.0780000000000314
13,16,68841.514072482,0.0790000000000077
13,17,68584.577134943,0.0779999999999745
13,18,68728.3254736612,0.0779999999999745
13,19,68546.2507462503,0.0790000000000077
13,20,68751.4601663169,0.0779999999999745
13,21,68633.572202477,0.0790000000000077
13,22,68838.687770311,0.0790000000000077
13,23,68695.5990646081,0.0790000000000077
13,24,68861.4772583199,0.0779999999999745
13,25,68824.9236626442,0.0790000000000077
13,26,68639.9124356835,0.0790000000000077
13,27,68703.946247517,0.0779999999999745
13,28,68755.3564382221,0.0790000000000077
13,29,68839.27241408,0.0790000000000077
13,30,68361.7979778593,0.0790000000000077
14,15,70393.9741401035,0.0790000000000077
14,16,70642.4274136895,0.0790000000000077
14,17,69081.4260390243,0.0790000000000077
14,18,69647.5562322896,0.0779999999999745
14,19,69908.4010680693,0.0779999999999745
14,20,70523.5243193676,0.0790000000000077
14,21,70457.1473514363,0.0780000000000314
14,22,70469.0887493585,0.0790000000000077
14,23,69660.5939682699,0.0779999999999745
14,24,70565.4738124791,0.0780000000000314
14,25,69958.6109674121,0.0790000000000077
14,26,70463.4875846429,0.0790000000000077
14,27,69042.6317038369,0.0779999999999745
14,28,70095.9429705536,0.0790000000000077
14,29,69950.6929091284,0.0790000000000077
14,30,68552.6605188516,0.0779999999999745
15,16,70425.2615811135,0.0790000000000077
15,17,68864.2602064482,0.0790000000000077
15,18,69430.3903997137,0.0780000000000314
15,19,69691.2352354934,0.0790000000000077
15,20,70306.3584867916,0.0779999999999745
15,21,70893.0286667733,0.08299999999997
15,22,70251.9229167826,0.0790000000000077
15,23,69443.4281356939,0.0779999999999745
15,24,70348.3079799032,0.0790000000000077
15,25,69741.4451348361,0.0790000000000077
15,26,71787.9863658818,0.0780000000000314
15,27,68825.4658712609,0.0789999999999509
15,28,69878.7771379776,0.0780000000000314
15,29,69733.5270765524,0.0790000000000077
15,30,68335.4946862756,0.0790000000000077
16,17,69135.3752877861,0.0779999999999745
16,18,69701.5054810515,0.0780000000000314
16,19,69962.3503168312,0.0790000000000077
16,20,70480.1610596924,0.0779999999999745
16,21,70488.4347924463,0.0790000000000077
16,22,70523.0379981204,0.0780000000000314
16,23,69714.5432170317,0.0779999999999745
16,24,70619.423061241,0.0779999999999745
16,25,70012.560216174,0.0779999999999745
16,26,70494.7750256528,0.0790000000000077
16,27,69096.5809525987,0.0779999999999745
16,28,70149.8922193154,0.0779999999999745
16,29,70004.6421578903,0.0790000000000077
16,30,68606.6097676134,0.0779999999999745
17,18,69022.1866889653,0.0790000000000077
17,19,68840.1119615544,0.0779999999999745
17,20,69045.321381621,0.0790000000000077
17,21,68927.4334177811,0.0790000000000077
17,22,69132.5489856151,0.0780000000000314
17,23,68989.4602799122,0.0789999999999509
17,24,69155.338473624,0.0790000000000077
17,25,69118.7848779483,0.0790000000000077
17,26,68933.7736509876,0.0790000000000077
17,27,68839.6440150596,0.0790000000000077
17,28,69049.2176535262,0.0790000000000077
17,29,69133.133629384,0.0799999999999841
17,30,68349.6728300744,0.0779999999999745
18,19,69406.2421548198,0.0779999999999745
18,20,69611.4515748863,0.0790000000000077
18,21,69493.5636110465,0.0790000000000077
18,22,69698.6791788805,0.0779999999999745
18,23,69555.5904731776,0.0790000000000077
18,24,69721.4686668893,0.0790000000000077
18,25,69684.9150712137,0.0790000000000077
18,26,69499.903844253,0.0790000000000077
18,27,68983.3923537779,0.0779999999999745
18,28,69615.3478467915,0.0790000000000077
18,29,69699.2638226494,0.0790000000000077
18,30,68493.4211687927,0.0790000000000077
19,20,69872.2964106661,0.0780000000000314
19,21,69754.4084468262,0.0789999999999509
19,22,69959.5240146602,0.0780000000000314
19,23,69419.2798908,0.0780000000000314
19,24,69982.313502669,0.0790000000000077
19,25,69717.2968899423,0.0779999999999745
19,26,69760.7486800327,0.0790000000000077
19,27,68801.317626367,0.0790000000000077
19,28,69854.6288930837,0.0790000000000077
19,29,69709.3788316586,0.0779999999999745
19,30,68311.3464413818,0.0790000000000077
20,21,70369.5316981244,0.0799999999999841
20,22,70432.9840919552,0.0780000000000314
20,23,69624.4893108666,0.0789999999999509
20,24,70529.3691550759,0.0790000000000077
20,25,69922.5063100088,0.0780000000000314
20,26,70375.8719313309,0.0790000000000077
20,27,69006.5270464336,0.0779999999999745
20,28,70059.8383131502,0.0779999999999745
20,29,69914.5882517251,0.0790000000000077
20,30,68516.5558614483,0.0779999999999745
21,22,70315.0961281154,0.0779999999999745
21,23,69506.6013470267,0.0790000000000077
21,24,70411.481191236,0.0790000000000077
21,25,69804.618346169,0.0790000000000077
21,26,70962.5421113126,0.0780000000000314
21,27,68888.6390825937,0.0789999999999509
21,28,69941.9503493104,0.0790000000000077
21,29,69796.7002878852,0.0790000000000077
21,30,68398.6678976085,0.0779999999999745
22,23,69711.7169148607,0.0790000000000077
22,24,70187.8356324431,0.0790000000000077
22,25,70009.733914003,0.0779999999999745
22,26,70321.4363613219,0.0790000000000077
22,27,69093.7546504277,0.0790000000000077
22,28,70147.0659171444,0.0790000000000077
22,29,70001.8158557193,0.0790000000000077
22,30,68603.7834654425,0.0790000000000077
23,24,69734.5064028696,0.0779999999999745
23,25,69697.9528071939,0.0779999999999745
23,26,69512.9415802332,0.0790000000000077
23,27,68950.6659447248,0.0779999999999745
23,28,69628.3855827718,0.0790000000000077
23,29,69712.3015586297,0.0780000000000314
23,30,68460.6947597395,0.0789999999999509
24,25,70032.5234020118,0.0780000000000314
24,26,70417.8214244425,0.0790000000000077
24,27,69116.5441384366,0.0779999999999745
24,28,70169.8554051533,0.0779999999999745
24,29,70024.6053437281,0.0780000000000314
24,30,68626.5729534513,0.0780000000000314
25,26,69810.9585793755,0.0790000000000077
25,27,69079.9905427609,0.0779999999999745
25,28,69926.402581914,0.0790000000000077
25,29,69988.0517480525,0.0779999999999745
25,30,68590.0193577757,0.0779999999999745
26,27,68894.9793158002,0.0790000000000077
26,28,69948.2905825169,0.0780000000000314
26,29,69803.0405210918,0.0789999999999509
26,30,68405.0081308149,0.0790000000000077
27,28,69010.4233183388,0.0790000000000077
27,29,69094.3392941967,0.0790000000000077
27,30,68469.0419426484,0.0790000000000077
28,29,69918.4845236304,0.0790000000000077
28,30,68520.4521333535,0.0779999999999745
29,30,68604.3681092114,0.0790000000000077


"After.Trace.ID","Before.Trace.ID","Difference","Runtime"
1,1,70558.0051339626,0.0769999999999982
1,2,69221.0205179963,0.0769999999999982
1,3,67959.8722968996,0.0779999999999745
1,4,68878.2439915321,0.0769999999999982
1,5,68714.6119943636,0.0769999999999982
1,6,67977.1228947365,0.0769999999999982
1,7,69942.1912292072,0.0769999999999982
1,8,69214.5176047318,0.0780000000000314
1,9,70401.098663557,0.0769999999999982
1,10,69869.4428664063,0.0779999999999745
1,11,67235.7088270634,0.0769999999999982
1,12,67373.2567068675,0.0769999999999982
1,13,68536.3846896772,0.077000000000055
1,14,70359.9598386365,0.0769999999999982
1,15,70347.6510172487,0.0779999999999745
1,16,70391.2472796465,0.0779999999999745
1,17,68830.2459049812,0.0780000000000314
1,18,69396.3760982466,0.0779999999999745
1,19,69554.819291623,0.0769999999999982
1,20,70272.3441853246,0.0769999999999982
1,21,70410.8242285815,0.0769999999999982
1,22,70217.9086153155,0.0779999999999745
1,23,69409.4138342269,0.0769999999999982
1,24,70314.2936784362,0.0769999999999982
1,25,69707.4308333691,0.0769999999999982
1,26,70417.164461788,0.0769999999999982
1,27,68791.4515697939,0.0780000000000314
1,28,69844.7628365105,0.0769999999999982
1,29,69699.5127750854,0.0790000000000077
1,30,68301.4803848086,0.0769999999999982
2,1,71172.0438962689,0.0779999999999745
2,2,69222.7166929424,0.0780000000000314
2,3,67961.5684718457,0.0769999999999982
2,4,68879.9401664782,0.0769999999999982
2,5,68716.3081693097,0.0779999999999745
2,6,67978.8190696826,0.0769999999999982
2,7,69943.8874041533,0.0790000000000077
2,8,69216.2137796779,0.0780000000000314
2,9,70813.3923881296,0.0769999999999982
2,10,69871.1390413524,0.0769999999999982
2,11,67237.4050020095,0.0779999999999745
2,12,67374.9528818136,0.0790000000000077
2,13,68538.0808646233,0.0769999999999982
2,14,70361.6560135826,0.0779999999999745
2,15,71616.7941470394,0.0769999999999982
2,16,70392.9434545926,0.0769999999999982
2,17,68831.9420799274,0.0769999999999982
2,18,69398.0722731928,0.0779999999999745
2,19,69658.9171089725,0.0769999999999982
2,20,70274.0403602707,0.0780000000000314
2,21,70860.7105402524,0.0779999999999745
2,22,70219.6047902617,0.0769999999999982
2,23,69411.110009173,0.0779999999999745
2,24,70315.9898533823,0.0780000000000314
2,25,69709.1270083152,0.0779999999999745
2,26,71755.6682393609,0.0780000000000314
2,27,68793.14774474,0.0779999999999745
2,28,69846.4590114567,0.0769999999999982
2,29,69701.2089500315,0.0769999999999982
2,30,68303.1765597547,0.0779999999999745
3,1,70038.9801333797,0.0769999999999982
3,2,69173.0980062561,0.0780000000000314
3,3,67911.9497851594,0.0779999999999745
3,4,68830.3214797919,0.0769999999999982
3,5,68666.6894826234,0.0780000000000314
3,6,67929.2003829963,0.0769999999999982
3,7,69894.268717467,0.0779999999999745
3,8,69166.5950929915,0.0779999999999745
3,9,69882.0736629741,0.077000000000055
3,10,69821.520354666,0.0769999999999982
3,11,67187.7863153232,0.0779999999999745
3,12,67325.3341951273,0.0769999999999982
3,13,68488.462177937,0.0769999999999982
3,14,70045.7918492417,0.0779999999999745
3,15,69828.6260166657,0.0769999999999982
3,16,70099.7410980036,0.0780000000000314
3,17,68782.3233932411,0.0779999999999745
3,18,69348.4535865064,0.0769999999999982
3,19,69609.2984222861,0.0780000000000314
3,20,70009.6871918385,0.0779999999999745
3,21,69891.7992279985,0.0780000000000314
3,22,70096.9147958326,0.0779999999999745
3,23,69361.4913224866,0.0769999999999982
3,24,70119.7042838414,0.0780000000000314
3,25,69659.5083216289,0.0779999999999745
3,26,69898.139461205,0.0779999999999745
3,27,68743.5290580537,0.077000000000055
3,28,69796.8403247703,0.0779999999999745
3,29,69651.5902633452,0.0779999999999745
3,30,68253.5578730684,0.0769999999999982
4,1,70567.766855774,0.0780000000000314
4,2,69192.3064909163,0.0779999999999745
4,3,67931.1582698197,0.0780000000000314
4,4,68849.5299644521,0.0779999999999745
4,5,68685.8979672837,0.0769999999999982
4,6,67948.4088676566,0.0779999999999745
4,7,69913.4772021272,0.0780000000000314
4,8,69185.8035776518,0.0769999999999982
4,9,70410.8603853684,0.0779999999999745
4,10,69840.7288393263,0.077000000000055
4,11,67206.9947999835,0.0769999999999982
4,12,67344.5426797876,0.0779999999999745
4,13,68507.6706625972,0.0780000000000314
4,14,70331.2458115566,0.0769999999999982
4,15,70357.41273906,0.0769999999999982
4,16,70362.5332525665,0.0780000000000314
4,17,68801.5318779013,0.0769999999999982
4,18,69367.6620711667,0.0790000000000077
4,19,69628.5069069464,0.0769999999999982
4,20,70243.6301582446,0.0769999999999982
4,21,70420.5859503929,0.0769999999999982
4,22,70189.1945882356,0.0779999999999745
4,23,69380.6998071469,0.0769999999999982
4,24,70285.5796513562,0.0780000000000314
4,25,69678.7168062892,0.0769999999999982
4,26,70426.9261835994,0.0769999999999982
4,27,68762.7375427139,0.0769999999999982
4,28,69816.0488094306,0.0769999999999982
4,29,69670.7987480055,0.0780000000000314
4,30,68272.7663577287,0.0779999999999745
5,1,69934.4985030899,0.0780000000000314
5,2,69228.0861963587,0.0779999999999745
5,3,67966.9379752621,0.0769999999999982
5,4,68885.3096698945,0.0769999999999982
5,5,68721.6776727261,0.0790000000000077
5,6,67984.188573099,0.0779999999999745
5,7,69928.399025872,0.0769999999999982
5,8,69221.5832830942,0.0780000000000314
5,9,69777.5920326843,0.0769999999999982
5,10,69876.5085447687,0.0769999999999982
5,11,67242.7745054259,0.0769999999999982
5,12,67380.32238523,0.0780000000000314
5,13,68543.4503680396,0.0769999999999982
5,14,69941.3102189519,0.0790000000000077
5,15,69724.1443863759,0.0779999999999745
5,16,69995.2594677138,0.0769999999999982
5,17,68837.3115833437,0.0780000000000314
5,18,69403.4417766091,0.0779999999999745
5,19,69664.2866123888,0.0769999999999982
5,20,69905.2055615486,0.0780000000000314
5,21,69787.3175977088,0.0779999999999745
5,22,69992.4331655428,0.0780000000000314
5,23,69416.4795125893,0.0769999999999982
5,24,70015.2226535516,0.0779999999999745
5,25,69714.4965117316,0.0780000000000314
5,26,69793.6578309153,0.0779999999999745
5,27,68798.5172481563,0.0779999999999745
5,28,69851.828514873,0.0769999999999982
5,29,69706.5784534479,0.0780000000000314
5,30,68308.5460631711,0.0779999999999745
6,1,70280.5629480647,0.0769999999999982
6,2,69301.3301662133,0.0780000000000314
6,3,68040.1819451167,0.0779999999999745
6,4,68958.5536397492,0.0769999999999982
6,5,68794.9216425807,0.0780000000000314
6,6,68057.4325429536,0.0769999999999982
6,7,70022.5008774243,0.0779999999999745
6,8,69294.8272529488,0.0780000000000314
6,9,70123.656477659,0.0769999999999982
6,10,69949.7525146233,0.0769999999999982
6,11,67316.0184752805,0.0780000000000314
6,12,67453.5663550846,0.0769999999999982
6,13,68616.6943378942,0.0779999999999745
6,14,70287.3746639267,0.0780000000000314
6,15,70070.2088313507,0.0769999999999982
6,16,70341.3239126886,0.0769999999999982
6,17,68910.5555531983,0.0780000000000314
6,18,69476.6857464637,0.0779999999999745
6,19,69737.5305822434,0.0780000000000314
6,20,70013.1766080844,0.0789999999999509
6,21,70133.3820426835,0.0780000000000314
6,22,70298.2182635326,0.0779999999999745
6,23,69489.7234824439,0.0780000000000314
6,24,70361.2870985264,0.0779999999999745
6,25,69787.7404815862,0.0780000000000314
6,26,70139.72227589,0.0769999999999982
6,27,68871.7612180109,0.0779999999999745
6,28,69925.0724847276,0.0780000000000314
6,29,69779.8224233025,0.0789999999999509
6,30,68381.7900330257,0.0780000000000314
7,1,68560.2680574309,0.0769999999999982
7,2,68629.6667957104,0.0769999999999982
7,3,67971.186883884,0.0780000000000314
7,4,68366.0850571283,0.0769999999999982
7,5,68362.2064054394,0.0769999999999982
7,6,67988.4374817209,0.0769999999999982
7,7,68554.168580213,0.0780000000000314
7,8,68527.2996262824,0.0769999999999982
7,9,68403.3615870253,0.0779999999999745
7,10,68606.2243986552,0.0769999999999982
7,11,67247.0234140478,0.0780000000000314
7,12,67384.5712938519,0.0769999999999982
7,13,68376.2172323006,0.0779999999999745
7,14,68567.0797732929,0.0769999999999982
7,15,68349.9139407169,0.0780000000000314
7,16,68621.0290220548,0.0779999999999745
7,17,68364.0920845157,0.0769999999999982
7,18,68507.840423234,0.0769999999999982
7,19,68325.7656958231,0.0779999999999745
7,20,68530.9751158896,0.0769999999999982
7,21,68413.0871520498,0.0769999999999982
7,22,68618.2027198838,0.0779999999999745
7,23,68475.1140141809,0.0769999999999982
7,24,68640.9922078926,0.0780000000000314
7,25,68604.438612217,0.0769999999999982
7,26,68419.4273852563,0.0779999999999745
7,27,68483.4611970898,0.0780000000000314
7,28,68534.8713877948,0.0779999999999745
7,29,68618.7873636527,0.0780000000000314
7,30,68312.794971793,0.0779999999999745
8,1,68424.0195771736,0.0780000000000314
8,2,68493.4183154531,0.0779999999999745
8,3,67933.8157649093,0.0769999999999982
8,4,67727.7520711369,0.0780000000000314
8,5,68529.0404666807,0.0769999999999982
8,6,67951.0663627463,0.0769999999999982
8,7,68417.9200999556,0.0780000000000314
8,8,68391.0511460251,0.0769999999999982
8,9,68267.113106768,0.0769999999999982
8,10,68469.9759183979,0.0769999999999982
8,11,67209.6522950731,0.0780000000000314
8,12,67347.2001748773,0.0790000000000077
8,13,68239.9687520433,0.0769999999999982
8,14,68430.8312930356,0.0779999999999745
8,15,68213.6654604596,0.0769999999999982
8,16,68484.7805417975,0.0769999999999982
8,17,68227.8436042584,0.0779999999999745
8,18,68371.5919429767,0.0769999999999982
8,19,68189.5172155658,0.0780000000000314
8,20,68394.7266356323,0.0769999999999982
8,21,68276.8386717925,0.0769999999999982
8,22,68481.9542396265,0.0780000000000314
8,23,68338.8655339236,0.0769999999999982
8,24,68504.7437276353,0.0769999999999982
8,25,68468.1901319597,0.0780000000000314
8,26,68283.1789049989,0.0779999999999745
8,27,68347.2127168325,0.0779999999999745
8,28,68398.6229075375,0.0780000000000314
8,29,68482.5388833954,0.0769999999999982
8,30,68275.4238528183,0.0769999999999982
9,1,70213.9848364787,0.0780000000000314
9,2,69449.9241142784,0.0769999999999982
9,3,68188.7758931817,0.0769999999999982
9,4,69107.1475878142,0.0769999999999982
9,5,68943.5155906458,0.0779999999999745
9,6,68206.0264910187,0.0780000000000314
9,7,69981.6448162882,0.0779999999999745
9,8,69443.4212010139,0.0780000000000314
9,9,70057.0783660731,0.0769999999999982
9,10,70098.3464626884,0.0769999999999982
9,11,67464.6124233455,0.0769999999999982
9,12,67602.1603031497,0.0769999999999982
9,13,68765.2882859593,0.0769999999999982
9,14,70220.7965523408,0.0780000000000314
9,15,70003.6307197647,0.0769999999999982
9,16,70044.2065143785,0.0769999999999982
9,17,69059.1495012634,0.0769999999999982
9,18,69625.2796945287,0.0769999999999982
9,19,69886.1245303085,0.0780000000000314
9,20,70184.6918949375,0.0779999999999745
9,21,70066.8039310976,0.0769999999999982
9,22,69912.5886698297,0.0780000000000314
9,23,69638.317430509,0.0779999999999745
9,24,70109.8685202651,0.0769999999999982
9,25,69936.3344296512,0.0780000000000314
9,26,70073.1441643041,0.0769999999999982
9,27,69020.355166076,0.0779999999999745
9,28,70073.6664327927,0.0769999999999982
9,29,69928.4163713676,0.0780000000000314
9,30,68530.3839810907,0.0769999999999982
10,1,67954.7506721726,0.0779999999999745
10,2,69066.2254853568,0.0780000000000314
10,3,67805.0772642602,0.0779999999999745
10,4,68723.4489588926,0.0779999999999745
10,5,68559.8169617241,0.0769999999999982
10,6,67822.327862097,0.0780000000000314
10,7,69787.3961965677,0.0779999999999745
10,8,69059.7225720923,0.0769999999999982
10,9,70656.901180544,0.0780000000000314
10,10,69714.6478337668,0.0769999999999982
10,11,67080.9137944239,0.0769999999999982
10,12,67218.4616742281,0.0780000000000314
10,13,68381.5896570377,0.0769999999999982
10,14,70205.164805997,0.0779999999999745
10,15,70841.4432299232,0.0769999999999982
10,16,70236.452247007,0.0790000000000077
10,17,68675.4508723418,0.0780000000000314
10,18,69241.5810656072,0.0769999999999982
10,19,69502.4259013869,0.0769999999999982
10,20,70117.5491526851,0.0779999999999745
10,21,70704.2193326668,0.0780000000000314
10,22,70063.1135826761,0.0769999999999982
10,23,69254.6188015874,0.0769999999999982
10,24,70159.4986457967,0.0780000000000314
10,25,69552.6358007297,0.0769999999999982
10,26,70910.9566744625,0.0779999999999745
10,27,68636.6565371544,0.0780000000000314
10,28,69689.9678038711,0.0769999999999982
10,29,69544.717742446,0.0790000000000077
10,30,68146.6853521691,0.0769999999999982
11,1,71303.429914566,0.0769999999999982
11,2,69354.1027112395,0.0780000000000314
11,3,68092.9544901429,0.0779999999999745
11,4,69011.3261847753,0.0780000000000314
11,5,68847.6941876069,0.0769999999999982
11,6,68110.2050879798,0.0769999999999982
11,7,70075.2734224504,0.0779999999999745
11,8,69347.599797975,0.0780000000000314
11,9,70944.7784064267,0.0779999999999745
11,10,70002.5250596495,0.0780000000000314
11,11,67368.7910203066,0.0769999999999982
11,12,67506.3389001108,0.0780000000000314
11,13,68669.4668829204,0.0779999999999745
11,14,70493.0420318797,0.0779999999999745
11,15,71291.6070023908,0.0779999999999745
11,16,70524.3294728897,0.0780000000000314
11,17,68963.3280982245,0.0779999999999745
11,18,69529.4582914899,0.0780000000000314
11,19,69790.3031272696,0.0790000000000077
11,20,70405.4263785678,0.0779999999999745
11,21,70992.0965585495,0.0769999999999982
11,22,70350.9908085588,0.0769999999999982
11,23,69542.4960274701,0.0769999999999982
11,24,70447.3758716794,0.0779999999999745
11,25,69840.5130266123,0.0780000000000314
11,26,71361.1204469301,0.0769999999999982
11,27,68924.5337630371,0.0779999999999745
11,28,69977.8450297538,0.0769999999999982
11,29,69832.5949683286,0.0769999999999982
11,30,68434.5625780518,0.077000000000055
12,1,69309.5094431939,0.0779999999999745
12,2,69265.5756029724,0.0769999999999982
12,3,68004.4273818758,0.0779999999999745
12,4,68922.7990765082,0.0769999999999982
12,5,68759.1670793398,0.0769999999999982
12,6,68021.6779797127,0.0769999999999982
12,7,69303.4099659759,0.0780000000000314
12,8,69259.0726897079,0.0769999999999982
12,9,69152.6029727882,0.0769999999999982
12,10,69355.4657844182,0.0769999999999982
12,11,67280.2639120395,0.0769999999999982
12,12,67417.8117918437,0.0779999999999745
12,13,68580.9397746533,0.0769999999999982
12,14,69316.3211590559,0.0780000000000314
12,15,69099.1553264799,0.0779999999999745
12,16,69370.2704078178,0.0769999999999982
12,17,68874.8009899574,0.0780000000000314
12,18,69257.081808997,0.0769999999999982
12,19,69075.0070815861,0.0769999999999982
12,20,69280.2165016526,0.0780000000000314
12,21,69162.3285378127,0.0779999999999745
12,22,69367.4441056467,0.0779999999999745
12,23,69224.3553999439,0.0769999999999982
12,24,69390.2335936556,0.0780000000000314
12,25,69353.67999798,0.0769999999999982
12,26,69168.6687710192,0.0769999999999982
12,27,68836.00665477,0.0780000000000314
12,28,69284.1127735578,0.0779999999999745
12,29,69368.0287494157,0.0769999999999982
12,30,68346.0354697848,0.0769999999999982
13,1,67804.8257585443,0.0779999999999745
13,2,67874.2244968238,0.0769999999999982
13,3,67791.7226599101,0.0780000000000314
13,4,67610.6427582417,0.0779999999999745
13,5,67909.8466480514,0.0769999999999982
13,6,67729.9988946887,0.0769999999999982
13,7,67798.7262813264,0.0779999999999745
13,8,67771.8573273958,0.0769999999999982
13,9,67647.9192881387,0.0780000000000314
13,10,67850.7820997686,0.0779999999999745
13,11,67536.0895794596,0.0769999999999982
13,12,67579.20749579,0.0780000000000314
13,13,67620.774933414,0.0779999999999745
13,14,67811.6374744063,0.0769999999999982
13,15,67594.4716418303,0.0769999999999982
13,16,67865.5867231682,0.0779999999999745
13,17,67608.6497856291,0.0780000000000314
13,18,67752.3981243474,0.0779999999999745
13,19,67570.3233969365,0.0769999999999982
13,20,67775.532817003,0.0769999999999982
13,21,67657.6448531631,0.0779999999999745
13,22,67862.7604209972,0.0780000000000314
13,23,67719.6717152942,0.0769999999999982
13,24,67885.549909006,0.0769999999999982
13,25,67848.9963133304,0.0779999999999745
13,26,67663.9850863696,0.0780000000000314
13,27,67728.0188982032,0.0779999999999745
13,28,67779.4290889082,0.0780000000000314
13,29,67863.3450647661,0.0790000000000077
13,30,67783.3291891979,0.0780000000000314
14,1,71173.4554123012,0.0779999999999745
14,2,69224.1282089747,0.0779999999999745
14,3,67962.979987878,0.0769999999999982
14,4,68881.3516825105,0.0769999999999982
14,5,68717.719685342,0.0769999999999982
14,6,67980.2305857149,0.0779999999999745
14,7,69945.2989201856,0.0769999999999982
14,8,69217.6252957102,0.0769999999999982
14,9,70814.8039041619,0.0769999999999982
14,10,69872.5505573846,0.0779999999999745
14,11,67238.8165180418,0.0769999999999982
14,12,67376.3643978459,0.0790000000000077
14,13,68539.4923806555,0.0769999999999982
14,14,70363.0675296149,0.0769999999999982
14,15,71484.563594578,0.0779999999999745
14,16,70394.3549706248,0.0769999999999982
14,17,68833.3535959596,0.0780000000000314
14,18,69399.483789225,0.0769999999999982
14,19,69660.3286250047,0.0779999999999745
14,20,70275.451876303,0.0769999999999982
14,21,70862.1220562846,0.0780000000000314
14,22,70221.0163062939,0.0769999999999982
14,23,69412.5215252052,0.0769999999999982
14,24,70317.4013694146,0.0780000000000314
14,25,69710.5385243475,0.0789999999999509
14,26,71554.0770391174,0.0769999999999982
14,27,68794.5592607723,0.0780000000000314
14,28,69847.8705274889,0.0769999999999982
14,29,69702.6204660638,0.0779999999999745
14,30,68304.588075787,0.0769999999999982
15,1,68433.4160572373,0.0780000000000314
15,2,68502.8147955168,0.0779999999999745
15,3,68344.4313267248,0.0769999999999982
15,4,68239.2330569347,0.0780000000000314
15,5,68538.4369467444,0.0769999999999982
15,6,68358.5891933818,0.0769999999999982
15,7,68427.3165800194,0.0779999999999745
15,8,68400.4476260888,0.0780000000000314
15,9,68276.5095868317,0.0769999999999982
15,10,68479.3723984617,0.0769999999999982
15,11,67620.2678568886,0.0780000000000314
15,12,67757.8157366927,0.0769999999999982
15,13,68249.3652321071,0.0769999999999982
15,14,68440.2277730994,0.0779999999999745
15,15,68223.0619405234,0.0769999999999982
15,16,68494.1770218612,0.0780000000000314
15,17,68237.2400843221,0.0779999999999745
15,18,68380.9884230405,0.0780000000000314
15,19,68198.9136956295,0.0779999999999745
15,20,68404.1231156961,0.0780000000000314
15,21,68286.2351518562,0.0779999999999745
15,22,68491.3507196902,0.0780000000000314
15,23,68348.2620139873,0.0769999999999982
15,24,68514.1402076991,0.0769999999999982
15,25,68477.5866120234,0.0780000000000314
15,26,68292.5753850627,0.0779999999999745
15,27,68356.6091968962,0.0769999999999982
15,28,68408.0193876013,0.0769999999999982
15,29,68491.9353634592,0.0780000000000314
15,30,68411.9194878909,0.0779999999999745
16,1,71132.5035458813,0.0769999999999982
16,2,69379.7355588966,0.0769999999999982
16,3,68118.5873378,0.0790000000000077
16,4,69036.9590324324,0.0779999999999745
16,5,68873.327035264,0.0780000000000314
16,6,68135.8379356369,0.0769999999999982
16,7,70100.9062701075,0.0780000000000314
16,8,69373.2326456321,0.0769999999999982
16,9,70527.5033692219,0.0769999999999982
16,10,70028.1579073066,0.0779999999999745
16,11,67394.4238679637,0.0769999999999982
16,12,67531.9717477679,0.0769999999999982
16,13,68695.0997305775,0.0769999999999982
16,14,70518.6748795368,0.0769999999999982
16,15,70922.1494291673,0.0769999999999982
16,16,70549.9623205468,0.0780000000000314
16,17,68988.9609458816,0.0779999999999745
16,18,69555.091139147,0.0769999999999982
16,19,69815.9359749267,0.0780000000000314
16,20,70431.0592262249,0.0769999999999982
16,21,70985.3226405001,0.0779999999999745
16,22,70376.6236562159,0.0769999999999982
16,23,69568.1288751272,0.0780000000000314
16,24,70473.0087193365,0.0769999999999982
16,25,69866.1458742695,0.0779999999999745
16,26,70991.6628737066,0.0769999999999982
16,27,68950.1666106942,0.0780000000000314
16,28,70003.4778774109,0.0769999999999982
16,29,69858.2278159857,0.0779999999999745
16,30,68460.1954257089,0.0779999999999745
17,1,69809.1414055813,0.0769999999999982
17,2,69314.3203863616,0.0769999999999982
17,3,68053.172165265,0.0779999999999745
17,4,68971.5438598974,0.0769999999999982
17,5,68807.911862729,0.0779999999999745
17,6,68070.4227631019,0.077000000000055
17,7,69803.0419283633,0.0769999999999982
17,8,69307.8174730971,0.0779999999999745
17,9,69652.2349351756,0.0780000000000314
17,10,69855.0977468055,0.0769999999999982
17,11,67329.0086954288,0.0779999999999745
17,12,67466.5565752329,0.0780000000000314
17,13,68629.6845580425,0.0769999999999982
17,14,69815.9531214433,0.0779999999999745
17,15,69598.7872888673,0.0780000000000314
17,16,69869.9023702051,0.0779999999999745
17,17,68923.5457733466,0.0769999999999982
17,18,69489.675966612,0.0769999999999982
17,19,69574.6390439734,0.0779999999999745
17,20,69779.84846404,0.0769999999999982
17,21,69661.9605002001,0.0780000000000314
17,22,69867.0760680341,0.0779999999999745
17,23,69502.7137025922,0.0769999999999982
17,24,69889.865556043,0.0769999999999982
17,25,69800.7307017345,0.0780000000000314
17,26,69668.3007334066,0.0769999999999982
17,27,68884.7514381592,0.0780000000000314
17,28,69783.7447359452,0.0779999999999745
17,29,69792.8126434507,0.0780000000000314
17,30,68394.7802531739,0.0769999999999982
18,1,70185.2104851805,0.0769999999999982
18,2,69237.3673519075,0.0780000000000314
18,3,67976.2191308108,0.0779999999999745
18,4,68894.5908254433,0.0769999999999982
18,5,68730.9588282748,0.0780000000000314
18,6,67993.4697286477,0.0779999999999745
18,7,69958.5380631184,0.0779999999999745
18,8,69230.864438643,0.0780000000000314
18,9,70028.3040147749,0.0779999999999745
18,10,69885.7897003175,0.0769999999999982
18,11,67252.0556609746,0.0769999999999982
18,12,67389.6035407788,0.0779999999999745
18,13,68552.7315235884,0.0769999999999982
18,14,70192.0222010426,0.0779999999999745
18,15,69974.8563684666,0.0790000000000077
18,16,70245.9714498044,0.0769999999999982
18,17,68846.5927388925,0.0769999999999982
18,18,69412.7229321579,0.0769999999999982
18,19,69673.5677679376,0.0769999999999982
18,20,70155.9175436393,0.0779999999999745
18,21,70038.0295797994,0.077000000000055
18,22,70234.2554492268,0.0769999999999982
18,23,69425.7606681381,0.0769999999999982
18,24,70265.9346356423,0.0769999999999982
18,25,69723.7776672803,0.0769999999999982
18,26,70044.3698130059,0.0780000000000314
18,27,68807.7984037051,0.0769999999999982
18,28,69861.1096704218,0.0769999999999982
18,29,69715.8596089966,0.0769999999999982
18,30,68317.8272187198,0.0769999999999982
19,1,68490.1164411772,0.0769999999999982
19,2,68559.5151794568,0.0779999999999745
19,3,67956.9090859277,0.0780000000000314
19,4,68295.9334408746,0.0779999999999745
19,5,68595.1373306843,0.0780000000000314
19,6,67974.1596837646,0.0779999999999745
19,7,68484.0169639593,0.0780000000000314
19,8,68457.1480100287,0.0789999999999509
19,9,68333.2099707716,0.0780000000000314
19,10,68536.0727824015,0.0769999999999982
19,11,67232.7456160915,0.0769999999999982
19,12,67370.2934958956,0.0780000000000314
19,13,68306.065616047,0.0769999999999982
19,14,68496.9281570393,0.0779999999999745
19,15,68279.7623244633,0.0769999999999982
19,16,68550.8774058011,0.0769999999999982
19,17,68293.9404682621,0.0779999999999745
19,18,68437.6888069803,0.0780000000000314
19,19,68255.6140795694,0.0769999999999982
19,20,68460.823499636,0.0779999999999745
19,21,68342.9355357961,0.0769999999999982
19,22,68548.0511036301,0.0780000000000314
19,23,68404.9623979272,0.0779999999999745
19,24,68570.840591639,0.0780000000000314
19,25,68534.2869959633,0.0779999999999745
19,26,68349.2757690026,0.0779999999999745
19,27,68413.3095808361,0.0780000000000314
19,28,68464.7197715412,0.0769999999999982
19,29,68548.6357473991,0.0769999999999982
19,30,68144.8266639794,0.0769999999999982
20,1,69006.2093705373,0.0779999999999745
20,2,69075.6081088168,0.0769999999999982
20,3,68069.6419840615,0.0979999999999563
20,4,68812.0263702346,0.116000000000042
20,5,68824.3816815256,0.0860000000000127
20,6,68086.8925818985,0.0779999999999745
20,7,69000.1098933193,0.0780000000000314
20,8,68973.2409393887,0.0779999999999745
20,9,68849.3029001316,0.0769999999999982
20,10,69052.1657117615,0.0780000000000314
20,11,67345.4785142253,0.0790000000000077
20,12,67483.0263940295,0.0779999999999745
20,13,68646.1543768391,0.0769999999999982
20,14,69013.0210863993,0.0780000000000314
20,15,68795.8552538233,0.0779999999999745
20,16,69066.9703351611,0.0779999999999745
20,17,68740.3970191198,0.0780000000000314
20,18,68953.7817363403,0.0779999999999745
20,19,68771.7070089294,0.0780000000000314
20,20,68976.916428996,0.0779999999999745
20,21,68859.0284651561,0.0769999999999982
20,22,69064.1440329901,0.0769999999999982
20,23,68921.0553272872,0.0769999999999982
20,24,69086.933520999,0.0769999999999982
20,25,69050.3799253233,0.0779999999999745
20,26,68865.3686983626,0.077000000000055
20,27,68462.5774246717,0.0779999999999745
20,28,68980.8127009012,0.0769999999999982
20,29,69064.7286767591,0.0779999999999745
20,30,68411.2500719705,0.0769999999999982
21,1,68163.7587356926,0.0780000000000314
21,2,68233.1574739721,0.0769999999999982
21,3,68047.4073188891,0.0769999999999982
21,4,67969.57573539,0.0780000000000314
21,5,68268.7796251997,0.0769999999999982
21,6,68064.657916726,0.0769999999999982
21,7,68157.6592584747,0.0780000000000314
21,8,68130.7903045441,0.0779999999999745
21,9,68006.852265287,0.0769999999999982
21,10,68209.7150769169,0.0780000000000314
21,11,67323.2438490528,0.0769999999999982
21,12,67460.791728857,0.0769999999999982
21,13,67979.7079105624,0.0769999999999982
21,14,68170.5704515546,0.0769999999999982
21,15,67953.4046189787,0.0779999999999745
21,16,68224.5197003165,0.0769999999999982
21,17,67967.5827627774,0.0769999999999982
21,18,68111.3311014957,0.0779999999999745
21,19,67929.2563740848,0.0779999999999745
21,20,68134.4657941513,0.077000000000055
21,21,68016.5778303115,0.0779999999999745
21,22,68221.6933981455,0.0769999999999982
21,23,68078.6046924426,0.0769999999999982
21,24,68244.4828861543,0.0780000000000314
21,25,68207.9292904787,0.0769999999999982
21,26,68022.918063518,0.0779999999999745
21,27,68086.9518753515,0.0769999999999982
21,28,68138.3620660565,0.0769999999999982
21,29,68222.2780419144,0.0779999999999745
21,30,68142.2621663462,0.0780000000000314
22,1,70349.7042795742,0.0779999999999745
22,2,69135.905935633,0.0780000000000314
22,3,67874.7577145364,0.0779999999999745
22,4,68793.1294091688,0.0780000000000314
22,5,68629.4974120004,0.0769999999999982
22,6,67892.0083123733,0.0779999999999745
22,7,69857.076646844,0.0779999999999745
22,8,69129.4030223685,0.077000000000055
22,9,70192.7978091685,0.0779999999999745
22,10,69784.3282840431,0.0769999999999982
22,11,67150.5942447002,0.0769999999999982
22,12,67288.1421245043,0.0780000000000314
22,13,68451.270107314,0.0779999999999745
22,14,70274.8452562733,0.0780000000000314
22,15,70139.3501628602,0.0790000000000077
22,16,69620.9887926376,0.0769999999999982
22,17,68745.1313226181,0.0779999999999745
22,18,69311.2615158835,0.0780000000000314
22,19,69572.1063516632,0.0769999999999982
22,20,70187.2296029614,0.0769999999999982
22,21,70202.523374193,0.0779999999999745
22,22,70132.7940329523,0.0780000000000314
22,23,69324.2992518636,0.0779999999999745
22,24,70229.179096073,0.0769999999999982
22,25,69622.3162510059,0.0769999999999982
22,26,70208.8636073996,0.0779999999999745
22,27,68706.3369874306,0.0780000000000314
22,28,69759.6482541474,0.0779999999999745
22,29,69614.3981927222,0.0790000000000077
22,30,68216.3658024454,0.0769999999999982
23,1,69037.1944224978,0.0769999999999982
23,2,69106.5931607773,0.0769999999999982
23,3,67976.4301603407,0.0779999999999745
23,4,68843.0114221952,0.0769999999999982
23,5,68731.1698578047,0.0780000000000314
23,6,67993.6807581776,0.0769999999999982
23,7,69031.0949452798,0.0779999999999745
23,8,69004.2259913493,0.0769999999999982
23,9,68880.2879520921,0.0769999999999982
23,10,69083.1507637221,0.077000000000055
23,11,67252.2666905044,0.0779999999999745
23,12,67389.8145703086,0.0769999999999982
23,13,68369.3444028891,0.0780000000000314
23,14,69044.0061383598,0.0769999999999982
23,15,68826.8403057838,0.0779999999999745
23,16,69097.9553871216,0.0769999999999982
23,17,68841.0184495826,0.0780000000000314
23,18,68984.7667883009,0.0769999999999982
23,19,68802.6920608899,0.0779999999999745
23,20,69007.9014809565,0.0769999999999982
23,21,68890.0135171166,0.0780000000000314
23,22,69095.1290849506,0.0769999999999982
23,23,68952.0403792477,0.0779999999999745
23,24,69117.9185729595,0.0780000000000314
23,25,69081.3649772838,0.0779999999999745
23,26,68896.3537503231,0.0769999999999982
23,27,68808.0094332349,0.0780000000000314
23,28,69011.7977528617,0.0769999999999982
23,29,69095.7137287196,0.0779999999999745
23,30,68318.0382482496,0.0769999999999982
24,1,68672.5954428302,0.0780000000000314
24,2,68741.9941811097,0.0769999999999982
24,3,68088.8480564446,0.0769999999999982
24,4,68478.4124425276,0.0780000000000314
24,5,68497.3813675451,0.0769999999999982
24,6,68106.0986542816,0.0769999999999982
24,7,68666.4959656122,0.0790000000000077
24,8,68639.6270116817,0.0779999999999745
24,9,68515.6889724246,0.0769999999999982
24,10,68718.5517840545,0.0769999999999982
24,11,67364.6845866084,0.0779999999999745
24,12,67502.2324664125,0.0769999999999982
24,13,68488.5446176999,0.0780000000000314
24,14,68679.4071586922,0.0769999999999982
24,15,68462.2413261162,0.0779999999999745
24,16,68733.3564074541,0.0780000000000314
24,17,68476.419469915,0.0769999999999982
24,18,68620.1678086333,0.0779999999999745
24,19,68438.0930812224,0.0780000000000314
24,20,68643.3025012889,0.0779999999999745
24,21,68525.4145374491,0.0779999999999745
24,22,68730.530105283,0.0780000000000314
24,23,68587.4413995802,0.0779999999999745
24,24,68753.3195932919,0.0769999999999982
24,25,68716.7659976162,0.0780000000000314
24,26,68531.7547706556,0.0779999999999745
24,27,68595.7885824891,0.0769999999999982
24,28,68647.1987731941,0.0780000000000314
24,29,68731.114749052,0.0779999999999745
24,30,68430.4561443536,0.0780000000000314
25,1,67940.7732074083,0.0769999999999982
25,2,68010.1719456878,0.0769999999999982
25,3,67927.6701087741,0.0769999999999982
25,4,67746.5902071057,0.0779999999999745
25,5,68045.7940969154,0.0790000000000077
25,6,67865.9463435528,0.0779999999999745
25,7,67934.6737301903,0.0769999999999982
25,8,67907.8047762598,0.0769999999999982
25,9,67783.8667370027,0.0769999999999982
25,10,67986.7295486326,0.0769999999999982
25,11,67223.9883479191,0.0769999999999982
25,12,67361.5362277233,0.0769999999999982
25,13,67756.722382278,0.0769999999999982
25,14,67947.5849232703,0.0769999999999982
25,15,67730.4190906943,0.0790000000000077
25,16,68001.5341720322,0.0779999999999745
25,17,67744.5972344931,0.0769999999999982
25,18,67888.3455732114,0.0780000000000314
25,19,67706.2708458005,0.0779999999999745
25,20,67911.480265867,0.0769999999999982
25,21,67793.5923020272,0.0780000000000314
25,22,67998.7078698612,0.0769999999999982
25,23,67855.6191641583,0.0779999999999745
25,24,68021.49735787,0.0769999999999982
25,25,67984.9437621944,0.0780000000000314
25,26,67799.9325352337,0.0769999999999982
25,27,67863.9663470672,0.0779999999999745
25,28,67915.3765377722,0.0779999999999745
25,29,67999.2925136301,0.077000000000055
25,30,67919.2766380619,0.0769999999999982
26,1,70093.7818707251,0.0769999999999982
26,2,68767.0998723641,0.0769999999999982
26,3,67505.9516512674,0.0780000000000314
26,4,68424.3233458998,0.0779999999999745
26,5,68260.6913487315,0.0769999999999982
26,6,67523.2022491044,0.0780000000000314
26,7,69488.270583575,0.0779999999999745
26,8,68760.5969590996,0.0769999999999982
26,9,69936.8754003195,0.0780000000000314
26,10,69415.5222207741,0.0769999999999982
26,11,66781.7881814312,0.0780000000000314
26,12,66919.3360612354,0.0779999999999745
26,13,68082.464044045,0.0780000000000314
26,14,69906.0391930044,0.0769999999999982
26,15,69883.4277540111,0.0769999999999982
26,16,69937.3266340143,0.0780000000000314
26,17,68376.3252593491,0.0779999999999745
26,18,68942.4554526145,0.0780000000000314
26,19,69203.3002883942,0.0769999999999982
26,20,69818.4235396924,0.0779999999999745
26,21,69946.600965344,0.0780000000000314
26,22,69763.9879696833,0.0769999999999982
26,23,68955.4931885947,0.0779999999999745
26,24,69860.373032804,0.0780000000000314
26,25,69253.510187737,0.0769999999999982
26,26,69952.9411985505,0.0780000000000314
26,27,68337.5309241617,0.0779999999999745
26,28,69390.8421908784,0.0769999999999982
26,29,69245.5921294533,0.0779999999999745
26,30,67847.5597391764,0.0780000000000314
27,1,71100.086195202,0.0779999999999745
27,2,69150.7589918755,0.0780000000000314
27,3,67889.6107707789,0.0779999999999745
27,4,68807.9824654113,0.0769999999999982
27,5,68644.3504682429,0.0780000000000314
27,6,67906.8613686158,0.0779999999999745
27,7,69871.9297030864,0.0780000000000314
27,8,69144.256078611,0.0779999999999745
27,9,70741.4346870628,0.0780000000000314
27,10,69799.1813402855,0.0780000000000314
27,11,67165.4473009426,0.0780000000000314
27,12,67302.9951807468,0.0779999999999745
27,13,68466.1231635564,0.0780000000000314
27,14,70289.6983125158,0.0769999999999982
27,15,71836.4754095791,0.0769999999999982
27,16,70320.9857535257,0.0769999999999982
27,17,68759.9843788605,0.077000000000055
27,18,69326.1145721259,0.0769999999999982
27,19,69586.9594079056,0.0779999999999745
27,20,70202.0826592039,0.0779999999999745
27,21,70788.7528391855,0.0780000000000314
27,22,70147.6470891948,0.0769999999999982
27,23,69339.1523081061,0.0779999999999745
27,24,70244.0321523154,0.0769999999999982
27,25,69637.1693072483,0.0780000000000314
27,26,71683.7105382941,0.0769999999999982
27,27,68721.1900436731,0.0779999999999745
27,28,69774.5013103898,0.0780000000000314
27,29,69629.2512489647,0.0769999999999982
27,30,68231.2188586878,0.0779999999999745
28,1,69662.9865595131,0.0769999999999982
28,2,69103.2019351899,0.0780000000000314
28,3,67842.0537140933,0.0780000000000314
28,4,68760.4254087257,0.0769999999999982
28,5,68596.7934115573,0.0779999999999745
28,6,67859.3043119301,0.0769999999999982
28,7,69582.9741408227,0.0780000000000314
28,8,69096.6990219254,0.0769999999999982
28,9,69506.0800891075,0.0769999999999982
28,10,69708.9429007374,0.0779999999999745
28,11,67117.890244257,0.0780000000000314
28,12,67255.4381240612,0.0779999999999745
28,13,68418.5661068708,0.0769999999999982
28,14,69669.7982753752,0.0780000000000314
28,15,69452.6324427992,0.0779999999999745
28,16,69723.747524137,0.0780000000000314
28,17,68712.4273221749,0.0779999999999745
28,18,69278.5575154403,0.0769999999999982
28,19,69428.4841979053,0.0780000000000314
28,20,69633.6936179719,0.0769999999999982
28,21,69515.805654132,0.0769999999999982
28,22,69720.921221966,0.0780000000000314
28,23,69291.5952514205,0.0769999999999982
28,24,69743.7107099748,0.0779999999999745
28,25,69589.6122505628,0.0780000000000314
28,26,69522.1458873385,0.0779999999999745
28,27,68673.6329869875,0.0769999999999982
28,28,69637.5898898771,0.0790000000000077
28,29,69180.0675107043,0.0779999999999745
28,30,68183.6618020022,0.0769999999999982
29,1,68605.9802271476,0.0780000000000314
29,2,68675.3789654271,0.0779999999999745
29,3,68077.7399647145,0.0769999999999982
29,4,68411.797226845,0.0780000000000314
29,5,68711.0011166547,0.0779999999999745
29,6,68094.9905625514,0.0780000000000314
29,7,68599.8807499297,0.0769999999999982
29,8,68573.0117959991,0.0769999999999982
29,9,68449.073756742,0.0769999999999982
29,10,68651.9365683719,0.0769999999999982
29,11,67353.5764948783,0.0779999999999745
29,12,67491.1243746824,0.0780000000000314
29,13,68421.9294020174,0.0779999999999745
29,14,68612.7919430096,0.0780000000000314
29,15,68395.6261104337,0.0779999999999745
29,16,68666.7411917715,0.0769999999999982
29,17,68409.8042542324,0.0769999999999982
29,18,68553.5525929507,0.0769999999999982
29,19,68371.4778655398,0.0780000000000314
29,20,68576.6872856063,0.0769999999999982
29,21,68458.7993217665,0.0779999999999745
29,22,68663.9148896005,0.0769999999999982
29,23,68520.8261838976,0.0769999999999982
29,24,68686.7043776093,0.0779999999999745
29,25,68650.1507819337,0.0779999999999745
29,26,68465.139554973,0.077000000000055
29,27,68529.1733668065,0.0779999999999745
29,28,68580.5835575116,0.0769999999999982
29,29,68664.4995333694,0.0779999999999745
29,30,68297.452801513,0.0769999999999982
30,1,70549.0917088392,0.0780000000000314
30,2,69391.9828686012,0.0769999999999982
30,3,68130.8346475046,0.0779999999999745
30,4,69049.206342137,0.0769999999999982
30,5,68885.5743449686,0.0780000000000314
30,6,68148.0852453415,0.0779999999999745
30,7,70113.1535798122,0.0780000000000314
30,8,69385.4799553367,0.0769999999999982
30,9,70392.1852384336,0.0779999999999745
30,10,70040.4052170113,0.0769999999999982
30,11,67406.6711776684,0.0780000000000314
30,12,67544.2190574725,0.0769999999999982
30,13,68707.3470402821,0.0769999999999982
30,14,70530.9221892415,0.0780000000000314
30,15,70338.7375921252,0.0769999999999982
30,16,70562.2096302515,0.0779999999999745
30,17,69001.2082555862,0.0780000000000314
30,18,69567.3384488516,0.0769999999999982
30,19,69828.1832846313,0.0779999999999745
30,20,70443.3065359295,0.0790000000000077
30,21,70401.910803458,0.0769999999999982
30,22,70213.9861918677,0.0779999999999745
30,23,69580.3761848319,0.0769999999999982
30,24,68845.7502053321,0.0769999999999982
30,25,69878.3931839741,0.0779999999999745
30,26,70408.2510366646,0.0769999999999982
30,27,68962.4139203988,0.0780000000000314
30,28,70015.7251871155,0.0769999999999982
30,29,69870.4751256904,0.0769999999999982
30,30,68472.4427354136,0.0780000000000314
