App - AnExplorer
Scenario - explore_files
Length - 0sec
Measure - DTWDistance
Before Version - 53086f3
After Version - d9a7443


"Before.Trace.ID1","Before.Trace.ID2","Difference","Runtime"
1,2,46540.6594684141,0.394999999999982
1,3,123943.398671939,0.360000000000127
1,4,109567.415687331,0.332999999999629
1,5,95281.0280036281,0.361000000000331
1,6,98756.6789629695,0.355999999999767
1,7,797518.356303773,0.346999999999753
1,8,15501.0361045577,0.327000000000226
1,9,53450.0300550757,0.359999999999673
1,10,15549.0167230505,0.327000000000226
1,11,83070.584528117,0.333999999999833
1,12,65968.5000779527,0.332000000000335
1,13,62457.7793511753,0.358999999999924
1,14,78917.0752526268,0.364999999999782
1,15,61556.5604697671,0.390000000000327
1,16,68291.8423508766,0.327999999999975
1,17,96329.1790418517,0.33199999999988
1,18,105880.444735672,0.331000000000131
1,19,65947.3018467473,0.33199999999988
1,20,65168.6974383122,0.335000000000036
1,21,62146.5078733188,0.329999999999927
1,22,58643.4998732953,0.362999999999829
1,23,637405.539717789,0.372000000000298
1,24,45921.324461004,0.358999999999924
1,25,127096.554748495,0.364999999999782
1,26,53377.6625606732,0.358000000000175
1,27,48090.1215280569,0.360000000000127
1,28,15770.1041020752,0.354000000000269
1,29,30252.7350676342,0.359999999999673
1,30,149612.746570675,0.36200000000008
2,3,80334.4993349163,0.354000000000269
2,4,68702.2606756328,0.360999999999876
2,5,136933.276197099,0.360000000000127
2,6,129997.630083129,0.360999999999876
2,7,517649.784860682,0.373000000000047
2,8,35049.2080885674,0.35799999999972
2,9,10697.0424602061,0.351000000000113
2,10,37066.8248815106,0.356000000000222
2,11,17842.1467529496,0.358999999999924
2,12,11636.5523716188,0.356999999999971
2,13,12759.4761386948,0.355000000000018
2,14,17191.255793646,0.358999999999924
2,15,11211.1656085547,0.356000000000222
2,16,12876.4127174885,0.355000000000018
2,17,75015.6595730054,0.360999999999876
2,18,60628.7893623096,0.360999999999876
2,19,16462.9211716661,0.356000000000222
2,20,11015.0002432495,0.327999999999975
2,21,11254.2394455934,0.355999999999767
2,22,13993.4244923935,0.322999999999865
2,23,439395.524981211,0.342000000000098
2,24,26650.457904546,0.356999999999971
2,25,92320.2718314888,0.356000000000222
2,26,36785.0092156335,0.35799999999972
2,27,46700.0710537445,0.359000000000378
2,28,73092.0342602874,0.359999999999673
2,29,35351.4510106979,0.356999999999971
2,30,117609.797609518,0.363000000000284
3,4,18830.7763331538,0.324999999999818
3,5,55631.7938282318,0.356999999999971
3,6,279422.46420155,0.332000000000335
3,7,571944.54766165,0.339999999999691
3,8,115867.31734703,0.329999999999927
3,9,69260.6094963428,0.354000000000269
3,10,102250.802804427,0.36200000000008
3,11,83917.3148307681,0.350999999999658
3,12,75880.6138887761,0.354000000000269
3,13,79823.321669569,0.353999999999814
3,14,79250.0956495714,0.352000000000317
3,15,74410.1774102544,0.350999999999658
3,16,75171.866316721,0.353999999999814
3,17,53837.1761028612,0.352000000000317
3,18,12459.4009094997,0.351999999999862
3,19,77754.0405967853,0.351999999999862
3,20,73910.9525259613,0.349999999999909
3,21,72308.0264246383,0.361000000000331
3,22,78090.9263707591,0.353000000000065
3,23,493940.776199723,0.367999999999938
3,24,58928.1100210256,0.35799999999972
3,25,12810.7952052639,0.324000000000069
3,26,57595.879140892,0.325000000000273
3,27,59483.9861980932,0.360999999999876
3,28,110858.14474274,0.360999999999876
3,29,69531.6401992552,0.329999999999927
3,30,34111.507563584,0.327999999999975
4,5,74078.085239006,0.364000000000033
4,6,250143.890467925,0.360000000000127
4,7,545220.152820076,0.376999999999953
4,8,101992.422099074,0.364000000000033
4,9,55469.8082683389,0.356999999999971
4,10,89300.2668674807,0.33199999999988
4,11,69038.3898531545,0.361000000000331
4,12,60843.1644120801,0.356999999999971
4,13,70017.3458619958,0.360000000000127
4,14,59719.4765603076,0.351999999999862
4,15,57653.890430428,0.355000000000018
4,16,62461.151240279,0.358000000000175
4,17,29418.0600573787,0.351999999999862
4,18,9209.06584006797,0.327000000000226
4,19,64415.9507238174,0.358999999999924
4,20,59485.3686613309,0.356999999999971
4,21,55939.946742428,0.355999999999767
4,22,65769.9642532878,0.358000000000175
4,23,527134.983184372,0.369000000000142
4,24,43880.4196572857,0.360000000000127
4,25,26671.2081986038,0.329999999999927
4,26,43889.6401688457,0.326000000000022
4,27,45885.8317949586,0.335000000000036
4,28,98540.7350747087,0.364999999999782
4,29,53893.2162770696,0.327999999999975
4,30,44962.9669766212,0.327000000000226
5,6,250852.264130681,0.360999999999876
5,7,892763.643943265,0.3449999999998
5,8,107562.384767152,0.329999999999927
5,9,131838.692087744,0.360000000000127
5,10,85535.0342224242,0.355000000000018
5,11,170093.03243491,0.365000000000236
5,12,149557.86928419,0.362999999999829
5,13,150712.336365415,0.367999999999938
5,14,156753.952351112,0.365000000000236
5,15,145538.437915486,0.362999999999829
5,16,151678.056010906,0.365000000000236
5,17,104139.524288118,0.363000000000284
5,18,71865.5454355822,0.359999999999673
5,19,148229.653490222,0.365000000000236
5,20,149010.713531618,0.360999999999876
5,21,146856.718382329,0.360999999999876
5,22,143942.44889961,0.36200000000008
5,23,720509.764679716,0.373000000000047
5,24,100485.059162056,0.358999999999924
5,25,48659.3059854901,0.356999999999971
5,26,103661.390683258,0.359999999999673
5,27,89776.9586307457,0.361000000000331
5,28,68336.0058711035,0.356999999999971
5,29,91296.9797852018,0.360999999999876
5,30,59695.9932583051,0.356000000000222
6,7,695545.251637214,0.375999999999749
6,8,83510.2562419719,0.355000000000018
6,9,144731.907885709,0.364000000000033
6,10,104788.265112805,0.352999999999611
6,11,142318.509392239,0.329000000000178
6,12,138128.774129854,0.327999999999975
6,13,137201.570999478,0.329999999999927
6,14,144364.358330275,0.326999999999771
6,15,137731.09190496,0.329999999999927
6,16,139019.150486246,0.330000000000382
6,17,237076.133616909,0.329999999999927
6,18,250550.413599556,0.327999999999975
6,19,132649.13669819,0.328999999999724
6,20,141086.650174324,0.33199999999988
6,21,152083.434936871,0.333000000000084
6,22,125714.448354593,0.360999999999876
6,23,449909.669900103,0.370000000000346
6,24,161920.465531625,0.365999999999985
6,25,281149.923951164,0.333999999999833
6,26,169538.586807243,0.360999999999876
6,27,171262.335985151,0.364000000000033
6,28,141531.143792957,0.360999999999876
6,29,151284.593696802,0.360000000000127
6,30,335383.972233051,0.359999999999673
7,8,721365.142263414,0.377000000000407
7,9,476354.691966537,0.375
7,10,708139.374045343,0.377999999999702
7,11,421778.359475811,0.374000000000251
7,12,464358.724929298,0.375999999999749
7,13,457985.551067468,0.372000000000298
7,14,431392.067350838,0.346000000000004
7,15,462653.357344712,0.346000000000004
7,16,455421.803913788,0.373000000000047
7,17,626141.266937952,0.347999999999956
7,18,523993.746441501,0.376999999999953
7,19,511538.999880611,0.373000000000047
7,20,458256.736789965,0.376999999999953
7,21,471423.912914999,0.380000000000109
7,22,504277.222685641,0.376000000000204
7,23,281015.747402633,0.364000000000033
7,24,615183.409206254,0.373999999999796
7,25,651025.98177943,0.375
7,26,583393.158397807,0.375
7,27,641958.20387276,0.376000000000204
7,28,897886.664029483,0.380000000000109
7,29,708339.817782398,0.376999999999953
7,30,738917.726876702,0.375999999999749
8,9,42317.6187648921,0.360999999999876
8,10,9727.41600021283,0.351000000000113
8,11,52848.550939449,0.358000000000175
8,12,41203.6723427039,0.355000000000018
8,13,41645.3803348484,0.355000000000018
8,14,53752.9206876167,0.35799999999972
8,15,41016.4823171877,0.356999999999971
8,16,45179.5978128398,0.356999999999971
8,17,118677.371990216,0.360000000000127
8,18,95803.9162257049,0.360000000000127
8,19,37622.1812235462,0.355999999999767
8,20,43000.7093819092,0.355000000000018
8,21,47646.126080072,0.360000000000127
8,22,33420.408660876,0.355999999999767
8,23,540573.970822193,0.369000000000142
8,24,49497.5473718583,0.36200000000008
8,25,118684.678191899,0.360999999999876
8,26,62628.1260746132,0.36200000000008
8,27,60854.7534278283,0.364999999999782
8,28,34571.759911713,0.358999999999924
8,29,44025.9599260999,0.356999999999971
8,30,136903.943526884,0.36200000000008
9,10,42118.5726155743,0.360999999999876
9,11,16811.5774913776,0.355000000000018
9,12,9561.31207796963,0.353999999999814
9,13,11206.8142106337,0.354000000000269
9,14,10707.6593387702,0.353999999999814
9,15,9168.41022852914,0.354000000000269
9,16,12402.1325881891,0.356999999999971
9,17,61932.2046997774,0.35799999999972
9,18,48520.7137532576,0.358000000000175
9,19,17024.254006801,0.358999999999924
9,20,10674.5041928254,0.355000000000018
9,21,6889.78425889847,0.351999999999862
9,22,15279.7254230504,0.325000000000273
9,23,453171.234967176,0.367999999999938
9,24,25431.4633765417,0.333000000000084
9,25,85134.1575004251,0.36200000000008
9,26,28771.3618356101,0.319999999999709
9,27,43833.5540275138,0.334000000000287
9,28,76242.0236711345,0.365000000000236
9,29,36401.0037067917,0.362999999999829
9,30,109750.142402019,0.362999999999829
10,11,66912.3811246291,0.36200000000008
10,12,50200.412524415,0.358999999999924
10,13,49438.4273568182,0.360000000000127
10,14,60202.2851052708,0.360999999999876
10,15,46206.3381532973,0.326000000000022
10,16,52551.108646047,0.329000000000178
10,17,108703.268264942,0.366999999999734
10,18,84641.180376472,0.360000000000127
10,19,49812.6566869022,0.331000000000131
10,20,51092.5463083331,0.324999999999818
10,21,52447.7280217842,0.331000000000131
10,22,45711.0932792525,0.326000000000022
10,23,535307.417974069,0.338999999999942
10,24,41676.2803811042,0.332999999999629
10,25,103652.111081195,0.328000000000429
10,26,56482.2002964083,0.356999999999971
10,27,51434.7587350127,0.329999999999927
10,28,20476.4730264724,0.328999999999724
10,29,37987.8506679378,0.326000000000022
10,30,121681.27296911,0.335000000000036
11,12,8059.65314239525,0.343000000000302
11,13,10765.740235503,0.322999999999865
11,14,11683.375053791,0.320999999999913
11,15,11673.5162541314,0.349999999999909
11,16,8305.95805705581,0.322000000000116
11,17,100656.397283182,0.324999999999818
11,18,57724.8351628731,0.320000000000164
11,19,8718.64658336937,0.28899999999976
11,20,7395.30524802764,0.318000000000211
11,21,13889.5183712125,0.355000000000018
11,22,9603.59308620433,0.31899999999996
11,23,375209.761743444,0.367999999999938
11,24,43894.760758388,0.360999999999876
11,25,102025.586195279,0.360999999999876
11,26,51554.9340753093,0.360000000000127
11,27,64063.8752136583,0.362999999999829
11,28,113744.250894443,0.365000000000236
11,29,62021.8881461352,0.360999999999876
11,30,131010.551797502,0.36200000000008
12,13,11798.605012463,0.31899999999996
12,14,11678.5527024331,0.321999999999662
12,15,4452.52845099447,0.318000000000211
12,16,7807.69732621089,0.351999999999862
12,17,85082.5373682553,0.322000000000116
12,18,52295.6799231928,0.320000000000164
12,19,7343.81743859391,0.382000000000062
12,20,4251.60920037958,0.351999999999862
12,21,8289.0711259264,0.356999999999971
12,22,7415.29556180316,0.351000000000113
12,23,398187.986517123,0.368999999999687
12,24,31703.2833127198,0.327999999999975
12,25,92032.9193992626,0.330000000000382
12,26,43125.5967509595,0.326999999999771
12,27,52774.8430572834,0.329999999999927
12,28,93299.5376992382,0.33600000000024
12,29,47101.9262478743,0.329999999999927
12,30,117897.62469322,0.331000000000131
13,14,16770.9141226879,0.350999999999658
13,15,12194.0396078207,0.352000000000317
13,16,7874.28830052741,0.34900000000016
13,17,87706.9800753595,0.353999999999814
13,18,56815.7233572485,0.351999999999862
13,19,13018.9315716561,0.34900000000016
13,20,9138.99371805551,0.351999999999862
13,21,11514.2753600012,0.356000000000222
13,22,11192.0023342286,0.348999999999705
13,23,375615.487081464,0.367999999999938
13,24,38919.6208042903,0.358000000000175
13,25,98244.7009100238,0.351000000000113
13,26,42590.2871664254,0.354000000000269
13,27,57780.147928433,0.358999999999924
13,28,93631.6339869158,0.360999999999876
13,29,52857.3437413519,0.356999999999971
13,30,124287.467541449,0.356999999999971
14,15,10742.7387072049,0.34900000000016
14,16,10524.1450195127,0.351000000000113
14,17,89466.839280457,0.356999999999971
14,18,54187.7875260557,0.355000000000018
14,19,13317.8576951646,0.352000000000317
14,20,11261.3102114777,0.355000000000018
14,21,9571.82197596137,0.355000000000018
14,22,14594.2884849351,0.353999999999814
14,23,381887.338221777,0.371000000000095
14,24,36241.4663529882,0.358999999999924
14,25,94075.7976049519,0.355999999999767
14,26,40886.3829345795,0.351999999999862
14,27,56290.3163847658,0.331000000000131
14,28,102684.580019382,0.362999999999829
14,29,52635.7258632523,0.359000000000378
14,30,121779.060164719,0.361999999999625
15,16,7451.902258567,0.352000000000317
15,17,75637.595092351,0.354000000000269
15,18,50291.514789597,0.352999999999611
15,19,10454.5505105768,0.351000000000113
15,20,4808.73200179767,0.348999999999705
15,21,6821.45705138104,0.353000000000065
15,22,9069.02874549069,0.351000000000113
15,23,395815.430729986,0.369999999999891
15,24,29199.8813473855,0.358999999999924
15,25,89661.5998709922,0.358000000000175
15,26,40916.7814373974,0.356999999999971
15,27,49208.4127355475,0.359999999999673
15,28,88300.7469019923,0.36200000000008
15,29,43866.5117709906,0.356999999999971
15,30,114903.625713322,0.358000000000175
16,17,86514.807152607,0.353999999999814
16,18,52717.8787580203,0.352000000000317
16,19,9155.60909870544,0.34900000000016
16,20,6262.83675409185,0.348999999999705
16,21,9822.6383455597,0.355000000000018
16,22,8076.32336435754,0.350000000000364
16,23,388050.879222151,0.369999999999891
16,24,30548.0665617217,0.359000000000378
16,25,90587.2662131544,0.355000000000018
16,26,39268.2830215048,0.355999999999767
16,27,49951.7210888153,0.360999999999876
16,28,94327.0955835272,0.365999999999985
16,29,48130.267822861,0.358000000000175
16,30,119183.461085074,0.330000000000382
17,18,30677.2308329068,0.350999999999658
17,19,94354.2802226615,0.320999999999913
17,20,75701.5889632448,0.293999999999869
17,21,57516.6902243117,0.322000000000116
17,22,97002.4833712402,0.327000000000226
17,23,605372.649924841,0.336999999999989
17,24,47221.4048586904,0.33199999999988
17,25,63462.9545922214,0.36200000000008
17,26,31547.3443524826,0.393000000000029
17,27,31360.1067531408,0.328999999999724
17,28,105046.557144357,0.364000000000033
17,29,46023.9522429647,0.360000000000127
17,30,107115.217840782,0.360999999999876
18,19,53415.7472130812,0.352000000000317
18,20,49000.7965873374,0.323999999999614
18,21,47831.7016257691,0.322000000000116
18,22,56125.6101453885,0.324999999999818
18,23,451935.497078479,0.367999999999938
18,24,37132.5132811253,0.326000000000022
18,25,20107.5668911687,0.320999999999913
18,26,38284.7056212486,0.356999999999971
18,27,38360.9114565131,0.329000000000178
18,28,95092.3759096854,0.360999999999876
18,29,48050.9143866345,0.356999999999971
18,30,43540.2273182244,0.353999999999814
19,20,6733.17149559551,0.354000000000269
19,21,13639.3085443613,0.356999999999971
19,22,4020.88503932479,0.349999999999909
19,23,424725.542501101,0.369999999999891
19,24,31173.9564560712,0.35799999999972
19,25,91205.5673865931,0.326999999999771
19,26,42139.0674357221,0.355000000000018
19,27,51181.9085248984,0.360000000000127
19,28,90789.5580994771,0.365000000000236
19,29,45911.3437457404,0.358999999999924
19,30,115126.818222923,0.355999999999767
20,21,6223.62827405158,0.349999999999909
20,22,6219.10861791738,0.349999999999909
20,23,398658.380019818,0.373000000000047
20,24,29148.1012750423,0.36200000000008
20,25,90111.857130137,0.356000000000222
20,26,39026.3784148883,0.35799999999972
20,27,49385.2197494251,0.360000000000127
20,28,91521.9985082761,0.360999999999876
20,29,44211.9784597518,0.358999999999924
20,30,116514.55157393,0.356999999999971
21,22,13552.5083875794,0.351999999999862
21,23,460494.934093802,0.369000000000142
21,24,26582.2751832963,0.360999999999876
21,25,89018.8546429251,0.360000000000127
21,26,31014.9985411124,0.351999999999862
21,27,44818.2918426895,0.36200000000008
21,28,87045.1064408503,0.36200000000008
21,29,35843.8363943384,0.361000000000331
21,30,114184.50734308,0.359999999999673
22,23,428455.639342832,0.368000000000393
22,24,32857.4552614581,0.35799999999972
22,25,93083.036816949,0.354000000000269
22,26,41869.198434735,0.355000000000018
22,27,52099.0305499771,0.359999999999673
22,28,85002.8638866579,0.394000000000233
22,29,46763.6330453493,0.326000000000022
22,30,117404.329486225,0.33199999999988
23,24,521285.340352798,0.340000000000146
23,25,579818.492968047,0.337999999999738
23,26,534580.870503059,0.338000000000193
23,27,589483.935857275,0.340000000000146
23,28,707032.095745507,0.375999999999749
23,29,586888.254936433,0.373000000000047
23,30,618169.131314123,0.367000000000189
24,25,57198.358147876,0.351999999999862
24,26,20264.9186105668,0.355000000000018
24,27,16175.1116103829,0.360000000000127
24,28,50023.4787848833,0.364000000000033
24,29,11397.8359788968,0.356000000000222
24,30,86063.9913007054,0.356999999999971
25,26,68483.5823462599,0.355000000000018
25,27,58110.9806137991,0.351999999999862
25,28,104591.01536185,0.360999999999876
25,29,73763.7695791808,0.356000000000222
25,30,33780.1664758516,0.352000000000317
26,27,15305.8710778257,0.351999999999862
26,28,60560.8002974445,0.367999999999938
26,29,21680.1780889552,0.360999999999876
26,30,92700.0626333139,0.356999999999971
27,28,43974.9777051107,0.360000000000127
27,29,16044.0160285533,0.389000000000124
27,30,87906.7758280682,0.327999999999975
28,29,33927.0044547795,0.33199999999988
28,30,122287.147320761,0.335000000000036
29,30,90092.310855396,0.324999999999818


"After.Trace.ID","Before.Trace.ID","Difference","Runtime"
1,1,42457.306002688,0.331000000000131
1,2,18353.1199872439,0.322999999999865
1,3,66792.2377167193,0.358999999999924
1,4,51830.5691675029,0.364000000000033
1,5,105254.22463737,0.362999999999829
1,6,144262.049716475,0.363000000000284
1,7,607274.625981853,0.376999999999953
1,8,36095.0425084278,0.364000000000033
1,9,20541.9489093634,0.363000000000284
1,10,33935.2502081083,0.36200000000008
1,11,34432.7456758274,0.359999999999673
1,12,24738.8996234113,0.363000000000284
1,13,28991.5180902888,0.356999999999971
1,14,28153.0472956707,0.358999999999924
1,15,22808.4805997374,0.360000000000127
1,16,22966.1079690706,0.358999999999924
1,17,56944.1154259176,0.360000000000127
1,18,43643.5507066867,0.360000000000127
1,19,22191.2407051892,0.359999999999673
1,20,22909.8421563618,0.359000000000378
1,21,21009.6626301865,0.362999999999829
1,22,23065.2842314377,0.360000000000127
1,23,508527.125136537,0.37099999999964
1,24,6506.51571112744,0.353000000000065
1,25,63752.7517372969,0.359000000000378
1,26,26162.9713225035,0.360999999999876
1,27,22459.5079413702,0.360000000000127
1,28,47835.0950647234,0.362999999999829
1,29,16149.2151953785,0.357000000000426
1,30,93719.0120245502,0.359999999999673
2,1,52423.7167146109,0.36200000000008
2,2,31326.6269105524,0.358999999999924
2,3,69806.3729388854,0.356999999999971
2,4,46318.4608948455,0.36200000000008
2,5,112690.979707243,0.364000000000033
2,6,158609.970564015,0.362999999999829
2,7,588520.783723695,0.376000000000204
2,8,55471.0159216364,0.333999999999833
2,9,31321.5843579177,0.360000000000127
2,10,52207.9387663491,0.358000000000175
2,11,48497.0708824489,0.364000000000033
2,12,39240.2258022706,0.360999999999876
2,13,41769.3359518081,0.356999999999971
2,14,40668.2854794615,0.362999999999829
2,15,36085.2567085845,0.363000000000284
2,16,35439.9198157548,0.358999999999924
2,17,36590.7683324256,0.36200000000008
2,18,45819.8054646946,0.359999999999673
2,19,37082.0580295686,0.360000000000127
2,20,34688.8705987809,0.362999999999829
2,21,28487.9596118011,0.363000000000284
2,22,37627.8809419406,0.358000000000175
2,23,504024.889945474,0.373000000000047
2,24,9515.72986898179,0.353000000000065
2,25,69486.8455277114,0.358999999999924
2,26,15168.3402666439,0.355000000000018
2,27,11908.2745826735,0.358999999999924
2,28,60776.1949744546,0.365999999999985
2,29,16299.3796353688,0.356999999999971
2,30,96767.8225661794,0.358999999999924
3,1,89567.4271848695,0.367999999999938
3,2,196536.469660764,0.373000000000047
3,3,275809.278396854,0.371000000000095
3,4,242902.864456741,0.340999999999894
3,5,150028.847376763,0.365000000000236
3,6,236677.533500538,0.364000000000033
3,7,1467620.62146487,0.384000000000015
3,8,140375.765906063,0.362999999999829
3,9,214687.418511787,0.374000000000251
3,10,138053.966094786,0.367999999999938
3,11,286577.101697058,0.375
3,12,268309.051874624,0.374000000000251
3,13,256420.103392465,0.371000000000095
3,14,276456.230540446,0.373000000000047
3,15,264681.919970898,0.375
3,16,259224.079342701,0.373999999999796
3,17,247190.877995408,0.372000000000298
3,18,267838.559795938,0.373000000000047
3,19,253302.834787389,0.375
3,20,259670.398512542,0.375
3,21,225005.048936718,0.369999999999891
3,22,234361.627962274,0.369000000000142
3,23,1228045.48987433,0.348999999999705
3,24,183773.428432954,0.335000000000036
3,25,253620.229453536,0.337999999999738
3,26,167580.308106092,0.338000000000193
3,27,152127.64244033,0.334000000000287
3,28,93683.801527043,0.328999999999724
3,29,146813.565903131,0.343000000000302
3,30,252104.453833515,0.336999999999989
4,1,65287.7295190431,0.330999999999676
4,2,129282.846883248,0.367999999999938
4,3,223950.508838676,0.394000000000233
4,4,193350.202013087,0.340000000000146
4,5,143573.23154252,0.331000000000131
4,6,187358.82259666,0.336999999999989
4,7,1318872.99737077,0.381999999999607
4,8,95174.9126133774,0.363000000000284
4,9,140892.525079966,0.336999999999989
4,10,100703.887375053,0.361000000000331
4,11,202521.06068872,0.337999999999738
4,12,183429.915853486,0.365999999999985
4,13,176760.091993873,0.336999999999989
4,14,190496.626316949,0.338000000000193
4,15,179968.75633732,0.365999999999985
4,16,179178.00051405,0.367000000000189
4,17,200236.34155355,0.366999999999734
4,18,210798.372641905,0.37099999999964
4,19,171276.63738648,0.371000000000095
4,20,175245.948396263,0.367999999999938
4,21,146466.629831087,0.335000000000036
4,22,157652.90641503,0.338999999999942
4,23,1056960.19226637,0.378000000000156
4,24,139853.4097625,0.330999999999676
4,25,216867.453766335,0.338999999999942
4,26,129527.84843091,0.336999999999989
4,27,133998.742131753,0.338000000000193
4,28,82341.3281184826,0.397999999999683
4,29,118687.421846815,0.336999999999989
4,30,218803.920056587,0.367999999999938
5,1,65450.5344179163,0.36200000000008
5,2,13076.6996341973,0.356999999999971
5,3,78197.5837049702,0.353999999999814
5,4,61705.9262025918,0.358000000000175
5,5,151654.208471691,0.362999999999829
5,6,139151.33336567,0.36200000000008
5,7,452591.980405002,0.374000000000251
5,8,43570.8991106214,0.35799999999972
5,9,13836.8877771836,0.358000000000175
5,10,51345.5439382931,0.360000000000127
5,11,10167.9511420787,0.351999999999862
5,12,7910.56592120163,0.31899999999996
5,13,10549.2121579967,0.352000000000317
5,14,12701.3456881508,0.353999999999814
5,15,6274.6706707873,0.349999999999909
5,16,5371.95818030197,0.317000000000007
5,17,80670.6122179668,0.325000000000273
5,18,53694.8569947523,0.351000000000113
5,19,10185.3033741614,0.321999999999662
5,20,6893.69464107257,0.318000000000211
5,21,10185.1109875854,0.293999999999869
5,22,9583.89420050049,0.320000000000164
5,23,392851.540502795,0.333999999999833
5,24,31704.5032971296,0.293999999999869
5,25,90997.3721693329,0.326999999999771
5,26,44206.2854407491,0.326000000000022
5,27,51793.4178464312,0.327999999999975
5,28,95056.1245072175,0.33600000000024
5,29,48756.3743688925,0.360000000000127
5,30,116899.566993554,0.329999999999927
6,1,93220.6191735422,0.360999999999876
6,2,144013.500457985,0.335000000000036
6,3,237632.729073136,0.340000000000146
6,4,206512.969539351,0.367999999999938
6,5,168549.52245228,0.367000000000189
6,6,223613.897261017,0.369000000000142
6,7,1142843.65056228,0.380999999999858
6,8,126238.485729722,0.369000000000142
6,9,158132.755143837,0.367999999999938
6,10,136558.030515991,0.366999999999734
6,11,209912.205500103,0.370000000000346
6,12,202734.525366205,0.368999999999687
6,13,191201.352676662,0.365999999999985
6,14,210332.917073669,0.338000000000193
6,15,204651.344104729,0.365999999999985
6,16,193259.193114385,0.367000000000189
6,17,220862.140264908,0.366999999999734
6,18,222990.412487468,0.369000000000142
6,19,185430.056150471,0.371000000000095
6,20,190114.869628652,0.368999999999687
6,21,158059.595473017,0.370000000000346
6,22,171967.77617985,0.367999999999938
6,23,1088823.13057269,0.382000000000062
6,24,159591.727540057,0.369999999999891
6,25,232873.554082618,0.373000000000047
6,26,145025.420473839,0.369999999999891
6,27,154240.98166929,0.372000000000298
6,28,115150.978530165,0.371000000000095
6,29,141578.51496201,0.369999999999891
6,30,232609.011961768,0.371999999999844
7,1,61252.8104986008,0.365000000000236
7,2,17459.3060199987,0.35799999999972
7,3,60521.4818422881,0.356000000000222
7,4,43650.3856999028,0.356999999999971
7,5,129715.321477217,0.367999999999938
7,6,160443.727168756,0.364999999999782
7,7,477166.182183446,0.376000000000204
7,8,50801.1010265567,0.360999999999876
7,9,12313.9836025273,0.355999999999767
7,10,50420.9185495046,0.358999999999924
7,11,19189.8267083372,0.355000000000018
7,12,13013.0166654073,0.351000000000113
7,13,19331.0757394275,0.353999999999814
7,14,16156.7617985504,0.356999999999971
7,15,11352.8566272811,0.347999999999956
7,16,13885.7427151919,0.354000000000269
7,17,48230.038493901,0.324999999999818
7,18,35488.6904355821,0.347000000000207
7,19,14183.8243843458,0.353999999999814
7,20,9986.22906553593,0.34900000000016
7,21,8704.68187117426,0.353000000000065
7,22,15592.064803268,0.355999999999767
7,23,416437.82795195,0.374000000000251
7,24,14983.9196716853,0.35799999999972
7,25,73530.8587282977,0.360999999999876
7,26,25931.1690463222,0.361000000000331
7,27,31452.4070795183,0.360999999999876
7,28,74162.3228440549,0.364999999999782
7,29,25566.1489486302,0.360999999999876
7,30,97118.1988986,0.358000000000175
8,1,106125.871846643,0.365999999999985
8,2,59027.7196546404,0.358999999999924
8,3,17014.1017960782,0.31899999999996
8,4,8294.72466055585,0.322999999999865
8,5,79213.3220678879,0.327999999999975
8,6,246240.276065908,0.329000000000178
8,7,516805.837771652,0.346000000000004
8,8,95584.390532217,0.363000000000284
8,9,46539.1611734825,0.326999999999771
8,10,85111.3939965799,0.329999999999927
8,11,54939.6483445864,0.353000000000065
8,12,49835.1238463337,0.351000000000113
8,13,55269.3955302884,0.31899999999996
8,14,51551.1047530258,0.320000000000164
8,15,47916.9736189426,0.31899999999996
8,16,50414.9701228475,0.353000000000065
8,17,26393.7012770389,0.320999999999913
8,18,4304.66056296372,0.346999999999753
8,19,51692.8533250932,0.34900000000016
8,20,46733.6885381856,0.353999999999814
8,21,44997.4849358175,0.356000000000222
8,22,53893.1764594956,0.354999999999563
8,23,449059.1678093,0.371000000000095
8,24,36409.9912631045,0.363000000000284
8,25,25662.5620493051,0.355000000000018
8,26,37296.0078570729,0.35799999999972
8,27,37594.8785707889,0.361000000000331
8,28,96639.0633329789,0.365999999999985
8,29,47067.1053551467,0.361999999999625
8,30,48771.2133285469,0.358000000000175
9,1,68952.8783606437,0.365999999999985
9,2,15111.3677933748,0.356999999999971
9,3,80705.8389298858,0.35799999999972
9,4,62036.696669418,0.358000000000175
9,5,154963.702538749,0.365999999999985
9,6,133345.777665731,0.364000000000033
9,7,456527.82695402,0.376999999999953
9,8,42362.2875140898,0.36200000000008
9,9,12439.6170512115,0.353000000000065
9,10,52125.0945177868,0.361000000000331
9,11,8511.06770222109,0.356999999999971
9,12,5748.56444698194,0.352999999999611
9,13,15611.2471849361,0.357000000000426
9,14,9966.5899888381,0.354999999999563
9,15,5454.85356218424,0.353999999999814
9,16,8825.70775349078,0.354000000000269
9,17,86534.35129416,0.356999999999971
9,18,54922.7447858146,0.353000000000065
9,19,7851.92545473944,0.351000000000113
9,20,6736.68712300029,0.351999999999862
9,21,10812.9245954154,0.356999999999971
9,22,8426.99503041613,0.355000000000018
9,23,404972.681025348,0.371000000000095
9,24,34991.0075730357,0.358999999999924
9,25,94777.4620676113,0.360000000000127
9,26,48738.8742453547,0.359999999999673
9,27,56515.4429451853,0.363000000000284
9,28,98742.5995660841,0.362999999999829
9,29,50344.7893362028,0.358999999999924
9,30,120107.379337477,0.356999999999971
10,1,59204.2864243157,0.362999999999829
10,2,101634.600892355,0.365000000000236
10,3,196834.588944284,0.364000000000033
10,4,172753.767581808,0.340999999999894
10,5,138150.098628035,0.369000000000142
10,6,159294.3094461,0.368999999999687
10,7,1249029.8747278,0.352000000000317
10,8,66474.45411745,0.328999999999724
10,9,116940.302248331,0.367000000000189
10,10,82447.7866208491,0.360000000000127
10,11,153951.229464504,0.332999999999629
10,12,141959.140782434,0.334000000000287
10,13,136269.686269066,0.364000000000033
10,14,157065.240027097,0.335000000000036
10,15,143093.301928415,0.33199999999988
10,16,140812.16395518,0.36200000000008
10,17,205242.878755337,0.335999999999785
10,18,182805.843729215,0.335999999999785
10,19,128365.867788193,0.36200000000008
10,20,136355.184292284,0.364000000000033
10,21,120902.522680544,0.364999999999782
10,22,115222.143237743,0.360000000000127
10,23,947918.352508863,0.375
10,24,124202.757822086,0.368999999999687
10,25,195735.030289983,0.367000000000189
10,26,118812.276358421,0.367000000000189
10,27,126058.624521681,0.365999999999985
10,28,78610.3035486833,0.366999999999734
10,29,111296.043376092,0.369999999999891
10,30,198915.609775406,0.370000000000346
11,1,73818.8890240732,0.362999999999829
11,2,15871.6522481501,0.360000000000127
11,3,85002.0217168043,0.353999999999814
11,4,69595.9322316626,0.358999999999924
11,5,166175.536726317,0.363000000000284
11,6,137596.800266216,0.360999999999876
11,7,466323.604566541,0.373999999999796
11,8,49444.3031493701,0.358999999999924
11,9,14087.9887800099,0.354000000000269
11,10,60371.0024427956,0.356999999999971
11,11,9140.8904207583,0.320999999999913
11,12,6338.65159165316,0.351000000000113
11,13,15140.7685190157,0.321999999999662
11,14,8006.7564916744,0.352000000000317
11,15,7856.37338577196,0.319999999999709
11,16,9455.51299692214,0.353000000000065
11,17,95147.4106249631,0.356999999999971
11,18,61783.3520724823,0.322999999999865
11,19,10268.6330635901,0.324000000000069
11,20,8496.33596952485,0.352000000000317
11,21,12376.7738429532,0.353999999999814
11,22,9514.69580712068,0.322000000000116
11,23,407050.291393657,0.339999999999691
11,24,40846.2254914134,0.361000000000331
11,25,102323.431005762,0.327000000000226
11,26,50576.6993268426,0.35799999999972
11,27,63126.7108772371,0.331000000000131
11,28,109884.171672933,0.364000000000033
11,29,56551.8613192985,0.330999999999676
11,30,128951.773977888,0.361000000000331
12,1,71489.5587229239,0.359999999999673
12,2,14824.8342532327,0.327000000000226
12,3,87447.8930589653,0.324999999999818
12,4,74047.1376273126,0.360999999999876
12,5,165687.384953628,0.363000000000284
12,6,133825.544483877,0.333000000000084
12,7,438465.45271877,0.342999999999847
12,8,46236.3624412759,0.360000000000127
12,9,13262.6227094886,0.351999999999862
12,10,59536.0914795496,0.327999999999975
12,11,6932.12619423555,0.320000000000164
12,12,7856.50889325931,0.31899999999996
12,13,8141.63781732123,0.315999999999804
12,14,14774.6489120351,0.316000000000258
12,15,10047.1770622955,0.289999999999964
12,16,10020.0327956407,0.315999999999804
12,17,97815.2914073227,0.324000000000069
12,18,62343.6946004043,0.322000000000116
12,19,11556.8924574542,0.353999999999814
12,20,7585.72456386251,0.352000000000317
12,21,11751.892408467,0.321999999999662
12,22,9625.75680707311,0.324000000000069
12,23,379036.738199894,0.369999999999891
12,24,45475.595904937,0.359000000000378
12,25,107157.829516359,0.356999999999971
12,26,51343.4636067489,0.361999999999625
12,27,67015.658550781,0.364000000000033
12,28,106858.338574204,0.365999999999985
12,29,60653.1757527126,0.360000000000127
12,30,134461.952626139,0.360999999999876
13,1,107425.977356035,0.364000000000033
13,2,59956.7100306875,0.358000000000175
13,3,14354.5132331539,0.355999999999767
13,4,10196.238237013,0.355000000000018
13,5,73300.9333073686,0.365000000000236
13,6,255159.067498236,0.365999999999985
13,7,524024.323087699,0.375999999999749
13,8,100591.467883882,0.367000000000189
13,9,46462.1171055022,0.355000000000018
13,10,88622.5432087265,0.365999999999985
13,11,64947.7636050352,0.356999999999971
13,12,55667.697741956,0.358000000000175
13,13,62063.6725547888,0.355000000000018
13,14,53591.9107007805,0.321999999999662
13,15,54235.3042774845,0.321000000000367
13,16,55755.2708677931,0.352999999999611
13,17,29857.1269981713,0.320000000000164
13,18,9800.19775100987,0.351999999999862
13,19,60703.1114886734,0.389000000000124
13,20,55279.598903094,0.329999999999927
13,21,50430.2390243204,0.353000000000065
13,22,60876.2206996531,0.360000000000127
13,23,503524.19100185,0.371999999999844
13,24,42735.6620981295,0.364000000000033
13,25,25345.0574952527,0.362999999999829
13,26,38461.0618248184,0.360999999999876
13,27,44953.1138171065,0.363000000000284
13,28,99466.3287649466,0.367999999999938
13,29,53163.0064586093,0.394999999999982
13,30,46258.6224923676,0.324000000000069
14,1,80578.3469895508,0.321000000000367
14,2,87964.4577623153,0.324000000000069
14,3,27903.9863674773,0.322000000000116
14,4,35445.851371431,0.329999999999927
14,5,21786.8453655235,0.322999999999865
14,6,231605.822015635,0.358000000000175
14,7,717863.30687001,0.378999999999905
14,8,85705.8905736282,0.360999999999876
14,9,84783.952390756,0.364000000000033
14,10,67572.6230266119,0.360999999999876
14,11,112154.067909823,0.36200000000008
14,12,96203.6421002849,0.361000000000331
14,13,96997.2588413851,0.360999999999876
14,14,103894.172238086,0.36200000000008
14,15,94194.3921470669,0.362999999999829
14,16,95837.9323151122,0.391000000000076
14,17,62839.79109644,0.326999999999771
14,18,32490.0174002223,0.322000000000116
14,19,95858.8249080434,0.325000000000273
14,20,95744.3059280157,0.324999999999818
14,21,94674.7492624619,0.329999999999927
14,22,94166.0430375803,0.324999999999818
14,23,581605.766184961,0.371000000000095
14,24,60536.9743437169,0.361000000000331
14,25,27426.1641378433,0.35799999999972
14,26,64718.996672395,0.360000000000127
14,27,57488.2760789305,0.36200000000008
14,28,59654.8954363449,0.359999999999673
14,29,57916.935296487,0.359000000000378
14,30,46518.3223462716,0.359999999999673
15,1,67126.0680355446,0.361000000000331
15,2,12833.7598569569,0.356999999999971
15,3,72299.0156778295,0.351999999999862
15,4,56857.8470139114,0.355999999999767
15,5,146471.355986511,0.364999999999782
15,6,146011.699951259,0.363000000000284
15,7,480242.176134129,0.378999999999905
15,8,45330.1932990311,0.358000000000175
15,9,11683.1989361539,0.356999999999971
15,10,51954.0072680986,0.358999999999924
15,11,14057.1490761908,0.353000000000065
15,12,5306.13335934225,0.346999999999753
15,13,15144.5076368973,0.354000000000269
15,14,12834.8910336264,0.356999999999971
15,15,5724.73773943525,0.317000000000007
15,16,9794.30237542723,0.322000000000116
15,17,75599.9159194365,0.322999999999865
15,18,47566.2548564527,0.319999999999709
15,19,10001.7840200582,0.357000000000426
15,20,5235.1572857571,0.351999999999862
15,21,7769.82171052741,0.324000000000069
15,22,10420.5792619832,0.322999999999865
15,23,419013.629964293,0.403999999999996
15,24,25810.3571092104,0.364999999999782
15,25,86939.9750773905,0.356000000000222
15,26,37705.3632633987,0.329999999999927
15,27,47174.5684090321,0.358999999999924
15,28,89263.408408586,0.333000000000084
15,29,40919.0022745879,0.325000000000273
15,30,112677.23365769,0.360999999999876
16,1,126021.006464622,0.364000000000033
16,2,73705.8925748862,0.324999999999818
16,3,7419.60982575899,0.347999999999956
16,4,15813.8401756822,0.354000000000269
16,5,68564.5785191672,0.356999999999971
16,6,280884.847181474,0.365000000000236
16,7,541062.223569098,0.376999999999953
16,8,116940.304339615,0.364999999999782
16,9,62309.0775278178,0.355000000000018
16,10,103513.5648463,0.365000000000236
16,11,77660.0978740157,0.355999999999767
16,12,69006.726942597,0.353000000000065
16,13,75528.0949485396,0.356999999999971
16,14,71000.0888193303,0.356999999999971
16,15,67966.2363052816,0.355000000000018
16,16,71080.9909275499,0.358000000000175
16,17,49033.1644075761,0.355000000000018
16,18,11537.5517628843,0.353999999999814
16,19,75640.220271943,0.356000000000222
16,20,68557.681007229,0.355000000000018
16,21,64331.0121985352,0.35799999999972
16,22,75112.0785373377,0.356999999999971
16,23,482449.457646897,0.370000000000346
16,24,56640.9749059781,0.363000000000284
16,25,18459.281923398,0.35799999999972
16,26,55082.0869553222,0.358999999999924
16,27,58948.5208882073,0.333000000000084
16,28,114799.307084379,0.363000000000284
16,29,66935.3699605906,0.356999999999971
16,30,40122.271719359,0.355000000000018
17,1,89163.4455300316,0.355000000000018
17,2,127266.620892214,0.360999999999876
17,3,38979.9831310679,0.356999999999971
17,4,47557.4127454541,0.364000000000033
17,5,15231.9506854106,0.355000000000018
17,6,259654.703293494,0.360999999999876
17,7,880304.71074318,0.381999999999607
17,8,122752.255919835,0.369000000000142
17,9,115312.860988986,0.364000000000033
17,10,86541.0693734169,0.355000000000018
17,11,165739.68670634,0.365999999999985
17,12,140523.936913236,0.364000000000033
17,13,143257.164644678,0.36200000000008
17,14,147904.711609283,0.364000000000033
17,15,133478.837066959,0.364000000000033
17,16,138993.578307277,0.36200000000008
17,17,64271.782531861,0.356999999999971
17,18,46262.1930493118,0.358999999999924
17,19,142883.430810109,0.365000000000236
17,20,137697.409432722,0.36200000000008
17,21,131791.10398289,0.365999999999985
17,22,140350.464127833,0.360999999999876
17,23,737919.08880164,0.373000000000047
17,24,76832.0368426593,0.363000000000284
17,25,36527.0579581045,0.359999999999673
17,26,74403.8890756526,0.361000000000331
17,27,62889.8820622891,0.389999999999873
17,28,64303.686926905,0.326000000000022
17,29,75941.8522738558,0.327999999999975
17,30,66893.9038633563,0.324999999999818
18,1,53635.4789984951,0.330000000000382
18,2,14970.4805813351,0.324999999999818
18,3,67276.8956219293,0.320000000000164
18,4,54234.0768882084,0.360999999999876
18,5,127252.583279777,0.36200000000008
18,6,142421.35731801,0.364000000000033
18,7,485538.258867079,0.375
18,8,40068.4797356286,0.360999999999876
18,9,12037.7167621793,0.351999999999862
18,10,42076.2893449739,0.36200000000008
18,11,17970.4653196329,0.352999999999611
18,12,15640.3163722015,0.353000000000065
18,13,9752.59975665598,0.351000000000113
18,14,19970.0168465628,0.356000000000222
18,15,14756.6605468768,0.356999999999971
18,16,13819.3510585257,0.355000000000018
18,17,60541.7769628722,0.358999999999924
18,18,41051.2726842374,0.354000000000269
18,19,13619.8155184939,0.353000000000065
18,20,10061.4380552934,0.353000000000065
18,21,10412.8045131703,0.355999999999767
18,22,13352.0021914239,0.353000000000065
18,23,397659.563037076,0.372000000000298
18,24,21420.1533818507,0.35799999999972
18,25,81074.6683381949,0.354000000000269
18,26,29455.1794240099,0.322999999999865
18,27,37343.0706715076,0.329000000000178
18,28,69066.1471749904,0.361999999999625
18,29,33552.0873543097,0.360000000000127
18,30,106640.556216858,0.358999999999924
19,1,64447.8800643412,0.360000000000127
19,2,12041.5271989909,0.358000000000175
19,3,72137.6171418478,0.351999999999862
19,4,57077.7953027858,0.358000000000175
19,5,145073.270494138,0.364000000000033
19,6,139023.678177723,0.361999999999625
19,7,475330.18796673,0.374000000000251
19,8,41982.1858810739,0.327999999999975
19,9,10026.8886065915,0.319999999999709
19,10,48402.8497832507,0.325000000000273
19,11,10954.0075853251,0.31899999999996
19,12,4957.56341277933,0.317000000000007
19,13,12048.2091166951,0.31899999999996
19,14,8956.18494439993,0.320000000000164
19,15,4164.25794747277,0.317000000000007
19,16,5879.58176406654,0.315999999999804
19,17,82621.796475692,0.322000000000116
19,18,48787.9575473853,0.320999999999913
19,19,9030.13771445156,0.322000000000116
19,20,5437.36567582552,0.31899999999996
19,21,8475.2468895562,0.324999999999818
19,22,7358.45710911918,0.320999999999913
19,23,410621.948939843,0.401000000000295
19,24,29084.8555811323,0.360999999999876
19,25,87565.5195535335,0.331000000000131
19,26,39312.8218368468,0.358999999999924
19,27,48426.745354915,0.358999999999924
19,28,88832.9586282433,0.362999999999829
19,29,44045.3200743362,0.358000000000175
19,30,112830.700952864,0.358000000000175
20,1,62540.2288064556,0.359999999999673
20,2,13804.8053702655,0.355000000000018
20,3,78033.2072541183,0.354000000000269
20,4,61590.679770561,0.35799999999972
20,5,144371.597477053,0.360000000000127
20,6,132244.219995279,0.359999999999673
20,7,503262.142132784,0.374000000000251
20,8,37479.4957814911,0.35799999999972
20,9,14233.2828743531,0.325000000000273
20,10,47302.1607185823,0.326000000000022
20,11,12841.2190738098,0.353999999999814
20,12,6038.89128706843,0.349999999999909
20,13,17621.7747462739,0.354000000000269
20,14,13154.8078255319,0.353000000000065
20,15,6660.84484019484,0.351999999999862
20,16,10916.0861500024,0.356999999999971
20,17,91943.2773852213,0.355000000000018
20,18,53344.8645491004,0.320999999999913
20,19,7276.27934275373,0.322999999999865
20,20,6953.02113843297,0.382999999999811
20,21,12798.7500095078,0.361000000000331
20,22,6527.95049978609,0.351999999999862
20,23,433829.197951937,0.373000000000047
20,24,29241.3580434108,0.358000000000175
20,25,89561.1252684385,0.359999999999673
20,26,44102.533010469,0.327999999999975
20,27,50616.7545028438,0.332000000000335
20,28,87445.7891350968,0.360999999999876
20,29,43282.2629683791,0.360999999999876
20,30,113768.774541016,0.33199999999988
21,1,70966.8614430152,0.36200000000008
21,2,16961.2459479824,0.355999999999767
21,3,80177.3657920342,0.351000000000113
21,4,63254.9117620051,0.35799999999972
21,5,154696.245986724,0.36200000000008
21,6,136153.190074637,0.362999999999829
21,7,470528.720293378,0.371000000000095
21,8,43359.8310898323,0.360000000000127
21,9,16332.0474207539,0.352999999999611
21,10,55019.2080714415,0.359000000000378
21,11,6982.89056062689,0.349999999999909
21,12,6546.54468996396,0.353999999999814
21,13,14117.8730783387,0.354000000000269
21,14,10480.2826962045,0.352999999999611
21,15,7588.13600478021,0.356000000000222
21,16,9482.58926185588,0.355000000000018
21,17,93629.1111000284,0.360000000000127
21,18,51889.9220228959,0.355000000000018
21,19,6013.91040217881,0.352999999999611
21,20,5724.60016509054,0.352000000000317
21,21,11995.3828312585,0.356999999999971
21,22,7135.40302218164,0.355000000000018
21,23,406015.686718995,0.371999999999844
21,24,34535.3274178352,0.391999999999825
21,25,92809.8816701045,0.325000000000273
21,26,46452.3269867606,0.327999999999975
21,27,54847.2334567043,0.329000000000178
21,28,97780.3938117518,0.333000000000084
21,29,50521.297012166,0.329999999999927
21,30,120220.871518653,0.329999999999927
22,1,18609.3948920849,0.355000000000018
22,2,30471.5605544349,0.360999999999876
22,3,92625.0761001564,0.358000000000175
22,4,85787.0297385677,0.362999999999829
22,5,90184.0476307099,0.355000000000018
22,6,115512.698738528,0.358999999999924
22,7,667213.932479707,0.376999999999953
22,8,17626.2599211486,0.353000000000065
22,9,32788.5925282336,0.358999999999924
22,10,13309.4530634332,0.353000000000065
22,11,56705.4103647379,0.360999999999876
22,12,44774.4014657922,0.358000000000175
22,13,35617.0716586951,0.354000000000269
22,14,49351.8472962538,0.359999999999673
22,15,42769.3959112236,0.358999999999924
22,16,43676.9430940113,0.359000000000378
22,17,97038.8770146046,0.361999999999625
22,18,77721.9660454072,0.359000000000378
22,19,44313.5340911254,0.358999999999924
22,20,44808.5454133026,0.355000000000018
22,21,42164.3475202625,0.358000000000175
22,22,38612.9137378404,0.326000000000022
22,23,501444.743611998,0.337999999999738
22,24,39105.2329299938,0.393000000000029
22,25,101045.893799384,0.332000000000335
22,26,43755.5116817053,0.35799999999972
22,27,49082.9174050501,0.365999999999985
22,28,27436.2588202055,0.364000000000033
22,29,36276.985766073,0.356999999999971
22,30,118469.387752881,0.36200000000008
23,1,59129.8752708407,0.394000000000233
23,2,13363.4834344701,0.317999999999756
23,3,77412.1893620377,0.320999999999913
23,4,62114.3718443236,0.326000000000022
23,5,147877.779916766,0.33199999999988
23,6,138216.947959504,0.328000000000429
23,7,499427.409142026,0.340999999999894
23,8,40477.4825651881,0.356999999999971
23,9,12771.8827827519,0.353999999999814
23,10,46845.6686266011,0.354000000000269
23,11,12545.7316586083,0.350999999999658
23,12,8053.84927742742,0.350000000000364
23,13,12866.5043333798,0.348999999999705
23,14,13182.2221477828,0.353000000000065
23,15,6480.17937417108,0.347999999999956
23,16,7928.67200553376,0.351999999999862
23,17,69994.8245304686,0.357000000000426
23,18,52290.4075779609,0.351999999999862
23,19,8940.0011135661,0.351000000000113
23,20,5355.28359323171,0.348999999999705
23,21,9115.12472547951,0.355000000000018
23,22,9224.23478191447,0.354000000000269
23,23,430408.091638439,0.373000000000047
23,24,28176.1212286753,0.362999999999829
23,25,89357.7550734274,0.358000000000175
23,26,38570.3351010844,0.358000000000175
23,27,47655.516221839,0.362999999999829
23,28,88177.8703476597,0.367000000000189
23,29,40116.4907473614,0.364000000000033
23,30,117716.310933092,0.361999999999625
24,1,68946.6288740073,0.363000000000284
24,2,17488.7708367997,0.360999999999876
24,3,82054.7699595731,0.355000000000018
24,4,67074.6049278267,0.362999999999829
24,5,157075.044684504,0.367000000000189
24,6,128579.737986664,0.364999999999782
24,7,454019.053895562,0.377000000000407
24,8,41862.6241227977,0.359999999999673
24,9,17792.5477135747,0.356999999999971
24,10,54888.1609986027,0.358000000000175
24,11,7945.72885479762,0.351999999999862
24,12,8823.72373846407,0.353000000000065
24,13,13915.9845306006,0.319999999999709
24,14,10159.7115288771,0.318000000000211
24,15,10304.206926628,0.320000000000164
24,16,7999.24541845545,0.349999999999909
24,17,101714.191304584,0.324000000000069
24,18,57369.43088868,0.320999999999913
24,19,7599.15212585851,0.382999999999811
24,20,9380.67830994935,0.354000000000269
24,21,17417.2460504339,0.359999999999673
24,22,7823.65767612465,0.351000000000113
24,23,385514.947736113,0.365999999999985
24,24,39538.0636307705,0.331000000000131
24,25,96683.5415879845,0.322999999999865
24,26,50359.9302434999,0.327000000000226
24,27,59295.8754656016,0.329000000000178
24,28,100652.4283288,0.335999999999785
24,29,57072.0894202109,0.332000000000335
24,30,123282.802427746,0.332999999999629
25,1,23671.2394363261,0.354000000000269
25,2,50582.7838349516,0.36200000000008
25,3,125518.6473326,0.360999999999876
25,4,113235.330820994,0.364999999999782
25,5,104818.390706972,0.356999999999971
25,6,82863.0598842606,0.355000000000018
25,7,709241.216850809,0.376999999999953
25,8,8242.95246030356,0.353000000000065
25,9,58657.8510300401,0.361000000000331
25,10,12933.4861808145,0.348999999999705
25,11,67643.9219524493,0.361000000000331
25,12,57709.3324231843,0.358000000000175
25,13,57609.4877855655,0.360999999999876
25,14,66026.1851066985,0.360999999999876
25,15,58176.6499181371,0.358999999999924
25,16,60416.8282835943,0.359000000000378
25,17,157401.962472864,0.364000000000033
25,18,108110.254763573,0.360999999999876
25,19,53192.5526159088,0.356999999999971
25,20,60478.1715372088,0.360999999999876
25,21,70594.9057040442,0.364000000000033
25,22,47414.1128154869,0.355999999999767
25,23,535642.006714408,0.402000000000044
25,24,64927.1267709123,0.330999999999676
25,25,128454.623045225,0.331000000000131
25,26,79963.0864613347,0.330999999999676
25,27,75547.6598875162,0.333000000000084
25,28,37923.2779753496,0.328999999999724
25,29,62263.7602796656,0.329999999999927
25,30,147490.044890188,0.36200000000008
26,1,118242.148101697,0.365000000000236
26,2,81333.8577409825,0.360999999999876
26,3,147460.287816412,0.358999999999924
26,4,125655.069358099,0.358999999999924
26,5,223503.830206899,0.365999999999985
26,6,221398.383177371,0.367000000000189
26,7,573786.326773801,0.376999999999953
26,8,115760.399279374,0.364000000000033
26,9,79560.467117217,0.360999999999876
26,10,124220.386643076,0.363000000000284
26,11,78238.279627555,0.355000000000018
26,12,75340.7614044164,0.358000000000175
26,13,85591.7449929212,0.358999999999924
26,14,81018.6076207881,0.356999999999971
26,15,74775.9465015476,0.329999999999927
26,16,80509.9016206989,0.353000000000065
26,17,60204.9096288963,0.355000000000018
26,18,121324.949399254,0.358999999999924
26,19,75510.2033868067,0.360000000000127
26,20,73610.3636852656,0.358000000000175
26,21,74206.337788044,0.360999999999876
26,22,80609.563346027,0.35799999999972
26,23,552929.801259393,0.373000000000047
26,24,97890.2562031115,0.364000000000033
26,25,148870.640186413,0.360000000000127
26,26,95994.0702875963,0.358000000000175
26,27,102679.825044832,0.36200000000008
26,28,163968.556109741,0.365999999999985
26,29,96976.3230880399,0.364999999999782
26,30,186069.07138761,0.365000000000236
27,1,73055.3554442006,0.356999999999971
27,2,87460.342775207,0.364999999999782
27,3,38874.4981687319,0.360000000000127
27,4,34675.1394926708,0.358999999999924
27,5,20598.4483049488,0.353000000000065
27,6,218265.117646092,0.35799999999972
27,7,746379.515494522,0.378000000000156
27,8,76946.0428593638,0.358999999999924
27,9,80454.3413874987,0.365000000000236
27,10,57882.2833245141,0.353999999999814
27,11,110148.49283456,0.333000000000084
27,12,94255.5843982205,0.359999999999673
27,13,97668.118517333,0.360000000000127
27,14,95716.7154638721,0.358000000000175
27,15,90072.5524263979,0.360999999999876
27,16,95457.2098724542,0.360000000000127
27,17,58966.6359414281,0.35799999999972
27,18,35938.9499872032,0.356000000000222
27,19,93235.2124780016,0.36200000000008
27,20,93934.781038451,0.359999999999673
27,21,91575.9354392931,0.360999999999876
27,22,91679.0230326414,0.359000000000378
27,23,604147.265683285,0.369999999999891
27,24,57173.9721775532,0.361000000000331
27,25,34517.3141658517,0.361000000000331
27,26,58891.5426728501,0.361999999999625
27,27,52696.4125940746,0.363000000000284
27,28,50155.9765032225,0.36200000000008
27,29,55128.3713617763,0.361999999999625
27,30,54383.3597006811,0.356999999999971
28,1,70202.5069344014,0.359000000000378
28,2,93471.696399745,0.362999999999829
28,3,46504.8040755624,0.360999999999876
28,4,44509.4552988261,0.364000000000033
28,5,17859.0302902424,0.355000000000018
28,6,218248.088640774,0.358000000000175
28,7,806198.270276915,0.382000000000062
28,8,78399.2617909019,0.360999999999876
28,9,88903.2976055512,0.364000000000033
28,10,58067.9879590875,0.356999999999971
28,11,124446.720737294,0.397000000000389
28,12,105052.505901589,0.327999999999975
28,13,106267.370715519,0.329999999999927
28,14,111669.984667471,0.327999999999975
28,15,101680.483052295,0.330000000000382
28,16,106002.179676793,0.331000000000131
28,17,66092.7114981505,0.331000000000131
28,18,45043.6204904386,0.358999999999924
28,19,104784.054697633,0.36200000000008
28,20,105930.896539643,0.36200000000008
28,21,103722.264007436,0.364999999999782
28,22,101431.347373253,0.363000000000284
28,23,647242.957342262,0.371000000000095
28,24,65021.3004735099,0.364000000000033
28,25,42458.4820012728,0.361999999999625
28,26,67166.3630421616,0.359000000000378
28,27,58157.6869225168,0.363999999999578
28,28,48296.7043763386,0.360999999999876
28,29,60155.1188786208,0.361000000000331
28,30,63233.7698375904,0.360999999999876
29,1,23612.4255442051,0.355999999999767
29,2,48702.2752490302,0.36200000000008
29,3,79416.9543636384,0.360999999999876
29,4,65227.8315090166,0.363000000000284
29,5,75184.1087846134,0.356999999999971
29,6,142995.639151928,0.360000000000127
29,7,716082.3296813,0.377999999999702
29,8,40810.3115516963,0.356999999999971
29,9,49824.3631285486,0.364999999999782
29,10,29922.0046427459,0.356999999999971
29,11,78791.1607799063,0.365000000000236
29,12,61994.7857205877,0.360999999999876
29,13,63521.0296545288,0.358000000000175
29,14,67531.5007739277,0.329999999999927
29,15,57655.1904945003,0.355999999999767
29,16,61372.9909590075,0.327999999999975
29,17,46032.2207667119,0.331000000000131
29,18,60425.304546006,0.358999999999924
29,19,61729.1518231719,0.360999999999876
29,20,60671.5203916106,0.360000000000127
29,21,54045.677172861,0.36200000000008
29,22,58899.6197276481,0.35799999999972
29,23,565174.9275448,0.371000000000095
29,24,25081.4479669448,0.358999999999924
29,25,82272.718417133,0.329999999999927
29,26,23016.0314461714,0.329000000000178
29,27,16086.4439696199,0.356000000000222
29,28,21568.6205110198,0.326999999999771
29,29,15454.9345695214,0.355000000000018
29,30,101394.902903993,0.327999999999975
30,1,73397.0569265503,0.361999999999625
30,2,20784.4325652816,0.355000000000018
30,3,94632.4142166211,0.357000000000426
30,4,74500.5871812339,0.358999999999924
30,5,169915.100028841,0.365999999999985
30,6,125901.813251743,0.364000000000033
30,7,424360.370568171,0.375
30,8,45422.9545765013,0.360999999999876
30,9,19312.8580169652,0.324000000000069
30,10,59141.9020023901,0.359999999999673
30,11,8407.33663688299,0.347000000000207
30,12,9209.46675074301,0.356999999999971
30,13,20327.7956847457,0.358000000000175
30,14,11261.4329671047,0.353000000000065
30,15,9603.94129754218,0.355999999999767
30,16,13151.4171344577,0.355999999999767
30,17,97447.3552829759,0.358999999999924
30,18,66982.3284609976,0.358000000000175
30,19,11643.07235961,0.356999999999971
30,20,10841.0726829841,0.355000000000018
30,21,16162.3594053499,0.358999999999924
30,22,12630.6742656693,0.358000000000175
30,23,359647.261944085,0.371000000000095
30,24,46595.9639614721,0.360000000000127
30,25,108351.758884828,0.35799999999972
30,26,59018.3818879594,0.330000000000382
30,27,68125.1105617008,0.332999999999629
30,28,110195.196733476,0.365000000000236
30,29,59312.2488077689,0.35799999999972
30,30,136613.54569824,0.360000000000127
