"Before.Trace.ID1","Before.Trace.ID2","Difference","Runtime"
1,2,1746,0.484
1,3,1744,0.345000000000001
1,4,1748,0.239
1,5,1749,0.266
1,6,1748,0.229000000000001
1,7,1746,0.273999999999999
1,8,1745,0.237
1,9,1748,0.239000000000001
1,10,1749,0.272
1,11,1748,0.237
1,12,1739,0.237
1,13,1747,0.235999999999999
1,14,1748,0.237
1,15,1747,0.271999999999998
1,16,1746,0.237
1,17,1747,0.239000000000001
1,18,1748,0.236000000000001
1,19,1749,0.238
1,20,1748,0.235999999999999
1,21,1748,0.238999999999999
1,22,1747,0.237
1,23,1748,0.237
1,24,1744,0.236000000000001
1,25,1749,0.238999999999999
1,26,1748,0.274000000000001
1,27,1747,0.236000000000001
1,28,1746,0.237
1,29,1748,0.235999999999999
1,30,1746,0.239000000000001
2,3,1738,0.27
2,4,1728,0.235000000000001
2,5,1743,0.237
2,6,1736,0.234999999999999
2,7,1738,0.234999999999999
2,8,1733,0.271000000000001
2,9,1723,0.235000000000001
2,10,1744,0.235999999999997
2,11,1735,0.234000000000002
2,12,1739,0.236999999999998
2,13,1722,0.234000000000002
2,14,1742,0.234999999999999
2,15,1733,0.234000000000002
2,16,1733,0.236000000000001
2,17,1731,0.234999999999999
2,18,1747,0.237000000000002
2,19,1740,0.27
2,20,1735,0.234999999999999
2,21,1709,0.236000000000001
2,22,1742,0.234999999999999
2,23,1733,0.236000000000001
2,24,1725,0.27
2,25,1712,0.234999999999999
2,26,1743,0.236999999999998
2,27,1728,0.234000000000002
2,28,1742,0.236000000000001
2,29,1739,0.271000000000001
2,30,1724,0.234999999999999
3,4,1732,0.236999999999998
3,5,1746,0.234999999999999
3,6,1743,0.237000000000002
3,7,1731,0.233000000000001
3,8,1744,0.234999999999999
3,9,1738,0.235000000000003
3,10,1746,0.238
3,11,1745,0.234999999999999
3,12,1743,0.236000000000001
3,13,1736,0.272000000000002
3,14,1742,0.236999999999998
3,15,1742,0.238
3,16,1742,0.238
3,17,1743,0.240000000000002
3,18,1740,0.271000000000001
3,19,1743,0.233999999999998
3,20,1736,0.237000000000002
3,21,1732,0.233999999999998
3,22,1747,0.236000000000001
3,23,1721,0.271000000000001
3,24,1739,0.233999999999998
3,25,1735,0.237000000000002
3,26,1744,0.234999999999999
3,27,1736,0.236999999999998
3,28,1745,0.234000000000002
3,29,1731,0.236000000000001
3,30,1737,0.234999999999999
4,5,1746,0.238
4,6,1739,0.234000000000002
4,7,1735,0.236999999999998
4,8,1728,0.271000000000001
4,9,1713,0.233999999999998
4,10,1741,0.234999999999999
4,11,1727,0.233999999999998
4,12,1740,0.237000000000002
4,13,1726,0.271000000000001
4,14,1732,0.233999999999998
4,15,1739,0.236000000000001
4,16,1738,0.234999999999999
4,17,1728,0.236999999999998
4,18,1737,0.27
4,19,1733,0.234999999999999
4,20,1739,0.236000000000001
4,21,1716,0.233999999999998
4,22,1721,0.236000000000001
4,23,1728,0.233999999999998
4,24,1732,0.234999999999999
4,25,1718,0.233999999999995
4,26,1747,0.237000000000002
4,27,1724,0.234999999999999
4,28,1736,0.235999999999997
4,29,1727,0.270000000000003
4,30,1725,0.235999999999997
5,6,1746,0.234999999999999
5,7,1745,0.233999999999995
5,8,1748,0.237000000000002
5,9,1732,0.270000000000003
5,10,1739,0.234999999999999
5,11,1742,0.236999999999995
5,12,1749,0.234000000000002
5,13,1740,0.235999999999997
5,14,1747,0.270000000000003
5,15,1731,0.234999999999999
5,16,1743,0.235999999999997
5,17,1736,0.234999999999999
5,18,1746,0.237000000000002
5,19,1748,0.233000000000004
5,20,1744,0.235999999999997
5,21,1734,0.234999999999999
5,22,1749,0.235999999999997
5,23,1746,0.234000000000002
5,24,1748,0.236999999999995
5,25,1747,0.270000000000003
5,26,1749,0.234999999999999
5,27,1746,0.235999999999997
5,28,1737,0.234000000000002
5,29,1747,0.236000000000004
5,30,1744,0.271000000000001
6,7,1736,0.234999999999999
6,8,1740,0.237000000000002
6,9,1739,0.233999999999995
6,10,1743,0.237000000000002
6,11,1731,0.270000000000003
6,12,1746,0.234999999999999
6,13,1738,0.236999999999995
6,14,1745,0.234000000000002
6,15,1730,0.237000000000002
6,16,1745,0.232999999999997
6,17,1740,0.234999999999999
6,18,1737,0.235999999999997
6,19,1739,0.236000000000004
6,20,1739,0.234999999999999
6,21,1739,0.235999999999997
6,22,1743,0.270000000000003
6,23,1742,0.234999999999999
6,24,1741,0.235999999999997
6,25,1745,0.234000000000002
6,26,1739,0.237000000000002
6,27,1742,0.269999999999996
6,28,1739,0.235000000000007
6,29,1744,0.235999999999997
6,30,1742,0.234999999999999
7,8,1740,0.235999999999997
7,9,1737,0.269999999999996
7,10,1745,0.234999999999999
7,11,1733,0.236000000000004
7,12,1747,0.234999999999999
7,13,1738,0.237000000000002
7,14,1743,0.233999999999995
7,15,1743,0.236000000000004
7,16,1749,0.234999999999999
7,17,1736,0.235999999999997
7,18,1742,0.233999999999995
7,19,1742,0.237000000000002
7,20,1743,0.271000000000001
7,21,1721,0.234999999999999
7,22,1748,0.236000000000004
7,23,1736,0.234999999999999
7,24,1741,0.236999999999995
7,25,1733,0.270000000000003
7,26,1744,0.234999999999999
7,27,1747,0.237000000000002
7,28,1743,0.233999999999995
7,29,1742,0.234999999999999
7,30,1741,0.271000000000001
8,9,1738,0.234999999999999
8,10,1748,0.237000000000002
8,11,1734,0.234999999999999
8,12,1740,0.235999999999997
8,13,1727,0.234000000000002
8,14,1748,0.235999999999997
8,15,1740,0.236000000000004
8,16,1743,0.235999999999997
8,17,1741,0.234999999999999
8,18,1744,0.236000000000004
8,19,1729,0.269999999999996
8,20,1734,0.234999999999999
8,21,1739,0.236000000000004
8,22,1746,0.234999999999999
8,23,1738,0.237000000000002
8,24,1713,0.269999999999996
8,25,1733,0.233999999999995
8,26,1734,0.236000000000004
8,27,1734,0.235999999999997
8,28,1748,0.234999999999999
8,29,1737,0.269999999999996
8,30,1744,0.234999999999999
9,10,1737,0.237000000000002
9,11,1728,0.234000000000002
9,12,1737,0.236999999999995
9,13,1732,0.233000000000004
9,14,1736,0.237000000000002
9,15,1741,0.233999999999995
9,16,1736,0.237000000000002
9,17,1722,0.234000000000002
9,18,1743,0.237000000000002
9,19,1731,0.270999999999994
9,20,1745,0.235000000000007
9,21,1730,0.236999999999995
9,22,1737,0.234999999999999
9,23,1728,0.236000000000004
9,24,1734,0.271000000000001
9,25,1723,0.234999999999999
9,26,1739,0.235999999999997
9,27,1720,0.235000000000007
9,28,1740,0.235999999999997
9,29,1735,0.271000000000001
9,30,1735,0.234000000000002
10,11,1729,0.236999999999995
10,12,1738,0.234999999999999
10,13,1738,0.237000000000002
10,14,1744,0.234000000000002
10,15,1742,0.235999999999997
10,16,1745,0.234999999999999
10,17,1741,0.236000000000004
10,18,1749,0.234999999999999
10,19,1731,0.235999999999997
10,20,1744,0.269999999999996
10,21,1733,0.234000000000002
10,22,1741,0.23599999999999
10,23,1742,0.234999999999999
10,24,1742,0.237000000000009
10,25,1743,0.269999999999996
10,26,1738,0.233999999999995
10,27,1738,0.236999999999995
10,28,1733,0.234999999999999
10,29,1745,0.236000000000004
10,30,1738,0.269999999999996
11,12,1745,0.235000000000014
11,13,1735,0.236999999999995
11,14,1731,0.234999999999999
11,15,1736,0.236000000000004
11,16,1743,0.233999999999995
11,17,1731,0.236000000000004
11,18,1745,0.234000000000009
11,19,1735,0.236999999999995
11,20,1742,0.233999999999995
11,21,1718,0.236000000000004
11,22,1735,0.269999999999996
11,23,1729,0.234999999999999
11,24,1736,0.236000000000004
11,25,1740,0.236000000000004
11,26,1741,0.23599999999999
11,27,1735,0.271000000000001
11,28,1735,0.234000000000009
11,29,1738,0.236999999999995
11,30,1734,0.233999999999995
12,13,1744,0.234999999999999
12,14,1739,0.271000000000001
12,15,1739,0.234999999999999
12,16,1734,0.236999999999995
12,17,1744,0.234999999999999
12,18,1748,0.236000000000004
12,19,1738,0.234000000000009
12,20,1741,0.236999999999995
12,21,1741,0.234999999999999
12,22,1741,0.236999999999995
12,23,1739,0.234999999999999
12,24,1749,0.237000000000009
12,25,1724,0.269999999999996
12,26,1741,0.234999999999999
12,27,1737,0.236000000000004
12,28,1747,0.234999999999999
12,29,1727,0.23599999999999
12,30,1742,0.27600000000001
13,14,1738,0.234999999999999
13,15,1728,0.237000000000009
13,16,1734,0.234999999999999
13,17,1730,0.236000000000004
13,18,1747,0.27000000000001
13,19,1720,0.236999999999995
13,20,1738,0.236999999999995
13,21,1721,0.234999999999999
13,22,1739,0.236000000000004
13,23,1744,0.23299999999999
13,24,1728,0.237000000000009
13,25,1724,0.234999999999999
13,26,1733,0.236999999999995
13,27,1741,0.234000000000009
13,28,1728,0.23899999999999
13,29,1736,0.272000000000006
13,30,1740,0.236000000000004
14,15,1735,0.236999999999995
14,16,1736,0.234999999999999
14,17,1744,0.236000000000004
14,18,1737,0.271000000000001
14,19,1736,0.234999999999999
14,20,1743,0.236999999999995
14,21,1730,0.236000000000004
14,22,1737,0.238
14,23,1740,0.271999999999991
14,24,1747,0.237000000000009
14,25,1744,0.23599999999999
14,26,1747,0.234999999999999
14,27,1734,0.237000000000009
14,28,1744,0.233999999999995
14,29,1739,0.236000000000004
14,30,1738,0.233999999999995
15,16,1742,0.236999999999995
15,17,1737,0.234000000000009
15,18,1737,0.237000000000009
15,19,1738,0.269999999999996
15,20,1744,0.233999999999995
15,21,1730,0.236999999999995
15,22,1746,0.234999999999999
15,23,1741,0.237000000000009
15,24,1734,0.271000000000001
15,25,1735,0.234999999999999
15,26,1733,0.236999999999995
15,27,1735,0.234999999999999
15,28,1737,0.236000000000004
15,29,1742,0.271000000000001
15,30,1725,0.234999999999999
16,17,1734,0.236999999999995
16,18,1740,0.234000000000009
16,19,1746,0.236000000000004
16,20,1743,0.234999999999999
16,21,1736,0.236000000000004
16,22,1743,0.234999999999999
16,23,1747,0.236000000000004
16,24,1744,0.234000000000009
16,25,1746,0.236999999999995
16,26,1747,0.271000000000001
16,27,1738,0.234999999999999
16,28,1744,0.236000000000004
16,29,1747,0.234999999999999
16,30,1735,0.23599999999999
17,18,1744,0.271000000000001
17,19,1739,0.234999999999999
17,20,1742,0.238
17,21,1716,0.234999999999999
17,22,1734,0.236000000000004
17,23,1734,0.271000000000001
17,24,1737,0.234999999999999
17,25,1738,0.236999999999995
17,26,1746,0.235000000000014
17,27,1728,0.23599999999999
17,28,1728,0.234000000000009
17,29,1738,0.23599999999999
17,30,1736,0.233999999999995
18,19,1747,0.237000000000009
18,20,1742,0.234999999999999
18,21,1749,0.236999999999995
18,22,1743,0.271000000000001
18,23,1732,0.234999999999999
18,24,1738,0.236000000000004
18,25,1743,0.234999999999999
18,26,1745,0.236999999999995
18,27,1747,0.271000000000001
18,28,1747,0.234999999999999
18,29,1743,0.236000000000004
18,30,1735,0.233999999999995
19,20,1742,0.236000000000004
19,21,1737,0.271999999999991
19,22,1737,0.234000000000009
19,23,1747,0.236000000000004
19,24,1737,0.234999999999999
19,25,1730,0.23599999999999
19,26,1738,0.234000000000009
19,27,1734,0.236000000000004
19,28,1739,0.234999999999999
19,29,1736,0.236000000000004
19,30,1736,0.234999999999999
20,21,1734,0.239000000000004
20,22,1749,0.269999999999996
20,23,1744,0.233999999999995
20,24,1732,0.236999999999995
20,25,1743,0.233999999999995
20,26,1737,0.236000000000004
20,27,1745,0.271000000000001
20,28,1742,0.23599999999999
20,29,1740,0.237000000000009
20,30,1745,0.233999999999995
21,22,1740,0.234999999999999
21,23,1731,0.271000000000001
21,24,1736,0.234999999999999
21,25,1733,0.236000000000004
21,26,1739,0.236000000000004
21,27,1732,0.239999999999995
21,28,1732,0.244
21,29,1728,0.242999999999995
21,30,1734,0.242000000000004
22,23,1740,0.24499999999999
22,24,1748,0.236000000000004
22,25,1737,0.245000000000005
22,26,1744,0.272999999999996
22,27,1746,0.234999999999999
22,28,1739,0.239999999999995
22,29,1746,0.239000000000004
22,30,1730,0.238
23,24,1741,0.271000000000001
23,25,1728,0.234999999999999
23,26,1741,0.236999999999995
23,27,1736,0.234999999999999
23,28,1747,0.236000000000004
23,29,1738,0.269999999999996
23,30,1735,0.234999999999999
24,25,1746,0.237000000000009
24,26,1738,0.234999999999999
24,27,1739,0.236999999999995
24,28,1737,0.23299999999999
24,29,1745,0.236000000000004
24,30,1743,0.234999999999999
25,26,1740,0.238
25,27,1723,0.234999999999999
25,28,1734,0.236999999999995
25,29,1740,0.269999999999996
25,30,1732,0.236000000000004
26,27,1744,0.236000000000004
26,28,1744,0.234999999999999
26,29,1748,0.236999999999995
26,30,1737,0.271000000000001
27,28,1744,0.234999999999999
27,29,1743,0.237000000000009
27,30,1741,0.234999999999999
28,29,1745,0.23599999999999
28,30,1747,0.272000000000006
29,30,1741,0.234999999999999


"After.Trace.ID","Before.Trace.ID","Difference","Runtime"
1,1,1739,0.216000000000008
1,2,1748,0.239000000000004
1,3,1747,0.265000000000001
1,4,1749,0.233000000000004
1,5,1748,0.239999999999995
1,6,1748,0.236000000000004
1,7,1747,0.236999999999995
1,8,1746,0.233000000000004
1,9,1749,0.236999999999995
1,10,1748,0.234999999999999
1,11,1749,0.236000000000004
1,12,1746,0.234000000000009
1,13,1749,0.236999999999995
1,14,1748,0.271000000000001
1,15,1748,0.236000000000004
1,16,1745,0.236999999999995
1,17,1747,0.234999999999999
1,18,1749,0.237000000000009
1,19,1749,0.271000000000001
1,20,1748,0.233999999999995
1,21,1748,0.236999999999995
1,22,1749,0.234999999999999
1,23,1748,0.23599999999999
1,24,1748,0.234000000000009
1,25,1748,0.23599999999999
1,26,1748,0.234999999999999
1,27,1748,0.237000000000009
1,28,1747,0.233999999999995
1,29,1748,0.23599999999999
1,30,1749,0.269999999999996
2,1,1740,0.234999999999999
2,2,1746,0.236000000000004
2,3,1738,0.233999999999995
2,4,1745,0.236999999999995
2,5,1746,0.271000000000001
2,6,1749,0.234999999999999
2,7,1742,0.236999999999995
2,8,1747,0.234999999999999
2,9,1744,0.237000000000009
2,10,1749,0.269999999999996
2,11,1740,0.234999999999999
2,12,1749,0.237000000000009
2,13,1741,0.234999999999999
2,14,1749,0.236999999999995
2,15,1744,0.233999999999995
2,16,1741,0.236000000000004
2,17,1736,0.234999999999999
2,18,1748,0.236999999999995
2,19,1748,0.234999999999999
2,20,1748,0.236999999999995
2,21,1744,0.27000000000001
2,22,1748,0.234999999999999
2,23,1745,0.236000000000004
2,24,1740,0.234999999999999
2,25,1748,0.237000000000009
2,26,1749,0.271000000000001
2,27,1745,0.234999999999999
2,28,1739,0.236999999999995
2,29,1748,0.236000000000004
2,30,1749,0.23599999999999
3,1,1745,0.271000000000001
3,2,1749,0.234000000000009
3,3,1749,0.238
3,4,1749,0.234999999999985
3,5,1749,0.237000000000023
3,6,1749,0.23399999999998
3,7,1744,0.236999999999995
3,8,1746,0.235000000000014
3,9,1748,0.236999999999995
3,10,1748,0.234000000000009
3,11,1749,0.236999999999995
3,12,1748,0.269999999999982
3,13,1748,0.234000000000009
3,14,1746,0.23599999999999
3,15,1749,0.234000000000009
3,16,1748,0.236999999999995
3,17,1746,0.270999999999987
3,18,1749,0.235000000000014
3,19,1749,0.236999999999995
3,20,1748,0.23599999999999
3,21,1747,0.236000000000018
3,22,1747,0.269999999999982
3,23,1749,0.234000000000009
3,24,1746,0.236999999999995
3,25,1749,0.234999999999985
3,26,1748,0.237000000000023
3,27,1746,0.23399999999998
3,28,1747,0.237000000000023
3,29,1741,0.235000000000014
3,30,1749,0.236999999999995
4,1,1746,0.235000000000014
4,2,1747,0.236999999999995
4,3,1749,0.270999999999987
4,4,1744,0.235000000000014
4,5,1747,0.236999999999995
4,6,1744,0.234999999999985
4,7,1742,0.237000000000023
4,8,1747,0.270999999999987
4,9,1745,0.235000000000014
4,10,1748,0.236999999999995
4,11,1748,0.234999999999985
4,12,1741,0.237000000000023
4,13,1747,0.269999999999982
4,14,1740,0.234000000000009
4,15,1746,0.238
4,16,1749,0.234999999999985
4,17,1747,0.236999999999995
4,18,1747,0.234000000000009
4,19,1741,0.236999999999995
4,20,1748,0.235000000000014
4,21,1748,0.236999999999995
4,22,1746,0.235000000000014
4,23,1739,0.238
4,24,1748,0.269999999999982
4,25,1748,0.235000000000014
4,26,1746,0.23599999999999
4,27,1740,0.23599999999999
4,28,1744,0.237000000000023
4,29,1749,0.270999999999987
4,30,1746,0.235000000000014
5,1,1747,0.236999999999995
5,2,1749,0.234999999999985
5,3,1748,0.236999999999995
5,4,1748,0.27000000000001
5,5,1747,0.23599999999999
5,6,1749,0.237000000000023
5,7,1745,0.234999999999985
5,8,1746,0.238
5,9,1748,0.234000000000009
5,10,1746,0.23599999999999
5,11,1748,0.23599999999999
5,12,1748,0.236000000000018
5,13,1744,0.23599999999999
5,14,1748,0.240999999999985
5,15,1749,0.271000000000015
5,16,1743,0.23399999999998
5,17,1744,0.236000000000018
5,18,1745,0.234999999999985
5,19,1746,0.236999999999995
5,20,1746,0.27000000000001
5,21,1748,0.234999999999985
5,22,1748,0.238
5,23,1748,0.235000000000014
5,24,1748,0.23599999999999
5,25,1747,0.271000000000015
5,26,1748,0.23599999999999
5,27,1746,0.236999999999995
5,28,1742,0.235000000000014
5,29,1748,0.236999999999995
5,30,1742,0.234000000000009
6,1,1749,0.236999999999995
6,2,1748,0.234000000000009
6,3,1735,0.237000000000023
6,4,1749,0.238
6,5,1740,0.240999999999985
6,6,1748,0.271000000000015
6,7,1745,0.234999999999985
6,8,1748,0.236000000000018
6,9,1748,0.23599999999999
6,10,1746,0.236999999999995
6,11,1749,0.270999999999987
6,12,1746,0.234000000000009
6,13,1743,0.238
6,14,1746,0.235000000000014
6,15,1748,0.23599999999999
6,16,1749,0.269999999999982
6,17,1749,0.235000000000014
6,18,1747,0.236999999999995
6,19,1748,0.234999999999985
6,20,1749,0.237000000000023
6,21,1747,0.234999999999985
6,22,1748,0.236000000000018
6,23,1748,0.235000000000014
6,24,1746,0.236999999999995
6,25,1748,0.235000000000014
6,26,1749,0.236999999999995
6,27,1745,0.270999999999987
6,28,1746,0.234000000000009
6,29,1746,0.23599999999999
6,30,1749,0.234999999999985
7,1,1748,0.237000000000023
7,2,1749,0.27000000000001
7,3,1744,0.23599999999999
7,4,1742,0.236999999999995
7,5,1744,0.235000000000014
7,6,1749,0.23599999999999
7,7,1740,0.271000000000015
7,8,1746,0.235000000000014
7,9,1745,0.236999999999995
7,10,1748,0.235000000000014
7,11,1748,0.236999999999995
7,12,1749,0.23399999999998
7,13,1748,0.236000000000018
7,14,1749,0.23399999999998
7,15,1748,0.236999999999995
7,16,1745,0.236000000000018
7,17,1747,0.236999999999995
7,18,1746,0.270999999999987
7,19,1749,0.235000000000014
7,20,1748,0.236999999999995
7,21,1748,0.235000000000014
7,22,1749,0.236999999999995
7,23,1744,0.270999999999987
7,24,1742,0.236000000000018
7,25,1749,0.236999999999995
7,26,1748,0.234999999999985
7,27,1749,0.236999999999995
7,28,1744,0.271000000000015
7,29,1744,0.234999999999985
7,30,1748,0.237000000000023
8,1,1748,0.234999999999985
8,2,1748,0.236999999999995
8,3,1749,0.235000000000014
8,4,1748,0.23599999999999
8,5,1740,0.235000000000014
8,6,1749,0.236999999999995
8,7,1742,0.23599999999999
8,8,1748,0.238
8,9,1746,0.272999999999996
8,10,1747,0.236999999999995
8,11,1749,0.239000000000004
8,12,1744,0.236999999999995
8,13,1746,0.240000000000009
8,14,1747,0.271999999999991
8,15,1748,0.235000000000014
8,16,1749,0.238
8,17,1747,0.238
8,18,1744,0.24199999999999
8,19,1746,0.281000000000006
8,20,1744,0.236999999999995
8,21,1748,0.240000000000009
8,22,1749,0.23599999999999
8,23,1748,0.238
8,24,1745,0.235000000000014
8,25,1748,0.236999999999995
8,26,1749,0.23599999999999
8,27,1745,0.237000000000023
8,28,1746,0.235000000000014
8,29,1746,0.240000000000009
8,30,1749,0.271999999999991
9,1,1748,0.236999999999995
9,2,1749,0.24199999999999
9,3,1748,0.237000000000023
9,4,1747,0.239000000000004
9,5,1742,0.272999999999996
9,6,1749,0.236000000000018
9,7,1743,0.239000000000004
9,8,1749,0.23599999999999
9,9,1749,0.236999999999995
9,10,1748,0.27200000000002
9,11,1749,0.236999999999995
9,12,1748,0.238999999999976
9,13,1744,0.236000000000018
9,14,1748,0.242999999999995
9,15,1748,0.240999999999985
9,16,1746,0.242999999999995
9,17,1745,0.237000000000023
9,18,1749,0.239999999999981
9,19,1747,0.238
9,20,1748,0.240000000000009
9,21,1749,0.274000000000001
9,22,1748,0.238
9,23,1748,0.236999999999995
9,24,1747,0.236000000000018
9,25,1747,0.238
9,26,1749,0.276999999999987
9,27,1747,0.239000000000004
9,28,1746,0.236999999999995
9,29,1744,0.238
9,30,1748,0.239000000000004
10,1,1749,0.274000000000001
10,2,1743,0.23599999999999
10,3,1738,0.242000000000019
10,4,1747,0.236000000000018
10,5,1737,0.236999999999995
10,6,1738,0.234000000000009
10,7,1741,0.236000000000018
10,8,1748,0.234999999999985
10,9,1748,0.238
10,10,1746,0.235000000000014
10,11,1747,0.236999999999995
10,12,1748,0.271999999999991
10,13,1739,0.236000000000018
10,14,1749,0.23599999999999
10,15,1746,0.236999999999995
10,16,1744,0.238
10,17,1744,0.27200000000002
10,18,1746,0.237000000000023
10,19,1749,0.236999999999995
10,20,1749,0.234999999999985
10,21,1749,0.236000000000018
10,22,1745,0.271999999999991
10,23,1748,0.234999999999985
10,24,1749,0.236000000000018
10,25,1749,0.236999999999995
10,26,1747,0.23599999999999
10,27,1746,0.234000000000009
10,28,1739,0.23599999999999
10,29,1747,0.236000000000018
10,30,1735,0.236999999999995
11,1,1747,0.234999999999985
11,2,1747,0.236000000000018
11,3,1747,0.270999999999987
11,4,1742,0.234000000000009
11,5,1736,0.23599999999999
11,6,1743,0.234999999999985
11,7,1743,0.238
11,8,1749,0.27200000000002
11,9,1748,0.234999999999985
11,10,1741,0.236999999999995
11,11,1744,0.235000000000014
11,12,1748,0.23599999999999
11,13,1741,0.27200000000002
11,14,1748,0.23399999999998
11,15,1745,0.237000000000023
11,16,1745,0.23599999999999
11,17,1735,0.23599999999999
11,18,1747,0.234000000000009
11,19,1744,0.23599999999999
11,20,1748,0.235000000000014
11,21,1743,0.23599999999999
11,22,1745,0.235000000000014
11,23,1745,0.236999999999995
11,24,1743,0.270999999999987
11,25,1748,0.235000000000014
11,26,1748,0.234999999999985
11,27,1743,0.235000000000014
11,28,1734,0.236000000000018
11,29,1748,0.270999999999987
11,30,1741,0.235000000000014
12,1,1747,0.23599999999999
12,2,1748,0.234999999999985
12,3,1748,0.236000000000018
12,4,1748,0.270999999999987
12,5,1741,0.235000000000014
12,6,1749,0.23599999999999
12,7,1741,0.234999999999985
12,8,1746,0.236000000000018
12,9,1748,0.23399999999998
12,10,1743,0.236000000000018
12,11,1748,0.234999999999985
12,12,1742,0.23599999999999
12,13,1745,0.235000000000014
12,14,1745,0.23599999999999
12,15,1745,0.271999999999991
12,16,1747,0.235000000000014
12,17,1748,0.23599999999999
12,18,1747,0.234000000000009
12,19,1748,0.236999999999995
12,20,1749,0.270999999999987
12,21,1749,0.235000000000014
12,22,1747,0.23599999999999
12,23,1748,0.235000000000014
12,24,1749,0.234999999999985
12,25,1744,0.270999999999987
12,26,1749,0.235000000000014
12,27,1746,0.236999999999995
12,28,1745,0.235000000000014
12,29,1745,0.23599999999999
12,30,1749,0.233000000000004
13,1,1745,0.235000000000014
13,2,1748,0.23599999999999
13,3,1742,0.237000000000023
13,4,1742,0.234999999999985
13,5,1736,0.23599999999999
13,6,1749,0.271000000000015
13,7,1744,0.23599999999999
13,8,1744,0.236000000000018
13,9,1742,0.234999999999985
13,10,1740,0.236999999999995
13,11,1745,0.27200000000002
13,12,1748,0.234999999999985
13,13,1745,0.23599999999999
13,14,1746,0.237000000000023
13,15,1746,0.23599999999999
13,16,1742,0.270999999999987
13,17,1745,0.236999999999995
13,18,1742,0.237000000000023
13,19,1748,0.234999999999985
13,20,1742,0.236999999999995
13,21,1738,0.234000000000009
13,22,1746,0.239000000000004
13,23,1740,0.236999999999995
13,24,1746,0.23599999999999
13,25,1749,0.235000000000014
13,26,1746,0.23599999999999
13,27,1744,0.271999999999991
13,28,1745,0.235000000000014
13,29,1740,0.234999999999985
13,30,1745,0.234000000000009
14,1,1731,0.236999999999995
14,2,1748,0.270999999999987
14,3,1746,0.235000000000014
14,4,1746,0.236999999999995
14,5,1745,0.236000000000018
14,6,1747,0.23599999999999
14,7,1743,0.271999999999991
14,8,1744,0.235000000000014
14,9,1739,0.236999999999995
14,10,1741,0.234999999999985
14,11,1738,0.237000000000023
14,12,1743,0.23399999999998
14,13,1744,0.240000000000009
14,14,1749,0.23599999999999
14,15,1740,0.237000000000023
14,16,1747,0.234000000000009
14,17,1738,0.236999999999995
14,18,1748,0.270999999999987
14,19,1742,0.235000000000014
14,20,1749,0.23599999999999
14,21,1744,0.235000000000014
14,22,1742,0.23599999999999
14,23,1746,0.271999999999991
14,24,1745,0.235000000000014
14,25,1742,0.236999999999995
14,26,1748,0.235000000000014
14,27,1746,0.23599999999999
14,28,1739,0.270999999999987
14,29,1747,0.235000000000014
14,30,1747,0.236999999999995
15,1,1745,0.235000000000014
15,2,1747,0.236999999999995
15,3,1748,0.23399999999998
15,4,1747,0.236000000000018
15,5,1739,0.23599999999999
15,6,1749,0.23599999999999
15,7,1743,0.235000000000014
15,8,1745,0.236999999999995
15,9,1747,0.271999999999991
15,10,1748,0.235000000000014
15,11,1747,0.23599999999999
15,12,1749,0.236000000000018
15,13,1748,0.236999999999995
15,14,1748,0.270999999999987
15,15,1748,0.235000000000014
15,16,1741,0.236999999999995
15,17,1747,0.235000000000014
15,18,1749,0.23599999999999
15,19,1738,0.270999999999987
15,20,1749,0.235000000000014
15,21,1747,0.23599999999999
15,22,1749,0.235000000000014
15,23,1748,0.236999999999995
15,24,1747,0.23399999999998
15,25,1742,0.236000000000018
15,26,1747,0.234999999999985
15,27,1748,0.236000000000018
15,28,1740,0.234000000000009
15,29,1738,0.23599999999999
15,30,1746,0.27200000000002
16,1,1748,0.234999999999985
16,2,1746,0.23599999999999
16,3,1745,0.235000000000014
16,4,1743,0.236999999999995
16,5,1736,0.271999999999991
16,6,1749,0.235000000000014
16,7,1734,0.236999999999995
16,8,1746,0.235000000000014
16,9,1746,0.23599999999999
16,10,1744,0.271999999999991
16,11,1735,0.235000000000014
16,12,1749,0.23599999999999
16,13,1744,0.235000000000014
16,14,1743,0.23599999999999
16,15,1749,0.23399999999998
16,16,1743,0.236000000000018
16,17,1743,0.234999999999985
16,18,1746,0.236000000000018
16,19,1747,0.23599999999999
16,20,1744,0.236999999999995
16,21,1744,0.271000000000015
16,22,1747,0.234000000000009
16,23,1745,0.23599999999999
16,24,1744,0.235000000000014
16,25,1747,0.236999999999995
16,26,1747,0.271000000000015
16,27,1748,0.234999999999985
16,28,1738,0.238
16,29,1747,0.235000000000014
16,30,1744,0.23599999999999
17,1,1747,0.271999999999991
17,2,1746,0.234000000000009
17,3,1749,0.23599999999999
17,4,1744,0.234000000000009
17,5,1747,0.236999999999995
17,6,1745,0.23399999999998
17,7,1747,0.235000000000014
17,8,1744,0.23399999999998
17,9,1746,0.237000000000023
17,10,1745,0.234999999999985
17,11,1739,0.236999999999995
17,12,1744,0.27200000000002
17,13,1745,0.234999999999985
17,14,1743,0.23599999999999
17,15,1745,0.235000000000014
17,16,1746,0.23599999999999
17,17,1745,0.27200000000002
17,18,1746,0.234999999999985
17,19,1734,0.236999999999995
17,20,1740,0.235000000000014
17,21,1743,0.23599999999999
17,22,1746,0.271000000000015
17,23,1746,0.23599999999999
17,24,1748,0.236999999999995
17,25,1747,0.235000000000014
17,26,1746,0.236999999999995
17,27,1746,0.234000000000009
17,28,1740,0.23599999999999
17,29,1741,0.234999999999985
17,30,1740,0.236000000000018
18,1,1745,0.23599999999999
18,2,1747,0.236999999999995
18,3,1746,0.271000000000015
18,4,1743,0.234999999999985
18,5,1741,0.236999999999995
18,6,1748,0.235000000000014
18,7,1741,0.236999999999995
18,8,1747,0.271999999999991
18,9,1747,0.236000000000018
18,10,1746,0.236999999999995
18,11,1748,0.234999999999985
18,12,1749,0.236000000000018
18,13,1741,0.277999999999992
18,14,1748,0.23599999999999
18,15,1746,0.237000000000023
18,16,1744,0.234999999999985
18,17,1741,0.23599999999999
18,18,1747,0.235000000000014
18,19,1749,0.236999999999995
18,20,1749,0.235000000000014
18,21,1747,0.236999999999995
18,22,1742,0.23599999999999
18,23,1749,0.236999999999995
18,24,1746,0.271000000000015
18,25,1748,0.234999999999985
18,26,1749,0.236000000000018
18,27,1748,0.234999999999985
18,28,1743,0.236999999999995
18,29,1742,0.271000000000015
18,30,1748,0.234999999999985
19,1,1745,0.23599999999999
19,2,1745,0.235000000000014
19,3,1742,0.23599999999999
19,4,1746,0.271999999999991
19,5,1743,0.235000000000014
19,6,1743,0.23599999999999
19,7,1739,0.235000000000014
19,8,1749,0.23599999999999
19,9,1748,0.234000000000009
19,10,1743,0.23599999999999
19,11,1745,0.234999999999985
19,12,1748,0.237000000000023
19,13,1746,0.234999999999985
19,14,1746,0.236999999999995
19,15,1745,0.27200000000002
19,16,1748,0.234999999999985
19,17,1743,0.236999999999995
19,18,1749,0.235000000000014
19,19,1742,0.236999999999995
19,20,1746,0.271000000000015
19,21,1737,0.23599999999999
19,22,1743,0.23599999999999
19,23,1744,0.234000000000009
19,24,1745,0.234999999999985
19,25,1743,0.271999999999991
19,26,1746,0.235000000000014
19,27,1747,0.236999999999995
19,28,1737,0.235000000000014
19,29,1748,0.236999999999995
19,30,1747,0.234999999999985
20,1,1744,0.236000000000018
20,2,1746,0.234999999999985
20,3,1744,0.236999999999995
20,4,1741,0.235000000000014
20,5,1746,0.23599999999999
20,6,1749,0.27200000000002
20,7,1737,0.234999999999985
20,8,1747,0.23599999999999
20,9,1745,0.235000000000014
20,10,1741,0.23599999999999
20,11,1740,0.271999999999991
20,12,1748,0.235000000000014
20,13,1745,0.236999999999995
20,14,1749,0.235000000000014
20,15,1743,0.23599999999999
20,16,1746,0.270999999999987
20,17,1746,0.235000000000014
20,18,1744,0.23599999999999
20,19,1746,0.235000000000014
20,20,1748,0.23599999999999
20,21,1741,0.234000000000009
20,22,1741,0.235000000000014
20,23,1743,0.234999999999985
20,24,1742,0.236999999999995
20,25,1746,0.235000000000042
20,26,1748,0.23599999999999
20,27,1743,0.271999999999991
20,28,1742,0.235000000000014
20,29,1749,0.23599999999999
20,30,1748,0.234000000000037
21,1,1744,0.236999999999966
21,2,1742,0.271999999999991
21,3,1748,0.235000000000014
21,4,1747,0.237000000000023
21,5,1749,0.234999999999957
21,6,1742,0.236000000000047
21,7,1746,0.271999999999991
21,8,1748,0.234999999999957
21,9,1747,0.23599999999999
21,10,1748,0.235000000000014
21,11,1746,0.236999999999966
21,12,1745,0.23399999999998
21,13,1746,0.23599999999999
21,14,1749,0.235000000000014
21,15,1748,0.23599999999999
21,16,1745,0.234999999999957
21,17,1743,0.236000000000047
21,18,1741,0.271999999999991
21,19,1748,0.235000000000014
21,20,1743,0.23599999999999
21,21,1746,0.234999999999957
21,22,1747,0.23599999999999
21,23,1743,0.273000000000025
21,24,1749,0.23599999999999
21,25,1745,0.236999999999966
21,26,1747,0.239000000000033
21,27,1746,0.238
21,28,1741,0.274999999999977
21,29,1748,0.240000000000009
21,30,1749,0.238
22,1,1748,0.23599999999999
22,2,1748,0.237000000000023
22,3,1746,0.23399999999998
22,4,1740,0.23599999999999
22,5,1739,0.235000000000014
22,6,1746,0.237000000000023
22,7,1743,0.234999999999957
22,8,1748,0.23599999999999
22,9,1743,0.271999999999991
22,10,1736,0.23599999999999
22,11,1736,0.237000000000023
22,12,1743,0.23399999999998
22,13,1743,0.237000000000023
22,14,1748,0.271000000000015
22,15,1748,0.235000000000014
22,16,1743,0.236999999999966
22,17,1736,0.235000000000014
22,18,1742,0.23599999999999
22,19,1743,0.272000000000048
22,20,1744,0.234999999999957
22,21,1740,0.237000000000023
22,22,1742,0.235000000000014
22,23,1743,0.236999999999966
22,24,1744,0.234000000000037
22,25,1745,0.236999999999966
22,26,1748,0.23599999999999
22,27,1746,0.237000000000023
22,28,1727,0.235000000000014
22,29,1748,0.23599999999999
22,30,1745,0.271999999999991
23,1,1745,0.235000000000014
23,2,1744,0.240000000000009
23,3,1749,0.23399999999998
23,4,1749,0.236000000000047
23,5,1748,0.271999999999991
23,6,1747,0.234999999999957
23,7,1743,0.237000000000023
23,8,1746,0.235000000000014
23,9,1747,0.236999999999966
23,10,1749,0.271000000000015
23,11,1746,0.235000000000014
23,12,1749,0.236000000000047
23,13,1747,0.234999999999957
23,14,1748,0.237000000000023
23,15,1748,0.23399999999998
23,16,1746,0.23599999999999
23,17,1741,0.235000000000014
23,18,1741,0.23599999999999
23,19,1748,0.235000000000014
23,20,1747,0.236999999999966
23,21,1743,0.273000000000025
23,22,1747,0.23599999999999
23,23,1748,0.236999999999966
23,24,1746,0.234000000000037
23,25,1741,0.23599999999999
23,26,1739,0.271000000000015
23,27,1749,0.234999999999957
23,28,1748,0.23599999999999
23,29,1745,0.23399999999998
23,30,1748,0.234999999999957
24,1,1743,0.271000000000015
24,2,1748,0.234999999999957
24,3,1744,0.237000000000023
24,4,1745,0.23599999999999
24,5,1731,0.23599999999999
24,6,1748,0.234000000000037
24,7,1740,0.23599999999999
24,8,1747,0.235000000000014
24,9,1745,0.23599999999999
24,10,1745,0.23399999999998
24,11,1746,0.236999999999966
24,12,1746,0.272000000000048
24,13,1734,0.234999999999957
24,14,1749,0.236000000000047
24,15,1747,0.23599999999999
24,16,1741,0.236999999999966
24,17,1744,0.271999999999991
24,18,1749,0.235000000000014
24,19,1748,0.237000000000023
24,20,1748,0.235000000000014
24,21,1743,0.23599999999999
24,22,1746,0.271999999999991
24,23,1747,0.235000000000014
24,24,1748,0.236999999999966
24,25,1747,0.235000000000014
24,26,1749,0.237000000000023
24,27,1748,0.23399999999998
24,28,1741,0.23599999999999
24,29,1746,0.23599999999999
24,30,1744,0.23599999999999
25,1,1740,0.235000000000014
25,2,1749,0.23599999999999
25,3,1746,0.271999999999991
25,4,1749,0.235000000000014
25,5,1733,0.23599999999999
25,6,1749,0.235000000000014
25,7,1745,0.236999999999966
25,8,1748,0.271999999999991
25,9,1748,0.235000000000014
25,10,1747,0.237000000000023
25,11,1748,0.235000000000014
25,12,1746,0.23599999999999
25,13,1745,0.271999999999991
25,14,1741,0.235000000000014
25,15,1749,0.236999999999966
25,16,1744,0.234999999999957
25,17,1746,0.236000000000047
25,18,1749,0.23399999999998
25,19,1746,0.23599999999999
25,20,1748,0.235000000000014
25,21,1746,0.236999999999966
25,22,1749,0.23399999999998
25,23,1746,0.237000000000023
25,24,1746,0.271999999999991
25,25,1749,0.235000000000014
25,26,1748,0.23599999999999
25,27,1740,0.235000000000014
25,28,1747,0.237000000000023
25,29,1745,0.271000000000015
25,30,1747,0.235000000000014
26,1,1748,0.236999999999966
26,2,1748,0.235000000000014
26,3,1748,0.237000000000023
26,4,1745,0.270999999999958
26,5,1734,0.234999999999957
26,6,1749,0.237000000000023
26,7,1744,0.235000000000014
26,8,1748,0.23599999999999
26,9,1746,0.234000000000037
26,10,1738,0.236999999999966
26,11,1745,0.235000000000014
26,12,1748,0.237000000000023
26,13,1740,0.234999999999957
26,14,1747,0.237000000000023
26,15,1743,0.271999999999991
26,16,1747,0.235000000000014
26,17,1745,0.23599999999999
26,18,1749,0.235000000000014
26,19,1748,0.238
26,20,1748,0.271000000000015
26,21,1742,0.23399999999998
26,22,1749,0.23599999999999
26,23,1741,0.23599999999999
26,24,1744,0.23599999999999
26,25,1748,0.271000000000015
26,26,1749,0.234000000000037
26,27,1749,0.238
26,28,1738,0.235000000000014
26,29,1739,0.23599999999999
26,30,1742,0.235000000000014
27,1,1749,0.236999999999966
27,2,1748,0.235000000000014
27,3,1744,0.236999999999966
27,4,1743,0.235000000000014
27,5,1742,0.237000000000023
27,6,1748,0.271000000000015
27,7,1749,0.23399999999998
27,8,1747,0.234999999999957
27,9,1745,0.236000000000047
27,10,1735,0.236999999999966
27,11,1737,0.271999999999991
27,12,1747,0.235000000000014
27,13,1730,0.237000000000023
27,14,1749,0.235000000000014
27,15,1738,0.23599999999999
27,16,1749,0.271999999999991
27,17,1737,0.235000000000014
27,18,1747,0.236999999999966
27,19,1742,0.235000000000014
27,20,1745,0.23599999999999
27,21,1732,0.23399999999998
27,22,1742,0.23599999999999
27,23,1747,0.23599999999999
27,24,1738,0.23599999999999
27,25,1744,0.236000000000047
27,26,1747,0.236999999999966
27,27,1744,0.271999999999991
27,28,1731,0.235000000000014
27,29,1748,0.23599999999999
27,30,1745,0.235000000000014
28,1,1745,0.237000000000023
28,2,1745,0.270999999999958
28,3,1738,0.236000000000047
28,4,1743,0.236999999999966
28,5,1736,0.235000000000014
28,6,1742,0.23599999999999
28,7,1736,0.271999999999991
28,8,1746,0.235000000000014
28,9,1731,0.237000000000023
28,10,1746,0.234999999999957
28,11,1736,0.236000000000047
28,12,1748,0.233000000000004
28,13,1739,0.23599999999999
28,14,1745,0.235000000000014
28,15,1736,0.236999999999966
28,16,1742,0.235000000000014
28,17,1732,0.237000000000023
28,18,1746,0.271999999999991
28,19,1744,0.235000000000014
28,20,1747,0.23599999999999
28,21,1731,0.235000000000014
28,22,1748,0.236000000000047
28,23,1746,0.271999999999991
28,24,1739,0.235000000000014
28,25,1745,0.236999999999966
28,26,1745,0.235000000000014
28,27,1744,0.23599999999999
28,28,1731,0.271000000000015
28,29,1737,0.235000000000014
28,30,1738,0.236999999999966
29,1,1745,0.235000000000014
29,2,1749,0.236999999999966
29,3,1749,0.234000000000037
29,4,1749,0.23599999999999
29,5,1737,0.235000000000014
29,6,1748,0.236999999999966
29,7,1740,0.235000000000014
29,8,1748,0.23599999999999
29,9,1747,0.271999999999991
29,10,1741,0.235000000000014
29,11,1748,0.23599999999999
29,12,1747,0.235000000000014
29,13,1747,0.237000000000023
29,14,1749,0.270999999999958
29,15,1741,0.235000000000014
29,16,1744,0.236999999999966
29,17,1746,0.235000000000014
29,18,1746,0.23599999999999
29,19,1746,0.271999999999991
29,20,1749,0.23599999999999
29,21,1748,0.236000000000047
29,22,1748,0.23399999999998
29,23,1746,0.23599999999999
29,24,1748,0.23399999999998
29,25,1748,0.236000000000047
29,26,1747,0.23399999999998
29,27,1749,0.237000000000023
29,28,1744,0.23599999999999
29,29,1741,0.23599999999999
29,30,1748,0.271999999999991
30,1,1742,0.235000000000014
30,2,1745,0.237000000000023
30,3,1741,0.235000000000014
30,4,1743,0.23599999999999
30,5,1743,0.274000000000001
30,6,1747,0.235000000000014
30,7,1741,0.23599999999999
30,8,1749,0.234000000000037
30,9,1746,0.23599999999999
30,10,1735,0.272000000000048
30,11,1738,0.234999999999957
30,12,1745,0.237000000000023
30,13,1747,0.235000000000014
30,14,1747,0.23599999999999
30,15,1746,0.235000000000014
30,16,1747,0.23599999999999
30,17,1742,0.235000000000014
30,18,1745,0.236999999999966
30,19,1742,0.235000000000014
30,20,1749,0.236999999999966
30,21,1732,0.272000000000048
30,22,1745,0.234999999999957
30,23,1745,0.23599999999999
30,24,1744,0.235000000000014
30,25,1745,0.236999999999966
30,26,1744,0.271000000000015
30,27,1742,0.23599999999999
30,28,1729,0.237000000000023
30,29,1747,0.235000000000014
30,30,1746,0.23599999999999
