"Before.Trace.ID1","Before.Trace.ID2","Difference","Runtime"
1,2,1722.90246812577,0.000999999999976353
1,3,1242.39030555956,0
1,4,1897.01886314086,0.000999999999976353
1,5,816.883148725096,0.000999999999976353
1,6,1593.51968357003,0
1,7,1137.23789177888,0.000999999999976353
1,8,1657.85387515165,0
1,9,1158.29981233795,0.00700000000006185
1,10,4179.71626724696,0.000999999999976353
1,11,1592.20434899973,0
1,12,1121.75527245178,0
1,13,1819.0500176033,0.000999999999976353
1,14,950.9956678737,0
1,15,2510.8344872316,0.00100000000020373
1,16,1324.51579783434,0.000999999999976353
1,17,2392.79754593358,0
1,18,862.064579121468,0.000999999999976353
1,19,3125.42113968155,0
1,20,958.261775546515,0
1,21,3144.71410952951,0.000999999999976353
1,22,995.934735009702,0
1,23,2000.06479302508,0.000999999999976353
1,24,1194.35203096513,0.000999999999976353
1,25,1383.58509000802,0
1,26,1406.14150140362,0.000999999999976353
1,27,1148.13903508846,0
1,28,2321.27968485858,0
1,29,1234.63317535769,0.000999999999976353
1,30,2377.33628547848,0
2,3,2089.07716175731,0.00100000000020373
2,4,1622.69030252633,0.000999999999976353
2,5,1460.44362072753,0
2,6,1447.01873273956,0.000999999999976353
2,7,1566.85459540338,0
2,8,1867.74294372099,0.000999999999976353
2,9,1715.932780194,0.000999999999976353
2,10,4701.07001961181,0
2,11,2353.5110602481,0.000999999999976353
2,12,1792.94875813869,0.000999999999976353
2,13,2363.55857563735,0
2,14,1926.96808437375,0.000999999999976353
2,15,2371.76433548272,0
2,16,2062.54996333232,0.000999999999976353
2,17,1965.26389287824,0.000999999999976353
2,18,1596.93637346425,0
2,19,2481.26546238517,0.00100000000020373
2,20,1320.03935499884,0.000999999999976353
2,21,2582.19747500739,0
2,22,1497.67434739866,0.000999999999976353
2,23,2679.59200904055,0
2,24,1580.15232567046,0.000999999999976353
2,25,1775.25918071948,0.000999999999976353
2,26,1933.28122157918,0
2,27,1745.47740531569,0.000999999999976353
2,28,2726.60726396848,0.000999999999976353
2,29,1486.68719652528,0
2,30,2145.01439688314,0.000999999999976353
3,4,2252.44686300644,0
3,5,1253.98465228711,0.000999999999976353
3,6,1885.48108502252,0.00100000000020373
3,7,1403.83343052694,0
3,8,1762.23010752016,0.000999999999976353
3,9,1635.04666398734,0.000999999999976353
3,10,4042.20878216296,0
3,11,1761.69391422374,0.000999999999976353
3,12,1048.52234746857,0
3,13,1902.49788731503,0.000999999999976353
3,14,1178.93636395338,0.000999999999976353
3,15,2764.23693508897,0
3,16,1474.12591517897,0.000999999999976353
3,17,2382.43106278262,0.000999999999976353
3,18,1291.33360362571,0
3,19,3643.63245457098,0.000999999999976353
3,20,1222.83918425485,0.000999999999976353
3,21,2874.42392790221,0
3,22,1107.09151037685,0.00100000000020373
3,23,2006.23915712021,0.000999999999976353
3,24,1628.6543895587,0
3,25,1883.07681525818,0.000999999999976353
3,26,1031.72972029037,0
3,27,1128.47642928885,0
3,28,2430.84874272799,0.000999999999976353
3,29,1320.16450033567,0
3,30,2624.17161217488,0.000999999999976353
4,5,1765.03042861428,0.000999999999976353
4,6,1784.79399025421,0
4,7,1789.36387871018,0.000999999999976353
4,8,2314.20551010272,0.000999999999976353
4,9,1512.04215114304,0
4,10,4970.89051913439,0.00100000000020373
4,11,2118.7934270515,0
4,12,1705.43303775561,0.000999999999976353
4,13,2169.25432738979,0.000999999999976353
4,14,1873.52930683672,0
4,15,2460.58036235902,0.000999999999976353
4,16,1612.6057999222,0.000999999999976353
4,17,2455.5770834169,0
4,18,1823.21527246343,0.000999999999976353
4,19,2225.87837701348,0.000999999999976353
4,20,1477.72303886952,0
4,21,2834.10871298457,0.000999999999976353
4,22,1690.38254711861,0.000999999999976353
4,23,2216.25702704346,0
4,24,1748.67691980693,0.000999999999976353
4,25,1995.13268048149,0
4,26,2058.10765679884,0
4,27,1689.28761045181,0.00799999999981083
4,28,2067.36228910495,0
4,29,1587.57456560567,0
4,30,2134.39389946007,0.00100000000020373
5,6,1370.84816603625,0
5,7,774.433322663536,0.000999999999976353
5,8,1746.93359284576,0.000999999999976353
5,9,1238.31298823273,0
5,10,4449.42125663018,0.000999999999976353
5,11,1344.25509273231,0
5,12,1037.46872053447,0
5,13,1690.9559585057,0.000999999999976353
5,14,908.034457777701,0
5,15,2392.1506424013,0.000999999999976353
5,16,1143.59785388972,0.000999999999976353
5,17,2276.73424805141,0
5,18,757.433247262962,0.000999999999976353
5,19,3147.09736579188,0
5,20,784.114306109248,0
5,21,3024.37905407274,0.000999999999976353
5,22,983.320218045232,0
5,23,2115.74734414174,0.000999999999976353
5,24,929.017219046175,0.000999999999976353
5,25,1316.41456243227,0
5,26,1186.56042592694,0.000999999999976353
5,27,968.594456218841,0
5,28,2244.61380404632,0
5,29,991.851767039555,0.000999999999976353
5,30,2192.49847253842,0
6,7,1379.07343785027,0.000999999999976353
6,8,1573.9047752764,0.000999999999976353
6,9,1675.91055832346,0
6,10,4772.56773507079,0.000999999999976353
6,11,2032.9154206731,0
6,12,1452.90218642792,0.00100000000020373
6,13,1928.9607152854,0.000999999999976353
6,14,1688.13720168541,0
6,15,2746.6083226885,0.000999999999976353
6,16,1505.45457778765,0.000999999999976353
6,17,2697.82474262469,0
6,18,1487.56959923951,0.000999999999976353
6,19,2705.08689798071,0
6,20,1319.08331213803,0.000999999999976353
6,21,2409.76463295576,0.000999999999976353
6,22,1419.47890364685,0
6,23,1824.54790351857,0.000999999999976353
6,24,1749.71213376236,0.000999999999976353
6,25,1638.40111769099,0
6,26,1461.40885303103,0.00100000000020373
6,27,1629.88433788471,0
6,28,2493.38426880952,0
6,29,1514.6751762906,0.000999999999976353
6,30,2484.47415309146,0
7,8,1813.09377046696,0.000999999999976353
7,9,1155.73488328246,0.000999999999976353
7,10,4775.38148116082,0
7,11,1473.02941925918,0.000999999999976353
7,12,915.889128152069,0
7,13,1486.31563031796,0
7,14,994.308358823162,0.000999999999976353
7,15,1942.88444369462,0
7,16,1061.59606775086,0.000999999999976353
7,17,2303.6665048875,0.000999999999976353
7,18,873.386509426306,0
7,19,3191.412566503,0.00100000000020373
7,20,762.348436601491,0.000999999999976353
7,21,2848.57313370389,0
7,22,992.782656998203,0.000999999999976353
7,23,2049.23378387791,0.000999999999976353
7,24,837.549429795676,0
7,25,1393.46891714611,0.000999999999976353
7,26,1282.9976924878,0
7,27,988.528993506153,0.000999999999976353
7,28,1847.91944726538,0.000999999999976353
7,29,1087.72434674179,0
7,30,1868.30153893619,0.000999999999976353
8,9,1869.59306559034,0.000999999999976353
8,10,4154.56826448181,0
8,11,2406.76749278568,0.000999999999976353
8,12,1494.72889778348,0.00100000000020373
8,13,1934.44124905623,0
8,14,1860.74498755971,0.000999999999976353
8,15,2772.04144961028,0
8,16,2118.4246827052,0.000999999999976353
8,17,2201.72230383024,0.000999999999976353
8,18,1529.79001429513,0
8,19,2937.32824723083,0.000999999999976353
8,20,1496.75225130994,0.000999999999976353
8,21,2029.72269112958,0
8,22,1211.20135452333,0.000999999999976353
8,23,2071.5555325649,0.000999999999976353
8,24,1989.68813244194,0
8,25,1430.50023613747,0.000999999999976353
8,26,1534.02392664119,0
8,27,1637.50977588612,0
8,28,2560.07830155757,0.000999999999976353
8,29,1537.08559975488,0
8,30,2490.56903345899,0.000999999999976353
9,10,4272.54891703559,0.000999999999976353
9,11,1675.4756207712,0.00700000000006185
9,12,1359.87503959914,0
9,13,1369.94310348409,0.000999999999976353
9,14,1197.33258148059,0
9,15,1982.11029012475,0.000999999999976353
9,16,1152.63593184469,0.000999999999976353
9,17,2157.15524662187,0
9,18,1111.21795787544,0.000999999999976353
9,19,2897.29178478557,0.000999999999976353
9,20,926.055368474976,0
9,21,3020.64246548679,0.000999999999976353
9,22,1239.04121414891,0
9,23,2131.26713339214,0
9,24,1215.09066741357,0.000999999999976353
9,25,1319.53674742404,0
9,26,1653.19041467599,0.00100000000020373
9,27,1244.46738973627,0.000999999999976353
9,28,1632.85004606312,0
9,29,1114.43065035267,0.000999999999976353
9,30,1821.0108153184,0
10,11,4385.72751092119,0
10,12,4564.06790850693,0.000999999999976353
10,13,4334.3559955187,0
10,14,4071.06091108109,0.000999999999976353
10,15,5375.74353177486,0.000999999999976353
10,16,4608.53634593887,0
10,17,4494.5278135931,0.000999999999976353
10,18,4171.32824068589,0
10,19,5731.37928829773,0
10,20,4377.52969564512,0.00100000000020373
10,21,5237.42788436771,0
10,22,4280.55163704233,0.000999999999976353
10,23,5188.60070440815,0.000999999999976353
10,24,4542.81570540003,0
10,25,4314.44413820807,0.000999999999976353
10,26,4340.29800743107,0
10,27,4437.87686213637,0.000999999999976353
10,28,5004.23720327098,0.000999999999976353
10,29,4131.86500138355,0
10,30,4918.01061345768,0.000999999999976353
11,12,1551.94586224386,0.000999999999976353
11,13,1389.74671054028,0
11,14,987.293574744854,0.000999999999976353
11,15,2636.02921460102,0
11,16,1177.43135349487,0.000999999999976353
11,17,2750.23263320027,0.00100000000020373
11,18,1198.06133144411,0
11,19,3778.19627779663,0.000999999999976353
11,20,1420.33229795899,0.000999999999976353
11,21,3416.50060825107,0
11,22,1648.1469527304,0.000999999999976353
11,23,2539.44194326767,0
11,24,1272.98931794269,0.000999999999976353
11,25,1818.30603085665,0.000999999999976353
11,26,1502.79165402933,0
11,27,1239.58767230172,0.000999999999976353
11,28,1923.18735608741,0.000999999999976353
11,29,1430.89822767757,0
11,30,2145.73611783239,0.000999999999976353
12,13,1558.67195461879,0
12,14,977.701484336206,0
12,15,2329.46592316338,0.000999999999976353
12,16,1165.2011467986,0
12,17,2304.54713812334,0.000999999999976353
12,18,1003.93091166536,0.000999999999976353
12,19,3079.42181847429,0
12,20,832.65383373859,0.000999999999976353
12,21,2456.39054944661,0.000999999999976353
12,22,631.120824077353,0
12,23,1540.86255374518,0.000999999999976353
12,24,1224.68408528725,0.000999999999976353
12,25,1493.01110235792,0
12,26,955.256426127117,0.000999999999976353
12,27,750.645039041577,0
12,28,1884.18566779139,0.000999999999976353
12,29,1015.00183310794,0.00100000000020373
12,30,2126.35127371572,0
13,14,1370.26870725453,0.000999999999976353
13,15,2141.48690378597,0.000999999999976353
13,16,1378.94995963502,0
13,17,2470.92881549162,0.000999999999976353
13,18,1305.67730945784,0
13,19,3530.72048223898,0
13,20,1355.51612539824,0.000999999999976353
13,21,2876.85576213454,0
13,22,1567.14729552197,0.000999999999976353
13,23,2404.32635167298,0.000999999999976353
13,24,1494.29588187291,0
13,25,1397.56069720959,0.000999999999976353
13,26,1541.40934193844,0.000999999999976353
13,27,1379.2963808357,0
13,28,1321.20492600289,0.00100000000020373
13,29,1332.89774115984,0
13,30,1745.41260875988,0
14,15,2375.6641040253,0.000999999999976353
14,16,956.659773251617,0
14,17,2460.74032157171,0.000999999999976353
14,18,651.885246876804,0.000999999999976353
14,19,3459.99063976359,0
14,20,947.763912687082,0.0080000000000382
14,21,3066.38131524092,0.000999999999976353
14,22,993.358870740243,0
14,23,2122.3510081762,0.000999999999976353
14,24,934.467780469968,0.000999999999976353
14,25,1471.35763406268,0
14,26,1187.72335334,0.000999999999976353
14,27,902.142646666973,0
14,28,1904.11632473874,0
14,29,1018.07739229452,0.000999999999976353
14,30,2032.92495338443,0
15,16,2490.33106110399,0.00100000000020373
15,17,2168.62733970503,0.000999999999976353
15,18,2188.27821470831,0
15,19,3375.90589157985,0.000999999999976353
15,20,2030.91376680543,0
15,21,3161.59245413716,0
15,22,2228.03331451976,0.000999999999976353
15,23,3276.90225520695,0
15,24,1787.51919582207,0.000999999999976353
15,25,2184.71051388948,0.000999999999976353
15,26,2628.18719096129,0
15,27,2138.01127838357,0.000999999999976353
15,28,1778.45832652451,0
15,29,2051.38158262636,0
15,30,1127.24162504154,0.00100000000020373
16,17,2814.40832274461,0
16,18,1135.50926655635,0.000999999999976353
16,19,3360.87040633458,0.000999999999976353
16,20,1105.6358828462,0
16,21,3115.98287975597,0.000999999999976353
16,22,1371.38454700813,0
16,23,1798.85675734412,0.000999999999976353
16,24,1362.71738811514,0.000999999999976353
16,25,1717.56602615413,0
16,26,1388.60352571433,0.000999999999976353
16,27,1138.89372648871,0.000999999999976353
16,28,1740.03064644634,0
16,29,1355.88741044013,0.000999999999976353
16,30,2241.47760250137,0
17,18,2140.67042056437,0.000999999999976353
17,19,3136.88478895471,0.00100000000020373
17,20,1896.97908228409,0
17,21,2725.24356569935,0.000999999999976353
17,22,1957.77309782327,0.000999999999976353
17,23,3402.69470905836,0
17,24,2037.43083045058,0.000999999999976353
17,25,2121.68101911771,0
17,26,2284.96423525404,0
17,27,1992.7512482467,0.000999999999976353
17,28,2633.74295128968,0
17,29,1763.0875460654,0.000999999999976353
17,30,1950.80411069784,0.000999999999976353
18,19,3251.41873813913,0
18,20,689.469072895236,0.000999999999976353
18,21,2865.67803683245,0
18,22,837.493388967392,0
18,23,2200.15377183518,0.00100000000020373
18,24,860.452916337487,0
18,25,1153.66455001545,0.000999999999976353
18,26,1192.15123185522,0.000999999999976353
18,27,777.938551882263,0
18,28,1948.09573344781,0.000999999999976353
18,29,873.345080477509,0.000999999999976353
18,30,1843.15578537525,0
19,20,2931.87155268129,0.000999999999976353
19,21,3084.13086186591,0.000999999999976353
19,22,2978.41440946926,0
19,23,3123.98507281448,0.000999999999976353
19,24,3146.93296906082,0
19,25,2794.36519720825,0.000999999999976353
19,26,3318.61985938284,0.00100000000020373
19,27,3217.42748277397,0
19,28,3423.11444006936,0.000999999999976353
19,29,2882.33532064649,0.000999999999976353
19,30,3170.19914155351,0
20,21,2598.24521666569,0.000999999999976353
20,22,636.589360744938,0
20,23,2040.13378723593,0
20,24,882.050755417909,0.000999999999976353
20,25,1230.24110735917,0
20,26,1132.40678278438,0.000999999999976353
20,27,741.548404251447,0.000999999999976353
20,28,1832.03456333376,0
20,29,749.515222122503,0.000999999999976353
20,30,1789.65042846115,0.000999999999976353
21,22,2366.09575285469,0
21,23,2688.59091766048,0.00100000000020373
21,24,3000.17169305577,0
21,25,2804.97499113827,0
21,26,2444.33168557344,0.000999999999976353
21,27,2610.32629308871,0
21,28,3039.62026442432,0.000999999999976353
21,29,2545.01515193186,0.000999999999976353
21,30,2856.17109871136,0
22,23,1854.77746755106,0.000999999999976353
22,24,1112.849528379,0.000999999999976353
22,25,1378.37939889816,0
22,26,1047.02720451363,0.000999999999976353
22,27,750.722718787699,0.00700000000006185
22,28,2020.66694749843,0
22,29,904.464591710323,0.000999999999976353
22,30,1982.6396331399,0
23,24,2467.00292850129,0
23,25,2339.38555933705,0.000999999999976353
23,26,1857.32540580928,0
23,27,1966.16926065981,0.00100000000020373
23,28,2563.31005191435,0.000999999999976353
23,29,2201.88614324858,0
23,30,3184.175980292,0.000999999999976353
24,25,1297.79487651548,0
24,26,1444.79564775607,0
24,27,1045.75943062522,0.000999999999976353
24,28,1812.69080536908,0
24,29,988.391901581498,0.000999999999976353
24,30,1519.41263369803,0.000999999999976353
25,26,1541.46625269158,0
25,27,1472.3098712797,0.000999999999976353
25,28,2000.74623637855,0
25,29,1054.8019861936,0
25,30,1873.18764618277,0.000999999999976353
26,27,975.6778302759,0
26,28,2192.00308633778,0.00100000000020373
26,29,1093.34393913752,0.000999999999976353
26,30,2322.77541563041,0
27,28,1760.04551663203,0.000999999999976353
27,29,856.618354870855,0
27,30,1840.81791591085,0.000999999999976353
28,29,1801.24402751453,0.000999999999976353
28,30,1524.34181474336,0
29,30,1673.85112464577,0.000999999999976353


"After.Trace.ID","Before.Trace.ID","Difference","Runtime"
1,1,5653.08519796511,0
1,2,6063.93181102502,0.000999999999976353
1,3,5937.93905651973,0.00100000000020373
1,4,5774.41477342261,0
1,5,5866.45900039962,0.000999999999976353
1,6,5683.52692852278,0.000999999999976353
1,7,6297.28102248507,0
1,8,6276.37445183627,0.000999999999976353
1,9,6024.73766086796,0
1,10,6074.41422553876,0
1,11,5987.17646400498,0.000999999999976353
1,12,6020.49998368889,0
1,13,6524.62874549158,0.000999999999976353
1,14,5830.41357159286,0.000999999999976353
1,15,7338.50133242747,0
1,16,5871.96174981981,0.000999999999976353
1,17,7031.95517866954,0.000999999999976353
1,18,6064.64618123055,0
1,19,5901.35474764006,0.00100000000020373
1,20,6123.38861172156,0.000999999999976353
1,21,6859.16754477146,0
1,22,6065.33829118869,0.000999999999976353
1,23,5658.53122864374,0
1,24,6233.78045714974,0
1,25,6207.10433636575,0.000999999999976353
1,26,5934.78655700718,0
1,27,6151.85224252899,0.000999999999976353
1,28,6842.49297615036,0.000999999999976353
1,29,5979.49128653989,0
1,30,7042.35673043173,0.000999999999976353
2,1,5632.11929460313,0.000999999999976353
2,2,6585.4384596328,0
2,3,5652.10272615004,0.00100000000020373
2,4,6210.66006091756,0.000999999999976353
2,5,5847.44209268,0
2,6,6105.75690017542,0.000999999999976353
2,7,6283.74083980499,0
2,8,6375.99207829175,0.000999999999976353
2,9,5887.84742755984,0.000999999999976353
2,10,4773.15316952544,0
2,11,5647.35152344152,0.000999999999976353
2,12,6078.52804199136,0.000999999999976353
2,13,6146.39254141327,0
2,14,5602.09028628444,0.000999999999976353
2,15,7508.77114266787,0.000999999999976353
2,16,5641.32310280635,0
2,17,7143.93970305786,0.000999999999976353
2,18,5941.95688582391,0.000999999999976353
2,19,7117.08427651578,0
2,20,6123.93727965342,0.000999999999976353
2,21,7529.31771279582,0
2,22,6154.91459935372,0
2,23,5979.90036369104,0.000999999999976353
2,24,6250.06889532353,0
2,25,6145.39059915032,0.000999999999976353
2,26,5922.78829644915,0.000999999999976353
2,27,6123.58433691245,0
2,28,6630.2107786342,0.000999999999976353
2,29,5973.19624162972,0.000999999999976353
2,30,7178.67842379136,0
3,1,5161.76287468053,0.000999999999976353
3,2,6160.87315699164,0
3,3,4959.02850370978,0.000999999999976353
3,4,5751.91852651357,0.000999999999976353
3,5,5375.32773417353,0
3,6,5590.79640543513,0.000999999999976353
3,7,5791.25361380723,0.00100000000020373
3,8,5758.16468483151,0
3,9,5535.36600294161,0.000999999999976353
3,10,4689.48671825401,0
3,11,5175.76356640408,0.000999999999976353
3,12,5401.89766561383,0.000999999999976353
3,13,5716.70336721571,0
3,14,5093.45676988105,0.000999999999976353
3,15,7079.40812785479,0.000999999999976353
3,16,5163.46857028344,0
3,17,6652.15988727577,0.000999999999976353
3,18,5476.98559729144,0
3,19,6671.15095538375,0.000999999999976353
3,20,5630.49155440193,0.000999999999976353
3,21,6671.92973953327,0
3,22,5541.6343997939,0.000999999999976353
3,23,5159.97910578997,0
3,24,5794.12133974388,0
3,25,5742.49516653714,0.000999999999976353
3,26,5217.34769890548,0
3,27,5504.01518004581,0.000999999999976353
3,28,6143.48622791726,0.000999999999976353
3,29,5457.35131323589,0
3,30,6748.11843077249,0.000999999999976353
4,1,6719.60234895512,0.000999999999976353
4,2,7606.08322518965,0
4,3,6734.76248863219,0.000999999999976353
4,4,7246.21031108884,0
4,5,6937.720885987,0.000999999999976353
4,6,7218.59727578454,0.000999999999976353
4,7,7392.82547518991,0
4,8,7449.65676405313,0.00100000000020373
4,9,6948.30948118538,0.000999999999976353
4,10,5212.97394440415,0
4,11,6621.01363036822,0.000999999999976353
4,12,7188.91057515792,0
4,13,7162.30407990318,0
4,14,6646.66037873323,0.000999999999976353
4,15,8478.55424007883,0
4,16,6753.72183382901,0.000999999999976353
4,17,8046.94187705609,0.000999999999976353
4,18,6981.18984434523,0
4,19,8103.93762344639,0.000999999999976353
4,20,7180.78842737015,0.000999999999976353
4,21,8523.89788998152,0
4,22,7218.90393420405,0.000999999999976353
4,23,7181.04030868465,0.00100000000020373
4,24,7258.26638769556,0
4,25,7197.93905542564,0.000999999999976353
4,26,6989.87586751757,0
4,27,7164.06188517826,0
4,28,7631.37260587688,0.000999999999976353
4,29,6992.45249951886,0
4,30,8083.15993189297,0.000999999999976353
5,1,6621.88081411203,0.000999999999976353
5,2,7390.27581194346,0
5,3,6646.42056091462,0.000999999999976353
5,4,7058.58167775293,0.000999999999976353
5,5,6838.54984236767,0
5,6,6968.49861077805,0.000999999999976353
5,7,7246.28691666473,0
5,8,6921.87741355138,0
5,9,6687.49949052803,0.000999999999976353
5,10,4393.18685319557,0
5,11,6490.29844408163,0.000999999999976353
5,12,6997.76394170646,0.000999999999976353
5,13,6676.14742869823,0
5,14,6496.7043121609,0.000999999999976353
5,15,8109.67914389613,0.000999999999976353
5,16,6668.74325629474,0
5,17,7594.17874906941,0.000999999999976353
5,18,6756.01275544239,0.000999999999976353
5,19,7626.91519494694,0
5,20,6959.18663049207,0.000999999999976353
5,21,7914.8619867141,0
5,22,6970.78736658513,0
5,23,7013.91090688653,0.0080000000000382
5,24,7056.58740081407,0.000999999999976353
5,25,6698.78716415827,0
5,26,6742.83146501644,0.000999999999976353
5,27,6976.95313763325,0.00100000000020373
5,28,7197.6782286531,0
5,29,6653.12009747679,0.000999999999976353
5,30,7620.6851109845,0
6,1,7140.73998064825,0.000999999999976353
6,2,8072.95180599402,0.000999999999976353
6,3,7131.82024073546,0
6,4,7626.02639184086,0.000999999999976353
6,5,7348.62898463087,0.000999999999976353
6,6,7656.05004037686,0
6,7,7724.45516203887,0.000999999999976353
6,8,7876.23919315716,0
6,9,7223.32200440104,0
6,10,5526.11865888147,0.000999999999976353
6,11,6923.14058895517,0
6,12,7564.05096629098,0.00100000000020373
6,13,7348.43114400578,0.000999999999976353
6,14,6984.27768690454,0
6,15,8670.79375997238,0.000999999999976353
6,16,7056.90837225444,0
6,17,8421.39854446622,0
6,18,7350.87782419406,0.000999999999976353
6,19,8562.89303132356,0
6,20,7551.25856375026,0.000999999999976353
6,21,8934.12119559121,0.000999999999976353
6,22,7621.38371673217,0
6,23,7557.62656979392,0.000999999999976353
6,24,7586.22594450738,0
6,25,7513.43738977564,0
6,26,7375.88577335626,0.000999999999976353
6,27,7532.82603214879,0
6,28,7744.34208797801,0.00100000000020373
6,29,7341.76196112102,0.000999999999976353
6,30,8302.46377827838,0
7,1,6404.46768258927,0.000999999999976353
7,2,7330.75033253343,0
7,3,6326.34811964234,0
7,4,6986.53518295527,0.000999999999976353
7,5,6651.65442268807,0
7,6,6853.37301843667,0.000999999999976353
7,7,7041.46948739922,0.000999999999976353
7,8,6946.42479991246,0
7,9,6572.24486993613,0.000999999999976353
7,10,4573.29746032439,0
7,11,6349.03845685902,0
7,12,6801.3770053149,0.000999999999976353
7,13,6691.30240588958,0
7,14,6294.60370213983,0.00100000000020373
7,15,8098.28669274759,0.000999999999976353
7,16,6400.2076934475,0
7,17,7700.81189926108,0.000999999999976353
7,18,6631.00880401921,0.000999999999976353
7,19,7852.49535702659,0
7,20,6824.05423979405,0.000999999999976353
7,21,7994.48227981119,0
7,22,6824.68064752801,0.000999999999976353
7,23,6747.75733642715,0.000999999999976353
7,24,6961.92281997171,0
7,25,6812.53747993225,0.000999999999976353
7,26,6606.11361068593,0.000999999999976353
7,27,6817.97856010438,0
7,28,7188.83203910103,0.00100000000020373
7,29,6629.77404122479,0.000999999999976353
7,30,7721.78096668738,0
8,1,6571.51478409274,0.000999999999976353
8,2,7552.99953526264,0.000999999999976353
8,3,6637.91783483724,0
8,4,6960.50249509941,0.000999999999976353
8,5,6817.18036342193,0
8,6,7092.68335686188,0.000999999999976353
8,7,7201.82113758545,0.000999999999976353
8,8,7357.44420909263,0
8,9,6805.9851459275,0.000999999999976353
8,10,5744.50518855592,0.000999999999976353
8,11,6400.71033178071,0
8,12,6913.48034484741,0.000999999999976353
8,13,6963.57094040816,0.00100000000020373
8,14,6433.85412780424,0
8,15,8122.38684392981,0.000999999999976353
8,16,6539.01005988477,0
8,17,8012.88639386976,0
8,18,6837.65423078871,0.000999999999976353
8,19,7772.05404877461,0
8,20,7046.1376589902,0.000999999999976353
8,21,8263.62798832599,0.000999999999976353
8,22,7031.7714976215,0
8,23,6794.00949143339,0.000999999999976353
8,24,7030.26767442828,0.000999999999976353
8,25,7036.41782517384,0
8,26,6826.70667867128,0.000999999999976353
8,27,6938.83080178159,0
8,28,7215.66651304514,0
8,29,6816.8431087834,0.000999999999976353
8,30,7758.10562185029,0
9,1,6094.64343437962,0.000999999999976353
9,2,6874.54804565855,0.0080000000000382
9,3,6112.67441854238,0
9,4,6429.3273905757,0
9,5,6282.8863565707,0.000999999999976353
9,6,6515.79656621643,0
9,7,6695.60472593195,0.000999999999976353
9,8,6816.8881546617,0.000999999999976353
9,9,6191.55836207184,0
9,10,4717.82915621805,0.000999999999976353
9,11,5929.29166770317,0.000999999999976353
9,12,6510.59011085989,0
9,13,6420.96572228077,0.000999999999976353
9,14,5959.23595329583,0
9,15,7667.28278685283,0.000999999999976353
9,16,6033.94228959124,0.000999999999976353
9,17,7307.43222952472,0
9,18,6307.77868331249,0.00100000000020373
9,19,7335.60627574991,0.000999999999976353
9,20,6472.76375143875,0
9,21,7772.24361353121,0.000999999999976353
9,22,6528.21916533644,0
9,23,6526.91243265295,0.000999999999976353
9,24,6547.60544725187,0.000999999999976353
9,25,6540.18334283039,0
9,26,6332.9665078646,0.000999999999976353
9,27,6459.02897823266,0.000999999999976353
9,28,6814.79971172673,0
9,29,6257.35412363904,0.000999999999976353
9,30,7261.99578310603,0
10,1,6540.08249423842,0
10,2,7377.4722822687,0.00100000000020373
10,3,6599.25438280309,0
10,4,6826.8035480584,0.000999999999976353
10,5,6752.91969453373,0.000999999999976353
10,6,7078.9503970874,0
10,7,7123.10667303739,0.000999999999976353
10,8,7269.0877778865,0
10,9,6552.17927708997,0.000999999999976353
10,10,5044.42423206706,0.000999999999976353
10,11,6259.50371360153,0
10,12,6924.68983401876,0.000999999999976353
10,13,6698.00036881465,0.000999999999976353
10,14,6348.43149428037,0
10,15,7811.29858771928,0.000999999999976353
10,16,6476.54147129542,0
10,17,7591.97128290843,0
10,18,6704.85958224748,0.00100000000020373
10,19,7650.65737055474,0
10,20,6894.94485156554,0.000999999999976353
10,21,8175.11926859217,0.000999999999976353
10,22,6962.51084056189,0
10,23,7015.10419820308,0.000999999999976353
10,24,6871.51101893699,0
10,25,6834.06248677969,0
10,26,6782.11357323173,0.000999999999976353
10,27,6835.57735129359,0
10,28,6938.16830370672,0.000999999999976353
10,29,6609.79952392095,0.000999999999976353
10,30,7393.47202196957,0
11,1,6916.44586746528,0.000999999999976353
11,2,7839.51545564607,0.00100000000020373
11,3,6881.31921590923,0
11,4,7432.56330248912,0.000999999999976353
11,5,7126.1804295239,0
11,6,7418.03293119667,0
11,7,7520.9700126631,0.000999999999976353
11,8,7627.65321660319,0
11,9,7066.4243184333,0
11,10,5255.52687025362,0.000999999999976353
11,11,6721.55841914825,0
11,12,7332.87057241297,0.000999999999976353
11,13,7197.53005545943,0.000999999999976353
11,14,6761.72569035237,0
11,15,8552.14613334532,0.000999999999976353
11,16,6861.52147835989,0.000999999999976353
11,17,8221.42717354617,0
11,18,7132.8641047955,0.00100000000020373
11,19,8397.63479246763,0
11,20,7334.23723081556,0
11,21,8686.35002973241,0.000999999999976353
11,22,7378.09047486413,0
11,23,7346.56470810589,0.000999999999976353
11,24,7396.80294331887,0.000999999999976353
11,25,7357.56582287076,0
11,26,7142.79155740635,0.000999999999976353
11,27,7310.2587870117,0.000999999999976353
11,28,7633.29938045545,0
11,29,7138.21814643326,0.000999999999976353
11,30,8164.94519565974,0
12,1,6164.14049619586,0
12,2,6855.30430308876,0.000999999999976353
12,3,6271.89238041527,0
12,4,6410.90168785774,0.00100000000020373
12,5,6414.97013723408,0.000999999999976353
12,6,6714.38731735902,0
12,7,6813.49299865029,0.000999999999976353
12,8,6908.38758667744,0.000999999999976353
12,9,6150.75509197811,0
12,10,4641.86199912018,0.000999999999976353
12,11,6204.94640006542,0.0080000000000382
12,12,6666.12496811401,0
12,13,6566.68970765421,0.000999999999976353
12,14,6146.95582195604,0.000999999999976353
12,15,7574.48623096605,0
12,16,6238.2311915475,0.000999999999976353
12,17,7137.6069521793,0
12,18,6442.79712988503,0
12,19,7114.16555089434,0.000999999999976353
12,20,6524.15788447259,0
12,21,7921.11101173207,0.000999999999976353
12,22,6626.29439285564,0.00100000000020373
12,23,6787.06318731202,0
12,24,6615.48715181946,0.000999999999976353
12,25,6561.45943691784,0
12,26,6572.42127284712,0
12,27,6620.78621476947,0.000999999999976353
12,28,6858.4439124912,0
12,29,6331.73999889431,0.000999999999976353
12,30,7248.15807014341,0.000999999999976353
13,1,6555.10891760812,0
13,2,7508.75953513022,0.000999999999976353
13,3,6492.3806825036,0
13,4,7130.19761244292,0
13,5,6769.37408472688,0.000999999999976353
13,6,7116.68998162817,0
13,7,7157.59252020579,0.000999999999976353
13,8,7261.76185054398,0.00100000000020373
13,9,6682.47754542482,0
13,10,4802.6427266313,0.000999999999976353
13,11,6372.21954100972,0
13,12,6985.10733403425,0
13,13,6815.50152919141,0.000999999999976353
13,14,6395.07496509683,0
13,15,8175.43888744037,0.000999999999976353
13,16,6506.74122733001,0.000999999999976353
13,17,7823.79636673576,0
13,18,6760.50113103109,0.000999999999976353
13,19,8164.43527838849,0
13,20,6964.04197248021,0
13,21,8378.67671800812,0.000999999999976353
13,22,7013.83269554811,0
13,23,7053.72481254106,0.00100000000020373
13,24,7035.81230569836,0.000999999999976353
13,25,6996.71958953342,0
13,26,6795.86093945689,0.000999999999976353
13,27,6945.84967870393,0
13,28,7270.70012546383,0
13,29,6780.93235197375,0.000999999999976353
13,30,7800.00012686089,0
14,1,5815.67442138976,0.000999999999976353
14,2,6315.30994227691,0.000999999999976353
14,3,6016.48398028845,0
14,4,5931.33525131795,0.000999999999976353
14,5,5989.55367058401,0.000999999999976353
14,6,6004.35987421872,0
14,7,6366.78708684931,0.000999999999976353
14,8,6525.29248667812,0
14,9,5830.0490911578,0.00100000000020373
14,10,5054.27753210386,0.000999999999976353
14,11,5797.3817897607,0
14,12,6261.14314589719,0.000999999999976353
14,13,6197.73947584821,0.000999999999976353
14,14,5785.93194832252,0
14,15,7165.48576850935,0.000999999999976353
14,16,5819.88299213168,0.000999999999976353
14,17,6939.83354645522,0
14,18,6070.47005872109,0.000999999999976353
14,19,6422.5881319197,0.000999999999976353
14,20,6152.81248751973,0
14,21,7313.39670977376,0.000999999999976353
14,22,6251.81566754803,0
14,23,6225.25274915134,0
14,24,6200.15217734483,0.000999999999976353
14,25,6150.51275414283,0
14,26,6117.01125013462,0.000999999999976353
14,27,6250.60403122725,0.000999999999976353
14,28,6518.3008491085,0
14,29,5927.5328447814,0.000999999999976353
14,30,6805.54737436555,0.000999999999976353
15,1,6112.16378066727,0
15,2,6992.55117017817,0.000999999999976353
15,3,6033.29391464833,0
15,4,6524.15999733094,0
15,5,6308.74300701666,0.000999999999976353
15,6,6423.06081745647,0
15,7,6681.91927350052,0.000999999999976353
15,8,6651.94028070167,0.00100000000020373
15,9,6267.34118272833,0
15,10,4789.90238370663,0.000999999999976353
15,11,5922.99032147286,0.000999999999976353
15,12,6404.62642782035,0
15,13,6338.70267438105,0.000999999999976353
15,14,5933.74236377359,0.000999999999976353
15,15,7786.56771512143,0
15,16,5970.70739378816,0.000999999999976353
15,17,7476.10624680586,0
15,18,6300.85453008316,0
15,19,7421.55030802133,0.000999999999976353
15,20,6486.20734293889,0.00700000000006185
15,21,7548.39059034504,0
15,22,6477.33660635761,0.000999999999976353
15,23,6262.27576415837,0
15,24,6619.17016823572,0.000999999999976353
15,25,6521.09759292449,0.000999999999976353
15,26,6210.93875738943,0
15,27,6432.73098584948,0.00100000000020373
15,28,6777.22627557574,0.000999999999976353
15,29,6282.52287029052,0
15,30,7356.73886618947,0.000999999999976353
16,1,5845.65071330571,0
16,2,6288.26125621632,0
16,3,5905.05616425395,0.000999999999976353
16,4,5877.1230265028,0
16,5,5997.7030376115,0.000999999999976353
16,6,5968.0474468331,0.000999999999976353
16,7,6403.09275217056,0
16,8,6401.58335364184,0.000999999999976353
16,9,5996.65780452342,0
16,10,5067.2335075688,0
16,11,5781.06567534343,0.000999999999976353
16,12,6132.93630498598,0
16,13,6273.83534344097,0.00100000000020373
16,14,5748.25575952931,0.000999999999976353
16,15,7290.0271487248,0
16,16,5828.49657654699,0.000999999999976353
16,17,6974.94771720771,0
16,18,6064.69653495824,0
16,19,6451.22082020255,0.000999999999976353
16,20,6160.4359484565,0
16,21,6959.28019528048,0.000999999999976353
16,22,6159.02368230258,0.000999999999976353
16,23,6025.41050651433,0
16,24,6234.65024866226,0.000999999999976353
16,25,6222.68096539916,0
16,26,5972.11344052751,0
16,27,6153.96721947194,0.00100000000020373
16,28,6587.99722419975,0
16,29,5899.72648656302,0.000999999999976353
16,30,6869.71542156001,0.000999999999976353
17,1,6662.15004493356,0
17,2,7337.48748471195,0.000999999999976353
17,3,6803.39435683747,0
17,4,6914.00293843243,0
17,5,6885.42487466301,0.000999999999976353
17,6,7144.97521644247,0
17,7,7314.27295329033,0.000999999999976353
17,8,7405.00258155068,0.000999999999976353
17,9,6781.59477853518,0
17,10,5234.78333166539,0.000999999999976353
17,11,6524.31916814927,0
17,12,7112.14803213256,0
17,13,7039.37384187408,0.00100000000020373
17,14,6566.67689514933,0
17,15,8002.52503504837,0.000999999999976353
17,16,6749.61949958783,0.000999999999976353
17,17,7698.2900409649,0
17,18,6880.60056335408,0.000999999999976353
17,19,7551.48919697364,0.000999999999976353
17,20,7053.58726572172,0
17,21,8233.05529603755,0.000999999999976353
17,22,7094.37411564168,0
17,23,7210.95741115621,0
17,24,7030.71867053194,0.000999999999976353
17,25,7045.34900597822,0
17,26,6955.5291129916,0
17,27,7024.44988176382,0.000999999999976353
17,28,7333.06914893305,0
17,29,6781.79018817668,0.00100000000020373
17,30,7595.45758422038,0.000999999999976353
18,1,5511.15908393364,0
18,2,6390.49018460784,0.000999999999976353
18,3,5518.61547993447,0.000999999999976353
18,4,5816.1240093528,0
18,5,5680.64910719414,0.000999999999976353
18,6,5724.11195731232,0.000999999999976353
18,7,6022.72782335131,0
18,8,6071.4307418212,0.000999999999976353
18,9,5605.94313896119,0
18,10,4977.45815357667,0.000999999999976353
18,11,5348.9875806195,0.000999999999976353
18,12,5776.67992110016,0
18,13,5696.7212442179,0.00100000000020373
18,14,5367.2951694899,0.000999999999976353
18,15,7140.47478666811,0
18,16,5294.74019585343,0.000999999999976353
18,17,6959.85138649392,0.000999999999976353
18,18,5728.7315774613,0
18,19,6645.56545744573,0.000999999999976353
18,20,5883.59390310948,0
18,21,6967.78561296995,0
18,22,5913.79157273833,0.000999999999976353
18,23,5483.80448153028,0
18,24,6006.55248923969,0.000999999999976353
18,25,5817.09350589797,0.000999999999976353
18,26,5595.00741057568,0
18,27,5851.00765091528,0.000999999999976353
18,28,6080.16603298665,0.00100000000020373
18,29,5665.30736749477,0.00699999999983447
18,30,6760.94817185168,0.000999999999976353
19,1,6598.60978815057,0.000999999999976353
19,2,7486.98424552789,0
19,3,6628.86770571432,0.00100000000020373
19,4,7055.73600667934,0.000999999999976353
19,5,6839.96036192898,0
19,6,7171.20792623523,0.000999999999976353
19,7,7260.53943372652,0.000999999999976353
19,8,7354.22295011051,0
19,9,6735.30459619233,0.000999999999976353
19,10,4980.01500274067,0
19,11,6499.5820806992,0.000999999999976353
19,12,7066.661001637,0.000999999999976353
19,13,6985.77972529675,0
19,14,6501.40653586294,0.000999999999976353
19,15,8215.68209067224,0.000999999999976353
19,16,6625.99975706771,0
19,17,7823.14289330063,0.00100000000020373
19,18,6849.61144036613,0
19,19,7927.98936896053,0
19,20,7035.66778284689,0.000999999999976353
19,21,8430.23801612985,0
19,22,7085.74712369376,0.000999999999976353
19,23,7111.43301598983,0.000999999999976353
19,24,7091.40756951216,0
19,25,7048.33174554792,0.000999999999976353
19,26,6914.11954753179,0
19,27,7027.27321538072,0
19,28,7370.49286110684,0.000999999999976353
19,29,6827.2517327744,0
19,30,7833.04913041548,0.000999999999976353
20,1,6519.21588104954,0.000999999999976353
20,2,7231.04958018779,0
20,3,6485.74363613962,0.00100000000020373
20,4,6896.1982156371,0
20,5,6757.07956783478,0
20,6,6829.36949375005,0.000999999999976353
20,7,7131.26376048794,0
20,8,6782.07230670429,0.000999999999976353
20,9,6533.18940457502,0.000999999999976353
20,10,4246.43608178155,0
20,11,6506.30948177922,0.000999999999976353
20,12,6860.3817904369,0
20,13,6616.57588866381,0
20,14,6418.14402929264,0.000999999999976353
20,15,7989.30798916695,0
20,16,6559.35364665311,0.000999999999976353
20,17,7469.9088951013,0.00100000000020373
20,18,6683.34659867844,0
20,19,7422.7270337059,0.000999999999976353
20,20,6836.66049591504,0.000999999999976353
20,21,7710.92596143901,0
20,22,6838.44236152346,0.000999999999976353
20,23,6828.99112093421,0
20,24,6993.47694137742,0.000999999999976353
20,25,6627.33402671309,0.000999999999976353
20,26,6643.23958428978,0
20,27,6891.4912557632,0.000999999999976353
20,28,7092.60614902199,0.000999999999976353
20,29,6547.26082427306,0
20,30,7545.11236711634,0.000999999999976353
21,1,5904.5971011991,0.000999999999976353
21,2,6794.08690582315,0
21,3,5862.96696713406,0.00100000000020373
21,4,6273.44280572002,0.000999999999976353
21,5,6109.67454833679,0
21,6,6323.28581272686,0.000999999999976353
21,7,6480.86948872399,0
21,8,6500.3554694541,0
21,9,5955.58247305252,0.000999999999976353
21,10,4495.39115952456,0
21,11,5696.40322655828,0.000999999999976353
21,12,6237.91547258068,0.000999999999976353
21,13,6062.06690330812,0
21,14,5730.48409871869,0.000999999999976353
21,15,7452.10744874265,0.000999999999976353
21,16,5784.19886697654,0
21,17,7116.94669339277,0.000999999999976353
21,18,6093.24442683157,0
21,19,7176.42641312763,0
21,20,6259.70411072776,0.000999999999976353
21,21,7465.42882966117,0
21,22,6294.69797714386,0.000999999999976353
21,23,6181.62229334445,0.000999999999976353
21,24,6361.97507817924,0
21,25,6241.27211842039,0.000999999999976353
21,26,6052.87863770571,0.000999999999976353
21,27,6219.34468235026,0
21,28,6442.35355422366,0.000999999999976353
21,29,6021.58363774793,0.000999999999976353
21,30,7035.73998441176,0
22,1,5922.19164870039,0.000999999999976353
22,2,6615.02301067217,0.00100000000020373
22,3,5982.0684525637,0
22,4,6261.87812606194,0.000999999999976353
22,5,6123.82138669852,0
22,6,6288.64338244755,0
22,7,6564.95580675118,0.000999999999976353
22,8,6468.38236605869,0.0080000000000382
22,9,6004.25806459468,0.000999999999976353
22,10,4286.75828532106,0
22,11,5860.11088990272,0.000999999999976353
22,12,6362.97011585591,0
22,13,6216.05404886189,0
22,14,5861.01542812924,0.000999999999976353
22,15,7501.13009796275,0
22,16,5965.2065780501,0.000999999999976353
22,17,6998.90894340434,0.000999999999976353
22,18,6138.83820287608,0
22,19,6911.88970644436,0.000999999999976353
22,20,6286.03772998199,0.00100000000020373
22,21,7450.79791199758,0
22,22,6347.93312957474,0.000999999999976353
22,23,6382.96539647988,0
22,24,6391.89467132872,0
22,25,6182.16947210004,0.000999999999976353
22,26,6141.19057465679,0
22,27,6333.42683424864,0.000999999999976353
22,28,6679.79911473614,0.000999999999976353
22,29,6028.03507333305,0
22,30,7067.57785021253,0.000999999999976353
23,1,6530.10275047519,0.000999999999976353
23,2,7378.96438430918,0
23,3,6456.96516361994,0.000999999999976353
23,4,6811.58219491879,0
23,5,6708.70013520387,0.000999999999976353
23,6,6885.80955834535,0.00100000000020373
23,7,7023.32704051922,0
23,8,7102.45233135111,0.000999999999976353
23,9,6532.15631252489,0.000999999999976353
23,10,4965.84636831613,0
23,11,6179.84287111341,0.000999999999976353
23,12,6789.22306902968,0
23,13,6529.31094895506,0
23,14,6248.37012392092,0.000999999999976353
23,15,7879.68577216805,0
23,16,6304.98472269415,0.000999999999976353
23,17,7692.76800236046,0.000999999999976353
23,18,6636.70565640043,0
23,19,7777.19111603094,0.000999999999976353
23,20,6822.88336361943,0.000999999999976353
23,21,7920.27863437121,0
23,22,6852.13134931557,0.00100000000020373
23,23,6774.25011785888,0
23,24,6883.21632336434,0.000999999999976353
23,25,6837.99197095492,0.000999999999976353
23,26,6616.52393575693,0
23,27,6757.34596432515,0.000999999999976353
23,28,6856.41145774177,0.000999999999976353
23,29,6570.8646481573,0
23,30,7435.76348891099,0.000999999999976353
24,1,4733.61075640238,0
24,2,5645.33939247774,0
24,3,4704.19327001713,0.000999999999976353
24,4,5023.04382704685,0
24,5,4904.63793363138,0.000999999999976353
24,6,4969.60370608652,0.00100000000020373
24,7,5201.71028414564,0
24,8,5353.32865151293,0.000999999999976353
24,9,4794.83529639979,0.000999999999976353
24,10,4563.09201262445,0
24,11,4555.07606294434,0.000999999999976353
24,12,4972.36325477706,0.000999999999976353
24,13,4896.35523572015,0
24,14,4548.5213280998,0.000999999999976353
24,15,6347.56267375293,0.000999999999976353
24,16,4421.49738767446,0
24,17,6264.51307274647,0.000999999999976353
24,18,4934.48857726662,0.000999999999976353
24,19,6085.61566331774,0
24,20,5070.60862625719,0.000999999999976353
24,21,6280.35559053746,0
24,22,5108.86462312687,0
24,23,4710.30682348235,0.000999999999976353
24,24,5225.74866806162,0
24,25,5132.97407717471,0.000999999999976353
24,26,4833.13009674166,0.000999999999976353
24,27,5042.77018914395,0
24,28,5268.60280197024,0.000999999999976353
24,29,4920.08546811557,0.000999999999976353
24,30,6002.58466331164,0
25,1,5677.32768718373,0.000999999999976353
25,2,6466.89078969375,0
25,3,5631.37197070015,0
25,4,5925.2048135428,0.000999999999976353
25,5,5834.3637975812,0
25,6,6068.67469894474,0.000999999999976353
25,7,6150.98876812949,0.00100000000020373
25,8,6266.93159864816,0
25,9,5578.9016456893,0.000999999999976353
25,10,4211.17019832132,0.000999999999976353
25,11,5302.59699430632,0
25,12,5968.86637762381,0.000999999999976353
25,13,5592.77964335785,0.000999999999976353
25,14,5414.55590486445,0
25,15,6931.50984163549,0.000999999999976353
25,16,5470.56567349851,0
25,17,6680.01399423868,0.00700000000006185
25,18,5774.57736779513,0.000999999999976353
25,19,6907.75963200186,0.000999999999976353
25,20,5908.95582825748,0
25,21,7136.63969878159,0.000999999999976353
25,22,5995.04173042448,0
25,23,6074.29188659343,0.000999999999976353
25,24,5972.88162977974,0.000999999999976353
25,25,5914.51188811043,0
25,26,5768.07666691664,0.00100000000020373
25,27,5894.58179375762,0.000999999999976353
25,28,5930.07029398257,0
25,29,5657.78210264632,0.000999999999976353
25,30,6497.31744737451,0
26,1,6103.56071974383,0.000999999999976353
26,2,6793.22256930129,0.000999999999976353
26,3,6113.98685765033,0
26,4,6257.2396368971,0.000999999999976353
26,5,6284.55096587511,0.000999999999976353
26,6,6460.68602030876,0
26,7,6663.81712799524,0.000999999999976353
26,8,6674.80954711557,0
26,9,6062.24778128164,0.000999999999976353
26,10,4563.17205704426,0.00100000000020373
26,11,5884.48686490994,0
26,12,6445.63565011567,0.000999999999976353
26,13,6220.35676773926,0.000999999999976353
26,14,5938.17975217007,0
26,15,7455.18872767693,0.000999999999976353
26,16,5998.6743335909,0
26,17,7080.12759835238,0.000999999999976353
26,18,6261.67072351042,0.000999999999976353
26,19,7024.96806154473,0
26,20,6386.78369831084,0.000999999999976353
26,21,7516.11391367489,0.000999999999976353
26,22,6463.71086005237,0
26,23,6467.24351923377,0.000999999999976353
26,24,6467.83485792405,0
26,25,6334.81337582367,0.000999999999976353
26,26,6264.82935880903,0.00100000000020373
26,27,6390.37006712718,0
26,28,6541.71080970165,0.000999999999976353
26,29,6104.79655243593,0.000999999999976353
26,30,7012.06346182025,0
27,1,6026.41735884419,0.000999999999976353
27,2,6696.8133983712,0
27,3,6064.37882965876,0.000999999999976353
27,4,6190.67429278448,0.000999999999976353
27,5,6214.45782181003,0
27,6,6488.15730963318,0.000999999999976353
27,7,6547.57806968569,0.000999999999976353
27,8,6723.46949020566,0
27,9,5884.85725882456,0.000999999999976353
27,10,4440.80458011307,0
27,11,5788.6521351561,0
27,12,6419.3588203502,0.00100000000020373
27,13,6120.98892747821,0
27,14,5838.77383302598,0.000999999999976353
27,15,7189.50863892997,0.000999999999976353
27,16,5928.90294105737,0
27,17,6895.916445713,0.000999999999976353
27,18,6172.00066734578,0.000999999999976353
27,19,7037.17423089846,0
27,20,6286.13555237428,0.000999999999976353
27,21,7586.80680964454,0.000999999999976353
27,22,6403.19866409669,0
27,23,6570.35504794508,0.000999999999976353
27,24,6310.79752845725,0
27,25,6298.71475628686,0
27,26,6269.8755754055,0.00100000000020373
27,27,6317.77057375255,0
27,28,6373.316120076,0.000999999999976353
27,29,6029.44291099844,0.000999999999976353
27,30,6786.06203239993,0
28,1,6144.44186421027,0.000999999999976353
28,2,6869.24103768131,0.000999999999976353
28,3,6162.55008590383,0
28,4,6447.71298783269,0.000999999999976353
28,5,6319.17638623653,0
28,6,6487.73558892426,0
28,7,6713.05751920951,0.000999999999976353
28,8,6761.65174217723,0
28,9,6175.653071941,0.000999999999976353
28,10,4635.17752783638,0.000999999999976353
28,11,5988.83858661199,0
28,12,6539.20488646961,0.00100000000020373
28,13,6366.90276357854,0.000999999999976353
28,14,6001.43287857008,0
28,15,7666.90544095679,0.000999999999976353
28,16,6053.86138082582,0.000999999999976353
28,17,7323.44876043407,0
28,18,6325.97709674795,0.000999999999976353
28,19,7280.40756099336,0
28,20,6491.01887694395,0.000999999999976353
28,21,7715.62724394998,0.000999999999976353
28,22,6564.09190246135,0
28,23,6526.3010309665,0.000999999999976353
28,24,6579.89794084652,0.000999999999976353
28,25,6451.4192000195,0
28,26,6346.15710096262,0.0080000000000382
28,27,6515.46050182443,0.000999999999976353
28,28,6788.83415769784,0
28,29,6254.27057854806,0
28,30,7248.61604566334,0.00100000000020373
29,1,6292.75107884911,0
29,2,6945.13059578079,0.000999999999976353
29,3,6297.37221557684,0.000999999999976353
29,4,6466.27309057671,0
29,5,6462.14166111471,0.000999999999976353
29,6,6750.74213773575,0.000999999999976353
29,7,6841.94697772999,0
29,8,6978.83056862409,0.000999999999976353
29,9,6272.55334506506,0
29,10,4601.13781142691,0.000999999999976353
29,11,5998.7998865554,0.000999999999976353
29,12,6653.99338292268,0
29,13,6451.21944453614,0.000999999999976353
29,14,6076.63403273304,0.000999999999976353
29,15,7566.85632934773,0
29,16,6219.96440835651,0.00100000000020373
29,17,7199.94014167394,0
29,18,6425.23238006022,0.000999999999976353
29,19,7335.58313309423,0.000999999999976353
29,20,6567.56315660747,0
29,21,7797.14423551896,0.000999999999976353
29,22,6650.14210573264,0.000999999999976353
29,23,6836.96100161847,0
29,24,6577.36124105088,0.000999999999976353
29,25,6601.68315399501,0
29,26,6483.11518765031,0.000999999999976353
29,27,6555.79116850519,0.000999999999976353
29,28,6741.17792551453,0
29,29,6292.24499700697,0.000999999999976353
29,30,7102.90298999233,0.00100000000020373
30,1,6221.59577965903,0
30,2,6905.84132941159,0.000999999999976353
30,3,6245.30863962661,0
30,4,6399.88704807177,0.000999999999976353
30,5,6406.17839275797,0.000999999999976353
30,6,6512.26752599237,0
30,7,6791.0572247963,0.000999999999976353
30,8,6790.07188771586,0.000999999999976353
30,9,6234.70469131007,0
30,10,4819.91836418966,0.000999999999976353
30,11,6083.14042483891,0
30,12,6574.160143082,0.000999999999976353
30,13,6438.14647821192,0.000999999999976353
30,14,6093.59655861513,0
30,15,7717.42745561429,0.000999999999976353
30,16,6115.21205375374,0.00100000000020373
30,17,7360.67547378825,0
30,18,6418.58499400527,0.000999999999976353
30,19,7136.32079986994,0
30,20,6546.80183110375,0.000999999999976353
30,21,7656.11414035795,0.000999999999976353
30,22,6610.70519952418,0
30,23,6496.54523987035,0.000999999999976353
30,24,6658.62712351181,0.000999999999976353
30,25,6495.82267847986,0
30,26,6400.0102554545,0.000999999999976353
30,27,6571.87539687949,0.000999999999976353
30,28,6797.51258648092,0
30,29,6291.92688773317,0.000999999999976353
30,30,7286.1816932134,0
