"Before.Trace.ID1","Before.Trace.ID2","Difference","Runtime"
1,2,117.831752116137,0.00500000000010914
1,3,171.983661865495,0.00699999999983447
1,4,13.4991536145304,0.00300000000015643
1,5,17330.7666823064,0.00700000000006185
1,6,679.951999439167,0.00399999999990541
1,7,471.683049935976,0.00499999999988177
1,8,38.4878077748072,0.00999999999999091
1,9,14.9980127071321,0.00400000000013279
1,10,13983.5333888973,0.00399999999990541
1,11,137.306606352264,0.00400000000013279
1,12,616.928872881402,0.00399999999990541
1,13,1560.0589507218,0.00299999999992906
1,14,262.123818322838,0.00400000000013279
1,15,2891.08760846412,0.00299999999992906
1,16,4649.58885747729,0.00500000000010914
1,17,16.6969540784032,0.00299999999992906
1,18,1028.67442573084,0.00299999999992906
1,19,8173.97823862246,0.00500000000010914
1,20,37.5771626125632,0.00299999999992906
1,21,6574.18379899552,0.00500000000010914
1,22,2369.3208718329,0.00399999999990541
1,23,16282.9904716134,0.00500000000010914
1,24,5967.83767524614,0.00499999999988177
1,25,3.70003813767524,0.00900000000001455
1,26,6625.72787997106,0.00600000000008549
1,27,2115.73236717404,0.00599999999985812
1,28,12802.9978210677,0.00500000000010914
1,29,229.468319297163,0.00299999999992906
1,30,7708.81746927883,0.00400000000013279
2,3,24.3571114940034,0.00399999999990541
2,4,709.07881060503,0.00299999999992906
2,5,2567.18643614855,0.00700000000006185
2,6,152.884241718212,0.00299999999992906
2,7,3811.11785926497,0.00600000000008549
2,8,18709.0745904092,0.00700000000006185
2,9,103.770140810257,0.00299999999992906
2,10,16825.3125940529,0.00700000000006185
2,11,1015.63012737686,0.00399999999990541
2,12,5653.4284153659,0.00500000000010914
2,13,2745.55411427737,0.00299999999992906
2,14,654.605191080295,0.00500000000010914
2,15,10034.8051907773,0.00399999999990541
2,16,7669.09101919386,0.00700000000006185
2,17,6264.88526702182,0.00399999999990541
2,18,1461.28872982072,0.00600000000008549
2,19,207.885067922747,0.00299999999992906
2,20,908.832969058042,0.00400000000013279
2,21,37.6043148479662,0.00499999999988177
2,22,1.45720936965568,0.00299999999992906
2,23,13199.7468528713,0.00500000000010914
2,24,4380.93163664402,0.00399999999990541
2,25,19729.4593222702,0.00600000000008549
2,26,776.323473129489,0.00600000000008549
2,27,2292.900529461,0.00499999999988177
2,28,15312.1045349965,0.00600000000008549
2,29,1818.19078600065,0.00299999999992906
2,30,19009.8739235115,0.00600000000008549
3,4,1.24195178232091,0.00299999999992906
3,5,13059.5334708531,0.00500000000010914
3,6,254.759300476464,0.00299999999992906
3,7,112.472607523498,0.00399999999990541
3,8,473.072038435095,0.0080000000000382
3,9,1383.78591612196,0.00400000000013279
3,10,12675.2244526914,0.00699999999983447
3,11,413.519400235822,0.00700000000006185
3,12,1111.60002048763,0.00500000000010914
3,13,740.081591154449,0.00399999999990541
3,14,168.390684118742,0.00499999999988177
3,15,5023.95790498133,0.00400000000013279
3,16,4747.73688202152,0.0080000000000382
3,17,1911.23936807331,0.00299999999992906
3,18,67.7095370711141,0.00299999999992906
3,19,20547.8029964119,0.00600000000008549
3,20,8299.53396874228,0.00600000000008549
3,21,34.7494585351149,0.00499999999988177
3,22,384.435583237776,0.00299999999992906
3,23,29914.2981715202,0.00700000000006185
3,24,121.988810533845,0.00300000000015643
3,25,9058.06781620819,0.00499999999988177
3,26,964.796174533148,0.00700000000006185
3,27,1769.32444435983,0.00399999999990541
3,28,6795.74882993052,0.00300000000015643
3,29,1679.40468539931,0.00299999999992906
3,30,16838.4624489281,0.00499999999988177
4,5,708.545576452074,0.00400000000013279
4,6,912.123375799276,0.00299999999992906
4,7,116.625951807995,0.00500000000010914
4,8,1815.76424840255,0.00399999999990541
4,9,515.116478297865,0.00299999999992906
4,10,34.7369417656764,0.00500000000010914
4,11,5.25744059763559,0.00399999999990541
4,12,654.883389161826,0.00400000000013279
4,13,236.029838344308,0.00299999999992906
4,14,52.6443316642806,0.00500000000010914
4,15,3513.09841873284,0.00299999999992906
4,16,3598.27972061855,0.00399999999990541
4,17,186.503091084283,0.00300000000015643
4,18,344.430173859498,0.00499999999988177
4,19,117.80786959973,0.00400000000013279
4,20,0.202130347160281,0.00299999999992906
4,21,20.0921613288152,0.00299999999992906
4,22,214.625801756322,0.00300000000015643
4,23,2523.21085004151,0.00799999999981083
4,24,334.231655339784,0.00300000000015643
4,25,4551.81768731117,0.00499999999988177
4,26,2057.85500294301,0.00500000000010914
4,27,521.565201576349,0.00399999999990541
4,28,5552.64293349374,0.00300000000015643
4,29,1548.12475366581,0.00399999999990541
4,30,10842.4288772791,0.00299999999992906
5,6,345.1352171601,0.00500000000010914
5,7,40.0398059420071,0.00399999999990541
5,8,407.843379815673,0.00600000000008549
5,9,187.349853473189,0.00399999999990541
5,10,10407.7773824766,0.00900000000001455
5,11,139.358356440633,0.00500000000010914
5,12,19.0322066029962,0.00299999999992906
5,13,3.09260850168411,0.00400000000013279
5,14,639.561002755867,0.00599999999985812
5,15,670.932054300617,0.00400000000013279
5,16,21.5610483339052,0.00599999999985812
5,17,298.292485195964,0.00400000000013279
5,18,0.817129716321917,0.00599999999985812
5,19,18.1203830802744,0.00500000000010914
5,20,114.193611254457,0.00399999999990541
5,21,224.52180607429,0.0080000000000382
5,22,267.825901520836,0.00400000000013279
5,23,810.701616108245,0.00699999999983447
5,24,293.108069483012,0.00400000000013279
5,25,630.256448012387,0.00599999999985812
5,26,463.309526740832,0.00600000000008549
5,27,318.7207242685,0.00299999999992906
5,28,230.31746136936,0.00500000000010914
5,29,238.650965896294,0.00499999999988177
5,30,3.8637823127208,0.00500000000010914
6,7,34.6552705597438,0.00500000000010914
6,8,3.57981605079936,0.00599999999985812
6,9,7.87343237598279,0.00400000000013279
6,10,1242.94269470529,0.00399999999990541
6,11,0.685740109593811,0.00399999999990541
6,12,74.7858999717276,0.00400000000013279
6,13,92.0467886006506,0.00399999999990541
6,14,246.642852941359,0.00500000000010914
6,15,192.836199960308,0.00399999999990541
6,16,18.1803631267444,0.00600000000008549
6,17,99.2921961417239,0.00700000000006185
6,18,151.939707910341,0.00399999999990541
6,19,1757.9578079606,0.00500000000010914
6,20,262.934810829112,0.00499999999988177
6,21,111.837676799106,0.00399999999990541
6,22,10.770736321736,0.00400000000013279
6,23,977.61438590217,0.0080000000000382
6,24,11.5285978609846,0.00399999999990541
6,25,1.15348219842098,0.00500000000010914
6,26,411.174313489767,0.00599999999985812
6,27,239.534599979968,0.00400000000013279
6,28,292.845666993638,0.00499999999988177
6,29,117.800229702051,0.00400000000013279
6,30,31531.0566740379,0.00399999999990541
7,8,119.359552449035,0.00600000000008549
7,9,6.76397752800931,0.00499999999988177
7,10,8418.28177832015,0.00500000000010914
7,11,0.140002288191677,0.00299999999992906
7,12,8.864903913999,0.00400000000013279
7,13,2.95938104906909,0.00399999999990541
7,14,17.6529502649022,0.00400000000013279
7,15,2611.97834674167,0.00399999999990541
7,16,51.35755458451,0.00600000000008549
7,17,8.9166974572349,0.00399999999990541
7,18,21.1007339788253,0.00399999999990541
7,19,533.500655145867,0.00500000000010914
7,20,0.371256709303989,0.00399999999990541
7,21,451.525717015884,0.00400000000013279
7,22,83.3698001364719,0.00599999999985812
7,23,4873.68476576448,0.00500000000010914
7,24,2.30830482224313,0.00299999999992906
7,25,12817.5020515274,0.00700000000006185
7,26,0.384179698564411,0.00600000000008549
7,27,351.063860386024,0.00299999999992906
7,28,4453.6671547396,0.00399999999990541
7,29,474.615617296055,0.00300000000015643
7,30,5.10242493722984,0.00399999999990541
8,9,753.568127763136,0.00700000000006185
8,10,1002.63842338891,0.0119999999999436
8,11,30.437873868838,0.00600000000008549
8,12,427.425907978258,0.00699999999983447
8,13,926.319953060934,0.00600000000008549
8,14,826.018338440266,0.00500000000010914
8,15,381.211289008953,0.00399999999990541
8,16,425.943254014929,0.00900000000001455
8,17,432.649507244848,0.00600000000008549
8,18,636.97819423735,0.00499999999988177
8,19,570.779810083885,0.00500000000010914
8,20,158.4462353119,0.00499999999988177
8,21,1072.11915108819,0.00700000000006185
8,22,873.61451665894,0.00500000000010914
8,23,1087.44295406562,0.0109999999999673
8,24,12.1247015728435,0.00699999999983447
8,25,6477.85112973623,0.0160000000000764
8,26,822.669315965879,0.0109999999999673
8,27,116.022277968866,0.00500000000010914
8,28,432.093250664085,0.00599999999985812
8,29,91.9224687456653,0.00600000000008549
8,30,77.9487373466186,0.00399999999990541
9,10,3931.48893185281,0.00400000000013279
9,11,5.0715446512338,0.00399999999990541
9,12,21.9867502347311,0.00999999999999091
9,13,56.7828379345189,0.00500000000010914
9,14,131.168330146524,0.00399999999990541
9,15,152.084949444121,0.00400000000013279
9,16,20.0399159684052,0.00700000000006185
9,17,25.327577981409,0.00399999999990541
9,18,67.2529761861569,0.00399999999990541
9,19,232.873789781379,0.00400000000013279
9,20,270.73721909746,0.00299999999992906
9,21,433.580606268354,0.00400000000013279
9,22,542.183124842155,0.00299999999992906
9,23,630.443244044907,0.0080000000000382
9,24,166.416933919348,0.00499999999988177
9,25,3.08849929070724,0.00400000000013279
9,26,95.542324909531,0.00599999999985812
9,27,505.888377349033,0.00300000000015643
9,28,81.3572485789188,0.00399999999990541
9,29,69.9078346023531,0.00399999999990541
9,30,628.744596548928,0.00600000000008549
10,11,8390.87591194531,0.00500000000010914
10,12,7121.8889110475,0.00399999999990541
10,13,771.937902152743,0.00499999999988177
10,14,9634.67276323792,0.00600000000008549
10,15,11072.871475674,0.00500000000010914
10,16,12772.2237774439,0.00900000000001455
10,17,6092.97034323241,0.00499999999988177
10,18,2048.3473480937,0.00600000000008549
10,19,9105.110885346,0.00399999999990541
10,20,14.577144869291,0.00500000000010914
10,21,452.334256660727,0.00600000000008549
10,22,3059.48316300265,0.00399999999990541
10,23,4480.05257369677,0.00999999999999091
10,24,1579.5381197187,0.00299999999992906
10,25,16.4169357312622,0.012000000000171
10,26,62.2799628689744,0.00699999999983447
10,27,1264.29276563677,0.00500000000010914
10,28,71.7207729765277,0.00399999999990541
10,29,1119.79824775201,0.00400000000013279
10,30,37365.0544360562,0.00599999999985812
11,12,452.640638439832,0.00600000000008549
11,13,3.07702266013382,0.00299999999992906
11,14,26.924019023529,0.00400000000013279
11,15,13.8865984982973,0.00399999999990541
11,16,3.15158784330424,0.00500000000010914
11,17,11.0025712509658,0.00399999999990541
11,18,18.7596144913217,0.00700000000006185
11,19,7906.79936916987,0.00399999999990541
11,20,6.99597631808293,0.00600000000008549
11,21,9.13180619686631,0.00399999999990541
11,22,762.83693300896,0.00500000000010914
11,23,8279.67888972426,0.00499999999988177
11,24,23.7478169334355,0.00400000000013279
11,25,11460.7965696905,0.00499999999988177
11,26,2815.71491993015,0.00600000000008549
11,27,24.7073719647074,0.00399999999990541
11,28,6997.855580706,0.00600000000008549
11,29,479.389400991543,0.00399999999990541
11,30,1433.41635266976,0.00600000000008549
12,13,290.049603045893,0.00399999999990541
12,14,15.5724182471353,0.00299999999992906
12,15,336.916430604911,0.00399999999990541
12,16,33.6417398547227,0.00600000000008549
12,17,281.424652330449,0.00299999999992906
12,18,162.392240555382,0.00500000000010914
12,19,1985.05611522547,0.00599999999985812
12,20,228.968736644967,0.00400000000013279
12,21,18.2078736848853,0.00299999999992906
12,22,45.6267494703376,0.00500000000010914
12,23,142.962266103936,0.00499999999988177
12,24,47.1475730606436,0.00400000000013279
12,25,9208.26705536237,0.00699999999983447
12,26,135.811568542701,0.00500000000010914
12,27,205.378284621817,0.00500000000010914
12,28,179.961797034099,0.00399999999990541
12,29,204.924662554709,0.00600000000008549
12,30,5331.00633353448,0.00499999999988177
13,14,31.9828052384235,0.00400000000013279
13,15,4.0841273148685,0.00499999999988177
13,16,202.77989216809,0.00500000000010914
13,17,16.5556913888409,0.00399999999990541
13,18,134.078945702589,0.00500000000010914
13,19,179.948794522568,0.00299999999992906
13,20,7.69056582658051,0.00299999999992906
13,21,61.5062139812802,0.00300000000015643
13,22,175.254277775506,0.00299999999992906
13,23,18.9827516482681,0.0080000000000382
13,24,36.6395731559275,0.00399999999990541
13,25,2211.81871986052,0.00400000000013279
13,26,56.4684159063093,0.00499999999988177
13,27,7.43201285459295,0.00399999999990541
13,28,624.734774481152,0.00400000000013279
13,29,71.112360162489,0.00299999999992906
13,30,22.0675150983003,0.00600000000008549
14,15,297.050156914681,0.00399999999990541
14,16,5.17649318145268,0.00700000000006185
14,17,256.951131649804,0.00499999999988177
14,18,29.299556749048,0.00500000000010914
14,19,141.514671358633,0.00500000000010914
14,20,0.27680544798362,0.00399999999990541
14,21,140.148547742913,0.00499999999988177
14,22,130.019875768615,0.00500000000010914
14,23,2600.01201537164,0.00600000000008549
14,24,134.249621740065,0.00599999999985812
14,25,7518.88723031933,0.00400000000013279
14,26,468.78067792461,0.00699999999983447
14,27,513.595576175471,0.00300000000015643
14,28,247.922297520882,0.00399999999990541
14,29,47.2055270849352,0.00400000000013279
14,30,18026.243183651,0.00499999999988177
15,16,97.5094938748674,0.00600000000008549
15,17,109.097100548424,0.00499999999988177
15,18,136.937273664061,0.00500000000010914
15,19,867.167863623936,0.00599999999985812
15,20,181.999534818041,0.00300000000015643
15,21,2393.982243323,0.00599999999985812
15,22,10.2119039546687,0.00400000000013279
15,23,4131.84438769011,0.0080000000000382
15,24,0.345073696573566,0.00299999999992906
15,25,15802.8351343486,0.00399999999990541
15,26,0.0426950381008876,0.00600000000008549
15,27,268.706250474425,0.00400000000013279
15,28,55.9187046591981,0.00299999999992906
15,29,13.6311149591811,0.00299999999992906
15,30,25313.8030575547,0.00500000000010914
16,17,90.0064959343957,0.0080000000000382
16,18,47.9844893404065,0.00399999999990541
16,19,517.248571102072,0.00299999999992906
16,20,5.4711266309509,0.00400000000013279
16,21,72.9052404772988,0.00399999999990541
16,22,2749.29741313273,0.00600000000008549
16,23,37.2964725703428,0.0109999999999673
16,24,12.6525142780728,0.00400000000013279
16,25,3918.49290971733,0.0109999999999673
16,26,437.699236385898,0.00499999999988177
16,27,37.2665770971748,0.00700000000006185
16,28,94.1657727386849,0.00399999999990541
16,29,376.952919699895,0.00600000000008549
16,30,18706.9740348431,0.00600000000008549
17,18,182.664797335261,0.00599999999985812
17,19,201.612675738647,0.00400000000013279
17,20,151.509675106492,0.00499999999988177
17,21,33.6048114892484,0.00400000000013279
17,22,23.815645414833,0.00299999999992906
17,23,5.52133143330634,0.00700000000006185
17,24,79.7467813059436,0.00299999999992906
17,25,8480.83226814021,0.00499999999988177
17,26,5.10308324059074,0.00600000000008549
17,27,173.90442155971,0.00299999999992906
17,28,658.872094753356,0.00600000000008549
17,29,89.9226494247584,0.00299999999992906
17,30,74.2380624565631,0.00400000000013279
18,19,330.523829575054,0.00599999999985812
18,20,56.9443277055067,0.00500000000010914
18,21,202.008080744899,0.00499999999988177
18,22,8.6555749759238,0.00400000000013279
18,23,12491.0965821099,0.00599999999985812
18,24,11.4928650495496,0.00500000000010914
18,25,3204.52718751984,0.00600000000008549
18,26,47.7909428759539,0.00399999999990541
18,27,289.02528002512,0.00399999999990541
18,28,236.726401814982,0.00300000000015643
18,29,237.790275130458,0.00399999999990541
18,30,2152.22890519518,0.00400000000013279
19,20,128.882305900607,0.00299999999992906
19,21,1699.31433273583,0.00399999999990541
19,22,60.0786682558424,0.00700000000006185
19,23,827.870734216152,0.00499999999988177
19,24,2549.35556591087,0.00299999999992906
19,25,12136.9856796308,0.00499999999988177
19,26,41.8620152834726,0.00500000000010914
19,27,91.4447158808008,0.00399999999990541
19,28,558.228159043725,0.00300000000015643
19,29,395.730767225412,0.00399999999990541
19,30,0.155979064230694,0.00299999999992906
20,21,530.347053889995,0.00400000000013279
20,22,56.1584186412738,0.00399999999990541
20,23,87.0435554105689,0.00999999999999091
20,24,284.007487486201,0.00600000000008549
20,25,12606.7250106033,0.00399999999990541
20,26,17.3556066950875,0.00600000000008549
20,27,10.6731305113183,0.00299999999992906
20,28,3.15574596045159,0.00500000000010914
20,29,13.6067737681207,0.00700000000006185
20,30,0.00315288330158469,0.00199999999995271
21,22,226.216698049071,0.00399999999990541
21,23,1243.26871008754,0.00600000000008549
21,24,266.370941895126,0.00299999999992906
21,25,15.0816009912221,0.0080000000000382
21,26,22.0503156330797,0.00399999999990541
21,27,3185.299930116,0.00400000000013279
21,28,1423.29422889593,0.00299999999992906
21,29,21.9136654853577,0.00600000000008549
21,30,33445.1758324633,0.00799999999981083
22,23,838.171625672418,0.00500000000010914
22,24,84.220769211582,0.00500000000010914
22,25,194.792071144682,0.00399999999990541
22,26,277.849352574852,0.00299999999992906
22,27,298.065868869378,0.00500000000010914
22,28,3926.21374632105,0.00399999999990541
22,29,12.4656558168156,0.00400000000013279
22,30,8128.40546525039,0.00299999999992906
23,24,1509.11647165577,0.00500000000010914
23,25,10477.8622272783,0.00899999999978718
23,26,303.786482699419,0.012000000000171
23,27,1171.08893961428,0.0080000000000382
23,28,290.457672237539,0.00399999999990541
23,29,37.57004507764,0.00900000000001455
23,30,11058.0201541744,0.00600000000008549
24,25,67.5676697082773,0.00599999999985812
24,26,99.7121159606157,0.00300000000015643
24,27,794.987602788246,0.00399999999990541
24,28,221.487935315504,0.00299999999992906
24,29,230.025009872861,0.00600000000008549
24,30,4315.24286541358,0.00299999999992906
25,26,444.115581198818,0.00900000000001455
25,27,24288.7066094949,0.00600000000008549
25,28,82.8246395401517,0.00399999999990541
25,29,1807.51270558163,0.00400000000013279
25,30,8343.26403809657,0.00599999999985812
26,27,41.1310851001364,0.00400000000013279
26,28,780.310350399572,0.00499999999988177
26,29,4.9857227051351,0.00500000000010914
26,30,2966.76689355556,0.00600000000008549
27,28,1.15380482716235,0.00399999999990541
27,29,5.10931906579179,0.00299999999992906
27,30,80.0789796308587,0.00300000000015643
28,29,16.4188170919118,0.00399999999990541
28,30,21194.7119652101,0.00400000000013279
29,30,1512.05833239387,0.00399999999990541


"After.Trace.ID","Before.Trace.ID","Difference","Runtime"
1,1,16.6292661729339,0.00299999999992906
1,2,6.58003311691829,0.00600000000008549
1,3,193.554702774771,0.00399999999990541
1,4,37.3272187267093,0.00299999999992906
1,5,50.5570560148475,0.00400000000013279
1,6,18.6512295902064,0.00399999999990541
1,7,42.4778621315803,0.00400000000013279
1,8,56.7139800319072,0.00499999999988177
1,9,1.57135202687151,0.00400000000013279
1,10,15467.7228972694,0.00599999999985812
1,11,53.5512250387121,0.00600000000008549
1,12,2.51463423923465,0.00399999999990541
1,13,519.468506172633,0.00400000000013279
1,14,91.1206187964769,0.00599999999985812
1,15,1271.02563465586,0.00300000000015643
1,16,157.645692007013,0.00599999999985812
1,17,3451.88702486995,0.00600000000008549
1,18,95.3493155197915,0.00299999999992906
1,19,1312.66619043738,0.00400000000013279
1,20,700.549589822125,0.00299999999992906
1,21,13.424850590689,0.00600000000008549
1,22,61.9668136681621,0.00399999999990541
1,23,6618.83899784743,0.00700000000006185
1,24,6.82483297568427,0.00399999999990541
1,25,377.518938011672,0.00500000000010914
1,26,225.102762384774,0.00600000000008549
1,27,1230.28351662363,0.00399999999990541
1,28,1933.14372964542,0.00399999999990541
1,29,203.582848446359,0.00400000000013279
1,30,7855.18693779407,0.00699999999983447
2,1,227.653685678312,0.00500000000010914
2,2,961.53462380783,0.00600000000008549
2,3,188.842480037619,0.00399999999990541
2,4,215.39717087821,0.00399999999990541
2,5,187.400011244183,0.00600000000008549
2,6,0.47888606123325,0.00400000000013279
2,7,70.4916659991427,0.00399999999990541
2,8,3.81429395540564,0.00700000000006185
2,9,705.66928632005,0.00499999999988177
2,10,1113.18295590832,0.00900000000001455
2,11,817.648991671428,0.00500000000010914
2,12,2574.37838764174,0.00699999999983447
2,13,37.1288422444831,0.00700000000006185
2,14,57.8804456537385,0.00600000000008549
2,15,305.397714784537,0.00499999999988177
2,16,30.3597346854565,0.00400000000013279
2,17,286.885145641112,0.00499999999988177
2,18,11.3478038068692,0.00400000000013279
2,19,23.4465604178014,0.00399999999990541
2,20,1.53733179630726,0.00299999999992906
2,21,1104.22029177767,0.00700000000006185
2,22,378.515067586429,0.00400000000013279
2,23,28.6416876383237,0.00499999999988177
2,24,203.564974616279,0.00500000000010914
2,25,8720.89004569384,0.00499999999988177
2,26,306.345552255136,0.00500000000010914
2,27,82.9464936419023,0.00499999999988177
2,28,716.172812276337,0.00600000000008549
2,29,147.429677071941,0.00399999999990541
2,30,16.2271662022898,0.00700000000006185
3,1,12.636253616261,0.00700000000006185
3,2,33.833085967555,0.00499999999988177
3,3,168.178043931471,0.00300000000015643
3,4,140.899570099317,0.00399999999990541
3,5,7377.27310347643,0.00500000000010914
3,6,111.858537823174,0.00299999999992906
3,7,78.5483561402073,0.00499999999988177
3,8,1558.70337598911,0.00700000000006185
3,9,104.601124969479,0.00400000000013279
3,10,14600.9585969803,0.00599999999985812
3,11,97.5061973660885,0.00400000000013279
3,12,269.153671691426,0.00599999999985812
3,13,890.544517627041,0.00400000000013279
3,14,172.652778179358,0.00399999999990541
3,15,2103.30405051779,0.00399999999990541
3,16,3.59466046753597,0.00700000000006185
3,17,1782.83971290381,0.00700000000006185
3,18,0.188316975883148,0.00499999999988177
3,19,3.05793830080063,0.00300000000015643
3,20,1488.78955303949,0.00399999999990541
3,21,345.654645410223,0.00400000000013279
3,22,41.8710324426685,0.00399999999990541
3,23,2176.6915115395,0.00700000000006185
3,24,1.74092654386244,0.00399999999990541
3,25,2836.07024211985,0.00500000000010914
3,26,393.678332710109,0.00599999999985812
3,27,197.592853190057,0.00500000000010914
3,28,1456.00771875735,0.00399999999990541
3,29,559.455606767432,0.00400000000013279
3,30,14078.9191103058,0.00699999999983447
4,1,305.551336276333,0.00400000000013279
4,2,526.400202328538,0.00299999999992906
4,3,2.86508641982878,0.00400000000013279
4,4,11.2398965075434,0.00399999999990541
4,5,505.69502544888,0.00399999999990541
4,6,15.6731100787085,0.00300000000015643
4,7,2483.62700283672,0.00299999999992906
4,8,1031.03678585055,0.00700000000006185
4,9,1090.84357800379,0.00299999999992906
4,10,274.363706242121,0.00399999999990541
4,11,0.133900199706716,0.00300000000015643
4,12,34.2409848867959,0.00499999999988177
4,13,750.946704692914,0.00300000000015643
4,14,492.854271628007,0.00599999999985812
4,15,1418.74757861416,0.00400000000013279
4,16,3084.86165884297,0.00499999999988177
4,17,4.61252145278071,0.00299999999992906
4,18,176.689205447872,0.00300000000015643
4,19,831.317897899719,0.00299999999992906
4,20,5555.06191407242,0.00299999999992906
4,21,39.1243465908999,0.00400000000013279
4,22,18.148363630311,0.00399999999990541
4,23,5902.24884409397,0.00500000000010914
4,24,514.552896034506,0.00399999999990541
4,25,6.72072781650026,0.00700000000006185
4,26,3062.23920284243,0.00399999999990541
4,27,146.129113566324,0.00400000000013279
4,28,3456.85687399061,0.00399999999990541
4,29,1243.91841509556,0.00299999999992906
4,30,17247.3073078002,0.00400000000013279
5,1,460.524097708773,0.00299999999992906
5,2,257.136869433342,0.00500000000010914
5,3,735.340278219497,0.00299999999992906
5,4,100.5976230295,0.00299999999992906
5,5,13.6531105777746,0.00500000000010914
5,6,14.4754033842566,0.00299999999992906
5,7,303.033922833035,0.00600000000008549
5,8,210.244051855997,0.00499999999988177
5,9,99.3375793039023,0.00600000000008549
5,10,5299.21431447062,0.00600000000008549
5,11,6.11782596074532,0.00499999999988177
5,12,57.4607339100555,0.00400000000013279
5,13,2.151930689162,0.00499999999988177
5,14,252.758728073983,0.00299999999992906
5,15,2358.45915653089,0.00400000000013279
5,16,14.6608394306934,0.00700000000006185
5,17,59.3098085654883,0.00399999999990541
5,18,14.582374899867,0.00399999999990541
5,19,1525.99213237161,0.00700000000006185
5,20,56.4468223000018,0.00299999999992906
5,21,148.439807532166,0.00400000000013279
5,22,1371.65297537851,0.00399999999990541
5,23,7291.6113012439,0.00600000000008549
5,24,135.893445459263,0.00399999999990541
5,25,11865.3559355238,0.00400000000013279
5,26,31.829060746819,0.00599999999985812
5,27,1382.6265358611,0.00300000000015643
5,28,2689.16052692852,0.00299999999992906
5,29,465.704544718544,0.00400000000013279
5,30,13766.6019751214,0.00299999999992906
6,1,4226.07295107799,0.00499999999988177
6,2,353.004970807418,0.00400000000013279
6,3,0.921443117546523,0.00399999999990541
6,4,90.9000085599821,0.00300000000015643
6,5,58.0339447020603,0.00699999999983447
6,6,13.147933035974,0.00400000000013279
6,7,1.32539368343806,0.00399999999990541
6,8,451.40933147129,0.00999999999999091
6,9,39.5148408886589,0.00400000000013279
6,10,1186.83533362186,0.00799999999981083
6,11,2.80778090142564,0.00400000000013279
6,12,65.6824222837604,0.00499999999988177
6,13,248.93816593679,0.00400000000013279
6,14,9.08123248794405,0.00399999999990541
6,15,44.1695467603906,0.00500000000010914
6,16,22.2492722137454,0.0080000000000382
6,17,92.2474432012362,0.00599999999985812
6,18,102.315042958013,0.00600000000008549
6,19,665.916244644028,0.00399999999990541
6,20,108.913732637622,0.00600000000008549
6,21,38.1296383750593,0.00900000000001455
6,22,299.619156857403,0.00500000000010914
6,23,12928.6516746668,0.00799999999981083
6,24,58.3189912638607,0.00500000000010914
6,25,2237.41874991411,0.0080000000000382
6,26,161.444959228296,0.00599999999985812
6,27,84.5240452417714,0.00500000000010914
6,28,428.865237095871,0.00399999999990541
6,29,152.133747136262,0.00400000000013279
6,30,8717.99345103779,0.00599999999985812
7,1,7.58720502059421,0.00500000000010914
7,2,82.8656528426786,0.00399999999990541
7,3,239.943870089257,0.00500000000010914
7,4,17.5592964174623,0.00399999999990541
7,5,20.0130572588041,0.00600000000008549
7,6,28.1759814304544,0.00399999999990541
7,7,0.798603005090002,0.00400000000013279
7,8,4620.07230382706,0.0119999999999436
7,9,1917.3146361057,0.00700000000006185
7,10,15324.32121421,0.00799999999981083
7,11,198.770667744863,0.00700000000006185
7,12,1765.39864535604,0.00500000000010914
7,13,231.145378642065,0.00399999999990541
7,14,48.1265735298667,0.00600000000008549
7,15,6253.69135950542,0.00399999999990541
7,16,1423.5824799781,0.00500000000010914
7,17,1134.96294476787,0.00299999999992906
7,18,14.1960181182637,0.00399999999990541
7,19,8762.28099430414,0.00500000000010914
7,20,1373.76408504466,0.00299999999992906
7,21,2871.15070829992,0.00500000000010914
7,22,902.716424459606,0.00499999999988177
7,23,16786.84892806,0.00700000000006185
7,24,1.55960253570034,0.00500000000010914
7,25,4812.97646664969,0.00599999999985812
7,26,3022.780760835,0.00600000000008549
7,27,146.565100298422,0.00599999999985812
7,28,8995.71948507525,0.00400000000013279
7,29,835.141056731528,0.00399999999990541
7,30,19128.318176518,0.00400000000013279
8,1,925.760541592086,0.00499999999988177
8,2,19123.865534255,0.00400000000013279
8,3,3798.50070067814,0.00499999999988177
8,4,6315.90947380232,0.00400000000013279
8,5,468.603446928747,0.00999999999999091
8,6,646.127826151411,0.00499999999988177
8,7,3830.98901561606,0.00400000000013279
8,8,1454.11971412424,0.0119999999999436
8,9,223.49180370755,0.00399999999990541
8,10,24695.9111767207,0.00900000000001455
8,11,6050.5513003634,0.00400000000013279
8,12,1466.38099087794,0.00599999999985812
8,13,384.51250770597,0.00500000000010914
8,14,1631.69317162086,0.00599999999985812
8,15,559.159275405974,0.00600000000008549
8,16,3414.13779501752,0.00999999999999091
8,17,371.138332024127,0.00500000000010914
8,18,1585.40150044139,0.00699999999983447
8,19,178.734801405851,0.00600000000008549
8,20,90.2527129051573,0.00400000000013279
8,21,4027.05965613478,0.01299999999992
8,22,14.9393632131336,0.00399999999990541
8,23,3566.01920159334,0.0080000000000382
8,24,457.316843025379,0.00600000000008549
8,25,5299.82574081019,0.01299999999992
8,26,2484.79674507992,0.0080000000000382
8,27,82.9525480297523,0.00399999999990541
8,28,1665.84682193455,0.00400000000013279
8,29,366.208691028811,0.0080000000000382
8,30,764.061392398745,0.00499999999988177
9,1,2.84439060550461,0.00300000000015643
9,2,925.135061872369,0.00499999999988177
9,3,932.193981272906,0.00399999999990541
9,4,153.872950403361,0.00600000000008549
9,5,332.196985932912,0.00500000000010914
9,6,46.1265961287153,0.00399999999990541
9,7,25.6814920895919,0.00600000000008549
9,8,975.945473115885,0.00599999999985812
9,9,99.1187114970437,0.00600000000008549
9,10,255.824650699638,0.00499999999988177
9,11,1.27679786311369,0.00499999999988177
9,12,68.0764091535679,0.00500000000010914
9,13,58.6209426524198,0.00399999999990541
9,14,296.937635265169,0.00400000000013279
9,15,884.517440637543,0.00399999999990541
9,16,4.62622210732912,0.0080000000000382
9,17,25.9104157421165,0.00299999999992906
9,18,89.006899074524,0.00500000000010914
9,19,228.265139295112,0.00499999999988177
9,20,239.266642305402,0.00500000000010914
9,21,319.826095374655,0.00499999999988177
9,22,23.2742300768341,0.00400000000013279
9,23,51.6971145118953,0.00699999999983447
9,24,481.168974047325,0.00300000000015643
9,25,15296.9020138099,0.00499999999988177
9,26,43.3736773494334,0.00600000000008549
9,27,170.480930453823,0.00299999999992906
9,28,328.670462676957,0.00299999999992906
9,29,61.5371830114894,0.00300000000015643
9,30,9436.98876734496,0.00499999999988177
10,1,29757.3843109255,0.00500000000010914
10,2,17770.1297815613,0.00299999999992906
10,3,7798.65082248363,0.00400000000013279
10,4,1362.08183867207,0.00299999999992906
10,5,617.670149731144,0.00900000000001455
10,6,1676.55830109761,0.00499999999988177
10,7,3106.01100373343,0.00400000000013279
10,8,6979.7272102267,0.00599999999985812
10,9,891.497222445738,0.00300000000015643
10,10,10361.929715047,0.0080000000000382
10,11,5995.87731852001,0.00499999999988177
10,12,4790.86127579469,0.00500000000010914
10,13,610.103670721005,0.00499999999988177
10,14,491.460980400154,0.00500000000010914
10,15,430.283174198819,0.00499999999988177
10,16,5019.18355879683,0.0080000000000382
10,17,754.984167973216,0.00600000000008549
10,18,15355.7777398683,0.00499999999988177
10,19,97.6880811698481,0.00500000000010914
10,20,574.785136799792,0.00499999999988177
10,21,2711.48199030031,0.00600000000008549
10,22,17787.3846697812,0.00399999999990541
10,23,4799.66521023247,0.0109999999999673
10,24,1281.97353912939,0.00400000000013279
10,25,12471.4011175088,0.0080000000000382
10,26,2388.29861086727,0.00699999999983447
10,27,694.590278109372,0.00400000000013279
10,28,2541.57853895883,0.00499999999988177
10,29,340.777875947884,0.00500000000010914
10,30,915.533134068125,0.00499999999988177
11,1,0.427328231311002,0.00299999999992906
11,2,540.767684517786,0.00600000000008549
11,3,695.985188879207,0.00399999999990541
11,4,79.4206196231777,0.00399999999990541
11,5,21.7156443853906,0.00400000000013279
11,6,346.382873554179,0.00399999999990541
11,7,55.9130520457787,0.00500000000010914
11,8,61.3354155065635,0.00499999999988177
11,9,73.2407099042584,0.00600000000008549
11,10,8314.55559197131,0.00499999999988177
11,11,1.18514910118614,0.00500000000010914
11,12,886.463620981638,0.00399999999990541
11,13,765.724294099152,0.00400000000013279
11,14,68.5904594385555,0.00499999999988177
11,15,1902.05361144306,0.00400000000013279
11,16,60.3020301306179,0.00399999999990541
11,17,55.4464566714979,0.00500000000010914
11,18,14.5656644624245,0.00299999999992906
11,19,1039.09014385944,0.00299999999992906
11,20,2.97608190208548,0.00600000000008549
11,21,1899.75838282322,0.00499999999988177
11,22,183.401948743228,0.00500000000010914
11,23,45.8887795672956,0.00499999999988177
11,24,0.990657815243382,0.00400000000013279
11,25,6179.88298596369,0.00600000000008549
11,26,855.545566146129,0.00399999999990541
11,27,157.088042054409,0.00399999999990541
11,28,7538.99631438599,0.00500000000010914
11,29,27.2049012383661,0.00600000000008549
11,30,7065.08796886081,0.00499999999988177
12,1,58.4205400798254,0.00299999999992906
12,2,1582.93211555891,0.00500000000010914
12,3,173.030109327683,0.00399999999990541
12,4,195.190707270078,0.00300000000015643
12,5,196.25474983059,0.00499999999988177
12,6,140.022475256397,0.00400000000013279
12,7,182.012567074041,0.00399999999990541
12,8,150.728790960367,0.00900000000001455
12,9,64.5545439713178,0.00399999999990541
12,10,18295.8069755636,0.00500000000010914
12,11,17.898315745557,0.00399999999990541
12,12,108.200946252674,0.00300000000015643
12,13,98.3587766411769,0.00599999999985812
12,14,91.5012472665337,0.00400000000013279
12,15,1260.11503510609,0.00299999999992906
12,16,842.129021166918,0.00600000000008549
12,17,365.347839379631,0.00299999999992906
12,18,39.089144129355,0.00600000000008549
12,19,5150.88948841688,0.00299999999992906
12,20,424.462429356706,0.00299999999992906
12,21,373.857983671008,0.00400000000013279
12,22,23.6271964427873,0.00499999999988177
12,23,10054.5043340345,0.0080000000000382
12,24,7.94913109645715,0.00499999999988177
12,25,596.945139144157,0.00300000000015643
12,26,54.0660998015799,0.00600000000008549
12,27,978.173110773673,0.00299999999992906
12,28,0.000411091296474033,0.00299999999992906
12,29,553.14419824549,0.00299999999992906
12,30,16692.8692174766,0.00500000000010914
13,1,1935.26011882465,0.00399999999990541
13,2,1817.49841895695,0.00300000000015643
13,3,1590.85628725036,0.00499999999988177
13,4,2392.61622625723,0.00300000000015643
13,5,0.697494335559228,0.00599999999985812
13,6,2.28613624118,0.00600000000008549
13,7,435.22492370391,0.00299999999992906
13,8,34.0247872072322,0.00500000000010914
13,9,119.346646245064,0.00299999999992906
13,10,4402.99379500295,0.00500000000010914
13,11,1329.2625485045,0.00499999999988177
13,12,2260.03634729383,0.00500000000010914
13,13,7.42763365995451,0.00399999999990541
13,14,119.244302846781,0.00500000000010914
13,15,0.0729431610285091,0.00299999999992906
13,16,438.68427244072,0.00599999999985812
13,17,2.71298689133661,0.00300000000015643
13,18,1401.67807360019,0.00299999999992906
13,19,348.564886214091,0.00500000000010914
13,20,83.518525184797,0.00399999999990541
13,21,4027.85975315264,0.00399999999990541
13,22,8613.15092876836,0.00600000000008549
13,23,1468.34634177331,0.00399999999990541
13,24,1009.15780259531,0.00600000000008549
13,25,581.84336385559,0.00999999999999091
13,26,622.121093324471,0.00400000000013279
13,27,328.09391117571,0.00399999999990541
13,28,1317.58799100605,0.00299999999992906
13,29,15.6422922002187,0.0080000000000382
13,30,1086.65621533637,0.00600000000008549
14,1,2.82556201001342,0.00199999999995271
14,2,1.80911114556399,0.00299999999992906
14,3,786.32260310927,0.00600000000008549
14,4,1347.30380024097,0.00299999999992906
14,5,9635.41662614227,0.00500000000010914
14,6,227.566433016569,0.00299999999992906
14,7,1512.94283677503,0.00300000000015643
14,8,30.39924234574,0.00599999999985812
14,9,16.6726848143698,0.00299999999992906
14,10,23079.4215336145,0.0110000000001946
14,11,424.98328944595,0.00499999999988177
14,12,84.889746015236,0.00500000000010914
14,13,93.2833701405226,0.00299999999992906
14,14,40.3592827469725,0.00299999999992906
14,15,5973.64488478252,0.00400000000013279
14,16,359.279674087037,0.00499999999988177
14,17,1009.66130614069,0.00300000000015643
14,18,752.621021919843,0.00499999999988177
14,19,10866.9106847403,0.00399999999990541
14,20,1440.03726657095,0.00300000000015643
14,21,4220.26156172629,0.00499999999988177
14,22,598.376780776253,0.00400000000013279
14,23,895.899030493234,0.00599999999985812
14,24,2.28259884765157,0.00300000000015643
14,25,3634.4094317114,0.00499999999988177
14,26,512.170511338779,0.00600000000008549
14,27,49.6795413987711,0.00299999999992906
14,28,9630.4942823365,0.00500000000010914
14,29,353.089769425279,0.00299999999992906
14,30,14519.5767538291,0.00600000000008549
15,1,15.5234480999183,0.00499999999988177
15,2,14.2879975018427,0.00300000000015643
15,3,132.816175164264,0.00399999999990541
15,4,38.9291399056024,0.00399999999990541
15,5,14.2145276290489,0.00500000000010914
15,6,3292.23080078011,0.00399999999990541
15,7,506.917334733624,0.00400000000013279
15,8,136.120443688478,0.00599999999985812
15,9,8.59913277449831,0.00300000000015643
15,10,18517.944108552,0.00499999999988177
15,11,13.2302144984913,0.00500000000010914
15,12,4.58867576453941,0.00299999999992906
15,13,313.535641797139,0.00399999999990541
15,14,31.7087164870559,0.00500000000010914
15,15,3236.54124372283,0.00399999999990541
15,16,345.507842229847,0.00400000000013279
15,17,55.6258591373406,0.00499999999988177
15,18,892.989089081975,0.00400000000013279
15,19,50.9662634926269,0.00399999999990541
15,20,2833.43874330026,0.00500000000010914
15,21,92.002435815775,0.00799999999981083
15,22,839.443580416519,0.00299999999992906
15,23,8849.32018802592,0.0080000000000382
15,24,359.057109695502,0.00399999999990541
15,25,1804.26753837765,0.00600000000008549
15,26,117.34071179824,0.00699999999983447
15,27,1686.04358097574,0.00299999999992906
15,28,3595.55256572352,0.00299999999992906
15,29,15.2851099985039,0.00300000000015643
15,30,13821.6583004964,0.00599999999985812
16,1,5.37609268657373,0.00400000000013279
16,2,50.0753013048335,0.00399999999990541
16,3,19.3348136486761,0.00400000000013279
16,4,75.8407314220008,0.00299999999992906
16,5,999.714168705871,0.00399999999990541
16,6,44.0512223515651,0.00500000000010914
16,7,380.152903384161,0.00299999999992906
16,8,242.804706722445,0.00500000000010914
16,9,31.925611332761,0.00399999999990541
16,10,21377.8768586602,0.00900000000001455
16,11,0.00139585175615498,0.00299999999992906
16,12,511.958980725743,0.00400000000013279
16,13,859.824322957698,0.00299999999992906
16,14,139.356653793517,0.00400000000013279
16,15,5547.35843689376,0.00399999999990541
16,16,13481.0770456784,0.0080000000000382
16,17,4380.08997810164,0.00299999999992906
16,18,25.1142077597326,0.00299999999992906
16,19,1979.3522752183,0.00400000000013279
16,20,889.689480878885,0.00299999999992906
16,21,17.4786096360621,0.00400000000013279
16,22,645.159425704416,0.00399999999990541
16,23,6794.24456732588,0.00700000000006185
16,24,188.704196766923,0.00399999999990541
16,25,2737.89540213414,0.00500000000010914
16,26,1690.98295306414,0.00499999999988177
16,27,609.781208436078,0.00300000000015643
16,28,9985.99015517418,0.00499999999988177
16,29,2053.98159432624,0.00299999999992906
16,30,16072.6989861576,0.00600000000008549
17,1,1226.14554210656,0.00399999999990541
17,2,169.202244251668,0.00300000000015643
17,3,3217.37108733881,0.00299999999992906
17,4,213.925589286122,0.00600000000008549
17,5,234.998210294053,0.00399999999990541
17,6,65.1398670342492,0.00600000000008549
17,7,65.0390929244557,0.00499999999988177
17,8,11.4979337658726,0.00500000000010914
17,9,50.5425873721875,0.00399999999990541
17,10,9233.31837766502,0.00500000000010914
17,11,382.047558532467,0.00499999999988177
17,12,53.3569388992915,0.00299999999992906
17,13,21.0378213963169,0.00400000000013279
17,14,123.680367597752,0.00399999999990541
17,15,70.2260647561268,0.00400000000013279
17,16,24.4135532623377,0.00399999999990541
17,17,60.0405801878203,0.00299999999992906
17,18,68.8201454696166,0.00399999999990541
17,19,395.182377603637,0.00299999999992906
17,20,69.9996992535128,0.00500000000010914
17,21,30.049521725319,0.00599999999985812
17,22,8.48804422753277,0.00400000000013279
17,23,509.404712667595,0.00700000000006185
17,24,391.205669063666,0.00499999999988177
17,25,0.466803320318058,0.00500000000010914
17,26,271.969021245837,0.00499999999988177
17,27,318.76626217735,0.00700000000006185
17,28,360.892460731637,0.00499999999988177
17,29,28.7829267540322,0.00500000000010914
17,30,168.45750491154,0.00399999999990541
18,1,150.496697432841,0.00500000000010914
18,2,23.3156753880331,0.00599999999985812
18,3,174.077425209362,0.00500000000010914
18,4,58.9080492941008,0.00399999999990541
18,5,3383.52990648734,0.00900000000001455
18,6,321.979258235934,0.00400000000013279
18,7,114.116458040717,0.00299999999992906
18,8,28.2805012512554,0.00700000000006185
18,9,118.006580659829,0.00599999999985812
18,10,11487.9914490637,0.00500000000010914
18,11,402.117487893093,0.00499999999988177
18,12,51.6040043139879,0.00400000000013279
18,13,15.2912473630277,0.00299999999992906
18,14,25.6881101677216,0.00600000000008549
18,15,5173.27625228294,0.00399999999990541
18,16,12.0064450456783,0.00600000000008549
18,17,82.5276126623105,0.00399999999990541
18,18,2.02314443803017,0.00400000000013279
18,19,11075.0311483347,0.00299999999992906
18,20,2.55487958277956,0.00399999999990541
18,21,901.855880717403,0.0110000000001946
18,22,3.4644978670971,0.00299999999992906
18,23,9.11771084208763,0.00999999999999091
18,24,18.970964000617,0.00399999999990541
18,25,16384.985289341,0.00400000000013279
18,26,61.9235460596295,0.00599999999985812
18,27,289.717615776747,0.00500000000010914
18,28,1196.06690451023,0.00299999999992906
18,29,247.935438341902,0.00400000000013279
18,30,8568.5808830136,0.00299999999992906
19,1,14192.0521983664,0.00499999999988177
19,2,20744.1446448467,0.00999999999999091
19,3,13554.1679823703,0.00500000000010914
19,4,14210.9695780693,0.00700000000006185
19,5,2120.69801681305,0.00999999999999091
19,6,20594.8997330372,0.00599999999985812
19,7,21794.1279248062,0.00900000000001455
19,8,2041.18355424101,0.00900000000001455
19,9,5899.13813852833,0.00600000000008549
19,10,1091.66396893475,0.00600000000008549
19,11,4799.37785768602,0.00699999999983447
19,12,19976.0684217161,0.00500000000010914
19,13,2608.91913455439,0.00599999999985812
19,14,8911.57468695978,0.00700000000006185
19,15,17733.459266395,0.00500000000010914
19,16,4793.31902151555,0.00699999999983447
19,17,1327.04232145482,0.00600000000008549
19,18,17671.8439191702,0.00499999999988177
19,19,3309.24996835953,0.00900000000001455
19,20,2267.71347291338,0.0080000000000382
19,21,34764.4729896212,0.0130000000001473
19,22,30183.5919175232,0.00499999999988177
19,23,1427.44973232322,0.00900000000001455
19,24,3398.76910489108,0.00500000000010914
19,25,2981.31777980886,0.00599999999985812
19,26,9312.56256576497,0.0080000000000382
19,27,2065.73620611827,0.00400000000013279
19,28,3399.67397099251,0.00499999999988177
19,29,3655.76400342093,0.00700000000006185
19,30,107.046336533536,0.00499999999988177
20,1,520.190957354695,0.00400000000013279
20,2,0.373444337094586,0.00299999999992906
20,3,197.075766346013,0.00399999999990541
20,4,20.0842970450215,0.00300000000015643
20,5,78.1159514413662,0.00399999999990541
20,6,712.804646002316,0.00600000000008549
20,7,172.403709436089,0.00399999999990541
20,8,109.005892299617,0.00700000000006185
20,9,127.74853965344,0.00499999999988177
20,10,18415.8961180471,0.00500000000010914
20,11,82.9245349015541,0.00500000000010914
20,12,5.2646596453222,0.00399999999990541
20,13,472.855918740938,0.00399999999990541
20,14,16.6118335389491,0.00500000000010914
20,15,1776.29171130801,0.00499999999988177
20,16,56.1467781998876,0.0080000000000382
20,17,49.4296659608865,0.00500000000010914
20,18,184.073574526217,0.00499999999988177
20,19,5723.30294092112,0.00400000000013279
20,20,0.939694359853967,0.00399999999990541
20,21,174.133095669427,0.00400000000013279
20,22,234.505224821284,0.00699999999983447
20,23,7988.10053506873,0.00500000000010914
20,24,3.29878331633742,0.00399999999990541
20,25,18.7930156256473,0.00600000000008549
20,26,2120.89787348634,0.00599999999985812
20,27,1199.70568062663,0.00300000000015643
20,28,2523.74748003591,0.00499999999988177
20,29,7.12000489060946,0.00500000000010914
20,30,23767.198366282,0.00399999999990541
21,1,6664.30056977828,0.00600000000008549
21,2,3055.26590369774,0.00600000000008549
21,3,8048.40946237593,0.00699999999983447
21,4,10.8352950459995,0.00600000000008549
21,5,25.6376737308139,0.00700000000006185
21,6,176.928630301906,0.00900000000001455
21,7,827.460808341338,0.00599999999985812
21,8,9690.06815234531,0.0140000000001237
21,9,2598.03019193076,0.01299999999992
21,10,82122.6295259182,0.01299999999992
21,11,217.813238037584,0.00600000000008549
21,12,3042.19210558628,0.0080000000000382
21,13,31.9027864633793,0.00900000000001455
21,14,3.73428461023891,0.00399999999990541
21,15,48.0380053484786,0.00400000000013279
21,16,32.9604886028668,0.0080000000000382
21,17,54.4864046850395,0.00499999999988177
21,18,26.0299839089702,0.00600000000008549
21,19,318.022375504452,0.00699999999983447
21,20,1971.38826145262,0.00500000000010914
21,21,12480.3166561597,0.00399999999990541
21,22,20888.4698794065,0.00600000000008549
21,23,7503.36758736564,0.0150000000001
21,24,1299.95929359838,0.00399999999990541
21,25,2435.61236249559,0.0109999999999673
21,26,1075.95441003123,0.00900000000001455
21,27,342.910812015774,0.00700000000006185
21,28,55.9729886991598,0.00399999999990541
21,29,111.828151827286,0.00500000000010914
21,30,11460.417309786,0.0080000000000382
22,1,2.470044328792,0.00399999999990541
22,2,548.805054224074,0.00500000000010914
22,3,68.6700315717465,0.00399999999990541
22,4,6.39973266327269,0.00600000000008549
22,5,86.7523585126843,0.00399999999990541
22,6,1.25157568663314,0.00399999999990541
22,7,2537.27449544324,0.00500000000010914
22,8,401.559949195995,0.00900000000001455
22,9,29.2175931269016,0.00299999999992906
22,10,5907.42898770983,0.00400000000013279
22,11,287.070226876442,0.00399999999990541
22,12,148.237107596144,0.00399999999990541
22,13,1.72951370154693,0.00400000000013279
22,14,82.0859238607621,0.00299999999992906
22,15,3352.02894272323,0.00700000000006185
22,16,60.138142539015,0.00600000000008549
22,17,252.147448403417,0.00299999999992906
22,18,2.24152664474066,0.00499999999988177
22,19,46.5490421346663,0.00400000000013279
22,20,382.118245357419,0.00299999999992906
22,21,73.9830749610844,0.00399999999990541
22,22,106.820041092569,0.00300000000015643
22,23,1194.96010137143,0.00999999999999091
22,24,71.7427752589493,0.00299999999992906
22,25,1725.83488050639,0.00400000000013279
22,26,702.937707433602,0.00699999999983447
22,27,46.7861552759961,0.00300000000015643
22,28,1145.9615694177,0.00499999999988177
22,29,924.635657275192,0.00400000000013279
22,30,19003.6096332295,0.00399999999990541
23,1,611.54673938186,0.00299999999992906
23,2,3345.30824013933,0.00400000000013279
23,3,98.574325885467,0.00399999999990541
23,4,1834.52260746358,0.00400000000013279
23,5,147.679096392846,0.00899999999978718
23,6,134.686653946556,0.00600000000008549
23,7,138.570349102418,0.00399999999990541
23,8,93.8637899782197,0.00900000000001455
23,9,185.691935810982,0.00400000000013279
23,10,1521.3292096888,0.00399999999990541
23,11,244.277007328095,0.00400000000013279
23,12,322.339028883612,0.00499999999988177
23,13,583.560248797761,0.00400000000013279
23,14,78.2202468900057,0.00599999999985812
23,15,448.315460158078,0.00500000000010914
23,16,816.772340354797,0.00700000000006185
23,17,247.494309518989,0.00499999999988177
23,18,1251.95633608873,0.00400000000013279
23,19,6.16787754247807,0.00399999999990541
23,20,18.7945322187207,0.00299999999992906
23,21,38.1971486833011,0.00700000000006185
23,22,306.487226580096,0.00700000000006185
23,23,23.3022788202767,0.00699999999983447
23,24,449.591874992251,0.00300000000015643
23,25,5924.38207457433,0.00599999999985812
23,26,171.729546437568,0.00700000000006185
23,27,8.46393655081004,0.00400000000013279
23,28,912.170999384006,0.00399999999990541
23,29,19.1290508310871,0.00399999999990541
23,30,16198.6663854991,0.00500000000010914
24,1,643.574289293102,0.00299999999992906
24,2,5.14736032094986,0.00299999999992906
24,3,373.797275089804,0.00300000000015643
24,4,62.1165162372657,0.00399999999990541
24,5,36.520317160798,0.00500000000010914
24,6,133.651720748276,0.00599999999985812
24,7,69.5886622748231,0.00700000000006185
24,8,14.265059756509,0.00600000000008549
24,9,17.5700302985965,0.00299999999992906
24,10,5300.69546043781,0.00500000000010914
24,11,2.68772546611772,0.00499999999988177
24,12,120.143632488394,0.00400000000013279
24,13,52.0714158860977,0.00299999999992906
24,14,70.6351451168609,0.00299999999992906
24,15,3848.42019752904,0.00400000000013279
24,16,9.37586402351699,0.0080000000000382
24,17,33.4686888910675,0.00399999999990541
24,18,341.851903855346,0.00600000000008549
24,19,4494.95007281656,0.00399999999990541
24,20,1.32593947063099,0.00299999999992906
24,21,876.190039137678,0.00500000000010914
24,22,15.3554658564764,0.00499999999988177
24,23,12713.7526005229,0.0080000000000382
24,24,22.0515739883099,0.00600000000008549
24,25,305.899913192891,0.00399999999990541
24,26,4189.79456000213,0.0080000000000382
24,27,1138.48995342204,0.00299999999992906
24,28,1691.60486920435,0.00300000000015643
24,29,460.394383413103,0.00499999999988177
24,30,126.360138575864,0.00600000000008549
25,1,2722.62674299422,0.00499999999988177
25,2,11000.0234020449,0.00900000000001455
25,3,4404.67841852115,0.00600000000008549
25,4,41.2433096792747,0.00600000000008549
25,5,1103.41074216642,0.00599999999985812
25,6,120.085672493399,0.00500000000010914
25,7,622.088934750074,0.0080000000000382
25,8,3534.08600905514,0.0180000000000291
25,9,212.605449467578,0.00499999999988177
25,10,3302.23807469711,0.0199999999999818
25,11,1596.09070124768,0.00500000000010914
25,12,739.330322015051,0.00599999999985812
25,13,4580.45018419076,0.00500000000010914
25,14,1066.08776939373,0.0080000000000382
25,15,80.4330729640889,0.00499999999988177
25,16,1311.40058466293,0.0080000000000382
25,17,31.4178844556526,0.00500000000010914
25,18,189.303843334403,0.00399999999990541
25,19,536.525534454171,0.00900000000001455
25,20,889.297131057188,0.00500000000010914
25,21,7198.67013428599,0.0119999999999436
25,22,283.247160001235,0.00499999999988177
25,23,2612.68506610105,0.00900000000001455
25,24,6195.90647336873,0.0080000000000382
25,25,950.741107288049,0.0130000000001473
25,26,867.355385260072,0.00899999999978718
25,27,1656.32601479225,0.00600000000008549
25,28,1185.64211820039,0.00600000000008549
25,29,746.601175870468,0.00399999999990541
25,30,1439.39175050655,0.00500000000010914
26,1,1785.37496538337,0.00299999999992906
26,2,0.153729348177861,0.00399999999990541
26,3,6.52177126728979,0.00400000000013279
26,4,5940.7238682749,0.00399999999990541
26,5,226.939158193858,0.00400000000013279
26,6,286.718188033522,0.00299999999992906
26,7,1713.85576359081,0.00399999999990541
26,8,12.2822292297615,0.00600000000008549
26,9,98.2372860084006,0.00600000000008549
26,10,12662.5364215739,0.00499999999988177
26,11,5548.8792426747,0.00500000000010914
26,12,460.592658812685,0.00499999999988177
26,13,199.276610679414,0.00400000000013279
26,14,18.2689920544546,0.00399999999990541
26,15,3.47873693858082,0.00400000000013279
26,16,709.608067807128,0.00699999999983447
26,17,133.101719793984,0.00300000000015643
26,18,13.3251583441018,0.00299999999992906
26,19,123.035270587408,0.00600000000008549
26,20,3.22155817210396,0.00499999999988177
26,21,2951.42493320037,0.00500000000010914
26,22,24.7479980404688,0.00499999999988177
26,23,23.4845195653166,0.00400000000013279
26,24,352.416765415565,0.00499999999988177
26,25,1255.15324780711,0.00700000000006185
26,26,64.1248951560416,0.00600000000008549
26,27,2.97860534019056,0.00399999999990541
26,28,1038.83973696223,0.00499999999988177
26,29,69.0762907794778,0.00400000000013279
26,30,788.309058161896,0.00700000000006185
27,1,2.27888234591241,0.00299999999992906
27,2,1.26347522682347,0.00299999999992906
27,3,1607.39130662191,0.00400000000013279
27,4,685.499757563408,0.00299999999992906
27,5,27.9806727751852,0.00399999999990541
27,6,2775.75934846226,0.00500000000010914
27,7,297.578189442247,0.00299999999992906
27,8,0.205254339462789,0.00500000000010914
27,9,8.60422014093828,0.00499999999988177
27,10,25717.3964207687,0.00600000000008549
27,11,82.2278663279493,0.00600000000008549
27,12,1.46010835774461,0.00399999999990541
27,13,2287.61773820381,0.0080000000000382
27,14,88.1118276538381,0.00299999999992906
27,15,9348.53826973692,0.00500000000010914
27,16,481.973681264994,0.00599999999985812
27,17,87.1594088802108,0.00400000000013279
27,18,85.7534658196184,0.00399999999990541
27,19,4.34968073613492,0.00500000000010914
27,20,5.91094607706023,0.00399999999990541
27,21,0.193746876192034,0.00400000000013279
27,22,135.010542469161,0.00399999999990541
27,23,19735.3407104438,0.00700000000006185
27,24,61.658677544674,0.00499999999988177
27,25,2128.51549069879,0.00600000000008549
27,26,317.622688774134,0.00600000000008549
27,27,29.2475555871311,0.00299999999992906
27,28,5098.1245610769,0.00399999999990541
27,29,601.037231590049,0.00500000000010914
27,30,69.496132609262,0.00499999999988177
28,1,3202.34580924932,0.00300000000015643
28,2,7738.79554454244,0.00399999999990541
28,3,6206.8147803574,0.00300000000015643
28,4,1170.13546104576,0.00299999999992906
28,5,79.5550587588162,0.00399999999990541
28,6,185.405091133736,0.00300000000015643
28,7,314.397785383245,0.00499999999988177
28,8,347.981917638451,0.0080000000000382
28,9,79.0686091155529,0.00499999999988177
28,10,141.790131816748,0.00500000000010914
28,11,846.949018362065,0.00500000000010914
28,12,150.394361728953,0.00299999999992906
28,13,6.21853757587708,0.00499999999988177
28,14,0.665802534471788,0.00400000000013279
28,15,9.00278276966717,0.00399999999990541
28,16,106.590770464878,0.00400000000013279
28,17,3.40371306576761,0.00399999999990541
28,18,12.6395264957848,0.00500000000010914
28,19,1.14478428041089,0.00399999999990541
28,20,2.32437331026718,0.00500000000010914
28,21,1665.32199071355,0.00299999999992906
28,22,0.343976537932881,0.00499999999988177
28,23,229.348504754792,0.00400000000013279
28,24,786.010998174403,0.00299999999992906
28,25,16088.0950700707,0.00500000000010914
28,26,81.0387414856524,0.00299999999992906
28,27,65.1141330028893,0.00299999999992906
28,28,42.156035840689,0.00300000000015643
28,29,3.39446497532501,0.00299999999992906
28,30,50488.4369837932,0.00400000000013279
29,1,318.502663099155,0.00299999999992906
29,2,5.28619712885334,0.00600000000008549
29,3,2354.29479122223,0.00599999999985812
29,4,191.823487794301,0.00400000000013279
29,5,57.2364556629859,0.00599999999985812
29,6,145.020112304643,0.00400000000013279
29,7,1434.04729800747,0.00499999999988177
29,8,937.488970324427,0.00500000000010914
29,9,24.6829132701126,0.00599999999985812
29,10,11167.6342475324,0.00600000000008549
29,11,721.84225551803,0.00399999999990541
29,12,19.9581479869309,0.0080000000000382
29,13,52.4519032875859,0.00400000000013279
29,14,21.7337981949833,0.00499999999988177
29,15,45.3703765432786,0.00500000000010914
29,16,342.288826607891,0.00599999999985812
29,17,33.1679554626196,0.00500000000010914
29,18,21.2216504564189,0.00399999999990541
29,19,29.6340071010954,0.00400000000013279
29,20,21.6136090914625,0.00399999999990541
29,21,206.184635512627,0.00600000000008549
29,22,34.6344617308147,0.00599999999985812
29,23,70.2571124371003,0.00400000000013279
29,24,26.2756828028927,0.00499999999988177
29,25,13772.5492487409,0.0080000000000382
29,26,40.8965662904383,0.00500000000010914
29,27,53.5618842099296,0.00599999999985812
29,28,423.161558436263,0.00400000000013279
29,29,111.390145915408,0.00499999999988177
29,30,40.9093338553608,0.00500000000010914
30,1,258.309036436019,0.00399999999990541
30,2,806.777771155123,0.00400000000013279
30,3,0.00122882585536855,0.00399999999990541
30,4,1.03267244854314,0.00400000000013279
30,5,269.537461177009,0.00399999999990541
30,6,301.445572158511,0.00399999999990541
30,7,65.5161477166916,0.00300000000015643
30,8,3526.85376114807,0.00599999999985812
30,9,154.983704406368,0.00300000000015643
30,10,1933.49190472752,0.00399999999990541
30,11,219.1584645024,0.00399999999990541
30,12,157.553889980524,0.00300000000015643
30,13,562.772872780178,0.00399999999990541
30,14,447.746054083656,0.00400000000013279
30,15,1497.62964460664,0.00399999999990541
30,16,32.6403353719752,0.00399999999990541
30,17,1216.86074476865,0.00400000000013279
30,18,2.62219172508844,0.00599999999985812
30,19,3.77924205596577,0.00400000000013279
30,20,1877.65746683948,0.00399999999990541
30,21,58.7637114858518,0.00300000000015643
30,22,501.097593049734,0.00399999999990541
30,23,5017.81719957569,0.00600000000008549
30,24,280.527684445296,0.00499999999988177
30,25,7744.23507415938,0.00500000000010914
30,26,48.1588809866952,0.00499999999988177
30,27,1347.60776962345,0.00600000000008549
30,28,1578.69718250759,0.00399999999990541
30,29,441.494335978264,0.00500000000010914
30,30,3446.44936926723,0.00399999999990541
