"Before.Trace.ID1","Before.Trace.ID2","Difference","Runtime"
1,2,1742,0.168000000000006
1,3,1735,0.198999999999955
1,4,1740,0.232000000000085
1,5,1749,0.255999999999972
1,6,1742,0.232999999999947
1,7,1732,0.245000000000005
1,8,1737,0.242999999999938
1,9,1733,0.245000000000005
1,10,1738,0.244000000000028
1,11,1743,0.242999999999938
1,12,1736,0.246000000000095
1,13,1743,0.244999999999891
1,14,1744,0.243000000000052
1,15,1737,0.245000000000005
1,16,1747,0.245000000000005
1,17,1746,0.244000000000028
1,18,1737,0.243999999999915
1,19,1749,0.245000000000005
1,20,1739,0.238000000000056
1,21,1748,0.198999999999955
1,22,1747,0.230000000000018
1,23,1745,0.235000000000014
1,24,1745,0.248000000000047
1,25,1743,0.278999999999996
1,26,1739,0.27699999999993
1,27,1740,0.253000000000043
1,28,1744,0.241999999999962
1,29,1738,0.268000000000029
1,30,1746,0.258000000000038
2,3,1731,0.238999999999919
2,4,1737,0.242000000000075
2,5,1745,0.236999999999966
2,6,1747,0.253000000000043
2,7,1735,0.229999999999905
2,8,1745,0.248000000000047
2,9,1740,0.238000000000056
2,10,1742,0.247999999999934
2,11,1745,0.234000000000037
2,12,1740,0.245000000000005
2,13,1744,0.236999999999966
2,14,1743,0.246000000000095
2,15,1739,0.246999999999957
2,16,1745,0.234000000000037
2,17,1741,0.243999999999915
2,18,1732,0.23700000000008
2,19,1738,0.245999999999981
2,20,1733,0.249000000000024
2,21,1743,0.240000000000009
2,22,1733,0.247999999999934
2,23,1745,0.242000000000075
2,24,1736,0.250999999999976
2,25,1739,0.231999999999971
2,26,1741,0.250999999999976
2,27,1739,0.244000000000028
2,28,1748,0.253000000000043
2,29,1735,0.231999999999971
2,30,1747,0.243000000000052
3,4,1741,0.259000000000015
3,5,1738,0.246999999999957
3,6,1738,0.248000000000047
3,7,1737,0.245000000000005
3,8,1731,0.25
3,9,1735,0.247999999999934
3,10,1748,0.242000000000075
3,11,1744,0.242999999999938
3,12,1741,0.243000000000052
3,13,1748,0.254000000000019
3,14,1741,0.252999999999929
3,15,1729,0.234000000000037
3,16,1735,0.248000000000047
3,17,1749,0.238999999999919
3,18,1748,0.259000000000015
3,19,1749,0.23599999999999
3,20,1748,0.246999999999957
3,21,1748,0.245999999999981
3,22,1739,0.249000000000024
3,23,1744,0.232999999999947
3,24,1741,0.25
3,25,1736,0.26400000000001
3,26,1746,0.244000000000028
3,27,1736,0.245000000000005
3,28,1747,0.238000000000056
3,29,1742,0.275999999999954
3,30,1749,0.266999999999939
4,5,1747,0.235000000000014
4,6,1745,0.246999999999957
4,7,1741,0.240999999999985
4,8,1741,0.25
4,9,1739,0.246999999999957
4,10,1738,0.234000000000037
4,11,1737,0.243000000000052
4,12,1738,0.237999999999943
4,13,1739,0.247000000000071
4,14,1733,0.230000000000018
4,15,1748,0.245999999999981
4,16,1745,0.237999999999943
4,17,1737,0.247000000000071
4,18,1734,0.230000000000018
4,19,1743,0.242999999999938
4,20,1731,0.258000000000038
4,21,1745,0.240000000000009
4,22,1739,0.242000000000075
4,23,1741,0.238999999999919
4,24,1736,0.249000000000024
4,25,1740,0.248000000000047
4,26,1740,0.236999999999966
4,27,1738,0.249000000000024
4,28,1745,0.271000000000072
4,29,1747,0.274999999999977
4,30,1747,0.269999999999982
5,6,1738,0.254000000000019
5,7,1744,0.253000000000043
5,8,1738,0.25
5,9,1738,0.252999999999929
5,10,1745,0.235000000000014
5,11,1747,0.243000000000052
5,12,1744,0.237999999999943
5,13,1741,0.245999999999981
5,14,1736,0.230000000000018
5,15,1729,0.242000000000075
5,16,1741,0.259000000000015
5,17,1742,0.240999999999985
5,18,1730,0.241999999999962
5,19,1744,0.23599999999999
5,20,1745,0.245000000000005
5,21,1743,0.246000000000095
5,22,1744,0.236999999999966
5,23,1748,0.244000000000028
5,24,1728,0.239000000000033
5,25,1743,0.247999999999934
5,26,1739,0.249000000000024
5,27,1734,0.244000000000028
5,28,1746,0.244000000000028
5,29,1739,0.237999999999943
5,30,1748,0.247000000000071
6,7,1743,0.230999999999995
6,8,1730,0.241999999999962
6,9,1722,0.239000000000033
6,10,1733,0.246999999999957
6,11,1734,0.231999999999971
6,12,1731,0.242000000000075
6,13,1745,0.255999999999972
6,14,1734,0.240000000000009
6,15,1740,0.241999999999962
6,16,1737,0.23700000000008
6,17,1738,0.245000000000005
6,18,1736,0.245999999999981
6,19,1733,0.235000000000014
6,20,1731,0.241999999999962
6,21,1737,0.236999999999966
6,22,1742,0.247000000000071
6,23,1740,0.247999999999934
6,24,1730,0.235000000000014
6,25,1735,0.249000000000024
6,26,1726,0.289999999999964
6,27,1738,0.254000000000019
6,28,1745,0.231999999999971
6,29,1736,0.245000000000005
6,30,1749,0.238000000000056
7,8,1726,0.245999999999981
7,9,1729,0.231999999999971
7,10,1721,0.248000000000047
7,11,1735,0.258000000000038
7,12,1716,0.242999999999938
7,13,1735,0.243000000000052
7,14,1743,0.236999999999966
7,15,1736,0.246999999999957
7,16,1741,0.247000000000071
7,17,1738,0.232999999999947
7,18,1734,0.242000000000075
7,19,1739,0.237999999999943
7,20,1737,0.245000000000005
7,21,1743,0.246000000000095
7,22,1728,0.23599999999999
7,23,1733,0.245000000000005
7,24,1731,0.240999999999985
7,25,1739,0.25
7,26,1729,0.278999999999996
7,27,1735,0.246999999999957
7,28,1743,0.240999999999985
7,29,1731,0.248000000000047
7,30,1749,0.230999999999995
8,9,1734,0.243000000000052
8,10,1743,0.299999999999955
8,11,1747,0.241999999999962
8,12,1733,0.252000000000066
8,13,1738,0.239000000000033
8,14,1744,0.246999999999957
8,15,1743,0.248000000000047
8,16,1737,0.233999999999924
8,17,1747,0.244000000000028
8,18,1742,0.23700000000008
8,19,1740,0.245000000000005
8,20,1749,0.246999999999957
8,21,1746,0.238000000000056
8,22,1747,0.243999999999915
8,23,1733,0.238000000000056
8,24,1741,0.246999999999957
8,25,1733,0.231999999999971
8,26,1741,0.243000000000052
8,27,1739,0.241999999999962
8,28,1749,0.245999999999981
8,29,1738,0.238000000000056
8,30,1749,0.254000000000019
9,10,1696,0.255999999999972
9,11,1727,0.240000000000009
9,12,1726,0.272000000000048
9,13,1736,0.27699999999993
9,14,1736,0.298000000000002
9,15,1722,0.285000000000082
9,16,1728,0.288999999999987
9,17,1734,0.300999999999931
9,18,1731,0.293000000000006
9,19,1738,0.302999999999997
9,20,1738,0.302999999999997
9,21,1739,0.290000000000077
9,22,1730,0.271999999999935
9,23,1740,0.23700000000008
9,24,1720,0.267999999999915
9,25,1732,0.230000000000018
9,26,1729,0.240999999999985
9,27,1733,0.238000000000056
9,28,1745,0.245999999999981
9,29,1704,0.230999999999995
9,30,1747,0.240999999999985
10,11,1734,0.257000000000062
10,12,1732,0.240000000000009
10,13,1723,0.240999999999985
10,14,1747,0.236999999999966
10,15,1738,0.245000000000005
10,16,1727,0.246999999999957
10,17,1739,0.235000000000014
10,18,1703,0.242000000000075
10,19,1745,0.236999999999966
10,20,1742,0.245000000000005
10,21,1739,0.245000000000005
10,22,1724,0.233000000000061
10,23,1740,0.241999999999962
10,24,1716,0.237999999999943
10,25,1743,0.245000000000005
10,26,1717,0.230000000000018
10,27,1738,0.242000000000075
10,28,1735,0.236999999999966
10,29,1722,0.245000000000005
10,30,1747,0.230999999999995
11,12,1742,0.245000000000005
11,13,1740,0.259000000000015
11,14,1740,0.242999999999938
11,15,1744,0.242000000000075
11,16,1725,0.236999999999966
11,17,1743,0.245999999999981
11,18,1723,0.245999999999981
11,19,1738,0.23700000000008
11,20,1739,0.245000000000005
11,21,1741,0.240999999999985
11,22,1727,0.246999999999957
11,23,1741,0.248000000000047
11,24,1724,0.27699999999993
11,25,1744,0.261000000000081
11,26,1723,0.240999999999985
11,27,1709,0.245999999999981
11,28,1730,0.240999999999985
11,29,1731,0.253000000000043
11,30,1740,0.247999999999934
12,13,1739,0.245999999999981
12,14,1734,0.230000000000018
12,15,1726,0.241999999999962
12,16,1739,0.262000000000057
12,17,1736,0.243999999999915
12,18,1734,0.248000000000047
12,19,1740,0.245999999999981
12,20,1738,0.25
12,21,1740,0.251999999999953
12,22,1733,0.240000000000009
12,23,1723,0.247000000000071
12,24,1736,0.242999999999938
12,25,1732,0.24899999999991
12,26,1731,0.248000000000047
12,27,1741,0.235000000000014
12,28,1746,0.245999999999981
12,29,1728,0.240999999999985
12,30,1749,0.250999999999976
13,14,1738,0.235000000000014
13,15,1744,0.248000000000047
13,16,1731,0.239000000000033
13,17,1737,0.247999999999934
13,18,1707,0.230999999999995
13,19,1745,0.243000000000052
13,20,1733,0.255999999999972
13,21,1747,0.240999999999985
13,22,1742,0.242999999999938
13,23,1740,0.23700000000008
13,24,1732,0.245999999999981
13,25,1741,0.249000000000024
13,26,1731,0.235000000000014
13,27,1742,0.245999999999981
13,28,1734,0.238999999999919
13,29,1729,0.246000000000095
13,30,1740,0.246999999999844
14,15,1739,0.235000000000127
14,16,1740,0.243999999999915
14,17,1744,0.238000000000056
14,18,1736,0.247000000000071
14,19,1731,0.229000000000042
14,20,1731,0.242999999999938
14,21,1745,0.241999999999962
14,22,1740,0.252999999999929
14,23,1747,0.231999999999971
14,24,1743,0.247000000000071
14,25,1736,0.259000000000015
14,26,1742,0.243999999999915
14,27,1726,0.243000000000166
14,28,1732,0.239000000000033
14,29,1738,0.264999999999873
14,30,1741,0.254000000000133
15,16,1731,0.2349999999999
15,17,1727,0.2650000000001
15,18,1735,0.251999999999953
15,19,1745,0.251999999999953
15,20,1746,0.249000000000024
15,21,1747,0.23700000000008
15,22,1733,0.246999999999844
15,23,1740,0.239000000000033
15,24,1722,0.251999999999953
15,25,1734,0.232000000000198
15,26,1733,0.248999999999796
15,27,1746,0.238000000000056
15,28,1745,0.246000000000095
15,29,1729,0.232999999999947
15,30,1744,0.244000000000142
16,17,1741,0.259999999999991
16,18,1725,0.244999999999891
16,19,1741,0.245000000000118
16,20,1739,0.243999999999915
16,21,1741,0.256000000000085
16,22,1707,0.250999999999976
16,23,1719,0.242999999999938
16,24,1733,0.260999999999967
16,25,1741,0.257000000000062
16,26,1713,0.269999999999982
16,27,1734,0.25
16,28,1739,0.235999999999876
16,29,1737,0.256000000000085
16,30,1743,0.282999999999902
17,18,1744,0.257999999999811
17,19,1746,0.230999999999995
17,20,1743,0.266000000000076
17,21,1740,0.266000000000076
17,22,1736,0.25
17,23,1741,0.230999999999995
17,24,1733,0.242999999999938
17,25,1742,0.255000000000109
17,26,1742,0.240999999999985
17,27,1737,0.241999999999962
17,28,1735,0.238000000000056
17,29,1733,0.245999999999867
17,30,1735,0.25
18,19,1743,0.232999999999947
18,20,1733,0.242000000000189
18,21,1739,0.236999999999853
18,22,1729,0.246000000000095
18,23,1739,0.245999999999867
18,24,1730,0.234000000000151
18,25,1736,0.241999999999962
18,26,1724,0.238000000000056
18,27,1718,0.245999999999867
18,28,1732,0.229000000000042
18,29,1716,0.240999999999985
18,30,1745,0.23700000000008
19,20,1738,0.244999999999891
19,21,1742,0.232000000000198
19,22,1742,0.241999999999962
19,23,1747,0.256000000000085
19,24,1744,0.266999999999825
19,25,1746,0.2650000000001
19,26,1738,0.259000000000015
19,27,1730,0.291999999999916
19,28,1744,0.247000000000071
19,29,1731,0.233999999999924
19,30,1741,0.241999999999962
20,21,1737,0.238000000000056
20,22,1734,0.282000000000153
20,23,1748,0.292999999999893
20,24,1727,0.27800000000002
20,25,1747,0.266000000000076
20,26,1738,0.276999999999816
20,27,1726,0.246000000000095
20,28,1736,0.229000000000042
20,29,1740,0.261999999999944
20,30,1742,0.264000000000124
21,22,1738,0.288999999999987
21,23,1737,0.232999999999947
21,24,1735,0.243999999999915
21,25,1747,0.256000000000085
21,26,1743,0.240000000000009
21,27,1737,0.240999999999985
21,28,1745,0.238000000000056
21,29,1745,0.25
21,30,1748,0.247000000000071
22,23,1739,0.233999999999924
22,24,1727,0.242999999999938
22,25,1742,0.23700000000008
22,26,1730,0.245999999999867
22,27,1731,0.247000000000071
22,28,1736,0.232999999999947
22,29,1740,0.243000000000166
22,30,1736,0.236999999999853
23,24,1732,0.246000000000095
23,25,1748,0.230000000000018
23,26,1739,0.241999999999962
23,27,1746,0.23700000000008
23,28,1740,0.245999999999867
23,29,1742,0.254000000000133
23,30,1745,0.267999999999802
24,25,1737,0.286000000000058
24,26,1719,0.261999999999944
24,27,1722,0.264999999999873
24,28,1738,0.274000000000115
24,29,1722,0.24799999999982
24,30,1743,0.246000000000095
25,26,1735,0.233999999999924
25,27,1744,0.243000000000166
25,28,1736,0.237999999999829
25,29,1743,0.249000000000024
25,30,1749,0.25200000000018
26,27,1738,0.237999999999829
26,28,1734,0.246000000000095
26,29,1706,0.240000000000009
26,30,1745,0.249000000000024
27,28,1730,0.230999999999995
27,29,1713,0.243999999999915
27,30,1734,0.238000000000056
28,29,1739,0.252999999999929
28,30,1732,0.234000000000151
29,30,1747,0.245999999999867


"After.Trace.ID","Before.Trace.ID","Difference","Runtime"
1,1,1737,0.256000000000085
1,2,1735,0.280999999999949
1,3,1734,0.257000000000062
1,4,1738,0.243999999999915
1,5,1745,0.253000000000156
1,6,1736,0.238999999999805
1,7,1728,0.255000000000109
1,8,1741,0.232999999999947
1,9,1729,0.245000000000118
1,10,1744,0.237999999999829
1,11,1743,0.248000000000047
1,12,1725,0.232999999999947
1,13,1735,0.244999999999891
1,14,1735,0.240999999999985
1,15,1736,0.246000000000095
1,16,1743,0.230999999999995
1,17,1749,0.242999999999938
1,18,1739,0.256000000000085
1,19,1745,0.241999999999962
1,20,1742,0.241999999999962
1,21,1748,0.23700000000008
1,22,1740,0.244999999999891
1,23,1741,0.246000000000095
1,24,1732,0.233999999999924
1,25,1738,0.242999999999938
1,26,1729,0.238000000000056
1,27,1744,0.247000000000071
1,28,1748,0.230000000000018
1,29,1739,0.243999999999915
1,30,1747,0.238000000000056
2,1,1738,0.248000000000047
2,2,1731,0.230999999999995
2,3,1736,0.242999999999938
2,4,1738,0.257000000000062
2,5,1745,0.241999999999962
2,6,1741,0.243999999999915
2,7,1739,0.23700000000008
2,8,1744,0.247000000000071
2,9,1732,0.245999999999867
2,10,1738,0.234000000000151
2,11,1738,0.242999999999938
2,12,1745,0.238000000000056
2,13,1736,0.245999999999867
2,14,1729,0.246000000000095
2,15,1736,0.232999999999947
2,16,1742,0.242999999999938
2,17,1742,0.238000000000056
2,18,1733,0.248000000000047
2,19,1741,0.232999999999947
2,20,1732,0.242999999999938
2,21,1743,0.239000000000033
2,22,1735,0.247000000000071
2,23,1749,0.233999999999924
2,24,1742,0.247000000000071
2,25,1742,0.258000000000038
2,26,1738,0.240999999999985
2,27,1740,0.241999999999962
2,28,1742,0.238000000000056
2,29,1729,0.248000000000047
2,30,1742,0.246999999999844
3,1,1734,0.236000000000104
3,2,1742,0.242999999999938
3,3,1729,0.238000000000056
3,4,1734,0.246000000000095
3,5,1737,0.245999999999867
3,6,1735,0.234000000000151
3,7,1732,0.242999999999938
3,8,1737,0.238000000000056
3,9,1730,0.245999999999867
3,10,1740,0.230000000000018
3,11,1742,0.250999999999976
3,12,1729,0.240999999999985
3,13,1740,0.259000000000015
3,14,1740,0.245000000000118
3,15,1735,0.252999999999929
3,16,1744,0.259000000000015
3,17,1748,0.244999999999891
3,18,1740,0.244000000000142
3,19,1743,0.240000000000009
3,20,1739,0.247000000000071
3,21,1745,0.24799999999982
3,22,1735,0.234000000000151
3,23,1746,0.243999999999915
3,24,1738,0.238000000000056
3,25,1722,0.246000000000095
3,26,1729,0.246999999999844
3,27,1739,0.234000000000151
3,28,1747,0.241999999999962
3,29,1737,0.239000000000033
3,30,1749,0.246999999999844
4,1,1747,0.234000000000151
4,2,1735,0.243999999999915
4,3,1742,0.238000000000056
4,4,1728,0.248000000000047
4,5,1737,0.233999999999924
4,6,1739,0.250999999999976
4,7,1731,0.259000000000015
4,8,1739,0.240999999999985
4,9,1735,0.244000000000142
4,10,1738,0.283999999999878
4,11,1733,0.253000000000156
4,12,1724,0.25
4,13,1742,0.236999999999853
4,14,1743,0.245000000000118
4,15,1745,0.240000000000009
4,16,1737,0.249000000000024
4,17,1735,0.249000000000024
4,18,1724,0.235999999999876
4,19,1739,0.245000000000118
4,20,1733,0.238999999999805
4,21,1739,0.246000000000095
4,22,1742,0.229000000000042
4,23,1738,0.25
4,24,1737,0.242999999999938
4,25,1731,0.250999999999976
4,26,1742,0.23700000000008
4,27,1731,0.245999999999867
4,28,1745,0.259000000000015
4,29,1742,0.242000000000189
4,30,1748,0.242999999999938
5,1,1738,0.238000000000056
5,2,1735,0.245999999999867
5,3,1740,0.248000000000047
5,4,1734,0.235000000000127
5,5,1745,0.244999999999891
5,6,1730,0.239000000000033
5,7,1726,0.248000000000047
5,8,1722,0.251999999999953
5,9,1727,0.2349999999999
5,10,1728,0.243999999999915
5,11,1738,0.245999999999867
5,12,1732,0.259000000000015
5,13,1738,0.23700000000008
5,14,1734,0.252999999999929
5,15,1728,0.243000000000166
5,16,1731,0.246999999999844
5,17,1743,0.231999999999971
5,18,1729,0.244000000000142
5,19,1742,0.257000000000062
5,20,1743,0.243999999999915
5,21,1749,0.244999999999891
5,22,1725,0.238999999999805
5,23,1742,0.261000000000195
5,24,1725,0.254999999999882
5,25,1723,0.242999999999938
5,26,1735,0.258000000000038
5,27,1738,0.240000000000009
5,28,1747,0.246000000000095
5,29,1733,0.251999999999953
5,30,1747,0.233999999999924
6,1,1739,0.246000000000095
6,2,1735,0.239000000000033
6,3,1742,0.248000000000047
6,4,1742,0.228999999999814
6,5,1744,0.243000000000166
6,6,1735,0.236999999999853
6,7,1741,0.25
6,8,1734,0.238000000000056
6,9,1742,0.242999999999938
6,10,1734,0.266000000000076
6,11,1740,0.258000000000038
6,12,1728,0.249000000000024
6,13,1745,0.249000000000024
6,14,1734,0.253999999999905
6,15,1740,0.259999999999991
6,16,1734,0.238000000000056
6,17,1737,0.242999999999938
6,18,1742,0.238000000000056
6,19,1738,0.246000000000095
6,20,1737,0.245999999999867
6,21,1748,0.234000000000151
6,22,1734,0.243999999999915
6,23,1748,0.239000000000033
6,24,1740,0.247000000000071
6,25,1726,0.230000000000018
6,26,1728,0.249000000000024
6,27,1739,0.242999999999938
6,28,1728,0.248000000000047
6,29,1742,0.232999999999947
6,30,1746,0.243999999999915
7,1,1734,0.259000000000015
7,2,1746,0.240000000000009
7,3,1726,0.242999999999938
7,4,1732,0.23700000000008
7,5,1741,0.247000000000071
7,6,1737,0.248000000000047
7,7,1731,0.235999999999876
7,8,1733,0.244000000000142
7,9,1722,0.238999999999805
7,10,1737,0.245000000000118
7,11,1728,0.247000000000071
7,12,1729,0.233999999999924
7,13,1745,0.242999999999938
7,14,1730,0.238000000000056
7,15,1728,0.245999999999867
7,16,1727,0.229000000000042
7,17,1744,0.241999999999962
7,18,1736,0.23700000000008
7,19,1742,0.246000000000095
7,20,1734,0.230000000000018
7,21,1745,0.241999999999962
7,22,1726,0.256000000000085
7,23,1741,0.240999999999985
7,24,1714,0.241999999999962
7,25,1734,0.236999999999853
7,26,1720,0.247000000000071
7,27,1727,0.247000000000071
7,28,1739,0.232999999999947
7,29,1726,0.242999999999938
7,30,1748,0.238000000000056
8,1,1738,0.245000000000118
8,2,1741,0.246999999999844
8,3,1735,0.234000000000151
8,4,1745,0.242999999999938
8,5,1736,0.239000000000033
8,6,1744,0.246999999999844
8,7,1734,0.230999999999995
8,8,1735,0.242000000000189
8,9,1729,0.236999999999853
8,10,1729,0.246000000000095
8,11,1740,0.230000000000018
8,12,1742,0.242999999999938
8,13,1728,0.255000000000109
8,14,1736,0.240999999999985
8,15,1740,0.241999999999962
8,16,1719,0.236999999999853
8,17,1748,0.246000000000095
8,18,1730,0.251999999999953
8,19,1745,0.241000000000213
8,20,1742,0.256999999999834
8,21,1747,0.25200000000018
8,22,1740,0.256999999999834
8,23,1741,0.258000000000038
8,24,1737,0.23700000000008
8,25,1736,0.242999999999938
8,26,1719,0.238000000000056
8,27,1742,0.248000000000047
8,28,1739,0.2349999999999
8,29,1737,0.257000000000062
8,30,1746,0.246000000000095
9,1,1740,0.251999999999953
9,2,1738,0.244999999999891
9,3,1736,0.253000000000156
9,4,1737,0.266999999999825
9,5,1737,0.251000000000204
9,6,1732,0.260999999999967
9,7,1739,0.260999999999967
9,8,1740,0.269999999999982
9,9,1727,0.258000000000038
9,10,1730,0.253999999999905
9,11,1740,0.264000000000124
9,12,1742,0.252999999999929
9,13,1732,0.267000000000053
9,14,1730,0.258000000000038
9,15,1731,0.246999999999844
9,16,1729,0.253000000000156
9,17,1740,0.253999999999905
9,18,1724,0.267000000000053
9,19,1742,0.251999999999953
9,20,1737,0.260999999999967
9,21,1740,0.257000000000062
9,22,1734,0.2650000000001
9,23,1746,0.255999999999858
9,24,1733,0.259000000000015
9,25,1740,0.283000000000129
9,26,1727,0.260999999999967
9,27,1728,0.264999999999873
9,28,1742,0.262000000000171
9,29,1729,0.265999999999849
9,30,1742,0.2650000000001
10,1,1740,0.257000000000062
10,2,1745,0.270999999999958
10,3,1734,0.258000000000038
10,4,1743,0.272999999999911
10,5,1742,0.264000000000124
10,6,1728,0.259000000000015
10,7,1734,0.263999999999896
10,8,1729,0.250999999999976
10,9,1729,0.259000000000015
10,10,1745,0.248000000000047
10,11,1747,0.261999999999944
10,12,1744,0.256000000000085
10,13,1746,0.261999999999944
10,14,1739,0.240000000000009
10,15,1735,0.258000000000038
10,16,1746,0.264999999999873
10,17,1749,0.255000000000109
10,18,1738,0.250999999999976
10,19,1739,0.253999999999905
10,20,1744,0.266999999999825
10,21,1746,0.269000000000005
10,22,1748,0.256000000000085
10,23,1744,0.266000000000076
10,24,1739,0.257999999999811
10,25,1713,0.261999999999944
10,26,1736,0.258000000000038
10,27,1748,0.248000000000047
10,28,1745,0.261999999999944
10,29,1735,0.256000000000085
10,30,1748,0.260999999999967
11,1,1742,0.244999999999891
11,2,1739,0.255000000000109
11,3,1730,0.25
11,4,1735,0.259999999999991
11,5,1746,0.244999999999891
11,6,1738,0.259999999999991
11,7,1731,0.269999999999982
11,8,1733,0.258000000000038
11,9,1736,0.264000000000124
11,10,1734,0.255999999999858
11,11,1742,0.267000000000053
11,12,1735,0.268000000000029
11,13,1741,0.268000000000029
11,14,1742,0.275000000000091
11,15,1734,0.266999999999825
11,16,1745,0.297000000000025
11,17,1749,0.289999999999964
11,18,1744,0.277000000000044
11,19,1741,0.303000000000111
11,20,1744,0.293999999999869
11,21,1748,0.300000000000182
11,22,1736,0.279999999999973
11,23,1747,0.297000000000025
11,24,1738,0.298000000000002
11,25,1732,0.299999999999955
11,26,1739,0.287000000000035
11,27,1745,0.311999999999898
11,28,1737,0.299999999999955
11,29,1740,0.297000000000025
11,30,1749,0.298000000000002
12,1,1740,0.307999999999993
12,2,1733,0.309999999999945
12,3,1732,0.304000000000087
12,4,1743,0.288999999999987
12,5,1735,0.299999999999955
12,6,1734,0.285000000000082
12,7,1732,0.243999999999915
12,8,1729,0.302000000000135
12,9,1727,0.288999999999987
12,10,1725,0.300999999999931
12,11,1740,0.286000000000058
12,12,1717,0.301999999999907
12,13,1729,0.286000000000058
12,14,1727,0.299999999999955
12,15,1735,0.29300000000012
12,16,1735,0.30399999999986
12,17,1743,0.286000000000058
12,18,1730,0.298999999999978
12,19,1737,0.286000000000058
12,20,1732,0.298000000000002
12,21,1736,0.296000000000049
12,22,1735,0.268000000000029
12,23,1740,0.30399999999986
12,24,1726,0.247000000000071
12,25,1718,0.284000000000106
12,26,1726,0.301999999999907
12,27,1722,0.295000000000073
12,28,1739,0.302999999999884
12,29,1725,0.302000000000135
12,30,1749,0.288999999999987
13,1,1743,0.27800000000002
13,2,1749,0.238000000000056
13,3,1731,0.243999999999915
13,4,1738,0.230999999999995
13,5,1745,0.266000000000076
13,6,1744,0.291999999999916
13,7,1737,0.299999999999955
13,8,1736,0.285000000000082
13,9,1734,0.298000000000002
13,10,1725,0.325000000000045
13,11,1738,0.283999999999878
13,12,1735,0.240000000000009
13,13,1732,0.283000000000129
13,14,1741,0.308999999999969
13,15,1731,0.304000000000087
13,16,1727,0.26299999999992
13,17,1740,0.261999999999944
13,18,1727,0.2650000000001
13,19,1748,0.296000000000049
13,20,1744,0.302999999999884
13,21,1747,0.289999999999964
13,22,1729,0.302000000000135
13,23,1741,0.292999999999893
13,24,1714,0.305000000000064
13,25,1732,0.303000000000111
13,26,1727,0.301999999999907
13,27,1745,0.298999999999978
13,28,1734,0.305000000000064
13,29,1737,0.232999999999947
13,30,1748,0.284000000000106
14,1,1731,0.30399999999986
14,2,1741,0.261999999999944
14,3,1731,0.243000000000166
14,4,1732,0.292999999999893
14,5,1731,0.312000000000126
14,6,1725,0.317999999999984
14,7,1730,0.300999999999931
14,8,1733,0.30600000000004
14,9,1726,0.300999999999931
14,10,1735,0.307999999999993
14,11,1727,0.303000000000111
14,12,1723,0.265999999999849
14,13,1730,0.302000000000135
14,14,1747,0.301999999999907
14,15,1735,0.296000000000049
14,16,1738,0.232999999999947
14,17,1739,0.25200000000018
14,18,1716,0.297000000000025
14,19,1742,0.306999999999789
14,20,1745,0.292000000000144
14,21,1744,0.307999999999993
14,22,1741,0.314000000000078
14,23,1739,0.302999999999884
14,24,1732,0.299999999999955
14,25,1724,0.275000000000091
14,26,1730,0.248000000000047
14,27,1729,0.246999999999844
14,28,1749,0.234000000000151
14,29,1731,0.245999999999867
14,30,1749,0.240999999999985
15,1,1740,0.256000000000085
15,2,1745,0.260999999999967
15,3,1746,0.259000000000015
15,4,1735,0.269000000000005
15,5,1743,0.251999999999953
15,6,1733,0.258000000000038
15,7,1724,0.23700000000008
15,8,1746,0.250999999999976
15,9,1739,0.240000000000009
15,10,1724,0.244999999999891
15,11,1737,0.235000000000127
15,12,1736,0.243999999999915
15,13,1738,0.260999999999967
15,14,1745,0.251000000000204
15,15,1743,0.257999999999811
15,16,1744,0.243000000000166
15,17,1734,0.252999999999929
15,18,1736,0.252999999999929
15,19,1743,0.23700000000008
15,20,1739,0.247000000000071
15,21,1736,0.238999999999805
15,22,1735,0.245000000000118
15,23,1743,0.249000000000024
15,24,1735,0.239000000000033
15,25,1735,0.245999999999867
15,26,1732,0.240999999999985
15,27,1740,0.25
15,28,1737,0.230000000000018
15,29,1738,0.240000000000009
15,30,1739,0.238000000000056
16,1,1738,0.246000000000095
16,2,1742,0.231999999999971
16,3,1738,0.241999999999962
16,4,1736,0.254999999999882
16,5,1740,0.240000000000009
16,6,1737,0.240000000000009
16,7,1731,0.238000000000056
16,8,1744,0.243999999999915
16,9,1733,0.245000000000118
16,10,1727,0.232999999999947
16,11,1726,0.240999999999985
16,12,1738,0.238000000000056
16,13,1730,0.243999999999915
16,14,1746,0.246000000000095
16,15,1740,0.2349999999999
16,16,1732,0.241000000000213
16,17,1740,0.236999999999853
16,18,1716,0.245000000000118
16,19,1738,0.230999999999995
16,20,1739,0.240000000000009
16,21,1740,0.237999999999829
16,22,1725,0.244000000000142
16,23,1737,0.230999999999995
16,24,1731,0.240999999999985
16,25,1734,0.256000000000085
16,26,1722,0.240000000000009
16,27,1732,0.240999999999985
16,28,1745,0.237999999999829
16,29,1739,0.244000000000142
16,30,1745,0.244999999999891
17,1,1742,0.234000000000151
17,2,1736,0.241999999999962
17,3,1744,0.236999999999853
17,4,1736,0.244000000000142
17,5,1743,0.245999999999867
17,6,1735,0.235000000000127
17,7,1735,0.240999999999985
17,8,1734,0.238000000000056
17,9,1736,0.244999999999891
17,10,1729,0.229000000000042
17,11,1744,0.240999999999985
17,12,1734,0.23700000000008
17,13,1738,0.244999999999891
17,14,1738,0.231999999999971
17,15,1747,0.240999999999985
17,16,1742,0.255000000000109
17,17,1731,0.240999999999985
17,18,1736,0.240999999999985
17,19,1734,0.239000000000033
17,20,1725,0.25
17,21,1743,0.251999999999953
17,22,1735,0.233999999999924
17,23,1747,0.242000000000189
17,24,1741,0.236999999999853
17,25,1743,0.244000000000142
17,26,1729,0.244999999999891
17,27,1737,0.233999999999924
17,28,1741,0.241000000000213
17,29,1733,0.236999999999853
17,30,1747,0.245000000000118
18,1,1732,0.230000000000018
18,2,1746,0.240000000000009
18,3,1740,0.236999999999853
18,4,1731,0.244000000000142
18,5,1734,0.230000000000018
18,6,1729,0.240999999999985
18,7,1727,0.254999999999882
18,8,1732,0.240000000000009
18,9,1729,0.240000000000009
18,10,1718,0.236000000000104
18,11,1736,0.243999999999915
18,12,1729,0.245000000000118
18,13,1720,0.233999999999924
18,14,1727,0.240999999999985
18,15,1736,0.23700000000008
18,16,1727,0.243999999999915
18,17,1743,0.245000000000118
18,18,1723,0.232999999999947
18,19,1734,0.240999999999985
18,20,1730,0.236000000000104
18,21,1734,0.243999999999915
18,22,1726,0.230000000000018
18,23,1745,0.240000000000009
18,24,1735,0.23700000000008
18,25,1727,0.243999999999915
18,26,1705,0.232999999999947
18,27,1733,0.241999999999962
18,28,1745,0.255000000000109
18,29,1730,0.240000000000009
18,30,1748,0.240999999999985
19,1,1743,0.23700000000008
19,2,1744,0.243999999999915
19,3,1742,0.244999999999891
19,4,1741,0.234000000000151
19,5,1739,0.240999999999985
19,6,1741,0.23700000000008
19,7,1738,0.243999999999915
19,8,1743,0.244999999999891
19,9,1746,0.234000000000151
19,10,1747,0.240999999999985
19,11,1746,0.236999999999853
19,12,1744,0.244000000000142
19,13,1747,0.229000000000042
19,14,1737,0.240000000000009
19,15,1749,0.236999999999853
19,16,1746,0.245000000000118
19,17,1746,0.230999999999995
19,18,1747,0.240999999999985
19,19,1743,0.254999999999882
19,20,1735,0.240000000000009
19,21,1745,0.240999999999985
19,22,1744,0.23700000000008
19,23,1746,0.243999999999915
19,24,1739,0.245000000000118
19,25,1733,0.233999999999924
19,26,1741,0.240999999999985
19,27,1747,0.23700000000008
19,28,1749,0.243999999999915
19,29,1748,0.245000000000118
19,30,1749,0.233999999999924
20,1,1741,0.241999999999962
20,2,1737,0.239000000000033
20,3,1745,0.246000000000095
20,4,1739,0.230999999999995
20,5,1745,0.240000000000009
20,6,1727,0.239000000000033
20,7,1713,0.245999999999867
20,8,1735,0.230999999999995
20,9,1730,0.250999999999976
20,10,1712,0.261000000000195
20,11,1721,0.238999999999805
20,12,1724,0.240000000000009
20,13,1734,0.236999999999853
20,14,1735,0.245000000000118
20,15,1732,0.244999999999891
20,16,1725,0.235000000000127
20,17,1738,0.241999999999962
20,18,1733,0.235999999999876
20,19,1738,0.245000000000118
20,20,1735,0.245999999999867
20,21,1743,0.23700000000008
20,22,1735,0.241999999999962
20,23,1749,0.239000000000033
20,24,1726,0.246000000000095
20,25,1738,0.230999999999995
20,26,1703,0.244999999999891
20,27,1710,0.23700000000008
20,28,1740,0.245999999999867
20,29,1714,0.230000000000018
20,30,1737,0.240999999999985
21,1,1748,0.256000000000085
21,2,1740,0.240999999999985
21,3,1749,0.240999999999985
21,4,1743,0.23700000000008
21,5,1748,0.245999999999867
21,6,1729,0.246000000000095
21,7,1742,0.2349999999999
21,8,1745,0.242000000000189
21,9,1735,0.237999999999829
21,10,1742,0.244000000000142
21,11,1718,0.244999999999891
21,12,1741,0.233000000000175
21,13,1743,0.240999999999985
21,14,1734,0.236999999999853
21,15,1745,0.244000000000142
21,16,1736,0.230000000000018
21,17,1746,0.240000000000009
21,18,1738,0.236999999999853
21,19,1726,0.244000000000142
21,20,1734,0.230000000000018
21,21,1743,0.240000000000009
21,22,1740,0.253999999999905
21,23,1744,0.240000000000009
21,24,1739,0.240999999999985
21,25,1749,0.23700000000008
21,26,1725,0.244999999999891
21,27,1724,0.25
21,28,1737,0.235000000000127
21,29,1733,0.241999999999962
21,30,1729,0.238000000000056
22,1,1736,0.243999999999915
22,2,1741,0.245000000000118
22,3,1743,0.233999999999924
22,4,1737,0.240999999999985
22,5,1731,0.23700000000008
22,6,1731,0.244999999999891
22,7,1733,0.229000000000042
22,8,1737,0.240999999999985
22,9,1724,0.23700000000008
22,10,1711,0.243999999999915
22,11,1730,0.230999999999995
22,12,1737,0.240999999999985
22,13,1739,0.255000000000109
22,14,1733,0.240000000000009
22,15,1737,0.240000000000009
22,16,1727,0.236999999999853
22,17,1744,0.244000000000142
22,18,1733,0.245999999999867
22,19,1730,0.234000000000151
22,20,1736,0.240999999999985
22,21,1747,0.238000000000056
22,22,1731,0.243999999999915
22,23,1746,0.244999999999891
22,24,1719,0.236000000000104
22,25,1734,0.240999999999985
22,26,1723,0.238000000000056
22,27,1732,0.243999999999915
22,28,1742,0.229000000000042
22,29,1726,0.240999999999985
22,30,1749,0.236000000000104
23,1,1737,0.244999999999891
23,2,1744,0.230000000000018
23,3,1741,0.240000000000009
23,4,1745,0.254000000000133
23,5,1737,0.240000000000009
23,6,1743,0.240999999999985
23,7,1738,0.235999999999876
23,8,1731,0.244000000000142
23,9,1737,0.244999999999891
23,10,1735,0.233999999999924
23,11,1736,0.241000000000213
23,12,1738,0.236999999999853
23,13,1747,0.246000000000095
23,14,1734,0.245999999999867
23,15,1736,0.233000000000175
23,16,1745,0.241999999999962
23,17,1743,0.236999999999853
23,18,1731,0.244000000000142
23,19,1744,0.230000000000018
23,20,1745,0.241999999999962
23,21,1742,0.23700000000008
23,22,1748,0.244999999999891
23,23,1739,0.230999999999995
23,24,1741,0.241999999999962
23,25,1744,0.259999999999991
23,26,1728,0.247000000000071
23,27,1731,0.241999999999962
23,28,1739,0.23700000000008
23,29,1734,0.245999999999867
23,30,1746,0.246000000000095
24,1,1738,0.232999999999947
24,2,1740,0.240999999999985
24,3,1745,0.239000000000033
24,4,1732,0.245000000000118
24,5,1743,0.245999999999867
24,6,1727,0.234000000000151
24,7,1727,0.240999999999985
24,8,1739,0.23700000000008
24,9,1721,0.244999999999891
24,10,1725,0.230000000000018
24,11,1730,0.240000000000009
24,12,1736,0.23700000000008
24,13,1725,0.244999999999891
24,14,1743,0.230000000000018
24,15,1736,0.240999999999985
24,16,1725,0.256000000000085
24,17,1742,0.240000000000009
24,18,1716,0.240000000000009
24,19,1733,0.23700000000008
24,20,1735,0.244999999999891
24,21,1743,0.245000000000118
24,22,1721,0.232999999999947
24,23,1739,0.240999999999985
24,24,1718,0.236000000000104
24,25,1723,0.243999999999915
24,26,1719,0.244999999999891
24,27,1727,0.234000000000151
24,28,1727,0.240999999999985
24,29,1714,0.238000000000056
24,30,1745,0.243999999999915
25,1,1734,0.230999999999995
25,2,1733,0.241999999999962
25,3,1737,0.238000000000056
25,4,1744,0.244999999999891
25,5,1741,0.231000000000222
25,6,1736,0.240999999999985
25,7,1716,0.255999999999858
25,8,1739,0.240000000000009
25,9,1729,0.240999999999985
25,10,1720,0.23700000000008
25,11,1727,0.244999999999891
25,12,1732,0.246000000000095
25,13,1733,0.232999999999947
25,14,1738,0.240999999999985
25,15,1739,0.238000000000056
25,16,1716,0.243999999999915
25,17,1743,0.245000000000118
25,18,1716,0.232999999999947
25,19,1735,0.240999999999985
25,20,1738,0.23700000000008
25,21,1739,0.244999999999891
25,22,1728,0.230000000000018
25,23,1745,0.243000000000166
25,24,1731,0.239000000000033
25,25,1740,0.245999999999867
25,26,1712,0.230999999999995
25,27,1729,0.242999999999938
25,28,1739,0.257000000000062
25,29,1720,0.242999999999938
25,30,1748,0.242000000000189
26,1,1736,0.236999999999853
26,2,1746,0.249000000000024
26,3,1734,0.247000000000071
26,4,1738,0.232999999999947
26,5,1740,0.241999999999962
26,6,1736,0.23700000000008
26,7,1733,0.244999999999891
26,8,1726,0.245000000000118
26,9,1728,0.232999999999947
26,10,1739,0.243000000000166
26,11,1740,0.237999999999829
26,12,1732,0.245000000000118
26,13,1735,0.240000000000009
26,14,1737,0.242999999999938
26,15,1734,0.23700000000008
26,16,1731,0.244999999999891
26,17,1738,0.230000000000018
26,18,1734,0.241999999999962
26,19,1735,0.256000000000085
26,20,1737,0.240000000000009
26,21,1746,0.251999999999953
26,22,1740,0.238000000000056
26,23,1748,0.246000000000095
26,24,1723,0.244999999999891
26,25,1701,0.232999999999947
26,26,1734,0.25
26,27,1741,0.240000000000009
26,28,1733,0.245000000000118
26,29,1728,0.244999999999891
26,30,1744,0.233000000000175
27,1,1742,0.241999999999962
27,2,1745,0.235999999999876
27,3,1740,0.244000000000142
27,4,1725,0.229000000000042
27,5,1746,0.241999999999962
27,6,1735,0.236999999999853
27,7,1730,0.245000000000118
27,8,1742,0.230000000000018
27,9,1727,0.241999999999962
27,10,1727,0.256000000000085
27,11,1718,0.240999999999985
27,12,1732,0.243999999999915
27,13,1722,0.238000000000056
27,14,1733,0.245000000000118
27,15,1737,0.246999999999844
27,16,1724,0.234000000000151
27,17,1743,0.241999999999962
27,18,1721,0.236999999999853
27,19,1741,0.245000000000118
27,20,1732,0.245000000000118
27,21,1747,0.233999999999924
27,22,1734,0.240999999999985
27,23,1744,0.246000000000095
27,24,1722,0.248999999999796
27,25,1739,0.230999999999995
27,26,1725,0.244999999999891
27,27,1737,0.238000000000056
27,28,1743,0.243999999999915
27,29,1719,0.230999999999995
27,30,1749,0.241999999999962
28,1,1742,0.255000000000109
28,2,1744,0.240000000000009
28,3,1740,0.240000000000009
28,4,1742,0.23700000000008
28,5,1739,0.243999999999915
28,6,1732,0.244999999999891
28,7,1739,0.235000000000127
28,8,1744,0.247000000000071
28,9,1730,0.240000000000009
28,10,1740,0.243999999999915
28,11,1735,0.244999999999891
28,12,1734,0.235000000000127
28,13,1731,0.240999999999985
28,14,1741,0.23700000000008
28,15,1730,0.243999999999915
28,16,1733,0.230999999999995
28,17,1740,0.240999999999985
28,18,1721,0.23700000000008
28,19,1748,0.246999999999844
28,20,1736,0.232000000000198
28,21,1740,0.241999999999962
28,22,1736,0.255999999999858
28,23,1749,0.240000000000009
28,24,1725,0.242000000000189
28,25,1742,0.237999999999829
28,26,1729,0.245000000000118
28,27,1735,0.244999999999891
28,28,1730,0.232999999999947
28,29,1724,0.241000000000213
28,30,1741,0.236999999999853
29,1,1741,0.244000000000142
29,2,1742,0.244999999999891
29,3,1745,0.233999999999924
29,4,1733,0.240999999999985
29,5,1740,0.235999999999876
29,6,1736,0.244000000000142
29,7,1729,0.230999999999995
29,8,1741,0.240000000000009
29,9,1731,0.236999999999853
29,10,1731,0.253000000000156
29,11,1724,0.240000000000009
29,12,1722,0.241999999999962
29,13,1738,0.254999999999882
29,14,1728,0.240000000000009
29,15,1739,0.240999999999985
29,16,1732,0.23700000000008
29,17,1737,0.243999999999915
29,18,1723,0.244999999999891
29,19,1729,0.233999999999924
29,20,1733,0.243000000000166
29,21,1745,0.236999999999853
29,22,1719,0.244000000000142
29,23,1744,0.244999999999891
29,24,1726,0.233999999999924
29,25,1742,0.241000000000213
29,26,1704,0.235999999999876
29,27,1729,0.244000000000142
29,28,1737,0.228999999999814
29,29,1723,0.247000000000071
29,30,1743,0.238000000000056
30,1,1749,0.244999999999891
30,2,1732,0.232000000000198
30,3,1749,0.243999999999915
30,4,1738,0.256000000000085
30,5,1739,0.240999999999985
30,6,1745,0.241999999999962
30,7,1741,0.236999999999853
30,8,1749,0.245000000000118
30,9,1738,0.244999999999891
30,10,1736,0.235000000000127
30,11,1727,0.240999999999985
30,12,1743,0.23700000000008
30,13,1729,0.243999999999915
30,14,1735,0.248000000000047
30,15,1738,0.233999999999924
30,16,1738,0.240999999999985
30,17,1729,0.23700000000008
30,18,1736,0.244999999999891
30,19,1742,0.230999999999995
30,20,1730,0.242000000000189
30,21,1741,0.236999999999853
30,22,1732,0.245000000000118
30,23,1744,0.232999999999947
30,24,1727,0.242999999999938
30,25,1744,0.255000000000109
30,26,1737,0.239000000000033
30,27,1739,0.240999999999985
30,28,1734,0.238000000000056
30,29,1730,0.244999999999891
30,30,1737,0.247000000000071
