"Before.Trace.ID1","Before.Trace.ID2","Difference","Runtime"
1,2,55069.0198631179,0.36099999999999
1,3,83475.5691532728,0.389999999999986
1,4,52897.1525700417,0.283000000000015
1,5,80190.8917020565,0.377999999999986
1,6,72260.8530379277,0.288000000000011
1,7,60004.1181720918,0.314000000000021
1,8,67745.835138781,0.315999999999974
1,9,55590.6249235488,0.312000000000012
1,10,67091.92072754,0.316000000000031
1,11,53651.5266079469,0.30499999999995
1,12,58370.6761910151,0.314999999999998
1,13,55331.3851837882,0.310000000000002
1,14,55046.6944506804,0.305000000000007
1,15,54975.8514216043,0.326000000000022
1,16,54729.9700612963,0.317000000000007
1,17,54323.0259957604,0.322000000000003
1,18,68519.7962911183,0.322999999999979
1,19,56118.8875890007,0.317999999999984
1,20,87023.3233783126,0.322000000000003
1,21,53160.9721552338,0.321000000000026
1,22,81311.2492901645,0.264999999999986
1,23,55969.6387985993,0.262999999999977
1,24,65889.6260355088,0.324000000000012
1,25,58673.4930192343,0.323000000000036
1,26,85206.5602682639,0.311999999999955
1,27,68223.5208176779,0.312999999999988
1,28,68989.8593716241,0.27600000000001
1,29,44671.8221330965,0.309000000000026
1,30,56908.8805871225,0.310999999999979
2,3,20732.1361675013,0.275000000000034
2,4,9154.21055568745,0.299999999999955
2,5,28050.2956448859,0.275000000000034
2,6,26667.6874669791,0.291999999999973
2,7,21618.2414584621,0.288000000000011
2,8,17746.6086726096,0.281999999999982
2,9,10340.1271713329,0.281999999999982
2,10,23345.5618759643,0.30400000000003
2,11,12564.7547850694,0.307999999999993
2,12,25814.7688512838,0.305999999999983
2,13,13010.368292386,0.311000000000035
2,14,20655.5468679778,0.295999999999992
2,15,10874.2820498107,0.298999999999978
2,16,18480.8519627084,0.307999999999993
2,17,10749.1773452687,0.310000000000002
2,18,26464.7602181233,0.311000000000035
2,19,15819.784685837,0.313999999999965
2,20,29020.6033654577,0.314000000000021
2,21,9711.91668633841,0.302000000000021
2,22,47719.8571561161,0.298999999999978
2,23,15951.3032755999,0.300000000000011
2,24,12267.076941587,0.309000000000026
2,25,11361.0572462359,0.310000000000002
2,26,36205.215120287,0.315999999999974
2,27,17422.2896561601,0.286000000000001
2,28,21229.7635504304,0.305000000000007
2,29,25890.7537127958,0.303999999999974
2,30,21616.2392989634,0.295000000000016
3,4,25444.9497920715,0.290999999999997
3,5,24763.2360149811,0.307000000000016
3,6,27949.4018802156,0.317000000000007
3,7,25133.9785638641,0.295000000000016
3,8,26731.9704222448,0.293999999999983
3,9,26278.0213323111,0.30400000000003
3,10,32889.8621047816,0.313999999999965
3,11,33771.9508239283,0.26600000000002
3,12,42754.8011585127,0.326000000000022
3,13,27332.0547464399,0.311999999999955
3,14,27993.4783029755,0.321000000000026
3,15,24566.7833204755,0.319000000000017
3,16,30428.8260221409,0.258999999999958
3,17,30975.4122341141,0.248000000000047
3,18,23525.5997056648,0.326999999999998
3,19,30802.4325663092,0.303999999999974
3,20,26165.2364040889,0.30600000000004
3,21,28745.9891212124,0.247000000000014
3,22,43708.7828353123,0.299999999999955
3,23,29959.6460581218,0.298000000000002
3,24,20170.101832161,0.30699999999996
3,25,27918.6289409332,0.322000000000003
3,26,51590.1654228218,0.29000000000002
3,27,34342.3334989271,0.298000000000002
3,28,34435.3139963499,0.290999999999997
3,29,49303.0064901151,0.293000000000006
3,30,27923.1613377744,0.300000000000011
4,5,28993.1249714926,0.312000000000012
4,6,27460.8227603708,0.311999999999955
4,7,12217.7123229166,0.311000000000035
4,8,26266.6241478241,0.307999999999993
4,9,7551.60386907471,0.281999999999982
4,10,17658.9797491655,0.310999999999979
4,11,8079.41460359099,0.312000000000012
4,12,26639.4696835685,0.25
4,13,8251.79874832355,0.249000000000024
4,14,20830.4701962319,0.326999999999998
4,15,12052.2901247904,0.338999999999999
4,16,25815.4870917884,0.300999999999988
4,17,9180.23068555539,0.257000000000005
4,18,35551.6664726728,0.256000000000029
4,19,16406.4062798163,0.350000000000023
4,20,36983.2709503898,0.301999999999964
4,21,7367.59696885082,0.26400000000001
4,22,47306.4007135209,0.271999999999991
4,23,13671.0629356082,0.343000000000018
4,24,19220.0089423593,0.259000000000015
4,25,11976.081981242,0.258000000000038
4,26,39351.6809252601,0.24799999999999
4,27,18860.465022374,0.288000000000011
4,28,22353.5224977029,0.289999999999964
4,29,23187.6193311451,0.259000000000015
4,30,18033.7131092818,0.262
5,6,36190.1889874083,0.346000000000004
5,7,21807.0582459394,0.271999999999991
5,8,30676.9731380129,0.30400000000003
5,9,26142.4867168582,0.300000000000011
5,10,34518.8495031904,0.293000000000006
5,11,31883.0163029828,0.288999999999987
5,12,51682.3946819334,0.305999999999983
5,13,26672.8852422686,0.285000000000025
5,14,34926.6000152563,0.310999999999979
5,15,24269.3626904663,0.293000000000006
5,16,26314.0409999618,0.302000000000021
5,17,22050.2025442546,0.283000000000015
5,18,32310.5460348591,0.291999999999973
5,19,37005.4981303925,0.29000000000002
5,20,26936.3349639752,0.338999999999999
5,21,25018.8747619203,0.331000000000017
5,22,61290.7757221804,0.329000000000008
5,23,17573.0424054946,0.31699999999995
5,24,22934.6886314872,0.314000000000021
5,25,32527.7840623247,0.315999999999974
5,26,58154.052726618,0.300999999999988
5,27,36032.7233921629,0.319999999999993
5,28,12251.8223941605,0.312999999999988
5,29,46251.8341970654,0.254000000000019
5,30,45595.4161704043,0.24799999999999
6,7,26916.5922803301,0.334000000000003
6,8,32059.0957523951,0.302999999999997
6,9,25867.41249279,0.262
6,10,35785.3279234844,0.260999999999967
6,11,31017.0315771273,0.266999999999996
6,12,37188.3064952256,0.271999999999991
6,13,23766.6359335787,0.348000000000013
6,14,25342.6077328567,0.258999999999958
6,15,22718.1487440098,0.291000000000054
6,16,44031.2423998288,0.297999999999945
6,17,28637.8354062571,0.286000000000001
6,18,38395.6093558542,0.293000000000006
6,19,19510.4156892599,0.29400000000004
6,20,35361.6040478332,0.286999999999978
6,21,26948.7845848599,0.287000000000035
6,22,21295.9576772078,0.288000000000011
6,23,28023.8902508347,0.286999999999978
6,24,31252.4534815685,0.286999999999978
6,25,24493.9780128758,0.288000000000011
6,26,37193.044635935,0.286999999999978
6,27,32326.2912818738,0.288000000000011
6,28,37550.6952902518,0.288000000000011
6,29,36970.2753006326,0.288999999999987
6,30,19189.5730450548,0.286000000000001
7,8,32758.886061933,0.288999999999987
7,9,16015.4591369991,0.281999999999982
7,10,19309.1573298933,0.297000000000025
7,11,19045.1736065443,0.313999999999965
7,12,34736.2995930575,0.298000000000002
7,13,11706.1903727915,0.297000000000025
7,14,25311.9361748618,0.303999999999974
7,15,17374.0866636196,0.287000000000035
7,16,31449.7331549436,0.289999999999964
7,17,15609.987276562,0.300999999999988
7,18,38208.9684779764,0.307999999999993
7,19,19738.9639883349,0.286999999999978
7,20,40773.7305793308,0.290999999999997
7,21,14094.8506779825,0.283000000000015
7,22,42398.4373388798,0.297000000000025
7,23,16028.1189653603,0.298000000000002
7,24,28313.2973971862,0.317999999999984
7,25,18647.7275146813,0.312999999999988
7,26,35193.1581763908,0.317000000000007
7,27,26605.7935605063,0.259999999999991
7,28,25465.1529948097,0.307000000000016
7,29,24190.2717480595,0.314000000000021
7,30,20408.6991060527,0.302999999999997
8,9,21089.221903905,0.248999999999967
8,10,30236.0157336135,0.268000000000029
8,11,27759.3081008096,0.254999999999995
8,12,29230.2178646644,0.25200000000001
8,13,21876.5554604336,0.243999999999971
8,14,29695.4377787073,0.288999999999987
8,15,19855.1400507092,0.310000000000002
8,16,21623.9915740714,0.300000000000011
8,17,23609.0033189389,0.259999999999991
8,18,24410.1884850908,0.254999999999995
8,19,15843.2177339066,0.254000000000019
8,20,20713.3142298953,0.259000000000015
8,21,21452.1858858844,0.250999999999976
8,22,59437.2085893156,0.322999999999979
8,23,28431.4791307587,0.246000000000038
8,24,7899.20109857439,0.251999999999953
8,25,19698.1685485977,0.251000000000033
8,26,46774.6096589099,0.300999999999988
8,27,18456.5279401531,0.315999999999974
8,28,25632.1415241402,0.315000000000055
8,29,33891.7008478912,0.310999999999979
8,30,33569.1788161924,0.310999999999979
9,10,15466.9225289572,0.30699999999996
9,11,8369.99799459573,0.30400000000003
9,12,21053.0341783842,0.312000000000012
9,13,9990.23778089167,0.30699999999996
9,14,16676.2902232537,0.305000000000007
9,15,14858.6152541264,0.311000000000035
9,16,25455.4095344441,0.311999999999955
9,17,7887.92917656256,0.295000000000016
9,18,34910.4421117549,0.317999999999984
9,19,11121.1699614792,0.290999999999997
9,20,32261.0059404381,0.243999999999971
9,21,6971.01459147654,0.246000000000038
9,22,46714.5579089683,0.286000000000001
9,23,16102.1355943573,0.317000000000007
9,24,17248.7498515381,0.295999999999992
9,25,8996.8956585228,0.257000000000005
9,26,38647.8224471722,0.262999999999977
9,27,12155.2313022249,0.34699999999998
9,28,18457.1301809383,0.253000000000043
9,29,20278.6574189281,0.291999999999973
9,30,17641.6380297245,0.305999999999983
10,11,16638.6416024966,0.267999999999972
10,12,17648.9995608286,0.301999999999964
10,13,19126.3992306246,0.319999999999993
10,14,19792.8995312513,0.312999999999988
10,15,27160.0544548177,0.313999999999965
10,16,37094.730497852,0.26400000000001
10,17,19343.1488825724,0.303999999999974
10,18,45952.6012182903,0.322000000000003
10,19,15786.4151801484,0.293000000000006
10,20,34989.4486937961,0.248999999999967
10,21,16486.3738335662,0.242000000000019
10,22,55825.4223775588,0.314999999999998
10,23,29667.9341325651,0.303999999999974
10,24,28877.7992517829,0.296999999999969
10,25,17080.6904684388,0.275000000000034
10,26,42215.5422104902,0.260999999999967
10,27,17349.046847255,0.308999999999969
10,28,32245.8798176395,0.302999999999997
10,29,20023.5234316093,0.331000000000017
10,30,26317.0642211724,0.248999999999967
11,12,23852.966532823,0.257000000000005
11,13,11340.9297887781,0.238
11,14,25146.2235544178,0.258000000000038
11,15,17570.4114759331,0.242999999999995
11,16,29498.1333675919,0.254999999999995
11,17,9834.89931262013,0.297000000000025
11,18,41862.646987907,0.293000000000006
11,19,16143.8899282179,0.293000000000006
11,20,37087.7247987361,0.311999999999955
11,21,7693.84175144954,0.294999999999959
11,22,53520.7657556175,0.301000000000045
11,23,20428.3139744258,0.289999999999964
11,24,22695.5233521814,0.293000000000006
11,25,12466.2462805422,0.314999999999998
11,26,38787.1623377737,0.312999999999988
11,27,14991.1357191971,0.305000000000007
11,28,24429.1735883759,0.302999999999997
11,29,22139.0601997177,0.286999999999978
11,30,22547.9498984375,0.286999999999978
12,13,27883.2103979993,0.307000000000016
12,14,25324.094205974,0.311999999999955
12,15,30347.7768596455,0.312000000000012
12,16,39672.7828504544,0.317000000000007
12,17,29535.569756307,0.305000000000007
12,18,49531.5161366578,0.300999999999988
12,19,16606.0875109266,0.29400000000004
12,20,37705.6274808065,0.324999999999989
12,21,23173.4400617864,0.325999999999965
12,22,58843.1974755543,0.307000000000016
12,23,40173.0113377809,0.30400000000003
12,24,33657.6622032131,0.317999999999984
12,25,16012.0698201379,0.248999999999967
12,26,44914.8018753835,0.259000000000015
12,27,15880.374061375,0.309000000000026
12,28,43498.0797657549,0.30400000000003
12,29,22508.6667304851,0.31899999999996
12,30,25962.8066747198,0.290999999999997
13,14,23371.0429272908,0.243999999999971
13,15,10477.8501594348,0.293000000000006
13,16,23631.8460080877,0.266999999999996
13,17,10591.790869847,0.297000000000025
13,18,33201.3550974527,0.298999999999978
13,19,11448.3595309557,0.300000000000011
13,20,37639.0465961931,0.305000000000007
13,21,8185.88303502455,0.284999999999968
13,22,40098.267619944,0.290999999999997
13,23,16288.4633759849,0.312999999999988
13,24,16627.4505878507,0.307000000000016
13,25,11035.7844509581,0.302999999999997
13,26,32010.9876890311,0.314000000000021
13,27,16968.7010047163,0.305999999999983
13,28,22799.4695191025,0.305999999999983
13,29,21277.107201797,0.310000000000002
13,30,17410.9201511254,0.310000000000002
14,15,26390.1692203837,0.250999999999976
14,16,32525.6483816543,0.263000000000034
14,17,23428.3865531047,0.31699999999995
14,18,35397.8105248405,0.271000000000015
14,19,17279.3807482502,0.254999999999995
14,20,29323.48172859,0.253000000000043
14,21,20040.0378874641,0.250999999999976
14,22,36183.7072731286,0.240999999999985
14,23,31084.9147177316,0.25
14,24,28750.0716720565,0.271000000000015
14,25,19982.3220499549,0.255999999999972
14,26,43856.2918025758,0.25200000000001
14,27,22115.071824229,0.222000000000037
14,28,33520.9872790562,0.259999999999991
14,29,24588.9289321014,0.246000000000038
14,30,14827.8730900364,0.242999999999995
15,16,21587.4282191543,0.253999999999962
15,17,11034.2829761349,0.287000000000035
15,18,25699.5706992847,0.252999999999986
15,19,15699.626990784,0.346000000000004
15,20,28546.133685905,0.250999999999976
15,21,12343.8404714,0.284999999999968
15,22,41386.3727622605,0.254000000000019
15,23,9663.3766627541,0.288000000000011
15,24,15353.8354540131,0.245000000000005
15,25,13495.5938861206,0.354999999999961
15,26,34464.2591279287,0.261000000000024
15,27,22496.9298439994,0.293999999999983
15,28,18979.6809826372,0.283000000000015
15,29,24515.0963610291,0.288999999999987
15,30,21070.5812879977,0.285000000000025
16,17,24031.5371042879,0.294999999999959
16,18,24880.2849721956,0.321000000000026
16,19,31697.927584888,0.314999999999998
16,20,30741.5966561027,0.310999999999979
16,21,23092.5834128695,0.309000000000026
16,22,63469.0556702085,0.319999999999993
16,23,25431.2516819226,0.326000000000022
16,24,17761.1831300333,0.312999999999988
16,25,29497.4255050122,0.317000000000007
16,26,53116.3328765443,0.307999999999993
16,27,33152.9765668349,0.308999999999969
16,28,26254.824937386,0.307999999999993
16,29,31441.6296511208,0.258000000000038
16,30,37988.4404153185,0.24799999999999
17,18,33112.5858418414,0.327999999999975
17,19,15014.9958158984,0.297000000000025
17,20,38514.7161750903,0.305999999999983
17,21,5425.61347862665,0.215000000000032
17,22,48612.798103958,0.252999999999986
17,23,13075.8968977636,0.264999999999986
17,24,17176.1997544832,0.313999999999965
17,25,9931.39839600132,0.24799999999999
17,26,35113.2496254448,0.30400000000003
17,27,17072.0111452487,0.281000000000006
17,28,14495.0117997626,0.293999999999983
17,29,20857.6610917196,0.295000000000016
17,30,21742.4700204093,0.281999999999982
18,19,37591.5530538637,0.295000000000016
18,20,26758.295755376,0.302999999999997
18,21,35702.7803007918,0.308999999999969
18,22,53190.1329875219,0.312000000000012
18,23,30499.2465954221,0.307999999999993
18,24,20849.0187215448,0.311999999999955
18,25,40406.0794833694,0.303000000000054
18,26,59971.2221920203,0.299999999999955
18,27,45246.8500631709,0.300000000000011
18,28,34475.5815486272,0.343999999999994
18,29,45687.3290615757,0.336999999999989
18,30,39242.6091218826,0.331999999999994
19,20,29502.6530247617,0.334000000000003
19,21,13691.7622487677,0.29000000000002
19,22,37850.9089452789,0.299999999999955
19,23,24794.5109276617,0.302999999999997
19,24,19043.4341305142,0.334000000000003
19,25,9819.91428369106,0.328000000000031
19,26,30325.1862126876,0.329000000000008
19,27,12901.5001814505,0.327000000000055
19,28,28840.3481711568,0.326999999999998
19,29,18587.5945550798,0.322999999999979
19,30,14625.6575270034,0.326000000000022
20,21,36253.148776801,0.33099999999996
20,22,59490.6633962171,0.33499999999998
20,23,30063.5523764967,0.298999999999978
20,24,25844.9003903063,0.286000000000001
20,25,30989.6302141665,0.294999999999959
20,26,54293.7094028027,0.315000000000055
20,27,35524.9477563344,0.294999999999959
20,28,29370.3323496528,0.302000000000021
20,29,51261.8480899353,0.260999999999967
20,30,35199.9384776204,0.247000000000014
21,22,49255.7465788589,0.314000000000021
21,23,14314.902709018,0.295000000000016
21,24,16415.1816980676,0.310000000000002
21,25,11740.7828168696,0.255999999999972
21,26,34907.6830996559,0.281999999999982
21,27,13643.640167193,0.285000000000025
21,28,17039.1847483473,0.267999999999972
21,29,18355.4433104563,0.298999999999978
21,30,18201.8073160071,0.316000000000031
22,23,50385.2635943217,0.298999999999978
22,24,56037.9288808979,0.321000000000026
22,25,41821.7244573571,0.310999999999979
22,26,46743.839589681,0.263000000000034
22,27,56722.8383078358,0.313999999999965
22,28,65858.1623205937,0.326000000000022
22,29,52144.4733370232,0.312999999999988
22,30,27603.2227786754,0.253999999999962
23,24,21178.7631383342,0.254999999999995
23,25,18898.0412239287,0.297000000000025
23,26,46206.4546525979,0.302999999999997
23,27,29225.3957350517,0.261000000000024
23,28,15457.4451041655,0.295999999999992
23,29,28995.4751372432,0.355999999999995
23,30,29136.9621402452,0.281999999999982
24,25,17923.7389233786,0.290999999999997
24,26,46694.3866622421,0.312000000000012
24,27,20127.4319033001,0.289999999999964
24,28,19149.9661683201,0.302000000000021
24,29,36167.8128320632,0.296000000000049
24,30,32677.5766604521,0.303999999999974
25,26,34697.3619490046,0.295999999999992
25,27,13618.0293840128,0.281000000000006
25,28,22949.9664700544,0.286999999999978
25,29,21690.3809804626,0.312000000000012
25,30,18249.8674553275,0.312000000000012
26,27,43759.473779743,0.307000000000016
26,28,56599.4481843826,0.310999999999979
26,29,36921.5326679172,0.298999999999978
26,30,34009.101618345,0.25200000000001
27,28,27381.9804304798,0.245000000000005
27,29,25260.4949908096,0.27600000000001
27,30,25895.5234421997,0.313999999999965
28,29,36785.1178388635,0.30400000000003
28,30,43179.8541999821,0.274999999999977
29,30,24905.6446850431,0.244000000000028


"After.Trace.ID","Before.Trace.ID","Difference","Runtime"
1,1,68876.0761745292,0.298000000000002
1,2,43330.0185229331,0.370000000000005
1,3,51954.6686560844,0.281000000000006
1,4,44522.6592219405,0.302999999999997
1,5,37431.6164369632,0.312000000000012
1,6,66051.3415313767,0.312999999999988
1,7,36623.2452698308,0.307999999999993
1,8,58744.0190676263,0.317999999999984
1,9,47330.407480546,0.302000000000021
1,10,67635.2778528653,0.316000000000031
1,11,48396.4052181861,0.315999999999974
1,12,84464.8792017372,0.314999999999998
1,13,46046.1769139168,0.312999999999988
1,14,57835.59709266,0.302999999999997
1,15,40259.4985635426,0.29400000000004
1,16,36581.9821623893,0.293000000000006
1,17,41876.5024666521,0.291999999999973
1,18,50281.7350959442,0.30800000000005
1,19,62608.3226137315,0.313999999999965
1,20,58695.8057434565,0.302999999999997
1,21,45476.5868664567,0.24799999999999
1,22,71268.3129135669,0.262
1,23,32097.5069412774,0.302000000000021
1,24,49688.6242542744,0.334000000000003
1,25,53930.2654191189,0.313999999999965
1,26,75414.7411961253,0.288000000000011
1,27,63909.3976735827,0.256000000000029
1,28,39822.9416057715,0.257000000000005
1,29,56725.1323213011,0.274999999999977
1,30,64482.807874334,0.312999999999988
2,1,51110.0906977644,0.310000000000002
2,2,39298.5321915944,0.30699999999996
2,3,52773.3930691322,0.309000000000026
2,4,40004.2481822406,0.307999999999993
2,5,35545.0108874784,0.307999999999993
2,6,59840.9988500918,0.312000000000012
2,7,36996.8849890787,0.305999999999983
2,8,49472.4802430845,0.38900000000001
2,9,39310.2097055879,0.24799999999999
2,10,53881.2598372654,0.268000000000029
2,11,44133.0609997756,0.24799999999999
2,12,57209.6629740142,0.25200000000001
2,13,36566.1386827715,0.245999999999981
2,14,46198.9126819366,0.262999999999977
2,15,29479.2870552754,0.316000000000031
2,16,27401.3384629264,0.317999999999984
2,17,32779.4353153623,0.312000000000012
2,18,41479.994067621,0.322000000000003
2,19,47221.1208965531,0.326999999999998
2,20,53852.9308569449,0.329999999999984
2,21,34133.9136904892,0.331000000000017
2,22,69822.0783885373,0.327999999999975
2,23,26924.8232385923,0.321000000000026
2,24,43211.6243829685,0.319999999999993
2,25,44372.121231652,0.312999999999988
2,26,65950.2489505835,0.314000000000021
2,27,51519.6487954624,0.30400000000003
2,28,33402.2100005475,0.30699999999996
2,29,35334.4989180357,0.307000000000016
2,30,55027.3128391442,0.299999999999955
3,1,71137.7152359005,0.31800000000004
3,2,40743.9128056504,0.266999999999996
3,3,48034.7959919998,0.260999999999967
3,4,44260.2169248296,0.338000000000022
3,5,27218.7940685086,0.302999999999997
3,6,66151.5913936392,0.269000000000005
3,7,38678.9868706026,0.248999999999967
3,8,50026.3351168789,0.284000000000049
3,9,43899.3148835392,0.257000000000005
3,10,58855.8727034631,0.269000000000005
3,11,44658.7500693778,0.310000000000002
3,12,77656.0354497482,0.27600000000001
3,13,46488.6015437584,0.324000000000012
3,14,55059.6937990992,0.277999999999963
3,15,40083.5486809621,0.310000000000002
3,16,33255.007129957,0.302999999999997
3,17,38117.6916667514,0.30800000000005
3,18,45193.4569610691,0.30699999999996
3,19,59501.9400783722,0.343000000000018
3,20,53755.685867872,0.325000000000045
3,21,42192.4143906493,0.31699999999995
3,22,79724.1492103182,0.319000000000017
3,23,26948.721611365,0.312999999999988
3,24,43506.7416615738,0.317999999999984
3,25,51602.0958456759,0.316000000000031
3,26,77337.1463767812,0.326999999999998
3,27,57916.6179987057,0.329999999999984
3,28,30972.8087398985,0.297000000000025
3,29,55540.7724150339,0.271000000000015
3,30,64254.9475746354,0.302000000000021
4,1,50884.6655186098,0.276999999999987
4,2,41616.2576256191,0.283000000000015
4,3,53859.3430859537,0.323999999999955
4,4,46592.279028855,0.261000000000024
4,5,39349.7625890948,0.307000000000016
4,6,59047.3868301908,0.276999999999987
4,7,44091.6202542563,0.302000000000021
4,8,47999.8581676469,0.282999999999959
4,9,47998.3270103567,0.319000000000017
4,10,66780.7240448916,0.312000000000012
4,11,50983.8441143563,0.310000000000002
4,12,68571.3077712899,0.298000000000002
4,13,44087.1657443514,0.295000000000016
4,14,51491.0890879441,0.305000000000007
4,15,32166.0209324905,0.294999999999959
4,16,33701.0452972751,0.311000000000035
4,17,42355.0250100462,0.308999999999969
4,18,34748.6626009687,0.311000000000035
4,19,51791.6667585385,0.310000000000002
4,20,51724.4441093024,0.310000000000002
4,21,43529.8968964151,0.296999999999969
4,22,65504.9247799671,0.347000000000037
4,23,29257.8006586578,0.33099999999996
4,24,43341.4158454955,0.338000000000022
4,25,52285.3899403968,0.337999999999965
4,26,71969.1618804777,0.341000000000008
4,27,59559.8680831982,0.343000000000018
4,28,36822.3640335991,0.334000000000003
4,29,51921.6429936368,0.380999999999972
4,30,58330.1763987143,0.275000000000034
5,1,61413.8269818073,0.286000000000001
5,2,68950.0060360544,0.252999999999986
5,3,86837.976683037,0.296000000000049
5,4,78157.2794445252,0.254999999999995
5,5,82131.0552653662,0.29200000000003
5,6,80137.3373543707,0.31899999999996
5,7,76666.9026250555,0.307000000000016
5,8,69859.8040800849,0.307000000000016
5,9,68214.2181881024,0.293000000000006
5,10,73018.1549405318,0.295999999999992
5,11,79505.4988725527,0.30699999999996
5,12,54545.5416507557,0.298000000000002
5,13,77528.1364782761,0.308999999999969
5,14,50429.9291474051,0.310000000000002
5,15,63312.5936983518,0.312000000000012
5,16,46257.5172330251,0.297000000000025
5,17,71632.9078196026,0.343999999999994
5,18,65860.3465095133,0.337999999999965
5,19,66900.0993802577,0.33499999999998
5,20,65613.923064407,0.336999999999989
5,21,67009.8760481612,0.336000000000013
5,22,94790.4069379806,0.338000000000022
5,23,66410.9852647759,0.342999999999961
5,24,75191.3953289465,0.336000000000013
5,25,66243.0632938371,0.335999999999956
5,26,87879.6877800264,0.338999999999999
5,27,70889.3238322583,0.346000000000004
5,28,73602.6071957985,0.335000000000036
5,29,46715.7078257113,0.335999999999956
5,30,73139.7766129956,0.338999999999999
6,1,79424.9662251571,0.344000000000051
6,2,31399.749160712,0.253999999999962
6,3,31464.1383705469,0.343000000000018
6,4,39248.1030625953,0.336999999999989
6,5,20352.9792103899,0.329999999999984
6,6,52342.3970488511,0.344000000000051
6,7,40821.2195612478,0.337999999999965
6,8,40112.0598049598,0.329000000000008
6,9,40166.3061621007,0.333000000000027
6,10,49374.4087540341,0.33499999999998
6,11,43581.6828294014,0.327999999999975
6,12,64121.1991760507,0.314999999999998
6,13,44647.066144168,0.338000000000022
6,14,45477.7576330021,0.331000000000017
6,15,35178.8006051682,0.334000000000003
6,16,30030.8834200386,0.331000000000017
6,17,41574.9628519799,0.341999999999985
6,18,29724.0146511486,0.329999999999984
6,19,51207.8199193969,0.340000000000032
6,20,32600.1460185116,0.33099999999996
6,21,41764.1038512554,0.341000000000008
6,22,75881.829264494,0.336999999999989
6,23,23252.3459346042,0.331999999999994
6,24,34703.9022893594,0.331000000000017
6,25,45546.3387875984,0.333000000000084
6,26,81695.0579401946,0.338999999999942
6,27,49359.4262088638,0.336999999999989
6,28,27714.7252693167,0.33400000000006
6,29,60198.8203239678,0.339999999999918
6,30,56623.6001033693,0.34800000000007
7,1,55525.9850072489,0.347999999999956
7,2,33493.0981707617,0.394000000000005
7,3,41236.8048268883,0.252000000000066
7,4,36992.4935511089,0.274999999999977
7,5,24328.1948912373,0.255999999999972
7,6,57017.0205759296,0.278999999999996
7,7,29041.4306092336,0.246999999999957
7,8,42090.159620716,0.266000000000076
7,9,39373.2805108055,0.314999999999941
7,10,47340.4341730214,0.307000000000016
7,11,39871.6948514672,0.302999999999997
7,12,61136.7451791886,0.295000000000073
7,13,35999.4751231148,0.288999999999987
7,14,43527.8714814477,0.305999999999926
7,15,30685.526485864,0.295000000000073
7,16,24102.6243018496,0.303999999999974
7,17,32227.2567876335,0.307999999999993
7,18,36922.0716284174,0.315000000000055
7,19,47451.0360636938,0.299999999999955
7,20,44149.3205720556,0.34699999999998
7,21,33595.669540343,0.335000000000036
7,22,67209.1124748969,0.336000000000013
7,23,23731.6232658533,0.330000000000041
7,24,35159.4357250678,0.336000000000013
7,25,42509.598568432,0.336999999999989
7,26,65353.9355506737,0.341000000000008
7,27,49758.3160115373,0.334999999999923
7,28,27776.7289082331,0.329000000000065
7,29,40662.1422116347,0.336000000000013
7,30,54628.369278019,0.340000000000032
8,1,75407.843436695,0.341000000000008
8,2,32305.7903731307,0.347999999999956
8,3,27640.2627024331,0.336999999999989
8,4,36869.2181804272,0.331000000000017
8,5,18688.965679105,0.261999999999944
8,6,51006.2408903257,0.330000000000041
8,7,27776.7449678748,0.305000000000064
8,8,37336.2906319522,0.297999999999888
8,9,38088.619360205,0.344000000000051
8,10,45671.8609106999,0.335000000000036
8,11,42335.9467287701,0.329999999999927
8,12,62282.0550751808,0.319000000000074
8,13,42482.7007747992,0.338999999999942
8,14,36024.9787010528,0.33299999999997
8,15,35525.313564614,0.338000000000079
8,16,29562.9434696838,0.331000000000017
8,17,38466.3355602813,0.336999999999989
8,18,28174.520866679,0.327999999999975
8,19,46841.7139092442,0.336999999999989
8,20,29993.5350690094,0.322999999999979
8,21,40613.5972968715,0.313000000000102
8,22,64183.7594353833,0.337999999999965
8,23,26617.4214675927,0.322000000000003
8,24,31912.2181510272,0.313999999999965
8,25,43845.5773582179,0.336000000000013
8,26,62955.1630638754,0.336999999999989
8,27,50833.787095569,0.327999999999975
8,28,30499.5650564508,0.331000000000017
8,29,53462.5510242948,0.330000000000041
8,30,48728.8097146946,0.336000000000013
9,1,60642.1725586722,0.331999999999994
9,2,26588.8371477972,0.331000000000017
9,3,34405.820868973,0.328999999999951
9,4,28432.6030979244,0.322999999999979
9,5,15924.8542590758,0.329000000000065
9,6,45237.2819453173,0.329999999999927
9,7,21890.8983740426,0.269999999999982
9,8,36455.7687798684,0.294000000000096
9,9,29346.3123422006,0.308999999999969
9,10,39348.079412779,0.259000000000015
9,11,32567.9918252049,0.360000000000014
9,12,52781.0499525575,0.275999999999954
9,13,29276.4512045431,0.251999999999953
9,14,34115.994171174,0.263000000000034
9,15,25094.1534521875,0.277000000000044
9,16,20894.0094946386,0.270999999999958
9,17,23366.655591252,0.255999999999972
9,18,32842.4715150749,0.294000000000096
9,19,40269.995498919,0.338999999999942
9,20,36787.8745537335,0.339000000000055
9,21,25591.6770985282,0.333999999999946
9,22,64189.5227878097,0.335000000000036
9,23,16802.9799932073,0.330000000000041
9,24,30738.3061117921,0.328999999999951
9,25,36253.2772739003,0.33400000000006
9,26,62687.7876874083,0.330999999999904
9,27,42329.9243114476,0.33400000000006
9,28,18495.3540942705,0.370999999999981
9,29,34746.9963181262,0.270999999999958
9,30,44804.8996373627,0.282000000000039
10,1,66887.6302529883,0.254999999999995
10,2,28547.5441390606,0.246999999999957
10,3,25040.3322794032,0.253000000000043
10,4,25450.5949915876,0.254000000000019
10,5,17546.1845345016,0.29200000000003
10,6,21237.856960234,0.29099999999994
10,7,15732.736204669,0.293999999999983
10,8,41276.0977004374,0.302000000000021
10,9,23797.5838812265,0.293000000000006
10,10,27868.8653466458,0.289999999999964
10,11,30131.002881318,0.29200000000003
10,12,44533.8547896871,0.293999999999983
10,13,25916.6674106256,0.336999999999989
10,14,22553.7105652378,0.315000000000055
10,15,25963.2791639588,0.311000000000035
10,16,35940.3125141078,0.260999999999967
10,17,24315.38873206,0.245999999999981
10,18,33013.1290563599,0.260999999999967
10,19,31457.033191772,0.307999999999993
10,20,33108.9559398744,0.314000000000078
10,21,25176.5328284351,0.308999999999969
10,22,37072.9066325761,0.260999999999967
10,23,21597.3661115695,0.254999999999995
10,24,37007.6893690235,0.301000000000045
10,25,30863.7975691272,0.309999999999945
10,26,50241.4721998184,0.269000000000005
10,27,38539.8689487411,0.254999999999995
10,28,25616.1817835824,0.246000000000095
10,29,36958.3486511576,0.250999999999976
10,30,28454.826896835,0.249000000000024
11,1,67545.9566410895,0.335999999999899
11,2,30232.2788944191,0.274000000000001
11,3,36654.5096108903,0.307999999999993
11,4,33109.6696348067,0.287000000000035
11,5,15604.0258774726,0.298999999999978
11,6,53889.5974415926,0.302999999999997
11,7,34245.8006352918,0.298000000000002
11,8,35952.3305606487,0.307999999999993
11,9,33832.9068009747,0.30600000000004
11,10,40616.1615276909,0.339000000000055
11,11,33426.5196195876,0.26400000000001
11,12,54940.061711879,0.312000000000012
11,13,35741.8459775907,0.341000000000008
11,14,44575.455622305,0.320999999999913
11,15,28327.8796138627,0.316000000000031
11,16,24784.7668037041,0.254999999999995
11,17,28237.6064228332,0.254000000000019
11,18,31091.1432602116,0.248000000000047
11,19,46060.442968726,0.319999999999936
11,20,35819.8781334787,0.298999999999978
11,21,31674.9471249551,0.305000000000064
11,22,78792.4204585824,0.312999999999988
11,23,19934.7327639578,0.260999999999967
11,24,28525.559676776,0.298000000000002
11,25,40541.9978986533,0.330000000000041
11,26,73180.9363046716,0.307999999999993
11,27,42392.6771558713,0.251999999999953
11,28,16786.2302882994,0.242000000000075
11,29,46471.6614117272,0.298000000000002
11,30,53132.1166672695,0.296999999999912
12,1,59782.2440798378,0.26400000000001
12,2,29073.4017925699,0.301000000000045
12,3,37596.9843505779,0.252999999999929
12,4,28407.8411286604,0.246000000000095
12,5,17884.1813261129,0.300999999999931
12,6,47315.7562123155,0.302000000000021
12,7,19221.9100115338,0.286000000000058
12,8,40368.8918638139,0.255999999999972
12,9,29537.235757088,0.303999999999974
12,10,38108.7260538648,0.294999999999959
12,11,30744.7112229513,0.257000000000062
12,12,54132.7463807252,0.26400000000001
12,13,29751.8944575716,0.299999999999955
12,14,33063.5951741283,0.247000000000071
12,15,26945.683735606,0.307000000000016
12,16,25559.8382972218,0.254999999999995
12,17,23310.3095856474,0.30499999999995
12,18,35210.4088590162,0.271000000000072
12,19,39647.3719502912,0.299999999999955
12,20,40775.7300876012,0.303999999999974
12,21,26075.2979086891,0.270000000000095
12,22,61950.3708330772,0.212999999999965
12,23,17770.1928565776,0.244000000000028
12,24,35185.8238852163,0.347999999999956
12,25,36447.6270521876,0.250999999999976
12,26,58140.3090118507,0.291000000000054
12,27,41704.2122616795,0.295999999999935
12,28,20534.941018576,0.254999999999995
12,29,34235.5855995545,0.307999999999993
12,30,43747.2410336469,0.301000000000045
13,1,52332.022547445,0.32000000000005
13,2,27061.5693989858,0.302999999999997
13,3,39440.7525311531,0.346000000000004
13,4,25056.688595604,0.331999999999994
13,5,21064.9402347311,0.330000000000041
13,6,41054.5095974458,0.341999999999985
13,7,22874.6914519472,0.331000000000017
13,8,36950.2090384786,0.33299999999997
13,9,25943.6635300713,0.326999999999998
13,10,37245.6255482106,0.331999999999994
13,11,29921.576466206,0.328999999999951
13,12,50023.4393362281,0.342000000000098
13,13,22714.9612969503,0.33299999999997
13,14,36072.4266096728,0.326000000000022
13,15,19092.6244756109,0.308999999999969
13,16,23088.5050360368,0.331000000000017
13,17,18871.0818297609,0.319999999999936
13,18,32952.5726318547,0.343000000000075
13,19,33578.7409773836,0.266999999999939
13,20,38771.4492667343,0.263000000000034
13,21,20224.0857218956,0.349000000000046
13,22,56609.7039897443,0.260999999999967
13,23,18100.465986454,0.298999999999978
13,24,29181.0401559895,0.325000000000045
13,25,28063.9378559129,0.330000000000041
13,26,51323.661947203,0.333999999999946
13,27,37701.7141880429,0.325000000000045
13,28,19574.0465127943,0.326000000000022
13,29,30856.26412208,0.329999999999927
13,30,38686.7698002769,0.274000000000001
14,1,56986.6651305562,0.349000000000046
14,2,29482.7173016288,0.277000000000044
14,3,34561.1638433747,0.365000000000009
14,4,33727.7056692683,0.301999999999907
14,5,23163.0633694108,0.293999999999983
14,6,49734.293863564,0.295999999999935
14,7,30836.761132044,0.316000000000031
14,8,38733.4853615464,0.302999999999997
14,9,36543.6218860086,0.300000000000068
14,10,47248.0244957612,0.284999999999968
14,11,38253.432695869,0.345000000000027
14,12,60516.8375764305,0.283999999999992
14,13,37185.2683700648,0.345000000000027
14,14,41703.4802861103,0.328999999999951
14,15,26851.7337083463,0.255999999999972
14,16,27125.7468050042,0.353000000000065
14,17,30089.2543699846,0.278999999999996
14,18,32167.9148493077,0.346000000000004
14,19,45899.906420935,0.329999999999927
14,20,38621.4128744921,0.276000000000067
14,21,31943.2442332849,0.344999999999914
14,22,68008.243967372,0.275000000000091
14,23,20748.1870695004,0.334999999999923
14,24,31443.8004024908,0.259999999999991
14,25,42227.73951527,0.356999999999971
14,26,72612.9241095298,0.274000000000001
14,27,47260.6864356028,0.351999999999975
14,28,22936.3400282902,0.298999999999978
14,29,49097.105912082,0.269000000000005
14,30,48589.1931365664,0.349000000000046
15,1,68201.0963898222,0.284999999999968
15,2,28181.7670537003,0.350000000000023
15,3,42358.3106224568,0.274000000000001
15,4,33631.817916525,0.339000000000055
15,5,23713.1959686265,0.275999999999954
15,6,43950.6929366602,0.34699999999998
15,7,29527.5920525017,0.2650000000001
15,8,25942.8033133845,0.343999999999937
15,9,25648.3022463475,0.301000000000045
15,10,28552.6434179417,0.259999999999991
15,11,31845.2986495701,0.269000000000005
15,12,33247.0800024784,0.298000000000002
15,13,30593.1440368406,0.295999999999935
15,14,28594.132519998,0.290000000000077
15,15,26823.3152256997,0.30499999999995
15,16,23057.3353942408,0.312999999999988
15,17,23561.5488541334,0.30600000000004
15,18,38316.6067203183,0.261999999999944
15,19,29248.1087465499,0.254000000000019
15,20,30481.1918594992,0.313999999999965
15,21,22037.4021023302,0.299000000000092
15,22,73044.4194017012,0.260999999999967
15,23,27092.9940541409,0.245999999999981
15,24,29189.9193912651,0.246999999999957
15,25,31429.1924398645,0.346000000000004
15,26,57915.2614021094,0.266000000000076
15,27,25111.7710303593,0.337999999999965
15,28,18747.3220823728,0.278999999999996
15,29,24904.3099322258,0.311000000000035
15,30,41518.0693558843,0.27699999999993
16,1,61136.2434953544,0.3599999999999
16,2,26198.4012553968,0.234000000000037
16,3,28746.3905382747,0.276000000000067
16,4,27532.0587732807,0.314999999999941
16,5,14297.6762108843,0.260999999999967
16,6,39783.669385738,0.322999999999979
16,7,21644.0267436308,0.298000000000002
16,8,30915.5624406526,0.302000000000021
16,9,28976.9071187872,0.305999999999926
16,10,32793.7819728245,0.300000000000068
16,11,27329.8723860194,0.29099999999994
16,12,45446.2683078696,0.294999999999959
16,13,28923.5098731345,0.297000000000025
16,14,33410.0836426657,0.307999999999993
16,15,23664.7484233267,0.299000000000092
16,16,21350.9134685998,0.251999999999953
16,17,20669.804999226,0.254000000000019
16,18,30028.9429450249,0.317999999999984
16,19,37295.8996419211,0.303999999999974
16,20,30752.1048774289,0.326000000000022
16,21,23583.1169013214,0.296000000000049
16,22,62448.8886496726,0.263999999999896
16,23,16686.2333444803,0.297000000000025
16,24,25867.3039957058,0.271000000000072
16,25,34527.9500123805,0.317000000000007
16,26,59109.3148646663,0.280999999999949
16,27,36336.6654087105,0.313999999999965
16,28,14656.8657153277,0.302999999999997
16,29,35639.7601796986,0.344000000000051
16,30,42441.2436385406,0.336000000000013
17,1,47689.6915212505,0.328999999999951
17,2,33454.8748651608,0.317000000000007
17,3,46343.8476983384,0.317999999999984
17,4,39373.944777094,0.30499999999995
17,5,36525.690200868,0.310000000000059
17,6,43946.1441378668,0.311999999999898
17,7,38282.4249217868,0.310000000000059
17,8,36951.1117560072,0.326999999999998
17,9,33048.5443321624,0.325000000000045
17,10,46427.3237766283,0.312999999999988
17,11,41779.7074824385,0.317000000000007
17,12,41908.7175642323,0.312999999999988
17,13,38155.8643117818,0.308999999999969
17,14,32508.0871626317,0.307000000000016
17,15,26740.0582767781,0.298000000000002
17,16,29002.8525873591,0.254999999999995
17,17,31210.4240242804,0.25
17,18,30965.8973516596,0.321000000000026
17,19,34925.5999568856,0.302000000000021
17,20,30989.3905266291,0.297000000000025
17,21,30110.6684989688,0.291999999999916
17,22,59532.7125941391,0.270000000000095
17,23,28031.8395244602,0.302999999999997
17,24,37430.0697562405,0.248000000000047
17,25,36904.6115276231,0.333999999999946
17,26,61921.6176149047,0.344000000000051
17,27,42447.2790701115,0.33299999999997
17,28,32022.7694846715,0.328999999999951
17,29,30421.1866152852,0.300000000000068
17,30,41703.5781447123,0.298999999999978
18,1,57314.5427234313,0.303999999999974
18,2,26953.4289274241,0.297000000000025
18,3,35132.0266635573,0.294999999999959
18,4,24825.80581433,0.289000000000101
18,5,15261.2860989514,0.284999999999968
18,6,43377.9627361223,0.293999999999983
18,7,20582.9135909607,0.289999999999964
18,8,35918.8075872945,0.300000000000068
18,9,24969.499471534,0.30499999999995
18,10,36361.6959069394,0.307000000000016
18,11,30886.3960632811,0.298999999999978
18,12,49912.0615929513,0.307999999999993
18,13,24218.7694474027,0.295000000000073
18,14,33399.2977245321,0.293000000000006
18,15,21330.5456774519,0.30499999999995
18,16,22237.5599310492,0.305000000000064
18,17,17593.1531738002,0.288000000000011
18,18,29172.5540495382,0.302999999999997
18,19,36016.6948654998,0.298999999999978
18,20,35344.6782816118,0.343999999999937
18,21,20753.5696660554,0.328999999999951
18,22,62659.8942101461,0.331000000000017
18,23,15696.0958998556,0.308999999999969
18,24,28434.6141665342,0.305000000000064
18,25,32035.1380707201,0.341000000000008
18,26,61236.2343828533,0.341999999999985
18,27,38168.0586276016,0.32000000000005
18,28,15137.7161554669,0.316000000000031
18,29,32230.7985358807,0.252999999999929
18,30,41793.9982709333,0.274000000000001
19,1,59947.9330273266,0.276000000000067
19,2,32984.6902728886,0.297000000000025
19,3,35303.1498083237,0.257999999999925
19,4,39013.3089541289,0.274000000000001
19,5,28939.3134789405,0.277000000000044
19,6,54049.8584289039,0.27699999999993
19,7,40793.3294229911,0.263000000000034
19,8,36616.7367533433,0.298000000000002
19,9,39499.3914916965,0.302000000000021
19,10,49032.8865590005,0.298000000000002
19,11,42178.3143943116,0.293999999999983
19,12,58754.1374961707,0.297000000000025
19,13,42792.5717910088,0.294999999999959
19,14,44518.2974482089,0.296999999999912
19,15,34170.7810715759,0.29200000000003
19,16,26030.8811087271,0.293000000000006
19,17,41124.0185207633,0.291000000000054
19,18,28162.9665746872,0.249000000000024
19,19,47103.0059181732,0.293999999999983
19,20,37930.7506313271,0.312000000000012
19,21,40235.006738802,0.30499999999995
19,22,68586.9647178568,0.276000000000067
19,23,24548.6360454368,0.271999999999935
19,24,33492.9033290196,0.268000000000029
19,25,45507.2947854536,0.321000000000026
19,26,71951.7817221317,0.32000000000005
19,27,49498.7873659858,0.308999999999969
19,28,31847.4047415143,0.29099999999994
19,29,52768.4076449868,0.298000000000002
19,30,49703.5019321186,0.293999999999983
20,1,59546.1129594216,0.309000000000083
20,2,27175.6746328888,0.294999999999959
20,3,34260.0367332911,0.307000000000016
20,4,31582.2458184908,0.307999999999993
20,5,22058.8859890883,0.30600000000004
20,6,44505.1168474253,0.316000000000031
20,7,29392.8398305837,0.302999999999997
20,8,31651.789529787,0.293000000000006
20,9,31090.1803285105,0.337999999999965
20,10,44121.5929170585,0.341999999999985
20,11,36594.4802635007,0.327999999999975
20,12,50500.0907098448,0.32000000000005
20,13,30928.8498478267,0.336000000000013
20,14,37583.1692875681,0.333999999999946
20,15,20793.0067005618,0.33400000000006
20,16,23689.2238657984,0.333999999999946
20,17,25640.1914912667,0.33299999999997
20,18,23700.2552672976,0.326000000000022
20,19,37383.2793796472,0.326999999999998
20,20,29882.405925685,0.355999999999995
20,21,27450.7710647942,0.269999999999982
20,22,63506.7308318297,0.305999999999926
20,23,17419.7073357577,0.256000000000085
20,24,27318.8599809472,0.281999999999925
20,25,35301.5575293084,0.254999999999995
20,26,65486.6175782366,0.257000000000062
20,27,41479.8439347105,0.312000000000012
20,28,20947.4351240825,0.302999999999997
20,29,40758.9518784197,0.294999999999959
20,30,45440.1698107106,0.298000000000002
21,1,78824.3439129412,0.316000000000031
21,2,41107.594545056,0.308999999999969
21,3,44914.6355917153,0.317999999999984
21,4,55670.9685046564,0.324000000000069
21,5,39734.7888835552,0.295999999999935
21,6,71012.9906577883,0.349999999999909
21,7,63175.5778569196,0.341000000000008
21,8,45690.024376211,0.338000000000079
21,9,55724.2910144015,0.338999999999942
21,10,69868.6597202623,0.343000000000075
21,11,59341.6692756998,0.343999999999937
21,12,75691.6749591488,0.321000000000026
21,13,58075.3823841972,0.315000000000055
21,14,55431.2334996961,0.337999999999965
21,15,46915.7828038544,0.322000000000003
21,16,34191.7575198856,0.315000000000055
21,17,57441.8634282837,0.261999999999944
21,18,27275.155466036,0.256000000000085
21,19,62321.3313820297,0.255999999999972
21,20,34776.261328353,0.310999999999922
21,21,56732.517257775,0.309000000000083
21,22,80465.9718163754,0.259999999999991
21,23,42206.8841053339,0.307999999999993
21,24,38863.6380205062,0.254000000000019
21,25,60191.4138218634,0.271999999999935
21,26,82588.7898967927,0.300000000000068
21,27,65073.6157570586,0.296999999999912
21,28,44093.3579596118,0.259000000000015
21,29,67556.6554486934,0.268000000000029
21,30,64486.7564974902,0.307000000000016
22,1,56100.372580342,0.303999999999974
22,2,25437.86067002,0.254999999999995
22,3,40119.8654666756,0.266000000000076
22,4,25672.9921022181,0.315999999999917
22,5,18438.0392992714,0.304000000000087
22,6,45182.0130302046,0.257999999999925
22,7,25121.5936380094,0.254000000000019
22,8,36643.1217373257,0.302000000000021
22,9,25669.5984121911,0.336999999999989
22,10,37411.4308753159,0.287000000000035
22,11,31245.5996440274,0.312000000000012
22,12,51151.8065750588,0.309999999999945
22,13,25934.5460482672,0.263000000000034
22,14,39210.9352921895,0.248000000000047
22,15,21245.0848036168,0.208999999999946
22,16,25472.0664240561,0.317000000000007
22,17,18833.7474820695,0.261000000000081
22,18,31480.2495084231,0.311999999999898
22,19,34656.141117657,0.337000000000103
22,20,37342.4020204605,0.313999999999965
22,21,20503.468059538,0.285999999999945
22,22,67083.3603012755,0.310000000000059
22,23,16254.9822360486,0.288000000000011
22,24,28649.2878160589,0.31899999999996
22,25,32279.7423428247,0.305000000000064
22,26,61933.9229147425,0.298000000000002
22,27,36924.4159702891,0.315999999999917
22,28,16545.5154362604,0.302000000000021
22,29,32803.8131330711,0.293000000000006
22,30,45261.171930682,0.290000000000077
23,1,85077.9960597259,0.311999999999898
23,2,31903.4469827368,0.307000000000016
23,3,28082.3604399915,0.312000000000012
23,4,35586.9995139091,0.315000000000055
23,5,24792.1010436089,0.295999999999935
23,6,51461.9450228745,0.305999999999926
23,7,41545.2600942758,0.298999999999978
23,8,35431.4381447665,0.307000000000016
23,9,35368.9720232245,0.298000000000002
23,10,39669.403120219,0.302999999999997
23,11,37730.6052429805,0.301000000000045
23,12,52415.8523387223,0.312999999999988
23,13,37217.230517672,0.312000000000012
23,14,37914.6933370483,0.307999999999993
23,15,45106.9253656063,0.296000000000049
23,16,30243.8530266096,0.346000000000004
23,17,40972.0089414668,0.334999999999923
23,18,22829.5966445342,0.329000000000065
23,19,42268.5898821141,0.336000000000013
23,20,24415.2903780656,0.330999999999904
23,21,37922.9874585742,0.330000000000041
23,22,62767.9482946725,0.293999999999983
23,23,39159.6300101652,0.276000000000067
23,24,33484.9649123981,0.307999999999993
23,25,41206.0192611605,0.314999999999941
23,26,62052.6907222533,0.259000000000015
23,27,44789.9182282518,0.302000000000021
23,28,35164.9995987637,0.307999999999993
23,29,47768.2736605997,0.303999999999974
23,30,42542.7165207832,0.299000000000092
24,1,62992.8457910748,0.27699999999993
24,2,25074.1753773953,0.355000000000018
24,3,33378.3683827312,0.263999999999896
24,4,28008.8565802949,0.293000000000006
24,5,12824.5496976684,0.298000000000002
24,6,43375.8021447309,0.319000000000074
24,7,23597.0411129739,0.307999999999993
24,8,33630.917060509,0.279999999999973
24,9,27897.7345485506,0.322999999999979
24,10,37603.7993860402,0.283000000000015
24,11,31871.74934762,0.267000000000053
24,12,49797.403603693,0.321000000000026
24,13,29259.5248071614,0.252999999999929
24,14,34125.0477934889,0.315000000000055
24,15,22719.0100477403,0.307999999999993
24,16,22587.7732828306,0.345000000000027
24,17,22238.8524012143,0.327999999999975
24,18,28131.4037663657,0.334999999999923
24,19,38681.7219086047,0.33400000000006
24,20,32021.166971783,0.333999999999946
24,21,24287.3074618295,0.331999999999994
24,22,66391.9487647762,0.342000000000098
24,23,14809.911598617,0.331999999999994
24,24,28216.2111267113,0.336000000000013
24,25,35103.2173221779,0.333999999999946
24,26,65001.5090180134,0.336999999999989
24,27,39600.2703869221,0.344000000000051
24,28,13782.4536891436,0.326999999999998
24,29,37073.4724986136,0.339999999999918
24,30,45255.4199007396,0.342000000000098
25,1,76778.6387661418,0.333999999999946
25,2,29345.3074406241,0.326999999999998
25,3,23623.6856585557,0.321000000000026
25,4,29633.4880019893,0.283999999999992
25,5,17255.3847151921,0.271999999999935
25,6,35885.6806544335,0.2650000000001
25,7,24981.8623310364,0.25
25,8,39801.8735974103,0.293999999999983
25,9,30299.5253458789,0.291000000000054
25,10,35343.0888642612,0.245999999999981
25,11,38221.4180692895,0.259999999999991
25,12,51658.6711733966,0.305000000000064
25,13,37804.3947101942,0.259999999999991
25,14,29404.8631849938,0.29200000000003
25,15,31638.7709604738,0.271999999999935
25,16,33787.0669507273,0.261000000000081
25,17,33081.9601879258,0.338999999999942
25,18,37377.2218317664,0.263000000000034
25,19,39023.4358599419,0.299999999999955
25,20,36060.2499236605,0.273000000000025
25,21,35365.3281392363,0.295000000000073
25,22,54022.2075791998,0.31899999999996
25,23,22115.6633811832,0.254999999999995
25,24,33892.8451403482,0.313999999999965
25,25,35115.6474263918,0.307999999999993
25,26,62615.3179540409,0.294000000000096
25,27,43637.7364094546,0.29099999999994
25,28,26817.1119750368,0.289999999999964
25,29,48027.5267437778,0.305000000000064
25,30,41617.7521061725,0.342999999999961
26,1,53459.7601189418,0.326999999999998
26,2,25806.8114888533,0.30600000000004
26,3,31561.028517166,0.379999999999995
26,4,21044.6788387554,0.275999999999954
26,5,15496.1437044338,0.302000000000021
26,6,38555.7610139992,0.312999999999988
26,7,14752.2307210623,0.304000000000087
26,8,37045.3575714911,0.307999999999993
26,9,23595.257245205,0.289999999999964
26,10,32250.2065713508,0.317000000000007
26,11,27553.3059488275,0.303999999999974
26,12,46157.1069964524,0.303999999999974
26,13,22562.594805435,0.302999999999997
26,14,30471.7806416359,0.305000000000064
26,15,19996.7646304602,0.30600000000004
26,16,26121.6068619896,0.305999999999926
26,17,17419.3368579461,0.302999999999997
26,18,30936.1549545975,0.307999999999993
26,19,31747.671019678,0.291000000000054
26,20,36341.9514343704,0.29200000000003
26,21,19195.548654138,0.288000000000011
26,22,56412.8250344289,0.300999999999931
26,23,13205.4290510388,0.293000000000006
26,24,29860.6529808368,0.293000000000006
26,25,28559.79633091,0.30600000000004
26,26,54333.7079818085,0.309999999999945
26,27,35835.1846714555,0.338000000000079
26,28,16229.2682688979,0.315999999999917
26,29,28728.938864018,0.298000000000002
26,30,36438.1693998225,0.311000000000035
27,1,60493.4192340514,0.321000000000026
27,2,31159.4918109387,0.263000000000034
27,3,36229.9181815755,0.259000000000015
27,4,34014.2124214406,0.313999999999965
27,5,20926.4287492121,0.302000000000021
27,6,48759.2650469753,0.337999999999965
27,7,30675.918660258,0.217999999999961
27,8,38744.790769416,0.252000000000066
27,9,36126.4071699688,0.221000000000004
27,10,48913.2522325225,0.279999999999973
27,11,37898.8501421998,0.375999999999976
27,12,61600.1925018399,0.300000000000068
27,13,34239.0516098996,0.302999999999997
27,14,42358.921061938,0.293000000000006
27,15,25176.9399230668,0.310999999999922
27,16,24701.9294107421,0.300000000000068
27,17,27984.8625744799,0.297000000000025
27,18,31869.2587029572,0.307000000000016
27,19,45339.6869156759,0.310999999999922
27,20,37566.7636224554,0.305000000000064
27,21,30043.1905319058,0.298000000000002
27,22,65264.0248771748,0.302000000000021
27,23,19738.3674109311,0.344999999999914
27,24,30666.6264972358,0.296000000000049
27,25,42260.0071259262,0.297000000000025
27,26,69580.565776369,0.303999999999974
27,27,48104.5563259913,0.302999999999997
27,28,22393.3083704129,0.31899999999996
27,29,45763.7851091149,0.32000000000005
27,30,48521.1301291024,0.321000000000026
28,1,62862.4162470639,0.325999999999908
28,2,24401.1599632164,0.315000000000055
28,3,31452.5730434013,0.266999999999939
28,4,33276.7564411319,0.265999999999963
28,5,18697.0365113267,0.31899999999996
28,6,43533.5204164774,0.330000000000041
28,7,31329.7218960868,0.288000000000011
28,8,26815.5176281528,0.260999999999967
28,9,32281.5825576671,0.278999999999996
28,10,37324.146098111,0.310000000000059
28,11,29898.0757218612,0.268000000000029
28,12,44852.2930081535,0.317000000000007
28,13,32428.010792601,0.309999999999945
28,14,36474.3204658112,0.322000000000003
28,15,21414.2302271294,0.319000000000074
28,16,22335.2639631795,0.307999999999993
28,17,24667.0955647794,0.259000000000015
28,18,26109.1837194538,0.305999999999926
28,19,36292.6888603741,0.308999999999969
28,20,25708.4292651823,0.298000000000002
28,21,26427.4389197588,0.250999999999976
28,22,66847.8369575012,0.289999999999964
28,23,22928.9591727077,0.319000000000074
28,24,21179.296425974,0.305999999999926
28,25,37027.8085192278,0.322999999999979
28,26,63284.5319335838,0.30499999999995
28,27,38057.1016603986,0.2650000000001
28,28,15830.8136396,0.317999999999984
28,29,41835.0471758737,0.298999999999978
28,30,42074.3819133524,0.271999999999935
29,1,53418.3993228973,0.348999999999933
29,2,26660.6729633536,0.338000000000079
29,3,33085.4476406967,0.335999999999899
29,4,26103.0086259665,0.323999999999955
29,5,18543.0803290488,0.310000000000059
29,6,43451.13529322,0.323999999999955
29,7,18465.4517089045,0.311000000000035
29,8,35991.5257574023,0.321000000000026
29,9,27854.6124053498,0.306999999999903
29,10,34147.4658413248,0.308000000000106
29,11,29445.2093749448,0.306999999999903
29,12,44397.6762882341,0.325000000000045
29,13,25844.2438970618,0.259000000000015
29,14,31796.2424086429,0.255999999999972
29,15,23223.0316715767,0.329000000000065
29,16,22813.9435912841,0.306999999999903
29,17,20405.2167736825,0.324000000000069
29,18,32687.4884580406,0.295999999999935
29,19,36099.5512882776,0.253000000000043
29,20,37474.9724602561,0.317000000000007
29,21,22398.6564818519,0.294999999999959
29,22,61839.9646902763,0.298000000000002
29,23,17068.3496641187,0.302999999999997
29,24,30553.4632951797,0.315000000000055
29,25,32729.151404621,0.30600000000004
29,26,57412.1702977735,0.298000000000002
29,27,38330.3446198379,0.320999999999913
29,28,19343.2704354495,0.302000000000021
29,29,29804.561098463,0.291000000000054
29,30,40604.4433589145,0.294999999999959
30,1,67448.892653859,0.303999999999974
30,2,36742.9898957347,0.296000000000049
30,3,61643.6001323197,0.347999999999956
30,4,35781.104122724,0.338000000000079
30,5,69553.5201835209,0.335999999999899
30,6,51528.4988397125,0.337000000000103
30,7,41095.3993430254,0.334999999999923
30,8,56994.4323894153,0.338000000000079
30,9,39137.0214724352,0.333999999999946
30,10,36157.0507691436,0.339000000000055
30,11,28473.4105586166,0.333999999999946
30,12,37157.5377350358,0.302999999999997
30,13,35657.4330446832,0.310000000000059
30,14,45028.4177692412,0.310999999999922
30,15,43377.476463475,0.293999999999983
30,16,52880.1923197725,0.294000000000096
30,17,35486.9896071553,0.266999999999939
30,18,68854.5539805295,0.311000000000035
30,19,36435.6971276377,0.298000000000002
30,20,72892.68745981,0.317999999999984
30,21,33450.2557653239,0.307000000000016
30,22,60540.3860108728,0.321000000000026
30,23,52426.1072952048,0.309999999999945
30,24,55473.2872565608,0.317999999999984
30,25,37553.9749375392,0.313999999999965
30,26,30562.3818167122,0.311000000000035
30,27,40315.3676005457,0.307000000000016
30,28,60325.9286717165,0.315999999999917
30,29,34687.1766123775,0.312000000000012
30,30,40298.0403006065,0.315000000000055
