App - ConnectBot
Scenario - ssh_shell
Length - 1sec
Measure - EuclideanDistance
Before Version - 1.8.3
After Version - 1.8.4


"Before.Trace.ID1","Before.Trace.ID2","Difference","Runtime"
1,2,1112.44403388288,0.00100000000020373
1,3,1372.87994066366,0
1,4,1239.73565670087,0.00100000000020373
1,5,1079.41679022438,0.00300000000061118
1,6,1383.19591491374,0
1,7,1359.45018797532,0.00100000000020373
1,8,1124.0583682787,0.00100000000020373
1,9,1237.02879777143,0
1,10,1734.77176711098,0.00100000000020373
1,11,1393.13340593382,0
1,12,1449.86632868335,0
1,13,1494.08847329725,0.00100000000020373
1,14,1394.05941555475,0
1,15,1054.91340909763,0
1,16,1448.78685985413,0.00100000000020373
1,17,1277.25418015204,0
1,18,1365.96324155293,0.00100000000020373
1,19,1913.60267205327,0.00100000000020373
1,20,1720.0562803266,0
1,21,1238.82115557198,0.00100000000020373
1,22,1734.47784102402,0.000999999996565748
1,23,1609.02504350991,0
1,24,1450.67095420064,0.00100000000020373
1,25,1473.45343133966,0.00100000000020373
1,26,1810.15216289871,0
1,27,1694.36849626735,0.00100000000020373
1,28,1627.299303622,0.00100000000020373
1,29,1403.1846036235,0
1,30,1265.76940548853,0.00100000000020373
2,3,1192.65838193208,0.00100000000020373
2,4,1071.04463824409,0
2,5,667.010120747314,0.00100000000020373
2,6,889.210202983754,0.00100000000020373
2,7,952.548376945321,0
2,8,897.115302594382,0.00100000000020373
2,9,604.323604097679,0.00100000000020373
2,10,1252.91734696209,0
2,11,1264.16098232187,0.00100000000020373
2,12,875.245703895613,0.00100000000020373
2,13,932.417887976317,0
2,14,1169.95005166509,0.00100000000020373
2,15,779.376141485031,0.00100000000020373
2,16,807.911669276258,0
2,17,702.222522657277,0.00100000000020373
2,18,974.312425614806,0.00100000000020373
2,19,1438.33228966481,0
2,20,1207.85464733516,0.000999999996565748
2,21,777.529057411879,0.00100000000020373
2,22,1275.61761268501,0
2,23,1285.61298510174,0.00100000000020373
2,24,895.793581967057,0.00100000000020373
2,25,1247.66849770677,0
2,26,1138.1347706773,0.00100000000020373
2,27,1018.94282748891,0.00100000000020373
2,28,1275.89538037407,0
2,29,1034.39960845766,0.00100000000020373
2,30,714.832260977636,0.00100000000020373
3,4,1111.59209410438,0
3,5,1028.45461693882,0.00100000000020373
3,6,985.319091447889,0.00100000000020373
3,7,1139.28762148965,0
3,8,1226.41750821689,0.00100000000020373
3,9,1149.56312674813,0.00100000000020373
3,10,779.96590126839,0
3,11,1144.97643131768,0.00100000000020373
3,12,1159.37365026915,0.00100000000020373
3,13,1103.33042104997,0
3,14,1176.02798802249,0.00100000000020373
3,15,962.333971530898,0.00100000000020373
3,16,1123.94136465656,0
3,17,837.635653479808,0.00100000000020373
3,18,1177.9070099891,0.00100000000020373
3,19,1224.34379200135,0
3,20,1396.19137180059,0.000999999996565748
3,21,752.445140982901,0.00100000000020373
3,22,1262.47450932215,0
3,23,1175.42952855127,0.00100000000020373
3,24,1087.76685538809,0.00100000000020373
3,25,1099.35791485699,0
3,26,1386.61039430546,0
3,27,1415.69813607815,0.00100000000020373
3,28,1102.71901153106,0.00100000000020373
3,29,993.793583461694,0
3,30,860.666181180532,0.00100000000020373
4,5,707.090321583386,0.00100000000020373
4,6,902.959471665247,0
4,7,951.426143393898,0.00100000000020373
4,8,1085.80665289663,0.00100000000020373
4,9,870.873477611604,0
4,10,1419.2754024751,0.00100000000020373
4,11,674.620263217756,0.00100000000020373
4,12,1176.00049716056,0.00300000000061118
4,13,1111.21276839472,0.00100000000020373
4,14,696.827961016035,0.00100000000020373
4,15,744.009089004168,0
4,16,1116.85115304947,0.000999999996565748
4,17,914.572579910385,0
4,18,617.761795384503,0
4,19,1227.95343779483,0.00100000000020373
4,20,1151.01916856483,0
4,21,687.595642684371,0.00100000000020373
4,22,1542.54249515828,0.00100000000020373
4,23,1329.85098829192,0
4,24,1091.66876356252,0.00100000000020373
4,25,1133.42435759358,0.00100000000020373
4,26,1420.17032145719,0
4,27,1281.31093112044,0.00100000000020373
4,28,1392.55960057639,0.00100000000020373
4,29,897.051486090403,0
4,30,1063.28316562129,0.00100000000020373
5,6,886.937365417129,0.00100000000020373
5,7,841.062873107175,0
5,8,851.142369640749,0.00100000000020373
5,9,722.828665817165,0.00100000000020373
5,10,1212.24843223879,0
5,11,899.083142167756,0.00100000000020373
5,12,711.92654797193,0.00100000000020373
5,13,900.865051300866,0
5,14,892.363462027044,0.00100000000020373
5,15,698.723281949639,0.00100000000020373
5,16,904.937422638554,0
5,17,705.668184567039,0.00100000000020373
5,18,797.536465023098,0.000999999996565748
5,19,1205.68476029466,0
5,20,1058.97260895786,0.00100000000020373
5,21,642.920051636958,0.00100000000020373
5,22,1269.05913289498,0
5,23,1301.83644011676,0.00100000000020373
5,24,814.824848630944,0.00100000000020373
5,25,1156.47570774157,0
5,26,1235.33714738239,0.00100000000020373
5,27,1092.99454229482,0.00100000000020373
5,28,1281.26852180856,0
5,29,923.650069320403,0.00100000000020373
5,30,768.525568574774,0.00100000000020373
6,7,888.873941241881,0
6,8,947.290885185442,0.00100000000020373
6,9,554.425747663491,0.00100000000020373
6,10,1026.01907517177,0
6,11,1079.9829796835,0.00100000000020373
6,12,1199.45723996597,0.00100000000020373
6,13,675.638535336804,0
6,14,1033.12098480141,0.00100000000020373
6,15,780.517997988776,0.00100000000020373
6,16,1019.4246224944,0
6,17,713.740538140419,0.00100000000020373
6,18,739.569131029279,0.00100000000020373
6,19,1097.5548248778,0
6,20,1009.07903852626,0.00100000000020373
6,21,611.266916036883,0.000999999996565748
6,22,1407.7595461056,0
6,23,1147.81356897258,0.00100000000020373
6,24,800.594798781392,0.00100000000020373
6,25,805.734461210348,0
6,26,965.422514567286,0.00100000000020373
6,27,819.912056374067,0.00100000000020373
6,28,1249.27516116265,0
6,29,898.989112381235,0.00100000000020373
6,30,936.206725201744,0.00100000000020373
7,8,717.177053752939,0
7,9,832.576574266314,0.00100000000020373
7,10,1279.60386950316,0.00100000000020373
7,11,886.979962574843,0
7,12,1133.57305687266,0.00100000000020373
7,13,992.786985610654,0.00100000000020373
7,14,766.032522500358,0
7,15,574.072003724882,0.00100000000020373
7,16,814.934563270286,0.00100000000020373
7,17,763.143565151147,0
7,18,594.81321332542,0.00100000000020373
7,19,982.267976134211,0.00100000000020373
7,20,1312.74152919719,0
7,21,691.157105841522,0.00100000000020373
7,22,1040.63309870462,0.00100000000020373
7,23,1007.79449397769,0
7,24,659.246431419645,0.00100000000020373
7,25,709.291773095807,0.000999999996565748
7,26,984.278677826761,0
7,27,980.466761112763,0
7,28,884.07361974549,0.00100000000020373
7,29,728.702406789332,0.00300000000061118
7,30,725.579750493214,0.00100000000020373
8,9,869.70429606073,0.00100000000020373
8,10,1349.38727699941,0
8,11,1100.90930561308,0.00100000000020373
8,12,1104.39010953065,0.00100000000020373
8,13,866.495250662314,0
8,14,1190.59311378337,0.00100000000020373
8,15,653.125276172123,0.00100000000020373
8,16,1038.54721430987,0
8,17,803.308991057911,0.00100000000020373
8,18,913.793861218401,0
8,19,1158.2076269136,0
8,20,1340.62329893401,0.00100000000020373
8,21,900.945908150192,0
8,22,1111.16000271017,0.00100000000020373
8,23,1143.61149686537,0.00100000000020373
8,24,679.571385103476,0
8,25,878.997817474956,0.00100000000020373
8,26,1044.65370729675,0.000999999996565748
8,27,951.361481344289,0
8,28,1175.28796710958,0.00100000000020373
8,29,912.35468892323,0.00100000000020373
8,30,835.149959229338,0
9,10,1176.98853072482,0.00100000000020373
9,11,1120.57438059158,0.00100000000020373
9,12,1042.58325453181,0
9,13,742.023614240826,0.00100000000020373
9,14,1007.33621256383,0.00100000000020373
9,15,671.301742329881,0
9,16,960.038704517457,0.00100000000020373
9,17,736.639674164532,0.00100000000020373
9,18,656.881963631794,0
9,19,1212.92325708112,0.00100000000020373
9,20,919.74705238495,0.00100000000020373
9,21,665.950307100764,0
9,22,1424.93430281219,0.00100000000020373
9,23,1292.88811152849,0.00100000000020373
9,24,760.215153581416,0
9,25,995.423718918687,0.00100000000020373
9,26,1004.91541374623,0.00100000000020373
9,27,860.450119349051,0
9,28,1339.89873914015,0.00100000000020373
9,29,954.304520963549,0.00100000000020373
9,30,902.610543760011,0
10,11,1445.292279983,0.000999999996565748
10,12,1189.44824325433,0.00100000000020373
10,13,1056.29532304462,0
10,14,1474.2224616329,0.00100000000020373
10,15,1250.31020685538,0.00100000000020373
10,16,1306.28162389208,0
10,17,938.76706485039,0.00100000000020373
10,18,1328.86444691256,0.00100000000020373
10,19,1243.51703405836,0
10,20,1172.1232579648,0.00100000000020373
10,21,979.389462589959,0.00100000000020373
10,22,1406.25266782146,0
10,23,1516.19881686815,0.00100000000020373
10,24,1075.09448811169,0.00100000000020373
10,25,1199.99388565358,0
10,26,1115.68272917676,0.00100000000020373
10,27,1298.14178659192,0.00100000000020373
10,28,1376.96002586309,0
10,29,1252.14689643682,0.00100000000020373
10,30,1090.09906709097,0.00100000000020373
11,12,1359.09967522565,0
11,13,1291.85269453957,0.00100000000020373
11,14,791.743409998195,0.00100000000020373
11,15,882.137903630589,0
11,16,1108.8366844796,0.00100000000020373
11,17,857.189622381135,0.00100000000020373
11,18,746.69660837151,0
11,19,1031.24072035075,0.000999999996565748
11,20,1331.60058163071,0.00100000000020373
11,21,842.973616585781,0
11,22,1283.0531375918,0
11,23,1138.44490216395,0.00100000000020373
11,24,1095.46234551648,0
11,25,962.323070633336,0
11,26,1326.58133470321,0.00100000000020373
11,27,1256.26092470933,0.00100000000020373
11,28,1194.04331953043,0
11,29,700.118139529224,0.00100000000020373
11,30,1074.3342893728,0.00100000000020373
12,13,1002.09935974471,0
12,14,1348.07918636473,0.00100000000020373
12,15,1055.82023966706,0.00100000000020373
12,16,1063.80769138014,0
12,17,964.901834531658,0.00400000000081491
12,18,1202.4497687344,0
12,19,1311.822790804,0.00100000000020373
12,20,1180.97327987906,0.00100000000020373
12,21,988.365434225902,0
12,22,1296.52849271476,0.00100000000020373
12,23,1553.40779787523,0.000999999996565748
12,24,943.365132614742,0
12,25,1488.39742489468,0.00100000000020373
12,26,1343.65167854983,0.00100000000020373
12,27,1262.53171481632,0
12,28,1444.97943674344,0.00100000000020373
12,29,1245.75055942615,0.00100000000020373
12,30,852.469990407577,0
13,14,1314.94237112839,0.00100000000020373
13,15,896.348198286345,0.00100000000020373
13,16,1193.47215649293,0
13,17,810.470713344329,0.00100000000020373
13,18,993.924595795172,0.00100000000020373
13,19,1006.29814441458,0
13,20,1024.38661200407,0.00100000000020373
13,21,799.983842824354,0.00100000000020373
13,22,1339.33636439888,0
13,23,1317.60956517236,0.00100000000020373
13,24,608.611089037426,0.00100000000020373
13,25,1007.3505422797,0
13,26,1035.2627269998,0.00100000000020373
13,27,734.929828472733,0
13,28,1402.16275103853,0
13,29,1113.07609123538,0.00100000000020373
13,30,976.218978502412,0
14,15,786.585353749783,0
14,16,956.633957152068,0.00100000000020373
14,17,1049.32671896569,0
14,18,620.500285112983,0.000999999996565748
14,19,1322.93121593268,0.00100000000020373
14,20,1393.58086247788,0
14,21,737.942550500677,0.00100000000020373
14,22,1475.780986636,0.00100000000020373
14,23,1269.96640928162,0
14,24,1118.04960442174,0.00100000000020373
14,25,1048.62379436084,0.00100000000020373
14,26,1445.38212857112,0
14,27,1421.80637864871,0.00100000000020373
14,28,1143.89069994697,0.00100000000020373
14,29,871.30016769577,0
14,30,1047.86052173584,0
15,16,810.270577797226,0.00100000000020373
15,17,688.095766218226,0
15,18,622.826615852033,0
15,19,1151.85803946149,0.00100000000020373
15,20,1242.83390304619,0
15,21,587.792851376239,0
15,22,1227.59650514,0.00100000000020373
15,23,1073.52159169598,0
15,24,741.788237371861,0
15,25,813.992877712861,0.00100000000020373
15,26,1171.01154692452,0
15,27,1087.10351764257,0
15,28,1069.71855421997,0.00100000000020373
15,29,687.830735051821,0.000999999996565748
15,30,665.645099686451,0
16,17,756.796505965322,0.00100000000020373
16,18,934.969585781993,0.00100000000020373
16,19,1346.80243648468,0
16,20,1460.53053406325,0.00100000000020373
16,21,843.410676438075,0.00100000000020373
16,22,1022.06756184887,0
16,23,992.646724260959,0.00100000000020373
16,24,1004.12847576967,0.00100000000020373
16,25,1157.68680646883,0
16,26,1172.25324797564,0.00100000000020373
16,27,1214.54227079913,0.00100000000020373
16,28,912.616384123907,0
16,29,705.097539423958,0.00100000000020373
16,30,585.232274834112,0.00100000000020373
17,18,835.817219924185,0
17,19,960.677634454616,0.00100000000020373
17,20,1118.47474570723,0.00100000000020373
17,21,537.393430192596,0
17,22,943.738782858376,0.00100000000020373
17,23,946.150957106334,0.00100000000020373
17,24,719.642578413766,0
17,25,852.538454820208,0.00100000000020373
17,26,840.053549941615,0.00100000000020373
17,27,816.11110803191,0
17,28,963.513447944783,0.00100000000020373
17,29,636.244157841381,0.000999999996565748
17,30,555.56908268466,0
18,19,1057.27244656649,0.00400000000081491
18,20,1090.30471660008,0
18,21,645.705165197607,0
18,22,1365.23131501977,0.00100000000020373
18,23,1159.7458580754,0
18,24,823.189143993257,0
18,25,858.352865963206,0.00100000000020373
18,26,1127.24118783719,0
18,27,1036.82925789978,0
18,28,1193.54377774083,0.00100000000020373
18,29,770.433090322153,0
18,30,945.175658869512,0.00100000000020373
19,20,1324.52423028196,0.00100000000020373
19,21,1013.565390172,0
19,22,1112.45676474338,0.00100000000020373
19,23,1176.08963173312,0.00100000000020373
19,24,778.017171633168,0
19,25,963.083546881057,0.00100000000020373
19,26,992.999488137674,0.00100000000020373
19,27,896.872965574632,0
19,28,1183.02088995096,0.00100000000020373
19,29,1024.22880282532,0.000999999996565748
19,30,1157.43506602446,0
20,21,1082.90906238728,0.00100000000020373
20,22,1778.53848100504,0.00100000000020373
20,23,1844.93828980654,0
20,24,1103.56498461503,0.00100000000020373
20,25,1307.43210674597,0.00100000000020373
20,26,1156.00493012235,0
20,27,1177.07355834264,0.00100000000020373
20,28,1835.80715406794,0.00100000000020373
20,29,1382.26717643153,0
20,30,1350.99758434562,0.00100000000020373
21,22,1156.08068654662,0.00100000000020373
21,23,1028.38841695909,0
21,24,703.836381273994,0.00100000000020373
21,25,829.030448041731,0
21,26,1061.53500301144,0
21,27,971.931835052435,0.00100000000020373
21,28,980.075278721508,0.00100000000020373
21,29,752.657975483142,0
21,30,661.774631041719,0.00100000000020373
22,23,821.291814759254,0.00100000000020373
22,24,1013.84614605814,0
22,25,1249.93777728083,0.00100000000020373
22,26,1161.22064990325,0.00100000000020373
22,27,1195.22829739355,0
22,28,747.767563249261,0.000999999996565748
22,29,999.839240826566,0.00100000000020373
22,30,864.307253598919,0
23,24,1123.19330629201,0.00100000000020373
23,25,1068.86921174816,0.00100000000020373
23,26,1287.04273534882,0
23,27,1190.50793388221,0.00100000000020373
23,28,689.935142927728,0.00100000000020373
23,29,811.280342092647,0
23,30,935.711562312548,0.00100000000020373
24,25,813.161298469449,0.00100000000020373
24,26,854.562364958918,0
24,27,699.391501545682,0.00100000000020373
24,28,1074.09476259451,0.00100000000020373
24,29,928.883703955816,0
24,30,776.194327622236,0.00100000000020373
25,26,934.802935183488,0.00100000000020373
25,27,965.784248655359,0
25,28,1047.42423676725,0.00100000000020373
25,29,830.571241000913,0.00100000000020373
25,30,1021.12984288005,0
26,27,675.056428060767,0.00100000000020373
26,28,1220.87220976484,0.00100000000020373
26,29,1061.65727491844,0
26,30,1053.98527434202,0.00100000000020373
27,28,1318.05875852502,0.00100000000020373
27,29,1070.49522257573,0
27,30,1063.02279554708,0.000999999996565748
28,29,903.341218691345,0.00100000000020373
28,30,842.377006055799,0
29,30,744.001285550412,0.00100000000020373


"After.Trace.ID","Before.Trace.ID","Difference","Runtime"
1,1,1493.47530166712,0.00100000000020373
1,2,1012.75584212131,0
1,3,862.480997541047,0.00100000000020373
1,4,1095.31187621074,0.00100000000020373
1,5,941.188479538823,0
1,6,691.648836907262,0.00100000000020373
1,7,919.671453701944,0.00100000000020373
1,8,865.558167926051,0
1,9,896.789462146951,0.00100000000020373
1,10,864.325639548851,0.00100000000020373
1,11,1025.50361380634,0
1,12,1128.18594165128,0.00100000000020373
1,13,684.924589721549,0.00100000000020373
1,14,1257.40889872722,0
1,15,889.979238538894,0.00100000000020373
1,16,1040.5848739741,0.00100000000020373
1,17,518.582744128975,0
1,18,984.886346959503,0.000999999996565748
1,19,792.743502620771,0.00100000000020373
1,20,1145.91965407015,0
1,21,729.651812926967,0.00100000000020373
1,22,1017.6457654401,0.00100000000020373
1,23,978.328514507208,0
1,24,676.513517264085,0.00100000000020373
1,25,801.239965919832,0.00100000000020373
1,26,800.535714844912,0
1,27,745.677774561735,0.00100000000020373
1,28,1079.674144662,0.00100000000020373
1,29,770.724387402882,0
1,30,815.087464276201,0.00100000000020373
2,1,1954.47613856387,0.00100000000020373
2,2,1366.01693725111,0
2,3,1264.18086903066,0
2,4,1414.09719505983,0.00100000000020373
2,5,1345.26017359345,0
2,6,949.085130333901,0
2,7,1048.84277490222,0.00100000000020373
2,8,1375.08633726817,0
2,9,1110.93622048828,0
2,10,1189.65681571955,0.00100000000020373
2,11,1291.08211980615,0.00100000000020373
2,12,1496.79649073912,0
2,13,1048.29320402028,0.00100000000020373
2,14,1301.01201285238,0.000999999996565748
2,15,1227.62474492397,0
2,16,1269.02381249416,0.00100000000020373
2,17,1038.92573493049,0.00100000000020373
2,18,1100.12890911522,0
2,19,845.134379106163,0.00100000000020373
2,20,1386.80951528588,0.00100000000020373
2,21,999.327702016224,0
2,22,1284.12500690096,0.00100000000020373
2,23,1186.1379118492,0.00100000000020373
2,24,888.051481311236,0
2,25,937.100839633014,0.00100000000020373
2,26,993.667239937625,0.00100000000020373
2,27,895.580629102962,0
2,28,1159.06065868085,0.00100000000020373
2,29,1106.41659692829,0.00100000000020373
2,30,1199.85636266607,0
3,1,1683.69905412783,0.00100000000020373
3,2,1173.67444824747,0.00100000000020373
3,3,1271.66961448204,0
3,4,1402.41007059433,0.00100000000020373
3,5,1130.93060261466,0.00100000000020373
3,6,1153.70371163108,0.00100000000020373
3,7,850.805771172752,0
3,8,941.640070659921,0.00399999999717693
3,9,1197.90687959166,0
3,10,1260.93590583915,0
3,11,1127.10162822493,0.00100000000020373
3,12,1256.61845778597,0
3,13,1083.9887037677,0
3,14,1359.99255755379,0.00100000000020373
3,15,1099.57603347032,0
3,16,1096.79089536834,0.00100000000020373
3,17,776.869662232021,0.00100000000020373
3,18,1169.58577639864,0
3,19,813.746751558684,0.00100000000020373
3,20,1451.69639716185,0.00100000000020373
3,21,1002.11862421445,0
3,22,678.426257770646,0.00100000000020373
3,23,1020.96976096499,0.00100000000020373
3,24,726.695334437672,0
3,25,905.533721102481,0.00100000000020373
3,26,770.744382210706,0.00100000000020373
3,27,799.87023498952,0
3,28,899.983963139984,0.00100000000020373
3,29,968.420519385707,0.00100000000020373
3,30,887.830709823712,0
4,1,1301.98971190459,0.00100000000020373
4,2,1032.09677598301,0.00100000000020373
4,3,757.366447974873,0
4,4,857.968388700392,0.000999999996565748
4,5,829.679567743495,0.00100000000020373
4,6,748.283038829674,0
4,7,689.510867771053,0.00100000000020373
4,8,828.545565669892,0.00100000000020373
4,9,906.169512097127,0
4,10,985.339878547162,0.00100000000020373
4,11,789.921563172934,0.00100000000020373
4,12,1179.274761685,0
4,13,849.62816549217,0.00100000000020373
4,14,905.140367334658,0.00100000000020373
4,15,682.433733808085,0
4,16,1012.32574914216,0.00100000000020373
4,17,580.509152270191,0.00100000000020373
4,18,810.794674250529,0
4,19,862.83408159583,0.00100000000020373
4,20,1251.11029963801,0.00100000000020373
4,21,523.603948700505,0
4,22,1040.54445797996,0.00100000000020373
4,23,951.981420745147,0.00100000000020373
4,24,724.726845253888,0
4,25,658.560561470047,0.00100000000020373
4,26,1006.31775615767,0.00100000000020373
4,27,979.309216149096,0
4,28,906.01813665027,0.00100000000020373
4,29,700.906611753144,0.00100000000020373
4,30,785.746958345237,0
5,1,1778.03936628269,0.000999999996565748
5,2,1087.05764745063,0.00100000000020373
5,3,1327.8133352543,0
5,4,1369.35669237583,0.00100000000020373
5,5,1216.18707097613,0.00100000000020373
5,6,827.820487586233,0
5,7,1099.91957659662,0.00100000000020373
5,8,1079.78995971966,0.00100000000020373
5,9,983.222384348271,0
5,10,1160.37442805196,0.00100000000020373
5,11,1334.36772205272,0.00100000000020373
5,12,1332.11710715606,0
5,13,845.842289597382,0.00100000000020373
5,14,1476.92411676538,0.00100000000020373
5,15,1132.03212008078,0
5,16,1133.0310960808,0
5,17,787.105190200438,0.00100000000020373
5,18,1166.78837433256,0
5,19,1090.19442757319,0
5,20,1127.76801879986,0.00100000000020373
5,21,1016.96814098855,0
5,22,1264.84357058645,0
5,23,1279.06394280055,0.00100000000020373
5,24,911.839195177499,0.00100000000020373
5,25,954.243223382339,0
5,26,629.133999046374,0.000999999996565748
5,27,636.056207201354,0.00100000000020373
5,28,1346.01514393019,0
5,29,1045.26843525994,0.00100000000020373
5,30,1024.87168485475,0.00100000000020373
6,1,1344.98715473194,0
6,2,794.468823709599,0.00100000000020373
6,3,1069.92815021071,0.00100000000020373
6,4,935.063996445136,0
6,5,673.233286712343,0.00100000000020373
6,6,846.981429501391,0.00400000000081491
6,7,527.390337123896,0
6,8,653.541833186674,0.00100000000020373
6,9,743.930075415397,0.00100000000020373
6,10,1167.96977445972,0
6,11,948.500490651635,0.00100000000020373
6,12,886.875374469796,0.00100000000020373
6,13,743.192739053236,0
6,14,943.0839228418,0.00100000000020373
6,15,596.0785715613,0.00100000000020373
6,16,819.400384073855,0
6,17,641.990471452513,0.00100000000020373
6,18,697.051793501776,0
6,19,911.492383067455,0
6,20,1155.84915612204,0.00100000000020373
6,21,612.665589007377,0
6,22,962.229416218356,0
6,23,1046.23248761325,0.00100000000020373
6,24,421.642144125702,0
6,25,885.175847940593,0
6,26,989.352306876077,0.00100000000020373
6,27,848.911565422139,0
6,28,1030.24017847766,0
6,29,805.435366485881,0.00100000000020373
6,30,635.002019118829,0
7,1,1537.8215545626,0.00100000000020373
7,2,918.902614969171,0.00100000000020373
7,3,895.223550946505,0
7,4,1175.86055102982,0.00100000000020373
7,5,1017.83260610673,0.00100000000020373
7,6,679.544538420887,0
7,7,907.265323844281,0.00100000000020373
7,8,1017.08087626909,0.00100000000020373
7,9,849.654626144464,0
7,10,996.363192722278,0.00100000000020373
7,11,1218.4251210247,0.00100000000020373
7,12,1170.07983111425,0
7,13,766.365998675389,0.00100000000020373
7,14,1175.58838510934,0.00100000000020373
7,15,882.809591008293,0
7,16,916.660203265414,0.000999999996565748
7,17,672.740338560895,0.00100000000020373
7,18,1006.00736203833,0
7,19,1019.84718088018,0.00100000000020373
7,20,1369.10794429668,0.00100000000020373
7,21,656.553948161404,0
7,22,1036.56555709012,0
7,23,897.405318483988,0.00100000000020373
7,24,750.566016931999,0
7,25,944.346321359018,0
7,26,995.91654477283,0.00100000000020373
7,27,864.816554456389,0
7,28,910.284395510931,0
7,29,881.246776908033,0.00100000000020373
7,30,773.706173608443,0
8,1,1409.91953920801,0
8,2,1053.27515852287,0.00100000000020373
8,3,594.2281869842,0.00100000000020373
8,4,1034.29135872946,0
8,5,985.662413009051,0.00100000000020373
8,6,843.614299415751,0.00100000000020373
8,7,920.298974512527,0
8,8,1134.93966844815,0.00100000000020373
8,9,1046.92928546298,0.00100000000020373
8,10,905.135544561882,0
8,11,981.430144008234,0.00100000000020373
8,12,1236.94303474889,0.000999999996565748
8,13,1131.50878092459,0
8,14,954.323150057292,0.00100000000020373
8,15,854.727272493094,0.00100000000020373
8,16,813.491177285816,0
8,17,662.10443290813,0.00100000000020373
8,18,992.143660785642,0.00100000000020373
8,19,1166.21110465011,0
8,20,1423.78729204816,0.00100000000020373
8,21,627.973500396391,0.00100000000020373
8,22,1083.15790744913,0
8,23,912.437656566291,0.00100000000020373
8,24,1012.97463023925,0.00100000000020373
8,25,936.968107167906,0
8,26,1172.37617636101,0.00100000000020373
8,27,1252.09254849457,0.00100000000020373
8,28,793.465232337517,0
8,29,735.288217439145,0.00100000000020373
8,30,716.002072541189,0.00100000000020373
9,1,1206.22465296187,0
9,2,801.508520242069,0
9,3,1284.21744143236,0.00100000000020373
9,4,1076.0476420716,0.00100000000020373
9,5,732.326644353587,0.0029999999969732
9,6,1191.34718615886,0.00100000000020373
9,7,980.757224559446,0
9,8,937.193218904119,0.00100000000020373
9,9,925.871421138108,0.00100000000020373
9,10,1352.93601578996,0
9,11,1156.02676628799,0.00100000000020373
9,12,888.207397523713,0.00100000000020373
9,13,1221.31247541921,0
9,14,1162.38962584616,0.00100000000020373
9,15,856.3042028979,0.00100000000020373
9,16,879.970260652876,0
9,17,920.342266532322,0.00100000000020373
9,18,992.184796590035,0.00100000000020373
9,19,1498.58606227213,0
9,20,1162.6096658942,0.00100000000020373
9,21,1033.13659708035,0.00100000000020373
9,22,1353.65504517607,0
9,23,1499.64854955697,0.00100000000020373
9,24,1062.24959498551,0.00100000000020373
9,25,1321.89015835739,0
9,26,1303.88007511917,0.00100000000020373
9,27,1350.26310211241,0.00100000000020373
9,28,1451.25368650964,0
9,29,1041.53700013937,0.00100000000020373
9,30,861.728883679397,0.00100000000020373
10,1,1491.86744913474,0
10,2,784.420706477072,0.000999999996565748
10,3,938.742010126898,0.00100000000020373
10,4,1003.99288577827,0
10,5,739.247541366036,0.00100000000020373
10,6,718.629435905949,0
10,7,690.30146823644,0
10,8,889.775820601154,0.00100000000020373
10,9,746.121856396483,0.00100000000020373
10,10,920.745651679371,0
10,11,966.116140522037,0.00100000000020373
10,12,855.718324919556,0.00100000000020373
10,13,782.341136436306,0
10,14,1011.25025283991,0.00100000000020373
10,15,776.808690000761,0.00100000000020373
10,16,681.799622868495,0
10,17,468.776057899611,0.00100000000020373
10,18,794.462766008587,0.00100000000020373
10,19,873.378451194683,0
10,20,1066.732523907,0.00100000000020373
10,21,613.691748563518,0.00100000000020373
10,22,945.79996612945,0
10,23,1013.4412621428,0.00100000000020373
10,24,610.526913462148,0.00100000000020373
10,25,867.180044962834,0
10,26,759.08296682893,0.00100000000020373
10,27,757.690230412062,0.00100000000020373
10,28,958.477956133029,0
10,29,681.608376793902,0.000999999996565748
10,30,574.864852564394,0.00100000000020373
11,1,1658.97753227799,0
11,2,960.049990178297,0.00100000000020373
11,3,1347.18234355663,0.00100000000020373
11,4,1236.24175995241,0
11,5,1015.36790184033,0.00100000000020373
11,6,762.631187682455,0.00100000000020373
11,7,995.435711106272,0
11,8,963.593289350459,0.00100000000020373
11,9,725.235638274002,0.00100000000020373
11,10,1192.17856433276,0
11,11,1317.69015694171,0.00100000000020373
11,12,1145.02571455998,0.00100000000020373
11,13,558.554456300512,0
11,14,1352.488009576,0.00100000000020373
11,15,1037.6798961762,0.00100000000020373
11,16,1222.98636228429,0
11,17,880.663990465635,0
11,18,970.215163483172,0.00100000000020373
11,19,1002.66769364597,0
11,20,971.754252197476,0
11,21,900.343634233033,0.00100000000020373
11,22,1341.87121057379,0.00100000000020373
11,23,1357.64462945637,0
11,24,609.657030993615,0.000999999996565748
11,25,1011.40897328451,0.00100000000020373
11,26,861.459112647298,0
11,27,566.39689671734,0.00100000000020373
11,28,1430.71492427731,0.00100000000020373
11,29,1175.68147892374,0
11,30,1078.39009075582,0.00100000000020373
12,1,1832.4212391629,0.00100000000020373
12,2,1143.07843609803,0
12,3,1372.26488813997,0.00400000000081491
12,4,1302.93559988743,0.00100000000020373
12,5,1161.48938064769,0
12,6,859.583598894093,0.00100000000020373
12,7,1126.37509471253,0.00100000000020373
12,8,1359.74114455723,0
12,9,850.155484564254,0.00100000000020373
12,10,1125.67495613776,0.00100000000020373
12,11,1346.0730890001,0
12,12,1293.25819659015,0.00100000000020373
12,13,1006.47836404917,0
12,14,1300.54442426557,0
12,15,1222.01168909031,0.00100000000020373
12,16,1250.85054400172,0
12,17,1019.0658675416,0.000999999996565748
12,18,1012.00290870846,0.00100000000020373
12,19,1157.47574174562,0
12,20,791.745186515451,0.00100000000020373
12,21,984.056010793284,0.00100000000020373
12,22,1543.51465184621,0
12,23,1552.02583518686,0.00100000000020373
12,24,951.899976529345,0.00100000000020373
12,25,1112.38465167426,0
12,26,884.385346800345,0.00100000000020373
12,27,905.669388601806,0.00100000000020373
12,28,1499.97293973938,0
12,29,1254.8926794313,0.00100000000020373
12,30,1212.99170061,0.00100000000020373
13,1,2233.20983716646,0
13,2,2366.20639849011,0.00100000000020373
13,3,2507.26934576409,0.00100000000020373
13,4,2499.03837109408,0
13,5,2317.01564237016,0.00100000000020373
13,6,2649.77435359706,0.00100000000020373
13,7,2883.25974988748,0
13,8,2671.3131197467,0.00100000000020373
13,9,2452.65999577512,0.00100000000020373
13,10,2614.92592102563,0
13,11,2941.75166032853,0.00100000000020373
13,12,2255.75529323028,0.00100000000020373
13,13,2511.91476626554,0
13,14,2792.75660963465,0.000999999996565748
13,15,2527.06001354236,0.00100000000020373
13,16,2829.82084911425,0
13,17,2690.67259570108,0.00100000000020373
13,18,2742.08365551959,0.00100000000020373
13,19,3171.55480587615,0
13,20,2494.52704439608,0.00100000000020373
13,21,2555.5104046539,0.00100000000020373
13,22,3229.44135584228,0
13,23,3245.21199792875,0.00100000000020373
13,24,2738.63272626066,0.00100000000020373
13,25,3085.86505634235,0
13,26,3175.86853220471,0.00100000000020373
13,27,3030.97507560243,0.00100000000020373
13,28,3250.49433465987,0
13,29,2953.30078236121,0.00100000000020373
13,30,2650.97683918009,0.00100000000020373
14,1,2779.03005629715,0
14,2,3093.74100372864,0.00100000000020373
14,3,3261.22339756138,0.00100000000020373
14,4,2826.0714747148,0
14,5,2933.0006947458,0
14,6,3201.09644390311,0.00100000000020373
14,7,3465.69767788745,0
14,8,3319.26078244133,0
14,9,3014.10847921051,0.00100000000020373
14,10,3455.13472531084,0.000999999996565748
14,11,3303.37568261762,0
14,12,3106.14771611229,0.00100000000020373
14,13,3253.6065669353,0.00100000000020373
14,14,3175.89257184771,0
14,15,3084.33148179024,0.00100000000020373
14,16,3460.27827776562,0.00100000000020373
14,17,3356.69020630553,0
14,18,3151.84076127624,0.00100000000020373
14,19,3788.17008813319,0.00100000000020373
14,20,2959.1152869915,0
14,21,3181.56112194766,0.00100000000020373
14,22,4036.15122992934,0.00100000000020373
14,23,3867.4717120068,0
14,24,3469.74710921797,0.00100000000020373
14,25,3605.33123043064,0.00100000000020373
14,26,3810.95471443442,0
14,27,3661.85267376719,0.00100000000020373
14,28,3972.69138679513,0.00100000000020373
14,29,3451.49853116973,0
14,30,3397.45081778938,0
15,1,3470.1926502817,0.00100000000020373
15,2,3832.27818679326,0.00300000000061118
15,3,3981.97098887015,0.000999999996565748
15,4,3722.01749622323,0.00100000000020373
15,5,3749.85454685578,0
15,6,4049.65321093427,0.00100000000020373
15,7,4232.41913307561,0.00100000000020373
15,8,4118.39307821697,0
15,9,3840.96826539363,0.00100000000020373
15,10,4146.990912256,0.00100000000020373
15,11,4194.67781824692,0
15,12,3825.6933769672,0.00100000000020373
15,13,4112.0553158217,0.00100000000020373
15,14,3937.51388742655,0
15,15,3872.27512377252,0.00100000000020373
15,16,4168.29482699975,0.00100000000020373
15,17,4170.75868923939,0
15,18,3996.73767772726,0.00100000000020373
15,19,4691.31524328118,0.00100000000020373
15,20,3841.98347011355,0
15,21,3977.92867650416,0.00100000000020373
15,22,4796.20636529673,0.00100000000020373
15,23,4681.18264697841,0
15,24,4280.51876834613,0.00100000000020373
15,25,4418.47601748894,0
15,26,4624.89464236012,0
15,27,4558.40537790305,0.00100000000020373
15,28,4672.60472494359,0
15,29,4281.43084713511,0
15,30,4113.97373691288,0.000999999996565748
16,1,3210.37007633937,0
16,2,3691.58854916126,0
16,3,3811.03126040921,0.00100000000020373
16,4,3501.70821842164,0
16,5,3536.46717463953,0.00100000000020373
16,6,3955.65461568012,0.00100000000020373
16,7,4047.45594236064,0
16,8,3896.59636456011,0.00100000000020373
16,9,3751.27717434395,0.00100000000020373
16,10,4091.80226339811,0
16,11,3930.8186060149,0.00100000000020373
16,12,3651.97160859932,0.00100000000020373
16,13,3976.6978047101,0
16,14,3745.98850963059,0
16,15,3672.41060748812,0.00100000000020373
16,16,3989.02589633045,0
16,17,3991.3609571235,0
16,18,3844.06335914418,0.00100000000020373
16,19,4500.66393917698,0
16,20,3814.68165672241,0
16,21,3819.23311937796,0.00100000000020373
16,22,4537.19682293862,0
16,23,4431.6898167548,0
16,24,4122.87378704302,0.00100000000020373
16,25,4270.40246623885,0.00100000000020373
16,26,4537.14430330367,0
16,27,4423.74230049669,0.000999999996565748
16,28,4459.0253717044,0.00100000000020373
16,29,4051.52433118913,0
16,30,3920.7518820816,0.00100000000020373
17,1,2780.54759100705,0.00100000000020373
17,2,2855.54131192387,0
17,3,2780.54265844517,0.00100000000020373
17,4,2718.71916844353,0.00100000000020373
17,5,2787.87945102739,0
17,6,2907.91223391473,0.00100000000020373
17,7,3235.21566702966,0.00100000000020373
17,8,3270.57389179639,0
17,9,2794.84077002113,0.00100000000020373
17,10,2907.31378616591,0.00100000000020373
17,11,3204.26237725565,0
17,12,2834.41469172632,0.00100000000020373
17,13,3027.18493659151,0.00100000000020373
17,14,2896.78863554237,0
17,15,2891.35970563501,0.00100000000020373
17,16,3116.61763045578,0.00100000000020373
17,17,3093.6466954704,0
17,18,2961.02121403154,0.00100000000020373
17,19,3553.22211213219,0.00100000000020373
17,20,2796.87031471773,0
17,21,2854.31475498685,0.00100000000020373
17,22,3775.28684438678,0.000999999996565748
17,23,3598.28779067002,0
17,24,3235.64399944752,0
17,25,3373.61305747094,0.00100000000020373
17,26,3558.71261268573,0
17,27,3502.13691067671,0
17,28,3570.3065633845,0.00100000000020373
17,29,3234.22894427409,0.00100000000020373
17,30,3064.59466266972,0
18,1,3642.49829007342,0.00100000000020373
18,2,4069.38705228162,0
18,3,4028.0695185242,0.00100000000020373
18,4,3841.84749260519,0.00100000000020373
18,5,3911.63805752741,0
18,6,4259.45557482972,0.00100000000020373
18,7,4445.00539554518,0.00100000000020373
18,8,4346.1511208225,0
18,9,4106.5451086785,0.00100000000020373
18,10,4316.91032913171,0.00100000000020373
18,11,4252.4395353778,0
18,12,4027.93368086937,0.00100000000020373
18,13,4326.26518615531,0.00100000000020373
18,14,4079.33220308873,0
18,15,4048.800395894,0.000999999996565748
18,16,4322.26130246767,0.00100000000020373
18,17,4315.34511767295,0
18,18,4198.09858813849,0.00100000000020373
18,19,4813.68796887217,0.00100000000020373
18,20,4119.40055633964,0
18,21,4129.0365867629,0.00100000000020373
18,22,4886.28638835522,0.00100000000020373
18,23,4731.2150591066,0
18,24,4487.09834997627,0.00100000000020373
18,25,4606.22171996486,0.00100000000020373
18,26,4898.27400399138,0
18,27,4790.87720347753,0.00100000000020373
18,28,4781.40785954566,0.00100000000020373
18,29,4381.10618934412,0
18,30,4262.28407776866,0.00100000000020373
19,1,3946.44784458807,0.00100000000020373
19,2,4343.86944765301,0
19,3,4583.22379782521,0.00100000000020373
19,4,4151.60164427694,0
19,5,4231.2055854369,0
19,6,4632.36133145199,0.00100000000020373
19,7,4690.83473141448,0
19,8,4635.76738641124,0
19,9,4389.77730221745,0.00100000000020373
19,10,4867.01001743931,0
19,11,4577.99500450242,0
19,12,4390.28263250431,0.000999999996565748
19,13,4725.22459679637,0.00100000000020373
19,14,4311.93192279583,0
19,15,4351.34374588375,0.00100000000020373
19,16,4582.8748483608,0.00100000000020373
19,17,4699.70837675032,0
19,18,4436.72021862178,0.00100000000020373
19,19,5220.64456492477,0.00100000000020373
19,20,4494.30636991414,0
19,21,4498.35951619724,0.00100000000020373
19,22,5237.17235432481,0.00100000000020373
19,23,5079.10862418025,0
19,24,4828.8118414391,0.00100000000020373
19,25,4969.28129866888,0.00100000000020373
19,26,5231.92227291573,0
19,27,5111.86625062095,0.00100000000020373
19,28,5115.20166843083,0.00100000000020373
19,29,4706.83946731066,0
19,30,4612.00023638076,0.00100000000020373
20,1,2629.28715098805,0.00100000000020373
20,2,2969.54504859601,0
20,3,3257.83124381872,0.00100000000020373
20,4,2824.77983199817,0.00100000000020373
20,5,2842.34136263112,0
20,6,3296.44169760529,0.00100000000020373
20,7,3358.12687654723,0.00100000000020373
20,8,3238.07801327869,0
20,9,3051.38897641589,0.000999999996565748
20,10,3510.41814306944,0.00100000000020373
20,11,3257.85630579883,0
20,12,2979.98084600073,0.00100000000020373
20,13,3342.14197142271,0.00100000000020373
20,14,3054.35645179967,0
20,15,3006.00309984131,0.00100000000020373
20,16,3231.90090179486,0.00100000000020373
20,17,3310.19556227956,0
20,18,3131.39506714885,0
20,19,3866.69582592379,0.00100000000020373
20,20,3133.00138843753,0
20,21,3163.86653770192,0
20,22,3855.84335308904,0.00100000000020373
20,23,3768.99901918071,0.00100000000020373
20,24,3458.90552022469,0
20,25,3640.77092983721,0.00100000000020373
20,26,3836.31763041919,0.00100000000020373
20,27,3728.82966074004,0
20,28,3806.90202595431,0.00100000000020373
20,29,3356.82558579794,0.00300000000061118
20,30,3235.18882799022,0.00100000000020373
21,1,1445.37723827503,0.000999999996565748
21,2,846.761064317372,0
21,3,861.149506125267,0
21,4,1130.62059710949,0.00100000000020373
21,5,914.968643730573,0
21,6,645.738613673885,0
21,7,921.481064716983,0.00100000000020373
21,8,991.899069760113,0
21,9,809.602700295284,0.00100000000020373
21,10,948.769074298229,0.00100000000020373
21,11,1129.48512618077,0
21,12,1102.46847528071,0.00100000000020373
21,13,690.13176264347,0.00100000000020373
21,14,1199.79595557425,0
21,15,878.680742833464,0.00100000000020373
21,16,952.305217734573,0.00100000000020373
21,17,538.421522994088,0
21,18,999.751137366582,0.00100000000020373
21,19,969.38804839935,0.00100000000020373
21,20,1234.86321193195,0
21,21,615.817077341526,0.00100000000020373
21,22,1033.53562034863,0.00100000000020373
21,23,939.221017688021,0
21,24,702.232833859622,0.00100000000020373
21,25,882.149347694869,0.00100000000020373
21,26,920.716295296913,0
21,27,729.849152547768,0.00100000000020373
21,28,1003.21586971348,0.000999999996565748
21,29,887.448316958204,0
21,30,717.743365854381,0.00100000000020373
22,1,1450.08184863509,0.00100000000020373
22,2,984.890241126397,0
22,3,1170.48625649939,0.00100000000020373
22,4,999.368633465126,0.00100000000020373
22,5,873.010806294548,0
22,6,686.075766308293,0.00100000000020373
22,7,815.18555683964,0.00100000000020373
22,8,808.008424092404,0
22,9,710.432286828076,0.00100000000020373
22,10,1135.74816010487,0.00100000000020373
22,11,952.369018117976,0
22,12,1132.99618211531,0.00100000000020373
22,13,789.100045441623,0.00100000000020373
22,14,1152.41969436641,0
22,15,848.69769927229,0.00100000000020373
22,16,1084.64823166312,0.00100000000020373
22,17,697.912221072084,0
22,18,766.282333733647,0.00100000000020373
22,19,854.922104307066,0.00100000000020373
22,20,850.695831086734,0
22,21,794.559540493407,0.00100000000020373
22,22,1198.14120283155,0.00100000000020373
22,23,1189.72887213301,0
22,24,632.487771386946,0.00100000000020373
22,25,740.644908710287,0.000999999996565748
22,26,702.632834304352,0
22,27,656.303790646761,0.00100000000020373
22,28,1263.61887279546,0.00100000000020373
22,29,858.56360527297,0
22,30,943.569713142329,0.00100000000020373
23,1,1401.22114706814,0.00100000000020373
23,2,1059.76720643924,0
23,3,1312.90633641234,0
23,4,1027.4235993136,0.00100000000020373
23,5,877.106760791142,0
23,6,1055.93369820367,0
23,7,620.567728484893,0.00100000000020373
23,8,677.828373436884,0.00100000000020373
23,9,958.835505408481,0
23,10,1392.7831489228,0.00100000000020373
23,11,800.917615639533,0.00100000000020373
23,12,1141.7132935154,0
23,13,1084.52141402695,0.00100000000020373
23,14,1060.63284026535,0.00100000000020373
23,15,800.453869058967,0
23,16,1017.10498522863,0.00100000000020373
23,17,793.371999172912,0.00100000000020373
23,18,798.333581535603,0
23,19,889.039358003032,0.00100000000020373
23,20,1241.69323008219,0.000999999996565748
23,21,910.498969026227,0
23,22,982.635895623687,0.00100000000020373
23,23,1126.37574367689,0.00100000000020373
23,24,697.919802203458,0
23,25,840.72296834113,0.00100000000020373
23,26,905.974976576957,0.00100000000020373
23,27,886.377616996642,0
23,28,1099.32854417849,0.00100000000020373
23,29,766.204467411583,0.00100000000020373
23,30,897.825590272074,0
24,1,1156.17550423565,0.00100000000020373
24,2,692.974497048377,0.00100000000020373
24,3,1193.72492139429,0
24,4,845.668683105662,0.00100000000020373
24,5,746.985424139853,0.00100000000020373
24,6,744.568403176769,0
24,7,642.660256301393,0.00100000000020373
24,8,686.864524120845,0.00100000000020373
24,9,632.912935519182,0
24,10,1366.1511198684,0.00100000000020373
24,11,933.678332556615,0
24,12,1135.38441022166,0
24,13,946.719989830426,0.000999999996565748
24,14,911.294555582221,0
24,15,563.188540821843,0
24,16,747.44339152519,0.00100000000020373
24,17,642.261545975071,0
24,18,668.910341107392,0
24,19,1210.50802938411,0.00100000000020373
24,20,1239.65420849162,0
24,21,685.107072597746,0.00100000000020373
24,22,1164.64158522837,0.00100000000020373
24,23,1022.40445050096,0
24,24,823.097167045005,0.00100000000020373
24,25,895.742667528688,0.00100000000020373
24,26,999.820868778409,0
24,27,888.029469765554,0.00100000000020373
24,28,1103.87291178295,0.00100000000020373
24,29,689.587201954018,0
24,30,719.204754939298,0.00100000000020373
25,1,1398.19501155391,0.00100000000020373
25,2,959.276616004891,0
25,3,730.572238276047,0.00100000000020373
25,4,1085.91219329276,0.00100000000020373
25,5,874.993091078352,0
25,6,913.726592868671,0.00100000000020373
25,7,688.805108782418,0.00100000000020373
25,8,905.596001853768,0
25,9,991.047018932818,0.00100000000020373
25,10,931.373888094604,0.000999999996565748
25,11,947.819519574865,0
25,12,1030.18713421808,0.00100000000020373
25,13,1026.2410514195,0.00100000000020373
25,14,982.035153997285,0
25,15,747.952484672455,0.00100000000020373
25,16,713.72019475814,0.00100000000020373
25,17,552.891794772424,0
25,18,941.565371627137,0.00100000000020373
25,19,972.527205868753,0.00100000000020373
25,20,1344.51074896513,0
25,21,647.408594368126,0.00100000000020373
25,22,803.860215888365,0.00100000000020373
25,23,885.696312160412,0
25,24,761.736449068241,0
25,25,814.7606825036,0.00100000000020373
25,26,948.166203734514,0
25,27,1066.10113906794,0
25,28,667.567745668999,0.00100000000020373
25,29,630.358300701477,0.00100000000020373
25,30,488.214407991269,0
26,1,1073.79172054815,0.00100000000020373
26,2,746.423542454717,0.00100000000020373
26,3,1194.70735842243,0
26,4,1027.91459148438,0.00100000000020373
26,5,684.747977417498,0.00100000000020373
26,6,1019.41050318736,0
26,7,605.909828037465,0.000999999996565748
26,8,531.604587487532,0.00100000000020373
26,9,841.971348993385,0
26,10,1367.87017918752,0.00100000000020373
26,11,1084.80946414433,0.00100000000020373
26,12,986.127836946321,0
26,13,948.704943471137,0.00100000000020373
26,14,1015.77826424329,0.00100000000020373
26,15,622.293852186238,0
26,16,936.905942092502,0.00100000000020373
26,17,796.267756628456,0.00100000000020373
26,18,879.022166504864,0
26,19,1217.61657422484,0.00100000000020373
26,20,1368.49771682336,0.00100000000020373
26,21,781.144115035616,0
26,22,1061.72859303683,0.00100000000020373
26,23,1143.77678564363,0.00100000000020373
26,24,697.266305431605,0
26,25,987.645460509631,0
26,26,1143.7118836915,0.00400000000081491
26,27,1034.7835920117,0
26,28,1065.50535411483,0.00100000000020373
26,29,938.967324745423,0.000999999996565748
26,30,726.607823602379,0
27,1,1821.09939614656,0.00100000000020373
27,2,972.220199060831,0.00100000000020373
27,3,1595.49516913369,0
27,4,1622.13784744195,0.00100000000020373
27,5,1320.76118895251,0.00100000000020373
27,6,1106.77342003077,0
27,7,1279.67982248723,0.00100000000020373
27,8,1189.07483833935,0.00100000000020373
27,9,971.879125408996,0
27,10,1489.7767181558,0.00100000000020373
27,11,1731.22368533149,0.00100000000020373
27,12,1285.40246244595,0
27,13,962.091377556704,0.00100000000020373
27,14,1673.87528566703,0.00100000000020373
27,15,1268.48682190015,0
27,16,1185.06646996726,0.00100000000020373
27,17,1146.64278928359,0.00100000000020373
27,18,1317.2737233067,0
27,19,1437.59032191846,0.00100000000020373
27,20,1441.78164961699,0
27,21,1250.45344615688,0
27,22,1399.36839242313,0.00100000000020373
27,23,1406.71559350377,0
27,24,969.256873994517,0
27,25,1417.78198839351,0.00100000000020373
27,26,1156.55869842543,0
27,27,958.395566722245,0
27,28,1511.8693853225,0.00100000000020373
27,29,1393.59720414452,0
27,30,1168.75449413811,0.00100000000020373
28,1,1561.86771421362,0.00100000000020373
28,2,1232.07021672113,0
28,3,569.024134356157,0.00100000000020373
28,4,1164.49128331075,0.00100000000020373
28,5,1077.33693724739,0
28,6,887.2874478054,0.00100000000020373
28,7,996.673805963497,0.00100000000020373
28,8,1202.4052721735,0
28,9,1116.90813105763,0
28,10,692.269574136106,0.00100000000020373
28,11,1015.35758490681,0
28,12,1258.49566155588,0
28,13,1044.53792678435,0.00100000000020373
28,14,1144.98040535367,0.00100000000020373
28,15,980.575229024695,0
28,16,1126.37782723463,0.00100000000020373
28,17,738.849605805837,0.00100000000020373
28,18,1086.4189433691,0
28,19,953.994937099667,0.00100000000020373
28,20,1275.87289408917,0.00100000000020373
28,21,737.044537256217,0
28,22,1184.97892413914,0.00100000000020373
28,23,1133.50038454,0.000999999996565748
28,24,935.705352621017,0
28,25,816.239805679294,0.00100000000020373
28,26,1098.12496275145,0.00100000000020373
28,27,1179.61032233247,0
28,28,1032.35679916593,0.00100000000020373
28,29,894.262036992063,0.00100000000020373
28,30,898.848703368186,0
29,1,1601.66236120122,0.00100000000020373
29,2,1160.57728524784,0.00100000000020373
29,3,1485.08627125351,0
29,4,964.606977688292,0.00100000000020373
29,5,962.106042987548,0.00100000000020373
29,6,960.625457701493,0
29,7,975.013945764948,0.00100000000020373
29,8,1019.175572863,0.00100000000020373
29,9,909.235722590399,0
29,10,1485.35261502325,0.00100000000020373
29,11,873.839924146335,0.00100000000020373
29,12,1330.56620497962,0
29,13,1097.08088512426,0.00100000000020373
29,14,1167.01160672283,0.00100000000020373
29,15,1026.03972616293,0
29,16,1224.79313330225,0.00100000000020373
29,17,928.040019356906,0.00100000000020373
29,18,802.678216261682,0
29,19,995.630834387908,0
29,20,964.288444857232,0.00100000000020373
29,21,1016.08944983359,0.00100000000020373
29,22,1411.65398444677,0
29,23,1362.74649685053,0.00100000000020373
29,24,928.674246786004,0.00300000000061118
29,25,1002.12552375857,0.00100000000020373
29,26,946.388931818873,0.00100000000020373
29,27,845.842001145685,0
29,28,1485.34688701093,0.00100000000020373
29,29,972.211524326561,0.00100000000020373
29,30,1190.85179956095,0
30,1,1950.21841790636,0.00100000000020373
30,2,1420.41001519323,0.00100000000020373
30,3,1571.84671910602,0
30,4,1493.1857036313,0.00100000000020373
30,5,1307.65741795301,0.00100000000020373
30,6,1265.59572882729,0
30,7,981.212739543919,0.00100000000020373
30,8,1066.29023252507,0.00100000000020373
30,9,1255.9064931261,0
30,10,1502.84630368502,0.00100000000020373
30,11,1333.55624670001,0.000999999996565748
30,12,1383.03070175241,0
30,13,1134.14586075289,0.00100000000020373
30,14,1487.74429015158,0.00100000000020373
30,15,1291.37655393619,0
30,16,1408.36864290576,0.00100000000020373
30,17,1155.63852588564,0.00100000000020373
30,18,1189.82120585449,0
30,19,770.527028064071,0.00100000000020373
30,20,1431.4900300335,0.00100000000020373
30,21,1215.03699672625,0
30,22,1077.38310622462,0.00100000000020373
30,23,1304.77040663877,0.00100000000020373
30,24,802.872094592346,0
30,25,1098.20175369656,0.00100000000020373
30,26,919.203435637897,0.00100000000020373
30,27,882.923717985482,0
30,28,1257.19629421015,0.00100000000020373
30,29,1246.51196151508,0
30,30,1272.7957275859,0
