"Before.Trace.ID1","Before.Trace.ID2","Difference","Runtime"
1,2,0.511529991921081,0.00200000000768341
1,3,0.520136993712072,0.0019999999931315
1,4,0.109677560918287,0.00200000000768341
1,5,0.151191654669372,0.0019999999931315
1,6,0.543615610324293,0.00200000000768341
1,7,0.131620739268709,0.00099999998928979
1,8,0.158860816249018,0.00100000000384171
1,9,0.0981193633556871,0.0019999999931315
1,10,0.296679020091429,0.00200000000768341
1,11,0.312318642933071,0.0019999999931315
1,12,0.178214902194673,0.00200000000768341
1,13,0.219056783442832,0.0019999999931315
1,14,0.107527068261205,0.00200000000768341
1,15,0.155037324731576,0.0079999999870779
1,16,0.192237060416984,0.00200000000768341
1,17,0.125858743825251,0.0019999999931315
1,18,0.254340613090719,0.00200000000768341
1,19,0.680869451450975,0.0019999999931315
1,20,0.178191377821999,0.00200000000768341
1,21,0.315253874632221,0.0019999999931315
1,22,0.328388717180523,0.00200000000768341
1,23,0.772411485218487,0.0019999999931315
1,24,0.100884016298619,0.00200000000768341
1,25,0.154509810899096,0.00099999998928979
1,26,0.135696313077061,0.00100000000384171
1,27,0.15810795902985,0.0019999999931315
1,28,0.175457729914437,0.00200000000768341
1,29,0.191905501011737,0.0019999999931315
1,30,0.163478497246549,0.00200000000768341
2,3,0.210505417012465,0.0019999999931315
2,4,0.420803257988132,0.00200000000768341
2,5,0.370086242461149,0.0019999999931315
2,6,0.216239688174999,0.00200000000768341
2,7,0.416485069114758,0.0019999999931315
2,8,0.383565175844203,0.00200000000768341
2,9,0.428313127604435,0.0019999999931315
2,10,0.244364312472178,0.00200000000768341
2,11,0.274733078853927,0.0019999999931315
2,12,0.340793087229002,0.0019999999931315
2,13,0.305502717918449,0.00200000000768341
2,14,0.418579838435064,0.00099999998928979
2,15,0.370403762992546,0.00100000000384171
2,16,0.331628401185183,0.0019999999931315
2,17,0.40116441884108,0.00200000000768341
2,18,0.289395925421325,0.0019999999931315
2,19,0.203569759835716,0.00200000000768341
2,20,0.384534212226951,0.0029999999969732
2,21,0.222878246043171,0.00200000000768341
2,22,0.19598322653543,0.0019999999931315
2,23,0.339533578608394,0.0019999999931315
2,24,0.424112729350839,0.00200000000768341
2,25,0.374435870513638,0.0019999999931315
2,26,0.391639852297131,0.00200000000768341
2,27,0.365917464870222,0.0019999999931315
2,28,0.356328768206611,0.00200000000768341
2,29,0.350067508878088,0.0029999999969732
2,30,0.363166532527959,0.00100000000384171
3,4,0.441235560096887,0.0019999999931315
3,5,0.398952390966754,0.0019999999931315
3,6,0.338839845124294,0.00200000000768341
3,7,0.444288221935898,0.0019999999931315
3,8,0.413697442128892,0.00200000000768341
3,9,0.447799002818179,0.0019999999931315
3,10,0.28664807515251,0.00200000000768341
3,11,0.338829527819334,0.00999999999476131
3,12,0.368929259356496,0.0019999999931315
3,13,0.333401627118172,0.00300000001152512
3,14,0.439639601930643,0.0019999999931315
3,15,0.399637868111407,0.00200000000768341
3,16,0.368676901996642,0.0019999999931315
3,17,0.42510146014165,0.0019999999931315
3,18,0.335295116924894,0.00300000001152512
3,19,0.329837362714844,0.0019999999931315
3,20,0.420368280791875,0.0029999999969732
3,21,0.289520287131099,0.00200000000768341
3,22,0.255592483440851,0.0019999999931315
3,23,0.392045004062799,0.00300000001152512
3,24,0.444180245796271,0.0019999999931315
3,25,0.394042551100495,0.0019999999931315
3,26,0.408785269142684,0.00300000001152512
3,27,0.391886704830995,0.0019999999931315
3,28,0.38481437980001,0.00200000000768341
3,29,0.373052033979106,0.0029999999969732
3,30,0.393575199606542,0.0019999999931315
4,5,0.0694077911464077,0.00100000000384171
4,6,0.460382909424404,0.00100000000384171
4,7,0.0950483617286361,0.0019999999931315
4,8,0.0927021038432627,0.0019999999931315
4,9,0.0498287373774536,0.00200000000768341
4,10,0.2002450018416,0.0019999999931315
4,11,0.238650198321247,0.00200000000768341
4,12,0.103626425363228,0.0019999999931315
4,13,0.155278553211502,0.00200000000768341
4,14,0.053062505809424,0.0019999999931315
4,15,0.075384109804384,0.00200000000768341
4,16,0.107230463723198,0.00099999998928979
4,17,0.0589043876676695,0.00200000000768341
4,18,0.166297122879561,0.0019999999931315
4,19,0.592228509988031,0.00200000000768341
4,20,0.122461630325719,0.0019999999931315
4,21,0.233533396943507,0.00200000000768341
4,22,0.243668184377451,0.0019999999931315
4,23,0.691731252602302,0.00200000000768341
4,24,0.0490446311260773,0.0019999999931315
4,25,0.101899286838796,0.00200000000768341
4,26,0.0705974526604195,0.0019999999931315
4,27,0.095200613706692,0.00200000000768341
4,28,0.0905537196943795,0.0019999999931315
4,29,0.121560718288627,0.00200000000768341
4,30,0.0628308474461583,0.0019999999931315
5,6,0.410443137280692,0.00200000000768341
5,7,0.105278482150176,0.0089999999909196
5,8,0.0945207562881041,0.00200000000768341
5,9,0.0602795859468982,0.00099999998928979
5,10,0.17030742033844,0.00100000000384171
5,11,0.200763763375395,0.0029999999969732
5,12,0.0739125732336448,0.00100000000384171
5,13,0.109237484269998,0.00099999998928979
5,14,0.0503194261189263,0.00200000000768341
5,15,0.0133929613014252,0.0019999999931315
5,16,0.0440044631022265,0.00200000000768341
5,17,0.0337990858017252,0.00099999998928979
5,18,0.143351092084693,0.00100000000384171
5,19,0.537906766302568,0.0019999999931315
5,20,0.107484276364835,0.00200000000768341
5,21,0.187935406825023,0.00099999998928979
5,22,0.196978405967656,0.00200000000768341
5,23,0.642245067847688,0.0019999999931315
5,24,0.0558018130149167,0.00100000000384171
5,25,0.0903822738091544,0.0019999999931315
5,26,0.0696767139333825,0.00200000000768341
5,27,0.069144758153386,0.0019999999931315
5,28,0.0825297968469305,0.00200000000768341
5,29,0.0959305263893247,0.0019999999931315
5,30,0.0460291359767934,0.00200000000768341
6,7,0.433017471635009,0.0019999999931315
6,8,0.41066799613673,0.00200000000768341
6,9,0.464183384275902,0.0019999999931315
6,10,0.338214066798056,0.0019999999931315
6,11,0.351928146118068,0.00200000000768341
6,12,0.404403953822577,0.0019999999931315
6,13,0.375468794760576,0.00200000000768341
6,14,0.454805843855738,0.0019999999931315
6,15,0.410146417351435,0.00200000000768341
6,16,0.375025412677091,0.0019999999931315
6,17,0.438450172196038,0.00200000000768341
6,18,0.355943223691607,0.0019999999931315
6,19,0.245626708707563,0.00200000000768341
6,20,0.441353122820256,0.0029999999969732
6,21,0.292721984952144,0.0019999999931315
6,22,0.311612059124112,0.00200000000768341
6,23,0.440560017219319,0.0019999999931315
6,24,0.460264486773384,0.00200000000768341
6,25,0.432859805381418,0.0019999999931315
6,26,0.43429160192642,0.00200000000768341
6,27,0.426553832155996,0.0019999999931315
6,28,0.415594753665797,0.00200000000768341
6,29,0.384487168456279,0.00200000000768341
6,30,0.407143251432543,0.0019999999931315
7,8,0.0498923277839779,0.00200000000768341
7,9,0.097055637370912,0.0019999999931315
7,10,0.217582183586942,0.00200000000768341
7,11,0.230598539617844,0.0019999999931315
7,12,0.106711668363809,0.00900000000547152
7,13,0.14851419500254,0.0019999999931315
7,14,0.0970295555574423,0.00200000000768341
7,15,0.109733977465966,0.0019999999931315
7,16,0.13116796219629,0.00200000000768341
7,17,0.100445674281014,0.0019999999931315
7,18,0.171891700584998,0.00200000000768341
7,19,0.581798576349573,0.0019999999931315
7,20,0.1481004732669,0.0029999999969732
7,21,0.218372049851202,0.00200000000768341
7,22,0.242465671595067,0.0019999999931315
7,23,0.696082248566198,0.00200000000768341
7,24,0.0958592500113538,0.0019999999931315
7,25,0.0895894048747184,0.00200000000768341
7,26,0.0885440260618563,0.0019999999931315
7,27,0.101485297992407,0.00200000000768341
7,28,0.11005609871966,0.0019999999931315
7,29,0.114308726786917,0.0019999999931315
7,30,0.110250993916643,0.00200000000768341
8,9,0.104002353043362,0.00100000000384171
8,10,0.186028707794893,0.00200000000768341
8,11,0.205787043748204,0.0019999999931315
8,12,0.0827801949900015,0.00200000000768341
8,13,0.131323650729913,0.0019999999931315
8,14,0.102031891892519,0.00200000000768341
8,15,0.0994466857424719,0.0019999999931315
8,16,0.113094627268775,0.00200000000768341
8,17,0.0994613918911444,0.0019999999931315
8,18,0.132202343789792,0.00200000000768341
8,19,0.554854605735094,0.0019999999931315
8,20,0.135857988626474,0.00200000000768341
8,21,0.191225903860803,0.0019999999931315
8,22,0.211005164104915,0.0019999999931315
8,23,0.66621654702387,0.00200000000768341
8,24,0.102008340303773,0.0019999999931315
8,25,0.0783285767254459,0.00200000000768341
8,26,0.084226871458059,0.0019999999931315
8,27,0.0853066011638888,0.00200000000768341
8,28,0.0883288816599622,0.0019999999931315
8,29,0.0952371004541816,0.00200000000768341
8,30,0.09156222410646,0.0019999999931315
9,10,0.219684361819989,0.0019999999931315
9,11,0.240636529107797,0.00200000000768341
9,12,0.107934659164804,0.0019999999931315
9,13,0.15136889861566,0.00200000000768341
9,14,0.0145989858685819,0.0019999999931315
9,15,0.0621753957242118,0.00200000000768341
9,16,0.102882508043365,0.00100000000384171
9,17,0.0314287939993115,0.00100000000384171
9,18,0.187511788104103,0.00900000000547152
9,19,0.595211053140288,0.0019999999931315
9,20,0.119691262627392,0.00200000000768341
9,21,0.239667791847978,0.0019999999931315
9,22,0.250176684106173,0.00200000000768341
9,23,0.695293855168697,0.0019999999931315
9,24,0.00499878800520043,0.0019999999931315
9,25,0.101854701939898,0.00200000000768341
9,26,0.0758501116829878,0.0019999999931315
9,27,0.0910221934913546,0.00200000000768341
9,28,0.110070428830107,0.0019999999931315
9,29,0.126826428637961,0.00200000000768341
9,30,0.084442794753333,0.0019999999931315
10,11,0.169655349586414,0.00200000000768341
10,12,0.138269534831834,0.0019999999931315
10,13,0.127105175311521,0.00200000000768341
10,14,0.211928897520796,0.0019999999931315
10,15,0.172439306103309,0.00200000000768341
10,16,0.144701732090947,0.0019999999931315
10,17,0.197617019049186,0.00200000000768341
10,18,0.12316568433005,0.0019999999931315
10,19,0.42573761778606,0.00200000000768341
10,20,0.1921279125661,0.0019999999931315
10,21,0.134208522753344,0.00200000000768341
10,22,0.0896054145374944,0.0019999999931315
10,23,0.525763373203587,0.0019999999931315
10,24,0.215973970851195,0.00200000000768341
10,25,0.170194988194647,0.0019999999931315
10,26,0.180172675854325,0.00200000000768341
10,27,0.166516859300158,0.0019999999931315
10,28,0.139344629614831,0.00200000000768341
10,29,0.164818588921929,0.0019999999931315
10,30,0.149912407100952,0.0019999999931315
11,12,0.16798691661842,0.00200000000768341
11,13,0.162890636179703,0.0019999999931315
11,14,0.233621463352523,0.00200000000768341
11,15,0.201134460573755,0.0019999999931315
11,16,0.181224935119462,0.00200000000768341
11,17,0.221189732150315,0.0019999999931315
11,18,0.17076361054093,0.00200000000768341
11,19,0.431048361470362,0.0019999999931315
11,20,0.206993369188436,0.0029999999969732
11,21,0.145496837812453,0.00200000000768341
11,22,0.14998327019108,0.0019999999931315
11,23,0.57158455128665,0.0029999999969732
11,24,0.237564448245136,0.00200000000768341
11,25,0.189487484193469,0.0019999999931315
11,26,0.217303059503999,0.00900000000547152
11,27,0.185139314073888,0.0029999999969732
11,28,0.186351937023462,0.00200000000768341
11,29,0.208112227731067,0.0019999999931315
11,30,0.201314066526714,0.00200000000768341
12,13,0.0660880744768516,0.0019999999931315
12,14,0.100912166220748,0.00099999998928979
12,15,0.0779018263583595,0.00200000000768341
12,16,0.0772225649099092,0.0019999999931315
12,17,0.0912240332805078,0.00200000000768341
12,18,0.108515250871194,0.0019999999931315
12,19,0.517854393867224,0.00200000000768341
12,20,0.11115277613103,0.0029999999969732
12,21,0.152929610500574,0.00200000000768341
12,22,0.15358772882724,0.0019999999931315
12,23,0.617920163547663,0.0019999999931315
12,24,0.104301679452736,0.00200000000768341
12,25,0.043110649898377,0.0019999999931315
12,26,0.0777730670486299,0.00200000000768341
12,27,0.0337944614525152,0.0019999999931315
12,28,0.0531777871491721,0.00200000000768341
12,29,0.0925420018309683,0.0019999999931315
12,30,0.0758563051096743,0.00200000000768341
13,14,0.141725159295771,0.0019999999931315
13,15,0.110146151042147,0.00200000000768341
13,16,0.0924997321283686,0.0019999999931315
13,17,0.129779058128196,0.00200000000768341
13,18,0.1246891074213,0.0019999999931315
13,19,0.481791373289539,0.00200000000768341
13,20,0.137549998500814,0.0019999999931315
13,21,0.136615483151211,0.00200000000768341
13,22,0.121459474298628,0.0019999999931315
13,23,0.57605384092035,0.0029999999969732
13,24,0.147228202881364,0.00100000000384171
13,25,0.0849828750916472,0.0019999999931315
13,26,0.114928854247624,0.00200000000768341
13,27,0.0839180188508481,0.0019999999931315
13,28,0.0970997571224332,0.00200000000768341
13,29,0.1116660241387,0.0019999999931315
13,30,0.116733375554196,0.00200000000768341
14,15,0.0504302558973008,0.0019999999931315
14,16,0.0911758272926448,0.00100000000384171
14,17,0.0188929660597949,0.00100000000384171
14,18,0.179618937636523,0.00200000000768341
14,19,0.585765145763339,0.0019999999931315
14,20,0.115644524999294,0.00200000000768341
14,21,0.230697733095636,0.0019999999931315
14,22,0.240864325660141,0.00200000000768341
14,23,0.686279624101433,0.0089999999909196
14,24,0.0106686072858016,0.00200000000768341
14,25,0.0972418490862892,0.0019999999931315
14,26,0.0708658151582316,0.00200000000768341
14,27,0.0835285934949353,0.0019999999931315
14,28,0.102109711262523,0.00200000000768341
14,29,0.119482190165424,0.0019999999931315
14,30,0.0764459381546777,0.00200000000768341
15,16,0.0413587030431886,0.00099999998928979
15,17,0.0319499771364796,0.00200000000768341
15,18,0.146390226176066,0.0019999999931315
15,19,0.537600850383122,0.00200000000768341
15,20,0.108715976885533,0.0019999999931315
15,21,0.189339332029573,0.00200000000768341
15,22,0.197759709525893,0.0019999999931315
15,23,0.642201501426357,0.00200000000768341
15,24,0.0577860938632979,0.0019999999931315
15,25,0.0937582669020047,0.0019999999931315
15,26,0.0728792398641723,0.00200000000768341
15,27,0.0708306992125139,0.0019999999931315
15,28,0.0838182585894578,0.00200000000768341
15,29,0.0979630842767459,0.0019999999931315
15,30,0.0505461616986896,0.00100000000384171
16,17,0.0730821018727156,0.00200000000768341
16,18,0.124505402234695,0.0019999999931315
16,19,0.499689435896132,0.00200000000768341
16,20,0.118809797663594,0.0019999999931315
16,21,0.157920399338653,0.0019999999931315
16,22,0.164629594660968,0.00200000000768341
16,23,0.607220220860105,0.0019999999931315
16,24,0.0983311999458644,0.00200000000768341
16,25,0.106189735221932,0.0019999999931315
16,26,0.0934498744542112,0.00200000000768341
16,27,0.0816544006026532,0.0019999999931315
16,28,0.0859825325195257,0.00200000000768341
16,29,0.0945657640554839,0.0019999999931315
16,30,0.0574015783708948,0.00100000000384171
17,18,0.167590284780605,0.0019999999931315
17,19,0.568076582566957,0.00200000000768341
17,20,0.111039289315886,0.0019999999931315
17,21,0.215781624846462,0.00200000000768341
17,22,0.225272703855397,0.0019999999931315
17,23,0.670177804673631,0.00200000000768341
17,24,0.0272319363786299,0.0019999999931315
17,25,0.0943884147720216,0.00200000000768341
17,26,0.0689059848229066,0.0019999999931315
17,27,0.0764361007814196,0.00200000000768341
17,28,0.0939503781760938,0.0019999999931315
17,29,0.110474537238473,0.00200000000768341
17,30,0.0650611316892523,0.0019999999931315
18,19,0.474006438113617,0.00200000000768341
18,20,0.169227425954448,0.0019999999931315
18,21,0.128693946889988,0.00200000000768341
18,22,0.138262234273766,0.0019999999931315
18,23,0.573668698465018,0.0029999999969732
18,24,0.183631658616922,0.00800000000162981
18,25,0.138009849175333,0.0019999999931315
18,26,0.148947118881814,0.00200000000768341
18,27,0.127996882583949,0.0019999999931315
18,28,0.102946367617481,0.00200000000768341
18,29,0.125935497980504,0.0019999999931315
18,30,0.119695954438148,0.00200000000768341
19,20,0.555447929192441,0.0019999999931315
19,21,0.387157561141732,0.00200000000768341
19,22,0.383031037627806,0.0019999999931315
19,23,0.287969572891127,0.0019999999931315
19,24,0.591242114914853,0.00200000000768341
19,25,0.550377069096908,0.0019999999931315
19,26,0.563769696720145,0.00200000000768341
19,27,0.542611334224834,0.0019999999931315
19,28,0.534501471258266,0.00200000000768341
19,29,0.521404754868159,0.0019999999931315
19,30,0.535948997619032,0.00200000000768341
20,21,0.204076491949322,0.0019999999931315
20,22,0.212453600618664,0.00200000000768341
20,23,0.649268649258709,0.00200000000768341
20,24,0.117687377815321,0.0019999999931315
20,25,0.115350104248334,0.0029999999969732
20,26,0.104089070215227,0.00200000000768341
20,27,0.107277301055221,0.0019999999931315
20,28,0.120397772460385,0.00200000000768341
20,29,0.153589304645316,0.0019999999931315
20,30,0.114905391618572,0.0029999999969732
21,22,0.101202473096747,0.00200000000768341
21,23,0.503604497752713,0.0019999999931315
21,24,0.235617580118303,0.00200000000768341
21,25,0.1817327433671,0.0019999999931315
21,26,0.194237042573385,0.00200000000768341
21,27,0.176294740968728,0.0019999999931315
21,28,0.171022041597651,0.00200000000768341
21,29,0.168340703560441,0.0029999999969732
21,30,0.183360767128976,0.0019999999931315
22,23,0.487881557733792,0.00200000000768341
22,24,0.246096914148092,0.0019999999931315
22,25,0.185889601611482,0.00200000000768341
22,26,0.212467678524968,0.0019999999931315
22,27,0.178001390204669,0.00200000000768341
22,28,0.174351442444882,0.0089999999909196
22,29,0.184960605490748,0.00200000000768341
22,30,0.191379660917221,0.0019999999931315
23,24,0.691466568999503,0.00200000000768341
23,25,0.645840931995976,0.0029999999969732
23,26,0.655685176803745,0.0019999999931315
23,27,0.64195709197244,0.00200000000768341
23,28,0.633912303909887,0.0019999999931315
23,29,0.614911013849827,0.0029999999969732
23,30,0.639388653164612,0.00200000000768341
24,25,0.0991915954504042,0.0019999999931315
24,26,0.0730429356337459,0.00200000000768341
24,27,0.0876100819585768,0.0019999999931315
24,28,0.106541264161214,0.00200000000768341
24,29,0.123386784161823,0.0019999999931315
24,30,0.0804578589254458,0.00100000000384171
25,26,0.0710857592372183,0.00200000000768341
25,27,0.0420106212569308,0.0019999999931315
25,28,0.0679377854231676,0.0019999999931315
25,29,0.103056279687659,0.00200000000768341
25,30,0.0961870477455544,0.0019999999931315
26,27,0.0742143160843381,0.00200000000768341
26,28,0.0746009029415359,0.0019999999931315
26,29,0.0943980642137208,0.00200000000768341
26,30,0.0707876939300066,0.0019999999931315
27,28,0.060172129885315,0.00200000000768341
27,29,0.0995644670443308,0.0019999999931315
27,30,0.0792508375219517,0.0019999999931315
28,29,0.0979076216899127,0.00200000000768341
28,30,0.0590498405706022,0.0019999999931315
29,30,0.0936032080368292,0.00200000000768341


"After.Trace.ID","Before.Trace.ID","Difference","Runtime"
1,1,0.282891815052636,0.00200000000768341
1,2,0.296498213788044,0.0019999999931315
1,3,0.363175135576299,0.00200000000768341
1,4,0.212093858072282,0.0019999999931315
1,5,0.179082979833587,0.00200000000768341
1,6,0.3276584993569,0.0019999999931315
1,7,0.180567578604752,0.0019999999931315
1,8,0.162477684163286,0.00200000000768341
1,9,0.217566126969884,0.0019999999931315
1,10,0.173429276570675,0.00200000000768341
1,11,0.16092292382772,0.0019999999931315
1,12,0.150529328208921,0.0019999999931315
1,13,0.148611616130734,0.00200000000768341
1,14,0.209105690456352,0.0019999999931315
1,15,0.178775854870793,0.00200000000768341
1,16,0.15982927003475,0.0019999999931315
1,17,0.197606500100105,0.00200000000768341
1,18,0.138642235440248,0.0019999999931315
1,19,0.449852995001632,0.00200000000768341
1,20,0.191455023392404,0.0029999999969732
1,21,0.121382221156024,0.0019999999931315
1,22,0.169141838988576,0.00200000000768341
1,23,0.58298732961774,0.0029999999969732
1,24,0.214087387570504,0.0019999999931315
1,25,0.166429758825917,0.00200000000768341
1,26,0.179561513439239,0.0019999999931315
1,27,0.167274106570523,0.00200000000768341
1,28,0.153454442459775,0.0019999999931315
1,29,0.187915690311127,0.00300000001152512
1,30,0.173242525970358,0.0019999999931315
2,1,0.316894940393049,0.0019999999931315
2,2,0.215053403726807,0.00200000000768341
2,3,0.255771415969511,0.0019999999931315
2,4,0.238981014227679,0.00200000000768341
2,5,0.191482508218904,0.0019999999931315
2,6,0.30615866339559,0.00200000000768341
2,7,0.237231128543687,0.0019999999931315
2,8,0.206191685085696,0.00200000000768341
2,9,0.243145372069283,0.0019999999931315
2,10,0.113496512162693,0.00900000000547152
2,11,0.174899601766969,0.0019999999931315
2,12,0.15816372022042,0.00200000000768341
2,13,0.113577359390109,0.0019999999931315
2,14,0.233435889289851,0.00100000000384171
2,15,0.192217040351958,0.00099999998928979
2,16,0.160215558614072,0.00200000000768341
2,17,0.218549499852474,0.0019999999931315
2,18,0.13392847718122,0.00200000000768341
2,19,0.401029984136949,0.0019999999931315
2,20,0.209822138285977,0.0029999999969732
2,21,0.127843284009521,0.00200000000768341
2,22,0.0823041495584077,0.0019999999931315
2,23,0.485208189150684,0.00200000000768341
2,24,0.238938280274506,0.0019999999931315
2,25,0.184902328291526,0.00200000000768341
2,26,0.202655622128838,0.0019999999931315
2,27,0.182127336167852,0.00200000000768341
2,28,0.177019506757075,0.0019999999931315
2,29,0.172739264184162,0.00200000000768341
2,30,0.18808318849003,0.00100000000384171
3,1,0.156891635459332,0.00100000000384171
3,2,0.362153544374083,0.0019999999931315
3,3,0.392398223583728,0.0019999999931315
3,4,0.0794567080405225,0.00200000000768341
3,5,0.0220564692575133,0.0019999999931315
3,6,0.403157593989477,0.00200000000768341
3,7,0.107387367560128,0.0019999999931315
3,8,0.0975633098632605,0.00200000000768341
3,9,0.0736088461784154,0.00100000000384171
3,10,0.165352038753658,0.0019999999931315
3,11,0.197888634690054,0.00200000000768341
3,12,0.0703271071391274,0.0019999999931315
3,13,0.0980256695994542,0.0019999999931315
3,14,0.0620378774409244,0.00200000000768341
3,15,0.0250747046148778,0.0019999999931315
3,16,0.036654133131767,0.00100000000384171
3,17,0.0470181102859951,0.00100000000384171
3,18,0.13486013894919,0.0019999999931315
3,19,0.531546013955714,0.00200000000768341
3,20,0.109544993051345,0.0019999999931315
3,21,0.179774501455536,0.00200000000768341
3,22,0.189013799069792,0.0019999999931315
3,23,0.635044612783916,0.0019999999931315
3,24,0.0686941690881477,0.00200000000768341
3,25,0.0882569920923882,0.0019999999931315
3,26,0.0699372340633013,0.00200000000768341
3,27,0.0662431654150685,0.0019999999931315
3,28,0.0768241775746291,0.00200000000768341
3,29,0.0906775783693518,0.0019999999931315
3,30,0.0451676119920812,0.00200000000768341
4,1,0.263507966131967,0.0019999999931315
4,2,0.258024517595703,0.00900000000547152
4,3,0.298258208469437,0.0019999999931315
4,4,0.183304232356344,0.00200000000768341
4,5,0.138592118661053,0.0019999999931315
4,6,0.333409800343532,0.00200000000768341
4,7,0.177949022749068,0.0019999999931315
4,8,0.143668851543249,0.00200000000768341
4,9,0.188085515832118,0.0019999999931315
4,10,0.104722217341724,0.00200000000768341
4,11,0.145552026920735,0.0029999999969732
4,12,0.0965277862469647,0.0019999999931315
4,13,0.0727711027615599,0.00200000000768341
4,14,0.178881279123034,0.0019999999931315
4,15,0.139707692996752,0.00100000000384171
4,16,0.112310241626309,0.00099999998928979
4,17,0.164515181715678,0.00200000000768341
4,18,0.0836835550380071,0.0019999999931315
4,19,0.440610616665074,0.00200000000768341
4,20,0.162433465728669,0.0029999999969732
4,21,0.10348164745548,0.00200000000768341
4,22,0.0896799658922774,0.0019999999931315
4,23,0.536536441330065,0.00200000000768341
4,24,0.184024988853279,0.0019999999931315
4,25,0.125484292281937,0.0019999999931315
4,26,0.148766514979779,0.00200000000768341
4,27,0.121322278839034,0.0019999999931315
4,28,0.11847152509821,0.00200000000768341
4,29,0.12324779422844,0.0019999999931315
4,30,0.135363821725309,0.00200000000768341
5,1,0.127657315643427,0.0019999999931315
5,2,0.399017779350213,0.00200000000768341
5,3,0.423303327318793,0.0019999999931315
5,4,0.0603735601704856,0.00200000000768341
5,5,0.032165666492904,0.0019999999931315
5,6,0.436423997639891,0.00200000000768341
5,7,0.100639142127252,0.0019999999931315
5,8,0.0993816846325157,0.00100000000384171
5,9,0.0344296892053909,0.00099999998928979
5,10,0.195938812543091,0.00200000000768341
5,11,0.219835468786952,0.0019999999931315
5,12,0.0898042102094584,0.00200000000768341
5,13,0.127444353348965,0.0019999999931315
5,14,0.0212905960407824,0.00200000000768341
5,15,0.0296358681153966,0.0019999999931315
5,16,0.0704947014416816,0.00200000000768341
5,17,0.00370463865902903,0.00099999998928979
5,18,0.165699693978677,0.00200000000768341
5,19,0.566111451447823,0.0019999999931315
5,20,0.110598850844103,0.00200000000768341
5,21,0.213731798862806,0.0019999999931315
5,22,0.223173784274064,0.00200000000768341
5,23,0.668222693939227,0.0089999999909196
5,24,0.0300980374157813,0.00200000000768341
5,25,0.0934885917085204,0.0019999999931315
5,26,0.0681898708178123,0.00200000000768341
5,27,0.075006897593283,0.0019999999931315
5,28,0.0921780257300389,0.00200000000768341
5,29,0.108900772862096,0.0019999999931315
5,30,0.0635353102843812,0.00200000000768341
6,1,0.215783026092566,0.00099999998928979
6,2,0.31217297654348,0.00100000000384171
6,3,0.354241648853967,0.0029999999969732
6,4,0.127927135906239,0.00100000000384171
6,5,0.0658158436240456,0.0019999999931315
6,6,0.357271054326688,0.00200000000768341
6,7,0.1498355439048,0.0019999999931315
6,8,0.128148443848297,0.00200000000768341
6,9,0.124170702927208,0.0019999999931315
6,10,0.134989831335278,0.00200000000768341
6,11,0.17361553189886,0.0019999999931315
6,12,0.0901499787520045,0.00200000000768341
6,13,0.0970487840533703,0.00099999998928979
6,14,0.112744418921184,0.00200000000768341
6,15,0.0623232428083627,0.0019999999931315
6,16,0.0243755957705916,0.00200000000768341
6,17,0.0941194824328358,0.00099999998928979
6,18,0.123519276631757,0.00100000000384171
6,19,0.478881740798985,0.0019999999931315
6,20,0.130343707184041,0.00200000000768341
6,21,0.146888167523316,0.00099999998928979
6,22,0.151416202590198,0.00200000000768341
6,23,0.589311053285434,0.0019999999931315
6,24,0.119858295073356,0.00100000000384171
6,25,0.122983545494188,0.0019999999931315
6,26,0.11305953491465,0.00200000000768341
6,27,0.0984270346562544,0.0019999999931315
6,28,0.0997950289931966,0.00200000000768341
6,29,0.10461494570881,0.0019999999931315
6,30,0.0749544297941278,0.00200000000768341
7,1,0.458357309722212,0.0019999999931315
7,2,0.101381403690326,0.00200000000768341
7,3,0.197806790978638,0.0019999999931315
7,4,0.373571056238722,0.0019999999931315
7,5,0.323086583310475,0.00200000000768341
7,6,0.235955793630715,0.0019999999931315
7,7,0.367337116386511,0.00200000000768341
7,8,0.334505788255421,0.0019999999931315
7,9,0.378060821326116,0.00200000000768341
7,10,0.205842491715511,0.0019999999931315
7,11,0.243739587845507,0.00300000001152512
7,12,0.292373538323695,0.0019999999931315
7,13,0.24971245862093,0.0019999999931315
7,14,0.368195195438886,0.00200000000768341
7,15,0.322682519869845,0.0019999999931315
7,16,0.286617954037424,0.00900000000547152
7,17,0.351600562016004,0.00200000000768341
7,18,0.247293525973918,0.0019999999931315
7,19,0.274333391449483,0.0019999999931315
7,20,0.336217697607263,0.00200000000768341
7,21,0.196247636742514,0.0019999999931315
7,22,0.159835206497359,0.00200000000768341
7,23,0.366383673003067,0.0029999999969732
7,24,0.373970456118735,0.00100000000384171
7,25,0.321097004659712,0.0019999999931315
7,26,0.338449515595967,0.0019999999931315
7,27,0.317691290238761,0.00200000000768341
7,28,0.308589185586063,0.0019999999931315
7,29,0.299571259119969,0.00200000000768341
7,30,0.318713004304767,0.0019999999931315
8,1,0.228135755288064,0.00200000000768341
8,2,0.312760668711818,0.0019999999931315
8,3,0.338071602462984,0.00200000000768341
8,4,0.160870365279567,0.0019999999931315
8,5,0.122025780786896,0.00200000000768341
8,6,0.364474368655392,0.0019999999931315
8,7,0.152696174675514,0.00200000000768341
8,8,0.127169222539631,0.0019999999931315
8,9,0.16159159277384,0.00200000000768341
8,10,0.140261158501973,0.0019999999931315
8,11,0.195043290723427,0.0029999999969732
8,12,0.101301289776108,0.00200000000768341
8,13,0.0864233538974708,0.0019999999931315
8,14,0.15398598728235,0.00200000000768341
8,15,0.124680719695819,0.0019999999931315
8,16,0.109315584514468,0.00100000000384171
8,17,0.14294785096344,0.00099999998928979
8,18,0.136084084213954,0.00200000000768341
8,19,0.494308328895172,0.0019999999931315
8,20,0.150841161942818,0.00200000000768341
8,21,0.168400544850993,0.0019999999931315
8,22,0.142770596875223,0.00200000000768341
8,23,0.590594197510073,0.0019999999931315
8,24,0.157911832766088,0.00099999998928979
8,25,0.117322401672343,0.00300000001152512
8,26,0.131613138750649,0.0019999999931315
8,27,0.114322552448554,0.00200000000768341
8,28,0.12831097167816,0.0019999999931315
8,29,0.113490299887405,0.00200000000768341
8,30,0.125895748006673,0.0019999999931315
9,1,0.253891581152187,0.00900000000547152
9,2,0.280574833596102,0.0019999999931315
9,3,0.331674001499073,0.00200000000768341
9,4,0.161516658783776,0.0019999999931315
9,5,0.10271480955486,0.00100000000384171
9,6,0.32943999577175,0.0019999999931315
9,7,0.181780289661772,0.00200000000768341
9,8,0.155225592077935,0.0019999999931315
9,9,0.159954990444542,0.00200000000768341
9,10,0.123768095418824,0.0019999999931315
9,11,0.16636379382502,0.00200000000768341
9,12,0.117478809839135,0.0019999999931315
9,13,0.116697657060578,0.00200000000768341
9,14,0.149692840964401,0.0019999999931315
9,15,0.100044713702101,0.00100000000384171
9,16,0.0649841237474566,0.0019999999931315
9,17,0.131018288162797,0.00200000000768341
9,18,0.129975729622962,0.0019999999931315
9,19,0.444357824920886,0.00200000000768341
9,20,0.154768803079563,0.0019999999931315
9,21,0.134657772662234,0.00200000000768341
9,22,0.135008540318866,0.0019999999931315
9,23,0.560309238251983,0.00200000000768341
9,24,0.156024220475709,0.0019999999931315
9,25,0.153976505699458,0.00100000000384171
9,26,0.147601513884382,0.00100000000384171
9,27,0.131035849686241,0.00100000000384171
9,28,0.129306437976638,0.0019999999931315
9,29,0.128932317816449,0.00200000000768341
9,30,0.107628396026141,0.0019999999931315
10,1,0.114241048729995,0.00200000000768341
10,2,0.404246762586588,0.0019999999931315
10,3,0.427133867698429,0.00200000000768341
10,4,0.0531906025213951,0.0019999999931315
10,5,0.0386150737622073,0.00100000000384171
10,6,0.441892420873834,0.0019999999931315
10,7,0.0922266610928916,0.00200000000768341
10,8,0.0953669567171243,0.0019999999931315
10,9,0.0333599228517089,0.00200000000768341
10,10,0.199211517359496,0.0019999999931315
10,11,0.224513307468238,0.00200000000768341
10,12,0.0878956142679897,0.0019999999931315
10,13,0.126327769532658,0.00200000000768341
10,14,0.0235784012284224,0.0019999999931315
10,15,0.0420038765402363,0.00100000000384171
10,16,0.07814457705199,0.00100000000384171
10,17,0.0230017476055822,0.00200000000768341
10,18,0.164451585081374,0.0019999999931315
10,19,0.573039327750521,0.00200000000768341
10,20,0.111260529454454,0.0019999999931315
10,21,0.216196723964827,0.00200000000768341
10,22,0.226776805563314,0.0019999999931315
10,23,0.673356985321961,0.00200000000768341
10,24,0.0284847661610752,0.0019999999931315
10,25,0.0876261071411527,0.0019999999931315
10,26,0.0620479823126048,0.00200000000768341
10,27,0.0727598945773356,0.00800000000162981
10,28,0.0903438900905409,0.0019999999931315
10,29,0.107520183651585,0.0019999999931315
10,30,0.063381942715904,0.00100000000384171
11,1,0.175609351231761,0.00100000000384171
11,2,0.360228415370002,0.0019999999931315
11,3,0.392178886959058,0.00200000000768341
11,4,0.092604618321153,0.0019999999931315
11,5,0.0353276963109721,0.00200000000768341
11,6,0.400240949907346,0.0019999999931315
11,7,0.12615988108107,0.00200000000768341
11,8,0.111168322780905,0.0019999999931315
11,9,0.0787406370902728,0.00100000000384171
11,10,0.167919555760217,0.00100000000384171
11,11,0.195684239135444,0.00200000000768341
11,12,0.0882222369811972,0.00100000000384171
11,13,0.116679782748532,0.00200000000768341
11,14,0.068355077533145,0.0019999999931315
11,15,0.0265962780684372,0.00200000000768341
11,16,0.041353667633807,0.0019999999931315
11,17,0.0499849984182041,0.00100000000384171
11,18,0.149706578260176,0.0019999999931315
11,19,0.524793997918666,0.00200000000768341
11,20,0.11556981508547,0.0019999999931315
11,21,0.185606344238947,0.00200000000768341
11,22,0.192253019840628,0.0019999999931315
11,23,0.632065020633069,0.00200000000768341
11,24,0.0752570677619764,0.0019999999931315
11,25,0.108719259741502,0.00200000000768341
11,26,0.0903558099828679,0.0019999999931315
11,27,0.084575156663493,0.0019999999931315
11,28,0.0953236416166803,0.00200000000768341
11,29,0.10645667124026,0.0019999999931315
11,30,0.0636199961511484,0.00100000000384171
12,1,0.19915817353623,0.00100000000384171
12,2,0.321529537784889,0.0019999999931315
12,3,0.359834803408707,0.0029999999969732
12,4,0.116942226545377,0.00200000000768341
12,5,0.0808247527290502,0.0019999999931315
12,6,0.38552579099631,0.00200000000768341
12,7,0.123111625707137,0.0019999999931315
12,8,0.102028927913598,0.00200000000768341
12,9,0.125024459594213,0.0019999999931315
12,10,0.122053506501876,0.00200000000768341
12,11,0.158117111792814,0.0019999999931315
12,12,0.0392229007950822,0.00200000000768341
12,13,0.0716280948718366,0.0019999999931315
12,14,0.116597837847562,0.00200000000768341
12,15,0.0840143641262274,0.0019999999931315
12,16,0.0704129064926863,0.0019999999931315
12,17,0.104171773323406,0.00200000000768341
12,18,0.102214687383994,0.0019999999931315
12,19,0.495256980931048,0.00200000000768341
12,20,0.123647986501628,0.00900000000547152
12,21,0.133579316746515,0.0029999999969732
12,22,0.138714042846243,0.0019999999931315
12,23,0.603905512685417,0.00200000000768341
12,24,0.120988904257281,0.0019999999931315
12,25,0.0756752728650943,0.00200000000768341
12,26,0.0959887544218901,0.0019999999931315
12,27,0.059320963971021,0.00200000000768341
12,28,0.057335297335858,0.0019999999931315
12,29,0.100619743812565,0.0019999999931315
12,30,0.075276009299247,0.00200000000768341
13,1,0.221488457786954,0.0019999999931315
13,2,0.304731363003531,0.00200000000768341
13,3,0.344137766225526,0.0029999999969732
13,4,0.149117856260677,0.00200000000768341
13,5,0.107293487329783,0.00099999998928979
13,6,0.347292200786282,0.00200000000768341
13,7,0.127558834168873,0.0019999999931315
13,8,0.112197054761346,0.0019999999931315
13,9,0.152467286734437,0.00200000000768341
13,10,0.123232910341906,0.0019999999931315
13,11,0.17294854359872,0.00200000000768341
13,12,0.0818290328859003,0.0019999999931315
13,13,0.0693022180569447,0.00200000000768341
13,14,0.144394232629694,0.0019999999931315
13,15,0.111272741910632,0.00200000000768341
13,16,0.0917791996878939,0.0019999999931315
13,17,0.132299674315996,0.00200000000768341
13,18,0.128862029081822,0.0019999999931315
13,19,0.475455669131349,0.00200000000768341
13,20,0.149771048228579,0.0019999999931315
13,21,0.13660112752311,0.0019999999931315
13,22,0.132300075651898,0.00200000000768341
13,23,0.590278137614034,0.0019999999931315
13,24,0.148397231373417,0.00200000000768341
13,25,0.103637501776871,0.0019999999931315
13,26,0.118977684207425,0.00200000000768341
13,27,0.10250421952495,0.0019999999931315
13,28,0.107052117424346,0.00200000000768341
13,29,0.103853558808649,0.0019999999931315
13,30,0.108955614174145,0.00200000000768341
14,1,0.676922362092956,0.0029999999969732
14,2,0.304177685575931,0.0019999999931315
14,3,0.329262452520839,0.0170000000071013
14,4,0.599117504132274,0.0029999999969732
14,5,0.552844376845699,0.0019999999931315
14,6,0.396354498302675,0.00300000001152512
14,7,0.597331288897098,0.0019999999931315
14,8,0.567558398336956,0.0029999999969732
14,9,0.602735452351899,0.00200000000768341
14,10,0.448729433739038,0.0029999999969732
14,11,0.457510444910557,0.0029999999969732
14,12,0.527390543729743,0.00200000000768341
14,13,0.492977837777499,0.0029999999969732
14,14,0.594416309592743,0.0019999999931315
14,15,0.553053637369779,0.00300000001152512
14,16,0.520788373895491,0.0019999999931315
14,17,0.579272251695676,0.0029999999969732
14,18,0.488806380781096,0.00200000000768341
14,19,0.329242485503829,0.0029999999969732
14,20,0.563029956077576,0.0019999999931315
14,21,0.442023499672786,0.00200000000768341
14,22,0.408805747748013,0.0029999999969732
14,23,0.435741687826832,0.0019999999931315
14,24,0.599142133105791,0.00300000001152512
14,25,0.554492096345761,0.0019999999931315
14,26,0.575035393448425,0.0029999999969732
14,27,0.548131208422922,0.00200000000768341
14,28,0.544998651676434,0.00200000000768341
14,29,0.559332130988011,0.0029999999969732
14,30,0.550346431097076,0.00200000000768341
15,1,0.525915718601365,0.0019999999931315
15,2,0.236949842432332,0.0029999999969732
15,3,0.354021988303523,0.00200000000768341
15,4,0.445179162078484,0.0089999999909196
15,5,0.404918033635787,0.00300000001152512
15,6,0.349546479315096,0.0019999999931315
15,7,0.447408878071321,0.0019999999931315
15,8,0.41736039090514,0.00200000000768341
15,9,0.452884473724681,0.0019999999931315
15,10,0.302074227976269,0.00200000000768341
15,11,0.336912229187308,0.00200000000768341
15,12,0.377180305345776,0.0019999999931315
15,13,0.351793164524912,0.00200000000768341
15,14,0.445002066902343,0.0019999999931315
15,15,0.405477841031701,0.0019999999931315
15,16,0.375370304608939,0.00200000000768341
15,17,0.430527766331281,0.0029999999969732
15,18,0.343235672437234,0.00200000000768341
15,19,0.349020048181566,0.0019999999931315
15,20,0.402307508110736,0.0029999999969732
15,21,0.305860904614263,0.00200000000768341
15,22,0.271556499534487,0.0029999999969732
15,23,0.443131999522141,0.0019999999931315
15,24,0.44940020007951,0.00200000000768341
15,25,0.404992846032341,0.0029999999969732
15,26,0.42269915487311,0.00200000000768341
15,27,0.397036798796445,0.0019999999931315
15,28,0.390990125368902,0.0029999999969732
15,29,0.408631278693744,0.00200000000768341
15,30,0.398344982049317,0.0019999999931315
16,1,0.209859666407554,0.00200000000768341
16,2,0.343940358417573,0.0019999999931315
16,3,0.36487754442033,0.0029999999969732
16,4,0.138384014919862,0.00200000000768341
16,5,0.136696939386912,0.0019999999931315
16,6,0.412637169776643,0.00200000000768341
16,7,0.150895948822337,0.0019999999931315
16,8,0.130441029424837,0.00200000000768341
16,9,0.164503423608297,0.0019999999931315
16,10,0.12987486561941,0.00200000000768341
16,11,0.205932367425073,0.0019999999931315
16,12,0.0987570691541509,0.00200000000768341
16,13,0.108506798264941,0.0019999999931315
16,14,0.157863564862801,0.00900000000547152
16,15,0.14062329400777,0.0019999999931315
16,16,0.133279719850159,0.00200000000768341
16,17,0.151650514692801,0.0019999999931315
16,18,0.102806500459328,0.00200000000768341
16,19,0.528336481418145,0.0019999999931315
16,20,0.157823333261048,0.0029999999969732
16,21,0.181053165730507,0.00200000000768341
16,22,0.171958270602015,0.0019999999931315
16,23,0.612504645887119,0.00200000000768341
16,24,0.16097414450989,0.0019999999931315
16,25,0.107462668543772,0.00200000000768341
16,26,0.115524493686363,0.0019999999931315
16,27,0.115698224147284,0.00200000000768341
16,28,0.0754449656294447,0.00100000000384171
16,29,0.12604225058202,0.0019999999931315
16,30,0.10860366643074,0.00200000000768341
17,1,0.174868724760754,0.00099999998928979
17,2,0.352595774025046,0.00200000000768341
17,3,0.385366739647466,0.0019999999931315
17,4,0.0991574424759886,0.00200000000768341
17,5,0.0697504319085958,0.0019999999931315
17,6,0.390046861551399,0.00200000000768341
17,7,0.0943728180584945,0.0019999999931315
17,8,0.0810212041055997,0.00200000000768341
17,9,0.100787348014874,0.0019999999931315
17,10,0.158516269328029,0.0019999999931315
17,11,0.177692185097684,0.00200000000768341
17,12,0.0671375074598391,0.0019999999931315
17,13,0.097761490616983,0.00200000000768341
17,14,0.0934564245896685,0.0019999999931315
17,15,0.071700625533685,0.00200000000768341
17,16,0.0754861972069196,0.0019999999931315
17,17,0.0834455626471301,0.00200000000768341
17,18,0.122786122835419,0.0019999999931315
17,19,0.516571977033298,0.00200000000768341
17,20,0.125424186160828,0.0019999999931315
17,21,0.158957257480939,0.00200000000768341
17,22,0.183984164687372,0.0019999999931315
17,23,0.623605692839402,0.0029999999969732
17,24,0.0973740409992035,0.00200000000768341
17,25,0.0783353694463643,0.0019999999931315
17,26,0.0763098053699846,0.00200000000768341
17,27,0.0790353462314528,0.0019999999931315
17,28,0.0708347599633714,0.00200000000768341
17,29,0.0926150298295179,0.0019999999931315
17,30,0.0739789709172167,0.00200000000768341
18,1,0.177368282502834,0.0019999999931315
18,2,0.346012373767229,0.00200000000768341
18,3,0.379980719213341,0.0089999999909196
18,4,0.0966509882961004,0.00200000000768341
18,5,0.0336873892081985,0.0019999999931315
18,6,0.387898549198711,0.00200000000768341
18,7,0.121577654260594,0.0019999999931315
18,8,0.10747005446437,0.00200000000768341
18,9,0.0900283701848865,0.00099999998928979
18,10,0.155402342183415,0.00200000000768341
18,11,0.188994096184404,0.0019999999931315
18,12,0.0744201413358224,0.00200000000768341
18,13,0.0936983402193524,0.0019999999931315
18,14,0.0776505386746336,0.00200000000768341
18,15,0.030137132506703,0.0019999999931315
18,16,0.0165236619642854,0.00200000000768341
18,17,0.0601513824149809,0.00099999998928979
18,18,0.129929204667534,0.00200000000768341
18,19,0.514491132432508,0.0019999999931315
18,20,0.114276911671484,0.00200000000768341
18,21,0.168426161850661,0.0019999999931315
18,22,0.176139621814607,0.00200000000768341
18,23,0.620082613071762,0.0019999999931315
18,24,0.0853073675696157,0.00200000000768341
18,25,0.098464085552994,0.0019999999931315
18,26,0.0831006817072856,0.00200000000768341
18,27,0.0738030170345201,0.0019999999931315
18,28,0.0809130364284764,0.00200000000768341
18,29,0.0923221709318205,0.0019999999931315
18,30,0.0520837912857096,0.0019999999931315
19,1,0.510264344293915,0.00200000000768341
19,2,0.166839414495143,0.0019999999931315
19,3,0.258458559104365,0.00200000000768341
19,4,0.42827068735177,0.0019999999931315
19,5,0.382231953031432,0.00200000000768341
19,6,0.355571729531399,0.0019999999931315
19,7,0.433374818587066,0.00200000000768341
19,8,0.398262620548511,0.0019999999931315
19,9,0.433347275124713,0.00200000000768341
19,10,0.278088515930982,0.0019999999931315
19,11,0.271760355387578,0.0029999999969732
19,12,0.341249534901121,0.00200000000768341
19,13,0.316094831311459,0.0019999999931315
19,14,0.424154908270726,0.00200000000768341
19,15,0.381707886343735,0.0019999999931315
19,16,0.348801637922689,0.00200000000768341
19,17,0.408539819071541,0.0019999999931315
19,18,0.293665769899628,0.00200000000768341
19,19,0.303123729641908,0.0019999999931315
19,20,0.383511073690938,0.00200000000768341
19,21,0.240821489572428,0.0029999999969732
19,22,0.217148423102591,0.0019999999931315
19,23,0.380642665328037,0.00200000000768341
19,24,0.429559889626446,0.0019999999931315
19,25,0.371934599944722,0.00900000000547152
19,26,0.400543769202269,0.0019999999931315
19,27,0.359789134680032,0.00200000000768341
19,28,0.35722659714448,0.0029999999969732
19,29,0.369876276396741,0.00200000000768341
19,30,0.377160704186964,0.0019999999931315
20,1,0.0812883048684344,0.0019999999931315
20,2,0.432860931477906,0.00100000000384171
20,3,0.450661600920259,0.0019999999931315
20,4,0.0597796783214607,0.00100000000384171
20,5,0.0815013619740054,0.00200000000768341
20,6,0.469825916022309,0.0019999999931315
20,7,0.0905723113547189,0.00200000000768341
20,8,0.105424162503228,0.0019999999931315
20,9,0.0562650566594374,0.00200000000768341
20,10,0.224351551860594,0.0019999999931315
20,11,0.249535549678463,0.0019999999931315
20,12,0.109961275784404,0.00200000000768341
20,13,0.149382547037876,0.0019999999931315
20,14,0.0590246635161127,0.00100000000384171
20,15,0.0888360621616222,0.00200000000768341
20,16,0.119160674539943,0.0019999999931315
20,17,0.0697248440372395,0.00100000000384171
20,18,0.183516350936688,0.00099999998928979
20,19,0.603357522057191,0.00200000000768341
20,20,0.129229419107705,0.0019999999931315
20,21,0.241250217677806,0.00200000000768341
20,22,0.253825278838422,0.0019999999931315
20,23,0.699477971571839,0.00200000000768341
20,24,0.0548637911023038,0.0019999999931315
20,25,0.0985312734351198,0.00200000000768341
20,26,0.0776502893767689,0.0019999999931315
20,27,0.0958529270459782,0.00200000000768341
20,28,0.112220789386161,0.0019999999931315
20,29,0.12807123905534,0.0019999999931315
20,30,0.092884358128751,0.00200000000768341
21,1,0.203362828479872,0.00100000000384171
21,2,0.327476465061146,0.0019999999931315
21,3,0.35432445033753,0.0019999999931315
21,4,0.128166961203853,0.00200000000768341
21,5,0.106252244103217,0.0019999999931315
21,6,0.374095542923932,0.00200000000768341
21,7,0.125824474357453,0.0019999999931315
21,8,0.102332048055646,0.00200000000768341
21,9,0.141931474387463,0.0019999999931315
21,10,0.133971589819862,0.00200000000768341
21,11,0.182314873620932,0.0019999999931315
21,12,0.0829701575437102,0.00200000000768341
21,13,0.0889063952623822,0.0019999999931315
21,14,0.13502562749302,0.00200000000768341
21,15,0.110660298510055,0.0019999999931315
21,16,0.100983181474629,0.00200000000768341
21,17,0.125794216644616,0.0019999999931315
21,18,0.0967512408003153,0.0019999999931315
21,19,0.501079858526017,0.00900000000547152
21,20,0.143162640532664,0.0029999999969732
21,21,0.152452195995022,0.00200000000768341
21,22,0.164631860664361,0.0019999999931315
21,23,0.593958531495329,0.00200000000768341
21,24,0.138230111183147,0.0019999999931315
21,25,0.0957934724822171,0.00200000000768341
21,26,0.0980733392452042,0.0019999999931315
21,27,0.105970858734928,0.00200000000768341
21,28,0.0838260983821561,0.0019999999931315
21,29,0.0973588207972818,0.00200000000768341
21,30,0.0944142824517795,0.0019999999931315
22,1,0.167151220262444,0.0019999999931315
22,2,0.36460945315595,0.00200000000768341
22,3,0.385401572422412,0.0029999999969732
22,4,0.109881042359441,0.00200000000768341
22,5,0.0897402091149138,0.00099999998928979
22,6,0.43206105693837,0.00200000000768341
22,7,0.11811085153059,0.0019999999931315
22,8,0.0947563650304571,0.00200000000768341
22,9,0.109457808075269,0.0019999999931315
22,10,0.169643724943812,0.0019999999931315
22,11,0.193665785556358,0.00200000000768341
22,12,0.0515923285810514,0.0019999999931315
22,13,0.0909327842402037,0.00200000000768341
22,14,0.104160081938758,0.0019999999931315
22,15,0.0935451642010066,0.00200000000768341
22,16,0.100538339730168,0.0019999999931315
22,17,0.098792614138285,0.00200000000768341
22,18,0.127402316633011,0.0019999999931315
22,19,0.547558028881592,0.00200000000768341
22,20,0.113153280019563,0.0019999999931315
22,21,0.184599952337991,0.00200000000768341
22,22,0.176631066787986,0.0019999999931315
22,23,0.639384299398548,0.0029999999969732
22,24,0.106467261023226,0.00200000000768341
22,25,0.0568304722432818,0.0019999999931315
22,26,0.0909460388054734,0.00200000000768341
22,27,0.0410467345448586,0.0019999999931315
22,28,0.0825855363777204,0.00200000000768341
22,29,0.107539860893012,0.0019999999931315
22,30,0.0966169862012181,0.00200000000768341
23,1,0.413782583777144,0.0019999999931315
23,2,0.145098839895996,0.00200000000768341
23,3,0.257409054995834,0.0029999999969732
23,4,0.32676101809267,0.00100000000384171
23,5,0.275368097329575,0.00100000000384171
23,6,0.177955431410268,0.0089999999909196
23,7,0.306700520894999,0.00200000000768341
23,8,0.275852698732954,0.0019999999931315
23,9,0.331073933648858,0.00200000000768341
23,10,0.192113333318297,0.0019999999931315
23,11,0.208659703979789,0.00200000000768341
23,12,0.253043295812953,0.0019999999931315
23,13,0.222937876027707,0.0029999999969732
23,14,0.320707589805929,0.00100000000384171
23,15,0.274245787004916,0.00100000000384171
23,16,0.237599682537944,0.00100000000384171
23,17,0.303691876449562,0.00200000000768341
23,18,0.20120554429996,0.0019999999931315
23,19,0.299028007005531,0.0019999999931315
23,20,0.299780224212115,0.00200000000768341
23,21,0.14304271651587,0.0019999999931315
23,22,0.151602869477045,0.00200000000768341
23,23,0.441070411968546,0.0019999999931315
23,24,0.326921874773157,0.00100000000384171
23,25,0.282676240814027,0.0019999999931315
23,26,0.29481309915121,0.0019999999931315
23,27,0.275856962800989,0.00200000000768341
23,28,0.265456196270819,0.0019999999931315
23,29,0.248287374615407,0.00200000000768341
23,30,0.270488474768314,0.0019999999931315
24,1,0.340965231960414,0.00200000000768341
24,2,0.285647203203238,0.0019999999931315
24,3,0.308899084173097,0.0019999999931315
24,4,0.262802181436945,0.00200000000768341
24,5,0.232164580625454,0.0019999999931315
24,6,0.304733278671032,0.0029999999969732
24,7,0.2534556969858,0.00200000000768341
24,8,0.231485730718527,0.0019999999931315
24,9,0.275270700069422,0.00200000000768341
24,10,0.201359142516748,0.0019999999931315
24,11,0.262688325336111,0.00200000000768341
24,12,0.222060514081516,0.00200000000768341
24,13,0.216698413488137,0.0019999999931315
24,14,0.266977975746445,0.00200000000768341
24,15,0.232853736835808,0.0029999999969732
24,16,0.208166166988035,0.0019999999931315
24,17,0.254466504824081,0.00900000000547152
24,18,0.180953744828257,0.0019999999931315
24,19,0.433040492167333,0.00300000001152512
24,20,0.270177371644068,0.0019999999931315
24,21,0.173946158757241,0.0029999999969732
24,22,0.206699371281072,0.00200000000768341
24,23,0.546983349377412,0.0029999999969732
24,24,0.271645102466443,0.00200000000768341
24,25,0.245659194915754,0.0019999999931315
24,26,0.239002803301841,0.0029999999969732
24,27,0.238645069426644,0.00200000000768341
24,28,0.218898012122048,0.0019999999931315
24,29,0.204904600554479,0.0029999999969732
24,30,0.218844233129338,0.00200000000768341
25,1,0.0518718030227369,0.0019999999931315
25,2,0.461207661967756,0.00200000000768341
25,3,0.475349621511943,0.0019999999931315
25,4,0.0697318910316289,0.00100000000384171
25,5,0.104144558880234,0.00099999998928979
25,6,0.496295417300821,0.00200000000768341
25,7,0.099781666383836,0.0019999999931315
25,8,0.120548635753006,0.00200000000768341
25,9,0.0612978866671902,0.0019999999931315
25,10,0.249584768106907,0.00200000000768341
25,11,0.270791819401766,0.0019999999931315
25,12,0.1329330827774,0.00200000000768341
25,13,0.174309261350363,0.00100000000384171
25,14,0.0689531524785747,0.0019999999931315
25,15,0.11006922734146,0.0019999999931315
25,16,0.14460383533886,0.00200000000768341
25,17,0.084760946480059,0.00100000000384171
25,18,0.208588146077587,0.0019999999931315
25,19,0.63103094928028,0.00200000000768341
25,20,0.143253981830811,0.0019999999931315
25,21,0.267687867874984,0.00200000000768341
25,22,0.280495357469421,0.0019999999931315
25,23,0.725675225460297,0.0019999999931315
25,24,0.0623181618559768,0.00200000000768341
25,25,0.115762126682014,0.0019999999931315
25,26,0.0950151758165899,0.00200000000768341
25,27,0.116035976563571,0.0019999999931315
25,28,0.133478470040698,0.00200000000768341
25,29,0.149559699010119,0.0019999999931315
25,30,0.116584789646301,0.00200000000768341
26,1,0.131535661775199,0.00100000000384171
26,2,0.390237620815995,0.0019999999931315
26,3,0.415561094441768,0.0019999999931315
26,4,0.0563242801161904,0.00100000000384171
26,5,0.0208724683686572,0.0019999999931315
26,6,0.428921704455591,0.00900000000547152
26,7,0.0979797232829427,0.00200000000768341
26,8,0.0934504409049466,0.0019999999931315
26,9,0.0394966587780366,0.0019999999931315
26,10,0.186776257338327,0.00200000000768341
26,11,0.21364036342056,0.0019999999931315
26,12,0.0820467587629736,0.00200000000768341
26,13,0.121652887579124,0.0019999999931315
26,14,0.030105719276136,0.00200000000768341
26,15,0.0254858553064292,0.00100000000384171
26,16,0.0641061681792786,0.00100000000384171
26,17,0.0167027844439447,0.0019999999931315
26,18,0.15713332345565,0.00200000000768341
26,19,0.557855813507159,0.0019999999931315
26,20,0.108095794714531,0.00200000000768341
26,21,0.205223746554512,0.0019999999931315
26,22,0.214946418619057,0.00200000000768341
26,23,0.660532377976665,0.0019999999931315
26,24,0.0349649177125624,0.00200000000768341
26,25,0.0896193336892907,0.0019999999931315
26,26,0.065409885131722,0.00200000000768341
26,27,0.0715061668937315,0.0019999999931315
26,28,0.0881373464667459,0.00200000000768341
26,29,0.103430561754545,0.0019999999931315
26,30,0.0548658790625265,0.00100000000384171
27,1,0.131445302510605,0.0019999999931315
27,2,0.395653619330399,0.00200000000768341
27,3,0.420398526528439,0.0019999999931315
27,4,0.0588248106394603,0.00200000000768341
27,5,0.0284338449850065,0.0019999999931315
27,6,0.433525701783497,0.00200000000768341
27,7,0.101432383996453,0.0019999999931315
27,8,0.0976796794259038,0.00200000000768341
27,9,0.0353910910178714,0.00099999998928979
27,10,0.192238065011118,0.00200000000768341
27,11,0.216977723565462,0.0019999999931315
27,12,0.0883886717142995,0.00200000000768341
27,13,0.127792059222959,0.0019999999931315
27,14,0.0249732650492914,0.00200000000768341
27,15,0.0274841357577709,0.0019999999931315
27,16,0.0686685927049728,0.00200000000768341
27,17,0.00838579275015447,0.00099999998928979
27,18,0.164029940185098,0.00200000000768341
27,19,0.562350958427827,0.0019999999931315
27,20,0.109843885498432,0.00300000001152512
27,21,0.211210251634624,0.00099999998928979
27,22,0.220495100152507,0.00100000000384171
27,23,0.665234338461543,0.0029999999969732
27,24,0.0314232318488828,0.00100000000384171
27,25,0.0941776885341605,0.0019999999931315
27,26,0.0695048002510166,0.00200000000768341
27,27,0.075843988827226,0.0019999999931315
27,28,0.0926328849014029,0.00200000000768341
27,29,0.108530312182993,0.0019999999931315
27,30,0.061387786443711,0.00200000000768341
28,1,0.303319698922021,0.0019999999931315
28,2,0.22529551632485,0.00900000000547152
28,3,0.286535384918836,0.0019999999931315
28,4,0.229340955463458,0.00100000000384171
28,5,0.18150276415508,0.0019999999931315
28,6,0.304977118461778,0.00200000000768341
28,7,0.214009566315217,0.00200000000768341
28,8,0.193785451426991,0.0019999999931315
28,9,0.233959704874627,0.00200000000768341
28,10,0.11933554586235,0.0019999999931315
28,11,0.150608930558504,0.00200000000768341
28,12,0.141824013977428,0.0019999999931315
28,13,0.103759834412196,0.00200000000768341
28,14,0.224345655962617,0.0019999999931315
28,15,0.183775864333075,0.00200000000768341
28,16,0.15099490823318,0.0019999999931315
28,17,0.21009161166651,0.0019999999931315
28,18,0.136614209959887,0.00200000000768341
28,19,0.395601213756312,0.0019999999931315
28,20,0.205219382572197,0.00200000000768341
28,21,0.0796477338741245,0.0019999999931315
28,22,0.0789000836194719,0.00200000000768341
28,23,0.50966091997651,0.0029999999969732
28,24,0.229520221745279,0.00200000000768341
28,25,0.169354633318495,0.0019999999931315
28,26,0.19408589133194,0.0019999999931315
28,27,0.165915207786541,0.00200000000768341
28,28,0.163297892962602,0.0019999999931315
28,29,0.167597357491657,0.00200000000768341
28,30,0.17856339746695,0.0019999999931315
29,1,0.218924201726423,0.00200000000768341
29,2,0.304863292480007,0.0019999999931315
29,3,0.339362516475105,0.00200000000768341
29,4,0.129930685067292,0.0019999999931315
29,5,0.0965600897990128,0.00200000000768341
29,6,0.381355538650387,0.0019999999931315
29,7,0.147600434141399,0.00200000000768341
29,8,0.110940068704889,0.0019999999931315
29,9,0.141818610991002,0.00100000000384171
29,10,0.106002920334981,0.0019999999931315
29,11,0.15944705675772,0.0019999999931315
29,12,0.0549211957903643,0.00200000000768341
29,13,0.0821941569293964,0.0019999999931315
29,14,0.134426532820728,0.00200000000768341
29,15,0.0998322307752211,0.0019999999931315
29,16,0.0829103058658747,0.00200000000768341
29,17,0.121316223496077,0.0019999999931315
29,18,0.0803718957527911,0.00800000000162981
29,19,0.488589899013153,0.0019999999931315
29,20,0.127672915143557,0.00200000000768341
29,21,0.137764748037301,0.0019999999931315
29,22,0.122270912474027,0.0029999999969732
29,23,0.587823839495933,0.00200000000768341
29,24,0.138125264147802,0.0019999999931315
29,25,0.0937261857795,0.00200000000768341
29,26,0.113171385089588,0.0019999999931315
29,27,0.0759652016116721,0.00200000000768341
29,28,0.0749838235206674,0.0019999999931315
29,29,0.106491061340607,0.00200000000768341
29,30,0.0867657954704785,0.0019999999931315
30,1,0.1382123544535,0.00200000000768341
30,2,0.393646114445545,0.0019999999931315
30,3,0.418678114354357,0.00200000000768341
30,4,0.0442285644175629,0.0019999999931315
30,5,0.0641934569392975,0.00200000000768341
30,6,0.435630504603697,0.0019999999931315
30,7,0.101433132607567,0.0019999999931315
30,8,0.0922030123498846,0.00200000000768341
30,9,0.0760507283115187,0.00100000000384171
30,10,0.174721539242958,0.0019999999931315
30,11,0.223231284544155,0.00200000000768341
30,12,0.0898688534693132,0.0019999999931315
30,13,0.134397119096175,0.00200000000768341
30,14,0.0703221045652494,0.0019999999931315
30,15,0.0682131678352619,0.0019999999931315
30,16,0.0867949930976889,0.00200000000768341
30,17,0.0671043215244084,0.00100000000384171
30,18,0.137388337369027,0.00100000000384171
30,19,0.567885887147603,0.00200000000768341
30,20,0.120240523693039,0.0029999999969732
30,21,0.209419333510553,0.0019999999931315
30,22,0.218574863565797,0.00100000000384171
30,23,0.667576071017926,0.0019999999931315
30,24,0.0728163054093406,0.00100000000384171
30,25,0.0963038317399241,0.0019999999931315
30,26,0.0654142352941549,0.00200000000768341
30,27,0.0854567381945281,0.0019999999931315
30,28,0.062622244303636,0.00200000000768341
30,29,0.104773552323244,0.0019999999931315
30,30,0.0352799059928989,0.00200000000768341
