"Before.Version","After.Version","Diff","Direction","P.Value","Simple.Diff","Within.Diffs.Mean","Within.Diffs.SD","Between.Diffs.Mean","Between.Diffs.SD","Runtime"
"v1","v2",FALSE,NA,0,0.61,23411.489,58459.658,344909.308,1104999.572,7.921
"v2","v3",FALSE,NA,0.971,-0.064,150499.657,447076.043,163519.727,657462.831,8.507
"v3","v4",FALSE,NA,0.455,0.004,45884.134,102657.922,63914.278,158902.569,8.01
