App - EBookDroid
Scenario - open_pdf
Length - 10sec
Measure - ARPicDistance
Before Version - 1.1.0_b_m
After Version - 1.1.2_b_m


"Before.Trace.ID1","Before.Trace.ID2","Difference","Runtime"
1,2,0.226621139996304,0.00699999999778811
1,3,0.206157660433092,0.00300000000424916
1,4,0.20570414386476,0.00400000000081491
1,5,0.141086076362596,0.00399999999353895
1,6,0.204174124497654,0.00300000000424916
1,7,0.13839690497331,0.00400000000081491
1,8,0.232659111003275,0.0029999999969732
1,9,0.210321296506675,0.00400000000081491
1,10,0.10326842742964,0.0029999999969732
1,11,0.169661969456883,0.0029999999969732
1,12,0.120594090678013,0.00400000000081491
1,13,0.218243397677351,0.00400000000081491
1,14,0.211318762305401,0.00300000000424916
1,15,0.188415780349647,0.00399999999353895
1,16,0.127507675198023,0.00300000000424916
1,17,0.168316258952108,0.00400000000081491
1,18,0.132791448231243,0.00400000000081491
1,19,0.213248132576248,0.00699999999778811
1,20,0.184969714432657,0.0029999999969732
1,21,0.169475460369459,0.00400000000081491
1,22,0.0893889612128187,0.00300000000424916
1,23,0.137520296223892,0.00300000000424916
1,24,0.211952776437339,0.00399999999353895
1,25,0.855784023400891,0.00400000000081491
1,26,0.163181368760369,0.00400000000081491
1,27,0.160018768132456,0.00400000000081491
1,28,0.196737344535767,0.0029999999969732
1,29,0.195546337883658,0.0029999999969732
1,30,0.174994222643681,0.00400000000081491
2,3,0.0604790003289664,0.00400000000081491
2,4,0.056576345128879,0.00300000000424916
2,5,0.109321055701892,0.00399999999353895
2,6,0.0560973442431509,0.00700000000506407
2,7,0.111198518794536,0.00400000000081491
2,8,0.0520652942831249,0.0029999999969732
2,9,0.0548547156628091,0.00400000000081491
2,10,0.148436390097281,0.0029999999969732
2,11,0.0902649188780932,0.0029999999969732
2,12,0.142737392074654,0.00400000000081491
2,13,0.0529838406757847,0.00400000000081491
2,14,0.0587381172013915,0.0029999999969732
2,15,0.0702071548275958,0.0029999999969732
2,16,0.148524003115493,0.00400000000081491
2,17,0.0949621419916607,0.00300000000424916
2,18,0.125948062940508,0.00300000000424916
2,19,0.0527040085020591,0.00399999999353895
2,20,0.329919384987694,0.00300000000424916
2,21,0.0845429965440888,0.00400000000081491
2,22,0.267847561276696,0.00699999999778811
2,23,0.127585056722187,0.00400000000081491
2,24,0.0605355527231104,0.0029999999969732
2,25,1.02851359260247,0.00500000000465661
2,26,0.095664866610217,0.00400000000081491
2,27,0.108250663238372,0.00399999999353895
2,28,0.0665597869756393,0.00300000000424916
2,29,0.0599369381169191,0.00400000000081491
2,30,0.081002827458085,0.00400000000081491
3,4,0.0180533473499107,0.00400000000081491
3,5,0.0917716449430489,0.00399999999353895
3,6,0.0329341793318145,0.00400000000081491
3,7,0.0800788898063585,0.00400000000081491
3,8,0.0705829946807936,0.00300000000424916
3,9,0.0497786855262543,0.00399999999353895
3,10,0.137901675560894,0.00700000000506407
3,11,0.0780549572920416,0.00400000000081491
3,12,0.130240039799263,0.00400000000081491
3,13,0.0585144029436829,0.00399999999353895
3,14,0.0626485710588911,0.00400000000081491
3,15,0.0591340500410642,0.00400000000081491
3,16,0.137446913715887,0.00400000000081491
3,17,0.0791968873139552,0.00400000000081491
3,18,0.104077381931086,0.0029999999969732
3,19,0.0249723816288148,0.00400000000081491
3,20,0.303920199474605,0.00400000000081491
3,21,0.0780009359666697,0.00400000000081491
3,22,0.248204478819472,0.00400000000081491
3,23,0.11732129733352,0.00400000000081491
3,24,0.0651590104800738,0.00699999999778811
3,25,1.00396290928928,0.00500000000465661
3,26,0.0762716008435811,0.0029999999969732
3,27,0.09202650874879,0.00400000000081491
3,28,0.0594292861350507,0.00400000000081491
3,29,0.0584206096071365,0.00400000000081491
3,30,0.0694467575195113,0.00400000000081491
4,5,0.0908776095657127,0.00399999999353895
4,6,0.0255955240052657,0.00400000000081491
4,7,0.0826346434587551,0.00400000000081491
4,8,0.0635174927944057,0.00400000000081491
4,9,0.0527755777707326,0.0029999999969732
4,10,0.136188593541167,0.0029999999969732
4,11,0.0759161394264739,0.00700000000506407
4,12,0.132075614410961,0.00400000000081491
4,13,0.0540451987959389,0.00399999999353895
4,14,0.0541395300609293,0.00400000000081491
4,15,0.0572084203291991,0.00400000000081491
4,16,0.136360272962379,0.00400000000081491
4,17,0.0730332123433446,0.00400000000081491
4,18,0.102254307056453,0.0029999999969732
4,19,0.0126773681339787,0.0029999999969732
4,20,0.308671891883119,0.00400000000081491
4,21,0.0744320887616393,0.00400000000081491
4,22,0.247391763403115,0.00400000000081491
4,23,0.116460397922237,0.00400000000081491
4,24,0.0567414921164674,0.0029999999969732
4,25,1.00576908235634,0.00900000000547152
4,26,0.0791143800676109,0.0029999999969732
4,27,0.0964870533060691,0.00400000000081491
4,28,0.0556110955911577,0.00400000000081491
4,29,0.0548136399721444,0.00400000000081491
4,30,0.0699442483186784,0.00399999999353895
5,6,0.0930987090527292,0.00400000000081491
5,7,0.0655988736356414,0.00400000000081491
5,8,0.122442049755985,0.00400000000081491
5,9,0.0917703489513091,0.00300000000424916
5,10,0.0802849773478519,0.00399999999353895
5,11,0.0767345157324284,0.00400000000081491
5,12,0.0810680004776914,0.00400000000081491
5,13,0.102171982792974,0.00700000000506407
5,14,0.0827748816161273,0.00399999999353895
5,15,0.080704299926967,0.00400000000081491
5,16,0.0964485390606067,0.00300000000424916
5,17,0.0533300969936498,0.00400000000081491
5,18,0.043625046359789,0.00399999999353895
5,19,0.0988313954214567,0.00400000000081491
5,20,0.256034340071062,0.00300000000424916
5,21,0.0726963271809121,0.00400000000081491
5,22,0.184019152942371,0.00400000000081491
5,23,0.0813810969783303,0.00399999999353895
5,24,0.0868268085943932,0.00300000000424916
5,25,0.95736784269707,0.00499999999738066
5,26,0.0614258111510285,0.00700000000506407
5,27,0.0798706184806338,0.00399999999353895
5,28,0.0840199861554452,0.00400000000081491
5,29,0.0844616717482186,0.00400000000081491
5,30,0.0675818776726806,0.00400000000081491
6,7,0.0840063831911457,0.00400000000081491
6,8,0.0684486347146993,0.0029999999969732
6,9,0.0576589269180578,0.0029999999969732
6,10,0.137263267344431,0.00400000000081491
6,11,0.0846075741181166,0.00400000000081491
6,12,0.136614696323799,0.00400000000081491
6,13,0.0593221592505808,0.00400000000081491
6,14,0.0577228735087162,0.00400000000081491
6,15,0.0629518653180664,0.00699999999778811
6,16,0.140431362881034,0.00400000000081491
6,17,0.0765824522214292,0.0029999999969732
6,18,0.108135668260942,0.0029999999969732
6,19,0.023871511667374,0.00400000000081491
6,20,0.313477256127716,0.00400000000081491
6,21,0.0778764568697365,0.00400000000081491
6,22,0.24683745865203,0.00400000000081491
6,23,0.121434831296389,0.0029999999969732
6,24,0.0603648197606333,0.00400000000081491
6,25,0.999813484497952,0.00499999999738066
6,26,0.0860202611056036,0.00400000000081491
6,27,0.103075069395015,0.00700000000506407
6,28,0.0591408445649498,0.00400000000081491
6,29,0.0592414591599048,0.00399999999353895
6,30,0.0776408425513213,0.00400000000081491
7,8,0.129542165565324,0.00400000000081491
7,9,0.0997946417351901,0.00400000000081491
7,10,0.0731184336164356,0.0029999999969732
7,11,0.0738188676681175,0.00400000000081491
7,12,0.0659903737359034,0.00400000000081491
7,13,0.109950453754863,0.00400000000081491
7,14,0.108718585293171,0.00400000000081491
7,15,0.0824243615537551,0.00400000000081491
7,16,0.0819530025436703,0.00699999999778811
7,17,0.0867325675588296,0.00400000000081491
7,18,0.0707502611219224,0.00400000000081491
7,19,0.0909486098376314,0.00400000000081491
7,20,0.247648363003619,0.0029999999969732
7,21,0.072240171207427,0.00400000000081491
7,22,0.179622715574258,0.00400000000081491
7,23,0.0682270600846006,0.00400000000081491
7,24,0.111860130961192,0.0029999999969732
7,25,0.955715024202612,0.00499999999738066
7,26,0.0667157358858011,0.00300000000424916
7,27,0.0815347143056317,0.00400000000081491
7,28,0.0954150538890271,0.00699999999778811
7,29,0.0882227817133075,0.00400000000081491
7,30,0.0738783012499405,0.00300000000424916
8,9,0.0654188795692443,0.0029999999969732
8,10,0.163434324413191,0.00300000000424916
8,11,0.0960496409083915,0.00300000000424916
8,12,0.165747110858834,0.00400000000081491
8,13,0.0522143145672233,0.00400000000081491
8,14,0.0617937678490982,0.0029999999969732
8,15,0.0779221920797781,0.00400000000081491
8,16,0.166464940019982,0.0029999999969732
8,17,0.0990687536938007,0.0029999999969732
8,18,0.135082248836261,0.00400000000081491
8,19,0.0577253647712672,0.00600000000122236
8,20,0.34486540242212,0.00300000000424916
8,21,0.096379866221726,0.00400000000081491
8,22,0.275016437675411,0.0029999999969732
8,23,0.152475711811529,0.00400000000081491
8,24,0.0605372652171887,0.0029999999969732
8,25,1.02201694384818,0.00400000000081491
8,26,0.108298136486858,0.00400000000081491
8,27,0.120868401421409,0.00400000000081491
8,28,0.0714562625890609,0.0029999999969732
8,29,0.0735065818827878,0.00400000000081491
8,30,0.0967457618662494,0.00400000000081491
9,10,0.140206490407619,0.0029999999969732
9,11,0.0823146251300129,0.00699999999778811
9,12,0.136228008331507,0.0029999999969732
9,13,0.0570452780860922,0.00400000000081491
9,14,0.0529418314424625,0.00400000000081491
9,15,0.0532991165244267,0.00400000000081491
9,16,0.141039180078193,0.0029999999969732
9,17,0.0736739793946378,0.00400000000081491
9,18,0.105343761178528,0.00400000000081491
9,19,0.0524125861278506,0.00400000000081491
9,20,0.315551309029418,0.0029999999969732
9,21,0.0755095307098651,0.00400000000081491
9,22,0.252786175280005,0.00400000000081491
9,23,0.120284028987239,0.00600000000122236
9,24,0.0583028740816373,0.00400000000081491
9,25,1.00892550861123,0.00499999999738066
9,26,0.0606334536356012,0.00400000000081491
9,27,0.0928538190882481,0.00400000000081491
9,28,0.0567817103520382,0.00400000000081491
9,29,0.0539567256957836,0.0029999999969732
9,30,0.0697273005463099,0.00400000000081491
10,11,0.0983324956213135,0.00400000000081491
10,12,0.0460559487419869,0.00400000000081491
10,13,0.148530192128908,0.00400000000081491
10,14,0.143026639567923,0.00600000000122236
10,15,0.117124471300308,0.00400000000081491
10,16,0.050367180997461,0.00400000000081491
10,17,0.113262158379146,0.0029999999969732
10,18,0.0756235986997334,0.00400000000081491
10,19,0.143611479532551,0.00400000000081491
10,20,0.233114038382972,0.0029999999969732
10,21,0.0947607879346528,0.00400000000081491
10,22,0.129593645158475,0.00400000000081491
10,23,0.0643189155260445,0.0029999999969732
10,24,0.147400037725025,0.00400000000081491
10,25,0.930912214824931,0.00500000000465661
10,26,0.0909479363710067,0.00699999999778811
10,27,0.1060156492804,0.00400000000081491
10,28,0.133651255405702,0.0029999999969732
10,29,0.124076388095811,0.0029999999969732
10,30,0.106140148324035,0.00400000000081491
11,12,0.0966074369686605,0.00400000000081491
11,13,0.08142261314391,0.00400000000081491
11,14,0.0835419094838531,0.00400000000081491
11,15,0.0731570796400962,0.00400000000081491
11,16,0.101771096301176,0.00399999999353895
11,17,0.0757965284857089,0.00400000000081491
11,18,0.078616613869296,0.00400000000081491
11,19,0.080685033274126,0.00400000000081491
11,20,0.281959607579054,0.00399999999353895
11,21,0.0355304052912128,0.00400000000081491
11,22,0.209009344737487,0.00400000000081491
11,23,0.0937293594183319,0.00400000000081491
11,24,0.085076988258308,0.00400000000081491
11,25,0.985927427278577,0.00499999999738066
11,26,0.0676521612424134,0.00400000000081491
11,27,0.0901240097977802,0.00400000000081491
11,28,0.0544678365343901,0.00699999999778811
11,29,0.0782420741065672,0.00400000000081491
11,30,0.0730079133076547,0.00400000000081491
12,13,0.146715800630415,0.00400000000081491
12,14,0.143032078604088,0.00400000000081491
12,15,0.117311760747792,0.00400000000081491
12,16,0.0527450023330894,0.0029999999969732
12,17,0.11598339265414,0.00400000000081491
12,18,0.0775597663810522,0.00300000000424916
12,19,0.140647307407202,0.0029999999969732
12,20,0.216024427740846,0.00400000000081491
12,21,0.0993228462874665,0.00700000000506407
12,22,0.15246612315098,0.0029999999969732
12,23,0.0487694766834987,0.00400000000081491
12,24,0.145926640194258,0.00400000000081491
12,25,0.948378935925693,0.00400000000081491
12,26,0.0889545530704025,0.00400000000081491
12,27,0.0928939145324205,0.00400000000081491
12,28,0.131486228193809,0.00399999999353895
12,29,0.121961115212962,0.00300000000424916
12,30,0.0981372722687265,0.00400000000081491
13,14,0.0513949451798269,0.00400000000081491
13,15,0.0655653751621426,0.00999999999476131
13,16,0.15071368375529,0.0029999999969732
13,17,0.0814998319484311,0.00400000000081491
13,18,0.115557175924922,0.0029999999969732
13,19,0.0520043998277733,0.00400000000081491
13,20,0.326314739785031,0.00300000000424916
13,21,0.0787410967771011,0.00400000000081491
13,22,0.260346462795337,0.00400000000081491
13,23,0.133524524392954,0.0029999999969732
13,24,0.052825448507388,0.0029999999969732
13,25,1.01129813821959,0.00499999999738066
13,26,0.0924608905719754,0.00400000000081491
13,27,0.105853669985281,0.00400000000081491
13,28,0.0560623664952318,0.00699999999778811
13,29,0.0609250548127451,0.00500000000465661
13,30,0.0783318979524109,0.00399999999353895
14,15,0.0632979157478446,0.00400000000081491
14,16,0.145983915292527,0.00300000000424916
14,17,0.0521740789503652,0.00400000000081491
14,18,0.0976500715414921,0.00400000000081491
14,19,0.0533090784182752,0.00399999999353895
14,20,0.32201730799316,0.00300000000424916
14,21,0.0791592861050589,0.00400000000081491
14,22,0.253338547607828,0.00400000000081491
14,23,0.127532285168838,0.00400000000081491
14,24,0.014600899794401,0.0029999999969732
14,25,1.01346825259062,0.00499999999738066
14,26,0.0848732783030066,0.00700000000506407
14,27,0.104795017315081,0.00399999999353895
14,28,0.0515943995554783,0.00400000000081491
14,29,0.0581484906049269,0.00400000000081491
14,30,0.0736721251145553,0.00400000000081491
15,16,0.118265451851379,0.00400000000081491
15,17,0.0669476033093999,0.00400000000081491
15,18,0.08769141752248,0.00400000000081491
15,19,0.0604371785884649,0.00400000000081491
15,20,0.299489490631904,0.0029999999969732
15,21,0.061516767774997,0.00399999999353895
15,22,0.227083398110761,0.00300000000424916
15,23,0.102863708673795,0.00400000000081491
15,24,0.0684739325229375,0.00400000000081491
15,25,0.997737944544077,0.00799999999435386
15,26,0.0603982687761109,0.00400000000081491
15,27,0.0648675816464737,0.00400000000081491
15,28,0.0638704098135045,0.00400000000081491
15,29,0.0180403030079274,0.00400000000081491
15,30,0.0325674751447244,0.00400000000081491
16,17,0.115596908760471,0.00400000000081491
16,18,0.0729907293010053,0.00400000000081491
16,19,0.144801312514985,0.0029999999969732
16,20,0.222236136430846,0.0029999999969732
16,21,0.103193843966795,0.00400000000081491
16,22,0.136432910613654,0.0029999999969732
16,23,0.0489886745193483,0.00400000000081491
16,24,0.150403550320942,0.00699999999778811
16,25,0.946559838865986,0.00500000000465661
16,26,0.0941839781353037,0.0029999999969732
16,27,0.0996771905493836,0.00400000000081491
16,28,0.135703795999972,0.00400000000081491
16,29,0.124840297375574,0.00400000000081491
16,30,0.107672686638243,0.00400000000081491
17,18,0.0550610114091105,0.0029999999969732
17,19,0.0782808589003901,0.00400000000081491
17,20,0.280984327909114,0.00400000000081491
17,21,0.0723679551777533,0.00400000000081491
17,22,0.21112210679052,0.00400000000081491
17,23,0.0990727942937168,0.0029999999969732
17,24,0.0545653986171801,0.00400000000081491
17,25,0.978893952530823,0.00800000000162981
17,26,0.0678202029060967,0.00400000000081491
17,27,0.0863561941515974,0.00400000000081491
17,28,0.0624414800225131,0.00400000000081491
17,29,0.0687095815043702,0.00399999999353895
17,30,0.0666825036110842,0.00400000000081491
18,19,0.111224954993691,0.00400000000081491
18,20,0.238919857065105,0.00300000000424916
18,21,0.0811825234980313,0.00399999999353895
18,22,0.164538664718045,0.00400000000081491
18,23,0.0697702997451263,0.00300000000424916
18,24,0.10126854576833,0.00300000000424916
18,25,0.952429221868055,0.00799999999435386
18,26,0.065627906608043,0.00400000000081491
18,27,0.0777926593875688,0.00400000000081491
18,28,0.0954702321187964,0.00400000000081491
18,29,0.0946770861349846,0.00400000000081491
18,30,0.0764292875103617,0.00400000000081491
19,20,0.319560538483876,0.00400000000081491
19,21,0.0785691975619801,0.00400000000081491
19,22,0.256042111065775,0.0029999999969732
19,23,0.125315958281947,0.00400000000081491
19,24,0.055115612634102,0.00400000000081491
19,25,1.01165842782437,0.00499999999738066
19,26,0.0854085063980597,0.00700000000506407
19,27,0.104678984682119,0.00399999999353895
19,28,0.0574088981059277,0.00400000000081491
19,29,0.0572542528858115,0.00400000000081491
19,30,0.076402358934714,0.00400000000081491
20,21,0.289777072685649,0.00400000000081491
20,22,0.187605743280057,0.0029999999969732
20,23,0.225044379899477,0.00400000000081491
20,24,0.321409180125445,0.00400000000081491
20,25,0.85112152031376,0.00400000000081491
20,26,0.272559660816845,0.0029999999969732
20,27,0.243650501036832,0.00400000000081491
20,28,0.303763202064546,0.00699999999778811
20,29,0.303299076532473,0.00400000000081491
20,30,0.276882342473537,0.00400000000081491
21,22,0.207906441766344,0.00400000000081491
21,23,0.0887099452060536,0.0029999999969732
21,24,0.0846766522274542,0.00400000000081491
21,25,0.986657463446293,0.00499999999738066
21,26,0.0620381260037125,0.00400000000081491
21,27,0.0897084619925826,0.00400000000081491
21,28,0.0524186072077426,0.00400000000081491
21,29,0.0650706378480604,0.00399999999353895
21,30,0.064310174235041,0.00700000000506407
22,23,0.165989133403961,0.00400000000081491
22,24,0.257162982635642,0.0029999999969732
22,25,0.84097060367827,0.00499999999738066
22,26,0.200942793194945,0.00400000000081491
22,27,0.199570750501842,0.00300000000424916
22,28,0.24121112094056,0.00400000000081491
22,29,0.236045567627843,0.00400000000081491
22,30,0.216338125969784,0.00399999999353895
23,24,0.131784059353654,0.00300000000424916
23,25,0.963266619222605,0.00499999999738066
23,26,0.0782708038561331,0.00400000000081491
23,27,0.0849503739883273,0.00699999999778811
23,28,0.116593922173937,0.00400000000081491
23,29,0.104878532373266,0.00300000000424916
23,30,0.087082541381808,0.00400000000081491
24,25,1.01375647031071,0.00499999999738066
24,26,0.0910812912117297,0.00400000000081491
24,27,0.105728587972091,0.00400000000081491
24,28,0.0523401334554204,0.00400000000081491
24,29,0.0625975125629213,0.00399999999353895
24,30,0.0769767144867821,0.00400000000081491
25,26,0.974687137022182,0.00800000000162981
25,27,0.970191798786913,0.00499999999738066
25,28,1.00147215289207,0.00500000000465661
25,29,1.0057332029014,0.00499999999738066
25,30,0.992355944373885,0.00500000000465661
26,27,0.0742047850217243,0.00399999999353895
26,28,0.0785987157222034,0.00400000000081491
26,29,0.0705322038876417,0.00400000000081491
26,30,0.0621238535695196,0.00400000000081491
27,28,0.0934358213937609,0.00699999999778811
27,29,0.0683669460971592,0.00400000000081491
27,30,0.0456885200775051,0.00400000000081491
28,29,0.0612558918079556,0.00400000000081491
28,30,0.0712606241045235,0.00400000000081491
29,30,0.0330058711178765,0.00400000000081491


"After.Trace.ID","Before.Trace.ID","Difference","Runtime"
1,1,0.280087886665816,0.00300000000424916
1,2,0.0736486733920714,0.0029999999969732
1,3,0.0971682430402244,0.00300000000424916
1,4,0.0942995285137182,0.00400000000081491
1,5,0.163134963165377,0.0029999999969732
1,6,0.0951971301727053,0.0029999999969732
1,7,0.169480302516528,0.00400000000081491
1,8,0.0595598910588017,0.00600000000122236
1,9,0.0922535433195769,0.00300000000424916
1,10,0.212999849041564,0.0029999999969732
1,11,0.140476969156318,0.00400000000081491
1,12,0.20935835171938,0.0029999999969732
1,13,0.0804766304139277,0.00300000000424916
1,14,0.0897782375800851,0.0029999999969732
1,15,0.115183824638135,0.00400000000081491
1,16,0.212205955974301,0.0029999999969732
1,17,0.13476311949985,0.00300000000424916
1,18,0.177788691603254,0.0029999999969732
1,19,0.0863597417602177,0.00300000000424916
1,20,0.380556134543001,0.0029999999969732
1,21,0.137871867757514,0.00300000000424916
1,22,0.32442223721374,0.0029999999969732
1,23,0.192444646037808,0.00600000000122236
1,24,0.0874730822076041,0.00400000000081491
1,25,1.05978510178936,0.00400000000081491
1,26,0.14946381468901,0.0029999999969732
1,27,0.156086750188501,0.00300000000424916
1,28,0.102243370281702,0.00300000000424916
1,29,0.106279228054004,0.0029999999969732
1,30,0.131869204819166,0.0029999999969732
2,1,0.17467084302713,0.0029999999969732
2,2,0.331751836171178,0.00400000000081491
2,3,0.310939990723369,0.00400000000081491
2,4,0.317231307208426,0.00300000000424916
2,5,0.256243152054468,0.00799999999435386
2,6,0.3172805911144,0.00400000000081491
2,7,0.239123995710299,0.00400000000081491
2,8,0.355634068809659,0.00300000000424916
2,9,0.318706097635451,0.00399999999353895
2,10,0.214389675317994,0.00400000000081491
2,11,0.283978634188346,0.00400000000081491
2,12,0.201581043438091,0.00300000000424916
2,13,0.33325669943203,0.00400000000081491
2,14,0.331697989639988,0.00399999999353895
2,15,0.301685976997502,0.00400000000081491
2,16,0.219323555401329,0.00400000000081491
2,17,0.294751054988791,0.00300000000424916
2,18,0.25026245164294,0.00399999999353895
2,19,0.32665290668915,0.00400000000081491
2,20,0.13960972718313,0.00700000000506407
2,21,0.283967297591047,0.00400000000081491
2,22,0.171441420373926,0.00399999999353895
2,23,0.225321589436204,0.00300000000424916
2,24,0.33398781828703,0.00400000000081491
2,25,0.846876974034378,0.00499999999738066
2,26,0.269549484562628,0.00400000000081491
2,27,0.25713425434783,0.00400000000081491
2,28,0.313519125563179,0.00400000000081491
2,29,0.306994773675604,0.00400000000081491
2,30,0.280197418161535,0.0029999999969732
3,1,0.279671719557946,0.0029999999969732
3,2,0.073254281397101,0.0029999999969732
3,3,0.0967553810859815,0.00300000000424916
3,4,0.0938762224345478,0.0029999999969732
3,5,0.162702821644684,0.00300000000424916
3,6,0.0947886553394612,0.00699999999778811
3,7,0.169047848703958,0.0029999999969732
3,8,0.0591868118008713,0.00300000000424916
3,9,0.0918366659165126,0.0029999999969732
3,10,0.212563236890488,0.0029999999969732
3,11,0.140051757257529,0.0029999999969732
3,12,0.208927039780016,0.00300000000424916
3,13,0.0800614931572755,0.0029999999969732
3,14,0.089364365246349,0.00400000000081491
3,15,0.114750216141369,0.00300000000424916
3,16,0.211777886009544,0.0029999999969732
3,17,0.134341551817409,0.0029999999969732
3,18,0.177353350796333,0.00300000000424916
3,19,0.0859407902565028,0.00300000000424916
3,20,0.380182451797239,0.0029999999969732
3,21,0.137438065553912,0.00300000000424916
3,22,0.324001362364836,0.0029999999969732
3,23,0.192016034320099,0.0029999999969732
3,24,0.0870696305767053,0.00400000000081491
3,25,1.059506325037,0.00700000000506407
3,26,0.149027385338527,0.00399999999353895
3,27,0.155682160725584,0.00300000000424916
3,28,0.101824642701027,0.0029999999969732
3,29,0.105849489857559,0.00400000000081491
3,30,0.131439391727519,0.00300000000424916
4,1,0.186386906739603,0.00400000000081491
4,2,0.0756680920249131,0.00399999999353895
4,3,0.0635169452498601,0.00400000000081491
4,4,0.0581189164673164,0.00400000000081491
4,5,0.090978866965135,0.00300000000424916
4,6,0.0567112999724982,0.00399999999353895
4,7,0.0876768112008509,0.00400000000081491
4,8,0.0795996166803421,0.00400000000081491
4,9,0.0685476002863538,0.00400000000081491
4,10,0.127954970469889,0.00400000000081491
4,11,0.087589407925976,0.00400000000081491
4,12,0.129911223111308,0.00400000000081491
4,13,0.0720244220409073,0.00400000000081491
4,14,0.0712918749545086,0.00400000000081491
4,15,0.0376404138866464,0.00400000000081491
4,16,0.132905588079686,0.00400000000081491
4,17,0.0732680317475173,0.00400000000081491
4,18,0.10140569175618,0.00400000000081491
4,19,0.0597329869319478,0.00399999999353895
4,20,0.299479162260298,0.00300000000424916
4,21,0.0748795321910703,0.00400000000081491
4,22,0.232992850401506,0.00300000000424916
4,23,0.112556341333438,0.00400000000081491
4,24,0.0723620607274175,0.00699999999778811
4,25,0.990557652318969,0.00499999999738066
4,26,0.0824756968315317,0.00400000000081491
4,27,0.0741415929402188,0.00400000000081491
4,28,0.0674390237734476,0.00400000000081491
4,29,0.0332485550836158,0.00400000000081491
4,30,0.0503001572885041,0.00400000000081491
5,1,0.178788757333118,0.00400000000081491
5,2,0.0801417931536968,0.00399999999353895
5,3,0.0660292696339901,0.00400000000081491
5,4,0.0613814940151718,0.00400000000081491
5,5,0.0787166015074484,0.00400000000081491
5,6,0.0643417495920304,0.00400000000081491
5,7,0.0838478841776314,0.00699999999778811
5,8,0.0817171473783426,0.00400000000081491
5,9,0.0647983639817777,0.00400000000081491
5,10,0.118988552624049,0.0029999999969732
5,11,0.0768324795736763,0.00400000000081491
5,12,0.121429402830249,0.0029999999969732
5,13,0.0701065757899894,0.00400000000081491
5,14,0.063482757709611,0.0029999999969732
5,15,0.0257834544497629,0.00400000000081491
5,16,0.122995678106003,0.00400000000081491
5,17,0.0578366799902592,0.00400000000081491
5,18,0.0850193152927031,0.00400000000081491
5,19,0.0642510070760355,0.00399999999353895
5,20,0.29423442283283,0.00700000000506407
5,21,0.0666255915686398,0.00400000000081491
5,22,0.223398335762378,0.00400000000081491
5,23,0.106538799104222,0.00399999999353895
5,24,0.0652215641917541,0.00400000000081491
5,25,0.988447388358117,0.00500000000465661
5,26,0.0707072128132818,0.00400000000081491
5,27,0.065938883864981,0.00399999999353895
5,28,0.0630574593797763,0.00400000000081491
5,29,0.0289234432332205,0.00400000000081491
5,30,0.038262957484856,0.00400000000081491
6,1,0.187996872726352,0.00400000000081491
6,2,0.0895873926300904,0.0029999999969732
6,3,0.0821760333020929,0.00800000000162981
6,4,0.0833702996183989,0.00400000000081491
6,5,0.0811923968272889,0.00400000000081491
6,6,0.0889336951668376,0.00400000000081491
6,7,0.0981096281533771,0.00400000000081491
6,8,0.10104288321964,0.00400000000081491
6,9,0.0732317413392238,0.0029999999969732
6,10,0.126510418311552,0.00400000000081491
6,11,0.0542811345945416,0.00400000000081491
6,12,0.119621192565059,0.00400000000081491
6,13,0.0808250675861165,0.00400000000081491
6,14,0.0759403586946381,0.00400000000081491
6,15,0.0798252729306576,0.00699999999778811
6,16,0.123629341647413,0.00400000000081491
6,17,0.0708094638271277,0.00400000000081491
6,18,0.0863721558414974,0.00400000000081491
6,19,0.088441602082989,0.00400000000081491
6,20,0.283379945967427,0.00400000000081491
6,21,0.0559128654452847,0.00400000000081491
6,22,0.22740767469966,0.00399999999353895
6,23,0.106325192587198,0.00400000000081491
6,24,0.0783363226304753,0.00300000000424916
6,25,0.994626259261905,0.00500000000465661
6,26,0.0758403747490015,0.00399999999353895
6,27,0.0886529674729371,0.00700000000506407
6,28,0.0389083067126812,0.00400000000081491
6,29,0.080094003302581,0.00400000000081491
6,30,0.0775682339719544,0.00399999999353895
7,1,0.201146031879829,0.00400000000081491
7,2,0.0586337337578575,0.00400000000081491
7,3,0.0564247174193656,0.00400000000081491
7,4,0.05364736611207,0.00400000000081491
7,5,0.0892778612390214,0.00400000000081491
7,6,0.0553507734074967,0.00400000000081491
7,7,0.0960225233214958,0.00400000000081491
7,8,0.0654761367842691,0.00400000000081491
7,9,0.0514740918018904,0.00699999999778811
7,10,0.134814262841147,0.00499999999738066
7,11,0.0762950286882029,0.00400000000081491
7,12,0.133300251889919,0.00400000000081491
7,13,0.0246721946291782,0.00400000000081491
7,14,0.053191147079061,0.00400000000081491
7,15,0.062431898277547,0.00400000000081491
7,16,0.136648887814448,0.00400000000081491
7,17,0.0694498350293764,0.00399999999353895
7,18,0.101240541955733,0.00400000000081491
7,19,0.0541712295265496,0.00400000000081491
7,20,0.309756501959575,0.00400000000081491
7,21,0.0718610766207557,0.00699999999778811
7,22,0.24404582711652,0.0029999999969732
7,23,0.118601908466055,0.00400000000081491
7,24,0.0553917183069966,0.00400000000081491
7,25,0.995537699308954,0.00600000000122236
7,26,0.0785344280906237,0.00400000000081491
7,27,0.0963481514955814,0.00400000000081491
7,28,0.0533601246811036,0.00400000000081491
7,29,0.0598413318092058,0.00399999999353895
7,30,0.0731298625080558,0.00400000000081491
8,1,0.137977360942432,0.00400000000081491
8,2,0.153801562189922,0.00600000000122236
8,3,0.136216052984815,0.0029999999969732
8,4,0.140449204296073,0.00400000000081491
8,5,0.0902958653201983,0.00400000000081491
8,6,0.147513284247358,0.0029999999969732
8,7,0.0787420480226932,0.0029999999969732
8,8,0.178473115384126,0.00400000000081491
8,9,0.145290019025438,0.0029999999969732
8,10,0.0717685563436951,0.00400000000081491
8,11,0.111309921826965,0.00400000000081491
8,12,0.038284532239349,0.00300000000424916
8,13,0.156083911351854,0.00399999999353895
8,14,0.152705996495318,0.00400000000081491
8,15,0.127826264191451,0.00700000000506407
8,16,0.0696784910703796,0.00400000000081491
8,17,0.12744116885061,0.0029999999969732
8,18,0.0870251702895985,0.00400000000081491
8,19,0.15051688886536,0.00400000000081491
8,20,0.209620569354569,0.0029999999969732
8,21,0.112298053396767,0.00400000000081491
8,22,0.16024857558957,0.00400000000081491
8,23,0.0617177924687763,0.0029999999969732
8,24,0.157158518974304,0.00400000000081491
8,25,0.954571200362256,0.00500000000465661
8,26,0.100090777620275,0.0029999999969732
8,27,0.0998523604184719,0.00600000000122236
8,28,0.142277769093168,0.0029999999969732
8,29,0.132014682207677,0.0029999999969732
8,30,0.105682779171463,0.00400000000081491
9,1,0.15325545974098,0.00400000000081491
9,2,0.101868207242749,0.0029999999969732
9,3,0.0890257530770187,0.00400000000081491
9,4,0.0835218337137633,0.00400000000081491
9,5,0.0471148050849429,0.00400000000081491
9,6,0.0872031814592572,0.00400000000081491
9,7,0.0793806527552787,0.00400000000081491
9,8,0.112009854528328,0.0029999999969732
9,9,0.0887987568182676,0.00699999999778811
9,10,0.0957760382380264,0.00400000000081491
9,11,0.0773307234925023,0.00400000000081491
9,12,0.0959825176894838,0.00400000000081491
9,13,0.0959727781821779,0.00400000000081491
9,14,0.073000228329245,0.00400000000081491
9,15,0.0775335240819442,0.00400000000081491
9,16,0.0933193068236712,0.0029999999969732
9,17,0.0358197046932644,0.00400000000081491
9,18,0.0410135427408355,0.00400000000081491
9,19,0.0912566879765185,0.00400000000081491
9,20,0.256182831792372,0.0029999999969732
9,21,0.0777643021197278,0.00800000000162981
9,22,0.192302797418899,0.0029999999969732
9,23,0.0773343439996963,0.00400000000081491
9,24,0.0745482931075747,0.00400000000081491
9,25,0.967669667610099,0.00500000000465661
9,26,0.0697778899922315,0.00399999999353895
9,27,0.0761869952113815,0.00400000000081491
9,28,0.0751110528139031,0.00300000000424916
9,29,0.0783204523708806,0.00300000000424916
9,30,0.0694186586874472,0.00400000000081491
10,1,0.177455286140667,0.00399999999353895
10,2,0.0783797675912957,0.00700000000506407
10,3,0.0708069729533779,0.00400000000081491
10,4,0.0667554418596914,0.00400000000081491
10,5,0.0803665742137425,0.00400000000081491
10,6,0.0691204145957741,0.00400000000081491
10,7,0.0831504317988778,0.00400000000081491
10,8,0.0861662012536429,0.00400000000081491
10,9,0.0669198308938636,0.00399999999353895
10,10,0.115766069936896,0.00400000000081491
10,11,0.0713217325400358,0.00400000000081491
10,12,0.115756138773412,0.00699999999778811
10,13,0.0520628384103475,0.00400000000081491
10,14,0.0672408825855029,0.00400000000081491
10,15,0.055557669731888,0.00400000000081491
10,16,0.116491378228654,0.00400000000081491
10,17,0.0597603716408911,0.00400000000081491
10,18,0.0836823485767319,0.00400000000081491
10,19,0.0695629997087933,0.00400000000081491
10,20,0.289938846106294,0.00400000000081491
10,21,0.0659759800240366,0.00399999999353895
10,22,0.221355779735248,0.00699999999778811
10,23,0.099689537490891,0.00400000000081491
10,24,0.0683568030614286,0.00400000000081491
10,25,0.981825662346265,0.00499999999738066
10,26,0.070416693064406,0.00400000000081491
10,27,0.0810928686420157,0.00400000000081491
10,28,0.0633430827463587,0.00400000000081491
10,29,0.0561512206702656,0.00400000000081491
10,30,0.0609080813764342,0.00400000000081491
11,1,0.184062836811673,0.0429999999978463
11,2,0.0503639241539271,0.00400000000081491
11,3,0.0630072114250216,0.0029999999969732
11,4,0.0625725839283058,0.00400000000081491
11,5,0.0734932891753183,0.00400000000081491
11,6,0.063375456073783,0.00400000000081491
11,7,0.0716213831536157,0.00300000000424916
11,8,0.0844143552325328,0.00399999999353895
11,9,0.0647904406354036,0.00300000000424916
11,10,0.103191534135088,0.00400000000081491
11,11,0.0679177703309583,0.00400000000081491
11,12,0.0938505410226579,0.0029999999969732
11,13,0.0712144019378505,0.00400000000081491
11,14,0.0715066992380411,0.00400000000081491
11,15,0.0626457543189745,0.00400000000081491
11,16,0.106526614002434,0.0029999999969732
11,17,0.0805583148277192,0.00699999999778811
11,18,0.0915356399255809,0.00400000000081491
11,19,0.0669343403633325,0.00300000000424916
11,20,0.286893269606487,0.00300000000424916
11,21,0.0627128423910956,0.00399999999353895
11,22,0.224615090856308,0.00300000000424916
11,23,0.0849288556427644,0.00400000000081491
11,24,0.0745478676150259,0.00400000000081491
11,25,0.996832189392979,0.00499999999738066
11,26,0.0681802698356361,0.0029999999969732
11,27,0.0791813197604929,0.00400000000081491
11,28,0.0680408684706699,0.00400000000081491
11,29,0.0574238395067006,0.00400000000081491
11,30,0.0580914844479399,0.00300000000424916
12,1,0.231647806783023,0.00399999999353895
12,2,0.0536568095185131,0.00700000000506407
12,3,0.0621777627218337,0.00400000000081491
12,4,0.059363085543808,0.00399999999353895
12,5,0.11875324699993,0.00400000000081491
12,6,0.0615781000959753,0.00400000000081491
12,7,0.121436314970612,0.00400000000081491
12,8,0.0560138057671847,0.00400000000081491
12,9,0.059597184841752,0.0029999999969732
12,10,0.165702949290179,0.0029999999969732
12,11,0.103845902782579,0.00400000000081491
12,12,0.161698508881928,0.00400000000081491
12,13,0.0563224449497984,0.00400000000081491
12,14,0.0623678604451016,0.00400000000081491
12,15,0.0568573492814542,0.00400000000081491
12,16,0.166468284401275,0.00699999999778811
12,17,0.0941659753458839,0.00400000000081491
12,18,0.132456675816432,0.00400000000081491
12,19,0.054818503976921,0.00400000000081491
12,20,0.335622101163609,0.00400000000081491
12,21,0.0952449028368655,0.00400000000081491
12,22,0.276934185576632,0.00399999999353895
12,23,0.144853057754919,0.00300000000424916
12,24,0.062213841011909,0.00400000000081491
12,25,1.02904415851323,0.00499999999738066
12,26,0.104805621526005,0.00400000000081491
12,27,0.101112832726175,0.00400000000081491
12,28,0.0698065041297682,0.00400000000081491
12,29,0.0461161388626119,0.00699999999778811
12,30,0.0727733907835559,0.00499999999738066
13,1,0.211328385035579,0.00300000000424916
13,2,0.0569075005895008,0.00400000000081491
13,3,0.0501999913876264,0.00400000000081491
13,4,0.0525030818133844,0.00399999999353895
13,5,0.0967184225387295,0.00400000000081491
13,6,0.0627540621931037,0.00400000000081491
13,7,0.0990459116583594,0.00400000000081491
13,8,0.0657749391806821,0.00400000000081491
13,9,0.0514328585396362,0.00400000000081491
13,10,0.141190430704635,0.0029999999969732
13,11,0.0861750754651305,0.00400000000081491
13,12,0.133394964111572,0.00400000000081491
13,13,0.0589756191089909,0.00699999999778811
13,14,0.0649192525960786,0.00400000000081491
13,15,0.0390466891134994,0.00400000000081491
13,16,0.141698717926949,0.00400000000081491
13,17,0.0856988431900713,0.00400000000081491
13,18,0.110640775499944,0.00400000000081491
13,19,0.0549379553218572,0.00400000000081491
13,20,0.308650024355659,0.00400000000081491
13,21,0.0809543927457131,0.00400000000081491
13,22,0.25396942577909,0.00399999999353895
13,23,0.12061524196913,0.00400000000081491
13,24,0.0669699789081495,0.00300000000424916
13,25,1.01385649195356,0.00799999999435386
13,26,0.0800961195697782,0.0029999999969732
13,27,0.0725832645267226,0.00400000000081491
13,28,0.0658264804633864,0.00400000000081491
13,29,0.0328244931918737,0.00400000000081491
13,30,0.0470743560620134,0.00399999999353895
14,1,0.201385154326457,0.00300000000424916
14,2,0.0616722259302131,0.00300000000424916
14,3,0.054310753290034,0.00400000000081491
14,4,0.0519242715705859,0.00399999999353895
14,5,0.0884080392915313,0.00400000000081491
14,6,0.0533557697690328,0.00400000000081491
14,7,0.0940588494528644,0.00400000000081491
14,8,0.0692919148146641,0.0059999999939464
14,9,0.0495963895630568,0.00400000000081491
14,10,0.13366609033887,0.00400000000081491
14,11,0.061891795193077,0.00400000000081491
14,12,0.133488872713012,0.00400000000081491
14,13,0.0533170623680462,0.00400000000081491
14,14,0.0544574491211245,0.00300000000424916
14,15,0.0513333046494081,0.00400000000081491
14,16,0.13490630104589,0.00300000000424916
14,17,0.0690879836772082,0.0029999999969732
14,18,0.0996808243814381,0.00400000000081491
14,19,0.0534063827673121,0.00400000000081491
14,20,0.310024719189427,0.00600000000122236
14,21,0.0497109387950986,0.00499999999738066
14,22,0.241526309386956,0.0029999999969732
14,23,0.116864386297964,0.00400000000081491
14,24,0.0595912898789039,0.00400000000081491
14,25,1.00409565159498,0.00499999999738066
14,26,0.0753793694878497,0.00400000000081491
14,27,0.0904478892612912,0.00400000000081491
14,28,0.0247711860622025,0.00500000000465661
14,29,0.049430934686114,0.00399999999353895
14,30,0.0650408349011685,0.00400000000081491
15,1,0.216467160999953,0.00300000000424916
15,2,0.0249571117582914,0.00699999999778811
15,3,0.0575372663737512,0.00400000000081491
15,4,0.0575000522520281,0.0029999999969732
15,5,0.100379674562103,0.00400000000081491
15,6,0.0587954302969512,0.00400000000081491
15,7,0.0981578926256247,0.00300000000424916
15,8,0.0708915882100325,0.0029999999969732
15,9,0.0557375897560904,0.00400000000081491
15,10,0.138822231734725,0.00300000000424916
15,11,0.083758512197541,0.00400000000081491
15,12,0.127100654017821,0.00400000000081491
15,13,0.0597591648436496,0.0029999999969732
15,14,0.0636431652878071,0.00300000000424916
15,15,0.0678416557158734,0.00400000000081491
15,16,0.136934802937799,0.00699999999778811
15,17,0.0903607366410837,0.0029999999969732
15,18,0.116097603629388,0.00400000000081491
15,19,0.0567493280141579,0.00400000000081491
15,20,0.31365449244476,0.00300000000424916
15,21,0.0795521333885112,0.00400000000081491
15,22,0.258748451877291,0.00399999999353895
15,23,0.113284808605297,0.00300000000424916
15,24,0.064875509101923,0.00400000000081491
15,25,1.02464027186574,0.00499999999738066
15,26,0.0873188623871159,0.0029999999969732
15,27,0.0969756616462974,0.00400000000081491
15,28,0.0661837415457683,0.00400000000081491
15,29,0.0578994100467709,0.00700000000506407
15,30,0.0710083544158377,0.00399999999353895
16,1,0.655919794787646,0.00300000000424916
16,2,0.856709570723997,0.00400000000081491
16,3,0.825838863821227,0.00400000000081491
16,4,0.830319148975013,0.0029999999969732
16,5,0.770117212840751,0.0029999999969732
16,6,0.831347721510242,0.00400000000081491
16,7,0.765057310750645,0.00400000000081491
16,8,0.856964741953035,0.0029999999969732
16,9,0.835579039249072,0.00400000000081491
16,10,0.736544890644669,0.00400000000081491
16,11,0.792859134314735,0.00400000000081491
16,12,0.739813913749139,0.0029999999969732
16,13,0.842589567286043,0.00700000000506407
16,14,0.838266524519016,0.00399999999353895
16,15,0.814717738028913,0.00400000000081491
16,16,0.735798101493426,0.00300000000424916
16,17,0.793464180068924,0.00300000000424916
16,18,0.750314906416232,0.00399999999353895
16,19,0.839479684207434,0.00400000000081491
16,20,0.576587508335935,0.00300000000424916
16,21,0.803352427035227,0.00400000000081491
16,22,0.623184009044979,0.00400000000081491
16,23,0.761416887647472,0.0029999999969732
16,24,0.837296871112864,0.00400000000081491
16,25,0.644622317042095,0.00800000000162981
16,26,0.789314737258435,0.00400000000081491
16,27,0.76758424274409,0.00399999999353895
16,28,0.821398296624243,0.00400000000081491
16,29,0.824369327898232,0.00400000000081491
16,30,0.799728255305531,0.00300000000424916
17,1,0.196372444667487,0.00400000000081491
17,2,0.0592438354007275,0.00399999999353895
17,3,0.0516834997809797,0.00400000000081491
17,4,0.0484045606938549,0.00400000000081491
17,5,0.0823247080845467,0.00400000000081491
17,6,0.0547035514698139,0.00400000000081491
17,7,0.0860424318066378,0.00699999999778811
17,8,0.0717753853252356,0.00400000000081491
17,9,0.0547142502166971,0.00400000000081491
17,10,0.125866634205926,0.00400000000081491
17,11,0.0472076862625007,0.00400000000081491
17,12,0.121496039841214,0.00400000000081491
17,13,0.0542802977670715,0.00400000000081491
17,14,0.0544098011102098,0.00399999999353895
17,15,0.0551032488991733,0.00400000000081491
17,16,0.125364987594541,0.00400000000081491
17,17,0.0661626039682575,0.00400000000081491
17,18,0.0922136007844273,0.00400000000081491
17,19,0.0516197927431739,0.00699999999778811
17,20,0.300494691266092,0.00400000000081491
17,21,0.0446026527159681,0.00400000000081491
17,22,0.237336295920605,0.00400000000081491
17,23,0.106538001023624,0.00400000000081491
17,24,0.0570987289951711,0.00400000000081491
17,25,1.00531873423152,0.00499999999738066
17,26,0.0723753319001353,0.00400000000081491
17,27,0.086493821741498,0.00400000000081491
17,28,0.0193419246311604,0.00400000000081491
17,29,0.0525002700249563,0.00699999999778811
17,30,0.0618313032576566,0.00399999999353895
18,1,0.190654587973322,0.00300000000424916
18,2,0.0510928277134313,0.00400000000081491
18,3,0.069713539849189,0.00400000000081491
18,4,0.0668305429029562,0.0029999999969732
18,5,0.0887905546045782,0.00400000000081491
18,6,0.0678795255752759,0.00400000000081491
18,7,0.0805613789726412,0.0029999999969732
18,8,0.0839749381484525,0.00400000000081491
18,9,0.0671490770293007,0.00300000000424916
18,10,0.109611335553363,0.0029999999969732
18,11,0.0680878157392448,0.00400000000081491
18,12,0.101022796086965,0.00700000000506407
18,13,0.0738849231138601,0.0029999999969732
18,14,0.0744758964064661,0.0029999999969732
18,15,0.0641982054003607,0.00400000000081491
18,16,0.104401351462422,0.00400000000081491
18,17,0.0825981240498331,0.0029999999969732
18,18,0.0955959389780478,0.00400000000081491
18,19,0.0686598270266345,0.00400000000081491
18,20,0.293094080806768,0.0029999999969732
18,21,0.0676428564893646,0.00400000000081491
18,22,0.22902932318682,0.00400000000081491
18,23,0.0872925108329745,0.00300000000424916
18,24,0.0757527530260099,0.00699999999778811
18,25,1.0052499677954,0.00499999999738066
18,26,0.0727199411603248,0.00300000000424916
18,27,0.0850566892350542,0.00399999999353895
18,28,0.0709657245108106,0.00400000000081491
18,29,0.0600890057793903,0.00400000000081491
18,30,0.066029858158784,0.00400000000081491
19,1,0.149375661615997,0.00300000000424916
19,2,0.111559905470383,0.00399999999353895
19,3,0.0930343382054359,0.00400000000081491
19,4,0.0928708422926062,0.00400000000081491
19,5,0.0343454605763287,0.00300000000424916
19,6,0.0989918132502447,0.00400000000081491
19,7,0.0639927145892006,0.00400000000081491
19,8,0.130814240794674,0.00400000000081491
19,9,0.0961841169922451,0.00400000000081491
19,10,0.0840120481124862,0.0029999999969732
19,11,0.0756243702864699,0.00400000000081491
19,12,0.0727359378590658,0.00400000000081491
19,13,0.106025265969663,0.00400000000081491
19,14,0.0874943843959266,0.00400000000081491
19,15,0.0825184657766081,0.00399999999353895
19,16,0.0864561780775337,0.00300000000424916
19,17,0.0560582968991335,0.00699999999778811
19,18,0.0375782330981022,0.00400000000081491
19,19,0.101561419630577,0.00400000000081491
19,20,0.249259933628631,0.0029999999969732
19,21,0.0748377784750507,0.0029999999969732
19,22,0.187180447931906,0.0029999999969732
19,23,0.0681676193795378,0.00400000000081491
19,24,0.091389064190292,0.00400000000081491
19,25,0.972128004734063,0.00499999999738066
19,26,0.0639683368148337,0.00300000000424916
19,27,0.0777419083277146,0.00400000000081491
19,28,0.0881760977292107,0.00799999999435386
19,29,0.0854322112028009,0.00400000000081491
19,30,0.0643963801019492,0.00300000000424916
20,1,0.239203364849278,0.00300000000424916
20,2,0.0560695043470404,0.00399999999353895
20,3,0.0422572034320171,0.00400000000081491
20,4,0.0398020784736397,0.00400000000081491
20,5,0.121729473808891,0.00400000000081491
20,6,0.0442333451069121,0.00300000000424916
20,7,0.118454663471099,0.00399999999353895
20,8,0.0532258924682125,0.00400000000081491
20,9,0.0621700161880035,0.00400000000081491
20,10,0.171973833629368,0.00400000000081491
20,11,0.103877653618394,0.00400000000081491
20,12,0.167431946697045,0.0029999999969732
20,13,0.056137882084903,0.00800000000162981
20,14,0.0632413207718709,0.00400000000081491
20,15,0.0798154354596106,0.0029999999969732
20,16,0.173111336638794,0.0029999999969732
20,17,0.0995964138216458,0.00400000000081491
20,18,0.137095803395848,0.00400000000081491
20,19,0.0325960632753124,0.00400000000081491
20,20,0.340527688178255,0.00400000000081491
20,21,0.101585335339764,0.00400000000081491
20,22,0.283260019352536,0.0029999999969732
20,23,0.152384061530677,0.00400000000081491
20,24,0.0635036736226055,0.00400000000081491
20,25,1.02759227086366,0.00499999999738066
20,26,0.109552128000748,0.00400000000081491
20,27,0.122411009925536,0.00700000000506407
20,28,0.0706854408540679,0.00399999999353895
20,29,0.0738445338691681,0.00400000000081491
20,30,0.0957252312151132,0.00400000000081491
21,1,0.202803189817971,0.00400000000081491
21,2,0.0600487705985288,0.00300000000424916
21,3,0.0278253348129693,0.00399999999353895
21,4,0.0179159976761678,0.00400000000081491
21,5,0.0867044624413949,0.00400000000081491
21,6,0.0259657358840506,0.00400000000081491
21,7,0.0817298459129805,0.00400000000081491
21,8,0.0643214796656379,0.00400000000081491
21,9,0.0528235781964666,0.0029999999969732
21,10,0.1315780856281,0.0029999999969732
21,11,0.0730700691759002,0.00699999999778811
21,12,0.131231749900938,0.0029999999969732
21,13,0.0544562881152205,0.00400000000081491
21,14,0.0496818267097836,0.00400000000081491
21,15,0.0542937134514467,0.00400000000081491
21,16,0.132136704578118,0.00400000000081491
21,17,0.0677713536078845,0.00400000000081491
21,18,0.096626962383685,0.00400000000081491
21,19,0.0206225222868486,0.0029999999969732
21,20,0.311497383058949,0.0029999999969732
21,21,0.0712904362708297,0.00400000000081491
21,22,0.241334041123083,0.00400000000081491
21,23,0.117356406910287,0.00400000000081491
21,24,0.0540785934504407,0.0059999999939464
21,25,1.00191309871255,0.00499999999738066
21,26,0.0758865853427831,0.00400000000081491
21,27,0.098129420706877,0.00400000000081491
21,28,0.0556397583562028,0.00400000000081491
21,29,0.0550981253421272,0.00400000000081491
21,30,0.0708471547584576,0.00400000000081491
22,1,0.149124756112211,0.0029999999969732
22,2,0.111414692188587,0.00400000000081491
22,3,0.0740381710508416,0.00400000000081491
22,4,0.0765757774720365,0.00400000000081491
22,5,0.0678985596034941,0.00400000000081491
22,6,0.0830415197805182,0.00400000000081491
22,7,0.0319192742948247,0.00699999999778811
22,8,0.121021946259259,0.0029999999969732
22,9,0.0912414729800606,0.0029999999969732
22,10,0.0803477980880462,0.00400000000081491
22,11,0.0668235018191871,0.00400000000081491
22,12,0.0803772644040656,0.00400000000081491
22,13,0.103330297250027,0.00400000000081491
22,14,0.10226915004214,0.00400000000081491
22,15,0.0735113834480161,0.00400000000081491
22,16,0.0869946258393296,0.0029999999969732
22,17,0.0819969801666028,0.00400000000081491
22,18,0.0674446924778182,0.00400000000081491
22,19,0.0848394707655517,0.00400000000081491
22,20,0.262059531605105,0.00399999999353895
22,21,0.0669456842017631,0.00700000000506407
22,22,0.184331233101055,0.00400000000081491
22,23,0.080624507705635,0.0029999999969732
22,24,0.107112788679904,0.0029999999969732
22,25,0.960974616864719,0.00499999999738066
22,26,0.0555104779610526,0.00400000000081491
22,27,0.0846757838263183,0.00400000000081491
22,28,0.0916849361327472,0.00400000000081491
22,29,0.0840818736195868,0.00400000000081491
22,30,0.0723011291326945,0.00400000000081491
23,1,0.19501412707771,0.00400000000081491
23,2,0.0654702196265025,0.0029999999969732
23,3,0.058953485876731,0.0059999999939464
23,4,0.0533586396279409,0.0029999999969732
23,5,0.0661872995100875,0.00400000000081491
23,6,0.064245424210392,0.00400000000081491
23,7,0.0914863935343403,0.00400000000081491
23,8,0.0758691200084556,0.00400000000081491
23,9,0.0577445986468583,0.0029999999969732
23,10,0.125449424490708,0.00400000000081491
23,11,0.0689509185635561,0.00400000000081491
23,12,0.118966249895208,0.00400000000081491
23,13,0.0597708522158103,0.00400000000081491
23,14,0.0320409780913774,0.0029999999969732
23,15,0.0596850858441721,0.0029999999969732
23,16,0.12445571035052,0.00400000000081491
23,17,0.0430841383122654,0.00400000000081491
23,18,0.0764644097300072,0.00400000000081491
23,19,0.0581562503317109,0.00400000000081491
23,20,0.29566581262493,0.0029999999969732
23,21,0.0719832947427138,0.00400000000081491
23,22,0.23642313129988,0.00400000000081491
23,23,0.104906706407674,0.00400000000081491
23,24,0.0333761091826901,0.00300000000424916
23,25,1.00558283863157,0.00400000000081491
23,26,0.0710951816593841,0.00300000000424916
23,27,0.0852694126283986,0.00400000000081491
23,28,0.0519381338346525,0.00400000000081491
23,29,0.0562750781173486,0.00699999999778811
23,30,0.0586346418932247,0.00400000000081491
24,1,0.156491182597939,0.00400000000081491
24,2,0.0969190817531767,0.00400000000081491
24,3,0.0584533296166789,0.00399999999353895
24,4,0.061739262770598,0.00300000000424916
24,5,0.0662351505245764,0.00400000000081491
24,6,0.0683997815875002,0.00400000000081491
24,7,0.0274833011119845,0.00400000000081491
24,8,0.110324510390756,0.00399999999353895
24,9,0.084630761016055,0.00400000000081491
24,10,0.0888251733571944,0.00300000000424916
24,11,0.0655406761126448,0.00400000000081491
24,12,0.0813465779258727,0.00699999999778811
24,13,0.0935651577960457,0.00400000000081491
24,14,0.094234880272069,0.00300000000424916
24,15,0.0704260208154302,0.00400000000081491
24,16,0.0930513227194851,0.00399999999353895
24,17,0.0799216818463022,0.00400000000081491
24,18,0.0725662691235662,0.00400000000081491
24,19,0.071388896003646,0.00400000000081491
24,20,0.259255547275786,0.00300000000424916
24,21,0.0682655560393438,0.00399999999353895
24,22,0.196324361418257,0.00400000000081491
24,23,0.0784944965633926,0.00400000000081491
24,24,0.0972965331864374,0.00400000000081491
24,25,0.966872789030156,0.00800000000162981
24,26,0.0611509951937717,0.00400000000081491
24,27,0.0762060909093705,0.00400000000081491
24,28,0.0820277740823634,0.00400000000081491
24,29,0.0763033282798144,0.00399999999353895
24,30,0.0657885674971171,0.00400000000081491
25,1,0.163140600526565,0.00300000000424916
25,2,0.0891639307699582,0.00400000000081491
25,3,0.0751112337297082,0.00400000000081491
25,4,0.0710184866978803,0.00399999999353895
25,5,0.041504744997853,0.00300000000424916
25,6,0.0801960271736661,0.00300000000424916
25,7,0.0685545398424793,0.00699999999778811
25,8,0.10283149207534,0.00400000000081491
25,9,0.0750125309076155,0.00400000000081491
25,10,0.0909995077154553,0.00400000000081491
25,11,0.0602074967949249,0.0029999999969732
25,12,0.086295110671611,0.0029999999969732
25,13,0.0835454265819693,0.00400000000081491
25,14,0.063581326621982,0.00400000000081491
25,15,0.0628488785028285,0.00400000000081491
25,16,0.0906602231133993,0.00400000000081491
25,17,0.0387927042402218,0.0029999999969732
25,18,0.0428583248190713,0.00300000000424916
25,19,0.0789477920687526,0.00699999999778811
25,20,0.267755864987512,0.00400000000081491
25,21,0.0610837244605115,0.00400000000081491
25,22,0.20108281762407,0.00400000000081491
25,23,0.0725301036372702,0.0029999999969732
25,24,0.067611495088265,0.0029999999969732
25,25,0.983263157141037,0.00499999999738066
25,26,0.0525436732340985,0.00400000000081491
25,27,0.0735446252115156,0.00400000000081491
25,28,0.0678876711648106,0.00400000000081491
25,29,0.0652513435993295,0.00400000000081491
25,30,0.0531486360751395,0.00400000000081491
26,1,0.19619884211725,0.00600000000122236
26,2,0.0366525001446485,0.00400000000081491
26,3,0.0569716423298085,0.00400000000081491
26,4,0.0548854933681142,0.0029999999969732
26,5,0.0825278590775445,0.00400000000081491
26,6,0.0565985316414893,0.00400000000081491
26,7,0.0803623712712592,0.00400000000081491
26,8,0.0718932653162364,0.0029999999969732
26,9,0.0550395475420767,0.00400000000081491
26,10,0.114479023061961,0.0029999999969732
26,11,0.0665488812579675,0.00400000000081491
26,12,0.107485691163326,0.00400000000081491
26,13,0.0598599269298754,0.00400000000081491
26,14,0.0613404905693102,0.00699999999778811
26,15,0.0560273745649133,0.00300000000424916
26,16,0.115967058583249,0.00400000000081491
26,17,0.0789204460564356,0.00399999999353895
26,18,0.0978151470516791,0.00300000000424916
26,19,0.056516765377806,0.00400000000081491
26,20,0.302534980006744,0.00400000000081491
26,21,0.0608468556768251,0.0029999999969732
26,22,0.236132846325145,0.0029999999969732
26,23,0.0963784370784093,0.00400000000081491
26,24,0.0648172000060669,0.0029999999969732
26,25,1.00843020742685,0.00500000000465661
26,26,0.070157128290007,0.00699999999778811
26,27,0.0869316500636984,0.00400000000081491
26,28,0.0621665789972341,0.00400000000081491
26,29,0.0502895283486832,0.00400000000081491
26,30,0.0591640905076455,0.0029999999969732
27,1,0.104317918253643,0.00400000000081491
27,2,0.282836740362082,0.0029999999969732
27,3,0.260251768440597,0.00400000000081491
27,4,0.261308168135502,0.00400000000081491
27,5,0.19546398951219,0.00300000000424916
27,6,0.263064422687632,0.00399999999353895
27,7,0.191631352760326,0.00400000000081491
27,8,0.289013294392269,0.00600000000122236
27,9,0.267587707152019,0.00400000000081491
27,10,0.144186784147055,0.00400000000081491
27,11,0.220510389324102,0.0029999999969732
27,12,0.160080474104633,0.00400000000081491
27,13,0.274126126215545,0.00400000000081491
27,14,0.268841860881791,0.00300000000424916
27,15,0.242362953036137,0.00399999999353895
27,16,0.153525156599025,0.00400000000081491
27,17,0.228751269821002,0.00300000000424916
27,18,0.178993990914773,0.00400000000081491
27,19,0.27063383686486,0.00399999999353895
27,20,0.177775780987462,0.00300000000424916
27,21,0.223608424743886,0.00699999999778811
27,22,0.048138587225702,0.00400000000081491
27,23,0.183406073490427,0.0029999999969732
27,24,0.272199825944395,0.00400000000081491
27,25,0.833877426949249,0.00400000000081491
27,26,0.214771343906271,0.0029999999969732
27,27,0.210032619604851,0.00400000000081491
27,28,0.256355606042851,0.00400000000081491
27,29,0.251921620256654,0.0029999999969732
27,30,0.228868083363094,0.00400000000081491
28,1,0.19533908701673,0.00400000000081491
28,2,0.0597949465636088,0.00600000000122236
28,3,0.0580924407810471,0.00400000000081491
28,4,0.0508085711136099,0.00400000000081491
28,5,0.0684698111960227,0.00400000000081491
28,6,0.0574030416817153,0.00400000000081491
28,7,0.0924932842378599,0.00399999999353895
28,8,0.0703083368625524,0.00300000000424916
28,9,0.0512385580136118,0.00400000000081491
28,10,0.126323350111591,0.00400000000081491
28,11,0.0701930063815116,0.00399999999353895
28,12,0.12310860314571,0.00300000000424916
28,13,0.0554865475811346,0.00699999999778811
28,14,0.0230914074828985,0.0029999999969732
28,15,0.0557790648313495,0.00400000000081491
28,16,0.126851499883197,0.00400000000081491
28,17,0.0398067667808176,0.00400000000081491
28,18,0.0800171771432188,0.00400000000081491
28,19,0.0535470437285383,0.0029999999969732
28,20,0.301892271438339,0.0029999999969732
28,21,0.0690682833871298,0.00400000000081491
28,22,0.237749090722414,0.00400000000081491
28,23,0.107263776081908,0.0029999999969732
28,24,0.0256618580043936,0.00699999999778811
28,25,1.00476223159597,0.00499999999738066
28,26,0.0700585604649527,0.00400000000081491
28,27,0.0883996380154678,0.00400000000081491
28,28,0.0473188493653491,0.00400000000081491
28,29,0.0517713577873212,0.00400000000081491
28,30,0.0601145688679986,0.00400000000081491
29,1,0.103301676462759,0.0029999999969732
29,2,0.222095881962946,0.00300000000424916
29,3,0.203898410171521,0.0029999999969732
29,4,0.202797800865996,0.00400000000081491
29,5,0.140854761586267,0.00300000000424916
29,6,0.205718808408832,0.00300000000424916
29,7,0.144493593582262,0.00400000000081491
29,8,0.224795215680932,0.0029999999969732
29,9,0.209291395076514,0.00699999999778811
29,10,0.0916144384500958,0.00400000000081491
29,11,0.165984237397241,0.00400000000081491
29,12,0.119801640822956,0.0029999999969732
29,13,0.214180907226824,0.00400000000081491
29,14,0.209332959600354,0.00400000000081491
29,15,0.185290131452776,0.00300000000424916
29,16,0.117616272557721,0.00400000000081491
29,17,0.177735612880174,0.0029999999969732
29,18,0.134943020859898,0.00400000000081491
29,19,0.211446047948667,0.00400000000081491
29,20,0.224315956995773,0.0029999999969732
29,21,0.164805951617671,0.00400000000081491
29,22,0.0924038283870083,0.0029999999969732
29,23,0.140548005198833,0.0029999999969732
29,24,0.2143736812886,0.00400000000081491
29,25,0.87789663779289,0.00800000000162981
29,26,0.159618226890489,0.0029999999969732
29,27,0.167200840525776,0.00400000000081491
29,28,0.200571526199377,0.00400000000081491
29,29,0.194306729029491,0.00400000000081491
29,30,0.175225355542516,0.0029999999969732
30,1,0.174640714153907,0.00400000000081491
30,2,0.0847432315053971,0.00400000000081491
30,3,0.0446640188684324,0.00400000000081491
30,4,0.043793785153024,0.00400000000081491
30,5,0.0726492640288375,0.0029999999969732
30,6,0.0481987417952967,0.0029999999969732
30,7,0.0602664077036126,0.00400000000081491
30,8,0.0892143325127373,0.00400000000081491
30,9,0.0576814780891203,0.00400000000081491
30,10,0.111599294966257,0.00699999999778811
30,11,0.0666951961657687,0.00400000000081491
30,12,0.112514373981358,0.00400000000081491
30,13,0.0753473757141588,0.00400000000081491
30,14,0.0690589158101333,0.00400000000081491
30,15,0.053900200430836,0.00400000000081491
30,16,0.113585769718582,0.0029999999969732
30,17,0.0587563397554583,0.00400000000081491
30,18,0.0766094858600276,0.00400000000081491
30,19,0.0494945472343168,0.00400000000081491
30,20,0.286843378178072,0.00400000000081491
30,21,0.0653535358426367,0.00400000000081491
30,22,0.216053330883966,0.0029999999969732
30,23,0.099526251102981,0.00400000000081491
30,24,0.0726224988274799,0.00699999999778811
30,25,0.978053347470182,0.00500000000465661
30,26,0.0526887825424766,0.00399999999353895
30,27,0.0848814110405273,0.00400000000081491
30,28,0.0629058856150821,0.00400000000081491
30,29,0.0621283400817955,0.00400000000081491
30,30,0.0665078322088839,0.00400000000081491
