App - SimpleCalendar
Scenario - make_events
Length - 0sec
Measure - FourierDistance
Before Version - b2fe795
After Version - fd2ec79


"Before.Trace.ID1","Before.Trace.ID2","Difference","Runtime"
1,2,14596.1965100581,0
1,3,35195.2984058725,0.00099999998928979
1,4,24044.8676077216,0
1,5,19535.81345517,0
1,6,25156.1862053764,0.00100000000384171
1,7,29818.425929226,0
1,8,26860.9848868083,0
1,9,38223.5907720469,0
1,10,28410.5824060757,0
1,11,39500.6864024889,0.00100000000384171
1,12,38889.9563249614,0
1,13,19807.9394612103,0
1,14,31777.1021911828,0.00099999998928979
1,15,31819.4799086987,0
1,16,21077.32318969,0.00100000000384171
1,17,29122.2339311237,0
1,18,31041.5823487736,0
1,19,27117.459436855,0.00100000000384171
1,20,25711.7140026513,0
1,21,30685.385470751,0
1,22,29697.0355722274,0.00100000000384171
1,23,27522.7683497832,0
1,24,26918.6507488453,0.00099999998928979
1,25,29121.5877133165,0
1,26,25529.1853840114,0
1,27,24907.3360862878,0.00100000000384171
1,28,26813.9670877737,0
1,29,23077.4987562662,0
1,30,22377.7956419117,0.00100000000384171
2,3,34018.0916192705,0
2,4,20071.2470008862,0.00099999998928979
2,5,12236.7547908489,0
2,6,19624.6164355591,0
2,7,23400.7367096963,0.00100000000384171
2,8,22198.7326821717,0
2,9,33772.4686591564,0
2,10,17870.5032690792,0.00100000000384171
2,11,33614.8633039107,0
2,12,35555.568558493,0.00100000000384171
2,13,15821.3011678026,0
2,14,25819.9157041165,0
2,15,27667.5775091695,0.00099999998928979
2,16,17548.0111453872,0
2,17,26390.8577647318,0
2,18,25583.8655579663,0.00100000000384171
2,19,18455.2604864991,0
2,20,22738.2770029781,0.00100000000384171
2,21,29781.3806237643,0
2,22,28231.3937946793,0
2,23,23568.8390955343,0.00100000000384171
2,24,26603.303459539,0
2,25,20999.1631413973,0
2,26,21875.7451910895,0.00099999998928979
2,27,20195.8187156642,0
2,28,21659.9770088763,0.00100000000384171
2,29,15578.109657997,0
2,30,12727.8768377286,0
3,4,19294.5751497298,0.00100000000384171
3,5,32212.4422098643,0
3,6,27647.5713832754,0
3,7,25826.4099074354,0.00100000000384171
3,8,19884.7269061326,0
3,9,19780.7233330472,0.00099999998928979
3,10,33538.9906683327,0
3,11,32049.4552928278,0
3,12,25139.1351377443,0.00100000000384171
3,13,22720.9706375528,0
3,14,22705.9098555502,0
3,15,23071.5303504624,0.00100000000384171
3,16,25260.2227175988,0
3,17,18617.5916415547,0
3,18,24636.3158635229,0
3,19,32419.4081160346,0
3,20,29385.7957635816,0.00099999998928979
3,21,22678.8443561464,0
3,22,17388.873496074,0
3,23,20094.2275676716,0
3,24,22622.2309925464,0.00100000000384171
3,25,32976.5738089275,0
3,26,17733.8675368388,0
3,27,36123.5397396224,0.00100000000384171
3,28,24733.6879173124,0
3,29,26389.0039795264,0.00099999998928979
3,30,33831.704111891,0
4,5,17608.8128850082,0
4,6,19405.4537257395,0.00100000000384171
4,7,19842.0283834507,0
4,8,14550.0328944769,0
4,9,22883.8497122131,0.00100000000384171
4,10,23006.7653403549,0
4,11,27523.2520460459,0.00100000000384171
4,12,27748.0707050338,0
4,13,13737.1221281556,0
4,14,17579.8529598539,0.00099999998928979
4,15,21440.6237175411,0
4,16,16777.3542958202,0
4,17,18956.1278366495,0.00100000000384171
4,18,19670.8051885265,0
4,19,21423.6428420289,0.00100000000384171
4,20,21251.4085928124,0
4,21,23499.2813959589,0
4,22,20270.9667365484,0.00100000000384171
4,23,17287.9925999867,0
4,24,16640.4641575581,0
4,25,22216.0459168278,0.00099999998928979
4,26,11432.3163299144,0
4,27,28267.4682492833,0
4,28,20287.8984794302,0
4,29,16369.4871932148,0
4,30,20846.5211163515,0.00100000000384171
5,6,18918.0535183404,0
5,7,21061.4369617646,0
5,8,21405.4389159784,0.00100000000384171
5,9,32491.5163814352,0
5,10,21461.2366307956,0
5,11,33003.1812349732,0
5,12,34259.314099426,0
5,13,17777.8733035112,0.00100000000384171
5,14,25141.5523335871,0
5,15,25535.3576502683,0
5,16,17044.5118405636,0.00100000000384171
5,17,25158.9096019198,0
5,18,27345.9343007863,0
5,19,19623.2913142128,0.00099999998928979
5,20,23942.3273969255,0
5,21,32678.7489482497,0.00100000000384171
5,22,30360.9573952823,0
5,23,21577.3225705814,0
5,24,24369.383413858,0.00100000000384171
5,25,17764.4984134707,0
5,26,20148.0594451312,0
5,27,20602.1464675673,0.00100000000384171
5,28,23530.8446287609,0
5,29,16871.6385528428,0
5,30,16646.26731681,0
6,7,12020.6424105607,0
6,8,16281.791913979,0.00100000000384171
6,9,27364.5731059712,0
6,10,19087.5809401606,0
6,11,27777.1761275655,0.00100000000384171
6,12,23494.8618923256,0
6,13,14181.5134737449,0
6,14,23943.68135714,0
6,15,21074.7809444739,0
6,16,15314.2830926574,0.00099999998928979
6,17,18193.4405195285,0
6,18,26817.7321468418,0
6,19,25185.423026819,0.00100000000384171
6,20,29088.9217397945,0
6,21,31578.94074022,0
6,22,27511.2096235268,0.00100000000384171
6,23,13280.1209768672,0
6,24,26150.2221474004,0
6,25,14934.0079111672,0
6,26,17733.9233266402,0
6,27,23539.7111985195,0.00099999998928979
6,28,19114.224642685,0
6,29,20195.6186370361,0
6,30,21019.6684221119,0.00100000000384171
7,8,12118.8000774806,0
7,9,20954.0523818339,0
7,10,20731.4407713251,0.00100000000384171
7,11,22148.6024813886,0
7,12,16786.9209184915,0.00099999998928979
7,13,17445.0189090586,0
7,14,18981.5050970657,0
7,15,16335.184891263,0.00100000000384171
7,16,17751.4596200768,0
7,17,19069.6165134514,0
7,18,27023.7698503018,0.00100000000384171
7,19,25593.3364571167,0
7,20,28240.6108439034,0.00100000000384171
7,21,31013.2217932807,0
7,22,27824.2406448723,0
7,23,12062.1390223489,0.00099999998928979
7,24,29967.537998841,0
7,25,20081.5424586839,0
7,26,16986.085825583,0.00100000000384171
7,27,23125.6524002872,0
7,28,18404.5185180065,0
7,29,20680.6024600801,0
7,30,25671.2575476658,0
8,9,15997.5118517296,0.00100000000384171
8,10,20739.5115071816,0
8,11,21783.612693826,0
8,12,17369.531818485,0.00099999998928979
8,13,15231.7560307598,0
8,14,15018.4571835892,0
8,15,17622.8594358271,0.00100000000384171
8,16,18877.6987842586,0
8,17,18510.8488770076,0.00100000000384171
8,18,22194.3266754757,0
8,19,23613.0387970017,0
8,20,23199.3027706737,0.00100000000384171
8,21,23808.9299447307,0
8,22,21834.1995800051,0
8,23,12595.9119234301,0.00099999998928979
8,24,26222.3604427332,0
8,25,23089.7349782876,0
8,26,11789.6281512247,0
8,27,25206.791553725,0
8,28,15460.6185617844,0.00100000000384171
8,29,18180.7526640425,0
8,30,25225.1886364812,0
9,10,29309.9609458591,0.00100000000384171
9,11,19066.1100358472,0
9,12,19068.0464375238,0
9,13,25619.1330652144,0.00099999998928979
9,14,16645.4059138034,0
9,15,17153.3077436763,0.00100000000384171
9,16,26459.7734632236,0
9,17,22905.6693263109,0
9,18,24100.7401178972,0.00100000000384171
9,19,30762.6907332049,0
9,20,27184.283832848,0
9,21,24750.920764525,0.00099999998928979
9,22,22517.7429180304,0
9,23,21270.7898890061,0
9,24,34757.3563015028,0
9,25,33055.3683322458,0
9,26,20766.9589042647,0.00100000000384171
9,27,33960.8515438167,0
9,28,22114.2491449518,0
9,29,26013.2193300999,0.00100000000384171
9,30,33758.9988318185,0
10,11,28267.5269338565,0
10,12,31924.449150178,0.00099999998928979
10,13,19184.8215852165,0
10,14,25162.0759978281,0.00100000000384171
10,15,27135.7469094815,0
10,16,22106.4331255771,0
10,17,25458.417380612,0.00100000000384171
10,18,21016.6500097602,0
10,19,18968.3646806947,0
10,20,24180.6873272272,0.00100000000384171
10,21,27991.6926548332,0
10,22,27572.6878615721,0
10,23,23811.1564039331,0
10,24,32525.2868258151,0
10,25,17588.9558663416,0.00100000000384171
10,26,22643.5158082769,0
10,27,24690.7646543307,0.00400000000081491
10,28,17942.7750041578,0
10,29,15803.8991070343,0.00100000000384171
10,30,16038.6448369051,0
11,12,24704.5313770912,0
11,13,29661.3300759179,0.00100000000384171
11,14,21536.6824374311,0
11,15,22342.6060702345,0.00099999998928979
11,16,29409.1131168773,0
11,17,30014.7254046244,0
11,18,26238.3055888425,0.00100000000384171
11,19,28390.2917644002,0
11,20,28806.3605566396,0
11,21,31029.5109005351,0.00100000000384171
11,22,30208.7871014183,0
11,23,27644.5832128229,0
11,24,41837.7800374708,0
11,25,33009.6898086143,0
11,26,26502.9680488648,0.00100000000384171
11,27,37650.5875583633,0
11,28,26496.0547431047,0
11,29,30484.3195598962,0.00100000000384171
11,30,32229.8723800406,0
12,13,25567.8053578559,0
12,14,23112.4900387887,0
12,15,21009.4609494245,0
12,16,27760.2308292412,0.00099999998928979
12,17,23714.8557731039,0
12,18,33450.7428197168,0
12,19,37812.9967288534,0.00100000000384171
12,20,36283.4372180518,0
12,21,34415.6980377315,0
12,22,30630.0556206886,0
12,23,19089.1049818446,0
12,24,36198.3322505054,0.00100000000384171
12,25,32450.2920780594,0
12,26,24850.5011266214,0
12,27,33867.9028682215,0.00099999998928979
12,28,26432.1585901539,0
12,29,31574.6973428648,0
12,30,38480.6762736724,0.00100000000384171
13,14,20502.0394451774,0
13,15,21574.1042496323,0.00100000000384171
13,16,11405.2044779974,0
13,17,14248.4280669042,0
13,18,22677.3537526268,0.00100000000384171
13,19,23913.7944822552,0
13,20,24350.3786844345,0
13,21,24759.3232818763,0.00099999998928979
13,22,20130.093596253,0
13,23,14069.5249864219,0
13,24,19063.6804059057,0
13,25,19206.4122640216,0
13,26,15452.6998167102,0.00100000000384171
13,27,23985.5845048096,0
13,28,18340.6028776265,0
13,29,15588.3164199495,0.00100000000384171
13,30,19327.8342083983,0
14,15,19842.6015611326,0
14,16,22076.9690311212,0
14,17,23810.2601527705,0
14,18,23035.8432020012,0.00100000000384171
14,19,25678.1549561469,0
14,20,26378.7311234612,0
14,21,26707.4921497056,0.00100000000384171
14,22,23629.8468661556,0
14,23,21885.7753906456,0
14,24,29728.1555578441,0.00099999998928979
14,25,29227.8949613378,0
14,26,16844.6720722233,0.00100000000384171
14,27,29319.4266319873,0
14,28,20088.6466436124,0
14,29,21716.9374300079,0.00100000000384171
14,30,26858.5508687546,0
15,16,17899.5293345944,0
15,17,18826.6991274419,0.00100000000384171
15,18,25014.7612072386,0
15,19,27190.5078938682,0
15,20,25010.6751398405,0
15,21,27678.9553120771,0
15,22,22921.787799664,0.00100000000384171
15,23,17171.5390890024,0
15,24,31706.2862734983,0
15,25,28593.0212505677,0.00100000000384171
15,26,21074.4060346582,0
15,27,26387.6307050426,0
15,28,21971.2121995434,0.00100000000384171
15,29,22334.1114282389,0
15,30,27242.1598052413,0.00099999998928979
16,17,15067.3502893798,0
16,18,25366.1854692973,0
16,19,24773.1992308375,0.00100000000384171
16,20,25500.937096444,0
16,21,28261.2037999809,0
16,22,23449.4770672746,0.00100000000384171
16,23,16348.1478368879,0
16,24,22488.3055226245,0.00100000000384171
16,25,20937.9833736553,0
16,26,19028.9482539191,0
16,27,23766.75532012,0.00099999998928979
16,28,21768.6798836701,0
16,29,18383.5538951261,0
16,30,19187.8192527239,0.00100000000384171
17,18,25484.1480382785,0
17,19,29686.5787218876,0
17,20,28734.7743884757,0
17,21,25548.4792118908,0
17,22,19455.6208419811,0.00099999998928979
17,23,12322.2258254154,0
17,24,22380.4305422904,0
17,25,21927.7878652939,0.00100000000384171
17,26,19764.0752973166,0
17,27,29151.2454736344,0
17,28,22205.7172705762,0.00100000000384171
17,29,21076.1867590513,0
17,30,26160.8315748982,0.00100000000384171
18,19,18421.0299110258,0
18,20,16513.9265119409,0
18,21,14737.4620008581,0.00099999998928979
18,22,15833.5426774156,0
18,23,26323.8047301534,0
18,24,30617.2382391922,0.00100000000384171
18,25,28306.0332801681,0
18,26,18941.8102161889,0
18,27,31308.0616828961,0
18,28,17145.1285645217,0
18,29,17920.3409089414,0.00100000000384171
18,30,21317.3785744243,0
19,20,16969.1775217007,0
19,21,25489.0646844225,0.00099999998928979
19,22,25763.894296419,0
19,23,27023.6506924191,0
19,24,31850.8489918543,0.00100000000384171
19,25,24463.4672778305,0
19,26,20969.0438421396,0.00100000000384171
19,27,26378.051724981,0
19,28,19929.9513544297,0
19,29,15956.7777488311,0.00100000000384171
19,30,14290.3345121095,0
20,21,17980.8343028938,0
20,22,19897.3740262633,0.00099999998928979
20,23,27478.0541064064,0
20,24,32504.8738495858,0
20,25,30725.4039822141,0
20,26,21439.7813971809,0
20,27,27320.5236817643,0.00100000000384171
20,28,20943.3317381002,0
20,29,16985.9283275788,0
20,30,21869.2141607923,0.00100000000384171
21,22,12807.3059395819,0
21,23,27520.7881441313,0
21,24,31727.9485147524,0.00099999998928979
21,25,34645.040258714,0
21,26,21554.8468898817,0.00100000000384171
21,27,33910.3246917785,0
21,28,20064.2199066424,0
21,29,21525.7722238105,0.00100000000384171
21,30,28670.5163065529,0
22,23,22911.4612259354,0
22,24,26706.1055536593,0.00099999998928979
22,25,31626.2703182766,0
22,26,19820.620928187,0
22,27,32027.4294666491,0
22,28,19782.4804174361,0
22,29,19865.6996131009,0.00100000000384171
22,30,26292.6071448171,0
23,24,23436.9932113367,0
23,25,19785.1022835992,0.00400000000081491
23,26,15479.1375411982,0.00100000000384171
23,27,23853.7921163441,0
23,28,18571.2730137463,0
23,29,18993.6991101451,0.00099999998928979
23,30,26083.658440347,0
24,25,26830.7196644858,0
24,26,21795.6155762199,0.00100000000384171
24,27,35144.2605531013,0
24,28,30705.1329842451,0.00100000000384171
24,29,25186.4760012646,0
24,30,27994.5959994119,0
25,26,23173.5881567582,0.00100000000384171
25,27,26347.0239255436,0
25,28,23496.7468451708,0
25,29,20104.1717598864,0.00099999998928979
25,30,19842.0110262312,0
26,27,25538.026234109,0.00100000000384171
26,28,14247.0977446736,0
26,29,16294.0399865541,0
26,30,23168.4944430631,0.00100000000384171
27,28,20188.0041931497,0
27,29,18810.2088312557,0
27,30,25189.4286567102,0.00100000000384171
28,29,13768.9617834405,0
28,30,22179.5887715665,0
29,30,15753.5074804975,0


"After.Trace.ID","Before.Trace.ID","Difference","Runtime"
1,1,17699.0721221133,0
1,2,14146.4412093587,0
1,3,32298.2248644677,0.00099999998928979
1,4,21027.4293738466,0
1,5,14322.8242210779,0.00100000000384171
1,6,18385.0394463861,0
1,7,21016.2771744682,0
1,8,20909.7280330785,0.00100000000384171
1,9,33391.7743269632,0
1,10,24352.0496270373,0
1,11,36111.1697662548,0.00100000000384171
1,12,32113.9794006232,0
1,13,18459.4350684031,0.00099999998928979
1,14,25747.6696300343,0
1,15,26565.6644483816,0
1,16,20035.7214882427,0.00100000000384171
1,17,26593.6505489146,0
1,18,30411.0625141774,0
1,19,24516.2710636221,0
1,20,28108.2022672182,0
1,21,33363.9596938982,0.00100000000384171
1,22,31108.0914694259,0
1,23,20809.035755104,0
1,24,26354.6050011375,0.00099999998928979
1,25,23154.5128038264,0
1,26,20346.9821660738,0
1,27,16006.3056259608,0
1,28,21058.8385069348,0
1,29,18797.4414751998,0.00100000000384171
1,30,21623.5885823467,0
2,1,26843.9138661087,0
2,2,21468.6230490162,0.00100000000384171
2,3,51220.5860097642,0
2,4,37093.6655441977,0
2,5,22971.2865297491,0
2,6,32721.8202460908,0
2,7,36463.7813857379,0.00100000000384171
2,8,38881.9759599155,0
2,9,49935.9404577371,0
2,10,30951.8737274029,0.00100000000384171
2,11,48520.4211738234,0
2,12,49880.8524914045,0
2,13,32259.5189558713,0
2,14,42145.9062750278,0
2,15,42324.9567295789,0.00100000000384171
2,16,31767.4403868164,0
2,17,40388.5818349793,0
2,18,43128.8243107247,0.00100000000384171
2,19,32397.2557611318,0
2,20,37623.3883573977,0
2,21,47321.1247632823,0
2,22,45661.9436772048,0
2,23,37236.5598849753,0.00099999998928979
2,24,40315.0714786737,0
2,25,28697.7456509691,0
2,26,38734.8193536539,0.00100000000384171
2,27,25353.2564384653,0
2,28,36632.6562172384,0
2,29,30103.343654452,0
2,30,26974.888270938,0
3,1,30474.3430508173,0.00100000000384171
3,2,21369.1925861524,0
3,3,48376.0536031348,0
3,4,34275.8840130282,0.00099999998928979
3,5,23778.4498311961,0
3,6,27197.8201024506,0
3,7,32041.7882016643,0
3,8,35130.1027380531,0
3,9,46411.065849328,0.00100000000384171
3,10,22884.547945739,0
3,11,43857.5145912642,0
3,12,44870.0977985419,0.00100000000384171
3,13,28685.0524097105,0
3,14,38146.3726416537,0
3,15,40949.7770764532,0
3,16,29756.552794751,0
3,17,36897.2864852938,0.00100000000384171
3,18,39537.4340618335,0
3,19,31751.179305414,0
3,20,39041.1129151327,0.00100000000384171
3,21,45963.4395459568,0
3,22,43901.262089049,0.00100000000384171
3,23,34611.6353745115,0
3,24,38152.201985869,0
3,25,21474.7607224708,0.00099999998928979
3,26,36106.9455779277,0
3,27,28803.512038454,0
3,28,33780.270842411,0.00100000000384171
3,29,29115.628123793,0
3,30,23958.2144944515,0.00100000000384171
4,1,34609.0574536308,0
4,2,28538.809788296,0
4,3,49123.6998959105,0.00099999998928979
4,4,35606.8522629327,0
4,5,29872.6965386053,0
4,6,32095.51306985,0.00100000000384171
4,7,35543.3220274262,0
4,8,37290.2118635495,0
4,9,45754.3200996791,0
4,10,32597.6878825562,0
4,11,39686.7649366197,0
4,12,46119.1618788649,0.00100000000384171
4,13,34755.5583248646,0
4,14,40029.7998450443,0
4,15,39842.8622281775,0.00099999998928979
4,16,32771.357922685,0
4,17,41614.3263164282,0
4,18,41065.8346179926,0
4,19,32424.2120898991,0
4,20,38699.1951317312,0.00100000000384171
4,21,47292.752497589,0
4,22,45236.7734939893,0
4,23,38270.9780099608,0.00100000000384171
4,24,41851.1873724741,0
4,25,32224.8876642685,0
4,26,38606.9345808708,0
4,27,37947.0189668167,0
4,28,38964.5866828564,0.00100000000384171
4,29,35531.8105343157,0
4,30,29418.8749305732,0
5,1,21286.5578912354,0.00100000000384171
5,2,18697.5400087823,0
5,3,33565.1543035735,0
5,4,20233.0665591205,0
5,5,19694.9965830893,0
5,6,25622.514164691,0.00099999998928979
5,7,31310.1477749214,0
5,8,28871.6028873247,0
5,9,38922.8595509602,0.00100000000384171
5,10,26682.0825406699,0
5,11,38717.1323098279,0
5,12,40942.5028336947,0
5,13,19069.2423030534,0
5,14,31395.7817924931,0.00099999998928979
5,15,34630.5082801995,0
5,16,21640.5171680126,0
5,17,27038.2453223254,0.00100000000384171
5,18,29366.2913914505,0
5,19,26371.5457107086,0
5,20,29665.5217830696,0
5,21,33581.0276055499,0
5,22,30106.8427529055,0.00100000000384171
5,23,28448.9524402279,0
5,24,19427.3371312631,0
5,25,23116.4193810936,0.00099999998928979
5,26,26612.2806271877,0
5,27,34581.130329658,0
5,28,31487.3599608403,0
5,29,24961.4729995458,0
5,30,19345.6455262536,0.00100000000384171
6,1,33276.3024371532,0
6,2,29822.212106717,0
6,3,40171.9560977176,0.00100000000384171
6,4,30474.5388286721,0
6,5,24327.4934928279,0
6,6,29672.9871350978,0.00099999998928979
6,7,29543.585976727,0
6,8,32755.9827161972,0.00100000000384171
6,9,39764.6835999053,0
6,10,37747.728059128,0
6,11,41405.7838348096,0.00100000000384171
6,12,38463.9988629946,0
6,13,28709.0184311435,0
6,14,31993.6163276979,0.00100000000384171
6,15,33495.4187674383,0
6,16,26014.3378568224,0.00099999998928979
6,17,31540.1836926561,0
6,18,44246.0877664716,0
6,19,38144.1803311649,0.00100000000384171
6,20,41714.3129242443,0
6,21,47737.1241119546,0
6,22,42606.7263037983,0.00100000000384171
6,23,29452.0704309009,0
6,24,32698.4031402501,0.00100000000384171
6,25,29658.0956309321,0
6,26,33419.2825828625,0
6,27,31876.2080272678,0.00099999998928979
6,28,37521.5775394092,0
6,29,33655.3819118051,0
6,30,34145.345698703,0.00100000000384171
7,1,40140.5479448212,0
7,2,35166.622842552,0
7,3,30625.527731385,0
7,4,28013.7182406857,0
7,5,31177.6023234028,0.00099999998928979
7,6,22904.4820523579,0
7,7,19073.9101497229,0
7,8,24231.4547720211,0.00100000000384171
7,9,25041.3698085615,0
7,10,33217.3593508621,0
7,11,25490.7001070211,0
7,12,21086.0437781097,0
7,13,26966.6635555372,0.00100000000384171
7,14,26618.1304086175,0
7,15,20301.4621470022,0
7,16,23792.3634097928,0.00099999998928979
7,17,22482.8540329885,0
7,18,37102.6281447794,0
7,19,37556.1100965642,0.00100000000384171
7,20,39220.8398206691,0
7,21,40723.5797652254,0.00100000000384171
7,22,35515.7958381387,0
7,23,21521.3040719208,0
7,24,34924.3635885548,0.00100000000384171
7,25,28718.0914163092,0
7,26,29326.208487457,0
7,27,37694.1210298747,0.00099999998928979
7,28,33575.4933256507,0
7,29,33438.7196891505,0.00100000000384171
7,30,35255.0726294717,0
8,1,20707.8439093337,0
8,2,19843.6804946759,0.00100000000384171
8,3,25423.9141859623,0
8,4,19075.6111959428,0
8,5,19868.5113764996,0.00100000000384171
8,6,19120.5135796732,0
8,7,18258.3757572447,0.00099999998928979
8,8,17759.2242185664,0
8,9,25220.1826575997,0
8,10,25902.1100937289,0.00100000000384171
8,11,29451.3575846199,0
8,12,25515.9986045736,0
8,13,14451.7905404712,0.00100000000384171
8,14,20619.7722388413,0
8,15,18966.9524728406,0
8,16,14597.0503921068,0
8,17,18684.0495989845,0
8,18,26531.2466814608,0.00100000000384171
8,19,26409.6270468509,0
8,20,25038.868463921,0
8,21,27165.5438817795,0.00100000000384171
8,22,23431.0253512778,0
8,23,16379.3778901336,0
8,24,26679.0618242074,0.00100000000384171
8,25,25467.5219030997,0
8,26,18414.1880587085,0.00099999998928979
8,27,18819.3732984613,0
8,28,18252.8717446248,0
8,29,18979.5774796032,0.00100000000384171
8,30,24658.8186381746,0
9,1,19943.0631297174,0
9,2,16092.9256455668,0.00100000000384171
9,3,33864.6654258852,0
9,4,21092.2863531929,0.00100000000384171
9,5,15547.1036470961,0
9,6,22161.3562138952,0
9,7,28162.3881546701,0.00099999998928979
9,8,27035.0412850848,0.00300000001152512
9,9,38911.9944596714,0.00099999998928979
9,10,24611.3175027434,0
9,11,41141.1754450434,0.00100000000384171
9,12,39385.7892927479,0
9,13,17999.6675933936,0
9,14,32828.6174892251,0.00100000000384171
9,15,33280.5018073659,0
9,16,19751.7106687579,0
9,17,25630.5584200902,0
9,18,32066.5521709832,0
9,19,26264.0293451206,0.00099999998928979
9,20,30397.4020527768,0
9,21,35216.3729099771,0
9,22,32278.4676771324,0.00100000000384171
9,23,24750.6163769688,0
9,24,18801.5137999598,0.00100000000384171
9,25,18727.6116883331,0
9,26,25498.6497453565,0
9,27,28556.8700249673,0.00099999998928979
9,28,29529.7249585047,0
9,29,21836.8699353581,0
9,30,19581.5463018688,0.00100000000384171
10,1,23162.4429073495,0
10,2,19806.777186379,0.00100000000384171
10,3,24961.3791702648,0
10,4,18669.8634450014,0
10,5,23347.4523221812,0.00100000000384171
10,6,21562.972129106,0
10,7,24202.6344375974,0
10,8,21381.6654059058,0.00099999998928979
10,9,26603.8642655487,0
10,10,20591.7067770191,0
10,11,28688.5953217312,0
10,12,32008.2299497695,0
10,13,15163.4436668682,0.00100000000384171
10,14,22207.0979718553,0
10,15,22918.3677467188,0
10,16,16625.5684962323,0.00100000000384171
10,17,18134.8089498251,0
10,18,17073.5916191994,0
10,19,20991.6279153632,0
10,20,21493.5504319131,0
10,21,19313.4774698935,0.00100000000384171
10,22,15692.5960372534,0
10,23,21443.3759019945,0
10,24,26110.0968404588,0.00100000000384171
10,25,23980.8147803236,0
10,26,19675.2933061974,0
10,27,26587.8425661366,0
10,28,16833.0984008829,0
10,29,15598.5959787285,0.00099999998928979
10,30,17564.8766876499,0
11,1,29875.7818395557,0
11,2,21857.1780358629,0.00100000000384171
11,3,29427.0421483426,0
11,4,22451.5689568474,0
11,5,23403.7124880283,0
11,6,22538.4263020378,0
11,7,23069.7508239638,0.00100000000384171
11,8,24202.2441932188,0
11,9,27225.3411268651,0
11,10,19048.2980568393,0.00099999998928979
11,11,26537.4350757728,0
11,12,32766.2371785033,0
11,13,19414.4446124713,0.00100000000384171
11,14,22764.5363304226,0
11,15,21716.297110916,0.00100000000384171
11,16,18384.7409689609,0
11,17,20527.9916130471,0
11,18,18469.8055545062,0.00099999998928979
11,19,20259.6710372042,0
11,20,23520.3321923382,0
11,21,25359.7168177899,0.00100000000384171
11,22,21276.4980097464,0
11,23,23163.311622598,0.00100000000384171
11,24,31144.0753616889,0
11,25,22275.561288922,0
11,26,23619.3928864573,0.00100000000384171
11,27,26515.7296434448,0
11,28,19992.5074494245,0
11,29,17550.6510449034,0.00099999998928979
11,30,17002.5451462758,0
12,1,24658.4479371002,0.00100000000384171
12,2,16433.9156376216,0
12,3,27843.3069861971,0
12,4,18260.3405391998,0.00100000000384171
12,5,19231.07539097,0
12,6,19200.9945400366,0
12,7,19931.348874185,0.00100000000384171
12,8,19122.0315095027,0
12,9,25611.0884662799,0.00099999998928979
12,10,15307.5934649022,0
12,11,24994.3438986559,0
12,12,31199.0979614074,0.00100000000384171
12,13,16943.8026767371,0
12,14,20675.7657324231,0
12,15,21389.5655087516,0.00100000000384171
12,16,16825.1380890824,0
12,17,22909.9066909428,0
12,18,16812.7840033492,0
12,19,12963.2752166294,0
12,20,19041.2108746588,0.00099999998928979
12,21,23855.4880262179,0
12,22,21257.2030761347,0
12,23,21375.4357481855,0.00100000000384171
12,24,28716.7669811955,0
12,25,21381.3314683669,0
12,26,18161.4292566475,0
12,27,23125.7494519414,0
12,28,14991.7707970866,0.00099999998928979
12,29,13700.0272350107,0
12,30,13526.2115231488,0
13,1,18982.9047144467,0.00100000000384171
13,2,13440.9129544654,0
13,3,29353.0392693106,0
13,4,16627.9251269619,0.00100000000384171
13,5,13700.823457619,0
13,6,20979.4447073574,0.00100000000384171
13,7,22811.9574298852,0
13,8,20979.8493848986,0
13,9,29797.045223872,0.00099999998928979
13,10,20671.8178214354,0
13,11,30722.7126749465,0
13,12,34258.4141009001,0.00100000000384171
13,13,15379.9522806027,0
13,14,23576.7212559091,0.00100000000384171
13,15,25195.4672823155,0
13,16,17199.2703954318,0
13,17,21812.7798675541,0.00100000000384171
13,18,22166.0245364959,0
13,19,17421.9680198012,0
13,20,18495.2410019137,0.00099999998928979
13,21,25388.2013586589,0
13,22,23106.5253967994,0.00100000000384171
13,23,20710.0096936023,0
13,24,24723.4554438154,0
13,25,20355.1413614026,0.00100000000384171
13,26,18657.5538957952,0
13,27,21924.5365452875,0
13,28,20025.4974749941,0.00100000000384171
13,29,13579.769796995,0
13,30,15356.7099525713,0
14,1,30437.9877539657,0
14,2,29890.431250158,0
14,3,26891.3355456141,0.00100000000384171
14,4,25380.3767678816,0
14,5,31845.2502002192,0
14,6,29906.7589611665,0.00100000000384171
14,7,27164.4322827065,0
14,8,23231.7961279219,0
14,9,21653.225719291,0
14,10,31083.7359415878,0.00099999998928979
14,11,21541.7206086409,0
14,12,29279.583672995,0
14,13,25535.8301620714,0
14,14,21957.4863690726,0
14,15,20813.8341686998,0.00100000000384171
14,16,25203.3828767751,0
14,17,25644.4191931585,0
14,18,22061.5677177235,0.00100000000384171
14,19,27905.3751048152,0
14,20,21882.5230513429,0
14,21,20384.9886906064,0
14,22,19355.6655286031,0
14,23,26964.8628393917,0.00100000000384171
14,24,37065.1648559929,0
14,25,36314.2893290038,0
14,26,24574.658381634,0.00100000000384171
14,27,32655.2360910722,0
14,28,23090.334692928,0
14,29,26235.5780256439,0
14,30,29839.8331764539,0
15,1,25232.7797555931,0.00099999998928979
15,2,24668.9449912407,0
15,3,17000.7713195366,0
15,4,18924.4068691346,0.00100000000384171
15,5,26072.9803783802,0
15,6,22160.3403726574,0
15,7,21064.7524655941,0
15,8,16999.0640968084,0
15,9,21419.6208975502,0.00100000000384171
15,10,26586.893150421,0
15,11,29710.0119794078,0
15,12,24715.8439976162,0.00099999998928979
15,13,16111.3796583923,0
15,14,21769.4978629158,0
15,15,17798.4221242226,0.00100000000384171
15,16,18339.7367939333,0
15,17,16279.6680936465,0.00100000000384171
15,18,20308.1707026781,0
15,19,26125.117472122,0
15,20,21582.6066676831,0.00100000000384171
15,21,16984.8949181738,0
15,22,13166.9186162778,0
15,23,16135.7693130298,0.00099999998928979
15,24,25425.0750395144,0
15,25,29199.224605309,0.00100000000384171
15,26,15921.7480903721,0
15,27,24768.6094284666,0
15,28,16410.158940142,0.00100000000384171
15,29,17971.0076890702,0
15,30,26395.6141504463,0
16,1,37837.5450810618,0.00099999998928979
16,2,37925.1940610498,0
16,3,14705.4062479706,0.00100000000384171
16,4,24885.5893548275,0
16,5,38459.8553866451,0
16,6,32365.0611770718,0.00100000000384171
16,7,29958.2024072385,0
16,8,22921.074577117,0
16,9,18594.2888953547,0.00100000000384171
16,10,36253.2587246105,0
16,11,29012.4156910201,0
16,12,25312.3704104346,0
16,13,27315.9152196985,0
16,14,23472.5207683665,0.00100000000384171
16,15,25367.2630743829,0
16,16,30102.6091881522,0
16,17,24470.9944658944,0.00100000000384171
16,18,25518.119234213,0
16,19,36525.9447679114,0
16,20,31084.1509333449,0
16,21,20900.6151890975,0
16,22,18893.2196983274,0.00099999998928979
16,23,26709.3681576581,0
16,24,31604.963698433,0
16,25,39503.8987553408,0.00100000000384171
16,26,23497.7477187956,0
16,27,41266.2538222564,0
16,28,27344.3306871736,0
16,29,31169.3236251389,0
16,30,37941.242202032,0.00100000000384171
17,1,25455.9551907232,0
17,2,22508.1052394447,0
17,3,20797.0392945838,0.00099999998928979
17,4,14522.8769977175,0
17,5,21812.0566188888,0
17,6,24012.4231263734,0.00100000000384171
17,7,26932.7036118763,0
17,8,22346.8830661264,0.00100000000384171
17,9,29865.0324341216,0
17,10,23978.5983383611,0
17,11,36793.0423464156,0.00100000000384171
17,12,35204.7670381479,0
17,13,16825.0351591398,0
17,14,26569.7503263616,0.00099999998928979
17,15,28028.528409014,0
17,16,20628.6444915473,0.00100000000384171
17,17,19580.4724504523,0
17,18,19613.0665610658,0
17,19,22813.5611548236,0.00100000000384171
17,20,22744.6834581055,0
17,21,21255.6975244307,0
17,22,18984.5916656795,0.00099999998928979
17,23,21544.2010532342,0
17,24,15526.1051258768,0
17,25,23249.9472894481,0
17,26,16300.3503769138,0
17,27,29126.9979115481,0.00100000000384171
17,28,21637.0100075531,0
17,29,15946.3445290879,0
17,30,21241.9171931751,0.00100000000384171
18,1,26768.5372717905,0
18,2,23309.7212883898,0
18,3,24542.5545173366,0
18,4,13332.2740425815,0
18,5,20389.3212097081,0.00100000000384171
18,6,26034.5411170503,0
18,7,25340.9617114967,0
18,8,18515.9275729763,0.00100000000384171
18,9,25621.8268403511,0
18,10,26121.0746073837,0
18,11,28029.2921989073,0.00100000000384171
18,12,32840.9781680279,0
18,13,22059.3617759459,0.00099999998928979
18,14,19856.746553434,0
18,15,27828.2341641269,0
18,16,25264.7826344616,0.00100000000384171
18,17,27355.8146442802,0
18,18,21456.7814325043,0
18,19,20322.4053495353,0.00100000000384171
18,20,21060.5295497165,0
18,21,24610.5075406173,0
18,22,25045.1469380845,0
18,23,25004.7118791322,0
18,24,24250.4193125906,0.00099999998928979
18,25,26852.057631253,0
18,26,15170.1251867221,0
18,27,32283.6751396296,0.00100000000384171
18,28,22690.8261768223,0
18,29,20456.4096882535,0
18,30,24290.8911248843,0.00100000000384171
19,1,24616.670055347,0
19,2,21478.7356509059,0.00099999998928979
19,3,23496.5370240071,0
19,4,19334.030755394,0
19,5,22790.5727745261,0.00100000000384171
19,6,17782.7106849595,0
19,7,22159.4886821578,0
19,8,21686.9605012682,0.00100000000384171
19,9,30086.8370159643,0.00100000000384171
19,10,22394.6513778529,0
19,11,34276.1780539146,0
19,12,31151.4360766351,0.00100000000384171
19,13,14762.9082427235,0
19,14,26874.3651376176,0.00099999998928979
19,15,25713.870907268,0
19,16,18230.8757556354,0
19,17,17781.7180497747,0.00100000000384171
19,18,20921.4760021259,0
19,19,23522.8147190469,0
19,20,24876.8704900686,0.00100000000384171
19,21,23223.2753240722,0
19,22,19673.2961360974,0.00100000000384171
19,23,17686.4329676609,0
19,24,22482.5960079785,0
19,25,20883.4189658679,0.00099999998928979
19,26,16558.5005635218,0
19,27,24227.6973138319,0
19,28,16823.6909159169,0.00100000000384171
19,29,17108.8815737173,0
19,30,21109.0503234577,0
20,1,40435.3425707126,0
20,2,38328.3240231483,0
20,3,22525.3289851338,0.00100000000384171
20,4,26733.7094200876,0
20,5,36950.8960876053,0
20,6,29993.2585380151,0.00099999998928979
20,7,23023.7548920871,0
20,8,19569.6808269856,0
20,9,14061.2804473642,0
20,10,36022.6451632152,0
20,11,22029.733982784,0.00100000000384171
20,12,15866.7496378454,0
20,13,29358.2230735954,0
20,14,20424.8818688273,0.00099999998928979
20,15,21306.1080799942,0
20,16,30557.7195288902,0
20,17,27944.4601825358,0
20,18,30748.5607158886,0
20,19,37338.7579720452,0.00100000000384171
20,20,33454.2427244102,0
20,21,30281.764205357,0
20,22,28685.8454440322,0.00100000000384171
20,23,24768.7878916943,0
20,24,37530.7470055947,0
20,25,38655.3957721868,0
20,26,23995.4756320599,0
20,27,37792.4946035265,0.00100000000384171
20,28,27278.8937347328,0
20,29,32867.5114483653,0
20,30,40247.3608746941,0.00100000000384171
21,1,41955.3903620274,0
21,2,37102.0921858693,0
21,3,26264.9770726248,0.00100000000384171
21,4,30658.9068776745,0
21,5,36419.987592549,0.00099999998928979
21,6,29507.145355806,0
21,7,22631.8731939339,0
21,8,21764.0481705609,0.00100000000384171
21,9,19018.5140661433,0
21,10,32446.3153031799,0
21,11,26034.7928888525,0.00100000000384171
21,12,19752.9002771132,0
21,13,29251.5194365293,0
21,14,23821.2105276204,0
21,15,23293.760405781,0
21,16,31716.2253829313,0.00099999998928979
21,17,27165.3849329398,0
21,18,29568.0700835349,0
21,19,34302.4387862127,0.00100000000384171
21,20,32700.526917216,0
21,21,30463.8279823125,0
21,22,27191.4296812315,0
21,23,23289.3646742233,0
21,24,40667.34472951,0.00100000000384171
21,25,35237.6456350854,0
21,26,25420.7953078917,0
21,27,30979.3685868234,0.00099999998928979
21,28,21896.9453602054,0
21,29,29500.88329282,0
21,30,38166.2927074441,0.00100000000384171
22,1,21952.004783185,0
22,2,17447.8434076246,0.00100000000384171
22,3,28777.453631454,0
22,4,20139.3550664107,0
22,5,21419.6125892325,0.00099999998928979
22,6,17280.5926014877,0
22,7,20140.1845827342,0
22,8,17488.9461063464,0.00100000000384171
22,9,27366.5161489508,0
22,10,15852.4892983822,0.00100000000384171
22,11,29625.9859718101,0
22,12,29129.8918160194,0
22,13,16606.2217299122,0.00100000000384171
22,14,26135.0311879214,0
22,15,23922.3500143322,0
22,16,19005.5787506263,0.00099999998928979
22,17,22982.2251681863,0
22,18,22090.6919372231,0.00100000000384171
22,19,21807.3912089011,0
22,20,22068.6992947557,0
22,21,24227.4901700277,0.00100000000384171
22,22,24030.3084764054,0
22,23,19833.1330927168,0
22,24,27791.0576458843,0.00100000000384171
22,25,22020.1225202241,0
22,26,19513.3654511596,0
22,27,25055.0838116425,0
22,28,18164.3761707178,0
22,29,16206.7268954149,0.00100000000384171
22,30,19438.253883539,0
23,1,16704.9256324513,0
23,2,13762.856977202,0.00100000000384171
23,3,36883.0120548678,0
23,4,23233.7316587722,0
23,5,19223.5980693074,0
23,6,21336.7701469927,0
23,7,25091.0197004913,0.00099999998928979
23,8,22623.6582632769,0
23,9,35094.2828276178,0
23,10,21171.3511440729,0.00100000000384171
23,11,32516.8097127987,0
23,12,34996.5476573696,0
23,13,20642.0203887591,0
23,14,28498.7196616292,0
23,15,31159.7042054141,0.00099999998928979
23,16,23079.8811712135,0
23,17,31201.3644096641,0
23,18,29550.7710705722,0.00100000000384171
23,19,23548.9488160061,0
23,20,26509.9389721207,0
23,21,32595.4015388271,0.00100000000384171
23,22,32775.4328894355,0
23,23,27218.9486878152,0.00100000000384171
23,24,31012.8613704285,0
23,25,25664.5260316907,0
23,26,24076.5949718315,0.00099999998928979
23,27,27187.7730248953,0
23,28,25089.2775917807,0
23,29,22722.6659142811,0.00100000000384171
23,30,20137.592508124,0
24,1,27542.6040396741,0.00100000000384171
24,2,24957.5515231478,0
24,3,29165.234313335,0
24,4,21626.3953877043,0.00100000000384171
24,5,26105.1245060462,0
24,6,18388.3122761042,0
24,7,17590.7184443119,0.00099999998928979
24,8,14381.9037575345,0
24,9,25002.0219197677,0
24,10,23634.0509953589,0
24,11,24750.4321769892,0.00100000000384171
24,12,20428.4759422775,0
24,13,20417.8594675104,0.00100000000384171
24,14,22274.2585694089,0
24,15,25653.6565252136,0
24,16,24089.4276556522,0.00100000000384171
24,17,26466.5568742823,0
24,18,28865.0839008102,0
24,19,29780.5188933883,0.00099999998928979
24,20,30082.6734054142,0
24,21,31022.8880572326,0.00100000000384171
24,22,30264.1340673227,0
24,23,21328.193677071,0
24,24,31320.2785013997,0.00100000000384171
24,25,26730.530408122,0
24,26,20216.7276543192,0
24,27,31165.7915688425,0.00099999998928979
24,28,22587.8434423332,0
24,29,25807.2992451743,0.00100000000384171
24,30,29248.5999321512,0
25,1,21280.893779388,0
25,2,15133.1931341485,0.00100000000384171
25,3,29442.7663808037,0
25,4,16670.0399540561,0
25,5,14261.4648556711,0
25,6,15487.1719184458,0
25,7,17470.359811987,0.00099999998928979
25,8,17653.5264441196,0
25,9,27787.5024529685,0
25,10,20702.4264815259,0.00100000000384171
25,11,24491.5116897258,0
25,12,28059.3817920842,0
25,13,14718.0020632991,0.00100000000384171
25,14,21559.7298743091,0
25,15,22337.9928562713,0.00100000000384171
25,16,15218.9186499649,0
25,17,21732.2495173535,0
25,18,25512.5500616328,0.00099999998928979
25,19,21260.0557099141,0
25,20,24513.8170332026,0
25,21,30636.5544618133,0.00100000000384171
25,22,27344.981595449,0
25,23,18920.0175203168,0.00100000000384171
25,24,25562.3459292681,0
25,25,18674.3159359491,0
25,26,19696.2406416693,0.00100000000384171
25,27,26725.6127560061,0
25,28,23492.0791161965,0
25,29,20679.9741831921,0.00099999998928979
25,30,17908.7779270328,0
26,1,30989.0888391437,0.00100000000384171
26,2,28960.6478209109,0
26,3,24225.7037338706,0
26,4,20117.2806982041,0.00100000000384171
26,5,24552.0818357713,0
26,6,25197.6036690016,0
26,7,24508.644866367,0.00100000000384171
26,8,23457.2215033015,0
26,9,27622.2195795039,0.00099999998928979
26,10,33661.0239682317,0
26,11,33924.7441324476,0
26,12,28561.2045269967,0.00100000000384171
26,13,19979.0963885656,0
26,14,23288.1578056242,0
26,15,24559.9076964766,0.00100000000384171
26,16,18946.5456387539,0
26,17,18317.9709348382,0.00099999998928979
26,18,34398.3406676505,0
26,19,34838.6103659587,0
26,20,34443.3068810849,0.00100000000384171
26,21,35571.1899763992,0
26,22,29166.8471972207,0
26,23,20731.4965046438,0.00100000000384171
26,24,21237.6405078285,0
26,25,27746.0346648707,0
26,26,24579.1800694446,0
26,27,34534.9240780766,0
26,28,31861.6918585445,0.00099999998928979
26,29,28044.6331138562,0
26,30,31271.0135398451,0
27,1,29612.1097149751,0.00100000000384171
27,2,25421.1275628137,0
27,3,38984.9963265359,0
27,4,29689.4078614158,0.00100000000384171
27,5,23396.6476924451,0
27,6,21393.3220344695,0.00100000000384171
27,7,22932.7440395146,0
27,8,28577.8181197073,0
27,9,35749.9443471647,0.00099999998928979
27,10,30752.3476589378,0
27,11,34067.3575653152,0
27,12,31975.9998074828,0.00100000000384171
27,13,23856.0442384656,0
27,14,30875.0132291948,0.00100000000384171
27,15,26366.7045310626,0
27,16,19550.7761550563,0
27,17,25496.5966029504,0.00100000000384171
27,18,39631.9180821759,0
27,19,35083.9912692278,0
27,20,38175.9303627483,0.00099999998928979
27,21,43418.7606840951,0
27,22,38407.6466321558,0
27,23,24307.3501154271,0
27,24,34478.7766108296,0
27,25,24846.8113769263,0.00100000000384171
27,26,32133.3721722488,0
27,27,28745.798296062,0
27,28,33375.1134924493,0.00100000000384171
27,29,30807.3933612386,0
27,30,28466.2166830724,0
28,1,26038.7171257522,0
28,2,17971.3256099954,0
28,3,31263.2162626377,0.00100000000384171
28,4,21544.8507877824,0
28,5,17645.7380967393,0
28,6,17249.2513857022,0.00100000000384171
28,7,17169.6328068796,0
28,8,20427.6422529348,0
28,9,26389.1030644213,0
28,10,17927.3140465871,0
28,11,25514.0879014373,0.00100000000384171
28,12,29299.9666213585,0
28,13,17731.3269542824,0
28,14,24176.2535198381,0.00100000000384171
28,15,16822.1223111836,0
28,16,13439.6041500021,0
28,17,20423.297952017,0.00100000000384171
28,18,24718.7625638918,0
28,19,20433.3991963847,0.00099999998928979
28,20,23059.0102055622,0
28,21,30103.5112631159,0
28,22,26253.8522865392,0.00100000000384171
28,23,18883.7946277346,0
28,24,30990.9475424236,0
28,25,19469.2794163024,0.00100000000384171
28,26,23047.9050723613,0
28,27,21567.4933896339,0.00100000000384171
28,28,21078.1802179098,0
28,29,17061.2444070035,0
28,30,17192.4922601301,0.00099999998928979
29,1,25485.0897324537,0
29,2,26417.3589866799,0
29,3,14005.494108671,0.00100000000384171
29,4,16932.1527170623,0
29,5,26268.8860856467,0
29,6,23754.7431168872,0
29,7,23242.137502592,0
29,8,16590.1540650114,0.00400000000081491
29,9,21406.6589293872,0
29,10,28909.799575316,0
29,11,31071.9416703767,0
29,12,24624.5027115319,0.00100000000384171
29,13,16450.3803491987,0
29,14,23091.9968951179,0
29,15,19655.0321440135,0.00100000000384171
29,16,19252.759933696,0
29,17,15847.5274612676,0.00100000000384171
29,18,22869.5040674605,0
29,19,28893.7681775495,0
29,20,23096.7462839151,0.00099999998928979
29,21,18935.1827470419,0
29,22,14791.0426638596,0
29,23,16839.2992121928,0.00100000000384171
29,24,21338.298364657,0
29,25,29754.4574356107,0.00100000000384171
29,26,17096.559839891,0
29,27,29873.6030228864,0
29,28,21696.2755996735,0.00100000000384171
29,29,21051.3093600566,0
29,30,28593.5163674988,0
30,1,22873.6630615459,0.00099999998928979
30,2,17586.1606468485,0
30,3,39090.9460241189,0
30,4,28439.6642215775,0
30,5,19846.0117078218,0
30,6,20555.7905552164,0.00100000000384171
30,7,25492.2335450625,0
30,8,28685.5170127831,0
30,9,39546.7677351579,0.00100000000384171
30,10,23237.5740929375,0
30,11,39439.5118522846,0
30,12,37294.3342694655,0
30,13,20210.808136745,0
30,14,33563.1136823338,0.00100000000384171
30,15,32508.0659283326,0
30,16,21474.0882052967,0
30,17,26443.812590391,0.00100000000384171
30,18,34062.7156291704,0
30,19,28473.001774697,0
30,20,32850.8704379483,0.00100000000384171
30,21,37725.9488586095,0
30,22,34381.7903953107,0.00099999998928979
30,23,24453.759051481,0
30,24,31406.0542558919,0
30,25,18462.9566633166,0.00100000000384171
30,26,28994.0035958816,0
30,27,20261.788534004,0
30,28,26037.8910938608,0.00100000000384171
30,29,22867.7068449836,0
30,30,21892.9070102553,0.00099999998928979
