"Before.Trace.ID1","Before.Trace.ID2","Difference","Runtime"
1,2,11634.4758720651,0.322000000000116
1,3,15069.1615827987,0.280000000013388
1,4,22649.3699317098,0.284999999988941
1,5,12691.6917437996,0.287000000011176
1,6,20491.0925333378,0.350999999995111
1,7,9293.91364808612,0.293000000005122
1,8,8656.59946880061,0.281999999991967
1,9,15448.613468882,0.339000000007218
1,10,12948.7553234395,0.322999999989406
1,11,8966.37660167188,0.326000000000931
1,12,11807.0513829379,0.327000000004773
1,13,22152.7004628225,0.328999999997905
1,14,20052.2850408585,0.323000000003958
1,15,20038.5074798544,0.329999999987194
1,16,13329.5494037644,0.3240000000078
1,17,16755.6066041353,0.328999999997905
1,18,25603.9856554993,0.381999999997788
1,19,13686.1069625601,0.281000000002678
1,20,19764.8551158098,0.292000000001281
1,21,12700.653154381,0.279999999998836
1,22,20721.0761318154,0.289000000004307
1,23,13676.6169530541,0.288999999989755
1,24,14421.9643240001,0.298000000009779
1,25,14889.4735141204,0.334000000002561
1,26,21935.617559482,0.345999999990454
1,27,15681.7922592006,0.372000000003027
1,28,10649.4435166149,0.369000000006054
1,29,15581.2699461868,0.365999999994528
1,30,17052.503107918,0.364999999990687
2,3,20851.2688024544,0.36600000000908
2,4,15944.8464796718,0.367000000012922
2,5,9810.26993976063,0.364999999990687
2,6,24854.3214038966,0.370999999999185
2,7,8811.18210126692,0.36600000000908
2,8,6300.83717867367,0.35899999999674
2,9,12207.7472065087,0.365999999994528
2,10,5903.86645050708,0.362999999997555
2,11,7504.85001026888,0.358000000007451
2,12,10293.2450506285,0.36699999999837
2,13,26781.7283101728,0.372999999992317
2,14,9940.87578333331,0.361000000004424
2,15,10434.4473817543,0.36699999999837
2,16,14539.0797364482,0.365999999994528
2,17,13315.0813823919,0.362999999997555
2,18,15504.2561199855,0.369000000006054
2,19,16501.4957398981,0.365999999994528
2,20,21850.8155470779,0.370999999999185
2,21,7350.72482869689,0.36600000000908
2,22,13816.6592062848,0.357999999992899
2,23,22181.5716579808,0.301000000006752
2,24,10398.6644423086,0.353000000002794
2,25,15673.3686719714,0.355000000010477
2,26,18540.8615791414,0.360000000000582
2,27,10945.0510820824,0.357999999992899
2,28,8208.10810400197,0.351999999998952
2,29,9293.00948485392,0.358000000007451
2,30,32044.1064857866,0.361999999993714
3,4,35929.0253319889,0.355999999999767
3,5,27281.8045006011,0.360000000000582
3,6,35032.3153967534,0.357999999992899
3,7,18481.6184635625,0.359000000011292
3,8,20612.2229736841,0.360000000000582
3,9,32273.7799598719,0.357999999992899
3,10,20092.2061012063,0.354999999995925
3,11,19184.5074520503,0.354000000006636
3,12,26817.3652916571,0.357999999992899
3,13,32248.2905315791,0.369000000006054
3,14,20978.1304872304,0.354999999995925
3,15,20502.4133754517,0.354999999995925
3,16,21829.6158537843,0.359000000011292
3,17,21106.6753882182,0.361999999993714
3,18,24504.3427679305,0.357999999992899
3,19,21975.1364032552,0.361000000004424
3,20,22315.4736680175,0.360000000000582
3,21,23019.739856246,0.357000000003609
3,22,29727.6809086941,0.361000000004424
3,23,14010.8631252624,0.35899999999674
3,24,22578.823760772,0.353999999992084
3,25,20824.1061338049,0.359000000011292
3,26,30645.4662716275,0.361999999993714
3,27,18356.6819753475,0.376999999993131
3,28,22477.3761394678,0.302999999999884
3,29,20303.7836765086,0.302999999999884
3,30,13639.798033896,0.3240000000078
4,5,25548.4836158402,0.286999999996624
4,6,13301.0322470382,0.335000000006403
4,7,20706.8093293586,0.29299999999057
4,8,18187.0804673191,0.317999999999302
4,9,14839.0876997328,0.239000000001397
4,10,16089.0328958964,0.3240000000078
4,11,13724.3652886789,0.293999999994412
4,12,15599.7823442356,0.296000000002095
4,13,42309.9081998964,0.270999999993364
4,14,24939.7215187639,0.302999999999884
4,15,24145.2830044411,0.269000000000233
4,16,30684.3958300054,0.294999999998254
4,17,32284.7567013318,0.357000000003609
4,18,27096.4299604976,0.282000000006519
4,19,32330.2398679556,0.320999999996275
4,20,31909.7298854695,0.283999999999651
4,21,19586.6697269994,0.304999999993015
4,22,21911.6143958784,0.290000000008149
4,23,37474.5240516016,0.309000000008382
4,24,25977.079754556,0.355000000010477
4,25,30096.2884606365,0.290999999997439
4,26,11519.1839658049,0.328999999997905
4,27,26160.3244387243,0.290999999997439
4,28,12151.1525350605,0.303999999989173
4,29,21698.0392677643,0.291000000011991
4,30,41489.6690307334,0.273000000001048
5,6,29509.8754269366,0.270999999993364
5,7,14899.4078264373,0.289000000004307
5,8,9259.69232686244,0.319000000003143
5,9,20630.2404707926,0.337999999988824
5,10,11492.3183014962,0.342000000004191
5,11,11287.7730826134,0.322000000000116
5,12,12121.7135396257,0.309999999997672
5,13,20533.7569278041,0.290999999997439
5,14,11062.142371357,0.317999999999302
5,15,11583.9683191019,0.298000000009779
5,16,13943.8264508363,0.235000000000582
5,17,9749.07920412141,0.370999999999185
5,18,15205.8537633627,0.286000000007334
5,19,10420.0522762409,0.256999999997788
5,20,17761.7432378517,0.345000000001164
5,21,7173.21403549549,0.282999999995809
5,22,9653.8142628176,0.256000000008498
5,23,21643.9756083043,0.326999999990221
5,24,6871.41669418937,0.234000000011292
5,25,9816.63005270665,0.301999999996042
5,26,28479.017762479,0.285000000003492
5,27,9207.12441500617,0.29299999999057
5,28,12133.5294304614,0.338000000003376
5,29,8908.6125343738,0.317999999999302
5,30,24876.7981166577,0.323999999993248
6,7,23147.721524702,0.330000000001746
6,8,22468.8130249529,0.369999999995343
6,9,21537.4700521669,0.370000000009895
6,10,24318.4350816463,0.362999999997555
6,11,17039.2057464251,0.313000000009197
6,12,17454.3517355205,0.311999999990803
6,13,33930.9734039735,0.298000000009779
6,14,37584.1538699551,0.326999999990221
6,15,33073.5387855387,0.344000000011874
6,16,28366.3956423404,0.380999999993946
6,17,36658.5241552855,0.365000000005239
6,18,41124.0510710244,0.368999999991502
6,19,33042.9214428835,0.369999999995343
6,20,36301.913487963,0.36600000000908
6,21,28355.9160310484,0.368999999991502
6,22,29786.7271074703,0.369000000006054
6,23,35870.0222808244,0.364000000001397
6,24,32056.0656118162,0.368999999991502
6,25,32703.9190750045,0.418000000005122
6,26,19945.0077828789,0.270999999993364
6,27,32333.3007423418,0.315000000002328
6,28,17054.8859509696,0.275999999998021
6,29,30241.7561276663,0.30800000000454
6,30,34115.8301637965,0.274999999994179
7,8,8580.61747040032,0.271999999997206
7,9,15194.4929280959,0.3240000000078
7,10,10003.0187158703,0.323000000003958
7,11,9050.25613033834,0.274000000004889
7,12,15897.1853620021,0.275999999998021
7,13,26081.3190707481,0.3009999999922
7,14,18155.7260213136,0.322000000000116
7,15,20863.3761256313,0.352000000013504
7,16,13800.8240382257,0.370999999999185
7,17,21400.2495930595,0.36699999999837
7,18,24759.9730585101,0.368000000002212
7,19,16017.9187615341,0.362999999997555
7,20,20051.270805433,0.365999999994528
7,21,12029.8643909394,0.357000000003609
7,22,19650.5430506073,0.365000000005239
7,23,14360.2601223024,0.35899999999674
7,24,15704.2282151585,0.364999999990687
7,25,16509.4296774286,0.364000000001397
7,26,19250.7373904754,0.360000000000582
7,27,15999.6443736076,0.364000000001397
7,28,8388.1796411536,0.311000000001513
7,29,16555.8864882895,0.313999999998487
7,30,26143.7466389015,0.281000000002678
8,9,9315.98086505602,0.26600000000326
8,10,8441.95045399797,0.293000000005122
8,11,5777.85974451769,0.320999999996275
8,12,8118.82559929393,0.274000000004889
8,13,23177.2784937201,0.278999999994994
8,14,13537.7876820866,0.289000000004307
8,15,12525.3721032495,0.264999999999418
8,16,12584.2396550797,0.275000000008731
8,17,13364.1957985855,0.282999999995809
8,18,17174.7107272303,0.271999999997206
8,19,13063.7134710293,0.278000000005704
8,20,19347.5664551089,0.296999999991385
8,21,8035.061487448,0.330000000001746
8,22,13780.9694541159,0.345000000001164
8,23,20930.9800512119,0.345999999990454
8,24,10027.2499262829,0.342000000004191
8,25,13660.6911223908,0.298999999999069
8,26,16987.2793129016,0.235000000000582
8,27,11395.9721074657,0.360000000000582
8,28,8203.7747560462,0.283999999999651
8,29,10521.6641022522,0.256000000008498
8,30,27248.5829449111,0.346999999994296
9,10,16910.6357968312,0.283999999999651
9,11,12089.4635236217,0.255999999993946
9,12,12993.4833224437,0.32499999999709
9,13,42154.3841753706,0.243000000002212
9,14,26576.5348622659,0.320000000006985
9,15,26320.0781554428,0.331000000005588
9,16,22737.6976110829,0.354000000006636
9,17,30977.9353952781,0.346999999994296
9,18,29161.7301868627,0.286999999996624
9,19,25542.9148746677,0.301000000006752
9,20,31983.3119221404,0.311999999990803
9,21,16299.0718404463,0.309000000008382
9,22,25211.5129799793,0.299999999988358
9,23,31224.2297779096,0.312000000005355
9,24,23701.0212066056,0.3009999999922
9,25,30085.3486607528,0.299000000013621
9,26,13703.2196322669,0.276999999987311
9,27,26841.666909621,0.345000000001164
9,28,12540.7307789402,0.297999999995227
9,29,21108.5670399661,0.336999999999534
9,30,39999.1362616721,0.33200000000943
10,11,7831.44392177087,0.311999999990803
10,12,10622.608715954,0.294000000008964
10,13,23934.5601371908,0.341000000000349
10,14,11673.3955573714,0.330999999991036
10,15,11499.6063712378,0.326000000000931
10,16,13707.2088105609,0.328999999997905
10,17,14665.0313358387,0.270000000004075
10,18,18109.5607083336,0.279999999998836
10,19,18958.9997839072,0.342999999993481
10,20,20936.7377424365,0.349000000001979
10,21,10997.043331077,0.343000000008033
10,22,14119.0677334354,0.305999999996857
10,23,23222.0093139325,0.327000000004773
10,24,12862.7103697583,0.278999999994994
10,25,14913.2189229108,0.267000000007101
10,26,19768.8641890903,0.32499999999709
10,27,11102.164985007,0.278000000005704
10,28,9508.54182179882,0.269000000000233
10,29,9992.36665545119,0.277999999991152
10,30,33021.7781034129,0.275999999998021
11,12,6729.22091636705,0.351999999998952
11,13,20778.2493819648,0.309999999997672
11,14,15435.2890219742,0.337000000014086
11,15,14450.6395410719,0.276999999987311
11,16,16231.6330996418,0.229999999995925
11,17,14578.3594711332,0.294000000008964
11,18,20174.5809625706,0.279999999998836
11,19,16233.814549747,0.264999999999418
11,20,16887.294230426,0.224000000001979
11,21,9731.10131160423,0.290999999997439
11,22,17031.0801631937,0.279999999998836
11,23,19517.2968716341,0.210999999995693
11,24,12076.2734948662,0.279999999998836
11,25,14409.5936351698,0.243999999991502
11,26,14735.0383227734,0.290000000008149
11,27,13302.7436711153,0.259999999994761
11,28,8284.34760687443,0.214000000007218
11,29,10788.0803817633,0.286999999996624
11,30,22970.3724755124,0.274999999994179
12,13,18967.6011601291,0.281000000002678
12,14,17710.9432122181,0.216000000000349
12,15,13133.3653184423,0.271999999997206
12,16,15734.9925575853,0.301999999996042
12,17,14517.6146541214,0.229000000006636
12,18,20106.8466678016,0.292000000001281
12,19,19884.3982263684,0.218999999997322
12,20,21308.6749825015,0.282000000006519
12,21,10599.1112867833,0.269000000000233
12,22,14899.1012076066,0.235000000000582
12,23,28246.3419781176,0.284999999988941
12,24,13296.2271782576,0.267000000007101
12,25,19547.3093258311,0.269000000000233
12,26,15086.348992173,0.211999999999534
12,27,15103.9490955322,0.271999999997206
12,28,12353.3642508339,0.30000000000291
12,29,10003.335110487,0.243999999991502
12,30,29790.9663202872,0.292000000001281
13,14,24535.9520368911,0.301000000006752
13,15,20115.2775104491,0.235999999989872
13,16,15462.1988780788,0.293000000005122
13,17,14032.828813953,0.271999999997206
13,18,28306.4308893566,0.229999999995925
13,19,22620.1789962724,0.277000000001863
13,20,18624.7958897615,0.281000000002678
13,21,23247.1526784883,0.217999999993481
13,22,21412.4090098802,0.271000000007916
13,23,27071.7823660673,0.282999999995809
13,24,18168.382033197,0.225999999995111
13,25,17038.9367004589,0.294000000008964
13,26,38258.4037804549,0.303999999989173
13,27,15994.4551046361,0.269000000000233
13,28,29394.5640497509,0.273000000001048
13,29,18318.6905367023,0.255000000004657
13,30,26682.1702237406,0.237000000008265
14,15,9183.79431383419,0.287999999985914
14,16,20433.4639188327,0.289000000004307
14,17,8621.69790644986,0.221000000005006
14,18,9364.4560847608,0.279999999998836
14,19,15551.7560103894,0.30899999999383
14,20,19035.0489129477,0.274999999994179
14,21,11250.2418806071,0.289000000004307
14,22,12631.8574437385,0.243999999991502
14,23,24438.9168638295,0.315000000002328
14,24,8578.36919772238,0.279999999998836
14,25,10989.663749092,0.279000000009546
14,26,26607.0021989153,0.271999999997206
14,27,6131.79238652108,0.278999999994994
14,28,19865.2379712804,0.24900000001071
14,29,9392.75357798035,0.295999999987544
14,30,27527.296463866,0.276000000012573
15,16,15900.2206202718,0.266999999992549
15,17,8040.97769165723,0.206000000005588
15,18,6598.18899977674,0.288999999989755
15,19,16520.4141257312,0.228000000002794
15,20,17994.6720936587,0.273000000001048
15,21,9129.32228172253,0.262000000002445
15,22,7590.68072807565,0.205999999991036
15,23,28343.2358188198,0.274000000004889
15,24,9136.54137705678,0.297999999995227
15,25,15958.9820176881,0.215000000011059
15,26,26246.6282975561,0.288000000000466
15,27,9627.85165383175,0.264999999999418
15,28,21249.63566811,0.229000000006636
15,29,5178.9033014504,0.274999999994179
15,30,23162.6848078568,0.244000000006054
16,17,14899.5409328069,0.273999999990338
16,18,22824.5646767433,0.271000000007916
16,19,16258.155385858,0.248999999996158
16,20,18711.3319788714,0.286999999996624
16,21,14411.2470805296,0.230999999999767
16,22,15111.5051060192,0.306000000011409
16,23,23659.155214541,0.343000000008033
16,24,14050.1919425936,0.31699999999546
16,25,16272.4882778541,0.339000000007218
16,26,29974.6713124101,0.351999999998952
16,27,13757.3248801363,0.344000000011874
16,28,14576.7398481429,0.346000000005006
16,29,12913.2174685122,0.283999999999651
16,30,27825.466754461,0.282000000006519
17,18,10961.7528823526,0.346999999994296
17,19,11449.3841723986,0.346000000005006
17,20,13619.420612896,0.275999999998021
17,21,10694.5094123024,0.273999999990338
17,22,10301.0707083019,0.290000000008149
17,23,23719.2016785704,0.281000000002678
17,24,6375.35147525378,0.297999999995227
17,25,10213.0230236505,0.274999999994179
17,26,35009.4728516435,0.288000000000466
17,27,5268.56118000853,0.218000000008033
17,28,23010.07415568,0.279999999998836
17,29,8588.79709672495,0.279999999998836
17,30,20051.2402140116,0.290999999997439
18,19,15909.8515583429,0.289000000004307
18,20,16573.681940453,0.293000000005122
18,21,11311.8285373161,0.276999999987311
18,22,8560.02598404566,0.309000000008382
18,23,28604.6061087752,0.280999999988126
18,24,9409.75924040423,0.309000000008382
18,25,17697.8649346149,0.285999999992782
18,26,29989.618278835,0.279000000009546
18,27,12866.1871649469,0.288000000000466
18,28,23084.6290962991,0.277999999991152
18,29,9397.76208121558,0.286999999996624
18,30,23595.2476461731,0.279999999998836
19,20,12380.2012996102,0.290999999997439
19,21,10114.5742728293,0.273000000001048
19,22,12903.2672149899,0.288000000000466
19,23,17530.1040536836,0.274000000004889
19,24,6938.18287281165,0.273999999990338
19,25,9314.96930951836,0.355000000010477
19,26,35225.2850524732,0.331999999994878
19,27,13431.1469462236,0.346000000005006
19,28,16539.5973538968,0.315000000002328
19,29,16120.926004776,0.333999999988009
19,30,16664.0520783497,0.277000000001863
20,21,13473.3937272079,0.218999999997322
20,22,15862.7215031771,0.290000000008149
20,23,17993.3837439454,0.23399999999674
20,24,10809.9247758264,0.267999999996391
20,25,12180.8381579585,0.273000000001048
20,26,30860.0357959542,0.270999999993364
20,27,15305.8920289133,0.238000000012107
20,28,22773.9706306496,0.29299999999057
20,29,16661.6589957225,0.298000000009779
20,30,16885.9148501505,0.222000000008848
21,22,8906.55510942955,0.294999999998254
21,23,19917.1825517971,0.218999999997322
21,24,6411.05030066252,0.278000000005704
21,25,12203.7226150964,0.266999999992549
21,26,20184.459982251,0.214000000007218
21,27,11707.5278547325,0.280999999988126
21,28,12230.9878234789,0.267000000007101
21,29,8069.83681904591,0.271999999997206
21,30,23311.1219923963,0.225999999995111
22,23,31006.981909508,0.297000000005937
22,24,7382.88044562249,0.296000000002095
22,25,14543.7980636964,0.244999999995343
22,26,29773.5247777274,0.29299999999057
22,27,12199.0207045668,0.298999999999069
22,28,15096.6594895007,0.232000000003609
22,29,8371.36339290779,0.288000000000466
22,30,28852.4804797811,0.269000000000233
23,24,19342.9925115587,0.217999999993481
23,25,16867.4555247692,0.273000000001048
23,26,30727.8521500111,0.267000000007101
23,27,20429.1396694448,0.218999999997322
23,28,23557.8329898252,0.289000000004307
23,29,27296.0813610596,0.273000000001048
23,30,12728.3637309691,0.236999999993714
24,25,8850.54536520981,0.31600000000617
24,26,28823.8247887443,0.292000000001281
24,27,7404.39466240512,0.291999999986729
24,28,15910.3171290757,0.278000000005704
24,29,9003.04042659404,0.298999999999069
24,30,21766.2237874538,0.230999999999767
25,26,33532.4267762961,0.278999999994994
25,27,8343.98519873917,0.287000000011176
25,28,18059.7104340958,0.277000000001863
25,29,14167.0684515595,0.276999999987311
25,30,19147.7188070945,0.294000000008964
26,27,26354.5000437468,0.304999999993015
26,28,19398.341709636,0.239000000001397
26,29,20826.9831923287,0.275999999998021
26,30,36336.6107894142,0.315000000002328
27,28,18650.9856795829,0.286999999996624
27,29,9469.50190956799,0.304000000003725
27,30,23849.9143626346,0.266999999992549
28,29,14761.1772625071,0.226999999998952
28,30,30247.8621976081,0.286000000007334
29,30,23184.1392056524,0.263999999995576


"After.Trace.ID","Before.Trace.ID","Difference","Runtime"
1,1,199222.038260501,0.282000000006519
1,2,224922.529913933,0.296999999991385
1,3,190004.821384363,0.301000000006752
1,4,215218.081089809,0.30800000000454
1,5,240600.914614197,0.294000000008964
1,6,202414.757520229,0.296999999991385
1,7,211124.293241866,0.282000000006519
1,8,215089.893375224,0.294000000008964
1,9,215757.484575005,0.369999999995343
1,10,224986.423557965,0.296000000002095
1,11,194739.686445542,0.334000000002561
1,12,209256.732723342,0.309999999997672
1,13,202647.624185896,0.357999999992899
1,14,226869.885887621,0.362000000008265
1,15,231525.579651626,0.384999999994761
1,16,221671.706270424,0.375
1,17,218489.501392722,0.370999999999185
1,18,228587.05076043,0.376000000003842
1,19,219786.409470111,0.373999999996158
1,20,184148.940400294,0.375
1,21,221094.018515623,0.375
1,22,244789.341982551,0.372999999992317
1,23,167364.801119695,0.37400000001071
1,24,224393.026338923,0.369999999995343
1,25,216194.954115483,0.372999999992317
1,26,180877.159360858,0.367000000012922
1,27,214983.643208117,0.380999999993946
1,28,222163.177045437,0.372000000003027
1,29,224626.659719745,0.370999999999185
1,30,166065.054178098,0.372999999992317
2,1,62376.2222424223,0.369999999995343
2,2,76527.5138987412,0.376000000003842
2,3,48461.5615444853,0.368000000002212
2,4,70301.6790544942,0.376000000003842
2,5,90320.2823289115,0.37599999998929
2,6,59964.7260095515,0.373000000006869
2,7,65669.6339024109,0.36699999999837
2,8,71898.6995800306,0.373999999996158
2,9,64871.0550389222,0.422000000005937
2,10,76536.8992371051,0.292000000001281
2,11,65043.2054871394,0.343999999997322
2,12,73434.7571804731,0.293999999994412
2,13,85120.0130081573,0.32499999999709
2,14,80855.5037172481,0.301000000006752
2,15,86336.3193783495,0.30800000000454
2,16,79289.7909991416,0.356999999989057
2,17,83763.8323271769,0.336000000010245
2,18,83066.6701490731,0.333999999988009
2,19,74716.2529302006,0.334000000002561
2,20,67507.3188184074,0.33200000000943
2,21,76093.1318262256,0.332999999998719
2,22,94960.3147797514,0.337999999988824
2,23,50340.3910115062,0.328000000008615
2,24,84026.9029301982,0.339999999996508
2,25,78677.615600522,0.334000000002561
2,26,49646.1632782912,0.327000000004773
2,27,76282.3701339121,0.334999999991851
2,28,68730.8603347784,0.334000000002561
2,29,82768.1994195938,0.335000000006403
2,30,50648.2578356555,0.327999999994063
3,1,41253.3305951444,0.323000000003958
3,2,61406.6852313078,0.330999999991036
3,3,34736.9345356732,0.330000000001746
3,4,58244.1311236221,0.330000000001746
3,5,67856.9323189071,0.330999999991036
3,6,46003.4321583239,0.325000000011642
3,7,47372.249580197,0.331999999994878
3,8,56715.0255393689,0.327999999994063
3,9,59700.0717398898,0.334000000002561
3,10,61819.7801984521,0.330999999991036
3,11,44200.1070852415,0.326000000000931
3,12,59237.8111765473,0.301000000006752
3,13,60749.3926803333,0.347999999998137
3,14,63488.3162904391,0.349999999991269
3,15,64605.4388566395,0.376000000003842
3,16,64867.0207342151,0.379999999990105
3,17,59555.4433789665,0.361000000004424
3,18,63217.6196977037,0.379000000000815
3,19,54051.5463391246,0.368000000002212
3,20,47017.3669085222,0.368999999991502
3,21,60399.5406707408,0.373999999996158
3,22,74513.9636647155,0.377000000007683
3,23,29559.910835687,0.364000000001397
3,24,61833.0598101669,0.379000000000815
3,25,55877.5964149299,0.364000000001397
3,26,40053.6473268233,0.369999999995343
3,27,58071.3763433605,0.369000000006054
3,28,56199.0074440266,0.368999999991502
3,29,62880.1225844511,0.373000000006869
3,30,28361.9786085046,0.369000000006054
4,1,55164.0694573344,0.368000000002212
4,2,68482.1477577683,0.370999999999185
4,3,43948.0778095291,0.372000000003027
4,4,63495.3936220453,0.365999999994528
4,5,80074.1982758107,0.379000000000815
4,6,55899.2746644028,0.365000000005239
4,7,60285.0901417066,0.369999999995343
4,8,63897.059134943,0.373999999996158
4,9,65600.4012001467,0.375
4,10,69883.6633341672,0.368000000002212
4,11,53725.8812522911,0.372000000003027
4,12,62615.171554788,0.372000000003027
4,13,67856.1111234832,0.387999999991735
4,14,70198.5212264978,0.309000000008382
4,15,71496.1689528545,0.3009999999922
4,16,71103.4764123626,0.285000000003492
4,17,66578.5011135306,0.278000000005704
4,18,71679.2904683306,0.292000000001281
4,19,69359.166400921,0.347999999998137
4,20,52550.9816292919,0.299999999988358
4,21,65028.9164558433,0.293000000005122
4,22,82844.9574548529,0.334000000002561
4,23,42313.4066813438,0.289000000004307
4,24,68756.702059699,0.301999999996042
4,25,69524.4506707909,0.292000000001281
4,26,42591.9417740447,0.254999999990105
4,27,63726.5951470118,0.3240000000078
4,28,66973.0873795346,0.296000000002095
4,29,68104.4570580329,0.317999999999302
4,30,36331.3395338133,0.262000000002445
5,1,47262.9530428622,0.273000000001048
5,2,67565.8428449814,0.285999999992782
5,3,47203.0814295212,0.297000000005937
5,4,55753.1828327635,0.336999999999534
5,5,76616.170365228,0.293999999994412
5,6,46943.1421233804,0.317999999999302
5,7,53186.3074485588,0.288000000000466
5,8,55488.5089534952,0.345000000001164
5,9,54213.8938160385,0.354000000006636
5,10,69426.1920450203,0.37599999998929
5,11,46151.0325465401,0.36699999999837
5,12,56742.074281936,0.369000000006054
5,13,75186.1423424082,0.380000000004657
5,14,75567.4590630544,0.370999999999185
5,15,77191.0815661808,0.372999999992317
5,16,73651.6646051321,0.372000000003027
5,17,79607.0552672993,0.369999999995343
5,18,77910.9178328902,0.37400000001071
5,19,65563.1832621643,0.370999999999185
5,20,59180.1151348453,0.365999999994528
5,21,64446.82064006,0.370999999999185
5,22,86282.0077029081,0.422000000005937
5,23,41600.1580997247,0.286000000007334
5,24,73979.4520033501,0.342000000004191
5,25,68105.5827306441,0.289999999993597
5,26,42374.3185317766,0.31600000000617
5,27,71588.6225561014,0.298000000009779
5,28,60384.6726172072,0.277000000001863
5,29,72328.0286250346,0.349000000001979
5,30,41203.6551525964,0.32499999999709
6,1,55886.1223896883,0.328999999997905
6,2,73812.6950434934,0.338999999992666
6,3,41690.1460449777,0.322000000000116
6,4,73542.9217783139,0.330000000001746
6,5,87988.5122223021,0.341000000000349
6,6,64951.1803761272,0.326000000000931
6,7,61018.8284271256,0.328999999997905
6,8,68720.9010340752,0.338999999992666
6,9,73084.6182981507,0.334000000002561
6,10,72684.7928921212,0.326000000000931
6,11,56247.1530462597,0.327000000004773
6,12,69042.8505587356,0.334000000002561
6,13,66290.8812509565,0.336999999999534
6,14,73756.0765780923,0.334999999991851
6,15,76925.3627201267,0.331000000005588
6,16,73429.5209800102,0.334999999991851
6,17,70671.2259941935,0.336000000010245
6,18,74676.4672174149,0.331999999994878
6,19,67666.5926391337,0.327999999994063
6,20,46522.198904585,0.332999999998719
6,21,69311.6929256036,0.330000000001746
6,22,88433.8439931258,0.334000000002561
6,23,37694.9082692477,0.326000000000931
6,24,72186.8614031523,0.338000000003376
6,25,69658.8633490023,0.303999999989173
6,26,47846.9108254301,0.332999999998719
6,27,67431.2129069052,0.355000000010477
6,28,71622.00157473,0.37599999998929
6,29,73684.8375124505,0.379000000000815
6,30,34885.0105658479,0.360000000000582
7,1,38798.1674046167,0.369999999995343
7,2,55250.7060083819,0.372000000003027
7,3,33284.3006929825,0.365000000005239
7,4,44178.3584039533,0.368999999991502
7,5,63179.3526709603,0.370000000009895
7,6,40169.7939319169,0.370999999999185
7,7,39290.4104418097,0.369999999995343
7,8,46478.3961646398,0.36699999999837
7,9,49400.2402388026,0.370999999999185
7,10,51592.2718501239,0.365999999994528
7,11,37867.3088241801,0.36699999999837
7,12,51214.2396370223,0.372000000003027
7,13,56919.4497305365,0.380000000004657
7,14,59304.365283229,0.372000000003027
7,15,57632.7044465067,0.364000000001397
7,16,55869.4760284567,0.376999999993131
7,17,62435.1820674945,0.364000000001397
7,18,58550.146522067,0.379000000000815
7,19,50200.2498306179,0.365999999994528
7,20,39067.4493087099,0.368000000002212
7,21,52411.1700657895,0.377999999996973
7,22,65347.1405231773,0.372000000003027
7,23,32566.5225635615,0.35899999999674
7,24,58025.1494037963,0.372000000003027
7,25,50527.736732479,0.372999999992317
7,26,37301.2352665178,0.381000000008498
7,27,55715.414910484,0.307000000000698
7,28,43766.6989146753,0.304999999993015
7,29,56436.9868542226,0.330000000001746
7,30,30215.0424310668,0.287000000011176
8,1,46142.3256065525,0.341000000000349
8,2,63893.7774860278,0.297999999995227
8,3,38489.2152146869,0.323000000003958
8,4,55958.6544470066,0.24199999999837
8,5,76958.5043952039,0.331999999994878
8,6,47102.7078728196,0.304000000003725
8,7,53809.6104340588,0.296000000002095
8,8,57274.8952760275,0.330000000001746
8,9,59847.2399464617,0.342999999993481
8,10,64424.502379554,0.350999999995111
8,11,49390.6042309009,0.350000000005821
8,12,55882.9858500231,0.345000000001164
8,13,63508.8775294948,0.353000000002794
8,14,69233.774025558,0.351999999998952
8,15,66501.0025767305,0.292000000001281
8,16,62289.3676245207,0.284999999988941
8,17,67007.8472007504,0.357000000003609
8,18,69792.1032001074,0.36699999999837
8,19,63568.0867549422,0.30800000000454
8,20,49642.9973385137,0.304000000003725
8,21,61921.5448169051,0.313999999998487
8,22,77514.1309634811,0.307000000000698
8,23,39169.8216860063,0.356999999989057
8,24,67466.2626511046,0.288000000000466
8,25,65654.2786996372,0.347000000008848
8,26,40707.5170391214,0.309999999997672
8,27,62904.3212290367,0.345999999990454
8,28,59955.0469644881,0.335000000006403
8,29,63044.1363684386,0.353000000002794
8,30,34058.8306636848,0.307000000000698
9,1,90437.0337204984,0.357000000003609
9,2,110280.910811562,0.338000000003376
9,3,78013.251226859,0.353999999992084
9,4,87524.9695208782,0.360000000000582
9,5,131096.8815453,0.388000000006286
9,6,81642.5725122809,0.370999999999185
9,7,97260.8302232301,0.375
9,8,98120.7435300432,0.376999999993131
9,9,93481.3685045795,0.36600000000908
9,10,107118.225087464,0.309999999997672
9,11,84356.1379753977,0.365999999994528
9,12,93020.7257226763,0.362999999997555
9,13,104890.211108149,0.370000000009895
9,14,111155.760457804,0.368999999991502
9,15,115890.60541981,0.364000000001397
9,16,110620.108381431,0.368000000002212
9,17,114705.724426235,0.369000000006054
9,18,112076.612649923,0.319000000003143
9,19,110395.955109013,0.305000000007567
9,20,87638.9748565904,0.292000000001281
9,21,105082.886521711,0.289999999993597
9,22,125967.652290437,0.358000000007451
9,23,85235.2007117061,0.335999999995693
9,24,113336.692857572,0.334999999991851
9,25,107230.181492875,0.334000000002561
9,26,66257.0753293438,0.334000000002561
9,27,105281.980720437,0.334000000002561
9,28,100962.807072699,0.335999999995693
9,29,111513.424775429,0.338999999992666
9,30,78321.8863803653,0.33200000000943
10,1,43743.7778795608,0.296000000002095
10,2,68651.4013121086,0.346999999994296
10,3,41823.2816194807,0.342000000004191
10,4,57976.2020975222,0.379000000000815
10,5,72452.5303541129,0.379000000000815
10,6,41077.2539843008,0.357999999992899
10,7,52256.5046974799,0.377000000007683
10,8,59084.7967183134,0.371999999988475
10,9,61122.7398374668,0.36699999999837
10,10,66961.8372324649,0.371000000013737
10,11,49935.7360732581,0.361999999993714
10,12,57905.959273628,0.372000000003027
10,13,63488.8068692471,0.379000000000815
10,14,72009.1052142801,0.370999999999185
10,15,69575.2039722732,0.372999999992317
10,16,66406.4966613192,0.368000000002212
10,17,67509.0899877401,0.370999999999185
10,18,72497.4192446462,0.373000000006869
10,19,61536.8565578329,0.373999999996158
10,20,54136.791241023,0.369000000006054
10,21,64257.9805214049,0.368999999991502
10,22,80700.5557032982,0.373999999996158
10,23,36879.0436624741,0.360000000000582
10,24,69603.3006593503,0.380000000004657
10,25,63159.6289375566,0.373000000006869
10,26,43417.6628507391,0.360000000000582
10,27,64610.1438257919,0.379999999990105
10,28,58866.442505295,0.370999999999185
10,29,66439.3038825093,0.36699999999837
10,30,32234.8981579963,0.365000000005239
11,1,37863.5290040796,0.369000000006054
11,2,53195.9748192665,0.38300000000163
11,3,35834.9502231777,0.303999999989173
11,4,51555.8542891482,0.305000000007567
11,5,59254.2867454601,0.330999999991036
11,6,44574.8786765999,0.289000000004307
11,7,39420.9173673193,0.339000000007218
11,8,48621.7967040518,0.293999999994412
11,9,47673.6672582756,0.323000000003958
11,10,51919.7260956469,0.299999999988358
11,11,38892.2806398606,0.211000000010245
11,12,51732.1823943608,0.288000000000466
11,13,53366.025281494,0.248999999996158
11,14,62914.4000585032,0.293999999994412
11,15,64301.5948239476,0.298999999999069
11,16,55026.5122021058,0.288000000000466
11,17,60530.7572217728,0.30000000000291
11,18,64072.1183780843,0.297000000005937
11,19,49780.0599376896,0.290999999997439
11,20,40686.6176386251,0.294999999998254
11,21,50958.1413472607,0.275999999998021
11,22,69102.1618196457,0.248999999996158
11,23,24549.2122793122,0.264999999999418
11,24,54870.9541175689,0.226999999998952
11,25,51101.6646211561,0.288000000000466
11,26,36336.687479222,0.278000000005704
11,27,55868.7680899652,0.280999999988126
11,28,49704.78297177,0.245000000009895
11,29,60612.6376240193,0.286999999996624
11,30,30483.4823447309,0.292000000001281
12,1,60879.3160478413,0.293999999994412
12,2,83844.9068057171,0.24900000001071
12,3,53398.1228706414,0.311000000001513
12,4,67302.4044360011,0.296000000002095
12,5,95516.6221831321,0.350999999995111
12,6,60580.104620971,0.348000000012689
12,7,66482.5829591615,0.346999999994296
12,8,70451.4891953245,0.347999999998137
12,9,68671.7353269969,0.346999999994296
12,10,83867.1518965995,0.349000000001979
12,11,57932.0294469794,0.347999999998137
12,12,72133.5582216033,0.288000000000466
12,13,86421.6051582732,0.286000000007334
12,14,87915.8056161051,0.357999999992899
12,15,89138.9162243841,0.368000000002212
12,16,88403.945243731,0.30899999999383
12,17,89541.2741024065,0.305000000007567
12,18,89436.6934550273,0.312999999994645
12,19,78233.8855241747,0.350999999995111
12,20,65384.2817312479,0.293999999994412
12,21,80592.0033559523,0.338000000003376
12,22,99780.2052998331,0.294999999998254
12,23,53318.721458008,0.309999999997672
12,24,88364.535579498,0.364000000001397
12,25,79097.2574227704,0.311000000001513
12,26,52274.5663415361,0.312999999994645
12,27,82783.7689838262,0.328000000008615
12,28,76856.75532485,0.322999999989406
12,29,85991.2474159569,0.349000000001979
12,30,50541.654806262,0.369000000006054
13,1,40599.5209562614,0.369000000006054
13,2,58755.4333803812,0.36699999999837
13,3,32512.6172847157,0.36799999998766
13,4,62377.48011083,0.370000000009895
13,5,63887.9714607704,0.368000000002212
13,6,55930.2607022283,0.371999999988475
13,7,46297.9267710326,0.369000000006054
13,8,54141.0669207677,0.365000000005239
13,9,61836.3452594778,0.37599999998929
13,10,58026.3166583887,0.362000000008265
13,11,43029.0555798773,0.311999999990803
13,12,59319.7740278665,0.326000000000931
13,13,59124.4048945136,0.341000000000349
13,14,59866.176990244,0.357000000003609
13,15,65540.2850341292,0.379000000000815
13,16,62269.0540034852,0.369000000006054
13,17,57865.9662559415,0.364999999990687
13,18,61369.4770901916,0.370999999999185
13,19,51299.6102194453,0.370000000009895
13,20,42680.8285564807,0.35899999999674
13,21,58350.3755812935,0.376000000003842
13,22,73272.1884881167,0.36799999998766
13,23,26576.8760583835,0.361000000004424
13,24,58817.2461705197,0.372000000003027
13,25,51931.1482217533,0.36699999999837
13,26,45942.1232510189,0.370999999999185
13,27,55076.5620124894,0.372000000003027
13,28,55410.0283669901,0.362999999997555
13,29,61867.8451410534,0.376000000003842
13,30,27956.7367807416,0.360999999989872
14,1,23729.8043647544,0.362999999997555
14,2,41560.0019371684,0.36600000000908
14,3,19774.1417643405,0.369999999995343
14,4,41342.2302115207,0.365000000005239
14,5,45129.7265704674,0.376999999993131
14,6,32927.1589905158,0.36600000000908
14,7,27946.5257854374,0.360999999989872
14,8,35222.8978423487,0.370999999999185
14,9,39995.5438033427,0.377000000007683
14,10,40410.5766740375,0.357999999992899
14,11,27414.4745816928,0.369000000006054
14,12,39162.5428555312,0.418000000005122
14,13,42294.0047766197,0.292000000001281
14,14,46298.4420783696,0.294999999998254
14,15,45293.1970925645,0.293999999994412
14,16,41727.6828167182,0.296000000002095
14,17,44299.0111683676,0.331000000005588
14,18,45950.7804528007,0.281999999991967
14,19,35535.1645239194,0.331999999994878
14,20,31347.1408448949,0.370000000009895
14,21,40718.9833064305,0.36799999998766
14,22,52348.2881946844,0.371000000013737
14,23,16963.5349201039,0.35999999998603
14,24,42936.4330767853,0.37400000001071
14,25,37241.787598918,0.370999999999185
14,26,30546.4863574466,0.364000000001397
14,27,41965.5141417747,0.373999999996158
14,28,33886.7308699001,0.362999999997555
14,29,43981.8203447416,0.376999999993131
14,30,16993.9019249594,0.358000000007451
15,1,35275.2835419014,0.370999999999185
15,2,58458.5823474714,0.377999999996973
15,3,25542.4130744944,0.35899999999674
15,4,55915.7382978236,0.372000000003027
15,5,65965.4073723309,0.376000000003842
15,6,43822.9409061979,0.364999999990687
15,7,38828.5803139833,0.370999999999185
15,8,52271.9375814056,0.373999999996158
15,9,55811.690873849,0.36699999999837
15,10,53047.0509887597,0.370999999999185
15,11,38354.7630731204,0.361000000004424
15,12,54534.5090715673,0.372999999992317
15,13,47812.740836194,0.380000000004657
15,14,61337.8930886145,0.364000000001397
15,15,62627.7646725718,0.307000000000698
15,16,52908.0229370427,0.35899999999674
15,17,58589.0895450783,0.362000000008265
15,18,63401.0421200001,0.365999999994528
15,19,48049.8991877247,0.365000000005239
15,20,37668.3413840124,0.356999999989057
15,21,56703.7427623096,0.364000000001397
15,22,72257.8573119867,0.365000000005239
15,23,24798.9601615209,0.350000000005821
15,24,58478.3445426436,0.370999999999185
15,25,48411.2624663161,0.361999999993714
15,26,36663.0772440453,0.354999999995925
15,27,53549.2525124062,0.369999999995343
15,28,49374.8644299124,0.357000000003609
15,29,59776.8673537631,0.364000000001397
15,30,26531.3902260723,0.349999999991269
16,1,38631.6453541322,0.358000000007451
16,2,55721.8679434364,0.368999999991502
16,3,25801.784859443,0.355000000010477
16,4,61811.7421735334,0.365999999994528
16,5,62502.7816629981,0.360000000000582
16,6,50292.9377370335,0.360999999989872
16,7,43965.9826342483,0.352000000013504
16,8,54668.3433969202,0.370000000009895
16,9,61799.066663858,0.363999999986845
16,10,54764.4697906463,0.358000000007451
16,11,45169.7106600707,0.361999999993714
16,12,56962.5631857985,0.364000000001397
16,13,53165.3909524857,0.359000000011292
16,14,57386.2972628774,0.363999999986845
16,15,58002.530416524,0.412000000011176
16,16,54896.2594466328,0.290999999997439
16,17,53618.575388456,0.326000000000931
16,18,56759.5640666992,0.289999999993597
16,19,50138.4460428555,0.326000000000931
16,20,38493.4535156802,0.290000000008149
16,21,55351.7021047279,0.285999999992782
16,22,66562.3324948154,0.335000000006403
16,23,29405.2642941778,0.323999999993248
16,24,55418.5886074904,0.335999999995693
16,25,52608.2202461194,0.332999999998719
16,26,42646.9325851491,0.328000000008615
16,27,51852.6583448725,0.328999999997905
16,28,50145.3939295417,0.32499999999709
16,29,56713.7916514928,0.338000000003376
16,30,25497.7246853162,0.320999999996275
17,1,38836.9452903445,0.331000000005588
17,2,53043.0103969597,0.331999999994878
17,3,37785.2013265903,0.32499999999709
17,4,50059.3176849035,0.330000000001746
17,5,59460.464564247,0.338000000003376
17,6,45582.7955852131,0.317999999999302
17,7,40035.1616282061,0.329999999987194
17,8,48067.1989535041,0.328000000008615
17,9,49455.5393059592,0.332999999998719
17,10,52417.7943563809,0.331000000005588
17,11,38692.9893228378,0.326000000000931
17,12,50651.5451715631,0.331000000005588
17,13,54380.9086163852,0.331999999994878
17,14,60113.798397999,0.328999999997905
17,15,60945.0971874603,0.331000000005588
17,16,57232.2786804409,0.334000000002561
17,17,57723.2634331799,0.327999999994063
17,18,61241.9126754592,0.302000000010594
17,19,50482.1424038275,0.332999999998719
17,20,39398.7021341635,0.346999999994296
17,21,49739.3725454325,0.380999999993946
17,22,66784.4082642004,0.370999999999185
17,23,25715.6565207752,0.354999999995925
17,24,54226.658460884,0.370999999999185
17,25,51721.2096229451,0.376000000003842
17,26,35169.2099944126,0.357000000003609
17,27,53877.4842678235,0.376000000003842
17,28,50012.7837663796,0.360000000000582
17,29,57569.7357432001,0.376999999993131
17,30,30526.4579496865,0.362999999997555
18,1,30228.7584241797,0.365000000005239
18,2,45480.9074210165,0.368999999991502
18,3,26105.2419110563,0.362999999997555
18,4,46718.8395225117,0.36699999999837
18,5,54834.6263889861,0.376000000003842
18,6,43659.2994898425,0.364000000001397
18,7,32911.1735588473,0.36699999999837
18,8,40418.917108124,0.36699999999837
18,9,48318.7161835968,0.377000000007683
18,10,42289.0906087453,0.35899999999674
18,11,28820.4540213887,0.368000000002212
18,12,44084.9574505425,0.371999999988475
18,13,43351.4627062423,0.375
18,14,52238.3721222945,0.371000000013737
18,15,57943.9914332937,0.370999999999185
18,16,47955.7170067098,0.36699999999837
18,17,49360.9693029568,0.370000000009895
18,18,53986.9564428364,0.421000000002095
18,19,40438.020447331,0.288000000000466
18,20,27315.8254641074,0.337999999988824
18,21,45802.6557815528,0.286000000007334
18,22,59418.479190113,0.309999999997672
18,23,20786.9085426998,0.284999999988941
18,24,45744.2139302914,0.295000000012806
18,25,38739.7408379522,0.345999999990454
18,26,33194.991380285,0.345000000001164
18,27,44577.1818028349,0.376999999993131
18,28,42447.5369337825,0.368000000002212
18,29,54181.4687325746,0.373000000006869
18,30,26378.4233312634,0.35999999998603
19,1,63177.7218104192,0.378000000011525
19,2,91633.3848175422,0.375
19,3,70461.2623807967,0.370999999999185
19,4,76923.0808992796,0.372999999992317
19,5,96624.7064543,0.37400000001071
19,6,51118.0932612383,0.36699999999837
19,7,75460.7108383278,0.375
19,8,76826.3380357454,0.372999999992317
19,9,77481.8236184572,0.369000000006054
19,10,90321.6596745999,0.375
19,11,68824.1962017592,0.369999999995343
19,12,68739.2849139826,0.373000000006869
19,13,74316.9943391252,0.373999999996158
19,14,100524.401310621,0.372999999992317
19,15,91496.0057516847,0.37400000001071
19,16,77287.7758119968,0.37599999998929
19,17,92781.9408057964,0.372000000003027
19,18,101232.223864932,0.377000000007683
19,19,87589.0709168028,0.37599999998929
19,20,77914.0911937827,0.363000000012107
19,21,87760.1306888474,0.30800000000454
19,22,101830.704536394,0.364000000001397
19,23,60384.2256135137,0.35899999999674
19,24,93762.8786006385,0.364999999990687
19,25,89286.3094185804,0.36600000000908
19,26,68932.4269768645,0.360000000000582
19,27,87562.1821561453,0.36699999999837
19,28,82997.3392798492,0.365000000005239
19,29,88775.5429774699,0.360999999989872
19,30,57032.2945862358,0.362000000008265
20,1,30277.327064825,0.348000000012689
20,2,42832.7348444378,0.357999999992899
20,3,27547.9104654438,0.357000000003609
20,4,47719.7522233288,0.357000000003609
20,5,48304.8898098436,0.361000000004424
20,6,43426.5000670514,0.354999999995925
20,7,34253.4655218522,0.355999999999767
20,8,38425.060361832,0.358000000007451
20,9,44666.0632506981,0.360999999989872
20,10,43857.4163486895,0.354000000006636
20,11,30604.7716552584,0.353000000002794
20,12,43273.3805263256,0.35899999999674
20,13,49467.0306914639,0.364999999990687
20,14,49646.3583924425,0.354999999995925
20,15,53479.7349452039,0.367000000012922
20,16,49801.3227097377,0.357000000003609
20,17,48473.8874015992,0.360000000000582
20,18,49981.6186197126,0.355999999999767
20,19,38984.6685418287,0.354999999995925
20,20,32672.6827470046,0.360000000000582
20,21,43018.8816365291,0.360000000000582
20,22,56329.4002282074,0.380999999993946
20,23,20281.3120502242,0.30000000000291
20,24,44185.2338641064,0.304000000003725
20,25,40658.2126833917,0.326999999990221
20,26,41216.7994732613,0.287000000011176
20,27,46486.6148530522,0.337999999988824
20,28,40773.4604428856,0.290999999997439
20,29,50864.1739357446,0.330000000001746
20,30,22847.444011666,0.228000000002794
21,1,26684.513335852,0.286000000007334
21,2,44499.1709398574,0.275999999998021
21,3,20858.1020126524,0.244999999995343
21,4,49594.6224457678,0.279999999998836
21,5,48180.1136336202,0.294000000008964
21,6,42687.6867178692,0.230999999999767
21,7,29180.3181418721,0.29299999999057
21,8,39062.0984863133,0.289000000004307
21,9,48438.5297237552,0.289000000004307
21,10,41031.722186559,0.285999999992782
21,11,31270.810099752,0.286000000007334
21,12,44631.8764743848,0.267999999996391
21,13,40829.2882549504,0.228999999992084
21,14,46964.8510733503,0.282000000006519
21,15,48190.2516075502,0.290999999997439
21,16,40983.4087331252,0.33200000000943
21,17,44295.5323709999,0.288999999989755
21,18,51574.7107748616,0.292000000001281
21,19,39588.2302188101,0.294999999998254
21,20,31821.2100249588,0.283000000010361
21,21,44247.8779392936,0.305000000007567
21,22,56900.9919596304,0.336999999999534
21,23,16230.5795083449,0.331999999994878
21,24,46360.8650797005,0.332999999998719
21,25,37859.5719881464,0.331999999994878
21,26,35284.8006966884,0.327999999994063
21,27,40586.5089719983,0.333000000013271
21,28,38950.3659380198,0.329999999987194
21,29,44792.2922345802,0.275000000008731
21,30,21375.4835791257,0.278999999994994
22,1,48431.1626402022,0.319000000003143
22,2,64483.8169855871,0.387000000002445
22,3,48514.9654817154,0.29299999999057
22,4,63244.874977537,0.334000000002561
22,5,73834.3754995665,0.309999999997672
22,6,56200.3444131089,0.333000000013271
22,7,51274.2123227508,0.315999999991618
22,8,54769.0877884577,0.342000000004191
22,9,47432.4484821678,0.357999999992899
22,10,67575.5143036828,0.323000000003958
22,11,49159.2615002481,0.336999999999534
22,12,61782.6786765107,0.375
22,13,74025.9248129367,0.375
22,14,74110.6504005681,0.369999999995343
22,15,75933.3590518672,0.370000000009895
22,16,65470.1358136716,0.372999999992317
22,17,76243.8163849067,0.375
22,18,73902.1217441733,0.370000000009895
22,19,58448.8960530191,0.370000000009895
22,20,59447.0311000297,0.372999999992317
22,21,61145.9185992746,0.368000000002212
22,22,82583.9914192755,0.373999999996158
22,23,38517.8451177083,0.364000000001397
22,24,70935.0964700072,0.326000000000931
22,25,67458.1718280797,0.293999999994412
22,26,47214.9765824409,0.294000000008964
22,27,71954.8932987561,0.286999999996624
22,28,58326.0772958933,0.273000000001048
22,29,71608.3412888713,0.297000000005937
22,30,44834.4838985861,0.332999999998719
23,1,59561.6896176381,0.305999999996857
23,2,78131.735224455,0.340000000011059
23,3,48050.489635177,0.347999999998137
23,4,72198.2886711234,0.379000000000815
23,5,95192.8780262891,0.37400000001071
23,6,66044.3887655003,0.368000000002212
23,7,66185.8041260668,0.372999999992317
23,8,70165.5395079205,0.373000000006869
23,9,74627.5280745051,0.368999999991502
23,10,77548.0326270503,0.372999999992317
23,11,56016.1460372603,0.369000000006054
23,12,68134.3122973094,0.372000000003027
23,13,72350.3093873666,0.37599999998929
23,14,79844.6978040915,0.372000000003027
23,15,82363.8501881273,0.375
23,16,77499.012532072,0.369000000006054
23,17,75823.6957434862,0.370999999999185
23,18,80317.9662473501,0.375
23,19,76895.5674944206,0.375
23,20,54154.5440191238,0.368999999991502
23,21,73652.842320458,0.370999999999185
23,22,95818.249869263,0.376000000003842
23,23,52519.1341022307,0.36699999999837
23,24,78249.3807151453,0.373999999996158
23,25,75652.8931826359,0.37400000001071
23,26,48080.9010717857,0.368000000002212
23,27,71970.0956646403,0.372999999992317
23,28,78063.7281880818,0.373999999996158
23,29,78374.5928436834,0.368000000002212
23,30,45348.5022869678,0.369999999995343
24,1,54781.0136022299,0.418000000005122
24,2,72405.8290157549,0.277000000001863
24,3,42997.1874637941,0.309999999997672
24,4,63193.5315569283,0.277999999991152
24,5,87956.8078661311,0.317000000010012
24,6,58286.3238506425,0.269999999989523
24,7,61774.5777625116,0.286000000007334
24,8,63017.538330982,0.328999999997905
24,9,67703.0805098878,0.334000000002561
24,10,71625.9667693192,0.328999999997905
24,11,51029.8968537138,0.331000000005588
24,12,62292.3121375873,0.331000000005588
24,13,67157.2607127624,0.331999999994878
24,14,71670.52114314,0.334999999991851
24,15,73864.9558868387,0.334000000002561
24,16,70856.8564903866,0.330000000001746
24,17,68646.9001013594,0.332999999998719
24,18,70892.2727442856,0.38300000000163
24,19,69224.8787708097,0.279999999998836
24,20,47412.5741317376,0.285000000003492
24,21,66923.7982261666,0.32499999999709
24,22,85965.0973124094,0.286999999996624
24,23,50620.0636684146,0.285000000003492
24,24,70739.1433638147,0.3009999999922
24,25,67495.6273827364,0.334000000002561
24,26,43037.4302119113,0.331000000005588
24,27,64641.4153510566,0.328999999997905
24,28,68245.6596387515,0.331999999994878
24,29,71729.6982162693,0.334000000002561
24,30,39867.0918937333,0.322000000000116
25,1,56419.3209992787,0.326000000000931
25,2,77525.0009790085,0.334999999991851
25,3,50249.3805623917,0.3240000000078
25,4,70604.7364784851,0.32499999999709
25,5,88737.5538100127,0.332999999998719
25,6,59015.9780679239,0.32499999999709
25,7,66232.9091100757,0.33200000000943
25,8,70252.2004446463,0.329999999987194
25,9,71221.0350172966,0.334000000002561
25,10,79808.825039609,0.332999999998719
25,11,59422.1847876544,0.327000000004773
25,12,69295.3209384689,0.331999999994878
25,13,79980.5575009322,0.334000000002561
25,14,81418.539423341,0.330000000001746
25,15,81920.1760612431,0.334000000002561
25,16,81886.5447468789,0.335999999995693
25,17,80148.9451369398,0.279000000009546
25,18,83557.0927197468,0.264999999999418
25,19,75300.2963327482,0.288999999989755
25,20,62867.6410973453,0.351999999998952
25,21,75040.6225886785,0.342000000004191
25,22,93549.7933494817,0.332999999998719
25,23,46810.602149062,0.273000000001048
25,24,80781.7612670808,0.305999999996857
25,25,77504.1377818036,0.315000000002328
25,26,48460.866372233,0.305999999996857
25,27,75079.0104547478,0.312999999994645
25,28,75426.4300720721,0.286999999996624
25,29,77718.9411373362,0.330000000001746
25,30,42227.3359953268,0.328999999997905
26,1,90297.8134213844,0.335000000006403
26,2,117181.466932434,0.334000000002561
26,3,82433.6429479495,0.334999999991851
26,4,108924.980236775,0.335000000006403
26,5,131753.578905589,0.279999999998836
26,6,83886.4791827276,0.285000000003492
26,7,101459.195975469,0.325999999986379
26,8,105513.887270894,0.332999999998719
26,9,109371.171274125,0.384000000005472
26,10,112478.545047905,0.345000000001164
26,11,90062.1225632443,0.331999999994878
26,12,94355.7597482069,0.336000000010245
26,13,89951.5289237292,0.283999999999651
26,14,121982.164509853,0.331999999994878
26,15,116961.859595597,0.380000000004657
26,16,101703.439635471,0.350999999995111
26,17,111129.959747852,0.36699999999837
26,18,121942.379555294,0.297000000005937
26,19,116445.821517546,0.297999999995227
26,20,89272.9640117758,0.370999999999185
26,21,118255.719980856,0.320000000006985
26,22,128970.109144971,0.297999999995227
26,23,78220.8914007458,0.332999999998719
26,24,117730.304566032,0.30899999999383
26,25,111032.466826276,0.292000000001281
26,26,84795.2635784723,0.309000000008382
26,27,107355.688184397,0.286999999996624
26,28,109909.112793023,0.315999999991618
26,29,113734.57458007,0.279000000009546
26,30,71664.3936879944,0.336999999999534
27,1,65503.6831838872,0.345999999990454
27,2,84094.2969354566,0.376000000003842
27,3,54899.1028969715,0.369999999995343
27,4,69812.3636311601,0.418000000005122
27,5,103023.621664234,0.282000000006519
27,6,65854.3015689657,0.303999999989173
27,7,68157.1686404742,0.281000000002678
27,8,76953.2440654946,0.311000000001513
27,9,73597.4595940241,0.283999999999651
27,10,84617.9051940039,0.277000000001863
27,11,60158.1856393523,0.328999999997905
27,12,77042.8769042521,0.334000000002561
27,13,88900.071338051,0.334000000002561
27,14,86438.0100255495,0.334999999991851
27,15,93580.0885419128,0.335999999995693
27,16,93825.8975240653,0.334000000002561
27,17,95725.8347156374,0.335999999995693
27,18,87977.2671020312,0.334000000002561
27,19,82843.2388197509,0.330000000001746
27,20,63129.7595374658,0.332999999998719
27,21,84145.1982801775,0.38300000000163
27,22,100881.591955756,0.281000000002678
27,23,50126.2464995742,0.282999999995809
27,24,91173.8125427835,0.326000000000931
27,25,80046.961669436,0.284999999988941
27,26,52157.5313401962,0.282999999995809
27,27,84645.1880243251,0.302000000010594
27,28,76609.5247631463,0.332999999998719
27,29,89462.9251353897,0.334000000002561
27,30,51323.2338025642,0.326999999990221
28,1,32161.279201298,0.326000000000931
28,2,42941.4293752529,0.332999999998719
28,3,32696.2023339475,0.328000000008615
28,4,40186.2771250802,0.323999999993248
28,5,48146.1248471896,0.332999999998719
28,6,37975.9818383081,0.326000000000931
28,7,30670.985196338,0.330000000001746
28,8,39441.8779263032,0.331999999994878
28,9,36641.7274320776,0.3240000000078
28,10,40813.991159914,0.330000000001746
28,11,31940.1218495592,0.330000000001746
28,12,40433.1441144011,0.32499999999709
28,13,43058.1309495067,0.332999999998719
28,14,51538.3730609128,0.377999999996973
28,15,56918.8988302811,0.285000000003492
28,16,42180.2107223514,0.282999999995809
28,17,51798.1615918163,0.304000000003725
28,18,55344.3314791749,0.285999999992782
28,19,43169.9329576377,0.275999999998021
28,20,34424.3516377825,0.360000000000582
28,21,42466.3222695405,0.362000000008265
28,22,55239.372918395,0.35899999999674
28,23,20848.5418478396,0.353999999992084
28,24,47434.7212281964,0.365000000005239
28,25,41990.9253788379,0.357000000003609
28,26,28147.41066141,0.357000000003609
28,27,46842.6732652478,0.361999999993714
28,28,37119.8671310832,0.349000000001979
28,29,48218.3605184917,0.369999999995343
28,30,31611.9648055056,0.35899999999674
29,1,65366.5024026328,0.357000000003609
29,2,85168.2385331729,0.365999999994528
29,3,63774.6945327964,0.35899999999674
29,4,65651.146438712,0.361000000004424
29,5,98335.8341997361,0.365000000005239
29,6,60125.8180783748,0.361999999993714
29,7,70637.4907042914,0.364000000001397
29,8,71154.1417260029,0.364000000001397
29,9,60005.7871698781,0.357999999992899
29,10,83519.8438697689,0.362999999997555
29,11,61021.7393182111,0.363000000012107
29,12,72883.6278603727,0.305999999996857
29,13,89116.9374507574,0.30800000000454
29,14,93091.018666563,0.290999999997439
29,15,97475.080148337,0.320999999996275
29,16,91457.3354115621,0.279999999998836
29,17,99135.7901872903,0.278999999994994
29,18,93944.3840038647,0.370000000009895
29,19,79557.763980695,0.369999999995343
29,20,69018.5731151509,0.365999999994528
29,21,79912.7367366554,0.372000000003027
29,22,100385.601605449,0.372000000003027
29,23,56624.1339336161,0.365000000005239
29,24,90090.0331381205,0.370999999999185
29,25,82480.305609277,0.369999999995343
29,26,50921.1284647497,0.360000000000582
29,27,89539.8738333902,0.369999999995343
29,28,72776.1607975203,0.415999999997439
29,29,94264.3706084607,0.281000000002678
29,30,58506.3608823213,0.277000000001863
30,1,52524.585839274,0.31699999999546
30,2,76098.448810103,0.286999999996624
30,3,44473.7158025726,0.302000000010594
30,4,66087.8899979838,0.283000000010361
30,5,88923.6467551545,0.330999999991036
30,6,56648.3742977387,0.332999999998719
30,7,59537.1795263012,0.328999999997905
30,8,66759.3952881731,0.332999999998719
30,9,68645.8415266727,0.335000000006403
30,10,75525.4743690194,0.331000000005588
30,11,52608.6981015285,0.330999999991036
30,12,66777.3888461638,0.331999999994878
30,13,74288.804806261,0.330000000001746
30,14,81192.7545133986,0.336999999999534
30,15,81632.3083138967,0.38399999999092
30,16,78005.6870380696,0.279999999998836
30,17,81613.4494889375,0.281000000002678
30,18,82486.2735263909,0.320000000006985
30,19,72509.611540657,0.288000000000466
30,20,55491.7254177948,0.290999999997439
30,21,74095.0821462185,0.294999999998254
30,22,93671.0441329719,0.335999999995693
30,23,43376.5001800764,0.331000000005588
30,24,81247.4964846422,0.331999999994878
30,25,71912.7750480547,0.335000000006403
30,26,46197.5560148592,0.331999999994878
30,27,74534.7704473946,0.331000000005588
30,28,69257.9444550485,0.334000000002561
30,29,76580.7899028333,0.333999999988009
30,30,40505.2456406466,0.320000000006985
