App - Minetest
Scenario - play_game
Length - 5sec
Measure - DTWDistance
Before Version - 0.4.12
After Version - 0.4.13


"Before.Trace.ID1","Before.Trace.ID2","Difference","Runtime"
1,2,41401.3024120866,0.413000000000466
1,3,51202.1366393712,0.371999999999389
1,4,129858.282395444,0.370999999999185
1,5,119708.05799325,0.377000000000407
1,6,111861.800162752,0.342000000000553
1,7,2899027.67939148,0.396999999999025
1,8,99385.7481965015,0.372000000001208
1,9,112193.729588603,0.343999999999141
1,10,79219.8877457107,0.340000000000146
1,11,12401.3225721054,0.358000000000175
1,12,9204.07436043212,0.335999999999331
1,13,25279.8416875019,0.367000000000189
1,14,25992.1500380904,0.372999999999593
1,15,20076.0458066962,0.367000000000189
1,16,26885.6550251002,0.332000000000335
1,17,24021.0451432671,0.33600000000115
1,18,11840.8093023183,0.334000000000742
1,19,17499.1820740455,0.333000000000538
1,20,33351.3665184847,0.368999999998778
1,21,27429.6835074984,0.335000000000946
1,22,17931.4796327995,0.370999999999185
1,23,18171.3824261527,0.337999999999738
1,24,6389.7557846231,0.361000000000786
1,25,7446.24554336275,0.364999999999782
1,26,10742.4997489442,0.364999999999782
1,27,13662.6780745668,0.372999999999593
1,28,13689.5668083925,0.3700000000008
1,29,13988.6834716368,0.364999999999782
1,30,23145.4074723423,0.342000000000553
2,3,19607.861236014,0.362999999999374
2,4,69324.7090645553,0.32799999999952
2,5,63837.977571493,0.309999999999491
2,6,46635.1195346923,0.334000000000742
2,7,3054586.51107019,0.362999999999374
2,8,49505.0614195072,0.340000000000146
2,9,59542.9782907805,0.369000000000597
2,10,38650.0173716704,0.370999999999185
2,11,37676.7845179372,0.369000000000597
2,12,41241.0605320257,0.342000000000553
2,13,26625.9402111404,0.36699999999837
2,14,25116.3119379808,0.367000000000189
2,15,29078.9857486524,0.33600000000115
2,16,24440.3902066584,0.331000000000131
2,17,41478.3926475805,0.341999999998734
2,18,28413.7008595236,0.335000000000946
2,19,34552.2696587632,0.337999999999738
2,20,67200.5240547594,0.377000000000407
2,21,66047.2144198004,0.370999999999185
2,22,69113.1477818343,0.341000000000349
2,23,33515.3622083065,0.336999999999534
2,24,37664.1060226416,0.33600000000115
2,25,39564.5321734337,0.34099999999853
2,26,37727.1690327855,0.334000000000742
2,27,34350.2327060334,0.336999999999534
2,28,32262.1813380325,0.337999999999738
2,29,38883.4735229064,0.373000000001412
2,30,58335.1694651232,0.339999999998327
3,4,53153.7805278534,0.395000000000437
3,5,52078.9185512737,0.335000000000946
3,6,34136.8544705533,0.336999999999534
3,7,3140124.34049773,0.361999999999171
3,8,36105.6330757758,0.336999999999534
3,9,46992.2976552975,0.338000000001557
3,10,31676.6310165738,0.336999999999534
3,11,56910.5307501928,0.372999999999593
3,12,46912.6873200486,0.371999999999389
3,13,29952.5243252346,0.367000000000189
3,14,28450.1102583042,0.3700000000008
3,15,32107.5344748107,0.370999999999185
3,16,25861.0685450763,0.365999999999985
3,17,49816.6031369983,0.371000000001004
3,18,28409.1584190892,0.369999999998981
3,19,53026.927054354,0.371000000001004
3,20,101147.208571757,0.376000000000204
3,21,98908.6688043563,0.373999999999796
3,22,93602.7479082334,0.370999999999185
3,23,48795.3758045112,0.372999999999593
3,24,48105.3464824919,0.372000000001208
3,25,42623.9570045404,0.370999999999185
3,26,37120.2569458092,0.373999999999796
3,27,48242.0879559644,0.372999999999593
3,28,50970.8445945414,0.373000000001412
3,29,57631.2763632214,0.374000000001615
3,30,90388.8424937113,0.373999999999796
4,5,15632.8137367303,0.362999999999374
4,6,15267.4826041022,0.369000000000597
4,7,3278054.21320466,0.397999999999229
4,8,20597.958386115,0.365999999999985
4,9,5045.71863409173,0.364999999999782
4,10,29712.5867900912,0.364999999999782
4,11,133284.089215307,0.377000000000407
4,12,127040.433914057,0.375
4,13,96372.7037210946,0.370999999999185
4,14,100099.468344288,0.373000000001412
4,15,101773.401346042,0.371999999999389
4,16,50671.6943208457,0.368000000000393
4,17,121803.166949068,0.373999999999796
4,18,95676.4220052565,0.371999999999389
4,19,126054.108039346,0.372000000001208
4,20,184613.902833301,0.375
4,21,182115.784279681,0.376000000000204
4,22,183366.481921242,0.373999999999796
4,23,124441.67464032,0.373000000001412
4,24,120263.459829091,0.373999999999796
4,25,123415.243133676,0.372999999999593
4,26,113812.874003517,0.373999999999796
4,27,123450.264664078,0.371999999999389
4,28,124552.954109269,0.373000000001412
4,29,134087.32220162,0.373999999999796
4,30,171615.759954253,0.373999999999796
5,6,29794.5233681581,0.368999999998778
5,7,3379992.10495753,0.397000000000844
5,8,12478.7278130973,0.362999999999374
5,9,16981.7631320149,0.369000000000597
5,10,37614.8825341716,0.373999999999796
5,11,127787.565060718,0.371999999999389
5,12,110648.611714191,0.377000000000407
5,13,88438.6623066489,0.373999999999796
5,14,85820.2004782627,0.372999999999593
5,15,95776.93448657,0.375
5,16,54895.7229017893,0.371000000001004
5,17,120472.435474047,0.373999999999796
5,18,92526.5140242776,0.375
5,19,127279.06528639,0.375
5,20,187447.945812985,0.377000000000407
5,21,180408.591585139,0.378999999998996
5,22,170405.359135424,0.379000000000815
5,23,116490.622549805,0.371999999999389
5,24,116067.14640586,0.370999999999185
5,25,111803.868265726,0.342000000000553
5,26,100104.833718484,0.338999999999942
5,27,115073.414931864,0.342000000000553
5,28,123360.185132984,0.34900000000016
5,29,132419.572136763,0.340000000000146
5,30,173507.567524881,0.346999999999753
6,7,3471724.0259196,0.394000000000233
6,8,25419.8472835011,0.36699999999837
6,9,13840.4589803485,0.331000000000131
6,10,12893.8307018789,0.33600000000115
6,11,109352.201746937,0.341999999998734
6,12,103966.135541338,0.372000000001208
6,13,80973.3873083742,0.336999999999534
6,14,79637.2238347398,0.341000000000349
6,15,86102.6909503571,0.338999999999942
6,16,41638.0294614949,0.338999999999942
6,17,116997.976983532,0.370999999999185
6,18,82487.2022098522,0.340000000000146
6,19,111817.344300684,0.308000000000902
6,20,169308.750215522,0.341000000000349
6,21,165739.521405051,0.342999999998938
6,22,161499.154588316,0.345999999999549
6,23,103524.487430081,0.343000000000757
6,24,103843.502203546,0.344999999999345
6,25,109455.678358767,0.376000000000204
6,26,94997.5327126373,0.346999999999753
6,27,101517.640305129,0.373999999999796
6,28,106467.309497944,0.338000000001557
6,29,117038.073394349,0.369999999998981
6,30,154887.796915434,0.343000000000757
7,8,3382185.17654787,0.359000000000378
7,9,3265744.11987066,0.393999999998414
7,10,3441454.98001075,0.367000000000189
7,11,2994449.660051,0.393000000000029
7,12,3140384.00192313,0.397000000000844
7,13,3001020.86291223,0.397999999999229
7,14,3154358.07239624,0.397000000000844
7,15,2898817.84209752,0.395999999998821
7,16,2901650.00267208,0.399000000001251
7,17,2604565.6427505,0.396999999999025
7,18,2805981.5150729,0.395000000000437
7,19,2710939.41161274,0.396999999999025
7,20,2491060.26332791,0.39600000000064
7,21,2670860.57346514,0.398000000001048
7,22,2888879.56904611,0.396999999999025
7,23,3092917.27308342,0.395000000000437
7,24,2856298.44130228,0.396999999999025
7,25,2760608.9380985,0.39600000000064
7,26,3086150.07171917,0.39600000000064
7,27,3073359.72155124,0.395999999998821
7,28,2907903.4033069,0.397000000000844
7,29,2839703.29139671,0.395000000000437
7,30,2621317.42429633,0.395000000000437
8,9,18472.208378176,0.368000000000393
8,10,30320.6560278134,0.370999999999185
8,11,111036.686749576,0.376000000000204
8,12,90123.1034667749,0.376000000000204
8,13,74559.8939876209,0.372999999999593
8,14,68112.4199116408,0.371000000001004
8,15,82298.7487337212,0.341999999998734
8,16,47961.1554705965,0.342000000000553
8,17,105865.277434611,0.345999999999549
8,18,77421.4649278001,0.343000000000757
8,19,115559.717890772,0.341000000000349
8,20,192919.651864109,0.344999999999345
8,21,166752.109195247,0.343999999999141
8,22,151274.333932653,0.346000000001368
8,23,100886.33665303,0.347999999999956
8,24,100612.423518267,0.373999999999796
8,25,91304.2435172982,0.377000000000407
8,26,78744.1115469955,0.371999999999389
8,27,99910.3250153821,0.379000000000815
8,28,109105.842360147,0.40599999999904
8,29,117642.662309678,0.344999999999345
8,30,158147.485839868,0.342000000000553
9,10,23085.6691977088,0.296000000000276
9,11,115014.005950112,0.335999999999331
9,12,109079.983214815,0.338999999999942
9,13,81049.1082200539,0.336999999999534
9,14,83965.1671411681,0.341000000000349
9,15,85371.2096885066,0.368000000000393
9,16,42302.9178422742,0.333000000000538
9,17,105134.068824943,0.341999999998734
9,18,80457.404508476,0.368000000000393
9,19,108398.180358157,0.34400000000096
9,20,164486.040879943,0.373999999999796
9,21,162081.666697892,0.369999999998981
9,22,163239.480449103,0.340000000000146
9,23,106752.756795566,0.335000000000946
9,24,103111.648491843,0.341000000000349
9,25,106122.280371637,0.369999999998981
9,26,96906.311479345,0.371999999999389
9,27,105727.42534605,0.371000000001004
9,28,106639.852902368,0.372999999999593
9,29,116092.657967605,0.375
9,30,152022.42678093,0.372999999999593
10,11,76048.6717296002,0.373000000001412
10,12,71668.6335228894,0.373999999999796
10,13,57586.4838858071,0.369999999998981
10,14,52776.7492392103,0.372000000001208
10,15,61560.3085526046,0.370999999999185
10,16,26905.9212137473,0.369000000000597
10,17,95873.0966153647,0.372999999999593
10,18,59562.5462429973,0.369000000000597
10,19,81707.364361386,0.370999999999185
10,20,131419.39693087,0.375
10,21,128167.410091295,0.373999999999796
10,22,119436.319749272,0.376000000000204
10,23,70995.4100706432,0.372999999999593
10,24,74879.1224134052,0.3700000000008
10,25,78999.7125335861,0.34099999999853
10,26,65935.4717154516,0.371000000001004
10,27,68966.0380998869,0.368000000000393
10,28,74625.7615428983,0.369999999998981
10,29,84978.5988857879,0.369000000000597
10,30,117957.950980714,0.3700000000008
11,12,17364.3205458228,0.36699999999837
11,13,25643.3283035968,0.365999999999985
11,14,26914.2082002458,0.365999999999985
11,15,21439.8640394185,0.371000000001004
11,16,26620.8475864127,0.365999999999985
11,17,36303.1879197065,0.369999999998981
11,18,17621.9088674645,0.368000000000393
11,19,19441.585984427,0.368000000000393
11,20,34550.7956202125,0.375
11,21,31488.2197213655,0.371999999999389
11,22,26642.3845633235,0.3700000000008
11,23,13778.480332276,0.367000000000189
11,24,14794.7635260133,0.368999999998778
11,25,19248.6255169104,0.365999999999985
11,26,17899.5062539017,0.368000000000393
11,27,14057.8967186097,0.368000000000393
11,28,9332.21866373631,0.361999999999171
11,29,17511.3494953262,0.373000000001412
11,30,24473.628747286,0.371999999999389
12,13,31658.9973014853,0.368000000000393
12,14,20813.751892319,0.371999999999389
12,15,26048.8987011001,0.371000000001004
12,16,35472.4033127529,0.369999999998981
12,17,39481.7121665871,0.371999999999389
12,18,19070.6276591004,0.399000000001251
12,19,29036.7294629202,0.335999999999331
12,20,56885.6318167894,0.343000000000757
12,21,54673.9828078164,0.346999999999753
12,22,35231.0665015606,0.336999999999534
12,23,20210.2351468002,0.337999999999738
12,24,17459.269703211,0.334999999999127
12,25,12722.6011747058,0.365999999999985
12,26,13293.28549987,0.367000000000189
12,27,18480.9837575799,0.367000000000189
12,28,20659.4652878613,0.369000000000597
12,29,22567.7700942659,0.368000000000393
12,30,44928.1884996239,0.368000000000393
13,14,12288.7720188607,0.365999999999985
13,15,8762.23535307503,0.364999999999782
13,16,12087.7682630538,0.360999999998967
13,17,24624.5152154763,0.369000000000597
13,18,10363.7319894199,0.362999999999374
13,19,23811.1398084752,0.3700000000008
13,20,67848.8409407768,0.370999999999185
13,21,67682.0674302619,0.371999999999389
13,22,72442.1190437817,0.372000000001208
13,23,20715.518550371,0.368999999998778
13,24,22099.3250760968,0.365999999999985
13,25,22947.3416655061,0.368000000000393
13,26,14011.4086545639,0.367000000000189
13,27,26349.2603137036,0.369000000000597
13,28,21592.2157475854,0.368000000000393
13,29,29858.1580363979,0.370999999999185
13,30,57441.2667825595,0.370999999999185
14,15,12619.054012509,0.369000000000597
14,16,21945.9166193751,0.368000000000393
14,17,38387.8694546938,0.364999999999782
14,18,20467.9563295272,0.334000000000742
14,19,28033.5069533783,0.367000000000189
14,20,61550.5867085026,0.367999999998574
14,21,61567.0004962767,0.371000000001004
14,22,53820.6263013603,0.369999999998981
14,23,14865.9229878124,0.361000000000786
14,24,26381.6664359272,0.369999999998981
14,25,24146.9167386614,0.372000000001208
14,26,14145.3614183649,0.367000000000189
14,27,20476.8560324852,0.371999999999389
14,28,20307.5922486654,0.369000000000597
14,29,27772.518239247,0.372999999999593
14,30,53138.4614856561,0.372999999999593
15,16,13422.9361673442,0.365999999999985
15,17,19703.2170721971,0.364999999999782
15,18,8429.40382053492,0.364999999999782
15,19,17354.4106408435,0.371000000001004
15,20,48823.0868463948,0.371999999999389
15,21,49596.2896963188,0.372999999999593
15,22,51257.1402692142,0.372000000001208
15,23,14558.4597841465,0.363999999999578
15,24,19118.2466253219,0.370999999999185
15,25,15116.7590896835,0.368000000000393
15,26,12865.5544701185,0.3700000000008
15,27,20968.7083893466,0.369999999998981
15,28,16194.8764137351,0.368000000000393
15,29,22870.4025530274,0.369999999998981
15,30,42268.6420075465,0.372000000001208
16,17,23128.0948507923,0.362999999999374
16,18,10821.0261628506,0.365999999999985
16,19,24808.0968131427,0.367000000000189
16,20,51403.5389181904,0.29700000000048
16,21,54932.6414720119,0.340000000000146
16,22,60131.5358984474,0.371999999999389
16,23,21106.9666918104,0.362999999999374
16,24,25379.1768233798,0.368000000000393
16,25,24135.7191011481,0.369000000000597
16,26,21452.8434528174,0.334000000000742
16,27,29392.9209627732,0.337999999999738
16,28,23726.822374885,0.369999999998981
16,29,29584.9309381508,0.363999999999578
16,30,45610.132876052,0.333000000000538
17,18,14632.5865247745,0.325999999999112
17,19,21736.7585997166,0.337000000001353
17,20,29663.199895117,0.365999999999985
17,21,40542.242667831,0.342999999998938
17,22,48847.5892670598,0.369000000000597
17,23,24395.4167783876,0.326999999999316
17,24,19930.1569698652,0.365999999999985
17,25,16576.5731020785,0.334000000000742
17,26,28758.5229800923,0.365999999999985
17,27,37359.2382097116,0.362999999999374
17,28,29216.081471522,0.365999999999985
17,29,29880.0586057705,0.365999999999985
17,30,29677.6732496844,0.364000000001397
18,19,15079.1517400493,0.363000000001193
18,20,43326.0679499242,0.365999999999985
18,21,43491.420954203,0.370999999999185
18,22,44879.7637850634,0.371000000001004
18,23,17613.5014164613,0.367000000000189
18,24,10536.6830095923,0.361999999999171
18,25,9749.29768784207,0.365999999999985
18,26,13035.7675871297,0.365999999999985
18,27,21715.4160595439,0.370999999999185
18,28,14184.4293747902,0.367000000000189
18,29,18913.499699531,0.369000000000597
18,30,34359.8495554346,0.369000000000597
19,20,17280.9419019708,0.369000000000597
19,21,12573.7389508977,0.362999999999374
19,22,21561.7568215699,0.372000000001208
19,23,17817.4529930376,0.369000000000597
19,24,13099.9970271903,0.359999999998763
19,25,19292.4534419816,0.371000000001004
19,26,26853.1642314352,0.371999999999389
19,27,14352.7833916593,0.365999999999985
19,28,9652.51129587833,0.364999999999782
19,29,6787.23422184864,0.364999999999782
19,30,8980.40150288873,0.363999999999578
20,21,18624.4456853238,0.342000000000553
20,22,22834.8137641426,0.371999999999389
20,23,32502.8869085777,0.368000000000393
20,24,30459.8675321336,0.372000000001208
20,25,35031.3770997269,0.373999999999796
20,26,54881.3949318611,0.372999999999593
20,27,36126.1825259501,0.373999999999796
20,28,26672.1823211426,0.371999999999389
20,29,24513.3378738054,0.3700000000008
20,30,10571.440302428,0.368000000000393
21,22,16885.6622694214,0.370999999999185
21,23,36848.6880020264,0.372999999999593
21,24,25278.5107569196,0.369000000000597
21,25,37555.1610880668,0.371999999999389
21,26,53315.0659273639,0.374000000001615
21,27,25859.135144378,0.368999999998778
21,28,22705.4030063748,0.368000000000393
21,29,15695.4645109989,0.363999999999578
21,30,13126.6872650378,0.367000000000189
22,23,32933.8630180188,0.375
22,24,19118.2515550519,0.334999999999127
22,25,27589.8585114713,0.340000000000146
22,26,45364.6029463402,0.376000000000204
22,27,25065.5356042835,0.367000000000189
22,28,26421.8854526833,0.368000000000393
22,29,19673.6177870754,0.340000000000146
22,30,17403.2246211142,0.365999999999985
23,24,20726.9664453068,0.332000000000335
23,25,18057.6153379069,0.368999999998778
23,26,15108.7829454539,0.363000000001193
23,27,13769.6202240662,0.337999999999738
23,28,12764.8489699912,0.365999999999985
23,29,17189.8347252892,0.370999999999185
23,30,28414.6863522489,0.372000000001208
24,25,10799.6727138753,0.365999999999985
24,26,14328.6189307326,0.367999999998574
24,27,15902.2015999547,0.3700000000008
24,28,13484.34550314,0.368000000000393
24,29,12747.0834621201,0.364999999999782
24,30,19203.1144098461,0.364999999999782
25,26,11510.7365089661,0.364999999999782
25,27,21565.7642716229,0.372999999999593
25,28,16712.9355888114,0.368000000000393
25,29,19552.101225176,0.368000000000393
25,30,28625.6614662007,0.370999999999185
26,27,20104.7005514037,0.3700000000008
26,28,18592.5883628852,0.368000000000393
26,29,25950.6332947035,0.370999999999185
26,30,44268.0749902279,0.373999999999796
27,28,10242.1019127252,0.365999999999985
27,29,11895.4955632482,0.367000000000189
27,30,23301.8804362677,0.368000000000393
28,29,8973.03863578543,0.363999999999578
28,30,14570.0940123486,0.369999999998981
29,30,13809.5500449731,0.365000000001601


"After.Trace.ID","Before.Trace.ID","Difference","Runtime"
1,1,24620.0582925798,0.337999999999738
1,2,64494.086618831,0.338000000001557
1,3,86286.4527774229,0.377999999998792
1,4,166137.732543472,0.369000000000597
1,5,160091.355616331,0.343999999999141
1,6,145690.494266225,0.351000000000568
1,7,2853627.97675543,0.393000000000029
1,8,143628.973411621,0.376000000000204
1,9,147809.813316638,0.342000000000553
1,10,110277.652587024,0.371000000001004
1,11,33162.0257451089,0.365999999999985
1,12,37698.3939417757,0.367000000000189
1,13,60229.9357891083,0.365999999999985
1,14,51804.2557395024,0.369000000000597
1,15,50191.7871982537,0.368999999998778
1,16,56010.7014371348,0.367000000000189
1,17,53967.8237251761,0.365999999999985
1,18,41441.8172049461,0.367000000000189
1,19,27942.8824272788,0.369000000000597
1,20,40393.1381425751,0.370999999999185
1,21,24566.199490879,0.367000000000189
1,22,24537.8938677943,0.370999999999185
1,23,38708.4382366794,0.371000000001004
1,24,26189.1685721822,0.368000000000393
1,25,32864.9243371064,0.3700000000008
1,26,43038.2354687796,0.3700000000008
1,27,27064.7793796364,0.369999999998981
1,28,31312.0038276582,0.40099999999984
1,29,25889.5996057865,0.333000000000538
1,30,31962.5403088299,0.335999999999331
2,1,45742.8680543796,0.335000000000946
2,2,86459.3085049314,0.337999999999738
2,3,119030.521786766,0.346999999999753
2,4,210197.602860584,0.338999999999942
2,5,201773.474754843,0.373999999999796
2,6,190972.257985777,0.373999999999796
2,7,2628453.09880694,0.390999999999622
2,8,189652.515588483,0.377000000000407
2,9,189377.104641368,0.372999999999593
2,10,149258.595148247,0.372000000001208
2,11,53898.8335859664,0.343999999999141
2,12,67867.1848321847,0.375
2,13,94988.8871670863,0.3700000000008
2,14,80165.8529787717,0.372999999999593
2,15,69050.4604444303,0.369000000000597
2,16,79027.143307112,0.368999999998778
2,17,54600.3752674081,0.371000000001004
2,18,65201.5410775069,0.369999999998981
2,19,31897.930301451,0.364999999999782
2,20,18415.734750663,0.367000000000189
2,21,17289.451690898,0.3700000000008
2,22,23646.8823879584,0.371999999999389
2,23,54462.154166707,0.376000000000204
2,24,42725.2277121762,0.371999999999389
2,25,53602.2274130827,0.371000000001004
2,26,75159.7133095125,0.373999999999796
2,27,50639.6965292761,0.370999999999185
2,28,48165.8989315642,0.373000000001412
2,29,34014.2037176392,0.367999999998574
2,30,25877.2990974228,0.3700000000008
3,1,28148.9051093731,0.3700000000008
3,2,65480.0848731522,0.371999999999389
3,3,98423.2244356127,0.378000000000611
3,4,185305.072095737,0.375999999998385
3,5,173998.528683512,0.343000000000757
3,6,162004.193737996,0.342000000000553
3,7,2946723.2868224,0.403999999998632
3,8,154141.62246398,0.377000000000407
3,9,164920.887878676,0.342000000000553
3,10,121040.910936392,0.341999999998734
3,11,24864.0680629379,0.368000000000393
3,12,48390.3153139496,0.338999999999942
3,13,60473.319954451,0.337999999999738
3,14,46513.9380276026,0.367000000000189
3,15,45728.5832419199,0.372000000001208
3,16,50417.3302980445,0.369999999998981
3,17,46804.3142933223,0.369000000000597
3,18,45101.8138977552,0.369999999998981
3,19,25965.4217212662,0.3700000000008
3,20,21402.8943820514,0.371999999999389
3,21,24992.8873903776,0.372000000001208
3,22,19899.7322054885,0.370999999999185
3,23,26754.2997689255,0.371999999999389
3,24,31278.5378596891,0.368000000000393
3,25,37034.554821672,0.3700000000008
3,26,39747.8464281508,0.365999999999985
3,27,31917.608426107,0.371999999999389
3,28,24734.823100817,0.369999999998981
3,29,27088.229230205,0.338000000001557
3,30,22153.1464381837,0.334999999999127
4,1,15240.0430551916,0.376000000000204
4,2,49229.3069719643,0.369999999998981
4,3,73892.9657055128,0.376000000000204
4,4,158230.572927687,0.345000000001164
4,5,149249.672201492,0.376000000000204
4,6,136133.547316482,0.371000000001004
4,7,2933150.95160693,0.390999999999622
4,8,131249.794059893,0.375
4,9,139170.763603277,0.372999999999593
4,10,97829.4221188992,0.372000000001208
4,11,12105.2229841586,0.365999999999985
4,12,26099.1107373363,0.369999999998981
4,13,43521.9803003478,0.337000000001353
4,14,33389.1087035229,0.372999999999593
4,15,30288.7644898335,0.364999999999782
4,16,34650.329192809,0.368999999998778
4,17,34411.8852497748,0.3700000000008
4,18,26611.0615221584,0.367000000000189
4,19,17566.1823332449,0.373999999999796
4,20,20255.3288893977,0.371999999999389
4,21,21654.5720845053,0.3700000000008
4,22,17881.0112095868,0.372999999999593
4,23,14602.1450253989,0.367000000000189
4,24,20262.0330334582,0.371999999999389
4,25,17225.6738138242,0.372000000001208
4,26,21655.7811814985,0.369999999998981
4,27,18026.0264850114,0.371999999999389
4,28,12288.3466115982,0.368000000000393
4,29,17270.2372406636,0.372999999999593
4,30,17626.395036787,0.372000000001208
5,1,11937.0064626778,0.364999999999782
5,2,55499.1294205508,0.373999999999796
5,3,79126.7193069648,0.372999999999593
5,4,164583.121462792,0.376000000000204
5,5,159530.15031809,0.375
5,6,147090.565680417,0.376000000000204
5,7,2730784.71059628,0.396999999999025
5,8,139594.627957965,0.374000000001615
5,9,145443.282139433,0.342999999998938
5,10,109669.149263085,0.372000000001208
5,11,13564.7223371273,0.357999999998356
5,12,28446.6611214856,0.372000000001208
5,13,47788.7133767991,0.363999999999578
5,14,44552.4430739789,0.370999999999185
5,15,33196.6403823977,0.364999999999782
5,16,36125.4028415015,0.368000000000393
5,17,24481.9988966976,0.365999999999985
5,18,23935.0896070681,0.365999999999985
5,19,15363.6866417567,0.368000000000393
5,20,18482.812453774,0.372999999999593
5,21,18816.3990439625,0.367000000000189
5,22,17157.7017154313,0.368000000000393
5,23,20891.2800559226,0.368000000000393
5,24,14233.081523105,0.365999999999985
5,25,13802.6572242705,0.365999999999985
5,26,25076.1506670854,0.368999999998778
5,27,22410.9779613124,0.3700000000008
5,28,12682.8690197427,0.364999999999782
5,29,18640.9482366701,0.371999999999389
5,30,14209.6844833274,0.368000000000393
6,1,43399.5085325738,0.375
6,2,88669.6905093685,0.372999999999593
6,3,122012.882161066,0.377000000000407
6,4,212019.3500679,0.375
6,5,204317.491211026,0.378000000000611
6,6,189588.050282668,0.377999999998792
6,7,2792314.80839905,0.394000000000233
6,8,183812.710915065,0.378000000000611
6,9,190885.14206386,0.404999999998836
6,10,144724.569047053,0.341000000000349
6,11,46480.9476442192,0.341000000000349
6,12,64418.6418742035,0.343000000000757
6,13,92195.4340304572,0.337999999999738
6,14,77034.1333488269,0.341999999998734
6,15,64930.1758995299,0.338999999999942
6,16,77529.1132058947,0.369000000000597
6,17,55553.0041649012,0.368000000000393
6,18,63396.9823672365,0.368999999998778
6,19,32590.8443336857,0.365999999999985
6,20,24070.4996156709,0.3700000000008
6,21,23044.0006948837,0.370999999999185
6,22,19948.6578895534,0.3700000000008
6,23,48716.4699039283,0.370999999999185
6,24,42193.2680719282,0.3700000000008
6,25,52718.8275079863,0.371999999999389
6,26,72004.8031810771,0.373999999999796
6,27,52832.5315069949,0.371000000001004
6,28,45363.8145038196,0.365999999999985
6,29,34047.0867409426,0.375999999998385
6,30,24396.4773044667,0.369000000000597
7,1,56208.341751995,0.372999999999593
7,2,121299.776106812,0.375
7,3,150146.714207021,0.379000000000815
7,4,248424.964570817,0.377000000000407
7,5,236580.427618827,0.378999999998996
7,6,227353.175209438,0.376000000000204
7,7,2591387.52545685,0.394000000000233
7,8,212972.556463446,0.378000000000611
7,9,226101.383843124,0.372999999999593
7,10,180668.894419529,0.377000000000407
7,11,70194.9025779251,0.371999999999389
7,12,82508.6893796248,0.372999999999593
7,13,120531.081622337,0.376000000000204
7,14,109797.211033755,0.373999999999796
7,15,86853.4878246221,0.337999999999738
7,16,102182.207864504,0.33600000000115
7,17,67923.623679493,0.373999999999796
7,18,81743.0424192971,0.369999999998981
7,19,53689.7112840345,0.372000000001208
7,20,40683.1032851575,0.338999999999942
7,21,34519.5779036377,0.337999999999738
7,22,26764.9769333638,0.369000000000597
7,23,79583.0896276435,0.337999999999738
7,24,54337.8493141151,0.335999999999331
7,25,66701.505085864,0.367000000000189
7,26,93662.7420803499,0.370999999999185
7,27,83214.7389835209,0.345000000001164
7,28,73825.2032756442,0.368999999998778
7,29,52843.4389372172,0.375
7,30,44591.606775359,0.373000000001412
8,1,19448.5819173906,0.365999999999985
8,2,68747.8898267151,0.376999999998588
8,3,94952.5995334801,0.376000000000204
8,4,182035.633038939,0.372999999999593
8,5,174901.855648351,0.378000000000611
8,6,164522.670436618,0.375
8,7,2648871.0953268,0.39600000000064
8,8,157111.415040066,0.376999999998588
8,9,162294.896552708,0.373000000001412
8,10,124691.449587906,0.373000000001412
8,11,32764.0709743401,0.367000000000189
8,12,43996.7109062032,0.372999999999593
8,13,71913.3277326555,0.371999999999389
8,14,57134.9626072612,0.373999999999796
8,15,51562.5779122441,0.373000000001412
8,16,58505.0706025403,0.367999999998574
8,17,42044.2398825178,0.373000000001412
8,18,43755.4975726318,0.367999999998574
8,19,16357.4494027925,0.365999999999985
8,20,19643.4725958438,0.375
8,21,9796.81139782525,0.395000000000437
8,22,8776.70450035854,0.337999999999738
8,23,36915.9735983269,0.341000000000349
8,24,21554.1738967842,0.334000000000742
8,25,27509.9849123715,0.340000000000146
8,26,49347.0155526552,0.339999999998327
8,27,24636.2665501773,0.334000000000742
8,28,26841.8583118229,0.368999999998778
8,29,17898.6780011952,0.363000000001193
8,30,14468.803930611,0.364999999999782
9,1,44317.0188378863,0.375
9,2,104759.935010782,0.376000000000204
9,3,132262.711383104,0.375
9,4,227883.764071232,0.377000000000407
9,5,215796.268975241,0.378999999998996
9,6,209872.774103641,0.378000000000611
9,7,2480611.77762433,0.396999999999025
9,8,198083.9238194,0.380000000001019
9,9,206739.693390018,0.373999999999796
9,10,164256.993240509,0.373999999999796
9,11,65047.4604363042,0.373999999999796
9,12,72309.1987279456,0.372999999999593
9,13,107965.01008738,0.343000000000757
9,14,92251.7283869935,0.372999999999593
9,15,76391.9264741756,0.369000000000597
9,16,90418.0724022499,0.370999999999185
9,17,57074.6260083738,0.369000000000597
9,18,73968.7964222145,0.369000000000597
9,19,35560.0825257023,0.367999999998574
9,20,29028.9054609943,0.369000000000597
9,21,19075.1151447479,0.364999999999782
9,22,15985.9865333423,0.368000000000393
9,23,65927.3292585389,0.369999999998981
9,24,42335.7541702935,0.367000000000189
9,25,55108.0632280495,0.371000000001004
9,26,86786.2816835589,0.372999999999593
9,27,60924.2678851628,0.368000000000393
9,28,60703.9270511414,0.369999999998981
9,29,36763.0171550439,0.369000000000597
9,30,28331.2613828704,0.368999999998778
10,1,35920.0052236724,0.367000000000189
10,2,82495.4284742549,0.372999999999593
10,3,126412.253343728,0.376000000000204
10,4,209097.426236196,0.377000000000407
10,5,213370.624072055,0.3799999999992
10,6,190588.156557359,0.377000000000407
10,7,2520906.16200791,0.397000000000844
10,8,197162.517456464,0.345999999999549
10,9,187546.171310756,0.368999999998778
10,10,151120.089236386,0.382000000001426
10,11,37880.4954373957,0.367000000000189
10,12,69860.2033072909,0.338999999999942
10,13,86130.4421303478,0.340000000000146
10,14,85044.1720469521,0.343999999999141
10,15,63437.6981424273,0.3700000000008
10,16,68445.93120217,0.368999999998778
10,17,41040.5197448689,0.363999999999578
10,18,51724.9020207439,0.369000000000597
10,19,22464.9425743767,0.36200000000099
10,20,16147.113492138,0.367999999998574
10,21,15834.6427650543,0.363000000001193
10,22,21228.433280552,0.370999999999185
10,23,50694.0972432507,0.372999999999593
10,24,28897.891698531,0.368000000000393
10,25,47446.4710451052,0.3700000000008
10,26,71524.0548702285,0.370999999999185
10,27,46559.1881802636,0.373999999999796
10,28,36445.4776927465,0.369000000000597
10,29,27807.7398331076,0.368000000000393
10,30,12179.0762855914,0.364999999999782
11,1,32983.7645543932,0.377000000000407
11,2,51279.6168615605,0.367999999998574
11,3,86417.8126506624,0.375
11,4,176059.347571349,0.376000000000204
11,5,162405.323342336,0.377000000000407
11,6,161075.402535494,0.373999999999796
11,7,2630263.25003729,0.395000000000437
11,8,139901.129738036,0.373999999999796
11,9,156586.025402302,0.372999999999593
11,10,122119.725741532,0.375
11,11,38993.2254473286,0.3700000000008
11,12,45744.1473069944,0.371999999999389
11,13,64346.5242894604,0.369000000000597
11,14,47416.9867019166,0.367999999998574
11,15,50647.7858938311,0.372000000001208
11,16,56795.7760723452,0.371999999999389
11,17,39826.9930711287,0.336999999999534
11,18,43693.1799558573,0.337999999999738
11,19,25415.3402029262,0.376000000000204
11,20,19611.7561421658,0.364999999999782
11,21,28428.5763327597,0.333000000000538
11,22,25668.1114994696,0.341000000000349
11,23,38189.0191341609,0.308999999999287
11,24,35504.1294774855,0.336999999999534
11,25,29041.130252888,0.337999999999738
11,26,46533.2178796012,0.342000000000553
11,27,36473.3710806967,0.340000000000146
11,28,29038.2723001604,0.342000000000553
11,29,29426.1769132539,0.372999999999593
11,30,22718.4169991148,0.342000000000553
12,1,22277.0428409869,0.365999999999985
12,2,74774.8562400077,0.341000000000349
12,3,100977.811301808,0.373999999999796
12,4,191984.537051906,0.347999999999956
12,5,179582.336598301,0.376000000000204
12,6,167966.677848683,0.377000000000407
12,7,2934958.92416015,0.394000000000233
12,8,156907.18992021,0.346999999999753
12,9,171321.288939553,0.344999999999345
12,10,124556.160755811,0.337999999999738
12,11,28367.5774597999,0.333000000000538
12,12,36143.7254571078,0.335999999999331
12,13,78294.034322419,0.3700000000008
12,14,60182.3956074171,0.373999999999796
12,15,55026.4940288775,0.371999999999389
12,16,62670.7609494852,0.373999999999796
12,17,43689.5592033768,0.337000000001353
12,18,47082.2115939092,0.370999999999185
12,19,29459.2353421225,0.370999999999185
12,20,24109.6205039101,0.372000000001208
12,21,27398.5339811264,0.372999999999593
12,22,9687.27336477831,0.369999999998981
12,23,35950.2880873645,0.371000000001004
12,24,23157.0970898633,0.369000000000597
12,25,31534.7339964002,0.368999999998778
12,26,45376.9916656072,0.372000000001208
12,27,35806.6028556421,0.373999999999796
12,28,32235.8818911844,0.334999999999127
12,29,29125.1294566191,0.340000000000146
12,30,22705.7083534537,0.372999999999593
13,1,32174.5938514226,0.368000000000393
13,2,76908.7442490416,0.333999999998923
13,3,122689.865300913,0.346000000001368
13,4,208062.671283052,0.309999999999491
13,5,202716.463198557,0.343000000000757
13,6,182056.400118613,0.34099999999853
13,7,2804755.379168,0.363999999999578
13,8,185146.090156089,0.34400000000096
13,9,186682.127950544,0.342000000000553
13,10,140922.735699881,0.372999999999593
13,11,28806.2229102509,0.329999999999927
13,12,57782.4448833721,0.340000000000146
13,13,73331.8807355478,0.368999999998778
13,14,65755.541408602,0.368000000000393
13,15,59239.244424435,0.369000000000597
13,16,63148.9112507273,0.368999999998778
13,17,57149.8500435698,0.364999999999782
13,18,53364.6834876754,0.369000000000597
13,19,35691.4193765773,0.369000000000597
13,20,32080.0154586931,0.367999999998574
13,21,34919.0898694917,0.372000000001208
13,22,27200.7567386871,0.397999999999229
13,23,40481.1405999323,0.336999999999534
13,24,27489.0577766837,0.337999999999738
13,25,49906.7132209169,0.33600000000115
13,26,52447.1874999771,0.338999999999942
13,27,47197.362928418,0.341999999998734
13,28,38396.886141599,0.337000000001353
13,29,38269.165938897,0.370999999999185
13,30,30422.2839008598,0.3700000000008
14,1,18714.4060963928,0.367000000000189
14,2,59248.0736073857,0.370999999999185
14,3,89099.7396645193,0.371999999999389
14,4,175906.535094477,0.372000000001208
14,5,165310.781588591,0.375
14,6,158290.500868231,0.376000000000204
14,7,2718064.36722874,0.391999999999825
14,8,146617.325967663,0.371999999999389
14,9,156340.643858066,0.375
14,10,119522.541251311,0.372999999999593
14,11,23825.9225563742,0.3700000000008
14,12,39822.9812303262,0.373999999999796
14,13,50747.3361297523,0.365999999999985
14,14,40589.98766906,0.368999999998778
14,15,38785.3056886286,0.369000000000597
14,16,42417.2508039082,0.368000000000393
14,17,30785.4305783662,0.368999999998778
14,18,32971.8510697617,0.400000000001455
14,19,20738.2755922894,0.334999999999127
14,20,15774.9657671253,0.338999999999942
14,21,21759.5854700833,0.33600000000115
14,22,21238.8510652853,0.338999999999942
14,23,25092.5997114561,0.336999999999534
14,24,22503.7799433866,0.334999999999127
14,25,22413.2724969345,0.367000000000189
14,26,28037.8210156564,0.365999999999985
14,27,31635.2974621953,0.369000000000597
14,28,21664.4792671121,0.369000000000597
14,29,24011.4220620726,0.365999999999985
14,30,18135.9355416861,0.367000000000189
15,1,28367.9617774515,0.371000000001004
15,2,70272.1227040303,0.373999999999796
15,3,97332.7484220488,0.372999999999593
15,4,188026.172021184,0.373999999999796
15,5,181342.289861844,0.376000000000204
15,6,171632.466525217,0.372999999999593
15,7,2611531.69770941,0.391999999999825
15,8,161692.652438071,0.34400000000096
15,9,167595.859005978,0.343999999999141
15,10,130872.398996489,0.337000000001353
15,11,32374.2469216211,0.336999999999534
15,12,50985.2964451115,0.378999999998996
15,13,71337.3134672929,0.368000000000393
15,14,59148.4515989458,0.338999999999942
15,15,49124.0567277584,0.337000000001353
15,16,55281.1727736351,0.338999999999942
15,17,29129.2405476096,0.335999999999331
15,18,42323.2407345056,0.338999999999942
15,19,17082.9507266841,0.333000000000538
15,20,9396.13789730621,0.365999999999985
15,21,15210.3434421764,0.333999999998923
15,22,16229.4240114289,0.371000000001004
15,23,34332.2815224325,0.400000000001455
15,24,28323.0925178609,0.341999999998734
15,25,29826.0481917547,0.365999999999985
15,26,50643.2183124006,0.373999999999796
15,27,36601.0413264006,0.373000000001412
15,28,27657.6455181433,0.366000000001804
15,29,23154.4319267532,0.369999999998981
15,30,10685.5760356137,0.368000000000393
16,1,40817.4000026429,0.373999999999796
16,2,87667.9318485531,0.376000000000204
16,3,117611.64120719,0.376000000000204
16,4,209195.471432614,0.377000000000407
16,5,195819.653633399,0.380999999999403
16,6,179140.283154473,0.378999999998996
16,7,3076931.75337282,0.39600000000064
16,8,180814.848596768,0.380999999999403
16,9,187898.234764832,0.379000000000815
16,10,132579.089946446,0.341000000000349
16,11,44730.532039169,0.337999999999738
16,12,57517.172627653,0.376999999998588
16,13,94983.9202651205,0.368000000000393
16,14,71921.7646179659,0.346999999999753
16,15,70985.004781242,0.343000000000757
16,16,82672.3806879781,0.340000000000146
16,17,75089.5942322641,0.369999999998981
16,18,70591.5478267683,0.34400000000096
16,19,36100.9834176618,0.369999999998981
16,20,36128.6150293317,0.372000000001208
16,21,22508.0677443166,0.367000000000189
16,22,14507.063139996,0.368999999998778
16,23,47293.1614579,0.373999999999796
16,24,39955.6076216391,0.373000000001412
16,25,58635.9799457442,0.375
16,26,70046.139141398,0.376000000000204
16,27,40158.0690943686,0.373999999999796
16,28,47455.7272778546,0.376000000000204
16,29,32933.9959131855,0.368999999998778
16,30,33030.4084430529,0.372999999999593
17,1,37416.7004804552,0.375
17,2,87789.5780427702,0.342000000000553
17,3,122419.534820537,0.342000000000553
17,4,211307.050342995,0.380999999999403
17,5,203926.655818029,0.379000000000815
17,6,184207.730703112,0.346999999999753
17,7,2894056.16676035,0.371999999999389
17,8,185536.290851075,0.347999999999956
17,9,189763.493102532,0.375
17,10,138684.676849947,0.341000000000349
17,11,42475.215019223,0.403000000000247
17,12,59166.9087746486,0.376000000000204
17,13,91172.1756289602,0.344999999999345
17,14,73637.0927712948,0.371999999999389
17,15,65864.4541956329,0.373999999999796
17,16,78394.0274176138,0.372999999999593
17,17,64226.0391934747,0.371000000001004
17,18,66066.110739003,0.371999999999389
17,19,29248.1686035079,0.371000000001004
17,20,27859.9674780226,0.371999999999389
17,21,15840.3205668153,0.369999999998981
17,22,11485.2819319903,0.372000000001208
17,23,46100.0044678631,0.370999999999185
17,24,33745.5205947316,0.369000000000597
17,25,54932.5089128498,0.371999999999389
17,26,73125.7116498793,0.372999999999593
17,27,42278.4567303801,0.341000000000349
17,28,42117.6007079934,0.369000000000597
17,29,28040.8542820987,0.368999999998778
17,30,21850.8725044643,0.334000000000742
18,1,26778.1379196929,0.335999999999331
18,2,66132.6317448297,0.374000000001615
18,3,102907.578921753,0.371999999999389
18,4,184937.032795868,0.346999999999753
18,5,183961.554972621,0.343999999999141
18,6,163806.502125388,0.351000000000568
18,7,2695255.05572221,0.360000000000582
18,8,168824.720468789,0.345999999999549
18,9,164602.799897957,0.405000000000655
18,10,124764.465298312,0.341000000000349
18,11,27113.7530835274,0.335999999999331
18,12,52871.9537874895,0.368000000000393
18,13,67231.2255841867,0.335999999999331
18,14,61001.7780185062,0.336999999999534
18,15,50159.7711169837,0.365999999999985
18,16,54144.3105299179,0.332000000000335
18,17,45488.7948561384,0.340000000000146
18,18,46006.4950896619,0.364999999999782
18,19,13382.709193581,0.361000000000786
18,20,20996.3519426092,0.367000000000189
18,21,7808.20899691019,0.358999999998559
18,22,15998.4876375793,0.367000000000189
18,23,33577.323706014,0.368000000000393
18,24,23709.2804191601,0.368000000000393
18,25,41283.136573683,0.370999999999185
18,26,54703.9150417568,0.373999999999796
18,27,23169.2793558993,0.365999999999985
18,28,22852.7036047319,0.332000000000335
18,29,15300.4526969556,0.333000000000538
18,30,12465.2007798548,0.369000000000597
19,1,42184.9705150722,0.368999999998778
19,2,96087.6744791018,0.341000000000349
19,3,125563.61055809,0.351000000000568
19,4,219078.703772497,0.375
19,5,209861.67716688,0.375
19,6,197890.301378292,0.345999999999549
19,7,2728619.13911717,0.393000000000029
19,8,192017.359450889,0.376000000000204
19,9,197820.342401888,0.372999999999593
19,10,152046.389650282,0.370999999999185
19,11,55930.0647368844,0.369000000000597
19,12,65996.1030721321,0.371999999999389
19,13,101784.754612709,0.371000000001004
19,14,84059.6652745358,0.370999999999185
19,15,71560.818356771,0.372000000001208
19,16,85894.6012239491,0.369999999998981
19,17,58912.7301956177,0.371999999999389
19,18,69886.3977234584,0.369000000000597
19,19,31339.3412370716,0.367000000000189
19,20,26923.7552108414,0.372999999999593
19,21,14871.3553677532,0.337999999999738
19,22,13704.9508758618,0.3700000000008
19,23,58338.639079635,0.373999999999796
19,24,39597.2124814763,0.332999999998719
19,25,55380.4069735919,0.337000000001353
19,26,80153.3087151686,0.378999999998996
19,27,53488.8774736231,0.368000000000393
19,28,52525.0096784029,0.338999999999942
19,29,29795.9297901627,0.334000000000742
19,30,24646.5363162595,0.340000000000146
20,1,18732.8083419434,0.337000000001353
20,2,66040.7238669064,0.372999999999593
20,3,97212.33556864,0.376000000000204
20,4,183937.626815025,0.345999999999549
20,5,176364.50936031,0.343000000000757
20,6,161717.086396304,0.408999999999651
20,7,2846907.3086946,0.365999999999985
20,8,154478.200703493,0.407999999999447
20,9,163634.36816371,0.340000000000146
20,10,120272.130726044,0.343000000000757
20,11,20768.5717797314,0.332999999998719
20,12,36420.9969024435,0.329999999999927
20,13,70011.167940633,0.338000000001557
20,14,56379.951435991,0.336999999999534
20,15,49283.1915096986,0.367000000000189
20,16,54509.9877631086,0.367000000000189
20,17,39330.6326779307,0.369999999998981
20,18,38924.8125153626,0.371000000001004
20,19,21117.8342904245,0.3700000000008
20,20,19234.9358807308,0.370999999999185
20,21,18847.6898376784,0.371000000001004
20,22,8412.41064384446,0.370999999999185
20,23,32886.9909931147,0.372000000001208
20,24,19832.2709593978,0.371999999999389
20,25,27047.167907468,0.402000000000044
20,26,41272.8114401601,0.333999999998923
20,27,28833.7590412814,0.334000000000742
20,28,23298.6018756377,0.334000000000742
20,29,21063.4511509044,0.339999999998327
20,30,15552.7794983161,0.330000000001746
21,1,16061.2416999384,0.334999999999127
21,2,56296.3115565294,0.370999999999185
21,3,73582.1017952865,0.372000000001208
21,4,159390.605147716,0.370999999999185
21,5,147411.472255567,0.373999999999796
21,6,136736.407772826,0.373999999999796
21,7,3009597.60767999,0.391999999999825
21,8,125037.070054664,0.374000000001615
21,9,140610.810378268,0.371999999999389
21,10,98308.3835764121,0.370999999999185
21,11,18888.2524439539,0.367000000000189
21,12,20683.2973446851,0.364999999999782
21,13,50968.4862701211,0.3700000000008
21,14,37394.1058090058,0.371999999999389
21,15,36707.5439962856,0.371000000001004
21,16,42310.1139967208,0.367999999998574
21,17,40873.1417129732,0.369000000000597
21,18,30607.8374790095,0.369000000000597
21,19,25142.7759663971,0.368000000000393
21,20,28595.6243263945,0.373999999999796
21,21,29766.1848229526,0.371999999999389
21,22,17840.6143848495,0.370999999999185
21,23,22246.695101015,0.339000000001761
21,24,22014.9391895929,0.36699999999837
21,25,18743.6872469999,0.369000000000597
21,26,24696.698432509,0.335000000000946
21,27,23940.0333709255,0.337999999999738
21,28,19000.4399235919,0.372999999999593
21,29,23584.3437343067,0.368000000000393
21,30,26463.8943311933,0.337999999999738
22,1,43315.8365195474,0.337999999999738
22,2,100596.471948428,0.345999999999549
22,3,128902.788078959,0.34900000000016
22,4,223236.315264305,0.376000000000204
22,5,214437.196849725,0.34400000000096
22,6,206351.395410933,0.343999999999141
22,7,2512389.13276344,0.427999999999884
22,8,194031.496485126,0.342000000000553
22,9,202090.744940519,0.341999999998734
22,10,161964.228449129,0.373000000001412
22,11,56836.1598882427,0.36699999999837
22,12,70481.416253218,0.3700000000008
22,13,97971.4818167442,0.369000000000597
22,14,88916.9961269679,0.371999999999389
22,15,69281.9328326448,0.369000000000597
22,16,80030.8092485971,0.369999999998981
22,17,45978.3794918638,0.369000000000597
22,18,64029.5574837342,0.369999999998981
22,19,38127.5961746964,0.372000000001208
22,20,24224.3602001156,0.372999999999593
22,21,23506.6598658838,0.367000000000189
22,22,26742.9913336092,0.370999999999185
22,23,58251.7117305555,0.373999999999796
22,24,43318.056247455,0.371000000001004
22,25,49025.3043752452,0.369999999998981
22,26,74077.8844594765,0.369000000000597
22,27,66399.8652210964,0.340000000000146
22,28,57655.0409697506,0.338999999999942
22,29,39162.2343219395,0.375
22,30,27752.0270607213,0.368000000000393
23,1,35883.1536274142,0.332999999998719
23,2,103332.474846363,0.341000000000349
23,3,132461.578012719,0.313000000000102
23,4,226499.693220167,0.34900000000016
23,5,213696.180902855,0.345999999999549
23,6,200156.054589997,0.34400000000096
23,7,2905060.73455684,0.358999999998559
23,8,188699.838370306,0.377000000000407
23,9,204855.394190759,0.378000000000611
23,10,154152.049135292,0.346999999999753
23,11,44930.9313160107,0.369000000000597
23,12,58073.8233240141,0.375
23,13,99091.0004046443,0.373999999999796
23,14,86940.963070872,0.375
23,15,72469.2678230727,0.372999999999593
23,16,82911.0994434356,0.369000000000597
23,17,62484.7340151754,0.375
23,18,65655.6364916971,0.370999999999185
23,19,44209.4912610735,0.369000000000597
23,20,40330.9399713797,0.371999999999389
23,21,30717.5540984849,0.372000000001208
23,22,14672.8910851595,0.36699999999837
23,23,55439.8760809963,0.369000000000597
23,24,33446.9095879168,0.367000000000189
23,25,53155.8109600993,0.337999999999738
23,26,68857.1166516031,0.337999999999738
23,27,57533.2010481977,0.378000000000611
23,28,55499.9687313791,0.372999999999593
23,29,41794.0924786194,0.372000000001208
23,30,34635.9366202161,0.372999999999593
24,1,24917.9588890339,0.340000000000146
24,2,66637.7861523725,0.343999999999141
24,3,96278.3303590865,0.371000000001004
24,4,184005.674493349,0.342999999998938
24,5,172133.839669182,0.373999999999796
24,6,159415.196003428,0.375
24,7,2949299.35822062,0.394000000000233
24,8,152375.653420004,0.377000000000407
24,9,163575.652565881,0.373999999999796
24,10,117397.927398259,0.340000000000146
24,11,19857.6691464246,0.334999999999127
24,12,40504.8421389075,0.374000000001615
24,13,66394.1217959556,0.368999999998778
24,14,50990.2408370641,0.365999999999985
24,15,45157.9240313603,0.369000000000597
24,16,51981.2615454783,0.334999999999127
24,17,41574.7344115562,0.365999999999985
24,18,42994.8287928274,0.340000000000146
24,19,20796.4349207944,0.369000000000597
24,20,17845.7638539138,0.363999999999578
24,21,19468.1366603238,0.371000000001004
24,22,13919.5360902813,0.367000000000189
24,23,25833.330039676,0.364999999999782
24,24,26319.8028497918,0.367999999998574
24,25,32357.4480861675,0.372000000001208
24,26,43031.9201867375,0.370999999999185
24,27,28805.6372344853,0.372000000001208
24,28,23363.3485673074,0.371999999999389
24,29,22547.4537827018,0.369999999998981
24,30,16364.794043857,0.372000000001208
25,1,23070.4375845317,0.367000000000189
25,2,76626.4345886957,0.375
25,3,106102.176658194,0.376999999998588
25,4,195012.284678115,0.405000000000655
25,5,186313.15690443,0.346999999999753
25,6,173320.652288772,0.342000000000553
25,7,2779168.79001231,0.361999999999171
25,8,165840.468639325,0.347000000001572
25,9,174413.143842653,0.341000000000349
25,10,130260.363619409,0.340000000000146
25,11,31645.1353101288,0.3700000000008
25,12,44251.1772714914,0.369999999998981
25,13,81295.3126711942,0.369000000000597
25,14,65031.2813204047,0.371999999999389
25,15,57156.7161890855,0.369000000000597
25,16,66111.7393809331,0.368000000000393
25,17,44785.78573854,0.368999999998778
25,18,47720.6959083704,0.369000000000597
25,19,20490.4219678893,0.361999999999171
25,20,20292.5116959484,0.372000000001208
25,21,13450.6410000818,0.362999999999374
25,22,5988.57275295974,0.367000000000189
25,23,39626.6901344458,0.371999999999389
25,24,21885.9427890207,0.363000000001193
25,25,33672.8663645741,0.370999999999185
25,26,53283.6581007552,0.372999999999593
25,27,32589.7912677101,0.3700000000008
25,28,30753.867370182,0.370999999999185
25,29,22052.9813066282,0.365999999999985
25,30,15051.2299756728,0.367000000000189
26,1,19895.3882487558,0.369000000000597
26,2,74672.2618696297,0.372999999999593
26,3,94078.3593828692,0.373999999999796
26,4,187057.808829543,0.377000000000407
26,5,169524.710359058,0.377000000000407
26,6,167861.944486086,0.375
26,7,2747126.35235573,0.363999999999578
26,8,143952.730960866,0.373999999999796
26,9,167326.598658783,0.371999999999389
26,10,130174.827946893,0.375
26,11,35849.3439447121,0.368000000000393
26,12,36206.1359027566,0.368000000000393
26,13,65354.3087915492,0.369000000000597
26,14,51389.4799592291,0.368999999998778
26,15,53945.6801566798,0.368000000000393
26,16,59366.2989634312,0.369000000000597
26,17,45843.8508890673,0.368999999998778
26,18,42987.848958376,0.363000000001193
26,19,40291.2624100362,0.367999999998574
26,20,40227.5741841363,0.372000000001208
26,21,40190.1796471525,0.367999999998574
26,22,19175.9498791863,0.367000000000189
26,23,39467.7166605323,0.371000000001004
26,24,25981.1486936503,0.367000000000189
26,25,24698.4536165491,0.369999999998981
26,26,31897.9829300196,0.368000000000393
26,27,40317.0785110834,0.372999999999593
26,28,39407.9376507386,0.372000000001208
26,29,39151.1774403831,0.368999999998778
26,30,37970.1817195073,0.371000000001004
27,1,61815.7005459569,0.375
27,2,93319.2562943162,0.372999999999593
27,3,160599.991862064,0.342999999998938
27,4,233635.596344767,0.373000000001412
27,5,254703.666079697,0.373999999999796
27,6,210501.914777683,0.380999999999403
27,7,2590357.49074796,0.397000000000844
27,8,247136.194460263,0.377999999998792
27,9,210210.826881616,0.376000000000204
27,10,172151.025365905,0.379000000000815
27,11,48805.9650760268,0.372999999999593
27,12,103549.36974295,0.377000000000407
27,13,96801.6234966594,0.371999999999389
27,14,110709.866920959,0.377000000000407
27,15,70115.1451709669,0.373999999999796
27,16,82488.0482224787,0.371999999999389
27,17,60592.7226107257,0.375
27,18,67604.365563059,0.373999999999796
27,19,28326.936910084,0.368000000000393
27,20,25072.8907332776,0.375
27,21,14601.3379741361,0.368000000000393
27,22,39270.9974810487,0.373999999999796
27,23,61867.2869867599,0.372999999999593
27,24,43375.1851920548,0.373999999999796
27,25,82885.7413373575,0.373999999999796
27,26,102860.587727855,0.376000000000204
27,27,56489.4710578158,0.373999999999796
27,28,46251.048365319,0.372000000001208
27,29,30318.1882545524,0.370999999999185
27,30,20875.4126327938,0.371999999999389
28,1,49510.7696721447,0.371000000001004
28,2,98399.470742424,0.376000000000204
28,3,133707.884286914,0.405000000000655
28,4,223481.943869153,0.342000000000553
28,5,216704.40268407,0.346999999999753
28,6,197448.055894808,0.343999999999141
28,7,2883878.19567019,0.365999999999985
28,8,198692.73593013,0.34400000000096
28,9,201592.02272654,0.30699999999888
28,10,150629.17770415,0.341000000000349
28,11,53069.5004382427,0.406000000000859
28,12,71111.8829302531,0.341000000000349
28,13,104533.066684943,0.373000000001412
28,14,87624.9907988176,0.375
28,15,74641.1854236882,0.370999999999185
28,16,89616.15191341,0.373999999999796
28,17,69031.0591680412,0.375
28,18,74925.998620813,0.372999999999593
28,19,34596.82479081,0.363000000001193
28,20,32293.6170811883,0.369999999998981
28,21,17740.5659645965,0.369000000000597
28,22,16711.1218723667,0.368999999998778
28,23,59273.6367297879,0.373000000001412
28,24,44551.5323288335,0.368999999998778
28,25,66183.9783574129,0.375
28,26,84312.6371935457,0.376000000000204
28,27,53365.7741314314,0.3700000000008
28,28,53085.8679740412,0.336999999999534
28,29,32859.2302289571,0.336999999999534
28,30,28477.7455224276,0.371000000001004
29,1,29518.4727899381,0.367000000000189
29,2,77767.864598717,0.371999999999389
29,3,103979.794985686,0.344999999999345
29,4,197225.291085201,0.342000000000553
29,5,182489.738862452,0.371999999999389
29,6,169999.692336895,0.345999999999549
29,7,3003953.21374394,0.399000000001251
29,8,161149.118651039,0.377999999998792
29,9,176155.799243117,0.377000000000407
29,10,125614.628513126,0.375
29,11,27390.9187283292,0.367000000000189
29,12,44353.6964868548,0.375
29,13,76702.1664046426,0.371999999999389
29,14,62693.6349971494,0.373000000001412
29,15,54302.9820064859,0.369999999998981
29,16,61291.2974512773,0.369000000000597
29,17,51953.6526663755,0.368999999998778
29,18,50951.9003742125,0.337999999999738
29,19,30491.6740644605,0.372000000001208
29,20,26285.4104739421,0.373999999999796
29,21,26472.8052424186,0.367000000000189
29,22,18167.6330675888,0.342999999998938
29,23,32982.1399173127,0.368000000000393
29,24,31406.4941427776,0.371000000001004
29,25,39684.1348423529,0.369999999998981
29,26,49579.1167976938,0.369000000000597
29,27,37299.5229859095,0.372999999999593
29,28,34585.3123194745,0.370999999999185
29,29,30480.5882951446,0.376000000000204
29,30,24855.446795225,0.373999999999796
30,1,15542.1193665833,0.369000000000597
30,2,36413.7459652856,0.370999999999185
30,3,55925.9927431143,0.341000000000349
30,4,130668.788873163,0.336999999999534
30,5,127816.117221035,0.380000000001019
30,6,113604.106062108,0.375
30,7,2814824.66774725,0.360999999998967
30,8,112308.840337709,0.343000000000757
30,9,112696.028515064,0.376000000000204
30,10,81706.7738443913,0.337999999999738
30,11,11486.3114840086,0.334999999999127
30,12,25954.5816283628,0.340000000000146
30,13,20593.3474162825,0.33600000000115
30,14,25452.4235976039,0.338999999999942
30,15,15268.0332657852,0.399999999999636
30,16,20526.4969454635,0.334000000000742
30,17,20281.9771221828,0.363999999999578
30,18,11867.710638133,0.363999999999578
30,19,10395.4429441132,0.368000000000393
30,20,18293.1740390489,0.368000000000393
30,21,19431.1760717629,0.36699999999837
30,22,24001.9325312991,0.372000000001208
30,23,10779.7266219348,0.365999999999985
30,24,16903.6786382349,0.367000000000189
30,25,14951.9743337488,0.367999999998574
30,26,19056.121748007,0.3700000000008
30,27,16706.8638179228,0.368000000000393
30,28,7779.75678695339,0.368000000000393
30,29,10067.0282300704,0.368999999998778
30,30,13542.8977925078,0.367000000000189
