"Before.Trace.ID1","Before.Trace.ID2","Difference","Runtime"
1,2,131753.855506038,0.00100000000020373
1,3,126049.836496382,0
1,4,156241.946456845,0.000999999998384737
1,5,195422.930736588,0
1,6,137595.585287955,0
1,7,143785.341506682,0.00100000000020373
1,8,161253.327301242,0
1,9,128003.845564932,0.00100000000020373
1,10,167908.455009969,0
1,11,95897.6097762276,0
1,12,99269.0603368973,0
1,13,145445.484913711,0
1,14,168624.519645109,0.00100000000020373
1,15,216779.912627516,0
1,16,131940.807912414,0.00100000000020373
1,17,137514.079281385,0
1,18,117232.032317477,0
1,19,107356.466109361,0.00100000000020373
1,20,92281.2387054602,0
1,21,112416.859278856,0.00100000000020373
1,22,90628.9102798669,0
1,23,116903.705548635,0
1,24,79337.0817340146,0.00100000000020373
1,25,146127.12495674,0
1,26,168485.680993646,0.000999999998384737
1,27,129074.230436237,0
1,28,174320.335105653,0
1,29,108797.688532173,0
1,30,93960.822967569,0
2,3,141434.88738093,0.00100000000020373
2,4,216323.587214841,0
2,5,167404.913419178,0.00100000000020373
2,6,189898.252225076,0
2,7,160114.786168163,0
2,8,108633.822732719,0.00100000000020373
2,9,126617.165049731,0
2,10,174443.169729627,0.00100000000020373
2,11,135089.194913251,0
2,12,127425.96101786,0
2,13,172772.187277785,0.00100000000020373
2,14,181263.68066878,0
2,15,196117.231969514,0.00100000000020373
2,16,134681.228011899,0
2,17,127957.413276854,0
2,18,159652.199273295,0
2,19,130390.989966749,0
2,20,155195.551624495,0.000999999998384737
2,21,94030.1718525163,0
2,22,133632.642380319,0.00100000000020373
2,23,149439.128982067,0
2,24,159792.481108157,0
2,25,113011.523242615,0.00100000000020373
2,26,178174.409272019,0
2,27,125633.325465257,0.00100000000020373
2,28,196945.163000034,0
2,29,148083.733658377,0
2,30,138795.308114226,0
3,4,141229.149810826,0
3,5,236336.978715823,0.00100000000020373
3,6,82672.4277243016,0
3,7,80557.6472763829,0.00100000000020373
3,8,134272.682796728,0
3,9,122678.379279672,0
3,10,228627.985907056,0.00100000000020373
3,11,94067.0395233791,0
3,12,68551.8785919996,0.00100000000020373
3,13,84078.158028733,0
3,14,128456.183797319,0
3,15,158447.93320903,0.000999999998384737
3,16,100291.263000137,0
3,17,83193.9949032284,0.00100000000020373
3,18,84347.4627511406,0
3,19,82279.2252045889,0
3,20,151255.464822651,0
3,21,126534.242645068,0
3,22,116543.603493326,0.00100000000020373
3,23,68558.0379879508,0
3,24,104026.161137756,0.00100000000020373
3,25,112197.895341163,0
3,26,91829.0162468793,0
3,27,106580.985989938,0.00100000000020373
3,28,139541.896305246,0
3,29,87087.1724445303,0.00100000000020373
3,30,129340.782503643,0
4,5,249349.789396598,0
4,6,104493.341397207,0.00100000000020373
4,7,168281.668083891,0
4,8,209647.578462373,0.00100000000020373
4,9,156270.479912551,0
4,10,243553.056580411,0
4,11,136255.908132737,0
4,12,138160.295973518,0
4,13,95198.8919344038,0.00100000000020373
4,14,167531.060245722,0
4,15,202540.573431416,0.00100000000020373
4,16,158328.404536428,0
4,17,155975.395236749,0
4,18,130063.907473953,0.00100000000020373
4,19,143132.614577595,0
4,20,152409.781596168,0.00100000000020373
4,21,197275.423565416,0
4,22,157061.827910867,0
4,23,97384.4960307313,0.00100000000020373
4,24,113841.656690438,0
4,25,213907.999442469,0.00100000000020373
4,26,159710.380453704,0
4,27,148796.887708843,0
4,28,134431.255631576,0
4,29,115175.250828937,0
4,30,125003.279587575,0.00100000000020373
5,6,256910.231034534,0
5,7,269540.640748876,0.000999999998384737
5,8,162551.432181828,0
5,9,163202.844572577,0
5,10,150872.971538624,0.00100000000020373
5,11,217917.128032515,0
5,12,215337.696669725,0.00100000000020373
5,13,235095.577769556,0
5,14,252644.796002188,0
5,15,215927.063556489,0.00100000000020373
5,16,193869.839088388,0
5,17,203965.140509272,0.00100000000020373
5,18,246945.187541139,0
5,19,237424.905217363,0
5,20,175353.846978532,0
5,21,198207.7213222,0
5,22,186660.578769241,0.00100000000020373
5,23,221789.105035284,0
5,24,234997.25339677,0
5,25,217528.324863387,0
5,26,256724.070790594,0
5,27,168013.518502775,0.00100000000020373
5,28,202166.634495154,0
5,29,216628.09018601,0.000999999998384737
5,30,165726.32937183,0
6,7,94030.5154666762,0
6,8,174668.893494671,0.00100000000020373
6,9,140531.62982555,0
6,10,236058.10865809,0.00100000000020373
6,11,99774.0426838356,0
6,12,92353.4704054551,0
6,13,76070.2470366251,0.00100000000020373
6,14,128486.679705386,0
6,15,167290.326164117,0.00100000000020373
6,16,127955.267348265,0
6,17,102674.996911297,0
6,18,78639.2005449435,0
6,19,96659.8708792636,0
6,20,151849.29043068,0.00100000000020373
6,21,155094.273226022,0
6,22,124343.148261963,0.00100000000020373
6,23,80351.8378965059,0
6,24,93265.1654180361,0
6,25,152068.930855013,0.00100000000020373
6,26,103956.472379386,0
6,27,124623.470831039,0.000999999998384737
6,28,118662.304981366,0
6,29,75875.5879500048,0
6,30,133442.112409864,0.00100000000020373
7,8,160038.6039173,0
7,9,154245.211247412,0.00100000000020373
7,10,251139.805088566,0
7,11,100346.256809464,0
7,12,97522.5289441085,0
7,13,110244.739729819,0
7,14,130164.644664339,0.00100000000020373
7,15,172424.157805991,0
7,16,117137.521730077,0
7,17,97392.8817538074,0
7,18,90750.2250858791,0
7,19,80691.2504334765,0.00100000000020373
7,20,174910.842152603,0
7,21,130048.008408071,0.00100000000020373
7,22,142840.379865491,0
7,23,103354.93774323,0
7,24,116522.045361472,0.000999999998384737
7,25,114425.372207158,0
7,26,112110.093153142,0.00100000000020373
7,27,131414.255369333,0
7,28,165391.849025964,0
7,29,102952.210018456,0.00100000000020373
7,30,165097.402779361,0
8,9,100415.378861283,0.00100000000020373
8,10,204009.361380976,0
8,11,151595.878558196,0
8,12,137108.511776177,0
8,13,151725.540850684,0
8,14,184614.45405338,0.00100000000020373
8,15,142140.968358013,0
8,16,101342.340741538,0
8,17,103530.291555514,0
8,18,166920.61454236,0
8,19,149047.554520952,0.00100000000020373
8,20,184435.457632755,0
8,21,132801.679332296,0.00100000000020373
8,22,138142.171635109,0
8,23,138023.221462074,0
8,24,180072.472164757,0.000999999998384737
8,25,113863.726197856,0
8,26,162283.620469535,0.00100000000020373
8,27,106072.74461986,0
8,28,155337.234232638,0
8,29,154642.715678512,0.00100000000020373
8,30,158835.372175317,0
9,10,184762.528038943,0.00100000000020373
9,11,136153.888650249,0
9,12,103791.650268209,0
9,13,118606.799675052,0
9,14,183908.832697036,0
9,15,156371.087016012,0.00100000000020373
9,16,102641.288299395,0
9,17,89603.0708641336,0
9,18,144024.438348962,0
9,19,124228.039147529,0
9,20,148375.277369048,0.00100000000020373
9,21,132799.699775665,0
9,22,101977.436530937,0.00100000000020373
9,23,109557.161702649,0
9,24,140775.080291009,0
9,25,131146.682351526,0.000999999998384737
9,26,141908.93491081,0
9,27,89471.038661604,0.00100000000020373
9,28,133414.644716484,0
9,29,121273.870781806,0
9,30,114862.280414281,0.00100000000020373
10,11,204976.887718229,0
10,12,192179.986027123,0.00100000000020373
10,13,240403.23709814,0
10,14,253729.711884374,0
10,15,255619.74279312,0
10,16,206999.600043715,0
10,17,213152.245373356,0.00100000000020373
10,18,221960.762647721,0
10,19,225289.428688233,0
10,20,124542.0352339,0
10,21,180394.657517387,0
10,22,143188.912709292,0.00100000000020373
10,23,218656.221997014,0
10,24,202291.345356924,0.00100000000020373
10,25,210061.733167801,0
10,26,250680.340834224,0
10,27,171839.41560403,0.000999999998384737
10,28,211685.026964755,0
10,29,185509.141195523,0.00100000000020373
10,30,157698.472582244,0
11,12,74798.6318733065,0
11,13,109979.361612995,0.00100000000020373
11,14,114358.014109346,0
11,15,174134.607065575,0.00100000000020373
11,16,130111.891298788,0
11,17,100759.408433496,0
11,18,69263.0228896803,0.00100000000020373
11,19,69758.9610666149,0
11,20,124242.487376702,0.00100000000020373
11,21,109215.560586103,0
11,22,122347.393144703,0
11,23,91015.2923498151,0
11,24,66767.7992611839,0
11,25,132441.211424355,0.00100000000020373
11,26,125300.027751895,0
11,27,121533.857304221,0.00100000000020373
11,28,150720.878403811,0
11,29,75718.9298090022,0
11,30,115502.738343734,0.000999999998384737
12,13,95173.3373291559,0
12,14,140939.797133612,0.00100000000020373
12,15,167963.066795875,0
12,16,111650.993222916,0
12,17,85789.0953532393,0.00100000000020373
12,18,78173.8195245362,0
12,19,71731.5700667387,0.00100000000020373
12,20,121599.836472044,0
12,21,110755.366732463,0
12,22,92135.5049145807,0
12,23,83073.1227976343,0
12,24,85220.7268326115,0.00100000000020373
12,25,111609.772569972,0
12,26,97209.6955780024,0.00100000000020373
12,27,97658.5648888242,0
12,28,142562.65067245,0
12,29,67141.6041620692,0.00100000000020373
12,30,109877.675338288,0
13,14,147788.059295708,0.00100000000020373
13,15,164828.770046461,0
13,16,97651.2870388977,0
13,17,95351.2431529274,0.000999999998384737
13,18,105283.63109482,0
13,19,100161.543360457,0.00100000000020373
13,20,159687.702137803,0
13,21,157973.776330311,0
13,22,128892.488027563,0
13,23,56434.6992988966,0
13,24,112448.44882311,0.00100000000020373
13,25,151516.302080858,0
13,26,122587.222015788,0.00100000000020373
13,27,100822.027168731,0
13,28,125764.400173778,0
13,29,91760.4074636615,0.00100000000020373
13,30,126217.317814493,0
14,15,145426.16434999,0.00100000000020373
14,16,162380.931928824,0
14,17,139138.327608539,0
14,18,111354.008385931,0.00100000000020373
14,19,117550.437223423,0
14,20,175088.994815735,0.00100000000020373
14,21,137134.905829054,0
14,22,176986.960060623,0
14,23,139670.060763231,0
14,24,143323.311232372,0
14,25,150414.308982912,0.00100000000020373
14,26,118056.566419141,0
14,27,162415.717667238,0.00100000000020373
14,28,149094.909310985,0
14,29,128282.721437023,0
14,30,155788.45588199,0.00100000000020373
15,16,154789.465285846,0
15,17,130622.815985467,0.00100000000020373
15,18,168949.232368353,0
15,19,177161.766385867,0
15,20,208192.632075754,0.00100000000020373
15,21,186088.317317998,0
15,22,190407.654648346,0.00100000000020373
15,23,169241.69219602,0
15,24,205964.258820996,0
15,25,157187.792305685,0
15,26,127179.175536604,0
15,27,152086.264282706,0.00100000000020373
15,28,116648.143850185,0
15,29,164595.613547189,0.000999999998384737
15,30,190093.65145318,0
16,17,99729.5047426503,0
16,18,138181.124293645,0.00100000000020373
16,19,119847.43646309,0
16,20,148114.133286634,0.00100000000020373
16,21,127813.741520748,0
16,22,112751.083767733,0
16,23,88340.2183257527,0.00100000000020373
16,24,140198.909158295,0
16,25,115991.740649854,0.00100000000020373
16,26,147728.662929705,0
16,27,68660.764561143,0
16,28,137991.463379455,0
16,29,115130.798331198,0
16,30,122664.43778765,0.00100000000020373
17,18,98535.6270185078,0
17,19,88264.6860836292,0.00100000000020373
17,20,159311.088841712,0
17,21,114244.099855907,0
17,22,115449.623925681,0.0069999999996071
17,23,90489.6954294103,0.00100000000020373
17,24,125221.283836563,0
17,25,96197.6335413774,0
17,26,104441.605192388,0.00100000000020373
17,27,98095.9673416695,0
17,28,124175.529228546,0.00100000000020373
17,29,95458.7982561088,0
17,30,133356.025166644,0
18,19,67095.286686005,0
18,20,140736.545117516,0
18,21,124588.75572607,0.00100000000020373
18,22,119623.698221949,0
18,23,88205.433860166,0.00100000000020373
18,24,74233.1299090831,0
18,25,134168.781489275,0
18,26,97682.7377362036,0.00100000000020373
18,27,136598.291850568,0
18,28,145527.702817999,0.00100000000020373
18,29,75009.5632543308,0
18,30,130443.546159644,0
19,20,149884.274448922,0.00100000000020373
19,21,95605.1256163213,0
19,22,120431.574445263,0.00100000000020373
19,23,83279.4855921751,0
19,24,83533.2466229093,0
19,25,113416.407304116,0
19,26,107648.331672718,0
19,27,126479.395520242,0.00100000000020373
19,28,161742.471290433,0
19,29,90268.2843160404,0.000999999998384737
19,30,126950.634778914,0
20,21,142669.593890465,0
20,22,99393.77935386,0.00100000000020373
20,23,139717.127193284,0
20,24,109850.280813599,0.00100000000020373
20,25,172843.517082799,0
20,26,181321.35563971,0
20,27,123744.194372454,0
20,28,157309.325230126,0
20,29,107151.160719466,0.00100000000020373
20,30,82633.2856507691,0
21,22,116282.86737968,0.00100000000020373
21,23,133049.654886605,0
21,24,132199.474746199,0
21,25,89654.8159538957,0.00100000000020373
21,26,152233.935716332,0
21,27,124883.995699121,0.00100000000020373
21,28,177847.736360375,0
21,29,120489.615966027,0
21,30,127798.64356773,0.00100000000020373
22,23,110383.727626962,0
22,24,109660.161171721,0.000999999998384737
22,25,127672.420867331,0
22,26,154195.175913386,0
22,27,91837.6397160273,0
22,28,145618.008034626,0
22,29,94742.4354520094,0.00100000000020373
22,30,100845.631010013,0
23,24,87272.9027165186,0.00100000000020373
23,25,141534.656030232,0
23,26,121796.91360737,0
23,27,92896.7773428901,0.00100000000020373
23,28,130403.772446571,0
23,29,80493.5055131406,0.00100000000020373
23,30,109082.679516759,0
24,25,159386.437014303,0
24,26,143162.981724289,0.00100000000020373
24,27,133970.505543963,0
24,28,158325.960382563,0.00100000000020373
24,29,77121.3319820837,0
24,30,106967.758558557,0.00100000000020373
25,26,129709.177119592,0
25,27,126888.45621215,0
25,28,167620.485286173,0.000999999998384737
25,29,130900.295478274,0
25,30,155374.203861546,0.00100000000020373
26,27,145689.304220122,0
26,28,134251.843336797,0
26,29,116615.046483008,0.00100000000020373
26,30,157999.366587852,0
27,28,123891.438154699,0.00100000000020373
27,29,93892.3533602498,0
27,30,102910.816564357,0
28,29,116966.739339208,0
28,30,135169.372704332,0
29,30,101127.079186501,0.00100000000020373


"After.Trace.ID","Before.Trace.ID","Difference","Runtime"
1,1,95207.7427466116,0.00100000000020373
1,2,132410.458243993,0
1,3,77947.8218357763,0.00100000000020373
1,4,115279.708584026,0
1,5,207128.631249402,0.00100000000020373
1,6,84426.3406052503,0
1,7,107937.190958949,0
1,8,141327.723700947,0.000999999998384737
1,9,109413.883079881,0
1,10,187662.545714559,0.00100000000020373
1,11,82612.0396545021,0
1,12,70604.5217281627,0
1,13,91038.9976243481,0
1,14,115633.9471434,0
1,15,162067.790785205,0.00100000000020373
1,16,102276.407986997,0
1,17,93795.5291031343,0.00100000000020373
1,18,76915.340414392,0
1,19,74971.9035212436,0
1,20,108877.096600845,0.00100000000020373
1,21,106353.155569269,0
1,22,85764.5156517159,0.00100000000020373
1,23,67933.8287567674,0
1,24,83149.1834768003,0
1,25,122348.767349254,0
1,26,110005.97560426,0
1,27,95446.8892354458,0.00100000000020373
1,28,128303.596534602,0
1,29,72033.853552767,0.000999999998384737
1,30,86233.000703119,0
2,1,183277.26906657,0
2,2,100955.569943399,0.00100000000020373
2,3,139913.356975296,0
2,4,243168.893580808,0.00100000000020373
2,5,201107.203712787,0
2,6,194010.930155734,0
2,7,160863.868693035,0
2,8,91809.7346483527,0
2,9,145482.444510089,0.00100000000020373
2,10,229905.696079989,0
2,11,158240.959752079,0.00100000000020373
2,12,145394.120361353,0
2,13,177818.807689635,0
2,14,184592.035984784,0.00100000000020373
2,15,166449.519411512,0
2,16,144354.175069651,0.00100000000020373
2,17,116226.87359821,0
2,18,173158.524920255,0
2,19,150512.637604195,0
2,20,209648.053720941,0
2,21,128228.996538294,0.000999999998384737
2,22,170902.967778244,0
2,23,167049.102412109,0.00100000000020373
2,24,197941.810445642,0
2,25,93316.2334474548,0
2,26,160880.228970537,0.00100000000020373
2,27,147625.661760903,0
2,28,197502.929215917,0.00100000000020373
2,29,173691.607273574,0
2,30,182236.184803823,0
3,1,128314.949805838,0
3,2,108993.326740436,0
3,3,92139.1846806549,0.00100000000020373
3,4,176948.216585345,0
3,5,187242.094550936,0.00100000000020373
3,6,138921.582846237,0
3,7,120523.619152852,0
3,8,90158.5747021367,0.00100000000020373
3,9,114144.053686292,0
3,10,201244.811464238,0.00100000000020373
3,11,111583.624883812,0
3,12,98605.0789128958,0
3,13,118102.951826855,0
3,14,152053.395764282,0
3,15,155533.308898805,0.00100000000020373
3,16,70684.6489203937,0
3,17,98246.492506499,0.00100000000020373
3,18,132654.046721016,0
3,19,115444.768485437,0
3,20,148932.698789755,0.00100000000020373
3,21,107482.516294665,0
3,22,121119.482649395,0.00100000000020373
3,23,101444.609602883,0
3,24,138979.60190156,0
3,25,101515.45436763,0.00100000000020373
3,26,137180.994674396,0
3,27,78964.8313926201,0.00100000000020373
3,28,153295.029399147,0
3,29,112575.598557698,0.00100000000020373
3,30,121185.213143437,0
4,1,107137.445399908,0
4,2,165066.557318357,0.00100000000020373
4,3,106325.857914638,0
4,4,149327.102507968,0.000999999998384737
4,5,246109.23863945,0
4,6,98661.3036488884,0
4,7,97204.2573767986,0.00100000000020373
4,8,168759.372457885,0
4,9,162465.033387671,0.00100000000020373
4,10,223476.208850743,0
4,11,76825.063734406,0
4,12,113841.169746183,0
4,13,128708.150756752,0
4,14,118821.716580474,0.00100000000020373
4,15,187005.21191586,0
4,16,135331.110856227,0.00100000000020373
4,17,123640.205151807,0
4,18,83501.3713752676,0
4,19,91738.5516091921,0.00100000000020373
4,20,143098.738473319,0
4,21,126737.7673982,0.00100000000020373
4,22,129234.878313965,0
4,23,105137.100514981,0
4,24,84324.0062428778,0
4,25,146417.152147482,0
4,26,144841.817392955,0.000999999998384737
4,27,143366.0541886,0
4,28,156454.154184352,0.00100000000020373
4,29,98037.2606696908,0
4,30,142769.599523695,0
5,1,133187.965649631,0.00100000000020373
5,2,184873.330205069,0
5,3,123416.760147709,0.00100000000020373
5,4,87721.0092053418,0
5,5,213081.076675576,0
5,6,104518.100090875,0
5,7,151584.273359504,0
5,8,162699.564912323,0.00100000000020373
5,9,109978.319847576,0
5,10,211185.821076088,0.00100000000020373
5,11,120311.983928517,0
5,12,112599.457096271,0
5,13,85552.9825946392,0.00100000000020373
5,14,177251.047750889,0
5,15,180482.677753361,0.00100000000020373
5,16,121629.493687298,0
5,17,125612.522349506,0
5,18,127638.990341046,0
5,19,131127.719590748,0
5,20,139324.684279385,0.00100000000020373
5,21,173413.322129471,0
5,22,119826.092243006,0.00100000000020373
5,23,83018.6056175517,0
5,24,105870.836914621,0
5,25,183438.594728392,0.00100000000020373
5,26,158255.687857313,0
5,27,109302.21675634,0.00100000000020373
5,28,124130.399226004,0
5,29,98646.0066861125,0
5,30,124314.642764115,0
6,1,147355.446798943,0
6,2,85613.8345513388,0.00100000000020373
6,3,121970.049090876,0
6,4,200051.291372155,0.00100000000020373
6,5,176983.897498558,0
6,6,171816.434336547,0
6,7,152322.96601095,0.00100000000020373
6,8,93906.5986035293,0
6,9,97947.5524656658,0.000999999998384737
6,10,190187.643882247,0
6,11,147491.898785355,0
6,12,116464.713851843,0
6,13,153522.1275341,0
6,14,173191.995216821,0.00100000000020373
6,15,162007.567712128,0
6,16,110178.761972172,0.00100000000020373
6,17,114553.810704144,0
6,18,157931.845879855,0
6,19,133989.793537705,0.00100000000020373
6,20,162528.313279101,0
6,21,117271.635308568,0.00100000000020373
6,22,129394.349052994,0
6,23,133223.295638989,0
6,24,165284.598173641,0
6,25,110416.161624658,0
6,26,142249.542322593,0.00100000000020373
6,27,103066.472068252,0
6,28,169354.446081403,0.00100000000020373
6,29,143311.298265802,0
6,30,132011.449999531,0
7,1,175874.644769377,0.000999999998384737
7,2,160908.479887115,0
7,3,145379.79226539,0.00100000000020373
7,4,165868.480775224,0
7,5,168664.052151307,0
7,6,155861.951728313,0
7,7,174709.038629898,0
7,8,122540.995182688,0.00100000000020373
7,9,109840.031836171,0
7,10,186745.221405296,0.00100000000020373
7,11,169543.941050231,0
7,12,145112.808300207,0
7,13,126754.656977627,0.00100000000020373
7,14,198054.46521191,0
7,15,157096.972355341,0.00100000000020373
7,16,95845.6006327936,0
7,17,123845.681615904,0
7,18,180328.183541672,0.00100000000020373
7,19,172532.410809891,0
7,20,159273.572384825,0.000999999998384737
7,21,169083.254669054,0
7,22,135111.516172865,0.00100000000020373
7,23,128794.796719601,0
7,24,179476.092563717,0
7,25,152853.923898059,0.00100000000020373
7,26,174538.697061638,0
7,27,80108.7022297623,0.00100000000020373
7,28,117313.053977776,0
7,29,135309.922970721,0
7,30,131066.92049465,0.00100000000020373
8,1,111230.396693167,0
8,2,134548.213467435,0.00100000000020373
8,3,98163.2701931231,0
8,4,129360.910294857,0
8,5,198322.686573006,0
8,6,105127.673750462,0
8,7,119300.353587405,0.00100000000020373
8,8,145557.492538015,0
8,9,114102.035687837,0.00100000000020373
8,10,167302.870178995,0
8,11,100221.090634458,0
8,12,78720.0168360899,0.000999999998384737
8,13,101801.59357595,0
8,14,147558.858044033,0.00100000000020373
8,15,173818.608729406,0
8,16,96777.6705504508,0
8,17,111908.062481652,0
8,18,110208.433627274,0
8,19,106535.068488451,0.00100000000020373
8,20,96985.6427749811,0
8,21,119799.401280759,0.00100000000020373
8,22,86671.0344749548,0
8,23,84792.1294250235,0
8,24,98157.4827791087,0.00100000000020373
8,25,139114.079596485,0
8,26,135800.158051831,0.00100000000020373
8,27,65190.848324188,0
8,28,132946.291626801,0
8,29,66802.1531790809,0
8,30,89263.8842168392,0
9,1,127719.446776877,0.00100000000020373
9,2,164752.711184486,0
9,3,92832.7382615128,0.000999999998384737
9,4,84787.6456593995,0
9,5,220238.8632199,0
9,6,87541.0127895144,0.00100000000020373
9,7,122896.92203031,0
9,8,148548.748816466,0.00100000000020373
9,9,104742.007413277,0
9,10,218088.480997255,0
9,11,98710.6872378596,0
9,12,90515.7180102199,0
9,13,72455.3160560683,0.00100000000020373
9,14,140501.821631862,0
9,15,159031.617206069,0.00100000000020373
9,16,113597.369196466,0
9,17,100918.49398479,0
9,18,93513.8186027804,0.00100000000020373
9,19,96890.9323385435,0
9,20,143781.798089906,0.00100000000020373
9,21,146881.099963594,0
9,22,119734.323942715,0
9,23,56421.428200217,0.00100000000020373
9,24,95902.9133720118,0
9,25,156359.315203157,0.000999999998384737
9,26,113621.902907184,0
9,27,108363.786402497,0.00100000000020373
9,28,116259.179993533,0
9,29,89968.1645131758,0
9,30,116493.975433993,0.00100000000020373
10,1,95433.9800986303,0
10,2,113961.259352718,0.00100000000020373
10,3,121636.618905425,0
10,4,144441.587383688,0
10,5,149590.817858525,0.00100000000020373
10,6,142052.051853218,0
10,7,154929.565593103,0.00100000000020373
10,8,108322.284737209,0
10,9,72627.0163085239,0.00100000000020373
10,10,161483.229004418,0
10,11,118065.940775634,0
10,12,102084.668067739,0.00100000000020373
10,13,119619.835763081,0
10,14,171559.65921842,0.00100000000020373
10,15,172028.406940811,0
10,16,86782.5869675792,0
10,17,110976.09679174,0.000999999998384737
10,18,134353.362501067,0
10,19,118444.077650888,0.00100000000020373
10,20,109033.934391706,0
10,21,113327.506077837,0
10,22,86920.4339271739,0
10,23,97601.2057083039,0
10,24,118236.394820905,0.00100000000020373
10,25,134177.704467318,0
10,26,157650.349244041,0.00100000000020373
10,27,80484.8717671424,0
10,28,143467.891832608,0
10,29,111966.155820098,0.00100000000020373
10,30,81119.8866343043,0
11,1,78572.9652768444,0.00100000000020373
11,2,127157.071245073,0
11,3,116769.534754371,0
11,4,151576.886633941,0
11,5,202582.352389937,0
11,6,130736.158420009,0.00100000000020373
11,7,147632.910007477,0
11,8,159822.809667966,0.000999999998384737
11,9,123918.44271792,0
11,10,162551.144478655,0
11,11,104937.223013561,0.00100000000020373
11,12,94634.616219584,0
11,13,138270.526657247,0.00100000000020373
11,14,163537.153281374,0
11,15,213061.589839281,0
11,16,136730.833459691,0
11,17,126603.760965393,0
11,18,110270.455131952,0.00100000000020373
11,19,101987.308146004,0
11,20,109787.506884354,0.00100000000020373
11,21,98396.6145460083,0
11,22,86205.2746905405,0
11,23,107786.191951665,0.00100000000020373
11,24,92609.9438155426,0
11,25,135701.899018539,0.00100000000020373
11,26,151387.212621059,0
11,27,124879.512698574,0.00100000000020373
11,28,168611.958059513,0
11,29,103972.283004104,0
11,30,84672.8189265712,0.000999999998384737
12,1,131384.909717954,0
12,2,135757.649826104,0.00100000000020373
12,3,99113.1087936979,0
12,4,148445.264620194,0.00100000000020373
12,5,213845.10578913,0
12,6,123562.045459308,0
12,7,122675.220926882,0.00100000000020373
12,8,125322.353261533,0
12,9,69242.9544963087,0.00100000000020373
12,10,213441.391880158,0
12,11,130005.710608798,0
12,12,89952.3201751044,0
12,13,101756.590236169,0
12,14,179373.788932918,0.00100000000020373
12,15,176415.754325963,0
12,16,99796.4830922456,0.00100000000020373
12,17,88922.094535476,0
12,18,126346.560495234,0
12,19,103128.685406072,0.00100000000020373
12,20,162701.216303217,0
12,21,134574.43980914,0.00100000000020373
12,22,111005.153849336,0
12,23,86462.7418385115,0
12,24,129060.057706493,0
12,25,128275.653881902,0
12,26,126634.21384145,0.00100000000020373
12,27,97293.444719421,0
12,28,155076.522640976,0.00100000000020373
12,29,115052.654934108,0
12,30,127648.596285809,0
13,1,107618.795030377,0.00100000000020373
13,2,160194.944858256,0
13,3,93501.3812477515,0.000999999998384737
13,4,104724.818559139,0
13,5,243106.767307645,0
13,6,91332.1416088473,0
13,7,107926.163784797,0
13,8,181424.566314004,0.00100000000020373
13,9,136313.568274227,0
13,10,214161.477606914,0.00100000000020373
13,11,91192.402176223,0
13,12,82438.7403308598,0
13,13,97552.8407158811,0.00100000000020373
13,14,138860.075889787,0
13,15,197161.640067869,0.00100000000020373
13,16,128147.791682576,0
13,17,119968.596074394,0
13,18,89149.285094957,0
13,19,86419.2579369741,0
13,20,125683.578921675,0.00100000000020373
13,21,136242.755887887,0
13,22,123615.239357429,0.00100000000020373
13,23,81302.197629413,0
13,24,75575.3034563107,0
13,25,149539.874426201,0.000999999998384737
13,26,122559.963784486,0
13,27,125539.517573239,0.00100000000020373
13,28,149476.127299797,0
13,29,75867.5375704581,0
13,30,102218.739955053,0.00100000000020373
14,1,94143.5565767552,0
14,2,128653.072114483,0.00100000000020373
14,3,123382.935277024,0
14,4,163740.247998262,0.00100000000020373
14,5,181223.223260613,0
14,6,131303.802474289,0
14,7,139284.662950552,0.00100000000020373
14,8,147322.200621614,0
14,9,125291.059689941,0.00100000000020373
14,10,144088.722758375,0
14,11,103915.422410761,0
14,12,93824.5924015199,0.00100000000020373
14,13,143353.664467788,0
14,14,145108.303092801,0.00100000000020373
14,15,171322.025872928,0
14,16,124107.135105667,0
14,17,125805.917623131,0
14,18,112817.397382587,0
14,19,117003.176962108,0.00100000000020373
14,20,81405.93462873,0
14,21,105646.315391812,0.00100000000020373
14,22,74204.6438237071,0
14,23,123521.930956137,0
14,24,105715.652200127,0.00100000000020373
14,25,129359.968765015,0
14,26,146312.70090207,0.00100000000020373
14,27,101369.832606431,0
14,28,145726.87302585,0
14,29,94517.63588415,0.00100000000020373
14,30,100975.404631778,0
15,1,392326.530418371,0.00100000000020373
15,2,300069.024414479,0
15,3,388640.248525302,0.00100000000020373
15,4,479729.369387439,0
15,5,341720.083356279,0
15,6,439671.768403996,0.00100000000020373
15,7,400106.222972257,0
15,8,336054.016029774,0.000999999998384737
15,9,382483.249896464,0
15,10,350351.381285602,0
15,11,394116.735383982,0.00100000000020373
15,12,384914.022043519,0
15,13,436354.292015659,0.00100000000020373
15,14,379006.219930025,0
15,15,370428.918022291,0
15,16,380736.163667108,0.00100000000020373
15,17,376315.914955108,0
15,18,409447.51909517,0.00100000000020373
15,19,392933.4725699,0
15,20,386212.202864585,0
15,21,324975.219018615,0
15,22,383896.087687809,0
15,23,419058.723013567,0.00100000000020373
15,24,426050.37770572,0
15,25,314312.260388867,0.00100000000020373
15,26,388146.876025527,0
15,27,374204.735406491,0
15,28,409644.917873149,0.00100000000020373
15,29,399962.671923433,0
15,30,380601.945858448,0.000999999998384737
16,1,162487.803580629,0
16,2,184656.778856698,0
16,3,112862.949010461,0.00100000000020373
16,4,167468.102256594,0
16,5,243650.50415051,0.00100000000020373
16,6,104949.974273212,0
16,7,121523.347630145,0
16,8,174353.268653012,0
16,9,168344.461162443,0
16,10,215794.113465648,0.00100000000020373
16,11,130449.938265556,0
16,12,123170.360997158,0.00100000000020373
16,13,139830.736943874,0
16,14,111371.434741546,0
16,15,134831.178120377,0.00100000000020373
16,16,141739.711638726,0
16,17,125238.686738319,0.00100000000020373
16,18,105382.517293878,0
16,19,135187.198545286,0
16,20,147446.193708499,0.00100000000020373
16,21,147226.380136336,0
16,22,134636.599351066,0.000999999998384737
16,23,133292.672438936,0
16,24,139503.58023532,0
16,25,130060.421083173,0
16,26,110852.708561639,0
16,27,136141.625069453,0.00100000000020373
16,28,116970.188739642,0
16,29,103279.921888925,0.00100000000020373
16,30,144420.629501315,0
17,1,119356.670077449,0
17,2,95176.7269895963,0.00100000000020373
17,3,141263.798672508,0
17,4,183282.83044032,0.00100000000020373
17,5,118097.203732607,0
17,6,173233.076286358,0
17,7,173684.102110979,0
17,8,94810.3319864643,0
17,9,80919.9587512713,0.00100000000020373
17,10,159347.707195886,0
17,11,135372.191239031,0.000999999998384737
17,12,121674.505577326,0
17,13,148088.764512991,0
17,14,180757.17485577,0.00100000000020373
17,15,170473.088289066,0
17,16,110132.71870397,0.00100000000020373
17,17,115946.163552238,0
17,18,160159.045439338,0
17,19,138415.773265906,0.00100000000020373
17,20,133151.73464544,0
17,21,115278.303433878,0.00100000000020373
17,22,113638.731402773,0
17,23,132450.09620304,0
17,24,153543.35758433,0
17,25,127352.861780068,0
17,26,167202.803678295,0.00100000000020373
17,27,96164.2245734319,0
17,28,156211.724201121,0.00100000000020373
17,29,141238.79488059,0
17,30,102039.138291342,0
18,1,124063.083330558,0.00100000000020373
18,2,123868.334703323,0
18,3,144765.731515905,0.000999999998384737
18,4,169586.342033975,0
18,5,116806.395503663,0
18,6,162739.092638739,0.00100000000020373
18,7,184879.246078234,0
18,8,106720.35743688,0.00100000000020373
18,9,87437.9740635425,0
18,10,148012.121227969,0.00100000000020373
18,11,133405.128606755,0
18,12,123428.664190161,0
18,13,151787.06326441,0.00100000000020373
18,14,172466.368983264,0
18,15,151705.617172697,0.00100000000020373
18,16,128226.10142007,0
18,17,124861.200523711,0
18,18,151969.485590152,0.00100000000020373
18,19,148804.710487277,0
18,20,121979.273020337,0.00100000000020373
18,21,130396.46053193,0
18,22,108418.535290216,0
18,23,134924.368371769,0
18,24,148280.139054331,0
18,25,146020.063051108,0.000999999998384737
18,26,159216.283994469,0
18,27,103117.266772477,0.00100000000020373
18,28,129114.872443007,0
18,29,129869.666204072,0
18,30,94735.5780948107,0.00100000000020373
19,1,94735.6942474674,0
19,2,104397.333507673,0.00100000000020373
19,3,165527.455481948,0
19,4,205586.450497237,0
19,5,162561.810730381,0.00100000000020373
19,6,193614.764325074,0
19,7,188418.831101266,0.00100000000020373
19,8,168048.708502919,0
19,9,150243.87156651,0
19,10,142474.642294778,0
19,11,136860.957270459,0
19,12,133556.760073994,0.00100000000020373
19,13,187979.646138987,0
19,14,195007.294262942,0.00100000000020373
19,15,232798.560245457,0
19,16,158925.130442067,0
19,17,165669.3492573,0.000999999998384737
19,18,164147.184973624,0
19,19,146864.814533928,0.00100000000020373
19,20,107664.502150818,0
19,21,118427.638275842,0
19,22,125703.687192932,0.00100000000020373
19,23,162934.529969161,0
19,24,142491.533467111,0.00100000000020373
19,25,156885.274246888,0
19,26,199561.846705944,0.00100000000020373
19,27,143902.211965504,0
19,28,210097.030430485,0
19,29,151036.349877842,0.00100000000020373
19,30,103686.229639417,0
20,1,124091.424108166,0.00100000000020373
20,2,106892.502834401,0
20,3,120076.721646327,0
20,4,190562.589993925,0.00100000000020373
20,5,199328.235664224,0
20,6,149612.18192967,0.00100000000020373
20,7,124670.918184613,0
20,8,133930.650632832,0
20,9,154061.837691768,0
20,10,209235.633672251,0
20,11,94296.4985779683,0.00100000000020373
20,12,121298.176423508,0
20,13,147459.083715454,0.00100000000020373
20,14,110571.80190965,0
20,15,168943.091464481,0
20,16,126058.224499216,0.00100000000020373
20,17,119189.983176611,0
20,18,120898.913760482,0.00100000000020373
20,19,105028.048888602,0
20,20,147588.859689874,0
20,21,94008.7611032812,0
20,22,140979.997496274,0
20,23,131046.845840144,0.00100000000020373
20,24,131041.977279079,0
20,25,113277.251115176,0.00100000000020373
20,26,152917.73873626,0
20,27,127528.49152604,0
20,28,172739.400830626,0.00100000000020373
20,29,123686.14482899,0
20,30,130287.115651268,0.000999999998384737
21,1,185114.387760769,0
21,2,146343.464498645,0
21,3,166427.195648259,0
21,4,249094.524701188,0
21,5,238350.297154205,0.00100000000020373
21,6,195564.449603368,0
21,7,156796.787929509,0.00100000000020373
21,8,167449.172316986,0
21,9,199410.139528359,0
21,10,229163.822607668,0.00100000000020373
21,11,153832.299167632,0
21,12,165342.203049559,0.00100000000020373
21,13,211110.485868436,0
21,14,122822.486121898,0
21,15,166384.373518161,0
21,16,178415.007724628,0
21,17,164338.993202936,0.00100000000020373
21,18,165547.303821271,0
21,19,155839.846615236,0.00100000000020373
21,20,191895.454730585,0
21,21,118904.439271851,0
21,22,187247.100486671,0.000999999998384737
21,23,192501.255644849,0
21,24,191965.917194821,0.00100000000020373
21,25,129239.664790592,0
21,26,162533.99818838,0
21,27,176472.407624131,0
21,28,200241.547852949,0
21,29,172322.774063646,0.00100000000020373
21,30,191905.095311051,0
22,1,84297.0611046209,0.00100000000020373
22,2,140410.510226099,0
22,3,120501.104208916,0
22,4,126101.174701122,0.00100000000020373
22,5,190653.17043406,0
22,6,124489.447610389,0.00100000000020373
22,7,142608.15940895,0
22,8,148715.469081951,0
22,9,88380.4649321433,0.00100000000020373
22,10,181774.8867487,0
22,11,114232.564488501,0.00100000000020373
22,12,95830.0321708741,0
22,13,105477.390380568,0.000999999998384737
22,14,175814.041483312,0
22,15,202265.943857648,0
22,16,104050.511022783,0.00100000000020373
22,17,115764.165041117,0
22,18,123714.463534149,0.00100000000020373
22,19,102349.523842913,0
22,20,115408.914809563,0
22,21,125526.164952586,0.00100000000020373
22,22,89635.4392253085,0
22,23,88308.7263778425,0.00100000000020373
22,24,96367.0244790626,0
22,25,147648.472217543,0
22,26,159009.461768043,0
22,27,100202.851017002,0
22,28,156557.834589669,0.00100000000020373
22,29,105598.347798168,0
22,30,86104.4548636435,0.00100000000020373
23,1,194780.00470773,0
23,2,149886.424020193,0
23,3,201803.261068831,0.00100000000020373
23,4,244465.869808537,0
23,5,134803.822802535,0.000999999998384737
23,6,231607.354177212,0
23,7,226320.875254205,0
23,8,145285.730820882,0
23,9,136677.539861074,0
23,10,169912.300329776,0.00100000000020373
23,11,209911.88790188,0
23,12,181774.245103491,0.00100000000020373
23,13,212079.492690353,0
23,14,225535.706461161,0
23,15,177205.04924159,0.00100000000020373
23,16,158685.664869856,0
23,17,176557.882540446,0.00100000000020373
23,18,223275.943198452,0
23,19,209932.184840578,0
23,20,174304.071853046,0
23,21,173532.936275603,0
23,22,165708.658933028,0.00100000000020373
23,23,202747.25627749,0
23,24,223409.432522322,0.00100000000020373
23,25,164050.383282359,0
23,26,208014.318865273,0
23,27,140342.87320088,0.00499999999919964
23,28,188850.065093135,0
23,29,193270.381252493,0.00100000000020373
23,30,163616.664382877,0
24,1,95996.350161614,0
24,2,125339.478827298,0
24,3,88188.0709363196,0
24,4,135008.147231802,0.00100000000020373
24,5,190948.605333098,0
24,6,94840.2673862433,0.00100000000020373
24,7,103009.757015195,0
24,8,132234.681827905,0
24,9,109294.645606634,0.000999999998384737
24,10,174875.57680559,0
24,11,74811.6597831084,0.00100000000020373
24,12,70389.6351434207,0
24,13,101265.475182194,0
24,14,130275.530517087,0.00100000000020373
24,15,149435.559735527,0
24,16,98444.9735930278,0.00100000000020373
24,17,87301.7122846439,0
24,18,84702.0246608902,0.00100000000020373
24,19,88676.8335234878,0
24,20,94004.2334985585,0
24,21,113744.44032611,0.00100000000020373
24,22,85570.2014097071,0
24,23,87941.5837691335,0.00100000000020373
24,24,83305.1291923998,0
24,25,117617.313099825,0
24,26,120953.202862154,0.00100000000020373
24,27,86235.9814292537,0
24,28,122130.822975646,0.00100000000020373
24,29,64220.0404755921,0
24,30,96542.7919064025,0
25,1,103288.667747942,0
25,2,135286.666951423,0
25,3,119518.760262963,0.00100000000020373
25,4,142133.132613306,0
25,5,176205.62029141,0.00100000000020373
25,6,127546.495727582,0
25,7,154695.682450901,0
25,8,125753.579404297,0.00100000000020373
25,9,62038.8916599081,0
25,10,160259.928417793,0.00100000000020373
25,11,125065.641223169,0
25,12,88550.4227572811,0
25,13,118671.391944567,0
25,14,187369.682471465,0
25,15,182214.954518571,0.00100000000020373
25,16,114117.136931411,0
25,17,107371.840414441,0.00100000000020373
25,18,129580.148882387,0
25,19,121984.608832544,0
25,20,120640.408814091,0.00100000000020373
25,21,131865.387523561,0
25,22,72190.0063439525,0.000999999998384737
25,23,103833.498616642,0
25,24,116888.031745571,0
25,25,137177.232715961,0
25,26,144917.211690952,0
25,27,96080.7864783718,0.00100000000020373
25,28,137089.994808261,0
25,29,106255.815149612,0.00100000000020373
25,30,99080.054495933,0
26,1,113744.00103319,0
26,2,110035.447049959,0.00100000000020373
26,3,90003.5163997343,0
26,4,160527.563238747,0.00100000000020373
26,5,189787.330630361,0
26,6,116892.34492873,0
26,7,114017.149098612,0.00100000000020373
26,8,115842.021440262,0
26,9,108167.552851653,0.00100000000020373
26,10,188887.295995986,0
26,11,73470.1721230375,0
26,12,68095.0660146163,0
26,13,121134.952472614,0
26,14,127522.924582585,0.000999999998384737
26,15,138945.550309216,0
26,16,117928.770662632,0.00100000000020373
26,17,82535.2019120087,0
26,18,93356.7957910772,0
26,19,88888.3091823298,0.00100000000020373
26,20,128384.179959333,0
26,21,102922.544419269,0.00100000000020373
26,22,113067.59360309,0
26,23,104821.22115474,0
26,24,109367.684808005,0.00100000000020373
26,25,105216.625539001,0
26,26,101800.173640566,0.00100000000020373
26,27,102470.066026794,0
26,28,139291.990379758,0
26,29,89454.4039233036,0
26,30,110974.720124378,0
27,1,133711.995786896,0.00100000000020373
27,2,182347.629398695,0
27,3,150559.489075596,0.000999999998384737
27,4,175863.121039493,0
27,5,243489.836876453,0
27,6,127844.979114384,0.00100000000020373
27,7,134807.6192738,0
27,8,194422.495315206,0.00100000000020373
27,9,172288.523682832,0
27,10,185479.334227507,0
27,11,121771.989065873,0
27,12,129846.530839805,0
27,13,162555.927592618,0.00100000000020373
27,14,146474.095306099,0
27,15,194573.384785309,0.00100000000020373
27,16,156437.511941293,0
27,17,146029.296280497,0
27,18,117874.997063879,0.00100000000020373
27,19,133741.061081683,0
27,20,125597.964071289,0.00100000000020373
27,21,128757.023713592,0
27,22,123233.746149128,0
27,23,148578.276695312,0.00100000000020373
27,24,119588.695437539,0
27,25,145451.070056807,0.000999999998384737
27,26,165278.184418006,0
27,27,146534.319074035,0
27,28,157654.267292091,0
27,29,93802.1920431474,0
27,30,145602.193146883,0.00100000000020373
28,1,96023.2641111677,0
28,2,159617.516832316,0.00100000000020373
28,3,91147.0367037373,0
28,4,121733.565456995,0
28,5,223046.958971279,0.00100000000020373
28,6,93163.0884651521,0
28,7,117888.145923561,0.00100000000020373
28,8,157760.965985817,0
28,9,114319.209625924,0
28,10,200474.051694368,0.00100000000020373
28,11,107279.923752896,0
28,12,83570.937439569,0.00100000000020373
28,13,88366.100205643,0
28,14,165527.65507348,0
28,15,195826.32953391,0
28,16,97402.8515042969,0
28,17,109229.227413707,0.000999999998384737
28,18,100894.465223553,0
28,19,96934.3657649112,0.00100000000020373
28,20,122224.861377681,0
28,21,132404.480300376,0
28,22,87720.1750566858,0.00100000000020373
28,23,71537.0896585187,0
28,24,85245.5174744123,0.00100000000020373
28,25,136718.138999703,0
28,26,138578.608329208,0
28,27,103396.23586401,0.00100000000020373
28,28,147232.950315925,0
28,29,86787.5625097677,0.00100000000020373
28,30,97619.1976443357,0
29,1,92167.093979896,0
29,2,168832.971765206,0
29,3,112714.761155987,0
29,4,121834.694240406,0.00100000000020373
29,5,223651.346561896,0
29,6,100547.149972258,0.00100000000020373
29,7,133058.943453655,0
29,8,181445.777236974,0
29,9,144876.139342581,0.000999999998384737
29,10,194735.972228355,0
29,11,77437.5449422941,0.00100000000020373
29,12,87610.0554875381,0
29,13,127811.466226524,0
29,14,134816.285777121,0.00100000000020373
29,15,184286.24709468,0
29,16,150256.447456099,0.00100000000020373
29,17,127985.668294657,0
29,18,72112.6299016838,0.00100000000020373
29,19,101492.914295297,0
29,20,102000.258342989,0
29,21,137475.98958373,0.00100000000020373
29,22,110836.506798492,0
29,23,106671.298858882,0.00100000000020373
29,24,63055.1031650167,0
29,25,160087.982476791,0
29,26,128921.643811646,0.00100000000020373
29,27,138239.880589772,0
29,28,147495.214148583,0.00100000000020373
29,29,82678.2997562792,0
29,30,107925.03866051,0
30,1,128424.296510473,0
30,2,119572.175053573,0
30,3,113069.878519225,0.00100000000020373
30,4,171086.398556055,0
30,5,207706.737047285,0.00100000000020373
30,6,139528.679859625,0
30,7,137360.738512594,0
30,8,152954.360181308,0.00100000000020373
30,9,137567.377014725,0
30,10,162961.37740454,0.00100000000020373
30,11,125654.329457935,0
30,12,99441.8220795635,0
30,13,145754.614620201,0.00100000000020373
30,14,143390.828699328,0
30,15,175257.272375674,0.00100000000020373
30,16,128114.94419545,0
30,17,131503.270108801,0.00100000000020373
30,18,121730.697973017,0
30,19,118984.894382097,0
30,20,114852.259164983,0.00100000000020373
30,21,107875.998354579,0
30,22,99452.8824905306,0.000999999998384737
30,23,123385.108994767,0
30,24,130069.581881459,0
30,25,118499.315510692,0.00100000000020373
30,26,131165.18737438,0
30,27,110502.194608929,0.00100000000020373
30,28,154967.10074389,0
30,29,105668.909624387,0
30,30,111332.262398866,0
