"Before.Trace.ID1","Before.Trace.ID2","Difference","Runtime"
1,2,1738,0.478999999992084
1,3,1745,0.286000000007334
1,4,1727,0.3009999999922
1,5,1738,0.305000000007567
1,6,1726,0.25800000000163
1,7,1742,0.255999999993946
1,8,1731,0.278000000005704
1,9,1728,0.260999999998603
1,10,1729,0.277999999991152
1,11,1712,0.262000000002445
1,12,1747,0.264999999999418
1,13,1741,0.267999999996391
1,14,1734,0.256000000008498
1,15,1746,0.278999999994994
1,16,1734,0.260999999998603
1,17,1747,0.264999999999418
1,18,1720,0.268000000010943
1,19,1721,0.260999999998603
1,20,1732,0.277999999991152
1,21,1738,0.256000000008498
1,22,1732,0.263999999995576
1,23,1730,0.267999999996391
1,24,1731,0.259999999994761
1,25,1714,0.278000000005704
1,26,1728,0.260999999998603
1,27,1740,0.274999999994179
1,28,1733,0.255000000004657
1,29,1724,0.278000000005704
1,30,1723,0.260999999998603
2,3,1748,0.277999999991152
2,4,1719,0.260000000009313
2,5,1730,0.264999999999418
2,6,1736,0.267999999996391
2,7,1733,0.255000000004657
2,8,1731,0.277999999991152
2,9,1743,0.260999999998603
2,10,1733,0.264999999999418
2,11,1738,0.268000000010943
2,12,1736,0.259999999994761
2,13,1732,0.277999999991152
2,14,1743,0.255000000004657
2,15,1733,0.264999999999418
2,16,1733,0.267999999996391
2,17,1739,0.260999999998603
2,18,1737,0.277000000001863
2,19,1738,0.260999999998603
2,20,1738,0.275000000008731
2,21,1728,0.255999999993946
2,22,1742,0.277000000001863
2,23,1728,0.259999999994761
2,24,1733,0.278000000005704
2,25,1746,0.260999999998603
2,26,1738,0.264999999999418
2,27,1737,0.267999999996391
2,28,1734,0.255000000004657
2,29,1744,0.277999999991152
2,30,1740,0.260000000009313
3,4,1743,0.264999999999418
3,5,1739,0.268000000010943
3,6,1741,0.260999999998603
3,7,1745,0.277000000001863
3,8,1730,0.255999999993946
3,9,1740,0.264999999999418
3,10,1731,0.267999999996391
3,11,1739,0.260999999998603
3,12,1745,0.278000000005704
3,13,1748,0.260999999998603
3,14,1743,0.274000000004889
3,15,1749,0.254999999990105
3,16,1736,0.278000000005704
3,17,1739,0.259999999994761
3,18,1746,0.278000000005704
3,19,1747,0.259999999994761
3,20,1741,0.26600000000326
3,21,1744,0.266999999992549
3,22,1747,0.255000000004657
3,23,1742,0.277999999991152
3,24,1741,0.260999999998603
3,25,1735,0.264999999999418
3,26,1749,0.268000000010943
3,27,1735,0.260999999998603
3,28,1731,0.277999999991152
3,29,1744,0.255000000004657
3,30,1733,0.26600000000326
4,5,1734,0.269999999989523
4,6,1718,0.260999999998603
4,7,1732,0.278000000005704
4,8,1716,0.260999999998603
4,9,1735,0.274999999994179
4,10,1723,0.255000000004657
4,11,1729,0.278000000005704
4,12,1744,0.260999999998603
4,13,1743,0.277999999991152
4,14,1739,0.260000000009313
4,15,1742,0.263999999995576
4,16,1734,0.269000000000233
4,17,1736,0.254999999990105
4,18,1740,0.278000000005704
4,19,1735,0.260999999998603
4,20,1733,0.264999999999418
4,21,1727,0.267999999996391
4,22,1735,0.261000000013155
4,23,1734,0.277999999991152
4,24,1719,0.255000000004657
4,25,1730,0.263999999995576
4,26,1730,0.269000000000233
4,27,1722,0.259999999994761
4,28,1724,0.278000000005704
4,29,1733,0.260999999998603
4,30,1740,0.274999999994179
5,6,1737,0.255000000004657
5,7,1739,0.278000000005704
5,8,1722,0.259999999994761
5,9,1732,0.278000000005704
5,10,1720,0.260999999998603
5,11,1738,0.264999999999418
5,12,1747,0.267999999996391
5,13,1739,0.255000000004657
5,14,1745,0.277999999991152
5,15,1739,0.260999999998603
5,16,1729,0.264999999999418
5,17,1713,0.268000000010943
5,18,1735,0.260999999998603
5,19,1739,0.277999999991152
5,20,1739,0.255000000004657
5,21,1743,0.264999999999418
5,22,1739,0.267999999996391
5,23,1737,0.260999999998603
5,24,1744,0.278000000005704
5,25,1742,0.260999999998603
5,26,1743,0.274000000004889
5,27,1743,0.254999999990105
5,28,1737,0.278000000005704
5,29,1740,0.260999999998603
5,30,1739,0.277000000001863
6,7,1736,0.259999999994761
6,8,1730,0.263999999995576
6,9,1742,0.269000000000233
6,10,1728,0.255000000004657
6,11,1732,0.277999999991152
6,12,1735,0.260000000009313
6,13,1738,0.264999999999418
6,14,1737,0.267000000007101
6,15,1739,0.259999999994761
6,16,1739,0.277000000001863
6,17,1730,0.255999999993946
6,18,1738,0.264999999999418
6,19,1745,0.267999999996391
6,20,1741,0.260999999998603
6,21,1739,0.278000000005704
6,22,1730,0.259999999994761
6,23,1738,0.275000000008731
6,24,1737,0.254999999990105
6,25,1734,0.278000000005704
6,26,1728,0.259999999994761
6,27,1739,0.277000000001863
6,28,1738,0.259999999994761
6,29,1741,0.264999999999418
6,30,1741,0.267999999996391
7,8,1746,0.256000000008498
7,9,1726,0.277000000001863
7,10,1742,0.260999999998603
7,11,1729,0.264999999999418
7,12,1746,0.267999999996391
7,13,1738,0.259999999994761
7,14,1739,0.278000000005704
7,15,1740,0.254999999990105
7,16,1745,0.264999999999418
7,17,1740,0.267000000007101
7,18,1730,0.260000000009313
7,19,1723,0.276999999987311
7,20,1720,0.261000000013155
7,21,1742,0.273999999990338
7,22,1733,0.256000000008498
7,23,1733,0.276999999987311
7,24,1734,0.261000000013155
7,25,1738,0.277999999991152
7,26,1745,0.260999999998603
7,27,1742,0.264999999999418
7,28,1745,0.268000000010943
7,29,1743,0.254999999990105
7,30,1740,0.278000000005704
8,9,1730,0.260999999998603
8,10,1717,0.264999999999418
8,11,1733,0.267999999996391
8,12,1748,0.260999999998603
8,13,1747,0.277000000001863
8,14,1739,0.256000000008498
8,15,1747,0.264999999999418
8,16,1732,0.267999999996391
8,17,1733,0.259999999994761
8,18,1728,0.277000000001863
8,19,1749,0.259999999994761
8,20,1737,0.274999999994179
8,21,1724,0.255000000004657
8,22,1736,0.278000000005704
8,23,1724,0.259999999994761
8,24,1744,0.277999999991152
8,25,1734,0.260000000009313
8,26,1738,0.264999999999418
8,27,1738,0.267999999996391
8,28,1730,0.255999999993946
8,29,1740,0.277000000001863
8,30,1732,0.260999999998603
9,10,1743,0.264999999999418
9,11,1729,0.269000000000233
9,12,1746,0.260000000009313
9,13,1736,0.277999999991152
9,14,1748,0.255000000004657
9,15,1737,0.264999999999418
9,16,1741,0.266999999992549
9,17,1737,0.260999999998603
9,18,1724,0.278000000005704
9,19,1742,0.259999999994761
9,20,1736,0.274000000004889
9,21,1737,0.255999999993946
9,22,1732,0.278000000005704
9,23,1731,0.260999999998603
9,24,1725,0.277000000001863
9,25,1728,0.260999999998603
9,26,1738,0.263999999995576
9,27,1735,0.269000000000233
9,28,1739,0.255000000004657
9,29,1740,0.277999999991152
9,30,1723,0.260000000009313
10,11,1733,0.265999999988708
10,12,1741,0.267000000007101
10,13,1745,0.260999999998603
10,14,1739,0.278000000005704
10,15,1745,0.254999999990105
10,16,1730,0.264999999999418
10,17,1727,0.268000000010943
10,18,1731,0.260999999998603
10,19,1746,0.277999999991152
10,20,1736,0.260000000009313
10,21,1744,0.274999999994179
10,22,1739,0.255000000004657
10,23,1730,0.277999999991152
10,24,1735,0.260999999998603
10,25,1730,0.278000000005704
10,26,1741,0.259999999994761
10,27,1728,0.264999999999418
10,28,1740,0.267999999996391
10,29,1725,0.256000000008498
10,30,1741,0.277000000001863
11,12,1735,0.260999999998603
11,13,1731,0.264999999999418
11,14,1745,0.267999999996391
11,15,1731,0.260999999998603
11,16,1734,0.278000000005704
11,17,1744,0.254999999990105
11,18,1726,0.264999999999418
11,19,1719,0.267000000007101
11,20,1729,0.260999999998603
11,21,1745,0.277000000001863
11,22,1729,0.260000000009313
11,23,1730,0.274999999994179
11,24,1730,0.255000000004657
11,25,1733,0.277999999991152
11,26,1743,0.261000000013155
11,27,1746,0.276999999987311
11,28,1739,0.261000000013155
11,29,1726,0.264999999999418
11,30,1736,0.267999999996391
12,13,1734,0.255999999993946
12,14,1736,0.278000000005704
12,15,1720,0.259999999994761
12,16,1743,0.264999999999418
12,17,1747,0.266999999992549
12,18,1748,0.260000000009313
12,19,1735,0.277999999991152
12,20,1746,0.256000000008498
12,21,1729,0.264999999999418
12,22,1737,0.267999999996391
12,23,1737,0.260999999998603
12,24,1735,0.277000000001863
12,25,1737,0.259999999994761
12,26,1734,0.274999999994179
12,27,1738,0.255000000004657
12,28,1738,0.278000000005704
12,29,1746,0.260999999998603
12,30,1746,0.277999999991152
13,14,1743,0.260999999998603
13,15,1702,0.264999999999418
13,16,1725,0.267000000007101
13,17,1728,0.255999999993946
13,18,1745,0.277000000001863
13,19,1740,0.260999999998603
13,20,1735,0.264999999999418
13,21,1727,0.267999999996391
13,22,1732,0.260999999998603
13,23,1725,0.278000000005704
13,24,1728,0.255000000004657
13,25,1740,0.264999999999418
13,26,1731,0.267999999996391
13,27,1720,0.260999999998603
13,28,1739,0.278000000005704
13,29,1739,0.259999999994761
13,30,1739,0.275000000008731
14,15,1743,0.254999999990105
14,16,1737,0.277000000001863
14,17,1743,0.260999999998603
14,18,1745,0.277000000001863
14,19,1743,0.260999999998603
14,20,1735,0.264999999999418
14,21,1742,0.267999999996391
14,22,1741,0.255000000004657
14,23,1743,0.277000000001863
14,24,1736,0.259999999994761
14,25,1746,0.267000000007101
14,26,1738,0.267999999996391
14,27,1738,0.260999999998603
14,28,1729,0.277000000001863
14,29,1741,0.25800000000163
14,30,1737,0.264999999999418
15,16,1729,0.267999999996391
15,17,1735,0.260999999998603
15,18,1744,0.278000000005704
15,19,1733,0.260999999998603
15,20,1734,0.274000000004889
15,21,1734,0.254999999990105
15,22,1735,0.278000000005704
15,23,1722,0.259999999994761
15,24,1735,0.278000000005704
15,25,1731,0.260999999998603
15,26,1725,0.264999999999418
15,27,1733,0.267999999996391
15,28,1727,0.255999999993946
15,29,1739,0.277000000001863
15,30,1733,0.262000000002445
16,17,1730,0.26600000000326
16,18,1723,0.267999999996391
16,19,1732,0.260999999998603
16,20,1732,0.278000000005704
16,21,1730,0.254999999990105
16,22,1732,0.264999999999418
16,23,1724,0.268000000010943
16,24,1728,0.261999999987893
16,25,1731,0.278000000005704
16,26,1741,0.260999999998603
16,27,1721,0.275000000008731
16,28,1725,0.255999999993946
16,29,1736,0.277000000001863
16,30,1725,0.260999999998603
17,18,1737,0.277000000001863
17,19,1738,0.260000000009313
17,20,1737,0.264000000010128
17,21,1735,0.269000000000233
17,22,1741,0.254999999990105
17,23,1737,0.278000000005704
17,24,1738,0.259999999994761
17,25,1736,0.264999999999418
17,26,1725,0.267000000007101
17,27,1733,0.260999999998603
17,28,1741,0.277000000001863
17,29,1743,0.255000000004657
17,30,1735,0.264999999999418
18,19,1734,0.267999999996391
18,20,1737,0.260999999998603
18,21,1740,0.278000000005704
18,22,1735,0.260999999998603
18,23,1735,0.273999999990338
18,24,1734,0.255000000004657
18,25,1732,0.277999999991152
18,26,1734,0.260000000009313
18,27,1746,0.277999999991152
18,28,1728,0.261000000013155
18,29,1733,0.264999999999418
18,30,1730,0.266999999992549
19,20,1737,0.255000000004657
19,21,1742,0.277999999991152
19,22,1722,0.259999999994761
19,23,1733,0.264000000010128
19,24,1730,0.267999999996391
19,25,1740,0.260000000009313
19,26,1740,0.277999999991152
19,27,1737,0.255000000004657
19,28,1738,0.264999999999418
19,29,1740,0.266999999992549
19,30,1736,0.260000000009313
20,21,1734,0.277000000001863
20,22,1730,0.260999999998603
20,23,1740,0.275000000008731
20,24,1735,0.254999999990105
20,25,1732,0.278000000005704
20,26,1746,0.260999999998603
20,27,1733,0.278000000005704
20,28,1734,0.259999999994761
20,29,1740,0.264999999999418
20,30,1737,0.267999999996391
21,22,1728,0.255000000004657
21,23,1738,0.277999999991152
21,24,1732,0.260999999998603
21,25,1735,0.264999999999418
21,26,1741,0.267000000007101
21,27,1737,0.259999999994761
21,28,1727,0.277000000001863
21,29,1744,0.255999999993946
21,30,1739,0.263999999995576
22,23,1726,0.267999999996391
22,24,1718,0.260000000009313
22,25,1734,0.277999999991152
22,26,1746,0.260999999998603
22,27,1730,0.274000000004889
22,28,1725,0.255000000004657
22,29,1738,0.278000000005704
22,30,1731,0.259999999994761
23,24,1733,0.278000000005704
23,25,1730,0.260999999998603
23,26,1736,0.264999999999418
23,27,1730,0.267999999996391
23,28,1739,0.255000000004657
23,29,1728,0.278000000005704
23,30,1737,0.260999999998603
24,25,1721,0.263999999995576
24,26,1729,0.267999999996391
24,27,1733,0.259999999994761
24,28,1727,0.278000000005704
24,29,1734,0.255000000004657
24,30,1726,0.264999999999418
25,26,1732,0.267999999996391
25,27,1736,0.260999999998603
25,28,1746,0.277000000001863
25,29,1729,0.260999999998603
25,30,1737,0.274999999994179
26,27,1736,0.255000000004657
26,28,1740,0.278999999994994
26,29,1736,0.260999999998603
26,30,1734,0.277000000001863
27,28,1735,0.259999999994761
27,29,1728,0.264999999999418
27,30,1723,0.268000000010943
28,29,1738,0.254999999990105
28,30,1723,0.277000000001863
29,30,1731,0.259999999994761


"After.Trace.ID","Before.Trace.ID","Difference","Runtime"
1,1,1744,0.277999999991152
1,2,1735,0.260999999998603
1,3,1741,0.275000000008731
1,4,1739,0.260999999998603
1,5,1730,0.277000000001863
1,6,1740,0.260999999998603
1,7,1746,0.274999999994179
1,8,1728,0.260000000009313
1,9,1746,0.277000000001863
1,10,1737,0.25800000000163
1,11,1740,0.278000000005704
1,12,1739,0.260999999998603
1,13,1736,0.263999999995576
1,14,1748,0.267999999996391
1,15,1740,0.259999999994761
1,16,1745,0.277000000001863
1,17,1727,0.256999999997788
1,18,1728,0.264999999999418
1,19,1738,0.267999999996391
1,20,1743,0.260999999998603
1,21,1746,0.277000000001863
1,22,1745,0.260999999998603
1,23,1740,0.274000000004889
1,24,1746,0.25800000000163
1,25,1728,0.277999999991152
1,26,1740,0.260999999998603
1,27,1746,0.277000000001863
1,28,1743,0.260999999998603
1,29,1735,0.264999999999418
1,30,1735,0.267999999996391
2,1,1725,0.25800000000163
2,2,1734,0.278000000005704
2,3,1733,0.259999999994761
2,4,1740,0.26600000000326
2,5,1732,0.267000000007101
2,6,1739,0.260999999998603
2,7,1734,0.277000000001863
2,8,1732,0.25800000000163
2,9,1743,0.264999999999418
2,10,1733,0.267999999996391
2,11,1738,0.260999999998603
2,12,1748,0.278000000005704
2,13,1746,0.259999999994761
2,14,1732,0.274999999994179
2,15,1747,0.25800000000163
2,16,1729,0.278000000005704
2,17,1727,0.260999999998603
2,18,1725,0.278999999994994
2,19,1741,0.260999999998603
2,20,1728,0.264999999999418
2,21,1741,0.269000000000233
2,22,1730,0.25800000000163
2,23,1734,0.278000000005704
2,24,1737,0.260999999998603
2,25,1746,0.264999999999418
2,26,1738,0.267999999996391
2,27,1747,0.260999999998603
2,28,1731,0.278000000005704
2,29,1740,0.257999999987078
2,30,1733,0.264999999999418
3,1,1733,0.268000000010943
3,2,1732,0.261000000013155
3,3,1743,0.276999999987311
3,4,1717,0.261000000013155
3,5,1735,0.274000000004889
3,6,1721,0.25800000000163
3,7,1730,0.277000000001863
3,8,1732,0.260999999998603
3,9,1730,0.277999999991152
3,10,1726,0.260999999998603
3,11,1741,0.264000000010128
3,12,1742,0.267999999996391
3,13,1743,0.256999999997788
3,14,1744,0.277999999991152
3,15,1744,0.260000000009313
3,16,1741,0.264999999999418
3,17,1725,0.267000000007101
3,18,1731,0.260999999998603
3,19,1733,0.278000000005704
3,20,1738,0.25800000000163
3,21,1734,0.264999999999418
3,22,1727,0.267999999996391
3,23,1722,0.260999999998603
3,24,1733,0.277999999991152
3,25,1732,0.260000000009313
3,26,1736,0.273999999990338
3,27,1743,0.256999999997788
3,28,1739,0.278000000005704
3,29,1740,0.259999999994761
3,30,1736,0.278000000005704
4,1,1737,0.260999999998603
4,2,1737,0.264999999999418
4,3,1741,0.267999999996391
4,4,1741,0.25800000000163
4,5,1719,0.278000000005704
4,6,1745,0.260999999998603
4,7,1735,0.263999999995576
4,8,1728,0.269999999989523
4,9,1731,0.261000000013155
4,10,1728,0.277999999991152
4,11,1734,0.25800000000163
4,12,1746,0.26600000000326
4,13,1747,0.267999999996391
4,14,1736,0.260999999998603
4,15,1747,0.278000000005704
4,16,1733,0.260999999998603
4,17,1729,0.274999999994179
4,18,1724,0.25800000000163
4,19,1742,0.277000000001863
4,20,1739,0.260999999998603
4,21,1742,0.278000000005704
4,22,1730,0.260999999998603
4,23,1747,0.264999999999418
4,24,1745,0.267999999996391
4,25,1735,0.25800000000163
4,26,1736,0.278000000005704
4,27,1741,0.260999999998603
4,28,1733,0.264999999999418
4,29,1749,0.267999999996391
4,30,1738,0.260999999998603
5,1,1743,0.278000000005704
5,2,1739,0.25800000000163
5,3,1731,0.263999999995576
5,4,1744,0.267999999996391
5,5,1734,0.259999999994761
5,6,1734,0.278000000005704
5,7,1742,0.259999999994761
5,8,1738,0.274000000004889
5,9,1727,0.256999999997788
5,10,1738,0.278000000005704
5,11,1738,0.259999999994761
5,12,1735,0.278000000005704
5,13,1736,0.259999999994761
5,14,1747,0.264999999999418
5,15,1727,0.267999999996391
5,16,1737,0.25800000000163
5,17,1735,0.277000000001863
5,18,1735,0.259999999994761
5,19,1739,0.264999999999418
5,20,1746,0.267999999996391
5,21,1744,0.260999999998603
5,22,1743,0.278000000005704
5,23,1736,0.25800000000163
5,24,1733,0.264999999999418
5,25,1739,0.267999999996391
5,26,1736,0.260999999998603
5,27,1738,0.277000000001863
5,28,1739,0.260999999998603
5,29,1745,0.274000000004889
5,30,1726,0.25800000000163
6,1,1728,0.277999999991152
6,2,1734,0.261000000013155
6,3,1741,0.276999999987311
6,4,1720,0.261000000013155
6,5,1736,0.264999999999418
6,6,1723,0.267999999996391
6,7,1741,0.25800000000163
6,8,1728,0.277999999991152
6,9,1744,0.260999999998603
6,10,1717,0.264999999999418
6,11,1742,0.268000000010943
6,12,1739,0.260999999998603
6,13,1746,0.277000000001863
6,14,1738,0.25800000000163
6,15,1747,0.264999999999418
6,16,1734,0.267999999996391
6,17,1733,0.260999999998603
6,18,1741,0.278000000005704
6,19,1745,0.259999999994761
6,20,1744,0.274999999994179
6,21,1736,0.256999999997788
6,22,1741,0.278000000005704
6,23,1739,0.260999999998603
6,24,1738,0.277999999991152
6,25,1723,0.260000000009313
6,26,1733,0.26600000000326
6,27,1741,0.266999999992549
6,28,1730,0.256999999997788
6,29,1736,0.278000000005704
6,30,1741,0.259999999994761
7,1,1738,0.263999999995576
7,2,1740,0.269000000000233
7,3,1735,0.259999999994761
7,4,1737,0.278000000005704
7,5,1732,0.256999999997788
7,6,1735,0.264999999999418
7,7,1739,0.266999999992549
7,8,1731,0.260999999998603
7,9,1739,0.278000000005704
7,10,1737,0.260999999998603
7,11,1730,0.274000000004889
7,12,1743,0.25800000000163
7,13,1744,0.277999999991152
7,14,1742,0.260999999998603
7,15,1747,0.278000000005704
7,16,1734,0.260999999998603
7,17,1729,0.263999999995576
7,18,1734,0.269000000000233
7,19,1747,0.256999999997788
7,20,1744,0.277000000001863
7,21,1745,0.260999999998603
7,22,1737,0.264999999999418
7,23,1731,0.267999999996391
7,24,1733,0.260999999998603
7,25,1730,0.277000000001863
7,26,1731,0.259000000005472
7,27,1731,0.264000000010128
7,28,1742,0.269000000000233
7,29,1733,0.259999999994761
7,30,1733,0.278000000005704
8,1,1738,0.260999999998603
8,2,1748,0.274999999994179
8,3,1735,0.256999999997788
8,4,1741,0.279000000009546
8,5,1740,0.259999999994761
8,6,1741,0.278000000005704
8,7,1741,0.260000000009313
8,8,1737,0.264999999999418
8,9,1738,0.267999999996391
8,10,1734,0.25800000000163
8,11,1744,0.278000000005704
8,12,1738,0.260999999998603
8,13,1734,0.264999999999418
8,14,1742,0.269000000000233
8,15,1745,0.260999999998603
8,16,1741,0.277999999991152
8,17,1733,0.25800000000163
8,18,1734,0.264999999999418
8,19,1743,0.268000000010943
8,20,1738,0.260999999998603
8,21,1735,0.277999999991152
8,22,1733,0.260999999998603
8,23,1743,0.274000000004889
8,24,1737,0.25800000000163
8,25,1738,0.277999999991152
8,26,1735,0.261000000013155
8,27,1730,0.277999999991152
8,28,1746,0.260000000009313
8,29,1740,0.264000000010128
8,30,1741,0.269000000000233
9,1,1737,0.256999999997788
9,2,1739,0.277999999991152
9,3,1739,0.260999999998603
9,4,1731,0.264999999999418
9,5,1742,0.268000000010943
9,6,1735,0.260999999998603
9,7,1738,0.277999999991152
9,8,1726,0.25800000000163
9,9,1730,0.264000000010128
9,10,1718,0.268000000010943
9,11,1726,0.259999999994761
9,12,1743,0.278000000005704
9,13,1740,0.260999999998603
9,14,1748,0.274999999994179
9,15,1739,0.25800000000163
9,16,1725,0.278000000005704
9,17,1734,0.260999999998603
9,18,1725,0.277999999991152
9,19,1737,0.260999999998603
9,20,1740,0.264999999999418
9,21,1740,0.268000000010943
9,22,1733,0.25800000000163
9,23,1739,0.276999999987311
9,24,1721,0.260999999998603
9,25,1727,0.26500000001397
9,26,1733,0.267999999996391
9,27,1735,0.260999999998603
9,28,1726,0.277999999991152
9,29,1731,0.25700000001234
9,30,1728,0.264999999999418
10,1,1740,0.268000000010943
10,2,1734,0.260999999998603
10,3,1737,0.277000000001863
10,4,1740,0.260999999998603
10,5,1746,0.273999999990338
10,6,1743,0.25800000000163
10,7,1736,0.277000000001863
10,8,1739,0.260999999998603
10,9,1731,0.277000000001863
10,10,1746,0.260999999998603
10,11,1738,0.264999999999418
10,12,1733,0.267999999996391
10,13,1736,0.256999999997788
10,14,1748,0.278000000005704
10,15,1737,0.260999999998603
10,16,1740,0.264999999999418
10,17,1731,0.267999999996391
10,18,1725,0.260999999998603
10,19,1739,0.277000000001863
10,20,1744,0.256999999997788
10,21,1732,0.264999999999418
10,22,1746,0.268000000010943
10,23,1729,0.260999999998603
10,24,1737,0.277999999991152
10,25,1739,0.260000000009313
10,26,1736,0.274000000004889
10,27,1738,0.25800000000163
10,28,1736,0.277999999991152
10,29,1744,0.260000000009313
10,30,1734,0.277999999991152
11,1,1732,0.261000000013155
11,2,1723,0.264999999999418
11,3,1746,0.267999999996391
11,4,1708,0.25800000000163
11,5,1734,0.277000000001863
11,6,1725,0.260999999998603
11,7,1730,0.264999999999418
11,8,1717,0.267999999996391
11,9,1737,0.260999999998603
11,10,1734,0.278000000005704
11,11,1733,0.256999999997788
11,12,1741,0.264999999999418
11,13,1736,0.266999999992549
11,14,1733,0.260999999998603
11,15,1742,0.278000000005704
11,16,1728,0.260999999998603
11,17,1735,0.274000000004889
11,18,1725,0.25800000000163
11,19,1742,0.278000000005704
11,20,1737,0.260999999998603
11,21,1733,0.278000000005704
11,22,1725,0.260999999998603
11,23,1731,0.266999999992549
11,24,1734,0.267999999996391
11,25,1733,0.25800000000163
11,26,1730,0.278000000005704
11,27,1723,0.260999999998603
11,28,1724,0.265999999988708
11,29,1743,0.268000000010943
11,30,1733,0.260999999998603
12,1,1732,0.277999999991152
12,2,1742,0.25800000000163
12,3,1742,0.264999999999418
12,4,1741,0.267999999996391
12,5,1728,0.260999999998603
12,6,1737,0.278000000005704
12,7,1734,0.260999999998603
12,8,1737,0.275000000008731
12,9,1711,0.257999999987078
12,10,1740,0.278000000005704
12,11,1738,0.259999999994761
12,12,1746,0.278999999994994
12,13,1738,0.261000000013155
12,14,1747,0.264999999999418
12,15,1741,0.269999999989523
12,16,1740,0.25800000000163
12,17,1730,0.277000000001863
12,18,1734,0.262000000002445
12,19,1745,0.264999999999418
12,20,1738,0.267999999996391
12,21,1742,0.260999999998603
12,22,1735,0.278999999994994
12,23,1743,0.25800000000163
12,24,1734,0.264999999999418
12,25,1735,0.268000000010943
12,26,1734,0.261999999987893
12,27,1742,0.277000000001863
12,28,1745,0.259999999994761
12,29,1740,0.274000000004889
12,30,1742,0.25800000000163
13,1,1739,0.277999999991152
13,2,1743,0.260999999998603
13,3,1744,0.278000000005704
13,4,1728,0.262000000002445
13,5,1738,0.264999999999418
13,6,1726,0.267999999996391
13,7,1736,0.256999999997788
13,8,1722,0.278000000005704
13,9,1739,0.259999999994761
13,10,1726,0.264999999999418
13,11,1734,0.267999999996391
13,12,1734,0.260999999998603
13,13,1719,0.278000000005704
13,14,1744,0.25800000000163
13,15,1733,0.264999999999418
13,16,1741,0.267999999996391
13,17,1733,0.259999999994761
13,18,1732,0.277000000001863
13,19,1743,0.259999999994761
13,20,1739,0.275000000008731
13,21,1731,0.256999999997788
13,22,1735,0.277000000001863
13,23,1725,0.259999999994761
13,24,1736,0.278000000005704
13,25,1734,0.259999999994761
13,26,1717,0.26600000000326
13,27,1738,0.267999999996391
13,28,1738,0.25800000000163
13,29,1730,0.277000000001863
13,30,1738,0.260999999998603
14,1,1741,0.264999999999418
14,2,1742,0.268000000010943
14,3,1747,0.259999999994761
14,4,1740,0.278000000005704
14,5,1742,0.257999999987078
14,6,1736,0.264999999999418
14,7,1744,0.268000000010943
14,8,1739,0.260999999998603
14,9,1735,0.277000000001863
14,10,1747,0.260999999998603
14,11,1742,0.273999999990338
14,12,1734,0.256999999997788
14,13,1727,0.277000000001863
14,14,1744,0.260999999998603
14,15,1736,0.278000000005704
14,16,1733,0.259999999994761
14,17,1733,0.263999999995576
14,18,1739,0.267999999996391
14,19,1746,0.25800000000163
14,20,1747,0.278000000005704
14,21,1737,0.260999999998603
14,22,1737,0.264999999999418
14,23,1738,0.267999999996391
14,24,1737,0.260999999998603
14,25,1734,0.277000000001863
14,26,1737,0.256999999997788
14,27,1734,0.264999999999418
14,28,1741,0.267999999996391
14,29,1746,0.260999999998603
14,30,1746,0.278000000005704
15,1,1738,0.260999999998603
15,2,1742,0.275000000008731
15,3,1744,0.256999999997788
15,4,1731,0.277999999991152
15,5,1734,0.260999999998603
15,6,1733,0.278000000005704
15,7,1744,0.260999999998603
15,8,1743,0.264999999999418
15,9,1742,0.266999999992549
15,10,1738,0.256999999997788
15,11,1740,0.278000000005704
15,12,1742,0.260999999998603
15,13,1739,0.264999999999418
15,14,1748,0.267999999996391
15,15,1745,0.260999999998603
15,16,1742,0.278000000005704
15,17,1740,0.256999999997788
15,18,1733,0.264999999999418
15,19,1741,0.267999999996391
15,20,1747,0.260999999998603
15,21,1740,0.278000000005704
15,22,1738,0.260999999998603
15,23,1735,0.274000000004889
15,24,1742,0.25800000000163
15,25,1736,0.277000000001863
15,26,1742,0.260000000009313
15,27,1737,0.277999999991152
15,28,1746,0.260999999998603
15,29,1742,0.264999999999418
15,30,1743,0.268000000010943
16,1,1734,0.25800000000163
16,2,1744,0.276999999987311
16,3,1738,0.260000000009313
16,4,1741,0.264999999999418
16,5,1727,0.267000000007101
16,6,1745,0.259999999994761
16,7,1735,0.278000000005704
16,8,1737,0.257999999987078
16,9,1725,0.264999999999418
16,10,1736,0.268000000010943
16,11,1739,0.260999999998603
16,12,1744,0.277999999991152
16,13,1745,0.260000000009313
16,14,1749,0.274999999994179
16,15,1748,0.25800000000163
16,16,1743,0.278000000005704
16,17,1727,0.259999999994761
16,18,1717,0.278999999994994
16,19,1745,0.259999999994761
16,20,1733,0.26600000000326
16,21,1744,0.267000000007101
16,22,1742,0.25700000001234
16,23,1741,0.277999999991152
16,24,1744,0.260999999998603
16,25,1738,0.264999999999418
16,26,1743,0.268000000010943
16,27,1743,0.260999999998603
16,28,1741,0.277999999991152
16,29,1730,0.25800000000163
16,30,1735,0.264999999999418
17,1,1738,0.268000000010943
17,2,1742,0.260999999998603
17,3,1726,0.276999999987311
17,4,1746,0.261000000013155
17,5,1739,0.273999999990338
17,6,1746,0.25800000000163
17,7,1739,0.278000000005704
17,8,1736,0.260999999998603
17,9,1731,0.277000000001863
17,10,1738,0.260999999998603
17,11,1738,0.264999999999418
17,12,1749,0.267999999996391
17,13,1748,0.25800000000163
17,14,1747,0.278000000005704
17,15,1749,0.259999999994761
17,16,1737,0.264999999999418
17,17,1733,0.267999999996391
17,18,1729,0.260999999998603
17,19,1745,0.277000000001863
17,20,1741,0.256999999997788
17,21,1745,0.263999999995576
17,22,1741,0.267999999996391
17,23,1744,0.260999999998603
17,24,1737,0.278000000005704
17,25,1741,0.260999999998603
17,26,1744,0.274000000004889
17,27,1748,0.25800000000163
17,28,1744,0.277999999991152
17,29,1742,0.260000000009313
17,30,1738,0.278999999994994
18,1,1744,0.260999999998603
18,2,1718,0.264999999999418
18,3,1749,0.267999999996391
18,4,1722,0.25700000001234
18,5,1734,0.277000000001863
18,6,1729,0.260999999998603
18,7,1727,0.264000000010128
18,8,1736,0.268000000010943
18,9,1725,0.259999999994761
18,10,1733,0.278000000005704
18,11,1737,0.257999999987078
18,12,1735,0.264999999999418
18,13,1735,0.268000000010943
18,14,1746,0.260999999998603
18,15,1740,0.277000000001863
18,16,1729,0.260999999998603
18,17,1736,0.273999999990338
18,18,1736,0.25800000000163
18,19,1729,0.278000000005704
18,20,1728,0.259999999994761
18,21,1732,0.277000000001863
18,22,1732,0.260999999998603
18,23,1727,0.264999999999418
18,24,1716,0.267999999996391
18,25,1735,0.256999999997788
18,26,1740,0.278000000005704
18,27,1743,0.260999999998603
18,28,1739,0.264999999999418
18,29,1742,0.267999999996391
18,30,1729,0.260999999998603
19,1,1737,0.277000000001863
19,2,1737,0.25800000000163
19,3,1740,0.264999999999418
19,4,1729,0.267999999996391
19,5,1733,0.260999999998603
19,6,1732,0.278000000005704
19,7,1740,0.259999999994761
19,8,1726,0.275999999998021
19,9,1730,0.25800000000163
19,10,1735,0.278000000005704
19,11,1728,0.259999999994761
19,12,1744,0.278999999994994
19,13,1731,0.261000000013155
19,14,1740,0.264999999999418
19,15,1733,0.269000000000233
19,16,1717,0.257999999987078
19,17,1730,0.278000000005704
19,18,1722,0.260999999998603
19,19,1742,0.264999999999418
19,20,1734,0.267999999996391
19,21,1735,0.260000000009313
19,22,1731,0.276999999987311
19,23,1731,0.25800000000163
19,24,1728,0.264999999999418
19,25,1735,0.268000000010943
19,26,1732,0.259999999994761
19,27,1727,0.277999999991152
19,28,1725,0.260999999998603
19,29,1737,0.275000000008731
19,30,1717,0.256999999997788
20,1,1735,0.277000000001863
20,2,1743,0.260999999998603
20,3,1748,0.277999999991152
20,4,1733,0.260000000009313
20,5,1744,0.264000000010128
20,6,1740,0.267999999996391
20,7,1731,0.25800000000163
20,8,1744,0.277999999991152
20,9,1731,0.261000000013155
20,10,1745,0.264999999999418
20,11,1737,0.267999999996391
20,12,1739,0.260999999998603
20,13,1740,0.277000000001863
20,14,1738,0.25800000000163
20,15,1719,0.264999999999418
20,16,1732,0.267999999996391
20,17,1741,0.260999999998603
20,18,1738,0.277000000001863
20,19,1733,0.260000000009313
20,20,1741,0.273999999990338
20,21,1744,0.256999999997788
20,22,1723,0.278000000005704
20,23,1731,0.260999999998603
20,24,1728,0.278000000005704
20,25,1735,0.259999999994761
20,26,1745,0.264999999999418
20,27,1742,0.266999999992549
20,28,1732,0.256999999997788
20,29,1741,0.278000000005704
20,30,1739,0.260999999998603
21,1,1734,0.264999999999418
21,2,1731,0.269000000000233
21,3,1737,0.259999999994761
21,4,1735,0.278000000005704
21,5,1729,0.256999999997788
21,6,1728,0.263999999995576
21,7,1746,0.266999999992549
21,8,1698,0.259999999994761
21,9,1738,0.277000000001863
21,10,1714,0.260999999998603
21,11,1732,0.274000000004889
21,12,1746,0.25800000000163
21,13,1749,0.277999999991152
21,14,1747,0.260000000009313
21,15,1745,0.277000000001863
21,16,1732,0.260999999998603
21,17,1730,0.264999999999418
21,18,1711,0.268000000010943
21,19,1743,0.257999999987078
21,20,1732,0.278000000005704
21,21,1745,0.260999999998603
21,22,1742,0.264999999999418
21,23,1733,0.267999999996391
21,24,1739,0.261000000013155
21,25,1735,0.277999999991152
21,26,1739,0.256999999997788
21,27,1747,0.263999999995576
21,28,1728,0.269000000000233
21,29,1735,0.260000000009313
21,30,1726,0.277999999991152
22,1,1726,0.260999999998603
22,2,1729,0.275000000008731
22,3,1742,0.256999999997788
22,4,1737,0.277000000001863
22,5,1741,0.260999999998603
22,6,1736,0.277999999991152
22,7,1730,0.260999999998603
22,8,1737,0.264999999999418
22,9,1725,0.268000000010943
22,10,1745,0.25800000000163
22,11,1738,0.276999999987311
22,12,1745,0.261000000013155
22,13,1737,0.264999999999418
22,14,1744,0.267999999996391
22,15,1739,0.259999999994761
22,16,1736,0.277000000001863
22,17,1738,0.256999999997788
22,18,1725,0.265999999988708
22,19,1720,0.267000000007101
22,20,1723,0.260999999998603
22,21,1724,0.278000000005704
22,22,1717,0.259999999994761
22,23,1741,0.273999999990338
22,24,1734,0.25800000000163
22,25,1737,0.277000000001863
22,26,1742,0.260999999998603
22,27,1743,0.278000000005704
22,28,1735,0.260999999998603
22,29,1744,0.263999999995576
22,30,1738,0.267999999996391
23,1,1733,0.256999999997788
23,2,1734,0.277000000001863
23,3,1734,0.260999999998603
23,4,1738,0.264999999999418
23,5,1737,0.267999999996391
23,6,1742,0.260999999998603
23,7,1727,0.277000000001863
23,8,1741,0.25800000000163
23,9,1733,0.263999999995576
23,10,1737,0.269000000000233
23,11,1743,0.260000000009313
23,12,1746,0.277999999991152
23,13,1742,0.260999999998603
23,14,1746,0.274000000004889
23,15,1746,0.256999999997788
23,16,1730,0.278000000005704
23,17,1726,0.260999999998603
23,18,1723,0.277999999991152
23,19,1741,0.260999999998603
23,20,1721,0.264999999999418
23,21,1741,0.268000000010943
23,22,1729,0.257999999987078
23,23,1737,0.277000000001863
23,24,1738,0.260999999998603
23,25,1736,0.264999999999418
23,26,1745,0.268000000010943
23,27,1737,0.260000000009313
23,28,1739,0.277999999991152
23,29,1742,0.25800000000163
23,30,1739,0.264999999999418
24,1,1740,0.268000000010943
24,2,1739,0.260999999998603
24,3,1746,0.277000000001863
24,4,1743,0.260000000009313
24,5,1742,0.274999999994179
24,6,1742,0.25800000000163
24,7,1740,0.278000000005704
24,8,1743,0.260999999998603
24,9,1730,0.277000000001863
24,10,1744,0.260999999998603
24,11,1744,0.264999999999418
24,12,1738,0.267999999996391
24,13,1736,0.25800000000163
24,14,1746,0.277999999991152
24,15,1738,0.261000000013155
24,16,1743,0.265999999988708
24,17,1733,0.268000000010943
24,18,1734,0.260999999998603
24,19,1744,0.277000000001863
24,20,1745,0.257999999987078
24,21,1743,0.264999999999418
24,22,1740,0.268000000010943
24,23,1734,0.260999999998603
24,24,1737,0.277999999991152
24,25,1736,0.260000000009313
24,26,1729,0.274000000004889
24,27,1742,0.25800000000163
24,28,1737,0.278000000005704
24,29,1745,0.260999999998603
24,30,1739,0.277000000001863
25,1,1724,0.260000000009313
25,2,1742,0.264999999999418
25,3,1733,0.267000000007101
25,4,1743,0.25800000000163
25,5,1736,0.277000000001863
25,6,1737,0.260000000009313
25,7,1738,0.263999999995576
25,8,1738,0.267999999996391
25,9,1737,0.259999999994761
25,10,1726,0.278000000005704
25,11,1741,0.25800000000163
25,12,1742,0.264999999999418
25,13,1738,0.267999999996391
25,14,1743,0.260999999998603
25,15,1740,0.277000000001863
25,16,1738,0.259999999994761
25,17,1731,0.273999999990338
25,18,1738,0.25700000001234
25,19,1744,0.277999999991152
25,20,1740,0.260000000009313
25,21,1746,0.277000000001863
25,22,1731,0.260999999998603
25,23,1738,0.269000000000233
25,24,1744,0.268000000010943
25,25,1732,0.256999999997788
25,26,1741,0.279000000009546
25,27,1739,0.259999999994761
25,28,1744,0.264999999999418
25,29,1741,0.267999999996391
25,30,1729,0.260999999998603
26,1,1743,0.277000000001863
26,2,1736,0.256999999997788
26,3,1741,0.263999999995576
26,4,1736,0.266999999992549
26,5,1723,0.260999999998603
26,6,1740,0.279000000009546
26,7,1732,0.260999999998603
26,8,1734,0.274999999994179
26,9,1742,0.25800000000163
26,10,1733,0.278999999994994
26,11,1731,0.261000000013155
26,12,1742,0.277999999991152
26,13,1749,0.260999999998603
26,14,1740,0.26600000000326
26,15,1748,0.267999999996391
26,16,1737,0.25800000000163
26,17,1737,0.278000000005704
26,18,1744,0.260999999998603
26,19,1721,0.264999999999418
26,20,1720,0.267999999996391
26,21,1741,0.260999999998603
26,22,1736,0.278999999994994
26,23,1742,0.260000000009313
26,24,1748,0.264999999999418
26,25,1737,0.268000000010943
26,26,1742,0.260999999998603
26,27,1736,0.279999999998836
26,28,1745,0.260999999998603
26,29,1748,0.274999999994179
26,30,1740,0.25800000000163
27,1,1729,0.279000000009546
27,2,1744,0.260999999998603
27,3,1737,0.277999999991152
27,4,1744,0.260999999998603
27,5,1729,0.264999999999418
27,6,1743,0.269000000000233
27,7,1734,0.25800000000163
27,8,1733,0.278000000005704
27,9,1733,0.260999999998603
27,10,1733,0.26600000000326
27,11,1745,0.267999999996391
27,12,1747,0.260999999998603
27,13,1733,0.277999999991152
27,14,1749,0.25800000000163
27,15,1746,0.264999999999418
27,16,1742,0.269000000000233
27,17,1729,0.260999999998603
27,18,1726,0.279000000009546
27,19,1735,0.260999999998603
27,20,1731,0.274999999994179
27,21,1740,0.25800000000163
27,22,1738,0.278999999994994
27,23,1734,0.260999999998603
27,24,1743,0.278000000005704
27,25,1730,0.259999999994761
27,26,1734,0.264999999999418
27,27,1727,0.267999999996391
27,28,1745,0.25800000000163
27,29,1741,0.277999999991152
27,30,1735,0.260999999998603
28,1,1735,0.26500000001397
28,2,1732,0.268000000010943
28,3,1731,0.260999999998603
28,4,1737,0.277999999991152
28,5,1715,0.25800000000163
28,6,1745,0.26600000000326
28,7,1735,0.269000000000233
28,8,1736,0.260999999998603
28,9,1726,0.278000000005704
28,10,1722,0.260999999998603
28,11,1742,0.274999999994179
28,12,1742,0.25800000000163
28,13,1742,0.278999999994994
28,14,1735,0.260999999998603
28,15,1743,0.279000000009546
28,16,1727,0.260999999998603
28,17,1739,0.264999999999418
28,18,1734,0.267999999996391
28,19,1743,0.25800000000163
28,20,1733,0.277999999991152
28,21,1740,0.259999999994761
28,22,1743,0.26600000000326
28,23,1737,0.267999999996391
28,24,1740,0.261000000013155
28,25,1739,0.278999999994994
28,26,1740,0.25800000000163
28,27,1736,0.264999999999418
28,28,1741,0.269000000000233
28,29,1738,0.260999999998603
28,30,1734,0.278000000005704
29,1,1733,0.260999999998603
29,2,1727,0.275999999998021
29,3,1743,0.25800000000163
29,4,1733,0.277999999991152
29,5,1739,0.260999999998603
29,6,1732,0.279000000009546
29,7,1723,0.259999999994761
29,8,1745,0.26600000000326
29,9,1725,0.269000000000233
29,10,1742,0.25800000000163
29,11,1734,0.277999999991152
29,12,1744,0.260999999998603
29,13,1725,0.26600000000326
29,14,1737,0.267999999996391
29,15,1728,0.261000000013155
29,16,1719,0.278999999994994
29,17,1727,0.256999999997788
29,18,1737,0.264999999999418
29,19,1734,0.267999999996391
29,20,1734,0.262000000002445
29,21,1732,0.277999999991152
29,22,1727,0.261000000013155
29,23,1733,0.274999999994179
29,24,1729,0.25800000000163
29,25,1741,0.277999999991152
29,26,1738,0.261000000013155
29,27,1738,0.277999999991152
29,28,1729,0.260999999998603
29,29,1746,0.264999999999418
29,30,1728,0.267999999996391
30,1,1739,0.25800000000163
30,2,1729,0.278000000005704
30,3,1746,0.259999999994761
30,4,1731,0.26600000000326
30,5,1733,0.267999999996391
30,6,1731,0.260999999998603
30,7,1735,0.277000000001863
30,8,1743,0.25800000000163
30,9,1733,0.264999999999418
30,10,1742,0.268000000010943
30,11,1737,0.260999999998603
30,12,1736,0.278000000005704
30,13,1731,0.260999999998603
30,14,1739,0.274999999994179
30,15,1725,0.25800000000163
30,16,1709,0.279000000009546
30,17,1737,0.260999999998603
30,18,1738,0.277999999991152
30,19,1737,0.261000000013155
30,20,1731,0.265999999988708
30,21,1733,0.268000000010943
30,22,1735,0.257999999987078
30,23,1743,0.278000000005704
30,24,1728,0.262000000002445
30,25,1743,0.264999999999418
30,26,1734,0.267999999996391
30,27,1732,0.259999999994761
30,28,1723,0.279000000009546
30,29,1744,0.257999999987078
30,30,1731,0.26500000001397
