"Before.Version","After.Version","Diff","Direction","P.Value","Simple.Diff","Within.Diffs.Mean","Within.Diffs.SD","Between.Diffs.Mean","Between.Diffs.SD","Runtime"
"v1","v2",FALSE,NA,0,0.432,0.053,0.025,0.07,0.022,2.748
"v2","v3",FALSE,NA,0.765,-0.024,0.043,0.018,0.043,0.018,2.561
"v3","v4",TRUE,"NEGATIVE",0,0.956,0.043,0.017,0.12,0.051,2.639
