"Before.Version","After.Version","Diff","Direction","P.Value","Simple.Diff","Within.Diffs.Mean","Within.Diffs.SD","Between.Diffs.Mean","Between.Diffs.SD","Runtime"
"v1","v2",FALSE,NA,0,0.6,1738.575,7.336,1745.216,3.753,322.076
"v2","v3",FALSE,NA,1,-0.116,1737.391,8.288,1736.106,7.972,331.276
"v3","v4",FALSE,NA,0,0.747,1733.616,8.732,1743.971,4.327,331.525
