App - Minetest
Scenario - play_game
Length - 5sec
Measure - MinJumpCost
Before Version - 0.4.14
After Version - 0.4.15


"Before.Trace.ID1","Before.Trace.ID2","Difference","Runtime"
1,2,4415.75287140088,0.044000000001688
1,3,5964.98593494416,0.0289999999986321
1,4,4188.88569954416,0.0180000000000291
1,5,333507.055964429,0.0190000000002328
1,6,34214.0105563136,0.0139999999992142
1,7,54090.9948808064,0.0190000000002328
1,8,9.08454308194221,0.0600000000013097
1,9,1232.80620311542,0.022000000000844
1,10,2.07186923588811,0.0279999999984284
1,11,100428.70286692,0.0430000000014843
1,12,17418.8867673486,0.0419999999976426
1,13,12776.5221086477,0.0290000000022701
1,14,1280.06770130678,0.0339999999996508
1,15,27630.1747406493,0.0360000000000582
1,16,1031.09752331867,0.032999999999447
1,17,45332.2543835052,0.0210000000006403
1,18,4502.1114123791,0.0370000000002619
1,19,93514.3200979442,0.0360000000000582
1,20,24147.3549960246,0.0299999999988358
1,21,152.710242869246,0.0139999999992142
1,22,40176.6830804587,0.0360000000000582
1,23,31777.2276981497,0.0290000000022701
1,24,2643.97208234677,0.0319999999992433
1,25,9920.02256949079,0.0529999999998836
1,26,19223.0270748504,0.0289999999986321
1,27,25.0015627860274,0.0309999999990396
1,28,537.295607179076,0.0270000000018626
1,29,55827.2137748301,0.0449999999982538
1,30,13097.2865144878,0.0670000000027358
2,3,2.86116712031212,0.0669999999990978
2,4,29599.9240866704,0.0390000000006694
2,5,323013.835016122,0.0200000000004366
2,6,11763.5113777369,0.0139999999992142
2,7,41614.5068472142,0.0289999999986321
2,8,30.4467352705756,0.0529999999998836
2,9,771.98314822449,0.022000000000844
2,10,7626.92421737748,0.0900000000001455
2,11,11.536151238105,0.100999999998749
2,12,38591.7218033525,0.0499999999992724
2,13,5165.49849735328,0.0430000000014843
2,14,4366.3627096251,0.0600000000013097
2,15,5934.74203618451,0.111999999997352
2,16,729.346661959253,0.0510000000031141
2,17,22045.2794935145,0.0249999999978172
2,18,96.3503777484289,0.147000000000844
2,19,3071.14315170044,0.129000000000815
2,20,1846.26567170373,0.0319999999992433
2,21,2565.19057934753,0.022000000000844
2,22,18446.9551797441,0.0989999999983411
2,23,20095.8499947723,0.0560000000004948
2,24,13969.4739919627,0.0709999999999127
2,25,76.5298345980006,0.0720000000001164
2,26,11529.5990282585,0.0469999999986612
2,27,12483.3151589474,0.0800000000017462
2,28,1349.99423119291,0.0519999999996799
2,29,475.097831919871,0.221999999997934
2,30,110.02991587878,0.0450000000018917
3,4,6548.37729061572,0.0529999999998836
3,5,410662.320852472,0.0190000000002328
3,6,9564.66700073347,0.0149999999994179
3,7,46599.2750646939,0.022000000000844
3,8,8267.4062248759,0.0399999999972351
3,9,24.6388720615303,0.0150000000030559
3,10,10402.1747465351,0.0459999999984575
3,11,2226.53945181216,0.0499999999992724
3,12,23776.3167653013,0.069999999999709
3,13,13.3659875581697,0.0290000000022701
3,14,202.845813623782,0.102999999999156
3,15,20806.3485110274,0.0560000000004948
3,16,35.9073771857955,0.0360000000000582
3,17,26981.0245815122,0.0309999999990396
3,18,562.865148923959,0.092000000000553
3,19,2757.54739044906,0.0519999999996799
3,20,14997.5391797012,0.0319999999992433
3,21,774.335340907552,0.0260000000016589
3,22,69.3716326367572,0.0669999999990978
3,23,13702.6626593321,0.077000000001135
3,24,4098.40502957063,0.0389999999970314
3,25,437.664025303376,0.0280000000020664
3,26,17712.1199058529,0.0529999999998836
3,27,6361.11609135322,0.0429999999978463
3,28,1155.61350014834,0.105000000003201
3,29,6540.7841118682,0.0669999999990978
3,30,3484.3257733184,0.0319999999992433
4,5,35554.6062703993,0.0119999999988067
4,6,1843.11497481387,0.0169999999998254
4,7,19687.4252524398,0.0200000000004366
4,8,6931.84118729401,0.0250000000014552
4,9,1886.20647501308,0.0249999999978172
4,10,388.12363717519,0.0210000000006403
4,11,201.84692404529,0.0280000000020664
4,12,17284.4807706535,0.0200000000004366
4,13,10794.9546388437,0.0249999999978172
4,14,1528.78151588065,0.032999999999447
4,15,487.841286572195,0.0169999999998254
4,16,160.703873306892,0.0210000000006403
4,17,20949.2655083004,0.0360000000000582
4,18,9562.38283524755,0.044000000001688
4,19,310.873172159196,0.032999999999447
4,20,1511.07792266926,0.0639999999984866
4,21,3911.49769948572,0.0349999999998545
4,22,19306.6089807156,0.0190000000002328
4,23,1034.56860469818,0.0319999999992433
4,24,1063.13244969509,0.0160000000032596
4,25,3022.51317042213,0.0150000000030559
4,26,4570.74243038694,0.021999999997206
4,27,205.698168035984,0.0120000000024447
4,28,1043.13429238659,0.0210000000006403
4,29,5683.94166290914,0.0209999999970023
4,30,4432.63631234945,0.0180000000000291
5,6,181517.476048494,0.0140000000028522
5,7,566783.192719395,0.021999999997206
5,8,1254857.97882641,0.0240000000012515
5,9,42201.0203688698,0.0139999999992142
5,10,584306.795538236,0.0200000000004366
5,11,535545.893900274,0.022000000000844
5,12,497488.304328762,0.022000000000844
5,13,325748.229295639,0.021999999997206
5,14,283301.364708287,0.0200000000004366
5,15,1463296.78261414,0.0270000000018626
5,16,244294.47259088,0.021999999997206
5,17,508747.769819434,0.022000000000844
5,18,328160.48090359,0.0200000000004366
5,19,510449.560782661,0.022000000000844
5,20,489034.525155437,0.022000000000844
5,21,66798.8167109674,0.0119999999988067
5,22,520928.67129232,0.022000000000844
5,23,448272.224198074,0.021999999997206
5,24,322567.145965945,0.0200000000004366
5,25,356152.156432819,0.022000000000844
5,26,415085.893204971,0.022000000000844
5,27,364015.229853866,0.0190000000002328
5,28,312718.170875942,0.021999999997206
5,29,484328.282981434,0.022000000000844
5,30,385824.554903443,0.0200000000004366
6,7,53.0978216572052,0.022000000000844
6,8,13748.3256205355,0.0139999999992142
6,9,2593.58884683606,0.0119999999988067
6,10,27170.2441867479,0.0180000000000291
6,11,23692.8511962466,0.0150000000030559
6,12,4035.95041847821,0.0149999999994179
6,13,2942.60908728492,0.010999999998603
6,14,9316.35283162695,0.0159999999996217
6,15,26180.7507289825,0.0180000000000291
6,16,11988.4725371784,0.0120000000024447
6,17,17846.8380711362,0.0259999999980209
6,18,14052.1502381583,0.0139999999992142
6,19,13549.9851305109,0.0120000000024447
6,20,960.57454836984,0.0149999999994179
6,21,4.40375042176458,0.010999999998603
6,22,5761.97990251463,0.0119999999988067
6,23,1437.05872816197,0.0140000000028522
6,24,29695.3028095864,0.0129999999990105
6,25,5919.55628765358,0.0139999999992142
6,26,3118.2202611129,0.0119999999988067
6,27,23734.3974598047,0.0180000000000291
6,28,11488.0680658744,0.0150000000030559
6,29,7353.63059139444,0.0149999999994179
6,30,42557.8687132347,0.0159999999996217
7,8,66257.8247547508,0.0289999999986321
7,9,22996.1007716195,0.032999999999447
7,10,62634.9627535356,0.0320000000028813
7,11,2544.5886200201,0.0289999999986321
7,12,7759.94291405408,0.0319999999992433
7,13,25838.9640334726,0.0430000000014843
7,14,45288.5690719587,0.022000000000844
7,15,12757.5673170495,0.0279999999984284
7,16,53107.0182742039,0.0250000000014552
7,17,7.48564333323089,0.107999999996537
7,18,58840.8901434607,0.0280000000020664
7,19,1202.33922046611,0.0259999999980209
7,20,14270.6408426332,0.0450000000018917
7,21,3669.65030021966,0.0529999999998836
7,22,8858.60794501025,0.0410000000010768
7,23,4863.37638187912,0.0279999999984284
7,24,100591.273979614,0.0289999999986321
7,25,40880.5014612445,0.0290000000022701
7,26,25677.5366841334,0.0400000000008731
7,27,62611.2063380364,0.0209999999970023
7,28,51662.4678106646,0.0250000000014552
7,29,108.975615615659,0.0289999999986321
7,30,38034.8362703282,0.0300000000024738
8,9,16936.3828373885,0.0149999999994179
8,10,75727.0417909328,0.0829999999987194
8,11,23387.7651098766,0.0709999999999127
8,12,28081.30276958,0.0450000000018917
8,13,11414.2941752026,0.0339999999996508
8,14,34739.4840433628,0.032999999999447
8,15,6135.75698391941,0.0669999999990978
8,16,31446.9196126194,0.032999999999447
8,17,32614.970707136,0.0339999999996508
8,18,2888.30662819702,0.0420000000012806
8,19,9385.12747206403,0.0709999999999127
8,20,5047.21101476528,0.032999999999447
8,21,10808.1975037218,0.0380000000004657
8,22,38257.6300682292,0.0380000000004657
8,23,7307.00345325667,0.0289999999986321
8,24,2267.54176604368,0.0430000000014843
8,25,35.4698759734912,0.0930000000007567
8,26,19248.0707344706,0.032999999999447
8,27,20655.0518751153,0.0529999999998836
8,28,33947.353623899,0.0319999999992433
8,29,36.7547931436119,0.0519999999996799
8,30,40.4953268375157,0.17699999999968
9,10,5183.8027334609,0.0339999999996508
9,11,3731.92255043005,0.0250000000014552
9,12,16034.2816574917,0.0260000000016589
9,13,88.8346642473914,0.0209999999970023
9,14,13.5858304621277,0.0250000000014552
9,15,4756.76554815566,0.0250000000014552
9,16,277.43978280721,0.0299999999988358
9,17,24468.6192848597,0.0210000000006403
9,18,599.748243916357,0.0190000000002328
9,19,4162.02718492294,0.0339999999996508
9,20,3608.32201568627,0.0210000000006403
9,21,260.957564589704,0.0180000000000291
9,22,10221.4360062599,0.0360000000000582
9,23,79.1617694375592,0.0189999999965949
9,24,1.36064586996486,0.0140000000028522
9,25,10375.371413487,0.0190000000002328
9,26,6763.53566050774,0.0209999999970023
9,27,1.16677072555801,0.0140000000028522
9,28,3.60547279636913,0.0190000000002328
9,29,1495.26848283848,0.0139999999992142
9,30,8678.00501058336,0.0149999999994179
10,11,2143.54416090031,0.43500000000131
10,12,2746.47341714187,0.0629999999982829
10,13,27572.8362152638,0.0459999999984575
10,14,12369.5249033754,0.0280000000020664
10,15,2440.49730044597,0.409999999999854
10,16,8349.01761217735,0.0289999999986321
10,17,809.624057529049,0.0280000000020664
10,18,6388.63307965931,0.0529999999998836
10,19,324.114060322342,0.260999999998603
10,20,14222.4631247214,0.0360000000000582
10,21,2054.22215432219,0.0260000000016589
10,22,213.963927307593,0.058999999997468
10,23,459.067540578435,0.0450000000018917
10,24,13939.2731357056,0.27100000000064
10,25,29.5524058833869,0.152999999998428
10,26,2793.7936972923,0.0390000000006694
10,27,1733.83225785065,0.153999999998632
10,28,9683.72126308981,0.0280000000020664
10,29,274.922320722567,0.120999999999185
10,30,61292.711590777,0.0900000000001455
11,12,715.673898194692,0.058999999997468
11,13,22677.903465141,0.033000000003085
11,14,1509.25165895636,0.0379999999968277
11,15,1874.51907479091,0.43500000000131
11,16,5782.86308826913,0.0360000000000582
11,17,1251.68671883565,0.0360000000000582
11,18,7994.10777772281,0.0529999999998836
11,19,325.078845001952,0.379000000000815
11,20,20702.5643017202,0.0419999999976426
11,21,7048.0372466879,0.0210000000006403
11,22,31.4693703533043,0.0600000000013097
11,23,7388.79868408814,0.0469999999986612
11,24,59.1127488419491,0.132000000001426
11,25,27686.2813450334,0.130000000001019
11,26,28.1659005080662,0.0449999999982538
11,27,22494.3911194064,0.31499999999869
11,28,6915.84856587,0.0380000000004657
11,29,29.1825596606679,0.150000000001455
11,30,65158.5282711567,0.0689999999995052
12,13,642.653639639559,0.0600000000013097
12,14,32719.5236712725,0.0360000000000582
12,15,2.14504902000705,0.0429999999978463
12,16,50567.6496163423,0.0210000000006403
12,17,741.36689325312,0.0410000000010768
12,18,41985.0539988221,0.0449999999982538
12,19,11.4903395261939,0.0659999999988941
12,20,168.247215439237,0.0430000000014843
12,21,31.9881562523815,0.0349999999998545
12,22,1561.27396572996,0.226999999998952
12,23,287.082560044995,0.171000000002095
12,24,30120.0404337941,0.0529999999998836
12,25,26315.8460110354,0.0459999999984575
12,26,2279.44421951716,0.092000000000553
12,27,65435.7068190864,0.0839999999989232
12,28,37894.4945145474,0.044000000001688
12,29,939.338630552891,0.0760000000009313
12,30,29802.9027723171,0.0419999999976426
13,14,4923.59970834616,0.0360000000000582
13,15,12677.0712448842,0.0470000000022992
13,16,7784.69831770213,0.0279999999984284
13,17,25919.8551886804,0.0289999999986321
13,18,4081.80564473703,0.0320000000028813
13,19,1041.98573811757,0.0389999999970314
13,20,65.1057947162383,0.0169999999998254
13,21,33.532562423118,0.0240000000012515
13,22,1691.1161655277,0.0420000000012806
13,23,2150.02928861732,0.0279999999984284
13,24,3588.50237854242,0.0260000000016589
13,25,8562.5602981709,0.0279999999984284
13,26,50.3569830292691,0.0910000000003492
13,27,9778.90699560321,0.032999999999447
13,28,7225.51647191167,0.0360000000000582
13,29,40.1251350966303,0.0289999999986321
13,30,2731.08276617087,0.0280000000020664
14,15,2597.58603344193,0.0289999999986321
14,16,37.2766859913161,0.0360000000000582
14,17,47994.0922713055,0.0250000000014552
14,18,51.4070649773494,0.0639999999984866
14,19,11281.0279501119,0.0280000000020664
14,20,14672.3021480889,0.0209999999970023
14,21,704.850565765666,0.0200000000004366
14,22,40420.4381827785,0.0560000000004948
14,23,11777.9339226076,0.069999999999709
14,24,6535.27354662042,0.0320000000028813
14,25,313.808842864542,0.0360000000000582
14,26,15501.8989370591,0.0559999999968568
14,27,16.2739366308623,0.0300000000024738
14,28,0.532479253044635,0.0370000000002619
14,29,7595.69752489231,0.0360000000000582
14,30,2368.51318591664,0.0360000000000582
15,16,7657.23815718127,0.0279999999984284
15,17,11160.5415683519,0.0760000000009313
15,18,438.322987208793,0.0499999999992724
15,19,5424.84500788114,0.287000000000262
15,20,5886.42971639238,0.0319999999992433
15,21,8433.19603027163,0.0180000000000291
15,22,12591.3178831381,0.0600000000013097
15,23,1517.32209986191,0.0429999999978463
15,24,28520.5524698555,0.11200000000099
15,25,65.4119605081061,0.14600000000064
15,26,8095.55915495956,0.0319999999992433
15,27,506.965578518776,0.200000000000728
15,28,8943.66047241819,0.0419999999976426
15,29,3229.17585400448,0.13300000000163
15,30,7362.97580758958,0.0910000000003492
16,17,56163.4874123603,0.0249999999978172
16,18,477.744578233255,0.044000000001688
16,19,6580.22229786016,0.0279999999984284
16,20,19308.8594578257,0.0290000000022701
16,21,1561.80269761184,0.022000000000844
16,22,57729.799803671,0.0289999999986321
16,23,83.9894206307427,0.0250000000014552
16,24,3.17779047622145,0.0279999999984284
16,25,2833.94836377128,0.0279999999984284
16,26,23728.8563789735,0.0190000000002328
16,27,25.5773919187506,0.0420000000012806
16,28,4.0970957976038,0.0600000000013097
16,29,1828.62699096439,0.0360000000000582
16,30,6686.0328448832,0.0360000000000582
17,18,47429.3866868469,0.0249999999978172
17,19,1120.12350316602,0.0290000000022701
17,20,1.62646626705773,0.0289999999986321
17,21,8269.05256143904,0.0190000000002328
17,22,4002.26933743232,0.0319999999992433
17,23,27869.5458449392,0.0319999999992433
17,24,38091.5815709073,0.0230000000010477
17,25,33528.175174409,0.0289999999986321
17,26,20465.5031382055,0.032999999999447
17,27,89035.6296514568,0.0320000000028813
17,28,54655.6157320086,0.0249999999978172
17,29,3320.9503871649,0.0290000000022701
17,30,14155.6059210804,0.0279999999984284
18,19,2397.95692240833,0.0679999999993015
18,20,6756.95122253073,0.0290000000022701
18,21,15.8078569160934,0.0129999999990105
18,22,30232.3109230745,0.0599999999976717
18,23,20681.3741722134,0.0600000000013097
18,24,4356.06388941284,0.0869999999995343
18,25,4943.37676123974,0.047999999998865
18,26,3627.03425104667,0.0390000000006694
18,27,2127.76934383147,0.0519999999996799
18,28,6.19326670624607,0.0590000000011059
18,29,3119.29755068519,0.0760000000009313
18,30,79.2131414006833,0.0519999999996799
19,20,6196.41250997537,0.04399999999805
19,21,7634.72281751708,0.0159999999996217
19,22,49206.0651810419,0.0630000000019209
19,23,2676.36492797154,0.047999999998865
19,24,24.2213437687326,0.0800000000017462
19,25,28371.6213907697,0.132999999997992
19,26,285.128259011955,0.0420000000012806
19,27,29036.5050200724,0.247999999999593
19,28,6955.00213445111,0.0429999999978463
19,29,94.936056283677,0.170000000001892
19,30,36366.1880485703,0.0829999999987194
20,21,170.140587089716,0.032999999999447
20,22,4194.31049560504,0.0280000000020664
20,23,3.82824345316963,0.0319999999992433
20,24,16850.1704114611,0.0230000000010477
20,25,387.005821793712,0.0289999999986321
20,26,910.039709175905,0.0489999999990687
20,27,16909.3216784334,0.0250000000014552
20,28,18432.3336246136,0.0190000000002328
20,29,778.450225412597,0.0380000000004657
20,30,16175.4079398791,0.032999999999447
21,22,35.229834494152,0.0250000000014552
21,23,153.54987974494,0.0190000000002328
21,24,10475.7306825369,0.0180000000000291
21,25,41.3428732550398,0.0189999999965949
21,26,115.539616426502,0.0339999999996508
21,27,7070.70538839068,0.0150000000030559
21,28,1384.59687511412,0.0229999999974098
21,29,3786.16577997682,0.0210000000006403
21,30,17988.2775066037,0.0149999999994179
22,23,143.112108100158,0.187000000001717
22,24,84255.7252876738,0.0459999999984575
22,25,36120.2353172775,0.0570000000006985
22,26,1977.33387056524,0.0740000000005239
22,27,67862.6776328777,0.0449999999982538
22,28,50.0236369379751,0.0150000000030559
22,29,2045.31015451985,0.0769999999974971
22,30,86677.0227601883,0.0430000000014843
23,24,20175.1637423766,0.0390000000006694
23,25,19479.5643767844,0.0559999999968568
23,26,157.133728292616,0.0830000000023574
23,27,30323.246500805,0.0489999999990687
23,28,18734.9840546854,0.0400000000008731
23,29,6.96804567268071,0.0429999999978463
23,30,43655.5371034262,0.0410000000010768
24,25,3106.89342363482,0.14600000000064
24,26,13568.117707436,0.032999999999447
24,27,804.578225731127,0.0950000000011642
24,28,567.78565203431,0.0279999999984284
24,29,68.3691512962382,0.0499999999992724
24,30,97.1251003873142,0.0600000000013097
25,26,6201.50124764923,0.0400000000008731
25,27,2645.01219574324,0.0669999999990978
25,28,2696.7304160535,0.0400000000008731
25,29,11241.0786252008,0.0869999999995343
25,30,3103.66920050936,0.121999999999389
26,27,0.0258166457855528,0.0180000000000291
26,28,21673.4204319887,0.0319999999992433
26,29,1678.10318087692,0.0470000000022992
26,30,374.286599408843,0.0289999999986321
27,28,181.855016064547,0.0420000000012806
27,29,46.8998511245343,0.0979999999981374
27,30,2856.46343821243,0.108000000000175
28,29,2502.30153541847,0.0519999999996799
28,30,4287.59492400166,0.032999999999447
29,30,18765.5013009031,0.055000000000291


"After.Trace.ID","Before.Trace.ID","Difference","Runtime"
1,1,34638.9584063447,0.0289999999986321
1,2,1805.9438096512,0.0289999999986321
1,3,8127.4907677598,0.0380000000004657
1,4,226.835079271973,0.022000000000844
1,5,499709.646640616,0.022000000000844
1,6,2101.31320502839,0.0129999999990105
1,7,21130.0009313247,0.0190000000002328
1,8,17041.4522957999,0.0279999999984284
1,9,272.264120207185,0.0460000000020955
1,10,13935.7759902198,0.0390000000006694
1,11,11417.239233781,0.0319999999992433
1,12,1734.89825897442,0.0529999999998836
1,13,102.113808060504,0.0429999999978463
1,14,6790.90299156198,0.0280000000020664
1,15,27115.4949060354,0.0319999999992433
1,16,11051.8466330866,0.0240000000012515
1,17,22461.2574919501,0.0279999999984284
1,18,13806.6370562902,0.0360000000000582
1,19,7607.16415536429,0.0349999999998545
1,20,7.38307679416852,0.0410000000010768
1,21,2416.14463183072,0.0360000000000582
1,22,214.619973089456,0.0429999999978463
1,23,1256.20066657943,0.0280000000020664
1,24,37322.7114363387,0.0319999999992433
1,25,25307.1693034015,0.0319999999992433
1,26,330.966200690182,0.069999999999709
1,27,20582.028036075,0.0380000000004657
1,28,10385.262121128,0.0250000000014552
1,29,10472.8286014251,0.0319999999992433
1,30,17990.1141785575,0.0319999999992433
2,1,92820.4326244318,0.0730000000003201
2,2,2327.78267434061,0.0599999999976717
2,3,29.8473528412368,0.0380000000004657
2,4,1408.8282738203,0.0180000000000291
2,5,558608.425020681,0.022000000000844
2,6,31418.2361419132,0.0169999999998254
2,7,559.80830704814,0.0260000000016589
2,8,28033.9917099628,0.129999999997381
2,9,7126.15231837456,0.0339999999996508
2,10,1040.58048554401,0.179000000000087
2,11,2014.25985231352,0.141999999999825
2,12,10503.9433914845,0.0460000000020955
2,13,34955.4378970294,0.04399999999805
2,14,20453.6551552568,0.0390000000006694
2,15,28.3369628835107,0.129000000000815
2,16,12624.3645657209,0.0279999999984284
2,17,863.262953142552,0.0290000000022701
2,18,3.82748606440529,0.0360000000000582
2,19,53.2261901621286,0.11699999999837
2,20,4.21152671007108,0.0290000000022701
2,21,11508.9268081471,0.0249999999978172
2,22,29724.1893251505,0.0460000000020955
2,23,40768.1738565604,0.047999999998865
2,24,7537.33971974828,0.092000000000553
2,25,533.065156544045,0.221999999997934
2,26,8379.36987034651,0.0349999999998545
2,27,8405.82352738459,0.0670000000027358
2,28,13690.4693761341,0.0279999999984284
2,29,1145.11605595661,0.0780000000013388
2,30,32894.7634740516,0.146999999997206
3,1,0.998799539063594,0.0169999999998254
3,2,28266.8875205455,0.033000000003085
3,3,23835.5818169776,0.0249999999978172
3,4,36.119325136064,0.0149999999994179
3,5,104522.73917256,0.0180000000000291
3,6,47.2783895322173,0.0159999999996217
3,7,5137.35707221494,0.069999999999709
3,8,44047.8169691078,0.0460000000020955
3,9,16.464201008087,0.0180000000000291
3,10,157.68454321156,0.0319999999992433
3,11,2183.88972241082,0.0289999999986321
3,12,6084.01718588175,0.0360000000000582
3,13,8469.2700266931,0.0290000000022701
3,14,22956.7045677788,0.0639999999984866
3,15,5746.95974486414,0.0300000000024738
3,16,28807.2363631168,0.0259999999980209
3,17,2466.88642661526,0.0590000000011059
3,18,61.4727715208476,0.0180000000000291
3,19,0.972132196094964,0.0210000000006403
3,20,820.195757908231,0.0279999999984284
3,21,50.1056538724805,0.0210000000006403
3,22,2948.48501191214,0.0319999999992433
3,23,2155.88917775407,0.0319999999992433
3,24,54948.3477651111,0.0250000000014552
3,25,20311.6100023183,0.0269999999982247
3,26,1.99132776984883,0.0210000000006403
3,27,83.6878182322157,0.0200000000004366
3,28,27714.8871058423,0.0249999999978172
3,29,1702.40170772648,0.0180000000000291
3,30,13012.5394989185,0.0340000000032887
4,1,79392.4586224437,0.0279999999984284
4,2,41677.8736892364,0.0519999999996799
4,3,1.02414190232989,0.0289999999986321
4,4,9794.375324282,0.0320000000028813
4,5,546321.442476821,0.021999999997206
4,6,4278.86387248441,0.011000000002241
4,7,5795.18022713194,0.0319999999992433
4,8,86495.6321947148,0.0459999999984575
4,9,19893.6357099591,0.0200000000004366
4,10,46.5999161932355,0.0450000000018917
4,11,4387.41892565287,0.0489999999990687
4,12,1140.61228212355,0.290000000000873
4,13,761.620729036758,0.0360000000000582
4,14,14093.9218801181,0.0730000000003201
4,15,4904.54233050038,0.0429999999978463
4,16,38239.4587480969,0.0450000000018917
4,17,542.794260371267,0.0399999999972351
4,18,40021.8698893767,0.044000000001688
4,19,4.90087310388899,0.0519999999996799
4,20,3590.31715071907,0.0280000000020664
4,21,60.1698825635899,0.0180000000000291
4,22,344.204746802262,0.171999999998661
4,23,70.0114079235205,0.190999999998894
4,24,80736.7020386311,0.0430000000014843
4,25,37287.1707988476,0.0519999999996799
4,26,712.085043377289,0.109000000000378
4,27,64295.7980792344,0.0360000000000582
4,28,47338.5577401071,0.0190000000002328
4,29,5021.03832696497,0.069999999999709
4,30,33830.8158242375,0.0349999999998545
5,1,63750.0746445796,0.0370000000002619
5,2,101.084217412804,0.19800000000032
5,3,580.791885663342,0.0430000000014843
5,4,0.483291423535489,0.0279999999984284
5,5,490445.097757457,0.0250000000014552
5,6,19327.2130661053,0.0169999999998254
5,7,4098.78326560076,0.044000000001688
5,8,2110.89746348062,0.0429999999978463
5,9,2133.23782936511,0.0240000000012515
5,10,2170.06938346863,0.114999999997963
5,11,169.339113580591,0.14600000000064
5,12,44.3494597136442,0.0630000000019209
5,13,34.9871898129661,0.0319999999992433
5,14,5885.03064358152,0.0400000000008731
5,15,6302.92837397688,0.138999999999214
5,16,2576.1536766821,0.0429999999978463
5,17,8255.67660633327,0.033000000003085
5,18,1487.58137534279,0.0879999999997381
5,19,22.914072679601,0.164000000000669
5,20,2043.29013200733,0.0319999999992433
5,21,4767.91816668536,0.0249999999978172
5,22,16404.4806108094,0.0830000000023574
5,23,1251.56800656691,0.0449999999982538
5,24,19647.8805574015,0.127000000000407
5,25,2153.81724920929,0.0800000000017462
5,26,8.97770121380734,0.0389999999970314
5,27,8374.44501448873,0.118000000002212
5,28,630.102418702413,0.0429999999978463
5,29,76.7736726938994,0.205000000001746
5,30,17325.6717868986,0.0590000000011059
6,1,62280.9820598519,0.0279999999984284
6,2,25568.7744595207,0.0459999999984575
6,3,20513.0339755906,0.0540000000000873
6,4,8969.45862042682,0.022000000000844
6,5,560581.497467782,0.022000000000844
6,6,4046.23198311422,0.0119999999988067
6,7,13195.5862666884,0.0360000000000582
6,8,12746.1139931854,0.0280000000020664
6,9,9452.61542319954,0.0319999999992433
6,10,5306.5589289407,0.0489999999990687
6,11,138.93459386371,0.0529999999998836
6,12,1035.50839884173,0.18500000000131
6,13,6.19583802652089,0.0879999999997381
6,14,21146.8649927549,0.0390000000006694
6,15,6889.65633045439,0.0489999999990687
6,16,29064.3496801137,0.0289999999986321
6,17,119.356824693609,0.0280000000020664
6,18,30886.2280715546,0.0419999999976426
6,19,1469.02255297758,0.0480000000025029
6,20,303.520998223346,0.0629999999982829
6,21,41.9177761292157,0.0319999999992433
6,22,29.0757032115513,0.121999999999389
6,23,117.217000754109,0.14600000000064
6,24,70533.1554869507,0.0430000000014843
6,25,19021.3946859728,0.047999999998865
6,26,199.542374578421,0.148000000001048
6,27,55513.5074215556,0.0349999999998545
6,28,26680.356754536,0.0489999999990687
6,29,9312.91064268265,0.055000000000291
6,30,22673.063422868,0.0279999999984284
7,1,102.467627424423,0.108000000000175
7,2,18262.1087287657,0.0470000000022992
7,3,3012.72511547198,0.0389999999970314
7,4,9542.6373178912,0.0190000000002328
7,5,464781.208598688,0.022000000000844
7,6,56360.6413696764,0.0319999999992433
7,7,170159.308658631,0.0610000000015134
7,8,247.32424415136,0.164000000000669
7,9,20900.0808907304,0.0259999999980209
7,10,107023.499170941,0.0720000000001164
7,11,17100.0353726327,0.0869999999995343
7,12,169252.491004149,0.0650000000023283
7,13,15199.3005986824,0.0319999999992433
7,14,436.100978777619,0.0349999999998545
7,15,8.73079467320794,0.0669999999990978
7,16,10677.3834303573,0.0319999999992433
7,17,176640.739251971,0.0360000000000582
7,18,5693.96990883408,0.0319999999992433
7,19,20657.1191118034,0.0680000000029395
7,20,103876.899441467,0.0469999999986612
7,21,12088.6655500322,0.0169999999998254
7,22,10575.0934833897,0.0400000000008731
7,23,7211.3251592418,0.0319999999992433
7,24,16964.2439948039,0.0519999999996799
7,25,20.129779130396,0.0869999999995343
7,26,54746.3742300735,0.0319999999992433
7,27,657.579103917948,0.0390000000006694
7,28,7616.21561693196,0.0319999999992433
7,29,4050.83603542507,0.0650000000023283
7,30,9.88532106840537,0.129000000000815
8,1,6158.42517661582,0.0289999999986321
8,2,1.70669905833477,0.0600000000013097
8,3,56.196565620902,0.0389999999970314
8,4,0.620397850254349,0.0120000000024447
8,5,441330.796250103,0.021999999997206
8,6,19741.7090884014,0.0120000000024447
8,7,74883.8945012383,0.0339999999996508
8,8,21188.6681054587,0.0349999999998545
8,9,1391.34159016857,0.0149999999994179
8,10,5613.934341067,0.0689999999995052
8,11,3361.83933228046,0.0980000000017753
8,12,21989.725448538,0.0429999999978463
8,13,7459.1544188921,0.0280000000020664
8,14,4327.96045632902,0.0319999999992433
8,15,4340.22318987454,0.0969999999979336
8,16,2.49536901294117,0.0390000000006694
8,17,64236.7667607768,0.0280000000020664
8,18,3358.06857651268,0.0669999999990978
8,19,2598.05961188472,0.114999999997963
8,20,7843.36224595103,0.0280000000020664
8,21,50.0360966162975,0.022000000000844
8,22,48941.7683665227,0.0499999999992724
8,23,33361.721416564,0.0419999999976426
8,24,1019.4449481333,0.0470000000022992
8,25,2872.09980754663,0.0449999999982538
8,26,62.8882238346215,0.0280000000020664
8,27,224.065957376647,0.0739999999968859
8,28,5.80605992672267,0.0349999999998545
8,29,24119.5561126282,0.174000000002707
8,30,3.5153993139804,0.0279999999984284
9,1,15.152496139857,0.0210000000006403
9,2,30.6476956528146,0.0180000000000291
9,3,33.6314255207646,0.0169999999998254
9,4,12653.2083824783,0.0289999999986321
9,5,129886.88746565,0.0149999999994179
9,6,17.3581488307461,0.0180000000000291
9,7,2.28763929024254,0.0290000000022701
9,8,103761.706700528,0.032999999999447
9,9,25.4766932462721,0.022000000000844
9,10,4411.97619787086,0.0319999999992433
9,11,1819.9185087268,0.032999999999447
9,12,3361.24253550998,0.0279999999984284
9,13,15.9115250599848,0.0190000000002328
9,14,27.6832735149367,0.0169999999998254
9,15,17235.6710206563,0.0210000000006403
9,16,42778.6943430937,0.0300000000024738
9,17,0.685398594226105,0.0180000000000291
9,18,11.4495015175128,0.0180000000000291
9,19,6042.1353269939,0.0320000000028813
9,20,1.49497743145478,0.0210000000006403
9,21,14.8582428169169,0.0140000000028522
9,22,568.850981121958,0.021999999997206
9,23,2.67504533142941,0.0180000000000291
9,24,51224.5836440299,0.0280000000020664
9,25,81856.9107967966,0.0349999999998545
9,26,8873.38979280754,0.0249999999978172
9,27,61660.9801563131,0.0260000000016589
9,28,12.3211785802146,0.0169999999998254
9,29,6046.90981647249,0.0360000000000582
9,30,14.4492542677072,0.0149999999994179
10,1,20.4695107399654,0.0210000000006403
10,2,105754.459914374,0.0380000000004657
10,3,104129.270892707,0.0289999999986321
10,4,66037.924776171,0.0410000000010768
10,5,883819.379973511,0.0200000000004366
10,6,321.173850245953,0.0180000000000291
10,7,5642.22870165548,0.0839999999989232
10,8,79989.2935813992,0.0390000000006694
10,9,71125.8273489141,0.022000000000844
10,10,31390.6618739195,0.0459999999984575
10,11,136579.862783232,0.0529999999998836
10,12,50812.4418805548,0.0819999999985157
10,13,34668.865371997,0.0430000000014843
10,14,73838.5473206604,0.0400000000008731
10,15,147693.785331138,0.0390000000006694
10,16,112482.232359107,0.021999999997206
10,17,536.483634343432,0.0519999999996799
10,18,98315.7223017728,0.0290000000022701
10,19,137086.353166309,0.0499999999992724
10,20,34465.5818735339,0.0669999999990978
10,21,40333.0746740459,0.022000000000844
10,22,52221.3395954444,0.0790000000015425
10,23,18576.6981861016,0.0449999999982538
10,24,164298.952379227,0.0370000000002619
10,25,186678.883269898,0.0449999999982538
10,26,44230.919047631,0.0610000000015134
10,27,152515.247677007,0.0299999999988358
10,28,51700.8854765739,0.0570000000006985
10,29,19752.4752455306,0.0630000000019209
10,30,227972.562325525,0.0489999999990687
11,1,34079.936314014,0.022000000000844
11,2,35864.5415837226,0.0319999999992433
11,3,16906.2104547578,0.0190000000002328
11,4,6275.97813492017,0.0349999999998545
11,5,602688.840774316,0.0200000000004366
11,6,47.9342732234201,0.0180000000000291
11,7,27.5977583962986,0.0540000000000873
11,8,87235.0469737151,0.0269999999982247
11,9,8301.57233855371,0.0250000000014552
11,10,10627.8798208042,0.0289999999986321
11,11,12233.5932328251,0.0800000000017462
11,12,6911.57911787427,0.0380000000004657
11,13,9177.10823099265,0.021999999997206
11,14,23995.2033645494,0.022000000000844
11,15,15414.0427770868,0.0289999999986321
11,16,29946.1493984139,0.0280000000020664
11,17,23.0746797053725,0.0169999999998254
11,18,34414.2341613072,0.0250000000014552
11,19,15597.9979820724,0.0319999999992433
11,20,3855.86119659096,0.0360000000000582
11,21,597.21460803673,0.0349999999998545
11,22,37.9118872763073,0.0360000000000582
11,23,8.51710646536146,0.0279999999984284
11,24,21458.7675721158,0.0210000000006403
11,25,46238.0192767865,0.0289999999986321
11,26,2893.07009142079,0.0280000000020664
11,27,17169.1066021194,0.0239999999976135
11,28,28834.8240995653,0.0370000000002619
11,29,744.317910400751,0.0290000000022701
11,30,98235.3656741691,0.0399999999972351
12,1,36758.273193192,0.0210000000006403
12,2,23852.6817219622,0.0280000000020664
12,3,21901.4678199591,0.0259999999980209
12,4,5064.25906013362,0.0250000000014552
12,5,581617.69394762,0.0200000000004366
12,6,186.827222347512,0.0139999999992142
12,7,5254.25780626383,0.0600000000013097
12,8,106501.121152605,0.0340000000032887
12,9,6827.04734576054,0.0249999999978172
12,10,5859.40654941092,0.0319999999992433
12,11,10103.703482469,0.0280000000020664
12,12,4691.16060070832,0.0319999999992433
12,13,7592.78116791428,0.0289999999986321
12,14,21017.0832760711,0.0190000000002328
12,15,18031.2998749186,0.0319999999992433
12,16,26538.844706627,0.0210000000006403
12,17,0.543334040487308,0.0120000000024447
12,18,16673.3462611661,0.0249999999978172
12,19,4806.82013214028,0.0460000000020955
12,20,121.166599129568,0.0319999999992433
12,21,4.10480615776386,0.0319999999992433
12,22,5776.35434461407,0.0319999999992433
12,23,616.434408644979,0.0290000000022701
12,24,62848.6950547141,0.0360000000000582
12,25,33318.2742102856,0.0319999999992433
12,26,3316.53356145682,0.0319999999992433
12,27,50383.7270052789,0.0289999999986321
12,28,25505.6664128245,0.0250000000014552
12,29,1414.66858128845,0.0279999999984284
12,30,54237.3473175923,0.0320000000028813
13,1,126144.912739592,0.0279999999984284
13,2,76276.2321693409,0.0360000000000582
13,3,56303.4295749764,0.0390000000006694
13,4,35334.5027272888,0.022000000000844
13,5,626134.19369939,0.021999999997206
13,6,0.277821505215594,0.011000000002241
13,7,38.5267428911247,0.0570000000006985
13,8,52471.3482523476,0.0309999999990396
13,9,31194.5079419925,0.0370000000002619
13,10,728.200930421056,0.0609999999978754
13,11,11153.4929822955,0.0529999999998836
13,12,10501.9693936663,0.077000000001135
13,13,30843.1721097937,0.0610000000015134
13,14,50742.8617393906,0.0389999999970314
13,15,33729.7664776478,0.0360000000000582
13,16,70733.4217593201,0.0290000000022701
13,17,2446.55827077487,0.0529999999998836
13,18,68.668710162696,0.0249999999978172
13,19,12309.5107392557,0.0510000000031141
13,20,265.838360181668,0.111999999997352
13,21,8269.91691317211,0.0280000000020664
13,22,14724.1584236852,0.0889999999999418
13,23,30985.6220950096,0.0629999999982829
13,24,28359.7914641295,0.044000000001688
13,25,144171.728013646,0.0489999999990687
13,26,20713.8222599583,0.0669999999990978
13,27,65725.027976491,0.0390000000006694
13,28,62635.1141272377,0.0360000000000582
13,29,7496.38291575427,0.0469999999986612
13,30,49663.8513778591,0.0280000000020664
14,1,108368.64398745,0.0139999999992142
14,2,62614.1856307636,0.0119999999988067
14,3,51714.1429346705,0.0250000000014552
14,4,29769.9955468999,0.0229999999974098
14,5,250117.589072588,0.011000000002241
14,6,12445.6774331756,0.0289999999986321
14,7,12846.181268259,0.0139999999992142
14,8,44658.0110384369,0.011000000002241
14,9,32593.1073562168,0.0169999999998254
14,10,29990.8348501016,0.0149999999994179
14,11,160.1153482399,0.010999999998603
14,12,11119.9583789235,0.0130000000026484
14,13,33802.346099589,0.0309999999990396
14,14,51134.5862642103,0.0119999999988067
14,15,41652.5556671845,0.0169999999998254
14,16,57168.9085370267,0.0120000000024447
14,17,10354.2301964713,0.0139999999992142
14,18,61578.4663848564,0.010999999998603
14,19,71623.1328820318,0.0169999999998254
14,20,25792.8288721537,0.0120000000024447
14,21,17346.69015,0.0169999999998254
14,22,163.94451214599,0.010999999998603
14,23,29252.4459177049,0.010999999998603
14,24,91162.6751082903,0.0140000000028522
14,25,105172.597600604,0.0149999999994179
14,26,34391.4611600281,0.0139999999992142
14,27,80467.5586536145,0.0119999999988067
14,28,56069.8489649517,0.0139999999992142
14,29,12805.7469807221,0.011000000002241
14,30,112831.435684941,0.0249999999978172
15,1,79690.1486640855,0.0290000000022701
15,2,108027.240944491,0.0190000000002328
15,3,79266.357420165,0.0249999999978172
15,4,48357.4060725062,0.0230000000010477
15,5,790389.44309918,0.022000000000844
15,6,5824.4111126624,0.032999999999447
15,7,20.2066587200607,0.032999999999447
15,8,108130.545740232,0.0190000000002328
15,9,53669.2457993391,0.0250000000014552
15,10,21723.1839575073,0.0419999999976426
15,11,31030.2731697892,0.0270000000018626
15,12,33308.3887581575,0.0279999999984284
15,13,55825.1944622048,0.0240000000012515
15,14,86754.9142416206,0.0289999999986321
15,15,113054.634710038,0.0290000000022701
15,16,97634.9220426387,0.0259999999980209
15,17,18051.8783548945,0.0400000000008731
15,18,105473.156968786,0.0210000000006403
15,19,48084.2025039025,0.0349999999998545
15,20,41203.6861108608,0.058999999997468
15,21,27127.6570928132,0.0260000000016589
15,22,27342.2362367456,0.0319999999992433
15,23,37789.6407565878,0.0210000000006403
15,24,159998.722341215,0.0349999999998545
15,25,184390.633195289,0.0360000000000582
15,26,56184.2161483568,0.0279999999984284
15,27,117811.074608842,0.0360000000000582
15,28,95643.872979686,0.0360000000000582
15,29,55352.9274956984,0.0290000000022701
15,30,156777.926022703,0.0239999999976135
16,1,222025.116854389,0.0360000000000582
16,2,53358.4671497425,0.165000000000873
16,3,6456.79898951977,0.0669999999990978
16,4,9585.60247296914,0.0360000000000582
16,5,783490.19291307,0.022000000000844
16,6,9683.28367723875,0.0190000000002328
16,7,14934.6177573947,0.0319999999992433
16,8,96712.6587475873,0.0600000000013097
16,9,1118.81953000925,0.0279999999984284
16,10,36321.7965342795,0.100999999998749
16,11,17548.0714153803,0.121000000002823
16,12,25.9737762793315,0.113999999997759
16,13,12286.2251461088,0.0290000000022701
16,14,6247.58393422174,0.0599999999976717
16,15,62013.9904719132,0.10200000000259
16,16,1375.27320808012,0.0289999999986321
16,17,30149.515133714,0.0390000000006694
16,18,1595.88602877451,0.139999999999418
16,19,69.4879515994811,0.117999999998574
16,20,11622.6778710317,0.0290000000022701
16,21,919.044664836289,0.0279999999984284
16,22,1719.01707118355,0.115000000001601
16,23,20248.9366951016,0.0740000000005239
16,24,81926.7843480429,0.0709999999999127
16,25,96839.6994248302,0.0839999999989232
16,26,13684.1898070661,0.0459999999984575
16,27,68191.7218696549,0.0750000000007276
16,28,1974.10454502709,0.0360000000000582
16,29,29062.7913957956,0.245999999999185
16,30,122229.181209728,0.0540000000000873
17,1,240939.010892852,0.044000000001688
17,2,118667.690563644,0.0269999999982247
17,3,94368.6502956577,0.022000000000844
17,4,60568.3663588256,0.0519999999996799
17,5,795837.136734896,0.022000000000844
17,6,3.59401706772136,0.032999999999447
17,7,18865.4633286223,0.0529999999998836
17,8,134589.089872514,0.0360000000000582
17,9,63812.7829862197,0.022000000000844
17,10,7609.22414032981,0.0259999999980209
17,11,14803.619203312,0.0290000000022701
17,12,67238.1282649653,0.0529999999998836
17,13,65993.5862812466,0.0299999999988358
17,14,9.09398872808062,0.0250000000014552
17,15,59809.9045336031,0.0279999999984284
17,16,104131.809073931,0.0290000000022701
17,17,16577.1442654556,0.0669999999990978
17,18,115994.69225464,0.022000000000844
17,19,22353.0404090134,0.0279999999984284
17,20,48115.8312444985,0.0400000000008731
17,21,29682.361636785,0.0289999999986321
17,22,15067.615953351,0.0400000000008731
17,23,38552.2823312507,0.0420000000012806
17,24,128549.04429567,0.0360000000000582
17,25,163254.713767661,0.0359999999964202
17,26,68899.1274811257,0.0500000000029104
17,27,99696.8833027136,0.0289999999986321
17,28,106122.800064848,0.0190000000002328
17,29,33189.4843221972,0.0289999999986321
17,30,83599.3473995517,0.0290000000022701
18,1,226618.468929279,0.0370000000002619
18,2,113080.910952875,0.0390000000006694
18,3,83813.3022794599,0.0609999999978754
18,4,74714.0988399476,0.0370000000002619
18,5,982610.056194976,0.0230000000010477
18,6,1730.72290784925,0.0159999999996217
18,7,3658.05653336501,0.0449999999982538
18,8,242151.23623043,0.0730000000003201
18,9,78385.1092442093,0.0300000000024738
18,10,69999.8549484433,0.0559999999968568
18,11,153221.493486757,0.0529999999998836
18,12,48085.5777037682,0.092000000000553
18,13,63369.3586085327,0.0689999999995052
18,14,74202.2097274198,0.044000000001688
18,15,54134.2306961471,0.0560000000004948
18,16,129264.285915981,0.0209999999970023
18,17,10948.224767582,0.0280000000020664
18,18,106861.497514053,0.0540000000000873
18,19,138731.448374691,0.058999999997468
18,20,614.113206286391,0.130000000001019
18,21,31725.5118217581,0.0290000000022701
18,22,47072.9722141388,0.0839999999989232
18,23,53421.6845742404,0.0679999999993015
18,24,189667.886559294,0.0289999999986321
18,25,207556.705400561,0.0470000000022992
18,26,47530.0329845279,0.0849999999991269
18,27,67.6931223898181,0.0260000000016589
18,28,127345.037108965,0.0399999999972351
18,29,108388.617293588,0.0689999999995052
18,30,118356.45122923,0.0390000000006694
19,1,103150.149067179,0.055000000000291
19,2,71.7010421347809,0.0600000000013097
19,3,4822.19526355754,0.0279999999984284
19,4,462.038744806653,0.022000000000844
19,5,593214.519988809,0.0200000000004366
19,6,0.116702742461362,0.0129999999990105
19,7,130919.596802705,0.032999999999447
19,8,15295.2113546791,0.132000000001426
19,9,5417.62311853128,0.0249999999978172
19,10,26.3945641425369,0.161000000000058
19,11,23.9686638566655,0.121000000002823
19,12,459.688479820095,0.0459999999984575
19,13,6488.65797749837,0.0400000000008731
19,14,10302.4761405505,0.0449999999982538
19,15,18.7682800391902,0.115000000001601
19,16,21517.7334979086,0.0469999999986612
19,17,2207.90922242159,0.0290000000022701
19,18,128.180062783936,0.0360000000000582
19,19,138.823683673988,0.129999999997381
19,20,1030.29330521535,0.044000000001688
19,21,17939.0669630341,0.0259999999980209
19,22,63424.4468530127,0.0480000000025029
19,23,8.00668076080707,0.0380000000004657
19,24,11689.07661048,0.0749999999970896
19,25,2910.41281770401,0.186000000001513
19,26,1085.32784284265,0.0390000000006694
19,27,19786.3270577433,0.0429999999978463
19,28,23591.0468961504,0.0490000000027067
19,29,780.576998634324,0.0939999999973224
19,30,83.3212048361985,0.17699999999968
20,1,114109.728210954,0.0529999999998836
20,2,6973.17756864419,0.0670000000027358
20,3,27843.2832355141,0.0489999999990687
20,4,1424.63985122386,0.0390000000006694
20,5,656841.432182512,0.021999999997206
20,6,31492.7403598336,0.0150000000030559
20,7,105895.713024827,0.0319999999992433
20,8,63650.5361461399,0.0910000000003492
20,9,7161.65819411975,0.0249999999978172
20,10,10416.2505521942,0.330000000001746
20,11,185.824434735936,0.237999999997555
20,12,6763.80381151487,0.0430000000014843
20,13,34122.1114198767,0.0410000000010768
20,14,5.17834116897823,0.0360000000000582
20,15,2019.71011633933,0.200000000000728
20,16,12094.8034584686,0.0259999999980209
20,17,3761.87330272772,0.0289999999986321
20,18,6153.60257595068,0.0450000000018917
20,19,27.0407903792334,0.201000000000931
20,20,3409.10263080182,0.0319999999992433
20,21,11554.0370415995,0.0190000000002328
20,22,13.6040695711284,0.0599999999976717
20,23,80.5617950597535,0.0520000000033178
20,24,14.8161770939655,0.149999999997817
20,25,6273.65978237458,0.389999999999418
20,26,8193.0272104284,0.0360000000000582
20,27,8237.17328131628,0.0760000000009313
20,28,13682.788448039,0.0289999999986321
20,29,3581.72192862637,0.108000000000175
20,30,44268.0687255531,0.101000000002387
21,1,5848.01530724683,0.010999999998603
21,2,15132.4073904719,0.0289999999986321
21,3,10038.6415613705,0.0150000000030559
21,4,2054.39378120981,0.0209999999970023
21,5,103072.268532233,0.0140000000028522
21,6,7.01078220844282,0.0190000000002328
21,7,936.975139005161,0.0280000000020664
21,8,21639.4235888532,0.0390000000006694
21,9,2843.14991974903,0.0139999999992142
21,10,27965.1691198178,0.0349999999998545
21,11,16895.8245661647,0.0180000000000291
21,12,736.507772958288,0.0349999999998545
21,13,2144.50420976565,0.0119999999988067
21,14,9784.20924037147,0.0169999999998254
21,15,25824.2468658213,0.0159999999996217
21,16,12518.4298717278,0.0140000000028522
21,17,2392.53526748871,0.0349999999998545
21,18,14625.4367077113,0.0149999999994179
21,19,4091.13375433965,0.0210000000006403
21,20,60.1766983910574,0.0139999999992142
21,21,20.181814601471,0.0190000000002328
21,22,2.2799052075156,0.0139999999992142
21,23,2583.30895265236,0.0149999999994179
21,24,7590.59721167371,0.0139999999992142
21,25,20565.6757433192,0.0150000000030559
21,26,5.21412549281243,0.0229999999974098
21,27,4643.25013302527,0.011000000002241
21,28,12006.9680547548,0.0180000000000291
21,29,12302.765063894,0.0149999999994179
21,30,16.5333925102902,0.0259999999980209
22,1,1.85039808611412,0.011000000002241
22,2,12515.6677951957,0.0139999999992142
22,3,9527.72680524288,0.0210000000006403
22,4,0.705550104741441,0.010999999998603
22,5,93602.401343985,0.010999999998603
22,6,2.38737954968358,0.0150000000030559
22,7,5071.99051133341,0.0389999999970314
22,8,37268.0399009238,0.022000000000844
22,9,2574.36997139227,0.0210000000006403
22,10,2.43625013408652,0.010999999998603
22,11,361.389750755683,0.0150000000030559
22,12,6.73879960915693,0.0279999999984284
22,13,2922.13554016881,0.0210000000006403
22,14,7.80091697124242,0.0119999999988067
22,15,17922.2741424154,0.0250000000014552
22,16,0.329026578858262,0.0139999999992142
22,17,5114.54958412959,0.0429999999978463
22,18,14007.3676525324,0.022000000000844
22,19,8.26276340542678,0.0290000000022701
22,20,287.192575424487,0.0289999999986321
22,21,3.64608050212624,0.010999999998603
22,22,3403.37937965102,0.0250000000014552
22,23,2724.84333570538,0.0279999999984284
22,24,29630.1864969171,0.022000000000844
22,25,18235.3706451644,0.0190000000002328
22,26,497.626369796435,0.0139999999992142
22,27,23676.1862306042,0.033000000003085
22,28,2.44823446507063,0.0119999999988067
22,29,3922.62709115663,0.0249999999978172
22,30,25235.6968987921,0.0360000000000582
23,1,26735.7565692347,0.0519999999996799
23,2,109.53115949543,0.0670000000027358
23,3,325.694900041082,0.0489999999990687
23,4,1773.31193246264,0.0210000000006403
23,5,419220.31355993,0.0200000000004366
23,6,33061.5122915041,0.0180000000000291
23,7,98648.5533036773,0.0319999999992433
23,8,4525.96272706223,0.0910000000003492
23,9,7919.73442295496,0.021999999997206
23,10,70.3555931322644,0.17500000000291
23,11,21981.1023729872,0.179000000000087
23,12,15596.5867202956,0.047999999998865
23,13,1370.75333635818,0.0289999999986321
23,14,1959.52756454277,0.0360000000000582
23,15,3742.4750476201,0.159999999999854
23,16,13267.3528423103,0.0410000000010768
23,17,21259.0498779311,0.0349999999998545
23,18,7064.69464305253,0.0489999999990687
23,19,24537.3641590155,0.129000000000815
23,20,370.308932753021,0.0280000000020664
23,21,866.02932619384,0.021999999997206
23,22,32635.2270496483,0.0610000000015134
23,23,15186.8792354503,0.0459999999984575
23,24,1759.56894753617,0.165000000000873
23,25,86.2527449181458,0.406999999999243
23,26,435.873542861076,0.0280000000020664
23,27,1478.49055987081,0.0849999999991269
23,28,1328.03521346579,0.0279999999984284
23,29,27.8478485084692,0.0869999999995343
23,30,4630.44204120206,0.11200000000099
24,1,191475.187496704,0.0450000000018917
24,2,69.5867357531138,0.101999999998952
24,3,261.777244118799,0.171999999998661
24,4,1482.70442075829,0.0529999999998836
24,5,657960.663821563,0.0200000000004366
24,6,10042.125444345,0.0180000000000291
24,7,6509.45360099462,0.0319999999992433
24,8,49801.4389611621,0.0650000000023283
24,9,54.3913059972481,0.0210000000006403
24,10,1485.45141025927,0.101999999998952
24,11,12319.7163128001,0.117999999998574
24,12,832.92973992277,0.118000000002212
24,13,3837.93692649491,0.0360000000000582
24,14,756.312112636499,0.0839999999989232
24,15,13254.8548569716,0.0869999999995343
24,16,52404.1945584521,0.0750000000007276
24,17,4774.24105098532,0.0319999999992433
24,18,48487.2929598559,0.109000000000378
24,19,9152.51394160906,0.123999999999796
24,20,5.48152257498757,0.0360000000000582
24,21,914.347042923167,0.0289999999986321
24,22,17838.6633284967,0.129000000000815
24,23,10655.5443589978,0.101999999998952
24,24,79958.8607541627,0.0430000000014843
24,25,87974.6305695963,0.0829999999987194
24,26,18041.399487927,0.0640000000021246
24,27,50150.4909071783,0.0849999999991269
24,28,2.26880501061072,0.0529999999998836
24,29,59.2335559384801,0.163000000000466
24,30,80087.1425820714,0.0529999999998836
25,1,109315.036629677,0.0669999999990978
25,2,58705.7764312101,0.0560000000004948
25,3,47931.3810040736,0.0390000000006694
25,4,5679.29263939282,0.0239999999976135
25,5,2152937.81269639,0.0270000000018626
25,6,46258.8130979593,0.0249999999978172
25,7,37485.1482552748,0.0290000000022701
25,8,36962.8262745147,0.206999999998516
25,9,14943.4148690055,0.0260000000016589
25,10,956.086104147853,0.141999999999825
25,11,7178.9083526467,0.111000000000786
25,12,24605.687591015,0.0489999999990687
25,13,56798.7117662715,0.032999999999447
25,14,40230.2525571199,0.0319999999992433
25,15,44314.4740820693,0.109000000000378
25,16,26698.461142838,0.0489999999990687
25,17,26475.3152612444,0.0280000000020664
25,18,39757.1668328918,0.0390000000006694
25,19,4014.55244123001,0.103000000002794
25,20,79054.4267394871,0.0319999999992433
25,21,21055.8634956002,0.0249999999978172
25,22,12853.9776217051,0.0490000000027067
25,23,42139.2032442827,0.0390000000006694
25,24,20555.74790806,0.0959999999977299
25,25,13596.4948864917,0.121999999999389
25,26,88597.9478926802,0.0390000000006694
25,27,27440.9665650114,0.0560000000004948
25,28,28999.4951017447,0.0400000000008731
25,29,15.5451675301264,0.0829999999987194
25,30,397.186707296531,0.415000000000873
26,1,81757.340940405,0.0459999999984575
26,2,67810.3038457396,0.055000000000291
26,3,53851.2378144867,0.0390000000006694
26,4,33141.2263722365,0.0230000000010477
26,5,787079.054850799,0.0249999999978172
26,6,604.49679622207,0.0159999999996217
26,7,4182.65061986695,0.0640000000021246
26,8,191558.764027325,0.047999999998865
26,9,37322.3086681377,0.022000000000844
26,10,874.235317366649,0.0420000000012806
26,11,31033.8502860911,0.0449999999982538
26,12,18044.9232641102,0.150000000001455
26,13,3.35536726162099,0.0360000000000582
26,14,50930.5718308143,0.04399999999805
26,15,97530.2417295983,0.0580000000009022
26,16,56660.5824002078,0.0489999999990687
26,17,841.973274596231,0.0390000000006694
26,18,61898.9766937229,0.0639999999984866
26,19,6113.27362076939,0.0460000000020955
26,20,5137.64552253922,0.0529999999998836
26,21,45.1232237880494,0.0180000000000291
26,22,17891.900203254,0.108000000000175
26,23,16241.9766873323,0.128999999997177
26,24,94802.7523999639,0.0480000000025029
26,25,130017.826375602,0.0370000000002619
26,26,10154.1025752144,0.240999999998166
26,27,91323.2012902369,0.0390000000006694
26,28,71110.6015752021,0.0210000000006403
26,29,33.9937367076708,0.0560000000004948
26,30,119607.655969998,0.0399999999972351
27,1,103471.549205007,0.0120000000024447
27,2,47044.6176415441,0.0139999999992142
27,3,37665.8367140689,0.010999999998603
27,4,19379.2244479059,0.0250000000014552
27,5,208887.426030347,0.0119999999988067
27,6,1441.78887420273,0.0169999999998254
27,7,579.019425789362,0.0120000000024447
27,8,41988.1565887198,0.0129999999990105
27,9,21669.32903476,0.010999999998603
27,10,13447.2423200119,0.0240000000012515
27,11,61222.1137579815,0.0230000000010477
27,12,25538.2447899087,0.0299999999988358
27,13,22657.3508126873,0.0149999999994179
27,14,37171.463587937,0.0139999999992142
27,15,18697.726824688,0.011000000002241
27,16,42341.1494380148,0.0119999999988067
27,17,4682.00570253622,0.0250000000014552
27,18,46147.4320881826,0.0139999999992142
27,19,51310.581510766,0.0149999999994179
27,20,16197.8832820379,0.0139999999992142
27,21,9677.89235819506,0.011000000002241
27,22,29647.8376107615,0.0170000000034634
27,23,31912.7949550822,0.0149999999994179
27,24,72146.5073524285,0.0139999999992142
27,25,42782.2639667624,0.010999999998603
27,26,23140.1276873226,0.011000000002241
27,27,62668.8581003773,0.0139999999992142
27,28,41396.0422214059,0.010999999998603
27,29,3.8871332659733,0.0149999999994179
27,30,61046.8188704586,0.011000000002241
28,1,219670.176291404,0.021999999997206
28,2,93049.9139409952,0.0190000000002328
28,3,75222.9561885351,0.0290000000022701
28,4,39111.0912896878,0.0269999999982247
28,5,867271.516219517,0.022000000000844
28,6,18337.1796644033,0.0289999999986321
28,7,12465.4747901703,0.0600000000013097
28,8,203538.277540488,0.0360000000000582
28,9,43818.1588115358,0.0289999999986321
28,10,10392.891777847,0.0290000000022701
28,11,35289.6759705797,0.0319999999992433
28,12,21905.1803762726,0.0289999999986321
28,13,45727.7961205683,0.0250000000014552
28,14,73560.6791435025,0.0200000000004366
28,15,83861.7314523482,0.0289999999986321
28,16,83491.8389385465,0.0260000000016589
28,17,7389.14426919692,0.0599999999976717
28,18,90674.1819396065,0.022000000000844
28,19,30947.1636244829,0.0289999999986321
28,20,32848.6462477688,0.0430000000014843
28,21,19128.0912752545,0.0299999999988358
28,22,14548.4467842931,0.0290000000022701
28,23,38309.750934845,0.0289999999986321
28,24,141249.697096192,0.022000000000844
28,25,156763.610107371,0.0289999999986321
28,26,18.9429975112815,0.0190000000002328
28,27,122361.791156715,0.0250000000014552
28,28,81669.264962178,0.0239999999976135
28,29,64942.4947091637,0.0280000000020664
28,30,86421.8982908083,0.0249999999978172
29,1,447783.547756631,0.0450000000018917
29,2,403034.149951532,0.0449999999982538
29,3,4682.99659688339,0.0280000000020664
29,4,984324.627562817,0.0279999999984284
29,5,2589758.44301222,0.0250000000014552
29,6,862.678844362368,0.0180000000000291
29,7,9622.72559467046,0.0599999999976717
29,8,327615.367454641,0.0480000000025029
29,9,574018.607766178,0.0409999999974389
29,10,46384.4441906302,0.0529999999998836
29,11,90020.4535358549,0.0480000000025029
29,12,115327.401918192,0.080999999998312
29,13,87724.8642819081,0.0370000000002619
29,14,596519.658411532,0.0459999999984575
29,15,243682.531195786,0.0430000000014843
29,16,781748.360653379,0.0529999999998836
29,17,15509.5717881823,0.0430000000014843
29,18,55.3620530276152,0.0429999999978463
29,19,95433.8689909937,0.0470000000022992
29,20,80.4953868358143,0.0840000000025611
29,21,393827.894857164,0.0540000000000873
29,22,89760.3343831395,0.0750000000007276
29,23,150273.998508741,0.0669999999990978
29,24,214534.697966589,0.022000000000844
29,25,313824.305401492,0.0449999999982538
29,26,41.8287395360317,0.0709999999999127
29,27,550025.001843586,0.0420000000012806
29,28,716965.912617092,0.0540000000000873
29,29,134581.539591212,0.0599999999976717
29,30,441212.372298888,0.0450000000018917
30,1,127469.433096307,0.022000000000844
30,2,59373.9694472827,0.0259999999980209
30,3,44966.3968641695,0.0280000000020664
30,4,17703.6508690619,0.0229999999974098
30,5,705089.737918899,0.022000000000844
30,6,3794.4073097328,0.0190000000002328
30,7,2.83717308030902,0.0240000000012515
30,8,153271.485346278,0.0299999999988358
30,9,21026.9673244606,0.0360000000000582
30,10,26444.8404544668,0.032999999999447
30,11,15259.847177465,0.0289999999986321
30,12,26624.8380725942,0.0400000000008731
30,13,22416.1585562316,0.0190000000002328
30,14,43736.4831497108,0.0580000000009022
30,15,90860.6365897504,0.0319999999992433
30,16,51678.5071875105,0.0250000000014552
30,17,1166.83677461926,0.0499999999992724
30,18,57515.2853062552,0.0289999999986321
30,19,9492.15509758407,0.0260000000016589
30,20,13394.0774960755,0.0249999999978172
30,21,5748.79526041238,0.0250000000014552
30,22,3964.20245960604,0.0279999999984284
30,23,3400.34707829744,0.0300000000024738
30,24,99732.9207730662,0.0289999999986321
30,25,119447.56202943,0.0299999999988358
30,26,130.553592521738,0.0210000000006403
30,27,62676.3911503466,0.0230000000010477
30,28,50211.8413906558,0.022000000000844
30,29,45037.0006819992,0.0679999999993015
30,30,10442.5257531634,0.0210000000006403
