"Before.Trace.ID1","Before.Trace.ID2","Difference","Runtime"
1,2,1737,0.190999999999804
1,3,1743,0.269000000000233
1,4,1746,0.304000000000087
1,5,1747,0.253999999999905
1,6,1745,0.302000000000589
1,7,1745,0.259000000000015
1,8,1748,0.282999999999447
1,9,1742,0.273000000000138
1,10,1746,0.244999999999891
1,11,1744,0.246000000000095
1,12,1748,0.270000000000437
1,13,1748,0.244000000000597
1,14,1744,0.246000000000095
1,15,1745,0.244999999999891
1,16,1747,0.246000000000095
1,17,1749,0.27100000000064
1,18,1747,0.243999999999687
1,19,1747,0.247000000000298
1,20,1748,0.244999999999891
1,21,1747,0.246000000000095
1,22,1747,0.269999999999527
1,23,1746,0.243999999999687
1,24,1745,0.247000000000298
1,25,1748,0.244999999999891
1,26,1745,0.246000000000095
1,27,1747,0.292999999999665
1,28,1749,0.259000000000015
1,29,1748,0.283000000000357
1,30,1745,0.273000000000138
2,3,1745,0.243999999999687
2,4,1740,0.246000000000095
2,5,1739,0.270999999999731
2,6,1744,0.244999999999891
2,7,1744,0.246000000000095
2,8,1748,0.244999999999891
2,9,1741,0.246000000000095
2,10,1746,0.270000000000437
2,11,1747,0.244999999999891
2,12,1745,0.245999999999185
2,13,1739,0.2450000000008
2,14,1744,0.244999999999891
2,15,1739,0.270999999999731
2,16,1744,0.244999999999891
2,17,1748,0.246000000000095
2,18,1742,0.244999999999891
2,19,1744,0.244999999999891
2,20,1747,0.292999999999665
2,21,1747,0.25800000000072
2,22,1740,0.282999999999447
2,23,1743,0.273000000000138
2,24,1745,0.243999999999687
2,25,1743,0.246000000000095
2,26,1745,0.270000000000437
2,27,1748,0.244999999999891
2,28,1744,0.246000000000095
2,29,1743,0.243999999999687
2,30,1743,0.246000000000095
3,4,1740,0.269999999999527
3,5,1747,0.2450000000008
3,6,1746,0.246999999999389
3,7,1744,0.244000000000597
3,8,1748,0.246000000000095
3,9,1745,0.270000000000437
3,10,1743,0.244999999999891
3,11,1747,0.247000000000298
3,12,1747,0.243999999999687
3,13,1744,0.246000000000095
3,14,1735,0.292999999999665
3,15,1746,0.259000000000015
3,16,1748,0.283000000000357
3,17,1742,0.273000000000138
3,18,1739,0.243999999999687
3,19,1747,0.247000000000298
3,20,1749,0.269999999999527
3,21,1746,0.244999999999891
3,22,1747,0.246000000000095
3,23,1746,0.244999999999891
3,24,1743,0.246000000000095
3,25,1737,0.270000000000437
3,26,1742,0.244999999999891
3,27,1740,0.246000000000095
3,28,1745,0.244999999999891
3,29,1741,0.246000000000095
3,30,1745,0.269999999999527
4,5,1746,0.244999999999891
4,6,1748,0.246000000000095
4,7,1742,0.246000000000095
4,8,1746,0.246000000000095
4,9,1744,0.292999999999665
4,10,1744,0.259000000000015
4,11,1747,0.282000000000153
4,12,1744,0.271999999999935
4,13,1740,0.244999999999891
4,14,1744,0.246000000000095
4,15,1749,0.270999999999731
4,16,1749,0.244000000000597
4,17,1744,0.246000000000095
4,18,1748,0.244999999999891
4,19,1746,0.2450000000008
4,20,1747,0.269999999999527
4,21,1748,0.244999999999891
4,22,1747,0.246000000000095
4,23,1744,0.243999999999687
4,24,1747,0.246000000000095
4,25,1746,0.270000000000437
4,26,1742,0.244999999999891
4,27,1743,0.246000000000095
4,28,1746,0.244999999999891
4,29,1740,0.246000000000095
4,30,1744,0.292999999999665
5,6,1744,0.259000000000015
5,7,1748,0.282000000000153
5,8,1747,0.273000000000138
5,9,1747,0.243999999999687
5,10,1744,0.246000000000095
5,11,1744,0.269999999999527
5,12,1749,0.244999999999891
5,13,1747,0.246000000000095
5,14,1747,0.244999999999891
5,15,1745,0.246000000000095
5,16,1748,0.270000000000437
5,17,1746,0.244999999999891
5,18,1744,0.246000000000095
5,19,1749,0.244999999999891
5,20,1746,0.246000000000095
5,21,1749,0.269999999999527
5,22,1742,0.246000000000095
5,23,1742,0.247000000000298
5,24,1745,0.244999999999891
5,25,1744,0.246000000000095
5,26,1746,0.293999999999869
5,27,1747,0.260000000000218
5,28,1749,0.282999999999447
5,29,1748,0.273000000000138
5,30,1748,0.244000000000597
6,7,1747,0.246999999999389
6,8,1748,0.270000000000437
6,9,1748,0.244999999999891
6,10,1745,0.246000000000095
6,11,1748,0.244999999999891
6,12,1747,0.246000000000095
6,13,1743,0.269999999999527
6,14,1746,0.244000000000597
6,15,1743,0.245999999999185
6,16,1748,0.244000000000597
6,17,1748,0.246000000000095
6,18,1746,0.269999999999527
6,19,1748,0.244999999999891
6,20,1749,0.247000000000298
6,21,1745,0.243999999999687
6,22,1743,0.246000000000095
6,23,1746,0.293000000000575
6,24,1741,0.259000000000015
6,25,1747,0.282999999999447
6,26,1747,0.273000000000138
6,27,1746,0.243999999999687
6,28,1741,0.247000000000298
6,29,1748,0.270000000000437
6,30,1748,0.244999999999891
7,8,1748,0.246000000000095
7,9,1744,0.244999999999891
7,10,1743,0.246000000000095
7,11,1745,0.269999999999527
7,12,1746,0.244999999999891
7,13,1748,0.246000000000095
7,14,1742,0.243999999999687
7,15,1745,0.246000000000095
7,16,1746,0.27100000000064
7,17,1745,0.243999999999687
7,18,1746,0.244999999999891
7,19,1749,0.243999999999687
7,20,1748,0.246000000000095
7,21,1746,0.292999999999665
7,22,1746,0.259000000000015
7,23,1747,0.283000000000357
7,24,1748,0.271999999999935
7,25,1748,0.244999999999891
7,26,1748,0.246000000000095
7,27,1748,0.270999999999731
7,28,1748,0.244999999999891
7,29,1743,0.246000000000095
7,30,1744,0.244999999999891
8,9,1748,0.2450000000008
8,10,1749,0.272999999999229
8,11,1748,0.244999999999891
8,12,1747,0.246000000000095
8,13,1748,0.2450000000008
8,14,1747,0.245999999999185
8,15,1748,0.270000000000437
8,16,1748,0.243999999999687
8,17,1747,0.246000000000095
8,18,1748,0.243999999999687
8,19,1748,0.244999999999891
8,20,1745,0.293000000000575
8,21,1749,0.259000000000015
8,22,1749,0.282999999999447
8,23,1749,0.273000000000138
8,24,1749,0.243999999999687
8,25,1746,0.246000000000095
8,26,1749,0.270000000000437
8,27,1748,0.244999999999891
8,28,1749,0.246000000000095
8,29,1749,0.244999999999891
8,30,1749,0.246000000000095
9,10,1745,0.269999999999527
9,11,1747,0.244999999999891
9,12,1744,0.246000000000095
9,13,1744,0.244999999999891
9,14,1745,0.246000000000095
9,15,1743,0.270000000000437
9,16,1748,0.244999999999891
9,17,1749,0.246000000000095
9,18,1746,0.244000000000597
9,19,1739,0.246000000000095
9,20,1744,0.292999999999665
9,21,1748,0.260000000000218
9,22,1746,0.282999999999447
9,23,1746,0.273000000000138
9,24,1745,0.244999999999891
9,25,1746,0.246000000000095
9,26,1745,0.270000000000437
9,27,1745,0.244999999999891
9,28,1744,0.246000000000095
9,29,1745,0.244999999999891
9,30,1747,0.248999999999796
10,11,1746,0.270999999999731
10,12,1747,0.244000000000597
10,13,1743,0.246999999999389
10,14,1747,0.244000000000597
10,15,1742,0.245999999999185
10,16,1742,0.270000000000437
10,17,1745,0.244999999999891
10,18,1745,0.247000000000298
10,19,1740,0.243999999999687
10,20,1739,0.246000000000095
10,21,1749,0.293999999999869
10,22,1742,0.259000000000015
10,23,1745,0.283000000000357
10,24,1747,0.273000000000138
10,25,1742,0.244999999999891
10,26,1746,0.246000000000095
10,27,1743,0.269999999999527
10,28,1746,0.244999999999891
10,29,1744,0.246000000000095
10,30,1746,0.244999999999891
11,12,1749,0.244999999999891
11,13,1747,0.269999999999527
11,14,1745,0.2450000000008
11,15,1741,0.245999999999185
11,16,1745,0.2450000000008
11,17,1748,0.244999999999891
11,18,1747,0.270000000000437
11,19,1744,0.244999999999891
11,20,1746,0.246000000000095
11,21,1749,0.244999999999891
11,22,1748,0.244999999999891
11,23,1747,0.293999999999869
11,24,1733,0.259000000000015
11,25,1746,0.283000000000357
11,26,1747,0.273000000000138
11,27,1747,0.243999999999687
11,28,1746,0.246000000000095
11,29,1742,0.269999999999527
11,30,1742,0.2450000000008
12,13,1747,0.245999999999185
12,14,1748,0.2450000000008
12,15,1745,0.244999999999891
12,16,1748,0.270000000000437
12,17,1742,0.243999999999687
12,18,1749,0.247000000000298
12,19,1747,0.244999999999891
12,20,1749,0.244999999999891
12,21,1747,0.270999999999731
12,22,1749,0.244000000000597
12,23,1748,0.247000000000298
12,24,1746,0.243999999999687
12,25,1748,0.246000000000095
12,26,1747,0.293999999999869
12,27,1747,0.259000000000015
12,28,1749,0.282999999999447
12,29,1747,0.273000000000138
12,30,1749,0.244999999999891
13,14,1744,0.246000000000095
13,15,1748,0.270000000000437
13,16,1741,0.244999999999891
13,17,1743,0.246000000000095
13,18,1748,0.243999999999687
13,19,1745,0.246000000000095
13,20,1749,0.269999999999527
13,21,1747,0.2450000000008
13,22,1748,0.245999999999185
13,23,1747,0.2450000000008
13,24,1741,0.245999999999185
13,25,1741,0.269000000000233
13,26,1739,0.243999999999687
13,27,1733,0.246000000000095
13,28,1745,0.244999999999891
13,29,1747,0.246000000000095
13,30,1746,0.293999999999869
14,15,1745,0.259000000000015
14,16,1748,0.283000000000357
14,17,1745,0.273000000000138
14,18,1740,0.244999999999891
14,19,1747,0.246000000000095
14,20,1747,0.269999999999527
14,21,1748,0.243999999999687
14,22,1748,0.246000000000095
14,23,1747,0.243999999999687
14,24,1740,0.246000000000095
14,25,1746,0.270000000000437
14,26,1748,0.244000000000597
14,27,1742,0.246000000000095
14,28,1745,0.244999999999891
14,29,1740,0.246000000000095
14,30,1745,0.269999999999527
15,16,1745,0.244999999999891
15,17,1744,0.246000000000095
15,18,1747,0.243999999999687
15,19,1749,0.246000000000095
15,20,1744,0.293000000000575
15,21,1749,0.259000000000015
15,22,1745,0.282000000000153
15,23,1747,0.271999999999935
15,24,1747,0.244999999999891
15,25,1747,0.247000000000298
15,26,1745,0.269999999999527
15,27,1748,0.2450000000008
15,28,1744,0.245999999999185
15,29,1748,0.2450000000008
15,30,1746,0.245999999999185
16,17,1743,0.270000000000437
16,18,1745,0.244999999999891
16,19,1749,0.246000000000095
16,20,1742,0.244999999999891
16,21,1748,0.246000000000095
16,22,1739,0.269999999999527
16,23,1748,0.2450000000008
16,24,1737,0.246000000000095
16,25,1748,0.244999999999891
16,26,1749,0.246000000000095
16,27,1741,0.292999999999665
16,28,1749,0.259000000000015
16,29,1748,0.282999999999447
16,30,1746,0.273000000000138
17,18,1749,0.244999999999891
17,19,1747,0.246000000000095
17,20,1747,0.270000000000437
17,21,1745,0.244999999999891
17,22,1739,0.247000000000298
17,23,1747,0.243999999999687
17,24,1747,0.246000000000095
17,25,1746,0.270999999999731
17,26,1746,0.244000000000597
17,27,1748,0.246000000000095
17,28,1749,0.244999999999891
17,29,1746,0.246000000000095
17,30,1746,0.270000000000437
18,19,1748,0.244999999999891
18,20,1747,0.246000000000095
18,21,1749,0.244999999999891
18,22,1744,0.246000000000095
18,23,1744,0.292999999999665
18,24,1748,0.259000000000015
18,25,1748,0.283000000000357
18,26,1747,0.273000000000138
18,27,1747,0.243999999999687
18,28,1746,0.246000000000095
18,29,1744,0.269999999999527
18,30,1740,0.244999999999891
19,20,1745,0.246000000000095
19,21,1749,0.244999999999891
19,22,1749,0.246000000000095
19,23,1748,0.270000000000437
19,24,1739,0.244000000000597
19,25,1748,0.246000000000095
19,26,1747,0.244999999999891
19,27,1748,0.246000000000095
19,28,1744,0.269999999999527
19,29,1742,0.244999999999891
19,30,1745,0.246000000000095
20,21,1748,0.244999999999891
20,22,1744,0.246000000000095
20,23,1747,0.293000000000575
20,24,1743,0.259000000000015
20,25,1748,0.282999999999447
20,26,1748,0.273000000000138
20,27,1748,0.244999999999891
20,28,1744,0.246000000000095
20,29,1742,0.270000000000437
20,30,1737,0.244999999999891
21,22,1745,0.246000000000095
21,23,1748,0.244999999999891
21,24,1749,0.246000000000095
21,25,1747,0.269999999999527
21,26,1749,0.244999999999891
21,27,1747,0.246000000000095
21,28,1749,0.244999999999891
21,29,1741,0.244999999999891
21,30,1747,0.27100000000064
22,23,1743,0.244999999999891
22,24,1741,0.246000000000095
22,25,1747,0.244999999999891
22,26,1746,0.246000000000095
22,27,1746,0.292999999999665
22,28,1748,0.260000000000218
22,29,1745,0.282000000000153
22,30,1746,0.272000000000844
23,24,1740,0.244999999999891
23,25,1749,0.246000000000095
23,26,1748,0.269999999999527
23,27,1745,0.243999999999687
23,28,1748,0.247000000000298
23,29,1741,0.244999999999891
23,30,1748,0.246000000000095
24,25,1746,0.269999999999527
24,26,1748,0.2450000000008
24,27,1747,0.245999999999185
24,28,1747,0.2450000000008
24,29,1743,0.245999999999185
24,30,1743,0.270000000000437
25,26,1741,0.244999999999891
25,27,1738,0.246000000000095
25,28,1745,0.244999999999891
25,29,1749,0.246000000000095
25,30,1745,0.292999999999665
26,27,1745,0.259000000000015
26,28,1731,0.283000000000357
26,29,1749,0.273000000000138
26,30,1742,0.244999999999891
27,28,1746,0.246000000000095
27,29,1743,0.269999999999527
27,30,1748,0.244999999999891
28,29,1748,0.246000000000095
28,30,1743,0.243999999999687
29,30,1741,0.246000000000095


"After.Trace.ID","Before.Trace.ID","Difference","Runtime"
1,1,1744,0.244000000000597
1,2,1747,0.246000000000095
1,3,1748,0.243999999999687
1,4,1744,0.246000000000095
1,5,1745,0.244999999999891
1,6,1748,0.246000000000095
1,7,1749,0.270000000000437
1,8,1744,0.244999999999891
1,9,1746,0.246000000000095
1,10,1740,0.244999999999891
1,11,1746,0.246000000000095
1,12,1748,0.269999999999527
1,13,1748,0.244999999999891
1,14,1743,0.246000000000095
1,15,1746,0.244999999999891
1,16,1748,0.246000000000095
1,17,1748,0.270000000000437
1,18,1743,0.244999999999891
1,19,1748,0.246000000000095
1,20,1743,0.244999999999891
1,21,1748,0.246000000000095
1,22,1745,0.242999999999483
1,23,1744,0.244999999999891
1,24,1749,0.247000000000298
1,25,1746,0.246000000000095
1,26,1747,0.244999999999891
1,27,1742,0.246000000000095
1,28,1748,0.269999999999527
1,29,1748,0.2450000000008
1,30,1748,0.246999999999389
2,1,1749,0.244000000000597
2,2,1746,0.245999999999185
2,3,1748,0.270000000000437
2,4,1746,0.244999999999891
2,5,1746,0.246000000000095
2,6,1748,0.244999999999891
2,7,1748,0.246000000000095
2,8,1749,0.270000000000437
2,9,1749,0.244999999999891
2,10,1749,0.246000000000095
2,11,1749,0.244000000000597
2,12,1749,0.2450000000008
2,13,1749,0.242999999999483
2,14,1749,0.246000000000095
2,15,1749,0.243999999999687
2,16,1749,0.246000000000095
2,17,1749,0.243999999999687
2,18,1741,0.246000000000095
2,19,1748,0.270000000000437
2,20,1748,0.244999999999891
2,21,1748,0.246000000000095
2,22,1749,0.244999999999891
2,23,1748,0.244999999999891
2,24,1746,0.270000000000437
2,25,1748,0.244999999999891
2,26,1748,0.246000000000095
2,27,1747,0.244000000000597
2,28,1749,0.244999999999891
2,29,1748,0.270000000000437
2,30,1748,0.243999999999687
3,1,1745,0.246000000000095
3,2,1747,0.244999999999891
3,3,1745,0.246000000000095
3,4,1747,0.243000000000393
3,5,1735,0.244999999999891
3,6,1748,0.244999999999891
3,7,1745,0.246000000000095
3,8,1748,0.243999999999687
3,9,1746,0.244999999999891
3,10,1745,0.270999999999731
3,11,1744,0.244999999999891
3,12,1740,0.246000000000095
3,13,1746,0.244000000000597
3,14,1744,0.245999999999185
3,15,1747,0.270000000000437
3,16,1745,0.244999999999891
3,17,1745,0.246000000000095
3,18,1749,0.244999999999891
3,19,1749,0.244999999999891
3,20,1748,0.269999999999527
3,21,1748,0.244999999999891
3,22,1738,0.246000000000095
3,23,1745,0.244999999999891
3,24,1748,0.248000000000502
3,25,1745,0.242999999999483
3,26,1746,0.2450000000008
3,27,1748,0.244000000000597
3,28,1749,0.246999999999389
3,29,1748,0.244000000000597
3,30,1747,0.246000000000095
4,1,1748,0.271999999999935
4,2,1746,0.244999999999891
4,3,1748,0.246000000000095
4,4,1748,0.244999999999891
4,5,1748,0.247999999999593
4,6,1744,0.270000000000437
4,7,1748,0.243999999999687
4,8,1748,0.247000000000298
4,9,1744,0.244999999999891
4,10,1749,0.244999999999891
4,11,1742,0.269999999999527
4,12,1748,0.244999999999891
4,13,1748,0.247000000000298
4,14,1743,0.243999999999687
4,15,1743,0.246000000000095
4,16,1741,0.243000000000393
4,17,1748,0.244999999999891
4,18,1747,0.244999999999891
4,19,1739,0.246000000000095
4,20,1747,0.243999999999687
4,21,1747,0.246000000000095
4,22,1747,0.27100000000064
4,23,1747,0.243999999999687
4,24,1742,0.247000000000298
4,25,1745,0.243999999999687
4,26,1746,0.246000000000095
4,27,1747,0.269999999999527
4,28,1744,0.244999999999891
4,29,1746,0.246000000000095
4,30,1745,0.244999999999891
5,1,1748,0.246000000000095
5,2,1747,0.270000000000437
5,3,1747,0.243999999999687
5,4,1749,0.246000000000095
5,5,1748,0.244999999999891
5,6,1748,0.244999999999891
5,7,1747,0.242000000000189
5,8,1747,0.247000000000298
5,9,1747,0.243999999999687
5,10,1747,0.244999999999891
5,11,1745,0.244999999999891
5,12,1748,0.246000000000095
5,13,1747,0.270000000000437
5,14,1749,0.244999999999891
5,15,1745,0.246000000000095
5,16,1748,0.243999999999687
5,17,1748,0.244999999999891
5,18,1749,0.270999999999731
5,19,1749,0.244000000000597
5,20,1747,0.246000000000095
5,21,1748,0.244000000000597
5,22,1748,0.246000000000095
5,23,1743,0.269999999999527
5,24,1747,0.246000000000095
5,25,1749,0.246000000000095
5,26,1746,0.244999999999891
5,27,1749,0.246000000000095
5,28,1749,0.242999999999483
5,29,1747,0.246000000000095
5,30,1748,0.244999999999891
6,1,1747,0.246000000000095
6,2,1748,0.244999999999891
6,3,1745,0.246000000000095
6,4,1748,0.27100000000064
6,5,1746,0.244999999999891
6,6,1746,0.246999999999389
6,7,1747,0.2450000000008
6,8,1747,0.245999999999185
6,9,1748,0.27100000000064
6,10,1749,0.244999999999891
6,11,1744,0.246000000000095
6,12,1747,0.244999999999891
6,13,1741,0.246000000000095
6,14,1748,0.270999999999731
6,15,1739,0.244999999999891
6,16,1743,0.246000000000095
6,17,1742,0.244999999999891
6,18,1748,0.246000000000095
6,19,1748,0.242999999999483
6,20,1746,0.246000000000095
6,21,1746,0.244999999999891
6,22,1747,0.246000000000095
6,23,1747,0.244999999999891
6,24,1748,0.246000000000095
6,25,1747,0.270000000000437
6,26,1746,0.2450000000008
6,27,1748,0.246000000000095
6,28,1749,0.244999999999891
6,29,1747,0.246000000000095
6,30,1745,0.270999999999731
7,1,1746,0.244999999999891
7,2,1748,0.246000000000095
7,3,1741,0.244999999999891
7,4,1746,0.246000000000095
7,5,1745,0.269999999999527
7,6,1749,0.243999999999687
7,7,1747,0.246000000000095
7,8,1749,0.244999999999891
7,9,1746,0.246000000000095
7,10,1746,0.243000000000393
7,11,1743,0.246000000000095
7,12,1748,0.244999999999891
7,13,1748,0.246000000000095
7,14,1743,0.244999999999891
7,15,1740,0.246000000000095
7,16,1742,0.269999999999527
7,17,1743,0.244999999999891
7,18,1746,0.246000000000095
7,19,1748,0.244999999999891
7,20,1746,0.246000000000095
7,21,1748,0.270000000000437
7,22,1746,0.244999999999891
7,23,1748,0.246000000000095
7,24,1746,0.244999999999891
7,25,1747,0.246000000000095
7,26,1747,0.27100000000064
7,27,1749,0.244999999999891
7,28,1745,0.246000000000095
7,29,1735,0.244999999999891
7,30,1745,0.246000000000095
8,1,1742,0.242999999999483
8,2,1749,0.247000000000298
8,3,1741,0.243999999999687
8,4,1747,0.246000000000095
8,5,1747,0.244999999999891
8,6,1746,0.246000000000095
8,7,1748,0.270999999999731
8,8,1749,0.2450000000008
8,9,1747,0.245999999999185
8,10,1740,0.244000000000597
8,11,1747,0.246000000000095
8,12,1740,0.270000000000437
8,13,1742,0.244999999999891
8,14,1744,0.246000000000095
8,15,1748,0.244999999999891
8,16,1745,0.246000000000095
8,17,1749,0.269999999999527
8,18,1746,0.244999999999891
8,19,1747,0.246000000000095
8,20,1745,0.244999999999891
8,21,1748,0.244999999999891
8,22,1748,0.243000000000393
8,23,1746,0.246000000000095
8,24,1745,0.244000000000597
8,25,1746,0.247999999999593
8,26,1747,0.244999999999891
8,27,1743,0.246000000000095
8,28,1746,0.270000000000437
8,29,1748,0.244999999999891
8,30,1740,0.245999999999185
9,1,1749,0.2450000000008
9,2,1743,0.246000000000095
9,3,1747,0.269999999999527
9,4,1747,0.243999999999687
9,5,1739,0.246000000000095
9,6,1746,0.244999999999891
9,7,1747,0.246000000000095
9,8,1746,0.269999999999527
9,9,1747,0.244999999999891
9,10,1749,0.246000000000095
9,11,1746,0.244999999999891
9,12,1746,0.246000000000095
9,13,1747,0.243000000000393
9,14,1745,0.246000000000095
9,15,1746,0.244999999999891
9,16,1744,0.246000000000095
9,17,1749,0.244999999999891
9,18,1748,0.246000000000095
9,19,1745,0.269999999999527
9,20,1748,0.2450000000008
9,21,1749,0.246000000000095
9,22,1745,0.244999999999891
9,23,1743,0.246000000000095
9,24,1746,0.270000000000437
9,25,1747,0.246999999999389
9,26,1749,0.247000000000298
9,27,1747,0.246000000000095
9,28,1749,0.246000000000095
9,29,1747,0.269999999999527
9,30,1747,0.244999999999891
10,1,1748,0.246000000000095
10,2,1747,0.244999999999891
10,3,1742,0.246000000000095
10,4,1747,0.243000000000393
10,5,1749,0.246000000000095
10,6,1748,0.244999999999891
10,7,1746,0.246000000000095
10,8,1747,0.244999999999891
10,9,1748,0.246000000000095
10,10,1747,0.269999999999527
10,11,1746,0.244999999999891
10,12,1741,0.246000000000095
10,13,1745,0.244999999999891
10,14,1744,0.246000000000095
10,15,1748,0.270000000000437
10,16,1748,0.244999999999891
10,17,1743,0.246999999999389
10,18,1749,0.244999999999891
10,19,1747,0.246000000000095
10,20,1746,0.270000000000437
10,21,1748,0.244999999999891
10,22,1745,0.246000000000095
10,23,1746,0.244999999999891
10,24,1747,0.246000000000095
10,25,1749,0.24199999999928
10,26,1749,0.246000000000095
10,27,1749,0.243999999999687
10,28,1749,0.244999999999891
10,29,1743,0.2450000000008
10,30,1744,0.245999999999185
11,1,1748,0.270000000000437
11,2,1745,0.244999999999891
11,3,1749,0.246000000000095
11,4,1749,0.244999999999891
11,5,1746,0.246000000000095
11,6,1749,0.270999999999731
11,7,1746,0.244999999999891
11,8,1747,0.246000000000095
11,9,1742,0.244999999999891
11,10,1747,0.247000000000298
11,11,1746,0.270999999999731
11,12,1746,0.244999999999891
11,13,1748,0.246000000000095
11,14,1749,0.244999999999891
11,15,1747,0.246000000000095
11,16,1746,0.242000000000189
11,17,1742,0.245999999999185
11,18,1748,0.244000000000597
11,19,1748,0.246000000000095
11,20,1749,0.244000000000597
11,21,1747,0.246000000000095
11,22,1742,0.270999999999731
11,23,1748,0.244999999999891
11,24,1749,0.247000000000298
11,25,1749,0.244999999999891
11,26,1743,0.246000000000095
11,27,1749,0.269999999999527
11,28,1749,0.244999999999891
11,29,1744,0.246000000000095
11,30,1744,0.244999999999891
12,1,1743,0.246000000000095
12,2,1742,0.270000000000437
12,3,1746,0.246999999999389
12,4,1741,0.247000000000298
12,5,1748,0.244999999999891
12,6,1745,0.246000000000095
12,7,1749,0.243000000000393
12,8,1745,0.245999999999185
12,9,1744,0.246000000000095
12,10,1742,0.244999999999891
12,11,1737,0.244000000000597
12,12,1749,0.245999999999185
12,13,1745,0.27100000000064
12,14,1744,0.244999999999891
12,15,1746,0.247000000000298
12,16,1747,0.243999999999687
12,17,1746,0.246000000000095
12,18,1746,0.270999999999731
12,19,1747,0.244999999999891
12,20,1749,0.246000000000095
12,21,1749,0.244999999999891
12,22,1747,0.246000000000095
12,23,1745,0.270999999999731
12,24,1744,0.2450000000008
12,25,1745,0.245999999999185
12,26,1740,0.2450000000008
12,27,1746,0.245999999999185
12,28,1747,0.243000000000393
12,29,1744,0.246000000000095
12,30,1745,0.244999999999891
13,1,1746,0.244999999999891
13,2,1743,0.243999999999687
13,3,1745,0.246000000000095
13,4,1746,0.270999999999731
13,5,1747,0.244999999999891
13,6,1745,0.246000000000095
13,7,1749,0.243999999999687
13,8,1745,0.246000000000095
13,9,1741,0.27100000000064
13,10,1747,0.244999999999891
13,11,1743,0.246000000000095
13,12,1738,0.244000000000597
13,13,1748,0.246000000000095
13,14,1747,0.270999999999731
13,15,1741,0.244999999999891
13,16,1746,0.246000000000095
13,17,1747,0.244999999999891
13,18,1746,0.246000000000095
13,19,1749,0.242999999999483
13,20,1746,0.246000000000095
13,21,1746,0.2450000000008
13,22,1743,0.245999999999185
13,23,1748,0.2450000000008
13,24,1746,0.245999999999185
13,25,1748,0.27100000000064
13,26,1748,0.244999999999891
13,27,1746,0.246000000000095
13,28,1747,0.244999999999891
13,29,1748,0.246000000000095
13,30,1747,0.269999999999527
14,1,1743,0.244999999999891
14,2,1742,0.246000000000095
14,3,1746,0.244999999999891
14,4,1740,0.246000000000095
14,5,1747,0.269999999999527
14,6,1747,0.243999999999687
14,7,1746,0.246000000000095
14,8,1746,0.244999999999891
14,9,1746,0.246000000000095
14,10,1741,0.243000000000393
14,11,1745,0.246000000000095
14,12,1747,0.244999999999891
14,13,1748,0.246000000000095
14,14,1745,0.244999999999891
14,15,1746,0.246000000000095
14,16,1743,0.270999999999731
14,17,1748,0.244999999999891
14,18,1749,0.246000000000095
14,19,1747,0.243999999999687
14,20,1745,0.246000000000095
14,21,1747,0.270999999999731
14,22,1743,0.244999999999891
14,23,1742,0.246000000000095
14,24,1745,0.244999999999891
14,25,1748,0.246000000000095
14,26,1749,0.27100000000064
14,27,1749,0.244999999999891
14,28,1748,0.246000000000095
14,29,1739,0.244999999999891
14,30,1747,0.246000000000095
15,1,1740,0.242999999999483
15,2,1737,0.246000000000095
15,3,1744,0.243999999999687
15,4,1746,0.246000000000095
15,5,1745,0.243999999999687
15,6,1747,0.246000000000095
15,7,1742,0.270999999999731
15,8,1748,0.2450000000008
15,9,1741,0.245999999999185
15,10,1749,0.244000000000597
15,11,1746,0.245999999999185
15,12,1746,0.27100000000064
15,13,1745,0.244999999999891
15,14,1746,0.246000000000095
15,15,1744,0.244999999999891
15,16,1748,0.246000000000095
15,17,1744,0.270999999999731
15,18,1749,0.244999999999891
15,19,1747,0.246000000000095
15,20,1747,0.244999999999891
15,21,1747,0.246000000000095
15,22,1747,0.243000000000393
15,23,1745,0.246000000000095
15,24,1742,0.244999999999891
15,25,1747,0.246000000000095
15,26,1745,0.243999999999687
15,27,1749,0.246000000000095
15,28,1747,0.269999999999527
15,29,1746,0.244999999999891
15,30,1748,0.246000000000095
16,1,1747,0.244999999999891
16,2,1745,0.246000000000095
16,3,1748,0.270000000000437
16,4,1748,0.244999999999891
16,5,1745,0.246000000000095
16,6,1744,0.244999999999891
16,7,1743,0.246000000000095
16,8,1744,0.270999999999731
16,9,1744,0.244999999999891
16,10,1747,0.246000000000095
16,11,1747,0.243999999999687
16,12,1747,0.244999999999891
16,13,1746,0.243000000000393
16,14,1747,0.246000000000095
16,15,1744,0.244999999999891
16,16,1745,0.246000000000095
16,17,1743,0.244999999999891
16,18,1748,0.246000000000095
16,19,1749,0.270999999999731
16,20,1748,0.244999999999891
16,21,1746,0.246000000000095
16,22,1747,0.243999999999687
16,23,1748,0.246000000000095
16,24,1744,0.269999999999527
16,25,1746,0.244000000000597
16,26,1747,0.246000000000095
16,27,1749,0.244999999999891
16,28,1749,0.244999999999891
16,29,1746,0.270000000000437
16,30,1749,0.244999999999891
17,1,1744,0.247000000000298
17,2,1739,0.243999999999687
17,3,1746,0.244999999999891
17,4,1743,0.242999999999483
17,5,1746,0.246000000000095
17,6,1742,0.244999999999891
17,7,1740,0.246000000000095
17,8,1749,0.244999999999891
17,9,1744,0.246000000000095
17,10,1746,0.27100000000064
17,11,1749,0.244999999999891
17,12,1748,0.246999999999389
17,13,1748,0.244999999999891
17,14,1743,0.2450000000008
17,15,1747,0.270000000000437
17,16,1744,0.244999999999891
17,17,1746,0.246000000000095
17,18,1748,0.243999999999687
17,19,1748,0.246000000000095
17,20,1735,0.270999999999731
17,21,1748,0.244999999999891
17,22,1744,0.246000000000095
17,23,1740,0.244999999999891
17,24,1747,0.246000000000095
17,25,1746,0.243000000000393
17,26,1746,0.247999999999593
17,27,1746,0.246000000000095
17,28,1747,0.246000000000095
17,29,1746,0.244999999999891
17,30,1745,0.246000000000095
18,1,1749,0.269999999999527
18,2,1747,0.244999999999891
18,3,1747,0.246000000000095
18,4,1745,0.244999999999891
18,5,1749,0.246000000000095
18,6,1745,0.270000000000437
18,7,1747,0.246000000000095
18,8,1745,0.245999999999185
18,9,1741,0.2450000000008
18,10,1749,0.246000000000095
18,11,1747,0.269999999999527
18,12,1744,0.244999999999891
18,13,1743,0.246000000000095
18,14,1743,0.244999999999891
18,15,1748,0.246000000000095
18,16,1748,0.242999999999483
18,17,1748,0.246000000000095
18,18,1748,0.244999999999891
18,19,1748,0.246000000000095
18,20,1748,0.244999999999891
18,21,1749,0.246000000000095
18,22,1745,0.270000000000437
18,23,1746,0.244999999999891
18,24,1747,0.246000000000095
18,25,1746,0.244999999999891
18,26,1747,0.246000000000095
18,27,1738,0.269999999999527
18,28,1746,0.244999999999891
18,29,1743,0.246000000000095
18,30,1748,0.244999999999891
19,1,1746,0.246000000000095
19,2,1745,0.270000000000437
19,3,1741,0.244999999999891
19,4,1749,0.246000000000095
19,5,1748,0.244999999999891
19,6,1747,0.246000000000095
19,7,1748,0.242999999999483
19,8,1745,0.246000000000095
19,9,1747,0.244999999999891
19,10,1748,0.246000000000095
19,11,1745,0.243999999999687
19,12,1747,0.246000000000095
19,13,1747,0.270000000000437
19,14,1748,0.244999999999891
19,15,1747,0.246999999999389
19,16,1748,0.244000000000597
19,17,1748,0.2450000000008
19,18,1749,0.270000000000437
19,19,1744,0.244999999999891
19,20,1746,0.246000000000095
19,21,1749,0.244999999999891
19,22,1749,0.246000000000095
19,23,1745,0.270999999999731
19,24,1743,0.244999999999891
19,25,1748,0.246000000000095
19,26,1746,0.244999999999891
19,27,1749,0.246000000000095
19,28,1740,0.243000000000393
19,29,1746,0.246000000000095
19,30,1744,0.243999999999687
20,1,1741,0.244999999999891
20,2,1747,0.243999999999687
20,3,1749,0.246000000000095
20,4,1748,0.269999999999527
20,5,1743,0.244000000000597
20,6,1746,0.246000000000095
20,7,1748,0.244999999999891
20,8,1743,0.246000000000095
20,9,1748,0.270000000000437
20,10,1745,0.246000000000095
20,11,1749,0.246000000000095
20,12,1747,0.244999999999891
20,13,1748,0.246000000000095
20,14,1748,0.269999999999527
20,15,1749,0.243999999999687
20,16,1749,0.246000000000095
20,17,1747,0.244999999999891
20,18,1745,0.246000000000095
20,19,1749,0.243000000000393
20,20,1745,0.245999999999185
20,21,1743,0.2450000000008
20,22,1746,0.244999999999891
20,23,1747,0.244000000000597
20,24,1748,0.246000000000095
20,25,1747,0.270000000000437
20,26,1745,0.244999999999891
20,27,1749,0.246000000000095
20,28,1748,0.244999999999891
20,29,1748,0.246000000000095
20,30,1749,0.269999999999527
21,1,1748,0.244999999999891
21,2,1740,0.246000000000095
21,3,1748,0.244999999999891
21,4,1748,0.246000000000095
21,5,1747,0.270000000000437
21,6,1748,0.244000000000597
21,7,1749,0.245999999999185
21,8,1748,0.2450000000008
21,9,1749,0.244999999999891
21,10,1747,0.243000000000393
21,11,1747,0.244999999999891
21,12,1747,0.243999999999687
21,13,1746,0.244999999999891
21,14,1749,0.244999999999891
21,15,1748,0.246000000000095
21,16,1748,0.269999999999527
21,17,1749,0.244999999999891
21,18,1747,0.246000000000095
21,19,1749,0.243999999999687
21,20,1749,0.246000000000095
21,21,1748,0.270000000000437
21,22,1749,0.244999999999891
21,23,1749,0.246000000000095
21,24,1749,0.244999999999891
21,25,1748,0.2450000000008
21,26,1747,0.270000000000437
21,27,1745,0.244999999999891
21,28,1748,0.246000000000095
21,29,1749,0.244999999999891
21,30,1748,0.246000000000095
22,1,1748,0.242999999999483
22,2,1747,0.247000000000298
22,3,1747,0.243999999999687
22,4,1744,0.249000000000706
22,5,1745,0.243999999999687
22,6,1747,0.246000000000095
22,7,1748,0.270999999999731
22,8,1749,0.244000000000597
22,9,1740,0.246000000000095
22,10,1746,0.244999999999891
22,11,1741,0.246000000000095
22,12,1748,0.27100000000064
22,13,1746,0.244999999999891
22,14,1744,0.246000000000095
22,15,1746,0.245999999999185
22,16,1745,0.246000000000095
22,17,1748,0.270000000000437
22,18,1748,0.244999999999891
22,19,1746,0.246000000000095
22,20,1744,0.243999999999687
22,21,1747,0.244999999999891
22,22,1746,0.243000000000393
22,23,1746,0.246000000000095
22,24,1741,0.244000000000597
22,25,1749,0.245999999999185
22,26,1745,0.2450000000008
22,27,1749,0.245999999999185
22,28,1744,0.27100000000064
22,29,1747,0.243999999999687
22,30,1743,0.246000000000095
23,1,1747,0.244999999999891
23,2,1744,0.246000000000095
23,3,1748,0.269999999999527
23,4,1744,0.246000000000095
23,5,1746,0.246000000000095
23,6,1743,0.244999999999891
23,7,1743,0.246000000000095
23,8,1748,0.270000000000437
23,9,1744,0.244000000000597
23,10,1746,0.245999999999185
23,11,1748,0.2450000000008
23,12,1749,0.244999999999891
23,13,1746,0.242000000000189
23,14,1747,0.246000000000095
23,15,1745,0.243999999999687
23,16,1746,0.246000000000095
23,17,1745,0.244999999999891
23,18,1747,0.246000000000095
23,19,1747,0.270000000000437
23,20,1749,0.244999999999891
23,21,1748,0.246999999999389
23,22,1742,0.2450000000008
23,23,1749,0.245999999999185
23,24,1747,0.270000000000437
23,25,1748,0.244999999999891
23,26,1745,0.246000000000095
23,27,1748,0.244999999999891
23,28,1747,0.246000000000095
23,29,1749,0.269999999999527
23,30,1749,0.244999999999891
24,1,1748,0.247000000000298
24,2,1747,0.244999999999891
24,3,1737,0.246000000000095
24,4,1745,0.243000000000393
24,5,1738,0.246000000000095
24,6,1748,0.244999999999891
24,7,1741,0.246000000000095
24,8,1746,0.243999999999687
24,9,1745,0.244999999999891
24,10,1745,0.270999999999731
24,11,1748,0.244999999999891
24,12,1746,0.246000000000095
24,13,1747,0.244999999999891
24,14,1748,0.246000000000095
24,15,1746,0.270000000000437
24,16,1738,0.246000000000095
24,17,1748,0.245999999999185
24,18,1744,0.2450000000008
24,19,1745,0.246000000000095
24,20,1749,0.269999999999527
24,21,1749,0.244999999999891
24,22,1745,0.246000000000095
24,23,1739,0.244999999999891
24,24,1748,0.246000000000095
24,25,1749,0.243000000000393
24,26,1742,0.246000000000095
24,27,1746,0.244999999999891
24,28,1749,0.2450000000008
24,29,1745,0.244000000000597
24,30,1747,0.246000000000095
25,1,1745,0.269999999999527
25,2,1747,0.244999999999891
25,3,1743,0.246000000000095
25,4,1747,0.244999999999891
25,5,1741,0.246000000000095
25,6,1747,0.270999999999731
25,7,1748,0.244999999999891
25,8,1749,0.246000000000095
25,9,1744,0.244999999999891
25,10,1742,0.246000000000095
25,11,1741,0.270000000000437
25,12,1747,0.244999999999891
25,13,1743,0.247000000000298
25,14,1744,0.244999999999891
25,15,1741,0.244999999999891
25,16,1741,0.24199999999928
25,17,1747,0.246000000000095
25,18,1741,0.243999999999687
25,19,1748,0.244999999999891
25,20,1749,0.243999999999687
25,21,1744,0.246000000000095
25,22,1744,0.270000000000437
25,23,1743,0.244999999999891
25,24,1739,0.246000000000095
25,25,1748,0.244999999999891
25,26,1741,0.246000000000095
25,27,1743,0.270999999999731
25,28,1746,0.246000000000095
25,29,1746,0.246000000000095
25,30,1742,0.244000000000597
26,1,1747,0.244999999999891
26,2,1749,0.270999999999731
26,3,1746,0.244999999999891
26,4,1744,0.246000000000095
26,5,1747,0.246000000000095
26,6,1744,0.244999999999891
26,7,1748,0.243999999999687
26,8,1748,0.246000000000095
26,9,1747,0.244000000000597
26,10,1749,0.244999999999891
26,11,1745,0.244000000000597
26,12,1748,0.246000000000095
26,13,1746,0.270999999999731
26,14,1745,0.244999999999891
26,15,1747,0.247000000000298
26,16,1749,0.244999999999891
26,17,1748,0.244999999999891
26,18,1747,0.269999999999527
26,19,1749,0.244999999999891
26,20,1741,0.246000000000095
26,21,1748,0.243999999999687
26,22,1747,0.246000000000095
26,23,1742,0.270999999999731
26,24,1745,0.2450000000008
26,25,1747,0.245999999999185
26,26,1744,0.2450000000008
26,27,1747,0.244999999999891
26,28,1742,0.242999999999483
26,29,1745,0.246000000000095
26,30,1743,0.243999999999687
27,1,1744,0.244999999999891
27,2,1749,0.243999999999687
27,3,1746,0.244999999999891
27,4,1745,0.270000000000437
27,5,1745,0.244999999999891
27,6,1747,0.246000000000095
27,7,1746,0.244999999999891
27,8,1747,0.246000000000095
27,9,1744,0.270000000000437
27,10,1745,0.244999999999891
27,11,1745,0.246000000000095
27,12,1747,0.244999999999891
27,13,1748,0.246000000000095
27,14,1746,0.269999999999527
27,15,1747,0.2450000000008
27,16,1744,0.245999999999185
27,17,1749,0.2450000000008
27,18,1748,0.244999999999891
27,19,1748,0.243000000000393
27,20,1743,0.246000000000095
27,21,1748,0.244999999999891
27,22,1748,0.246000000000095
27,23,1746,0.244999999999891
27,24,1749,0.246000000000095
27,25,1748,0.270999999999731
27,26,1748,0.244999999999891
27,27,1748,0.246000000000095
27,28,1748,0.244999999999891
27,29,1746,0.246000000000095
27,30,1749,0.27100000000064
28,1,1743,0.244999999999891
28,2,1747,0.246000000000095
28,3,1744,0.244999999999891
28,4,1744,0.246000000000095
28,5,1744,0.269999999999527
28,6,1748,0.244999999999891
28,7,1747,0.247000000000298
28,8,1742,0.244999999999891
28,9,1743,0.246000000000095
28,10,1747,0.242999999999483
28,11,1746,0.246000000000095
28,12,1747,0.244999999999891
28,13,1744,0.246000000000095
28,14,1737,0.2450000000008
28,15,1744,0.245999999999185
28,16,1742,0.270000000000437
28,17,1745,0.243999999999687
28,18,1743,0.246000000000095
28,19,1747,0.244999999999891
28,20,1748,0.246000000000095
28,21,1747,0.269999999999527
28,22,1744,0.244999999999891
28,23,1745,0.246000000000095
28,24,1747,0.244999999999891
28,25,1749,0.246000000000095
28,26,1747,0.27100000000064
28,27,1740,0.244999999999891
28,28,1747,0.246000000000095
28,29,1745,0.245999999999185
28,30,1744,0.2450000000008
29,1,1744,0.242999999999483
29,2,1745,0.246000000000095
29,3,1744,0.243999999999687
29,4,1747,0.246000000000095
29,5,1747,0.244999999999891
29,6,1743,0.246000000000095
29,7,1742,0.270999999999731
29,8,1747,0.2450000000008
29,9,1748,0.245999999999185
29,10,1745,0.2450000000008
29,11,1746,0.245999999999185
29,12,1749,0.270000000000437
29,13,1748,0.244999999999891
29,14,1745,0.246000000000095
29,15,1743,0.244999999999891
29,16,1746,0.246000000000095
29,17,1746,0.269999999999527
29,18,1748,0.244999999999891
29,19,1748,0.247000000000298
29,20,1745,0.244999999999891
29,21,1748,0.246000000000095
29,22,1740,0.243000000000393
29,23,1744,0.246000000000095
29,24,1745,0.243999999999687
29,25,1746,0.246000000000095
29,26,1746,0.243999999999687
29,27,1747,0.244999999999891
29,28,1749,0.269999999999527
29,29,1739,0.244999999999891
29,30,1742,0.246000000000095
30,1,1742,0.244000000000597
30,2,1746,0.246000000000095
30,3,1744,0.269999999999527
30,4,1745,0.244999999999891
30,5,1745,0.246000000000095
30,6,1749,0.243999999999687
30,7,1734,0.246000000000095
30,8,1745,0.270000000000437
30,9,1745,0.244999999999891
30,10,1742,0.246000000000095
30,11,1748,0.244999999999891
30,12,1745,0.246000000000095
30,13,1744,0.24199999999928
30,14,1748,0.246000000000095
30,15,1747,0.244999999999891
30,16,1746,0.246000000000095
30,17,1746,0.2450000000008
30,18,1745,0.244999999999891
30,19,1747,0.269999999999527
30,20,1745,0.243999999999687
30,21,1747,0.246000000000095
30,22,1748,0.243999999999687
30,23,1744,0.246000000000095
30,24,1747,0.270000000000437
30,25,1747,0.244999999999891
30,26,1749,0.246000000000095
30,27,1745,0.243999999999687
30,28,1748,0.246000000000095
30,29,1745,0.269999999999527
30,30,1749,0.2450000000008
