"Before.Trace.ID1","Before.Trace.ID2","Difference","Runtime"
1,2,135862.11972229,0.00100000000020373
1,3,115205.409966416,0
1,4,131230.84556747,0.00100000000020373
1,5,140657.836261936,0
1,6,165831.200802625,0.00100000000020373
1,7,176727.678238492,0
1,8,159922.554768223,0
1,9,183478.079427996,0.000999999999294232
1,10,154226.266991168,0
1,11,133973.195724681,0.00100000000020373
1,12,141714.714239163,0
1,13,137106.714178456,0
1,14,131030.373905702,0
1,15,100534.046366023,0
1,16,92732.8500365667,0.00100000000020373
1,17,133191.455724873,0
1,18,148587.25190407,0.000999999999294232
1,19,150476.221655419,0
1,20,136874.969415893,0
1,21,165842.029285459,0.00100000000020373
1,22,139962.225793033,0
1,23,158122.43369529,0.00100000000020373
1,24,206174.92062396,0
1,25,162373.188165928,0
1,26,146807.813080096,0
1,27,190308.987625826,0
1,28,145565.751027163,0.00100000000020373
1,29,147626.683695639,0
1,30,144320.129671234,0.000999999999294232
2,3,109484.350231886,0
2,4,125465.039117865,0
2,5,122377.246094245,0.00100000000020373
2,6,144446.574882508,0
2,7,101288.035139768,0.00100000000020373
2,8,64795.4514021375,0
2,9,135835.655182256,0
2,10,121235.288827638,0
2,11,74315.1009276134,0
2,12,163582.457629317,0.000999999999294232
2,13,139138.718765851,0
2,14,106729.136752023,0.00100000000020373
2,15,103797.43614168,0
2,16,115224.661494189,0
2,17,92235.5239095463,0.00100000000020373
2,18,152659.200723854,0
2,19,157931.312532822,0.00100000000020373
2,20,97285.4044159898,0
2,21,131388.992359392,0
2,22,130972.659102138,0
2,23,181593.198964964,0
2,24,166218.400251821,0.00399999999990541
2,25,171331.432608013,0.000999999999294232
2,26,155526.389087582,0
2,27,156014.444285157,0
2,28,130562.642927385,0
2,29,89311.9438475856,0
2,30,156855.816672619,0.00100000000020373
3,4,86697.9440876207,0
3,5,97847.6650878834,0.00100000000020373
3,6,121677.202331701,0
3,7,135946.850717358,0
3,8,122974.812385038,0.000999999999294232
3,9,117109.363691125,0
3,10,112088.024640942,0.00100000000020373
3,11,99714.9480158304,0
3,12,110991.991143348,0
3,13,112712.827594214,0.00100000000020373
3,14,105362.508953956,0
3,15,108524.682344405,0.00100000000020373
3,16,79299.5924882146,0
3,17,89530.4955237184,0
3,18,101394.859716858,0
3,19,104711.430940639,0
3,20,85584.1368002232,0.000999999999294232
3,21,129666.834544044,0
3,22,130750.948964755,0.00100000000020373
3,23,113296.251501461,0
3,24,140123.344434574,0
3,25,100202.967243478,0.00100000000020373
3,26,111626.769360345,0
3,27,128568.261845544,0.00100000000020373
3,28,107230.727930828,0
3,29,106161.402702751,0
3,30,121538.349506392,0.000999999999294232
4,5,91211.3698306779,0
4,6,88796.3596731143,0.00100000000020373
4,7,122579.67816869,0
4,8,144576.260887864,0
4,9,102605.450328802,0
4,10,120932.018102625,0
4,11,107033.445629603,0.00100000000020373
4,12,107186.771179558,0
4,13,94415.2189003834,0.00100000000020373
4,14,116786.661146369,0
4,15,125627.400208871,0
4,16,89956.8284390702,0.000999999999294232
4,17,88163.7093647958,0
4,18,79817.2978279158,0.00100000000020373
4,19,86168.4377034513,0
4,20,97102.1326968149,0
4,21,125745.381167932,0
4,22,133068.281269326,0
4,23,109550.989996277,0.00100000000020373
4,24,126448.568819716,0
4,25,103745.793630716,0.000999999999294232
4,26,104469.33142886,0
4,27,117838.610666844,0
4,28,88890.1047320718,0.00100000000020373
4,29,106273.825184635,0
4,30,93870.3792899028,0.00100000000020373
5,6,120626.512790505,0
5,7,115309.750696281,0
5,8,140976.798298066,0.00100000000020373
5,9,101475.668748098,0
5,10,121534.864660845,0.00100000000020373
5,11,102507.17099943,0
5,12,130516.587412322,0
5,13,102150.909682973,0.000999999999294232
5,14,128699.151885457,0
5,15,114793.985249314,0.00100000000020373
5,16,118755.985634649,0
5,17,96736.4267791275,0.00100000000020373
5,18,128088.682977123,0
5,19,124496.07748925,0
5,20,76881.3311009167,0.00100000000020373
5,21,108738.634808927,0
5,22,107215.857537882,0.000999999999294232
5,23,149638.936738532,0
5,24,134452.03948028,0
5,25,125208.748595101,0.00100000000020373
5,26,150061.666799452,0
5,27,151424.636590337,0.00100000000020373
5,28,84290.4079714425,0
5,29,95116.3379613104,0
5,30,117708.790631127,0.00100000000020373
6,7,133654.504065272,0
6,8,150136.263941337,0.00100000000020373
6,9,102074.305264807,0
6,10,155324.546559415,0
6,11,125715.143833257,0
6,12,133363.555312252,0
6,13,101401.6266448,0.00100000000020373
6,14,122168.426243631,0
6,15,164643.568844505,0.00100000000020373
6,16,127929.931199532,0
6,17,102173.611932556,0
6,18,89277.9984883309,0.00100000000020373
6,19,124946.008057671,0
6,20,114616.214846331,0.000999999999294232
6,21,151244.294171259,0
6,22,171664.591667168,0
6,23,130520.570092794,0.00100000000020373
6,24,136002.700079587,0
6,25,113843.67517541,0.00100000000020373
6,26,129795.167531493,0
6,27,138987.952624659,0
6,28,138557.16929481,0
6,29,129526.757698534,0
6,30,129748.246995978,0.00100000000020373
7,8,102111.761735309,0
7,9,126652.986535361,0.000999999999294232
7,10,147138.272753174,0
7,11,111658.250948483,0
7,12,155074.864547312,0.00100000000020373
7,13,147642.585842882,0
7,14,144539.932659094,0.00100000000020373
7,15,152839.445272182,0
7,16,141139.190830176,0
7,17,102988.207382126,0.00100000000020373
7,18,142323.854208784,0
7,19,165515.297780821,0.000999999999294232
7,20,107610.016744934,0
7,21,142714.921591274,0
7,22,136117.110671443,0
7,23,196872.611987882,0
7,24,164008.588373234,0.00100000000020373
7,25,169121.944799922,0
7,26,183442.184977989,0.00100000000020373
7,27,174563.963545801,0
7,28,112463.737504287,0
7,29,87293.7220487488,0.00100000000020373
7,30,179327.99633327,0
8,9,133691.670948188,0.000999999999294232
8,10,130163.294558936,0
8,11,91590.6753141357,0
8,12,182480.627336076,0.00100000000020373
8,13,156610.031525413,0
8,14,110117.335922258,0.00100000000020373
8,15,125667.673371303,0
8,16,140421.773435311,0
8,17,113034.301227691,0
8,18,162086.564899676,0
8,19,177352.816642646,0.000999999999294232
8,20,103156.50015689,0
8,21,145902.901849738,0
8,22,142448.136545407,0
8,23,198646.624765915,0
8,24,168289.298565371,0.00100000000020373
8,25,178870.399027955,0
8,26,169090.042757711,0.00100000000020373
8,27,171672.522732606,0
8,28,156355.181057496,0
8,29,99882.5713854265,0.00100000000020373
8,30,184285.827094818,0
9,10,121878.24570437,0.000999999999294232
9,11,112726.610846058,0
9,12,159715.384549606,0
9,13,117659.598480373,0.00100000000020373
9,14,114561.076202497,0
9,15,149778.057789186,0.00100000000020373
9,16,143453.220702696,0
9,17,105727.419941368,0
9,18,114077.662555808,0
9,19,121904.803300462,0
9,20,96225.0244814365,0.000999999999294232
9,21,135510.494060552,0
9,22,150777.666219413,0.00100000000020373
9,23,147280.487352797,0
9,24,83530.5262218471,0
9,25,129039.228403216,0.00100000000020373
9,26,135850.452704789,0
9,27,121251.143886921,0.00100000000020373
9,28,139875.673805936,0
9,29,112298.355340978,0
9,30,134172.515142487,0.000999999999294232
10,11,99919.9441279811,0
10,12,175235.865036481,0.00100000000020373
10,13,127662.507021787,0
10,14,126985.871585593,0
10,15,120389.045561079,0
10,16,122255.952575909,0
10,17,116939.736550186,0.00100000000020373
10,18,154370.504163157,0
10,19,140920.444761295,0.00100000000020373
10,20,108795.790969348,0
10,21,94857.7998998363,0
10,22,110243.098606715,0.000999999999294232
10,23,181447.585836019,0
10,24,113758.75071173,0.00100000000020373
10,25,158099.132024845,0
10,26,118509.289027027,0
10,27,108936.654874961,0.00100000000020373
10,28,134334.405312442,0
10,29,133018.575158182,0.00100000000020373
10,30,124187.684143528,0
11,12,162664.012792877,0
11,13,100046.548169302,0.000999999999294232
11,14,89879.7348278445,0
11,15,85168.9976366418,0.00100000000020373
11,16,98594.3515461494,0
11,17,83143.8478234787,0.00100000000020373
11,18,135196.147971768,0
11,19,132925.162598969,0
11,20,84806.5648276516,0.00100000000020373
11,21,117300.545859236,0
11,22,101951.940324376,0.00100000000020373
11,23,159089.068964263,0
11,24,133336.570117769,0
11,25,155960.207975622,0.000999999999294232
11,26,126631.296569412,0
11,27,118137.678692271,0.00100000000020373
11,28,124215.830257932,0
11,29,109362.404736507,0
11,30,117310.711459626,0.00100000000020373
12,13,146890.50125461,0
12,14,166824.126220502,0.00100000000020373
12,15,158410.209161424,0
12,16,113284.398682769,0
12,17,131337.761048302,0
12,18,98164.2785917001,0
12,19,105859.183311338,0.00100000000020373
12,20,131688.406524955,0
12,21,181333.60821987,0.00100000000020373
12,22,181875.72980335,0
12,23,122770.279599238,0
12,24,184988.340915997,0.00100000000020373
12,25,90454.017775503,0
12,26,164731.977889181,0.00100000000020373
12,27,180439.275112808,0
12,28,102621.997591456,0
12,29,128445.473868214,0.000999999999294232
12,30,158180.96757432,0
13,14,97558.4265964681,0.00100000000020373
13,15,123858.380238644,0
13,16,109233.023665076,0
13,17,85386.9483873839,0
13,18,111607.834008705,0
13,19,109905.0901146,0.00100000000020373
13,20,103356.396040789,0
13,21,131583.539831594,0.000999999999294232
13,22,134904.141015236,0
13,23,126861.50225043,0
13,24,115818.478932666,0.00100000000020373
13,25,139675.240834058,0
13,26,109313.743029939,0.00100000000020373
13,27,115454.545212601,0
13,28,129876.925932223,0
13,29,148476.517904706,0.00100000000020373
13,30,82119.0482658784,0
14,15,117455.985706618,0.00100000000020373
14,16,114604.945881574,0
14,17,94575.21763343,0
14,18,124648.47557543,0.000999999999294232
14,19,133756.909884455,0
14,20,106243.47968961,0.00100000000020373
14,21,148528.880706314,0
14,22,147980.466380621,0.00100000000020373
14,23,145682.156368571,0
14,24,126140.682342768,0
14,25,160059.400184483,0.00100000000020373
14,26,113898.299610536,0
14,27,135667.342159681,0.000999999999294232
14,28,157749.433077529,0
14,29,126245.798843307,0
14,30,130654.317170922,0.00100000000020373
15,16,99683.8004411624,0
15,17,120869.761653501,0.00100000000020373
15,18,153808.477349729,0
15,19,129020.950756741,0
15,20,106074.645741638,0
15,21,149555.130987477,0
15,22,118597.445683715,0.00100000000020373
15,23,152960.106704896,0
15,24,171619.927513652,0.000999999999294232
15,25,163435.340253688,0
15,26,144467.261684166,0
15,27,152627.384116078,0.00100000000020373
15,28,135267.764485615,0
15,29,125157.835948273,0.00100000000020373
15,30,120841.154158139,0
16,17,87823.0706446528,0
16,18,99845.5006643202,0.00100000000020373
16,19,98208.638642215,0
16,20,112574.675576197,0.000999999999294232
16,21,151164.670222665,0
16,22,127783.284471475,0.00100000000020373
16,23,118421.503045353,0
16,24,157450.739488249,0
16,25,126049.944524986,0.00100000000020373
16,26,118890.825834281,0
16,27,127800.868091823,0.00100000000020373
16,28,112563.412445805,0
16,29,118283.614950308,0
16,30,110409.892706728,0.00100000000020373
17,18,110269.676051491,0
17,19,113059.38541896,0.000999999999294232
17,20,84769.4694275968,0
17,21,123166.729396074,0
17,22,124581.207100919,0
17,23,139318.823505394,0
17,24,125455.327965178,0.00100000000020373
17,25,138431.358432582,0
17,26,127314.80119968,0.00100000000020373
17,27,119044.314410927,0
17,28,106028.072282705,0
17,29,104608.802717982,0.000999999999294232
17,30,116482.550708433,0
18,19,87775.8792594544,0.00100000000020373
18,20,123030.032126183,0
18,21,168250.297056195,0
18,22,172810.993805116,0.00100000000020373
18,23,91293.313566652,0
18,24,136794.055818714,0.00100000000020373
18,25,90443.5395228833,0
18,26,115112.092147957,0
18,27,133348.788699588,0
18,28,125699.074466983,0
18,29,125109.254838583,0.00100000000020373
18,30,130297.416866839,0
19,20,128653.228452191,0.00100000000020373
19,21,172208.920704723,0
19,22,166170.98503957,0
19,23,75019.2795059187,0.00100000000020373
19,24,129970.502269343,0
19,25,112430.162595617,0.00100000000020373
19,26,117263.927062959,0
19,27,108034.984193395,0
19,28,122505.788596669,0.000999999999294232
19,29,137520.123143764,0
19,30,91898.3392573512,0.00100000000020373
20,21,116703.006507264,0
20,22,123596.899735676,0
20,23,154228.089172279,0
20,24,127082.124227162,0
20,25,118990.867673957,0.00100000000020373
20,26,139582.295718109,0
20,27,143569.781681443,0.000999999999294232
20,28,110175.267806362,0
20,29,92176.8059946003,0
20,30,135077.907874015,0.00100000000020373
21,22,114663.048596705,0
21,23,198344.664974819,0.00100000000020373
21,24,144658.326363544,0
21,25,161058.952656066,0
21,26,140298.49893363,0.00100000000020373
21,27,149686.744749191,0
21,28,122667.740824557,0.00100000000020373
21,29,140982.354429959,0
21,30,141355.597668395,0
22,23,198430.002414831,0
22,24,165542.84438179,0
22,25,182398.342994538,0.00100000000020373
22,26,166203.819120046,0
22,27,163830.945540791,0.00100000000020373
22,28,124321.413113746,0
22,29,137209.395288797,0
22,30,137470.127041641,0.00100000000020373
23,24,164225.154534327,0
23,25,111790.580249306,0.000999999999294232
23,26,121129.88433247,0
23,27,138177.894607413,0
23,28,157875.45738091,0.00100000000020373
23,29,167029.304405667,0
23,30,115243.983609776,0.00100000000020373
24,25,155713.536002356,0
24,26,128656.006374437,0
24,27,97686.2178436527,0
24,28,158988.379265363,0
24,29,157264.660676597,0.00100000000020373
24,30,131591.980962999,0
25,26,139618.586963706,0.000999999999294232
25,27,158865.624245686,0
25,28,128872.353087389,0
25,29,140394.428263744,0.00100000000020373
25,30,149161.495459214,0
26,27,106682.0437998,0.00100000000020373
26,28,163250.645675673,0
26,29,166635.126490683,0
26,30,102831.97527066,0.00100000000020373
27,28,157559.138502703,0
27,29,167366.438238135,0.000999999999294232
27,30,98703.9126148127,0
28,29,104634.749392255,0
28,30,136106.44426755,0
29,30,162359.025699967,0


"After.Trace.ID","Before.Trace.ID","Difference","Runtime"
1,1,140169.662107963,0
1,2,78968.8865377621,0
1,3,103703.223863666,0
1,4,113724.116456018,0
1,5,94665.4635766314,0.00100000000020373
1,6,115496.030673516,0
1,7,93929.7621126953,0.000999999999294232
1,8,90799.2872351031,0
1,9,115639.186703827,0
1,10,138472.485190503,0.00100000000020373
1,11,87109.8093584574,0
1,12,142642.48756429,0.00100000000020373
1,13,115138.751638419,0
1,14,105067.138061396,0.00100000000020373
1,15,120134.911406341,0
1,16,122007.53434957,0
1,17,76760.9284512864,0.00100000000020373
1,18,134461.059477706,0
1,19,150036.024826106,0.000999999999294232
1,20,72506.3639845693,0
1,21,126869.456025359,0
1,22,134475.969711245,0
1,23,166701.077652018,0
1,24,149907.234517751,0.00100000000020373
1,25,143993.667400274,0
1,26,155828.334039049,0.00100000000020373
1,27,163042.602154353,0
1,28,114473.273199433,0
1,29,96906.2229908234,0.000999999999294232
1,30,154119.148848034,0.00400000000081491
2,1,139635.608889386,0
2,2,111275.116530903,0
2,3,114141.387240621,0
2,4,84917.2808835338,0
2,5,98965.468503973,0.00100000000020373
2,6,87849.1048357278,0
2,7,113218.885128023,0.00100000000020373
2,8,130542.119578833,0
2,9,103280.848364947,0
2,10,143431.249537466,0.00100000000020373
2,11,102810.146587113,0
2,12,120228.328977236,0.000999999999294232
2,13,92037.0404460617,0
2,14,99157.6531584515,0
2,15,123282.830554992,0
2,16,103019.351159056,0
2,17,71914.325749149,0.00100000000020373
2,18,98175.7518484347,0
2,19,101310.100585295,0.00100000000020373
2,20,100863.264121577,0
2,21,146731.142997773,0
2,22,149312.736636622,0.00100000000020373
2,23,125569.837504786,0
2,24,134046.375360496,0.000999999999294232
2,25,134481.647023753,0
2,26,139331.405579777,0
2,27,137796.331673173,0
2,28,112177.664263359,0
2,29,96376.3823411405,0.00100000000020373
2,30,114371.897963413,0
3,1,163856.823627222,0.00100000000020373
3,2,111197.334225894,0
3,3,122597.117732343,0
3,4,92552.701018563,0.000999999999294232
3,5,103794.598711836,0
3,6,78396.7727083499,0.00100000000020373
3,7,101305.154395038,0
3,8,116987.034247752,0
3,9,76957.5832821333,0.00100000000020373
3,10,122232.394972091,0
3,11,95855.9454710852,0.00100000000020373
3,12,153035.253752408,0
3,13,106255.689044624,0.00100000000020373
3,14,109787.723663334,0
3,15,138412.002990804,0
3,16,126252.884157921,0.000999999999294232
3,17,87092.6702224895,0
3,18,115483.476433847,0.00100000000020373
3,19,125049.602572252,0
3,20,98657.5124435443,0
3,21,130557.753935611,0.00100000000020373
3,22,140863.214537255,0
3,23,154128.93665641,0.00100000000020373
3,24,122461.785842004,0
3,25,145867.689172553,0
3,26,137361.534480255,0
3,27,125271.893718716,0
3,28,131198.807264717,0.00100000000020373
3,29,98759.9093166889,0
3,30,124486.9719567,0.00100000000020373
4,1,160146.626085928,0
4,2,128515.656458254,0
4,3,97559.2244571925,0.00100000000020373
4,4,80761.6953389651,0
4,5,98207.26018313,0.000999999999294232
4,6,97283.1528029415,0
4,7,139192.9087389,0
4,8,137229.579292421,0
4,9,79313.7973691196,0
4,10,120696.424097721,0.00100000000020373
4,11,95172.8494484776,0
4,12,139029.818842551,0.00100000000020373
4,13,83365.1978682938,0
4,14,100408.554686844,0
4,15,125038.362156255,0.00100000000020373
4,16,117026.737156781,0
4,17,87708.1396906699,0.000999999999294232
4,18,104946.928294413,0
4,19,89242.5105189708,0
4,20,92474.1496241292,0.00100000000020373
4,21,128932.712169178,0
4,22,143683.932689647,0.00100000000020373
4,23,112193.121237316,0
4,24,97422.3763194395,0
4,25,119579.741801464,0
4,26,108678.825364159,0
4,27,97647.3608030495,0.000999999999294232
4,28,123762.967948089,0
4,29,121588.433055811,0.00100000000020373
4,30,94934.1104252484,0
5,1,114794.213668997,0
5,2,104275.136173353,0.00100000000020373
5,3,136313.000176131,0
5,4,129819.536881236,0.00100000000020373
5,5,122483.550130973,0
5,6,133641.121945703,0
5,7,133039.595178007,0
5,8,123214.204586824,0
5,9,150374.101434593,0.000999999999294232
5,10,156240.509293223,0
5,11,102076.221174428,0.00100000000020373
5,12,156691.186570424,0
5,13,113935.983038561,0
5,14,98456.41347061,0.00100000000020373
5,15,101173.115936825,0
5,16,118494.538853661,0.00100000000020373
5,17,107085.296277918,0
5,18,148669.988274224,0
5,19,148415.361513322,0.000999999999294232
5,20,116528.053083363,0
5,21,162968.49930189,0.00100000000020373
5,22,147727.996975255,0
5,23,168626.835754242,0
5,24,179944.665597968,0
5,25,177731.646279606,0
5,26,162300.838531204,0.00100000000020373
5,27,179038.720098899,0
5,28,144404.998275434,0.00100000000020373
5,29,119813.478976658,0
5,30,142093.252321056,0
6,1,142978.408263174,0.000999999999294232
6,2,139016.141702282,0
6,3,142280.096327746,0.00100000000020373
6,4,139934.72722452,0
6,5,131126.810927289,0
6,6,137552.35130381,0.00100000000020373
6,7,127962.015358599,0
6,8,152416.706866108,0.00100000000020373
6,9,174522.830116677,0
6,10,193875.347195448,0
6,11,150533.997807208,0
6,12,117327.093270702,0
6,13,154509.848935894,0.00100000000020373
6,14,159138.885181669,0
6,15,163527.029829919,0.00100000000020373
6,16,145040.149105901,0
6,17,127706.714703893,0
6,18,151958.983676956,0.00100000000020373
6,19,175295.456368148,0
6,20,123230.674068104,0.00100000000020373
6,21,171899.582295504,0
6,22,171377.268816796,0
6,23,190567.715944613,0.000999999999294232
6,24,213033.175415388,0
6,25,152637.360554065,0.00100000000020373
6,26,202537.030826483,0
6,27,220632.13520561,0
6,28,122222.49010217,0
6,29,124756.834455481,0
6,30,192299.552896596,0.00100000000020373
7,1,186889.648880972,0
7,2,116606.876874373,0.000999999999294232
7,3,129778.493468215,0
7,4,126335.222737348,0
7,5,125988.687048171,0.00100000000020373
7,6,97601.4098795039,0
7,7,98677.6195598393,0.00100000000020373
7,8,105930.976303492,0
7,9,83015.3786701895,0
7,10,148167.105168607,0.00100000000020373
7,11,115952.669294015,0
7,12,166570.575415977,0.00100000000020373
7,13,138530.548795619,0
7,14,128035.839861661,0.000999999999294232
7,15,162128.370898484,0
7,16,145192.621386863,0
7,17,99817.0480784468,0.00100000000020373
7,18,125955.570267161,0
7,19,156220.320455379,0.00100000000020373
7,20,102322.246034143,0
7,21,154459.938660732,0
7,22,162868.353988815,0.00100000000020373
7,23,173874.199101338,0
7,24,134398.120256718,0.000999999999294232
7,25,147780.849601574,0
7,26,168185.002948912,0
7,27,152038.938754008,0
7,28,151120.711154409,0
7,29,105839.536944722,0.00100000000020373
7,30,171275.407359797,0
8,1,189362.09232102,0.00100000000020373
8,2,170259.545986717,0
8,3,153221.638145943,0
8,4,132398.434631412,0.00100000000020373
8,5,163509.725035311,0
8,6,85608.8379895649,0.000999999999294232
8,7,155055.455882128,0
8,8,176402.748818772,0
8,9,148978.95917951,0.00100000000020373
8,10,202676.276025696,0
8,11,176231.329660993,0.00100000000020373
8,12,128292.029390784,0
8,13,158579.930133956,0
8,14,168334.477869624,0
8,15,205208.729134948,0
8,16,161410.592135838,0.000999999999294232
8,17,137100.257360535,0
8,18,118638.466934133,0.00100000000020373
8,19,162097.570576543,0
8,20,147478.160520665,0
8,21,192062.060436619,0.00100000000020373
8,22,219243.939374289,0
8,23,163487.09266203,0.00100000000020373
8,24,188767.16098964,0
8,25,125555.04059647,0
8,26,178190.809567625,0
8,27,195130.771741942,0
8,28,163329.29984178,0.000999999999294232
8,29,152548.779424299,0
8,30,188806.00192868,0.00100000000020373
9,1,150404.132958775,0
9,2,93887.8644668492,0
9,3,111559.354032045,0.00100000000020373
9,4,112597.94947093,0
9,5,114258.373413513,0.00100000000020373
9,6,110355.31602748,0
9,7,134651.26085289,0
9,8,106571.604018091,0.000999999999294232
9,9,100903.938962605,0
9,10,120722.045145782,0.00100000000020373
9,11,81098.0442641792,0
9,12,167277.024967823,0
9,13,91192.5113968832,0
9,14,68726.5686389347,0
9,15,116535.338789742,0.00100000000020373
9,16,125501.835212334,0
9,17,80104.6681136695,0.000999999999294232
9,18,133017.683652378,0
9,19,132750.788083655,0
9,20,91097.6912241036,0.00100000000020373
9,21,126719.050812874,0
9,22,153453.613259898,0.00100000000020373
9,23,150365.367932657,0
9,24,121099.271698611,0
9,25,154692.926845036,0.00100000000020373
9,26,123341.007586872,0
9,27,122365.759008733,0.00100000000020373
9,28,145754.344319833,0
9,29,121005.513048154,0
9,30,122440.473476161,0
10,1,95417.2135112949,0
10,2,111527.001249682,0.00100000000020373
10,3,101182.367278464,0
10,4,113618.808010102,0.00100000000020373
10,5,120094.603758677,0
10,6,133573.783104013,0
10,7,150253.308110813,0.00100000000020373
10,8,130170.4527508,0
10,9,146239.618133173,0.000999999999294232
10,10,142285.367080599,0
10,11,90502.6863796306,0
10,12,148148.962656696,0
10,13,97224.8025256924,0
10,14,95009.069352946,0.00100000000020373
10,15,74594.054243033,0
10,16,90603.882105855,0.00100000000020373
10,17,103790.650466157,0
10,18,125974.718417598,0
10,19,120607.24905571,0.00100000000020373
10,20,106759.243563161,0
10,21,162196.693575145,0.000999999999294232
10,22,139488.263517213,0
10,23,124840.455767499,0
10,24,171022.205034243,0.00100000000020373
10,25,154037.511190137,0
10,26,125261.049823841,0.00100000000020373
10,27,147282.723968086,0
10,28,145112.461409894,0.00100000000020373
10,29,132387.450165459,0
10,30,114427.362019498,0
11,1,147409.816894588,0.000999999999294232
11,2,88715.6483313489,0
11,3,125117.695629388,0.00100000000020373
11,4,142385.93467009,0
11,5,141021.242970206,0
11,6,161341.054285548,0.00100000000020373
11,7,135345.597684156,0
11,8,88713.4199213425,0.00100000000020373
11,9,146123.414815292,0
11,10,110731.627154538,0.00100000000020373
11,11,89458.4137041881,0
11,12,204185.798537468,0
11,13,146628.240668146,0.000999999999294232
11,14,103057.65744999,0
11,15,128667.587332134,0.00100000000020373
11,16,138704.311263182,0
11,17,116042.286300135,0
11,18,174872.245003552,0
11,19,184285.35750985,0
11,20,123349.237078238,0.00100000000020373
11,21,119834.100972206,0
11,22,122031.30110487,0.000999999999294232
11,23,203821.865252827,0
11,24,162579.505218361,0
11,25,197431.318559949,0.00100000000020373
11,26,143638.950102254,0
11,27,158263.275494214,0.00100000000020373
11,28,159205.363246019,0
11,29,132230.576196635,0
11,30,162907.882872502,0
12,1,141796.051246065,0
12,2,155257.533382972,0.00100000000020373
12,3,143967.32385789,0
12,4,157370.579948182,0.000999999999294232
12,5,176792.574998149,0
12,6,158555.313812846,0
12,7,177992.966045695,0.00100000000020373
12,8,171738.681136694,0
12,9,204066.939405713,0.00100000000020373
12,10,208722.326839429,0
12,11,179790.536630903,0
12,12,114089.060762859,0.00100000000020373
12,13,191669.817395389,0
12,14,178583.447159002,0.000999999999294232
12,15,170667.032967799,0
12,16,143256.133047131,0
12,17,161281.552392768,0
12,18,157777.994007261,0
12,19,173029.325777956,0.00100000000020373
12,20,160527.457878196,0
12,21,208941.188140508,0.00100000000020373
12,22,215608.656359033,0
12,23,175306.210165041,0
12,24,243163.406300499,0.00100000000020373
12,25,150264.464695674,0
12,26,199693.455128802,0.000999999999294232
12,27,226813.246125683,0
12,28,161673.416499688,0
12,29,143763.579716342,0
12,30,204066.028141003,0
13,1,155746.661097037,0.00100000000020373
13,2,141008.604552572,0
13,3,125811.211489017,0.00100000000020373
13,4,94001.5221520902,0
13,5,125606.348264692,0
13,6,87274.3765463224,0.000999999999294232
13,7,149765.271206597,0
13,8,157693.793561958,0.00100000000020373
13,9,107024.715653276,0
13,10,146895.210012946,0
13,11,113644.415069217,0
13,12,137725.488667912,0
13,13,83311.5565533952,0.00100000000020373
13,14,93263.9715404017,0
13,15,140575.815668582,0.00100000000020373
13,16,113898.798542651,0
13,17,93555.0932568873,0
13,18,96473.4264857193,0.000999999999294232
13,19,89564.5297172979,0
13,20,120370.820310269,0.00100000000020373
13,21,161984.016084651,0
13,22,168133.643542977,0
13,23,112634.962217887,0.00100000000020373
13,24,116796.697261845,0
13,25,138592.536507332,0.00100000000020373
13,26,115143.846151849,0
13,27,116854.081386044,0.000999999999294232
13,28,142661.996605877,0
13,29,134942.000430452,0
13,30,99515.2327089121,0.00100000000020373
14,1,169963.795717611,0
14,2,138507.733188928,0.00100000000020373
14,3,126339.342154353,0
14,4,85198.9744767723,0
14,5,109115.636145979,0.00100000000020373
14,6,81507.2148530157,0
14,7,130437.680266769,0.000999999999294232
14,8,149608.250469491,0
14,9,79453.6905134488,0
14,10,134443.016796111,0
14,11,107409.922594057,0
14,12,150767.438272561,0.00100000000020373
14,13,87927.7904383852,0
14,14,114089.081080271,0.00100000000020373
14,15,143037.951485168,0
14,16,125448.291956732,0
14,17,93131.1046332553,0.00100000000020373
14,18,101624.818125056,0
14,19,100233.177608445,0.000999999999294232
14,20,113609.727102656,0
14,21,141986.277350078,0
14,22,150645.728230368,0
14,23,124431.362556611,0
14,24,110892.812797649,0.00100000000020373
14,25,138500.958570149,0
14,26,125743.746884258,0.00100000000020373
14,27,104655.622327792,0
14,28,135091.673916685,0
14,29,124761.501971499,0.000999999999294232
14,30,97985.1241795176,0
15,1,119475.71239606,0.00100000000020373
15,2,90956.7227565298,0
15,3,134619.970517701,0
15,4,126092.702752679,0
15,5,118525.998320381,0
15,6,140582.897481333,0.00100000000020373
15,7,116160.567063632,0
15,8,109268.25170317,0.00100000000020373
15,9,158576.118708728,0
15,10,150554.248923521,0
15,11,109392.085178046,0.000999999999294232
15,12,158620.899222794,0
15,13,143914.304212727,0.00100000000020373
15,14,131673.14295563,0
15,15,113989.265566344,0
15,16,126841.401516117,0.00100000000020373
15,17,116004.232862568,0
15,18,163979.076957475,0.00100000000020373
15,19,168746.139969711,0
15,20,114515.395911448,0.000999999999294232
15,21,143069.14226188,0
15,22,131634.893456106,0
15,23,191998.675218342,0.00100000000020373
15,24,199271.106942464,0
15,25,179629.043051944,0.00100000000020373
15,26,179860.443280956,0
15,27,190942.814678639,0
15,28,127492.425570202,0.00100000000020373
15,29,100484.200073654,0
15,30,158695.29500698,0.00100000000020373
16,1,84380.7494601131,0
16,2,111922.619847659,0
16,3,120036.409352644,0
16,4,116399.533136244,0
16,5,128865.974491419,0.00100000000020373
16,6,154077.220282397,0
16,7,144282.639111358,0.00100000000020373
16,8,138597.501470983,0
16,9,173070.609216048,0
16,10,149744.230090718,0.00100000000020373
16,11,112187.19613822,0
16,12,154023.989965265,0.000999999999294232
16,13,126991.988108759,0
16,14,128583.905426027,0
16,15,90274.1453932497,0
16,16,93923.7004998499,0
16,17,120344.04104986,0.00100000000020373
16,18,144015.111661871,0
16,19,146734.797362771,0.00100000000020373
16,20,132715.164582115,0
16,21,158316.229095489,0
16,22,134791.085079698,0.00100000000020373
16,23,156249.260903478,0
16,24,198203.978547969,0.000999999999294232
16,25,173090.579906832,0
16,26,145433.869765363,0
16,27,173206.804506445,0
16,28,133071.009177,0
16,29,130927.521687658,0.00100000000020373
16,30,132775.26665001,0
17,1,156072.251340967,0.00100000000020373
17,2,98328.9031076861,0
17,3,112004.952961625,0
17,4,108168.293245359,0.000999999999294232
17,5,127882.041559968,0
17,6,118372.907825665,0.00100000000020373
17,7,111353.403498378,0
17,8,121065.76936659,0
17,9,130617.102033278,0.00100000000020373
17,10,144928.980584502,0
17,11,122351.667742716,0.00100000000020373
17,12,133117.442444933,0
17,13,153173.925534024,0.00100000000020373
17,14,150497.858072696,0
17,15,144903.412769656,0
17,16,117509.173600179,0.000999999999294232
17,17,103829.037111231,0
17,18,122223.595088805,0.00100000000020373
17,19,142950.428746214,0
17,20,119347.371675102,0
17,21,146591.01254284,0.00100000000020373
17,22,163652.346438581,0
17,23,159094.520660477,0.00100000000020373
17,24,168778.02738944,0
17,25,135086.462434048,0
17,26,154992.559724132,0
17,27,155401.960041433,0
17,28,117328.537996722,0.00100000000020373
17,29,94615.5513817134,0
17,30,161048.697545238,0.00100000000020373
18,1,159665.633733006,0
18,2,157491.223025984,0.00100000000020373
18,3,154470.166205036,0
18,4,129538.552802503,0
18,5,110401.970061041,0.00100000000020373
18,6,156167.143949608,0
18,7,154777.060392177,0.000999999999294232
18,8,177372.289403709,0
18,9,153635.924644923,0
18,10,143211.907144465,0
18,11,115655.847710443,0
18,12,175008.939793523,0.00100000000020373
18,13,97159.1597338175,0
18,14,158081.802056817,0.00100000000020373
18,15,131787.654235312,0
18,16,135844.063796014,0
18,17,121261.799782884,0.00100000000020373
18,18,165970.331164565,0
18,19,149745.255944475,0.000999999999294232
18,20,126330.737873101,0
18,21,137299.641319731,0
18,22,101918.258956997,0.00100000000020373
18,23,183111.24573304,0
18,24,156295.800280835,0.00100000000020373
18,25,177807.851050697,0
18,26,171341.265508038,0
18,27,154718.858373543,0
18,28,129044.759089033,0
18,29,163420.821456459,0.000999999999294232
18,30,112965.354266039,0
19,1,150519.273442603,0.00100000000020373
19,2,147972.750570463,0
19,3,164852.410340022,0
19,4,168478.560486823,0.00100000000020373
19,5,147219.047351471,0
19,6,206807.250256276,0.00100000000020373
19,7,178613.418842682,0
19,8,167595.678217129,0
19,9,195583.647047557,0
19,10,138718.331832537,0
19,11,116902.792188529,0.00100000000020373
19,12,214206.490024901,0
19,13,138819.859778326,0.00100000000020373
19,14,156238.207336761,0
19,15,117104.339621301,0
19,16,152770.049236107,0.00100000000020373
19,17,153218.454594724,0
19,18,206819.86930393,0.00100000000020373
19,19,188883.963400582,0
19,20,151252.866963822,0
19,21,140587.028533126,0.000999999999294232
19,22,98944.1854920757,0
19,23,217071.659597716,0.00100000000020373
19,24,193246.468204677,0
19,25,219401.541845145,0
19,26,175752.266591149,0
19,27,181564.300090911,0
19,28,163354.598856062,0.00100000000020373
19,29,181306.660193693,0
19,30,145413.351367418,0.000999999999294232
20,1,113600.711723665,0
20,2,94333.1094065213,0
20,3,100717.371349933,0.00100000000020373
20,4,109053.838146601,0
20,5,104288.444662996,0.00100000000020373
20,6,133998.816945766,0
20,7,124501.680508076,0
20,8,110325.864549961,0.00100000000020373
20,9,121822.995158079,0
20,10,103011.332449252,0.00100000000020373
20,11,63362.4612045247,0
20,12,163255.683642096,0
20,13,94880.1535751404,0
20,14,94216.0777465408,0
20,15,78919.1961813241,0.00100000000020373
20,16,90819.3607628929,0
20,17,85155.449401349,0.00100000000020373
20,18,133703.264119357,0
20,19,129398.244742718,0
20,20,92887.3452708142,0.00100000000020373
20,21,129908.757798091,0
20,22,99421.3573394241,0.000999999999294232
20,23,154482.275880033,0
20,24,143256.826127385,0
20,25,164112.578471603,0.00100000000020373
20,26,130850.442093201,0
20,27,124626.042992179,0.00100000000020373
20,28,129408.741012499,0
20,29,116896.086342424,0
20,30,111292.911182224,0
21,1,187082.89651412,0
21,2,152871.105807399,0.00100000000020373
21,3,189494.99919631,0
21,4,193976.935296176,0.000999999999294232
21,5,177198.249443156,0
21,6,176748.066040824,0
21,7,139445.847807445,0.00100000000020373
21,8,144791.115732353,0
21,9,200117.230982723,0.00100000000020373
21,10,227040.50366027,0
21,11,184988.893147409,0
21,12,190219.051982647,0.00100000000020373
21,13,208307.921704702,0
21,14,182718.057219432,0.000999999999294232
21,15,203846.967598572,0
21,16,193944.13025899,0
21,17,167487.993753024,0
21,18,198689.745020509,0
21,19,237814.679138912,0.00100000000020373
21,20,163624.962722034,0
21,21,206009.640129199,0.00100000000020373
21,22,206140.548698962,0
21,23,248297.324814879,0
21,24,247001.857384299,0.00100000000020373
21,25,208301.461062733,0
21,26,247928.639189686,0.000999999999294232
21,27,268053.418800022,0
21,28,183589.400974297,0
21,29,142954.902817091,0.00100000000020373
21,30,251813.339706885,0
22,1,160216.78888602,0.00100000000020373
22,2,95675.5431550194,0
22,3,134200.449330822,0
22,4,117699.744139306,0
22,5,138017.415767126,0
22,6,106563.435388583,0.000999999999294232
22,7,110537.295318564,0
22,8,113285.272956829,0.00100000000020373
22,9,137254.426918064,0
22,10,157231.59658864,0
22,11,120724.189989435,0.00100000000020373
22,12,152344.908121273,0
22,13,143361.553143578,0.00100000000020373
22,14,136555.096401076,0
22,15,152701.34303481,0
22,16,137737.917884608,0.00100000000020373
22,17,101411.784746106,0
22,18,136685.653130965,0.000999999999294232
22,19,160040.311439301,0
22,20,123293.812883542,0
22,21,141906.88414874,0
22,22,175276.687152019,0
22,23,175031.063606073,0.00100000000020373
22,24,176091.663232594,0
22,25,158835.607535758,0.00100000000020373
22,26,160125.496691512,0
22,27,165409.330307095,0
22,28,132763.422618316,0.000999999999294232
22,29,108371.568173637,0
22,30,166093.662758902,0.00100000000020373
23,1,141780.1403228,0
23,2,106926.738584544,0
23,3,154062.749494999,0.00100000000020373
23,4,159363.647071668,0
23,5,130459.624900314,0.00100000000020373
23,6,178781.817792627,0
23,7,143041.646247179,0
23,8,124801.703640431,0
23,9,167257.227541763,0
23,10,138438.939190475,0.000999999999294232
23,11,111871.316819897,0
23,12,186880.636010397,0.00100000000020373
23,13,136892.014961368,0
23,14,131762.407444341,0
23,15,116193.716180138,0.00100000000020373
23,16,151068.731796129,0
23,17,121393.812763133,0.00100000000020373
23,18,191693.0434249,0
23,19,184592.075344237,0
23,20,114013.078234784,0.000999999999294232
23,21,133571.182932937,0
23,22,131745.980699642,0.00100000000020373
23,23,218274.31237504,0
23,24,179208.681195168,0
23,25,198762.442247991,0.00100000000020373
23,26,184974.650127284,0
23,27,191877.197113005,0.00100000000020373
23,28,146077.906946198,0
23,29,139587.656787207,0
23,30,169502.555821839,0
24,1,139173.423424073,0
24,2,92147.6755387926,0.00100000000020373
24,3,105864.822864778,0
24,4,126871.839693451,0.00100000000020373
24,5,125023.862513153,0
24,6,147452.61409063,0
24,7,131296.229411773,0.00100000000020373
24,8,90642.1246770748,0
24,9,128394.829670432,0.00100000000020373
24,10,102086.292291456,0
24,11,83939.6971071226,0
24,12,181477.818461806,0.000999999999294232
24,13,132105.866122861,0
24,14,84334.0395791646,0.00100000000020373
24,15,116882.606564336,0
24,16,131847.208722247,0
24,17,113541.20141867,0
24,18,152343.643862822,0
24,19,162784.459092133,0.00100000000020373
24,20,102133.005092185,0
24,21,112542.727373608,0.000999999999294232
24,22,123209.139124726,0
24,23,182053.395659043,0
24,24,145491.380041602,0.00100000000020373
24,25,170038.947832493,0
24,26,122489.181171939,0.00100000000020373
24,27,150888.788431867,0
24,28,146549.126191301,0
24,29,119408.381558184,0
24,30,151473.163888182,0
25,1,156361.415815511,0.00100000000020373
25,2,156548.856916026,0
25,3,124862.527337184,0.000999999999294232
25,4,111822.011474028,0
25,5,98926.2571222527,0
25,6,106463.597985262,0.00100000000020373
25,7,133012.011908305,0
25,8,164537.087896381,0.00100000000020373
25,9,119479.373841292,0
25,10,177539.096032324,0
25,11,147191.207101633,0.00100000000020373
25,12,107947.435033406,0
25,13,129473.952677284,0.000999999999294232
25,14,140375.586818035,0
25,15,161774.608889506,0
25,16,134114.601696629,0
25,17,113170.76488769,0
25,18,111191.953439034,0.00100000000020373
25,19,130642.321794199,0
25,20,111260.705183327,0.00100000000020373
25,21,167595.49902185,0
25,22,168105.616993216,0
25,23,145811.180093515,0.00100000000020373
25,24,163716.311883419,0
25,25,120531.24876253,0.000999999999294232
25,26,179417.618736598,0
25,27,184833.579563036,0
25,28,116360.232543962,0.00100000000020373
25,29,110510.158048541,0
25,30,160250.44945682,0.00100000000020373
26,1,141598.294869539,0
26,2,138704.089034928,0
26,3,97800.4644668608,0
26,4,91381.8699525544,0
26,5,117146.269307505,0.000999999999294232
26,6,110927.685147334,0
26,7,158140.793862066,0.00100000000020373
26,8,147399.895545197,0
26,9,111086.074094521,0
26,10,104456.738727691,0.00100000000020373
26,11,95982.0266001624,0
26,12,149201.797190697,0.00100000000020373
26,13,77090.7153983228,0
26,14,86021.1358760994,0
26,15,120889.534013365,0.00100000000020373
26,16,103363.806193124,0
26,17,103644.187658341,0.000999999999294232
26,18,103968.334625115,0
26,19,97593.3931631484,0.00100000000020373
26,20,109478.687352229,0
26,21,129538.184304334,0
26,22,141273.621380189,0.00100000000020373
26,23,116473.112437986,0
26,24,107019.043469586,0.00100000000020373
26,25,127356.005660137,0
26,26,76447.6608675153,0
26,27,95286.7311955928,0.000999999999294232
26,28,138306.169736305,0
26,29,141979.668089569,0.00100000000020373
26,30,87299.3754368507,0
27,1,160165.966324836,0
27,2,168880.05987615,0
27,3,127916.018338325,0
27,4,91966.593175559,0.00100000000020373
27,5,129247.935628035,0
27,6,101859.701475416,0.00100000000020373
27,7,177823.039553231,0
27,8,189229.857852594,0
27,9,123224.198621902,0.000999999999294232
27,10,159795.778017112,0
27,11,147631.405676563,0.00100000000020373
27,12,121965.038684436,0
27,13,101022.11702061,0.00100000000020373
27,14,130934.651546191,0
27,15,151424.397468259,0
27,16,125675.216017762,0.00100000000020373
27,17,121539.016173553,0
27,18,96157.9154664073,0.000999999999294232
27,19,75933.5503061583,0
27,20,136399.938299866,0
27,21,171606.074221924,0
27,22,191248.263479161,0
27,23,89058.6926232899,0.00100000000020373
27,24,134209.111245458,0
27,25,119218.729311197,0.00100000000020373
27,26,120841.353298686,0
27,27,126878.391079713,0
27,28,138605.830580312,0.00100000000020373
27,29,152956.854167018,0
27,30,95830.0352338736,0.000999999999294232
28,1,133400.114982986,0
28,2,159272.766591157,0
28,3,130367.131301782,0.00100000000020373
28,4,132852.111967072,0
28,5,126772.787657182,0.00100000000020373
28,6,161622.791878217,0
28,7,185550.350746087,0.00100000000020373
28,8,171308.011014921,0
28,9,151101.42051917,0
28,10,114209.975563931,0.000999999999294232
28,11,111246.922622786,0
28,12,192171.511718918,0.00100000000020373
28,13,97097.3769771438,0
28,14,123426.932722959,0
28,15,112104.314687051,0.00100000000020373
28,16,125342.78674286,0
28,17,132647.437889899,0.00100000000020373
28,18,163318.211207389,0
28,19,142676.695277332,0.00100000000020373
28,20,133949.051905095,0
28,21,137314.783561971,0
28,22,106254.662369843,0.000999999999294232
28,23,161476.129449674,0
28,24,149462.041236118,0.00100000000020373
28,25,178847.871285803,0
28,26,126258.624888775,0
28,27,133112.290442277,0.00100000000020373
28,28,161736.224016916,0
28,29,174815.655901187,0.00100000000020373
28,30,90345.2079554357,0
29,1,140321.144810257,0
29,2,94996.4051548087,0
29,3,107508.896066625,0
29,4,133479.400894415,0.00100000000020373
29,5,123897.592804387,0
29,6,145447.351352935,0.00100000000020373
29,7,140118.85898005,0
29,8,92435.1284538752,0
29,9,127637.286076716,0.00100000000020373
29,10,120116.758386584,0
29,11,92236.1288637413,0.000999999999294232
29,12,168190.84584875,0
29,13,129292.929904587,0
29,14,92822.6567255342,0
29,15,113394.249906726,0
29,16,139032.61214311,0.00100000000020373
29,17,116003.054853124,0
29,18,153139.64616876,0.00100000000020373
29,19,162114.508713388,0
29,20,92303.64095169,0
29,21,117256.692737629,0.00100000000020373
29,22,145512.220454951,0
29,23,177076.239565315,0.000999999999294232
29,24,152245.222619231,0
29,25,152464.383600382,0
29,26,137292.799935806,0.00100000000020373
29,27,161982.117687106,0
29,28,146508.562030173,0.00100000000020373
29,29,122869.117301923,0
29,30,158415.342368666,0
30,1,186906.818375064,0
30,2,110762.533361018,0
30,3,117930.274369675,0.000999999999294232
30,4,115320.293455478,0
30,5,112564.076342989,0.00100000000020373
30,6,117499.107837737,0
30,7,114837.0599234,0
30,8,107969.291093817,0.00100000000020373
30,9,82742.5797722629,0
30,10,100998.720961623,0.00100000000020373
30,11,94629.051366253,0
30,12,171528.112856353,0
30,13,123415.367410017,0
30,14,117234.853957611,0
30,15,149605.05231183,0.000999999999294232
30,16,145559.067556559,0
30,17,99095.9202306377,0.00100000000020373
30,18,139600.645671828,0
30,19,147304.3178243,0
30,20,88408.2425317009,0.00100000000020373
30,21,99809.3899640027,0
30,22,142769.695043751,0.00100000000020373
30,23,178275.14990749,0
30,24,103155.645231975,0
30,25,146945.782525695,0.000999999999294232
30,26,140853.352052838,0
30,27,115603.510033382,0.00100000000020373
30,28,132417.316929591,0
30,29,110941.495632044,0.00100000000020373
30,30,146093.349002514,0
