App - Financius
Scenario - write_transactions
Length - 1sec
Measure - ARPicDistance
Before Version - 0.14.0
After Version - 0.15.0


"Before.Trace.ID1","Before.Trace.ID2","Difference","Runtime"
1,2,0.0578827131271057,0.00400000000081491
1,3,0.0673193134039127,0.0029999999969732
1,4,0.0590392526766689,0.00400000000081491
1,5,0.0655645125618885,0.00400000000081491
1,6,0.0471652657263561,0.0029999999969732
1,7,0.0875152058520042,0.0029999999969732
1,8,0.0531573950665317,0.00400000000081491
1,9,0.0569933222625253,0.00300000001152512
1,10,0.0632735718503874,0.00400000000081491
1,11,0.0578669253213573,0.00400000000081491
1,12,0.0625107659504652,0.00699999999778811
1,13,0.0574163545760953,0.0029999999969732
1,14,0.0278495670114859,0.00400000000081491
1,15,0.0663796115438272,0.00400000000081491
1,16,0.0556209037516573,0.0029999999969732
1,17,0.0712481917013773,0.00400000000081491
1,18,0.0904982214007598,0.0029999999969732
1,19,0.0665380328233896,0.00400000000081491
1,20,0.0587610190014767,0.00400000000081491
1,21,0.0531567183136006,0.0029999999969732
1,22,0.0653736229407969,0.00400000000081491
1,23,0.0675849657191083,0.0029999999969732
1,24,0.0511250858100739,0.00400000000081491
1,25,0.0498408385722343,0.00300000001152512
1,26,0.0803112218778702,0.00399999998626299
1,27,0.0533607210321741,0.00300000001152512
1,28,0.0553019931697275,0.00300000001152512
1,29,0.0660909463458362,0.00400000000081491
1,30,0.0799145354098806,0.00699999999778811
2,3,0.0770533478446619,0.0029999999969732
2,4,0.0640485312194866,0.00400000000081491
2,5,0.0786912084268257,0.0029999999969732
2,6,0.0239821705169567,0.00400000000081491
2,7,0.129997141253994,0.0029999999969732
2,8,0.0919703063222401,0.00400000000081491
2,9,0.0856366026105595,0.0029999999969732
2,10,0.0872785474092406,0.00400000000081491
2,11,0.0829587801480897,0.00400000000081491
2,12,0.0821152855319386,0.0029999999969732
2,13,0.0841882044729842,0.00400000000081491
2,14,0.0657848010733725,0.00300000001152512
2,15,0.0720909702629591,0.00400000000081491
2,16,0.0788043075888414,0.0029999999969732
2,17,0.0584692213885196,0.0029999999969732
2,18,0.0651930998204097,0.00400000000081491
2,19,0.0763559229612034,0.0029999999969732
2,20,0.0848617246819357,0.00400000000081491
2,21,0.0715605565135296,0.00699999999778811
2,22,0.0685462631710386,0.00400000000081491
2,23,0.0698430447832382,0.0029999999969732
2,24,0.0884900543560212,0.00400000000081491
2,25,0.0713596930756249,0.0029999999969732
2,26,0.0581389516683913,0.00400000000081491
2,27,0.0842856377107291,0.0029999999969732
2,28,0.0737480731797356,0.00400000000081491
2,29,0.0839572966333725,0.00300000001152512
2,30,0.0632927233373872,0.00300000001152512
3,4,0.0587458363078793,0.00399999998626299
3,5,0.0228268639014203,0.00300000001152512
3,6,0.0682955426201823,0.00400000000081491
3,7,0.0894702527954681,0.0029999999969732
3,8,0.0537481156947575,0.0029999999969732
3,9,0.057523717194386,0.00400000000081491
3,10,0.0596271335558942,0.0029999999969732
3,11,0.058439509710229,0.0029999999969732
3,12,0.0619160949595631,0.0029999999969732
3,13,0.0578110613030768,0.00700000001234002
3,14,0.062343037633839,0.00399999998626299
3,15,0.016630723415624,0.00300000001152512
3,16,0.0562538097148261,0.00400000000081491
3,17,0.0706134473966304,0.0029999999969732
3,18,0.0869156281084288,0.00400000000081491
3,19,0.0200097432333988,0.00400000000081491
3,20,0.0589308495396611,0.0029999999969732
3,21,0.0532227022044769,0.00400000000081491
3,22,0.015881002508764,0.0029999999969732
3,23,0.0239934799036896,0.00400000000081491
3,24,0.0514359532736768,0.0029999999969732
3,25,0.0490748020262841,0.00400000000081491
3,26,0.0438376649002632,0.0029999999969732
3,27,0.0533039702028718,0.00400000000081491
3,28,0.0560196886801202,0.00300000001152512
3,29,0.0252736412089648,0.00399999998626299
3,30,0.0384112943767023,0.00300000001152512
4,5,0.0591408338570829,0.00400000000081491
4,6,0.0590586150950945,0.00699999999778811
4,7,0.102791518171478,0.0029999999969732
4,8,0.0648324093256613,0.0029999999969732
4,9,0.0420852802666538,0.00400000000081491
4,10,0.0669564774611158,0.0029999999969732
4,11,0.0400073522070761,0.00400000000081491
4,12,0.0694555015239235,0.0029999999969732
4,13,0.0396018031446876,0.00300000001152512
4,14,0.0636147295818221,0.00400000000081491
4,15,0.0550792135201806,0.0029999999969732
4,16,0.0355092461187548,0.0029999999969732
4,17,0.0259410009162984,0.0029999999969732
4,18,0.0831579013149964,0.00400000000081491
4,19,0.0609497459812504,0.0029999999969732
4,20,0.0388741827547789,0.0029999999969732
4,21,0.022498526773399,0.0029999999969732
4,22,0.0524857376960729,0.00400000000081491
4,23,0.0581876167076283,0.0029999999969732
4,24,0.0614684161810505,0.00400000000081491
4,25,0.0535819586579946,0.00300000001152512
4,26,0.0581228181936503,0.00699999999778811
4,27,0.0602872654933746,0.0029999999969732
4,28,0.0270830973482536,0.0029999999969732
4,29,0.066041412511448,0.0029999999969732
4,30,0.0663991702844994,0.00400000000081491
5,6,0.071506712466346,0.00400000000081491
5,7,0.0749735165171703,0.0029999999969732
5,8,0.0519669553322824,0.0029999999969732
5,9,0.0488650171367912,0.00400000000081491
5,10,0.0489210667551919,0.00300000001152512
5,11,0.0480176612530099,0.00400000000081491
5,12,0.0488173600751443,0.0029999999969732
5,13,0.050132834704461,0.00400000000081491
5,14,0.0592430940892842,0.0029999999969732
5,15,0.0164067545367265,0.00400000000081491
5,16,0.0469097769613596,0.0029999999969732
5,17,0.075192810475888,0.00400000000081491
5,18,0.0946228545571201,0.0029999999969732
5,19,0.00927165367396832,0.0029999999969732
5,20,0.0503533788689712,0.00699999999778811
5,21,0.0487107972827903,0.0029999999969732
5,22,0.0208025644536076,0.0029999999969732
5,23,0.0225973290754066,0.00400000000081491
5,24,0.0503401490879179,0.00300000001152512
5,25,0.0548734647028827,0.0029999999969732
5,26,0.0524061105905956,0.0029999999969732
5,27,0.0578070549092569,0.0029999999969732
5,28,0.0491611069695123,0.00400000000081491
5,29,0.0114512844139998,0.0029999999969732
5,30,0.052479943450362,0.0029999999969732
6,7,0.122796343601547,0.0029999999969732
6,8,0.0809162695023342,0.00400000000081491
6,9,0.0790353502184555,0.0029999999969732
6,10,0.0808424273179609,0.00400000000081491
6,11,0.0779639639595526,0.00400000000081491
6,12,0.0786858858165175,0.0029999999969732
6,13,0.077223768984995,0.00400000000081491
6,14,0.0558104577369915,0.00600000000849832
6,15,0.0652703414241002,0.0029999999969732
6,16,0.0743137856359384,0.00400000000081491
6,17,0.0572466395652528,0.0029999999969732
6,18,0.0645756286776152,0.00400000000081491
6,19,0.069207593726338,0.00400000000081491
6,20,0.0801001297421241,0.0029999999969732
6,21,0.0665277389474131,0.00400000000081491
6,22,0.0621841897574827,0.0029999999969732
6,23,0.0618902042075045,0.0029999999969732
6,24,0.0773497868802063,0.00400000000081491
6,25,0.0609149772733072,0.0029999999969732
6,26,0.0553089877258518,0.00400000000081491
6,27,0.072316887891925,0.0029999999969732
6,28,0.0682192021408624,0.00400000000081491
6,29,0.076399678702035,0.00300000001152512
6,30,0.0590303205479794,0.00400000000081491
7,8,0.0651876475357617,0.0029999999969732
7,9,0.0645550678178036,0.0059999999939464
7,10,0.0672070087619323,0.00400000000081491
7,11,0.066742747136972,0.0029999999969732
7,12,0.0634556953134629,0.00300000001152512
7,13,0.068794900831093,0.0029999999969732
7,14,0.0822054119017623,0.0029999999969732
7,15,0.088213217078004,0.0029999999969732
7,16,0.070183336940973,0.0029999999969732
7,17,0.125645644346555,0.00300000001152512
7,18,0.149203674644908,0.0029999999969732
7,19,0.0797335902856696,0.0029999999969732
7,20,0.069111241200868,0.0029999999969732
7,21,0.081698175271043,0.0029999999969732
7,22,0.0904667210507015,0.00300000001152512
7,23,0.0906744214621266,0.0029999999969732
7,24,0.0678087396459574,0.0029999999969732
7,25,0.0918016643044025,0.0029999999969732
7,26,0.124250218610837,0.0029999999969732
7,27,0.0859404366557789,0.00200000000768341
7,28,0.079849119750121,0.00300000001152512
7,29,0.0684101356962227,0.0029999999969732
7,30,0.122120417169175,0.0029999999969732
8,9,0.0486027348872568,0.0029999999969732
8,10,0.0516057571067964,0.00699999999778811
8,11,0.0523781544059265,0.00300000001152512
8,12,0.0502542890313841,0.00300000001152512
8,13,0.0499489066765748,0.0029999999969732
8,14,0.0573857246265213,0.00400000000081491
8,15,0.0584561579819691,0.0029999999969732
8,16,0.0531197074110904,0.0029999999969732
8,17,0.0834658751933213,0.0029999999969732
8,18,0.101824338963626,0.0029999999969732
8,19,0.0551337408122922,0.0029999999969732
8,20,0.0532337745709884,0.0029999999969732
8,21,0.0535823039486714,0.00400000000081491
8,22,0.0593561512604256,0.00300000001152512
8,23,0.0600818163952291,0.00399999998626299
8,24,0.00694004089598471,0.00300000001152512
8,25,0.0321038120778257,0.0029999999969732
8,26,0.0831737900850437,0.00400000000081491
8,27,0.0211216922448969,0.0029999999969732
8,28,0.0542690726638479,0.0029999999969732
8,29,0.0487726581990148,0.00699999999778811
8,30,0.0797199568129547,0.00400000000081491
9,10,0.0498035523897157,0.00300000001152512
9,11,0.00850647450419553,0.00400000000081491
9,12,0.0471689618509398,0.0029999999969732
9,13,0.00545688393012966,0.00400000000081491
9,14,0.0553557676029861,0.0029999999969732
9,15,0.0558245389084489,0.00400000000081491
9,16,0.0126876088981326,0.0029999999969732
9,17,0.0662948519958479,0.00400000000081491
9,18,0.108835569083213,0.0029999999969732
9,19,0.0536708095265981,0.00400000000081491
9,20,0.014276648094655,0.0029999999969732
9,21,0.0212013803694055,0.00400000000081491
9,22,0.0540665473328988,0.0029999999969732
9,23,0.0575614816648587,0.00400000000081491
9,24,0.0478277407231469,0.00300000001152512
9,25,0.0574814892879357,0.0029999999969732
9,26,0.080725536417869,0.00699999999778811
9,27,0.058434363019747,0.00400000000081491
9,28,0.0183839976028405,0.0029999999969732
9,29,0.0502158388472493,0.00400000000081491
9,30,0.0835602630331176,0.0029999999969732
10,11,0.0499705596565694,0.00400000000081491
10,12,0.0452262091507325,0.0029999999969732
10,13,0.0512826579457048,0.00400000000081491
10,14,0.0637138197636213,0.00400000000081491
10,15,0.0562826870614991,0.00300000001152512
10,16,0.0500233105543304,0.00399999998626299
10,17,0.0842425000452332,0.00300000001152512
10,18,0.0899961350232944,0.00300000001152512
10,19,0.0513341460100448,0.00400000000081491
10,20,0.0539257441441394,0.00400000000081491
10,21,0.0541375034149702,0.0029999999969732
10,22,0.0567701321820074,0.00400000000081491
10,23,0.0554776126507018,0.00699999999778811
10,24,0.0509232167871854,0.0029999999969732
10,25,0.0586846192578469,0.0029999999969732
10,26,0.0805263927147283,0.00400000000081491
10,27,0.0606364124223928,0.0029999999969732
10,28,0.0528203316395017,0.00400000000081491
10,29,0.0478133086604071,0.00400000000081491
10,30,0.0806907519575945,0.0029999999969732
11,12,0.0473725303791808,0.00400000000081491
11,13,0.0110472630909925,0.0029999999969732
11,14,0.0559612017199408,0.00400000000081491
11,15,0.0547098125306718,0.00300000001152512
11,16,0.00768488644442403,0.0029999999969732
11,17,0.0640990457987394,0.00300000001152512
11,18,0.107889110672198,0.00400000000081491
11,19,0.0531947618841541,0.0029999999969732
11,20,0.0104723678297013,0.00699999999778811
11,21,0.0192760684970463,0.0029999999969732
11,22,0.0535919096844709,0.00400000000081491
11,23,0.0574604935941164,0.0029999999969732
11,24,0.0513981390468388,0.00400000000081491
11,25,0.0600936291724426,0.00300000001152512
11,26,0.0786499611325392,0.00399999998626299
11,27,0.061598810644983,0.00300000001152512
11,28,0.0162415092862389,0.00400000000081491
11,29,0.0507032950957744,0.0029999999969732
11,30,0.0830303295912521,0.00400000000081491
12,13,0.0478278456558142,0.0029999999969732
12,14,0.0610805324630209,0.0029999999969732
12,15,0.0594391173618112,0.00400000000081491
12,16,0.0492339798067867,0.0029999999969732
12,17,0.0877282464920202,0.00300000001152512
12,18,0.103831423077715,0.00399999998626299
12,19,0.0503279537540064,0.00300000001152512
12,20,0.0543096870316755,0.00699999999778811
12,21,0.0546931315774963,0.0029999999969732
12,22,0.0568928975523475,0.00400000000081491
12,23,0.0537182267425754,0.0029999999969732
12,24,0.0493386091472472,0.0029999999969732
12,25,0.0562014219004502,0.0029999999969732
12,26,0.0820110737722218,0.00300000001152512
12,27,0.0611765640382404,0.0029999999969732
12,28,0.0517532570795085,0.00300000001152512
12,29,0.0456589017941506,0.0029999999969732
12,30,0.0811596650650364,0.00400000000081491
13,14,0.0561807553785037,0.0029999999969732
13,15,0.0565266566444721,0.00400000000081491
13,16,0.014664894597253,0.0029999999969732
13,17,0.0638031574794825,0.00400000000081491
13,18,0.107296975175649,0.0029999999969732
13,19,0.0545950099408718,0.00400000000081491
13,20,0.0170513275146523,0.00600000000849832
13,21,0.020197325639961,0.00400000000081491
13,22,0.0541162372770791,0.00400000000081491
13,23,0.0571561514742109,0.0029999999969732
13,24,0.0489474889533955,0.0029999999969732
13,25,0.0567578700985637,0.00400000000081491
13,26,0.0795097685521233,0.0029999999969732
13,27,0.0584235448526646,0.00400000000081491
13,28,0.0162616947000621,0.0029999999969732
13,29,0.0519007551914144,0.00400000000081491
13,30,0.082628001524019,0.0029999999969732
14,15,0.0614494081469719,0.00400000000081491
14,16,0.0553444330246436,0.00300000001152512
14,17,0.0799801419504047,0.00400000000081491
14,18,0.100807028506276,0.00400000000081491
14,19,0.0600481277634104,0.0029999999969732
14,20,0.0552461694649815,0.00699999999778811
14,21,0.0550056737629751,0.00400000000081491
14,22,0.0604656395448659,0.0029999999969732
14,23,0.0664687635904152,0.00400000000081491
14,24,0.0545899349235284,0.0029999999969732
14,25,0.0609740118580301,0.00400000000081491
14,26,0.0798720773769888,0.00400000000081491
14,27,0.0617754759448177,0.0029999999969732
14,28,0.0583047774332032,0.00400000000081491
14,29,0.0595433878619803,0.0029999999969732
14,30,0.0795861414859931,0.00400000000081491
15,16,0.0516928185352765,0.00300000001152512
15,17,0.0668164967373847,0.00400000000081491
15,18,0.0845953118781834,0.0029999999969732
15,19,0.0131444390466601,0.00300000001152512
15,20,0.0555312284354144,0.00400000000081491
15,21,0.0496110697579048,0.0089999999909196
15,22,0.0107324729401652,0.00400000000081491
15,23,0.0203107284449981,0.00400000000081491
15,24,0.0556693557914592,0.0029999999969732
15,25,0.053925780037684,0.00300000001152512
15,26,0.038743365656576,0.00300000001152512
15,27,0.0592426106458398,0.0029999999969732
15,28,0.0524167684729698,0.00300000001152512
15,29,0.0241281614616011,0.00400000000081491
15,30,0.0387347140931687,0.0029999999969732
16,17,0.0586740978722876,0.00400000000081491
16,18,0.10309017654506,0.0029999999969732
16,19,0.0514290066508259,0.00400000000081491
16,20,0.0116811969300653,0.0029999999969732
16,21,0.0139153206802333,0.00400000000081491
16,22,0.0504841329770469,0.0029999999969732
16,23,0.055043575847794,0.00400000000081491
16,24,0.051656856007526,0.0029999999969732
16,25,0.0578811427790999,0.00400000000081491
16,26,0.0743899159832811,0.00600000000849832
16,27,0.0607477613832418,0.00400000000081491
16,28,0.0134820677243502,0.0029999999969732
16,29,0.0501619282228609,0.00400000000081491
16,30,0.0788383067064876,0.0029999999969732
17,18,0.0722439130532917,0.0029999999969732
17,19,0.0751595608511636,0.00400000000081491
17,20,0.0632992887096911,0.0029999999969732
17,21,0.0459406589511013,0.00400000000081491
17,22,0.0636142924267545,0.0029999999969732
17,23,0.068381431597261,0.00400000000081491
17,24,0.0798962258576625,0.0029999999969732
17,25,0.0637670719415245,0.00300000001152512
17,26,0.0551277533174168,0.00400000000081491
17,27,0.0740086523322782,0.0029999999969732
17,28,0.049958879600207,0.00400000000081491
17,29,0.0826828512714244,0.0029999999969732
17,30,0.0646950891277719,0.00400000000081491
18,19,0.0902821822768279,0.0029999999969732
18,20,0.109200310469553,0.00400000000081491
18,21,0.0938099632808271,0.00699999999778811
18,22,0.0819174300592691,0.00400000000081491
18,23,0.0818173721841958,0.00400000000081491
18,24,0.0977576318104338,0.0029999999969732
18,25,0.0755431220365814,0.00400000000081491
18,26,0.0629065986645685,0.0029999999969732
18,27,0.0885074738316794,0.00400000000081491
18,28,0.0972036644276968,0.00400000000081491
18,29,0.0989765815312798,0.00300000001152512
18,30,0.0629618980069098,0.00400000000081491
19,20,0.05553575941273,0.00399999998626299
19,21,0.0518891487320863,0.00300000001152512
19,22,0.0155095008793763,0.00400000000081491
19,23,0.0185728259116991,0.0029999999969732
19,24,0.0527633480580816,0.00400000000081491
19,25,0.0545456219063262,0.0029999999969732
19,26,0.0479257854535594,0.00400000000081491
19,27,0.0593235102554503,0.0029999999969732
19,28,0.053269121443169,0.00699999999778811
19,29,0.0135792298990403,0.00400000000081491
19,30,0.046067738470293,0.0029999999969732
20,21,0.0192751811736119,0.00400000000081491
20,22,0.0550064671669428,0.00300000001152512
20,23,0.0615568356588358,0.00400000000081491
20,24,0.051912763019458,0.0029999999969732
20,25,0.0616832547767005,0.00400000000081491
20,26,0.0792092991397481,0.0029999999969732
20,27,0.0617497944628042,0.00400000000081491
20,28,0.0210460444765148,0.0029999999969732
20,29,0.0534797171288346,0.0029999999969732
20,30,0.083735230081214,0.0029999999969732
21,22,0.0473046101040509,0.0029999999969732
21,23,0.0530603607867801,0.0029999999969732
21,24,0.0510983516430087,0.00300000001152512
21,25,0.0516339034788595,0.00400000000081491
21,26,0.0663499579541204,0.0029999999969732
21,27,0.056327016279062,0.00400000000081491
21,28,0.0110745312373288,0.00699999999778811
21,29,0.0532416880493661,0.0029999999969732
21,30,0.0712445400373789,0.00400000000081491
22,23,0.0177143734230165,0.0029999999969732
22,24,0.0562387305695822,0.00400000000081491
22,25,0.0518394680721108,0.0029999999969732
22,26,0.036908222735223,0.00400000000081491
22,27,0.0593792144785286,0.0029999999969732
22,28,0.0502888174678436,0.00400000000081491
22,29,0.0263303364891002,0.00300000001152512
22,30,0.0349067020485248,0.00400000000081491
23,24,0.0579387610920763,0.0029999999969732
23,25,0.0517009153132284,0.00400000000081491
23,26,0.0409310739975361,0.0029999999969732
23,27,0.0603004192893099,0.00400000000081491
23,28,0.0527282168048447,0.0029999999969732
23,29,0.0267978279769708,0.00400000000081491
23,30,0.0392930198049209,0.0029999999969732
24,25,0.028953030215218,0.00400000000081491
24,26,0.0791668824519877,0.00699999999778811
24,27,0.01915159230054,0.00300000001152512
24,28,0.0527273305899039,0.00399999998626299
24,29,0.0477307145501639,0.00300000001152512
24,30,0.0757944066394946,0.0029999999969732
25,26,0.0640008563063347,0.0029999999969732
25,27,0.0183441568290946,0.0029999999969732
25,28,0.0537475971307708,0.00400000000081491
25,29,0.0547851400688436,0.0029999999969732
25,30,0.0595569619468185,0.00400000000081491
26,27,0.0745707838517768,0.0029999999969732
26,28,0.0698777273947636,0.00400000000081491
26,29,0.0603289591539215,0.00300000001152512
26,30,0.0196357994208418,0.00399999998626299
27,28,0.0582637414841628,0.00300000001152512
27,29,0.0570669423996382,0.0029999999969732
27,30,0.0708903773905842,0.0029999999969732
28,29,0.0535713517761939,0.0029999999969732
28,30,0.0753657615995278,0.0029999999969732
29,30,0.057136138330843,0.00699999999778811


"After.Trace.ID","Before.Trace.ID","Difference","Runtime"
1,1,0.0685462502303145,0.00400000000081491
1,2,0.0865317645914759,0.00400000000081491
1,3,0.0294629080587235,0.0029999999969732
1,4,0.0671481142939193,0.00400000000081491
1,5,0.0165608025805074,0.0029999999969732
1,6,0.0774392159267791,0.0029999999969732
1,7,0.0692861691876044,0.0029999999969732
1,8,0.0529843095420113,0.00400000000081491
1,9,0.0507587198117228,0.0029999999969732
1,10,0.0489806847587717,0.00400000000081491
1,11,0.0517664509617543,0.00400000000081491
1,12,0.0489716807954665,0.00600000000849832
1,13,0.0520631853997183,0.00300000001152512
1,14,0.0638794239748416,0.00400000000081491
1,15,0.0275341541048554,0.0029999999969732
1,16,0.051126342125739,0.00400000000081491
1,17,0.0833399494646761,0.0029999999969732
1,18,0.10061819686739,0.00400000000081491
1,19,0.01820629651802,0.00400000000081491
1,20,0.0558430942871128,0.0029999999969732
1,21,0.0544903774667471,0.00400000000081491
1,22,0.0293808646083567,0.0029999999969732
1,23,0.0246495119229375,0.00400000000081491
1,24,0.0523328871987164,0.0029999999969732
1,25,0.0581901554463358,0.00400000000081491
1,26,0.0625160966799834,0.00300000001152512
1,27,0.0611759765452902,0.00399999998626299
1,28,0.0534037952752341,0.00300000001152512
1,29,0.012349131160088,0.00699999999778811
1,30,0.0598857917059365,0.00400000000081491
2,1,0.0586822648201251,0.0029999999969732
2,2,0.086086257591132,0.00400000000081491
2,3,0.060408441153704,0.0029999999969732
2,4,0.0411029611097837,0.0029999999969732
2,5,0.0492155710356519,0.0029999999969732
2,6,0.0793401771811489,0.0029999999969732
2,7,0.0657028351088587,0.0029999999969732
2,8,0.0536277766572711,0.00400000000081491
2,9,0.013697353371269,0.00300000001152512
2,10,0.0504283632812957,0.00400000000081491
2,11,0.0111418986805065,0.0029999999969732
2,12,0.0521013555805204,0.0029999999969732
2,13,0.0160188411230382,0.00400000000081491
2,14,0.0575972953344471,0.0029999999969732
2,15,0.055467695642691,0.00400000000081491
2,16,0.012044991839612,0.0029999999969732
2,17,0.0650909720767131,0.00699999999778811
2,18,0.108908750613917,0.00400000000081491
2,19,0.0543980635806361,0.00400000000081491
2,20,0.0151845214842918,0.0029999999969732
2,21,0.0219088218413434,0.00300000001152512
2,22,0.0555076601394439,0.00300000001152512
2,23,0.0586365765805003,0.0029999999969732
2,24,0.0525049901763863,0.0029999999969732
2,25,0.0622694573386378,0.0029999999969732
2,26,0.0801610146933441,0.00400000000081491
2,27,0.062970879118055,0.0029999999969732
2,28,0.0191703472621639,0.00400000000081491
2,29,0.0522977551995881,0.0029999999969732
2,30,0.0851206795046624,0.00400000000081491
3,1,0.056172824231614,0.0029999999969732
3,2,0.0809830380683475,0.00400000000081491
3,3,0.0563941320660376,0.00300000001152512
3,4,0.0344925430017598,0.00699999999778811
3,5,0.0490953761040596,0.00400000000081491
3,6,0.0757813823933263,0.0029999999969732
3,7,0.0715514360501203,0.0029999999969732
3,8,0.0526446610314883,0.00400000000081491
3,9,0.0115650336296011,0.0029999999969732
3,10,0.0526562732965579,0.00400000000081491
3,11,0.00959646450966968,0.0029999999969732
3,12,0.05286182067006,0.00400000000081491
3,13,0.0131833703063313,0.00300000001152512
3,14,0.0546681355961682,0.00400000000081491
3,15,0.0532238068091914,0.0029999999969732
3,16,0.00703942236819978,0.00400000000081491
3,17,0.0584824834616522,0.0029999999969732
3,18,0.104516276310779,0.00400000000081491
3,19,0.0534572504505086,0.0029999999969732
3,20,0.00819499120935895,0.00400000000081491
3,21,0.0130576781826476,0.0029999999969732
3,22,0.0517039659896327,0.00699999999778811
3,23,0.0576333521498276,0.00400000000081491
3,24,0.0510139498124161,0.0029999999969732
3,25,0.0579615774685311,0.00300000001152512
3,26,0.075669970913629,0.00400000000081491
3,27,0.0598865064196363,0.0029999999969732
3,28,0.0153561006913261,0.00400000000081491
3,29,0.0521421044394239,0.0029999999969732
3,30,0.0796805143084997,0.00400000000081491
4,1,0.07055497225651,0.0029999999969732
4,2,0.0910610522358206,0.00400000000081491
4,3,0.0311709399055338,0.00400000000081491
4,4,0.0695620130411101,0.0029999999969732
4,5,0.0154402093848367,0.00400000000081491
4,6,0.0828945195277236,0.0029999999969732
4,7,0.0643927188278106,0.00300000001152512
4,8,0.0529429980742272,0.00400000000081491
4,9,0.050726089725269,0.00699999999778811
4,10,0.0501262647340266,0.0029999999969732
4,11,0.0510637205081984,0.00400000000081491
4,12,0.0511975557752554,0.0029999999969732
4,13,0.0529033462618213,0.00400000000081491
4,14,0.0621870621757145,0.0029999999969732
4,15,0.0284740070738909,0.0029999999969732
4,16,0.0510252955805979,0.00400000000081491
4,17,0.0874435274632548,0.0029999999969732
4,18,0.106581848825843,0.00400000000081491
4,19,0.0196586464067923,0.0029999999969732
4,20,0.053334680119132,0.00400000000081491
4,21,0.0556745294705336,0.00300000001152512
4,22,0.0324702727241325,0.00400000000081491
4,23,0.0336020949744812,0.0029999999969732
4,24,0.0522929739120247,0.00400000000081491
4,25,0.0627191688744882,0.00699999999778811
4,26,0.066376096873274,0.0029999999969732
4,27,0.0630823784943605,0.00400000000081491
4,28,0.0557397229927792,0.0029999999969732
4,29,0.0108948245746204,0.00400000000081491
4,30,0.064496929351563,0.0029999999969732
5,1,0.0576821946500676,0.0029999999969732
5,2,0.0737526577714382,0.00400000000081491
5,3,0.0580359292099393,0.0029999999969732
5,4,0.0267687361918325,0.00400000000081491
5,5,0.0504968256450841,0.00300000001152512
5,6,0.06905726422826,0.00400000000081491
5,7,0.0817839276220508,0.0029999999969732
5,8,0.0572598866310511,0.0029999999969732
5,9,0.0199891394673684,0.0029999999969732
5,10,0.0545957438751719,0.0029999999969732
5,11,0.0162014184683174,0.00400000000081491
5,12,0.0522854872046214,0.0059999999939464
5,13,0.0175857910643692,0.00400000000081491
5,14,0.0587835261669073,0.00300000001152512
5,15,0.0539190760041077,0.00400000000081491
5,16,0.0148988558779093,0.0029999999969732
5,17,0.0503082908208776,0.00400000000081491
5,18,0.0986753685221645,0.0029999999969732
5,19,0.0547483320097589,0.0029999999969732
5,20,0.0203381067967179,0.0029999999969732
5,21,0.0130254420803914,0.0029999999969732
5,22,0.051794694509042,0.0029999999969732
5,23,0.0548734803210386,0.00400000000081491
5,24,0.0555204744146649,0.0029999999969732
5,25,0.05702944120143,0.00400000000081491
5,26,0.0702161139276088,0.00300000001152512
5,27,0.0612220318907245,0.00399999998626299
5,28,0.00657334734504488,0.00300000001152512
5,29,0.0555185683200386,0.00699999999778811
5,30,0.0767626221949912,0.00400000000081491
6,1,0.0612108479072966,0.0029999999969732
6,2,0.0823168450126562,0.00400000000081491
6,3,0.0591473754132603,0.0029999999969732
6,4,0.0647439723124836,0.00400000000081491
6,5,0.0703473080717471,0.0029999999969732
6,6,0.0741400243512151,0.00400000000081491
6,7,0.105079691725345,0.0029999999969732
6,8,0.0444821281844604,0.00300000001152512
6,9,0.0731963349273532,0.0029999999969732
6,10,0.0766179555944243,0.0029999999969732
6,11,0.0755331294224393,0.0029999999969732
6,12,0.0790086866298712,0.0029999999969732
6,13,0.0732230599629188,0.0029999999969732
6,14,0.070949631965605,0.00400000000081491
6,15,0.0664440817103572,0.0029999999969732
6,16,0.0728686363469284,0.00300000001152512
6,17,0.0710969933316131,0.0029999999969732
6,18,0.0821650164978047,0.00400000000081491
6,19,0.0702541020753488,0.00700000001234002
6,20,0.0734284731166228,0.0029999999969732
6,21,0.0654573077280566,0.0029999999969732
6,22,0.0655522967396981,0.00400000000081491
6,23,0.0705391167232142,0.0029999999969732
6,24,0.042269933172472,0.00400000000081491
6,25,0.0291612363541465,0.0029999999969732
6,26,0.0732279823724755,0.00300000001152512
6,27,0.0282759667230539,0.0029999999969732
6,28,0.0703890925367885,0.00300000001152512
6,29,0.0704003590435912,0.00400000000081491
6,30,0.0671662295864943,0.0029999999969732
7,1,0.0535971875859721,0.00400000000081491
7,2,0.0769078757648385,0.0029999999969732
7,3,0.0533093415374735,0.00400000000081491
7,4,0.0292371733724656,0.0029999999969732
7,5,0.0499060859998599,0.00400000000081491
7,6,0.071751535939244,0.0029999999969732
7,7,0.0775965450672309,0.0029999999969732
7,8,0.0510548616256836,0.00400000000081491
7,9,0.0184254247146651,0.00700000001234002
7,10,0.054861454712632,0.00400000000081491
7,11,0.0185569464558102,0.0029999999969732
7,12,0.0560883011248977,0.0029999999969732
7,13,0.0186896224575408,0.00400000000081491
7,14,0.0545882326730741,0.0029999999969732
7,15,0.0516353869235653,0.00400000000081491
7,16,0.0142322557139429,0.0029999999969732
7,17,0.0518708961800327,0.00400000000081491
7,18,0.0988000972696427,0.0029999999969732
7,19,0.0534596162910611,0.00400000000081491
7,20,0.016122693666413,0.00300000001152512
7,21,0.00961137201082067,0.00399999998626299
7,22,0.0493729670259835,0.00300000001152512
7,23,0.0561792227778075,0.00400000000081491
7,24,0.0491405950620672,0.0029999999969732
7,25,0.0523418481330027,0.00400000000081491
7,26,0.0714177113265328,0.0029999999969732
7,27,0.0554165108723499,0.00400000000081491
7,28,0.016289057871636,0.0029999999969732
7,29,0.0530164032196193,0.00699999999778811
7,30,0.0745302773859889,0.00400000000081491
8,1,0.0690966898212757,0.0029999999969732
8,2,0.0904486454705481,0.00400000000081491
8,3,0.0329692223734554,0.00400000000081491
8,4,0.0690044405496311,0.00300000001152512
8,5,0.0168127821658119,0.00399999998626299
8,6,0.0809455454827982,0.00300000001152512
8,7,0.0638790362738496,0.0029999999969732
8,8,0.0501729543264728,0.00400000000081491
8,9,0.049968711802849,0.0029999999969732
8,10,0.047855567616651,0.00400000000081491
8,11,0.0507989425042207,0.00400000000081491
8,12,0.0475662919489982,0.0029999999969732
8,13,0.0516714674900029,0.0029999999969732
8,14,0.0617548830358162,0.00400000000081491
8,15,0.0305667073607467,0.00400000000081491
8,16,0.0511549632002752,0.0029999999969732
8,17,0.0872245708816001,0.00700000001234002
8,18,0.105033062611799,0.00400000000081491
8,19,0.0204826399945519,0.0029999999969732
8,20,0.0541606376175227,0.0029999999969732
8,21,0.0555753378227815,0.00400000000081491
8,22,0.0339029189551871,0.0029999999969732
8,23,0.031828382527241,0.00400000000081491
8,24,0.0494512871536279,0.0029999999969732
8,25,0.0598933663723904,0.00400000000081491
8,26,0.0667166896496251,0.0029999999969732
8,27,0.0603157236771619,0.00400000000081491
8,28,0.0547153257817662,0.0029999999969732
8,29,0.0124439276050602,0.00400000000081491
8,30,0.0650775271644592,0.0029999999969732
9,1,0.069086504283667,0.00400000000081491
9,2,0.0843496231300914,0.00300000001152512
9,3,0.0258737486592422,0.00400000000081491
9,4,0.0662854051449568,0.00400000000081491
9,5,0.0107138977234876,0.0029999999969732
9,6,0.0771162986671784,0.00699999999778811
9,7,0.0711418870531744,0.0029999999969732
9,8,0.0543872354017061,0.00400000000081491
9,9,0.0511970835503197,0.0029999999969732
9,10,0.0500380217065333,0.00400000000081491
9,11,0.0512851914297637,0.00400000000081491
9,12,0.0490736491839576,0.0029999999969732
9,13,0.0527407053323663,0.00300000001152512
9,14,0.0625645101060713,0.0029999999969732
9,15,0.023103198056695,0.00400000000081491
9,16,0.0505763405818304,0.00300000001152512
9,17,0.0823321597770699,0.00400000000081491
9,18,0.10014932951236,0.0029999999969732
9,19,0.0133744423822439,0.00400000000081491
9,20,0.0543732654524006,0.0029999999969732
9,21,0.0538321557096937,0.00400000000081491
9,22,0.025477740515347,0.0029999999969732
9,23,0.0248264669413737,0.0029999999969732
9,24,0.0535139501097439,0.00699999999778811
9,25,0.0592314744123974,0.0029999999969732
9,26,0.0593565331321815,0.0029999999969732
9,27,0.0622014960079722,0.00400000000081491
9,28,0.0536389670709294,0.0029999999969732
9,29,0.00713638086525057,0.00400000000081491
9,30,0.057065292457862,0.00300000001152512
10,1,0.0662314945545747,0.00400000000081491
10,2,0.0843848088684004,0.0029999999969732
10,3,0.0245962774792237,0.00400000000081491
10,4,0.0638881039735347,0.0029999999969732
10,5,0.00857351537570984,0.0029999999969732
10,6,0.0763965000237317,0.00400000000081491
10,7,0.0692162733209883,0.0029999999969732
10,8,0.0497130699330076,0.0029999999969732
10,9,0.049380545667054,0.00400000000081491
10,10,0.0485192170182285,0.0029999999969732
10,11,0.0494399517746064,0.00400000000081491
10,12,0.0497142630997792,0.00699999999778811
10,13,0.0512110207627837,0.00300000001152512
10,14,0.0595607447065964,0.00400000000081491
10,15,0.0212896512659685,0.00400000000081491
10,16,0.04861908371404,0.0029999999969732
10,17,0.0807023923317616,0.00400000000081491
10,18,0.0992039741285961,0.0029999999969732
10,19,0.0131919462918575,0.00400000000081491
10,20,0.0515517333114253,0.0029999999969732
10,21,0.0515761675612052,0.00400000000081491
10,22,0.0256566983927624,0.0029999999969732
10,23,0.0273776847506718,0.00400000000081491
10,24,0.0485691976940167,0.0029999999969732
10,25,0.056119539484651,0.0029999999969732
10,26,0.0590383755181506,0.00300000001152512
10,27,0.0576175096132958,0.00400000000081491
10,28,0.0521770133034036,0.0029999999969732
10,29,0.00683807952546434,0.00400000000081491
10,30,0.0572480944451084,0.00699999999778811
11,1,0.0574059020088762,0.00400000000081491
11,2,0.080626354158439,0.0029999999969732
11,3,0.0577115328026904,0.00400000000081491
11,4,0.0348144106115257,0.0029999999969732
11,5,0.0492391993227013,0.00400000000081491
11,6,0.075803412954824,0.0029999999969732
11,7,0.0722182848965147,0.0029999999969732
11,8,0.0533691060637928,0.00400000000081491
11,9,0.0111038074729608,0.00300000001152512
11,10,0.0524886699720507,0.00400000000081491
11,11,0.00637060042508075,0.0029999999969732
11,12,0.0512550845811133,0.00400000000081491
11,13,0.0118651258123829,0.0029999999969732
11,14,0.0563384941595333,0.00400000000081491
11,15,0.0543791894161678,0.0029999999969732
11,16,0.00737437404489905,0.00400000000081491
11,17,0.0589558112536659,0.0029999999969732
11,18,0.105414688038831,0.00699999999778811
11,19,0.0542326377614712,0.00400000000081491
11,20,0.00925722083393499,0.00300000001152512
11,21,0.014770327054912,0.00399999998626299
11,22,0.053004286549066,0.00300000001152512
11,23,0.0576324365829894,0.00400000000081491
11,24,0.0521794168493462,0.0029999999969732
11,25,0.0588050928152423,0.00400000000081491
11,26,0.0761845617594051,0.0029999999969732
11,27,0.06068158473778,0.00400000000081491
11,28,0.0127006589510307,0.0029999999969732
11,29,0.0527060097133658,0.0029999999969732
11,30,0.081016239464866,0.0029999999969732
12,1,0.0630475203284249,0.00400000000081491
12,2,0.083739760601939,0.0029999999969732
12,3,0.0627067807935068,0.00300000001152512
12,4,0.0693715022021628,0.00400000000081491
12,5,0.0485789839994454,0.0029999999969732
12,6,0.079538999349942,0.00400000000081491
12,7,0.0621163900315067,0.0059999999939464
12,8,0.0501455310256541,0.0029999999969732
12,9,0.0470471624936089,0.0029999999969732
12,10,0.0449966614673912,0.00300000001152512
12,11,0.046970801105378,0.00399999998626299
12,12,0.00782982436922552,0.00300000001152512
12,13,0.0477888064117465,0.0029999999969732
12,14,0.0598054983375694,0.00400000000081491
12,15,0.0594141112410349,0.0029999999969732
12,16,0.0491487780027695,0.0029999999969732
12,17,0.0885618743469503,0.0029999999969732
12,18,0.105044824936291,0.0029999999969732
12,19,0.0502374913823199,0.00400000000081491
12,20,0.0534528872759025,0.00300000001152512
12,21,0.0548114757016452,0.0029999999969732
12,22,0.0575218254835136,0.00400000000081491
12,23,0.0550592251719768,0.0029999999969732
12,24,0.0487462913277051,0.0029999999969732
12,25,0.0577455548081325,0.0029999999969732
12,26,0.0823960906818192,0.00699999999778811
12,27,0.0615031836055597,0.0029999999969732
12,28,0.0522107274595702,0.00300000001152512
12,29,0.0460080612573179,0.00400000000081491
12,30,0.0823727639804499,0.0029999999969732
13,1,0.0278352396002184,0.00400000000081491
13,2,0.0400819723466886,0.00400000000081491
13,3,0.062083147943325,0.0029999999969732
13,4,0.0558638194553582,0.00400000000081491
13,5,0.056907926630388,0.0029999999969732
13,6,0.0373467566009335,0.00400000000081491
13,7,0.0926374371949726,0.0029999999969732
13,8,0.0654067841613266,0.00400000000081491
13,9,0.0581000211765152,0.0029999999969732
13,10,0.0612914497086433,0.00400000000081491
13,11,0.055959287645269,0.00400000000081491
13,12,0.0565943438316853,0.0029999999969732
13,13,0.058429600696676,0.00700000001234002
13,14,0.0338010209341273,0.00400000000081491
13,15,0.0565093046906641,0.00399999998626299
13,16,0.0527972939788934,0.00300000001152512
13,17,0.0654486450115002,0.00400000000081491
13,18,0.083540634952833,0.0029999999969732
13,19,0.0569428155623183,0.00400000000081491
13,20,0.0581821139069537,0.00400000000081491
13,21,0.0509820382694981,0.0029999999969732
13,22,0.0550106308576824,0.00400000000081491
13,23,0.0570906018865001,0.0029999999969732
13,24,0.0628172798306737,0.00400000000081491
13,25,0.0578873325233486,0.0029999999969732
13,26,0.0665657725555828,0.00400000000081491
13,27,0.0660272688711311,0.00400000000081491
13,28,0.0526887496909199,0.0029999999969732
13,29,0.0596525357503735,0.00699999999778811
13,30,0.0689702060564618,0.00400000000081491
14,1,0.0588352557452763,0.00300000001152512
14,2,0.0867697945605672,0.00300000001152512
14,3,0.0595706172811565,0.00400000000081491
14,4,0.0425531055179043,0.0029999999969732
14,5,0.049856674663664,0.00400000000081491
14,6,0.0807344497600557,0.0029999999969732
14,7,0.0644050857225785,0.0029999999969732
14,8,0.0525307560682827,0.00400000000081491
14,9,0.00601974054748734,0.0029999999969732
14,10,0.05105060243602,0.00400000000081491
14,11,0.00667686613793547,0.0029999999969732
14,12,0.0497815569570567,0.00300000001152512
14,13,0.00975778534203321,0.00400000000081491
14,14,0.0563124602382558,0.0029999999969732
14,15,0.0565464141524667,0.00400000000081491
14,16,0.0106409426258974,0.00699999999778811
14,17,0.0668051905325318,0.0029999999969732
14,18,0.11061143875788,0.00400000000081491
14,19,0.0547654308077971,0.00400000000081491
14,20,0.0115052658478991,0.0029999999969732
14,21,0.0213945275685327,0.00400000000081491
14,22,0.0552948071265059,0.0029999999969732
14,23,0.0594440761078901,0.00400000000081491
14,24,0.0515752233811785,0.0029999999969732
14,25,0.0616546805511428,0.00300000001152512
14,26,0.0817129886627923,0.00400000000081491
14,27,0.0625475961899959,0.0029999999969732
14,28,0.0194177617846352,0.00400000000081491
14,29,0.0517407715823324,0.0029999999969732
14,30,0.0853000137219359,0.00400000000081491
15,1,0.0534588143861669,0.0029999999969732
15,2,0.0922242532393278,0.00400000000081491
15,3,0.0544082013986156,0.00699999999778811
15,4,0.065152951469893,0.0029999999969732
15,5,0.0514214815353261,0.00400000000081491
15,6,0.0813832280633004,0.00300000001152512
15,7,0.0638849414168105,0.0029999999969732
15,8,0.00441417877951697,0.0029999999969732
15,9,0.0482972823809912,0.00400000000081491
15,10,0.0507463583068135,0.0029999999969732
15,11,0.0517361504803469,0.00400000000081491
15,12,0.0498566694060216,0.0029999999969732
15,13,0.0498076934676477,0.00300000001152512
15,14,0.0583574994061535,0.0029999999969732
15,15,0.0584941416449846,0.00300000001152512
15,16,0.0525873989419628,0.00400000000081491
15,17,0.0838649745447861,0.0029999999969732
15,18,0.10267383156802,0.00400000000081491
15,19,0.055122912484574,0.0029999999969732
15,20,0.0528900641687175,0.00699999999778811
15,21,0.0536375597540557,0.00400000000081491
15,22,0.0598801106297698,0.0029999999969732
15,23,0.0599087229671251,0.0029999999969732
15,24,0.0103255899863171,0.0029999999969732
15,25,0.0336240381360447,0.00300000001152512
15,26,0.0836973755308985,0.00400000000081491
15,27,0.0228733110127072,0.0029999999969732
15,28,0.0537294638496116,0.0029999999969732
15,29,0.0484223734354181,0.00400000000081491
15,30,0.0807980266582373,0.0029999999969732
16,1,0.058160013447987,0.00400000000081491
16,2,0.0855357808951757,0.00400000000081491
16,3,0.058755036656957,0.0029999999969732
16,4,0.040511710437318,0.0029999999969732
16,5,0.0497580507547451,0.0029999999969732
16,6,0.0795902404743544,0.00400000000081491
16,7,0.066427715313053,0.00600000000849832
16,8,0.0512941098299958,0.00400000000081491
16,9,0.00506517785033799,0.0029999999969732
16,10,0.051458461295511,0.00400000000081491
16,11,0.00551476652206429,0.0029999999969732
16,12,0.0501122212417552,0.00400000000081491
16,13,0.00822082503458323,0.0029999999969732
16,14,0.0563424457723124,0.00400000000081491
16,15,0.0562497442342606,0.0029999999969732
16,16,0.0101417414699424,0.00400000000081491
16,17,0.0648711241726271,0.00300000001152512
16,18,0.109486547152534,0.00399999998626299
16,19,0.0548918619473924,0.00300000001152512
16,20,0.0102397974530524,0.00400000000081491
16,21,0.0197278146944777,0.0029999999969732
16,22,0.0549580012647901,0.0029999999969732
16,23,0.0590614259229376,0.0059999999939464
16,24,0.05048896912202,0.00400000000081491
16,25,0.059850545361346,0.0029999999969732
16,26,0.080607836995386,0.00400000000081491
16,27,0.0606300550906742,0.0029999999969732
16,28,0.017216906189413,0.00400000000081491
16,29,0.0519411556195845,0.00300000001152512
16,30,0.0843554853782399,0.00400000000081491
17,1,0.0319265047010517,0.0029999999969732
17,2,0.0519322374718933,0.00400000000081491
17,3,0.0552264277837005,0.00400000000081491
17,4,0.0595798779129944,0.0029999999969732
17,5,0.0549850145192704,0.00400000000081491
17,6,0.0432290744121046,0.00400000000081491
17,7,0.0952228607861319,0.0029999999969732
17,8,0.0665385703128465,0.0029999999969732
17,9,0.0631989489245167,0.00699999999778811
17,10,0.0676571475563999,0.00400000000081491
17,11,0.0621444396802424,0.00400000000081491
17,12,0.0721112055950034,0.0029999999969732
17,13,0.0641428176353726,0.00400000000081491
17,14,0.0325467956721878,0.00300000001152512
17,15,0.0514252023105752,0.00400000000081491
17,16,0.0584273540522293,0.0029999999969732
17,17,0.0684460536344316,0.00300000001152512
17,18,0.0873504078186735,0.00400000000081491
17,19,0.0549388446049543,0.0029999999969732
17,20,0.0616219434126933,0.00400000000081491
17,21,0.0556391916031878,0.00400000000081491
17,22,0.0520402771361546,0.0029999999969732
17,23,0.0571793607391319,0.00699999999778811
17,24,0.0641210178924741,0.00400000000081491
17,25,0.0613656699990442,0.0029999999969732
17,26,0.0645589277327932,0.00400000000081491
17,27,0.0661824855006698,0.0029999999969732
17,28,0.059361010653503,0.0029999999969732
17,29,0.0579073317067818,0.00400000000081491
17,30,0.0652816346752992,0.0029999999969732
18,1,0.0484114196484254,0.00400000000081491
18,2,0.0809602917979936,0.00300000001152512
18,3,0.0481488638988688,0.00400000000081491
18,4,0.056633633008826,0.0029999999969732
18,5,0.0496074210226116,0.00400000000081491
18,6,0.0699427000661289,0.0029999999969732
18,7,0.075873075196093,0.0029999999969732
18,8,0.0152797215317778,0.0029999999969732
18,9,0.0490091653768925,0.0100000000093132
18,10,0.0515182353563623,0.00400000000081491
18,11,0.0523479945809943,0.0029999999969732
18,12,0.0489669818874295,0.0029999999969732
18,13,0.0493468444781478,0.00400000000081491
18,14,0.0543477548567873,0.0029999999969732
18,15,0.0527178763500272,0.00400000000081491
18,16,0.0516243447589458,0.0029999999969732
18,17,0.0728963228386604,0.00300000001152512
18,18,0.0889249746924466,0.00300000001152512
18,19,0.0508389427018362,0.0029999999969732
18,20,0.0533677802990451,0.00300000001152512
18,21,0.0487935986728545,0.0029999999969732
18,22,0.0520903894078954,0.00400000000081491
18,23,0.0534254620880009,0.0029999999969732
18,24,0.0106532194126619,0.0029999999969732
18,25,0.0186344935110443,0.0029999999969732
18,26,0.0721936432563493,0.0029999999969732
18,27,0.0141701379736041,0.00400000000081491
18,28,0.0508042521548798,0.00300000001152512
18,29,0.0478507461086306,0.00699999999778811
18,30,0.068353006851551,0.00400000000081491
19,1,0.0575748269590249,0.0029999999969732
19,2,0.0809593104586758,0.0029999999969732
19,3,0.0600055629101671,0.00400000000081491
19,4,0.0616880998571233,0.00400000000081491
19,5,0.0535818202193335,0.0029999999969732
19,6,0.0727568172245382,0.00400000000081491
19,7,0.0790129821773236,0.0029999999969732
19,8,0.0531918990063524,0.00400000000081491
19,9,0.0520312322302076,0.0029999999969732
19,10,0.0211969248211708,0.0029999999969732
19,11,0.0525742430768897,0.00400000000081491
19,12,0.0565349569768267,0.0029999999969732
19,13,0.0526329400809706,0.00400000000081491
19,14,0.0638910821765213,0.00400000000081491
19,15,0.0580794390268994,0.0029999999969732
19,16,0.0515747275621163,0.00400000000081491
19,17,0.07605124845517,0.00699999999778811
19,18,0.0825412792325529,0.00400000000081491
19,19,0.0563592547991132,0.00400000000081491
19,20,0.0563114061497289,0.00400000000081491
19,21,0.0527227042505404,0.00300000001152512
19,22,0.0585286985381946,0.00399999998626299
19,23,0.0557548102135713,0.00400000000081491
19,24,0.0531643014138618,0.00300000001152512
19,25,0.0548680342583796,0.00400000000081491
19,26,0.0777980826433208,0.0029999999969732
19,27,0.0576336715660934,0.00400000000081491
19,28,0.050625231448595,0.00400000000081491
19,29,0.0542018037021919,0.0029999999969732
19,30,0.0786671948165491,0.00400000000081491
20,1,0.0586648184046119,0.00400000000081491
20,2,0.0865248176866451,0.0029999999969732
20,3,0.0592593404387081,0.00400000000081491
20,4,0.0413962420364212,0.0029999999969732
20,5,0.0503927924361915,0.00699999999778811
20,6,0.0805877839207021,0.00400000000081491
20,7,0.0662214332243286,0.0029999999969732
20,8,0.0508810717144185,0.00300000001152512
20,9,0.00616754512061289,0.00400000000081491
20,10,0.0520295883587708,0.0029999999969732
20,11,0.00690479168228744,0.00400000000081491
20,12,0.0508348251162976,0.0029999999969732
20,13,0.00917486319142386,0.00400000000081491
20,14,0.0570985070408639,0.0029999999969732
20,15,0.0571479534165369,0.00400000000081491
20,16,0.0118370004610542,0.0029999999969732
20,17,0.0657081842826373,0.00400000000081491
20,18,0.110573348224116,0.0029999999969732
20,19,0.055822027640498,0.00400000000081491
20,20,0.0107061035940976,0.00300000001152512
20,21,0.0210221609203148,0.00399999998626299
20,22,0.056012225973721,0.00300000001152512
20,23,0.0599581895211649,0.00400000000081491
20,24,0.0503895029670147,0.0029999999969732
20,25,0.0600677183088608,0.00699999999778811
20,26,0.0816632429831906,0.00400000000081491
20,27,0.0603808331441696,0.0029999999969732
20,28,0.0180466367416711,0.00400000000081491
20,29,0.0524909765838741,0.0029999999969732
20,30,0.085379996033555,0.00400000000081491
21,1,0.0527966080851674,0.0029999999969732
21,2,0.0929425473083197,0.00400000000081491
21,3,0.0535828410591108,0.00300000001152512
21,4,0.0649624655154134,0.00400000000081491
21,5,0.0503231421406846,0.0029999999969732
21,6,0.0820850219051655,0.00400000000081491
21,7,0.0602690301128481,0.0029999999969732
21,8,0.00582563997460378,0.0029999999969732
21,9,0.0461400724401418,0.0029999999969732
21,10,0.0494498500824513,0.00400000000081491
21,11,0.0499263047645441,0.0029999999969732
21,12,0.0485718212488887,0.00400000000081491
21,13,0.0479401554257117,0.00300000001152512
21,14,0.0557904721153793,0.00699999999778811
21,15,0.0574189326076903,0.00400000000081491
21,16,0.0507202903990978,0.0029999999969732
21,17,0.0844153733885225,0.00400000000081491
21,18,0.103651580631932,0.0029999999969732
21,19,0.0536171015985236,0.00400000000081491
21,20,0.0507188599251234,0.0029999999969732
21,21,0.0522269560993023,0.0029999999969732
21,22,0.0585611828507337,0.0029999999969732
21,23,0.0597463391490013,0.00300000001152512
21,24,0.00850787825270853,0.00400000000081491
21,25,0.0355120476403363,0.0029999999969732
21,26,0.084020392116343,0.00400000000081491
21,27,0.0258129363655361,0.0029999999969732
21,28,0.0530975655308391,0.0029999999969732
21,29,0.0467484105987334,0.00400000000081491
21,30,0.0807156189803429,0.0029999999969732
22,1,0.0626469503698696,0.00400000000081491
22,2,0.0960100819499537,0.00400000000081491
22,3,0.0640568240341102,0.00600000000849832
22,4,0.0516531543013433,0.00300000001152512
22,5,0.0541735219307169,0.00399999998626299
22,6,0.0884445456593015,0.00300000001152512
22,7,0.0574387408908918,0.0029999999969732
22,8,0.0533084619086973,0.00400000000081491
22,9,0.0141006362311282,0.0029999999969732
22,10,0.0534352991800845,0.00400000000081491
22,11,0.0178828892825717,0.0029999999969732
22,12,0.0545361985297222,0.00400000000081491
22,13,0.0177451224441108,0.0029999999969732
22,14,0.0595806940214884,0.00400000000081491
22,15,0.0618277638400349,0.0029999999969732
22,16,0.0210357998823376,0.00400000000081491
22,17,0.0757211169958309,0.00300000001152512
22,18,0.118186527681186,0.00400000000081491
22,19,0.0592278255114256,0.0029999999969732
22,20,0.0198601683729401,0.00400000000081491
22,21,0.0310333061668684,0.0029999999969732
22,22,0.061253213711985,0.00699999999778811
22,23,0.0649354520564505,0.00400000000081491
22,24,0.0529848796984051,0.0029999999969732
22,25,0.0666375929674199,0.0029999999969732
22,26,0.0898535847861893,0.0029999999969732
22,27,0.0656089077393174,0.00400000000081491
22,28,0.0293431518676645,0.00300000001152512
22,29,0.0545520889814997,0.00399999998626299
22,30,0.0923607910741086,0.00300000001152512
23,1,0.0644334364699946,0.00400000000081491
23,2,0.0945534556321313,0.0029999999969732
23,3,0.0631970178772457,0.0029999999969732
23,4,0.0730680385833338,0.0029999999969732
23,5,0.0540564078907729,0.0029999999969732
23,6,0.0926352400754773,0.0029999999969732
23,7,0.0553919097059149,0.00300000001152512
23,8,0.052759287547885,0.00400000000081491
23,9,0.0514179356905715,0.0029999999969732
23,10,0.0559138029319169,0.0029999999969732
23,11,0.050674867268645,0.00400000000081491
23,12,0.0510341682154556,0.0059999999939464
23,13,0.0555143179825876,0.0029999999969732
23,14,0.0564015306117219,0.0029999999969732
23,15,0.0598605808491286,0.00400000000081491
23,16,0.0499863260517311,0.00300000001152512
23,17,0.0921268512463314,0.0029999999969732
23,18,0.113821294638176,0.00400000000081491
23,19,0.0558387830460017,0.0029999999969732
23,20,0.0483632377624474,0.0029999999969732
23,21,0.0558969122229768,0.00400000000081491
23,22,0.060822748390218,0.0029999999969732
23,23,0.069611039989037,0.00300000001152512
23,24,0.0507536207351281,0.0029999999969732
23,25,0.0666120836923819,0.0029999999969732
23,26,0.0886644642599582,0.0029999999969732
23,27,0.0655633458774281,0.0029999999969732
23,28,0.0608360076081197,0.00400000000081491
23,29,0.0508742770570032,0.0029999999969732
23,30,0.0865362864330847,0.0029999999969732
24,1,0.0647139285106184,0.00400000000081491
24,2,0.0845330823674282,0.00700000001234002
24,3,0.0642390138051975,0.0029999999969732
24,4,0.0704855268798032,0.00400000000081491
24,5,0.0515247311612538,0.0029999999969732
24,6,0.0794083271751843,0.00400000000081491
24,7,0.0656670336165446,0.0029999999969732
24,8,0.0531393053152567,0.0029999999969732
24,9,0.0494163556212618,0.00300000001152512
24,10,0.0477685286405427,0.00399999998626299
24,11,0.0500826947921146,0.00300000001152512
24,12,0.0135958119959366,0.0029999999969732
24,13,0.0495754887224438,0.00400000000081491
24,14,0.0606364844092697,0.0029999999969732
24,15,0.0613609100689551,0.0029999999969732
24,16,0.0520785887095762,0.0029999999969732
24,17,0.089336257455225,0.0029999999969732
24,18,0.104503083638626,0.00400000000081491
24,19,0.0520020524903866,0.00300000001152512
24,20,0.0565942488788395,0.0029999999969732
24,21,0.0567525219693048,0.00300000001152512
24,22,0.0585373670047799,0.00699999999778811
24,23,0.0560943465717662,0.0029999999969732
24,24,0.0510373916517629,0.00400000000081491
24,25,0.0589487914500977,0.0029999999969732
24,26,0.0828869660696781,0.0029999999969732
24,27,0.0635110354596229,0.00400000000081491
24,28,0.0545477704719426,0.00300000001152512
24,29,0.0488133252942363,0.0029999999969732
24,30,0.0823278221987544,0.00400000000081491
25,1,0.048877515318272,0.0029999999969732
25,2,0.0851391583650654,0.00400000000081491
25,3,0.0495660727702753,0.0029999999969732
25,4,0.0583970555823578,0.00400000000081491
25,5,0.0505750605055511,0.0029999999969732
25,6,0.074070350219071,0.00400000000081491
25,7,0.0728002747189156,0.0029999999969732
25,8,0.0132548721620394,0.00300000001152512
25,9,0.0494915861788934,0.0029999999969732
25,10,0.052398501176004,0.00400000000081491
25,11,0.052715239681555,0.00699999999778811
25,12,0.0545816532497519,0.0029999999969732
25,13,0.0506589869135947,0.00400000000081491
25,14,0.0562218020921541,0.0029999999969732
25,15,0.0535949612692722,0.00400000000081491
25,16,0.0515759024921725,0.0029999999969732
25,17,0.0746641129377219,0.00400000000081491
25,18,0.0925494615502317,0.00300000001152512
25,19,0.0526848756543094,0.00400000000081491
25,20,0.052847534122015,0.0029999999969732
25,21,0.0495749832231269,0.0029999999969732
25,22,0.0545034316751595,0.0029999999969732
25,23,0.0562565822438282,0.0029999999969732
25,24,0.011162415025755,0.00400000000081491
25,25,0.0241207488097904,0.0029999999969732
25,26,0.0755086110157666,0.0029999999969732
25,27,0.0157246329279798,0.0029999999969732
25,28,0.0518854363037708,0.00300000001152512
25,29,0.0487500127132351,0.00699999999778811
25,30,0.0718973875546122,0.00400000000081491
26,1,0.0573087634666481,0.0029999999969732
26,2,0.0837551293181347,0.00400000000081491
26,3,0.0578033017649274,0.00400000000081491
26,4,0.0387893319160318,0.0029999999969732
26,5,0.0484088402623133,0.0029999999969732
26,6,0.0783197168198226,0.0029999999969732
26,7,0.0671395618917113,0.0029999999969732
26,8,0.0516760326923696,0.00400000000081491
26,9,0.00962306940644532,0.0029999999969732
26,10,0.051044390953026,0.00400000000081491
26,11,0.00584437055762114,0.00300000001152512
26,12,0.0504247446072867,0.0029999999969732
26,13,0.0125919667054577,0.00400000000081491
26,14,0.0545451236723504,0.0029999999969732
26,15,0.0541983810755408,0.00400000000081491
26,16,0.00804599607803046,0.0029999999969732
26,17,0.0633197540131518,0.00699999999778811
26,18,0.107715425919722,0.00400000000081491
26,19,0.05337473139633,0.00400000000081491
26,20,0.00615695248042431,0.0029999999969732
26,21,0.0179605127583984,0.00400000000081491
26,22,0.0533413510878151,0.00300000001152512
26,23,0.05861877275839,0.00400000000081491
26,24,0.0503157311131284,0.0029999999969732
26,25,0.0598040988091026,0.0029999999969732
26,26,0.0783293261161893,0.00400000000081491
26,27,0.0606089782398541,0.0029999999969732
26,28,0.0179972551303396,0.00400000000081491
26,29,0.0512080528438594,0.0029999999969732
26,30,0.0825769519046426,0.00400000000081491
27,1,0.0525079121914748,0.0029999999969732
27,2,0.0902161967762999,0.00400000000081491
27,3,0.0529697496616827,0.00300000001152512
27,4,0.063419611340992,0.00699999999778811
27,5,0.050996997645314,0.00400000000081491
27,6,0.0807745526015261,0.0029999999969732
27,7,0.0662600201074039,0.0029999999969732
27,8,0.0103783909614441,0.00400000000081491
27,9,0.0492424101211532,0.0029999999969732
27,10,0.0522610453574701,0.00400000000081491
27,11,0.0518219015210308,0.0029999999969732
27,12,0.0529883911400131,0.00300000001152512
27,13,0.0512072934320903,0.00399999998626299
27,14,0.0571131961102594,0.00300000001152512
27,15,0.0566446732901316,0.00400000000081491
27,16,0.0519225714705393,0.0029999999969732
27,17,0.081452083504809,0.0029999999969732
27,18,0.100903307231986,0.0029999999969732
27,19,0.054675193892809,0.0029999999969732
27,20,0.0514489260079103,0.0029999999969732
27,21,0.0523805198100614,0.0029999999969732
27,22,0.0585332579414549,0.00700000001234002
27,23,0.0607490997356185,0.00399999998626299
27,24,0.0126469800773793,0.00300000001152512
27,25,0.0336029957589857,0.00400000000081491
27,26,0.0813966931226459,0.0029999999969732
27,27,0.022738089076711,0.0029999999969732
27,28,0.0539882374125641,0.00400000000081491
27,29,0.048652203339754,0.0029999999969732
27,30,0.0785846383122958,0.00400000000081491
28,1,0.0520929702310538,0.0029999999969732
28,2,0.0912856936948979,0.00400000000081491
28,3,0.0527653007444914,0.0029999999969732
28,4,0.0630664573090685,0.00400000000081491
28,5,0.050874615215389,0.00300000001152512
28,6,0.0795383859376544,0.00400000000081491
28,7,0.0647174034894138,0.0029999999969732
28,8,0.00846539185108972,0.0029999999969732
28,9,0.0472735743733786,0.0029999999969732
28,10,0.0506000645701689,0.00699999999778811
28,11,0.0512222336624046,0.0029999999969732
28,12,0.0498139501169259,0.00300000001152512
28,13,0.0485513784003062,0.00399999998626299
28,14,0.0547304173235606,0.00300000001152512
28,15,0.0567310600950463,0.00400000000081491
28,16,0.0516939520093409,0.0029999999969732
28,17,0.0821604375455266,0.0029999999969732
28,18,0.100431316399552,0.00400000000081491
28,19,0.0533425422126356,0.0029999999969732
28,20,0.0518229236255281,0.0029999999969732
28,21,0.0518318535370001,0.0029999999969732
28,22,0.0574640877902113,0.00400000000081491
28,23,0.0590351475316691,0.0029999999969732
28,24,0.00517156576733016,0.00300000001152512
28,25,0.0325996588634742,0.00300000001152512
28,26,0.081568978014673,0.0029999999969732
28,27,0.0229008930538234,0.00699999999778811
28,28,0.0533292772088081,0.00400000000081491
28,29,0.0478611844675351,0.0029999999969732
28,30,0.0781888403483568,0.00400000000081491
29,1,0.0601741172574505,0.0029999999969732
29,2,0.0884517503199997,0.00400000000081491
29,3,0.0606578884521047,0.0029999999969732
29,4,0.0444214522576536,0.00400000000081491
29,5,0.0514911047912927,0.00300000001152512
29,6,0.0833108033115747,0.00400000000081491
29,7,0.0640825910092585,0.0029999999969732
29,8,0.0539375413379595,0.0029999999969732
29,9,0.00951266238360932,0.00400000000081491
29,10,0.0530955528812484,0.0029999999969732
29,11,0.00923014546037868,0.00400000000081491
29,12,0.0525130808827518,0.0029999999969732
29,13,0.0136900939441392,0.00400000000081491
29,14,0.0575540186935369,0.00699999999778811
29,15,0.0580088476390186,0.00300000001152512
29,16,0.0120692650265609,0.00400000000081491
29,17,0.0681599560298825,0.0029999999969732
29,18,0.112901414217454,0.00400000000081491
29,19,0.0566304275471329,0.0029999999969732
29,20,0.0101526618634911,0.00400000000081491
29,21,0.0229955179754882,0.0029999999969732
29,22,0.056897986025945,0.00400000000081491
29,23,0.0619108537152498,0.0029999999969732
29,24,0.0533313157586284,0.00400000000081491
29,25,0.063710092095847,0.0029999999969732
29,26,0.0836893562461699,0.00400000000081491
29,27,0.0642478606102554,0.0029999999969732
29,28,0.0221197720563368,0.00400000000081491
29,29,0.0531012310493646,0.00300000001152512
29,30,0.086967329985592,0.00699999999778811
30,1,0.0509653711647241,0.00400000000081491
30,2,0.0883556039298923,0.0029999999969732
30,3,0.0517944883345618,0.00400000000081491
30,4,0.0612554637112261,0.0029999999969732
30,5,0.0503029987032634,0.00400000000081491
30,6,0.07661415023165,0.0029999999969732
30,7,0.0681507387771345,0.0029999999969732
30,8,0.00692424086912623,0.00300000001152512
30,9,0.0478593319600469,0.00400000000081491
30,10,0.050347288544263,0.0029999999969732
30,11,0.0515152720693434,0.00400000000081491
30,12,0.0494310302512888,0.0029999999969732
30,13,0.0488158708092322,0.0029999999969732
30,14,0.0559355982541622,0.0029999999969732
30,15,0.0557956703945044,0.0029999999969732
30,16,0.051732291820383,0.0029999999969732
30,17,0.0794243830287102,0.00699999999778811
30,18,0.0971434713165157,0.00300000001152512
30,19,0.0528692015889552,0.00400000000081491
30,20,0.0526693752931371,0.0029999999969732
30,21,0.0511802629410111,0.00400000000081491
30,22,0.0565128118990307,0.0029999999969732
30,23,0.0569267909587201,0.00400000000081491
30,24,0.00483138162808224,0.0029999999969732
30,25,0.0280497583371822,0.0029999999969732
30,26,0.079093266379226,0.00400000000081491
30,27,0.0184963761987489,0.0029999999969732
30,28,0.0520906342120586,0.00300000001152512
30,29,0.0478539359888707,0.00300000001152512
30,30,0.0759817925497435,0.0029999999969732
