"Before.Trace.ID1","Before.Trace.ID2","Difference","Runtime"
1,2,0.348932359125558,0.0019999999931315
1,3,0.0269039661040278,0.0019999999931315
1,4,0.0599323755529791,0.00200000000768341
1,5,0.0703806736794108,0.0019999999931315
1,6,0.0365423916087474,0.00200000000768341
1,7,0.0718560252025108,0.0019999999931315
1,8,0.0419962880762136,0.00200000000768341
1,9,0.0414626071785926,0.0019999999931315
1,10,0.0768481184286812,0.00200000000768341
1,11,0.0213648866055941,0.0019999999931315
1,12,0.0490035616677011,0.0019999999931315
1,13,0.0419069370628713,0.00900000000547152
1,14,0.0535878977085933,0.00200000000768341
1,15,0.075394944332971,0.0019999999931315
1,16,0.0793617051543054,0.00200000000768341
1,17,0.0223914688291714,0.0029999999969732
1,18,0.0515817699544192,0.0019999999931315
1,19,0.0557889085819614,0.00200000000768341
1,20,0.175508895609361,0.0019999999931315
1,21,0.0615905961232797,0.00200000000768341
1,22,0.0585883625329858,0.0019999999931315
1,23,0.0597917913136276,0.00200000000768341
1,24,0.07294791082506,0.0019999999931315
1,25,0.0567807976732668,0.0019999999931315
1,26,0.123767096061155,0.00200000000768341
1,27,0.071258491443336,0.0019999999931315
1,28,0.0681323538819463,0.00200000000768341
1,29,0.0464790154413374,0.0019999999931315
1,30,0.0643833923062484,0.00200000000768341
2,3,0.364546138768346,0.0019999999931315
2,4,0.37285124204374,0.00300000001152512
2,5,0.30809679282405,0.0019999999931315
2,6,0.378035526776729,0.0019999999931315
2,7,0.394654017275714,0.00200000000768341
2,8,0.345653287170682,0.0019999999931315
2,9,0.34573396067343,0.00200000000768341
2,10,0.395492517799093,0.00100000000384171
2,11,0.359313950901801,0.00200000000768341
2,12,0.374472511011795,0.0019999999931315
2,13,0.356245980691677,0.00200000000768341
2,14,0.358824776171208,0.00100000000384171
2,15,0.401458565198173,0.00100000000384171
2,16,0.404690894076989,0.00099999998928979
2,17,0.338351637136856,0.00200000000768341
2,18,0.360283756853903,0.0019999999931315
2,19,0.340661703461351,0.00100000000384171
2,20,0.194344924599183,0.0019999999931315
2,21,0.327349580122452,0.00200000000768341
2,22,0.32888058786839,0.0019999999931315
2,23,0.375586064419917,0.00200000000768341
2,24,0.308187535727286,0.0019999999931315
2,25,0.341679494339846,0.00200000000768341
2,26,0.243659847163196,0.0019999999931315
2,27,0.393814610202951,0.00200000000768341
2,28,0.386604308961044,0.0019999999931315
2,29,0.326992884993281,0.00200000000768341
2,30,0.378371973621651,0.0019999999931315
3,4,0.0540807233404471,0.00200000000768341
3,5,0.0801815010695664,0.0019999999931315
3,6,0.0160489117798661,0.0019999999931315
3,7,0.0576240420821944,0.00200000000768341
3,8,0.0573961172553785,0.0019999999931315
3,9,0.055979411853296,0.00200000000768341
3,10,0.0627032352369359,0.0019999999931315
3,11,0.0123934586725792,0.00200000000768341
3,12,0.0518706187453005,0.0019999999931315
3,13,0.0514882584271179,0.00200000000768341
3,14,0.0489970698892533,0.0019999999931315
3,15,0.0616504746031631,0.00999999999476131
3,16,0.0635495990896466,0.00200000000768341
3,17,0.0292137508732138,0.0019999999931315
3,18,0.0487108724275697,0.00200000000768341
3,19,0.0544750326608437,0.0019999999931315
3,20,0.189770593531951,0.00200000000768341
3,21,0.0661726037604972,0.0019999999931315
3,22,0.0614658733355772,0.00200000000768341
3,23,0.0494922241077849,0.0019999999931315
3,24,0.0787502919660162,0.0019999999931315
3,25,0.0539798855047836,0.00200000000768341
3,26,0.13568733247511,0.0019999999931315
3,27,0.0587211347561633,0.00200000000768341
3,28,0.0551259018958185,0.0019999999931315
3,29,0.0624731780911884,0.00200000000768341
3,30,0.0526645006525469,0.0019999999931315
4,5,0.0872462498361514,0.00200000000768341
4,6,0.05613197308168,0.0019999999931315
4,7,0.0577808034078946,0.00200000000768341
4,8,0.0605636562782673,0.0029999999969732
4,9,0.0580326918939691,0.0019999999931315
4,10,0.05919403307488,0.00200000000768341
4,11,0.0571978593301001,0.0019999999931315
4,12,0.0501622420919119,0.00200000000768341
4,13,0.0527005157224323,0.0019999999931315
4,14,0.055294158139307,0.0019999999931315
4,15,0.0597149528849258,0.00200000000768341
4,16,0.0603387423013792,0.0019999999931315
4,17,0.068215355837751,0.00200000000768341
4,18,0.0536010845535831,0.0019999999931315
4,19,0.0623699809205578,0.0019999999931315
4,20,0.198240461219723,0.00200000000768341
4,21,0.0748961482752743,0.0019999999931315
4,22,0.0695923759355828,0.00200000000768341
4,23,0.0522238213561171,0.0019999999931315
4,24,0.0851236617486763,0.00200000000768341
4,25,0.0604946262965591,0.0019999999931315
4,26,0.145565965160966,0.00200000000768341
4,27,0.0578531586123927,0.0019999999931315
4,28,0.0533561008282744,0.0019999999931315
4,29,0.0676824536640173,0.00200000000768341
4,30,0.0512687287156906,0.0019999999931315
5,6,0.0925486724498898,0.00200000000768341
5,7,0.105080867378337,0.0019999999931315
5,8,0.0680073559235285,0.00200000000768341
5,9,0.0684911849556895,0.0019999999931315
5,10,0.107736476489593,0.0019999999931315
5,11,0.0779406018987075,0.00200000000768341
5,12,0.0853650801102458,0.0019999999931315
5,13,0.0740428568952892,0.00200000000768341
5,14,0.0735135659334554,0.0019999999931315
5,15,0.111121585082231,0.00200000000768341
5,16,0.112596387264084,0.00999999999476131
5,17,0.06755022428887,0.00200000000768341
5,18,0.0588886978294215,0.0019999999931315
5,19,0.0674708315603469,0.00200000000768341
5,20,0.134027386826054,0.0019999999931315
5,21,0.0628106440458779,0.0019999999931315
5,22,0.0613566668772306,0.00200000000768341
5,23,0.0886097076098797,0.0019999999931315
5,24,0.0581491828674675,0.00200000000768341
5,25,0.0614862579460344,0.0019999999931315
5,26,0.0898611628550425,0.00200000000768341
5,27,0.10042745589189,0.0019999999931315
5,28,0.0973283051325675,0.00200000000768341
5,29,0.0556806954063328,0.0019999999931315
5,30,0.0917098567459394,0.00200000000768341
6,7,0.0564186360134897,0.0019999999931315
6,8,0.0659327287109555,0.0019999999931315
6,9,0.0641476289362061,0.00200000000768341
6,10,0.0608087144933811,0.0019999999931315
6,11,0.020693851512052,0.00200000000768341
6,12,0.0545088114954246,0.0019999999931315
6,13,0.0583540567182021,0.00200000000768341
6,14,0.0569777395119803,0.0019999999931315
6,15,0.05763486134911,0.00200000000768341
6,16,0.0575840909179739,0.0019999999931315
6,17,0.041969811229095,0.0019999999931315
6,18,0.0534272380655475,0.00200000000768341
6,19,0.0652940169496179,0.0019999999931315
6,20,0.202722497510847,0.00200000000768341
6,21,0.0781551954136153,0.0019999999931315
6,22,0.0734320752620223,0.00200000000768341
6,23,0.0524895993114827,0.0019999999931315
6,24,0.0914574927451291,0.00200000000768341
6,25,0.0633482344347602,0.0019999999931315
6,26,0.149834193059456,0.0019999999931315
6,27,0.0564284100397524,0.00200000000768341
6,28,0.0554170561382505,0.0019999999931315
6,29,0.0743309436202135,0.00200000000768341
6,30,0.0542683139611029,0.0019999999931315
7,8,0.0717898228944154,0.00200000000768341
7,9,0.0722266522977275,0.0019999999931315
7,10,0.0538408846974816,0.00200000000768341
7,11,0.0656095622730366,0.0019999999931315
7,12,0.0584194064189228,0.00200000000768341
7,13,0.0651305444932127,0.0019999999931315
7,14,0.0395242051838693,0.00200000000768341
7,15,0.013395569529467,0.0019999999931315
7,16,0.0510875274099568,0.00200000000768341
7,17,0.0799302474804259,0.0019999999931315
7,18,0.0618304524724936,0.00200000000768341
7,19,0.0567062908073185,0.00100000000384171
7,20,0.219331908478958,0.00099999998928979
7,21,0.072849645710943,0.00100000000384171
7,22,0.0668733105267655,0.0019999999931315
7,23,0.0214088491102554,0.00200000000768341
7,24,0.103390977897445,0.0089999999909196
7,25,0.07478038715903,0.00200000000768341
7,26,0.156883636615867,0.0019999999931315
7,27,0.051164364853617,0.00200000000768341
7,28,0.0504286421090655,0.0019999999931315
7,29,0.0844614126871027,0.00200000000768341
7,30,0.052784893087851,0.0019999999931315
8,9,0.0118924221988131,0.00200000000768341
8,10,0.0826740015379241,0.0019999999931315
8,11,0.056492654544281,0.00200000000768341
8,12,0.0343510714328793,0.0019999999931315
8,13,0.0182464183201528,0.0019999999931315
8,14,0.0512012711861323,0.00200000000768341
8,15,0.0765426757269295,0.0019999999931315
8,16,0.0809379630816608,0.00200000000768341
8,17,0.0567942332760149,0.0019999999931315
8,18,0.0562715816528821,0.00200000000768341
8,19,0.0508899844447149,0.0019999999931315
8,20,0.17124048075578,0.0019999999931315
8,21,0.0562068703463262,0.00200000000768341
8,22,0.0545062343083471,0.0019999999931315
8,23,0.0593134951295676,0.00200000000768341
8,24,0.0747656460745917,0.0019999999931315
8,25,0.0542701233675823,0.00200000000768341
8,26,0.117482810659618,0.0019999999931315
8,27,0.0755448490395221,0.00200000000768341
8,28,0.0737872168472563,0.0019999999931315
8,29,0.0243829567918365,0.00200000000768341
8,30,0.0701082597758953,0.0019999999931315
9,10,0.0770978800840937,0.00200000000768341
9,11,0.0554027739434677,0.0019999999931315
9,12,0.0316148396147357,0.00200000000768341
9,13,0.01387751427339,0.0019999999931315
9,14,0.0535137896975578,0.00200000000768341
9,15,0.076140778956659,0.0019999999931315
9,16,0.0794564471089914,0.00200000000768341
9,17,0.0561539310635533,0.0019999999931315
9,18,0.0533364533585789,0.0019999999931315
9,19,0.0526723253027293,0.00200000000768341
9,20,0.172541588994509,0.0019999999931315
9,21,0.0600253583065103,0.00200000000768341
9,22,0.0552602943506292,0.0019999999931315
9,23,0.0594638006811064,0.00200000000768341
9,24,0.0693509114064016,0.0019999999931315
9,25,0.0532557899430066,0.00200000000768341
9,26,0.120079132947742,0.0019999999931315
9,27,0.0738895882639306,0.0019999999931315
9,28,0.0689479860730237,0.00200000000768341
9,29,0.0225523407136184,0.0019999999931315
9,30,0.0640174612999026,0.00200000000768341
10,11,0.0688238783400227,0.0019999999931315
10,12,0.0602991542686417,0.00200000000768341
10,13,0.0683485100185269,0.0019999999931315
10,14,0.0679559832587327,0.00200000000768341
10,15,0.0528862228793835,0.0019999999931315
10,16,0.0530645390697486,0.00200000000768341
10,17,0.0838677481262254,0.0019999999931315
10,18,0.0620187775678573,0.00200000000768341
10,19,0.077651617084534,0.00999999999476131
10,20,0.224348934937962,0.0019999999931315
10,21,0.0918163838566538,0.00100000000384171
10,22,0.0863966532060228,0.00100000000384171
10,23,0.0576922648483032,0.00100000000384171
10,24,0.0895875718829505,0.00100000000384171
10,25,0.077919062837491,0.0019999999931315
10,26,0.171671594726666,0.00200000000768341
10,27,0.0550392931362867,0.0019999999931315
10,28,0.0128507424950007,0.00200000000768341
10,29,0.0883395704010824,0.0019999999931315
10,30,0.0182530902026392,0.0019999999931315
11,12,0.0547719712340523,0.00200000000768341
11,13,0.0519037494208855,0.0019999999931315
11,14,0.0543883272590882,0.00200000000768341
11,15,0.0688440178470777,0.0019999999931315
11,16,0.0688046230341856,0.00200000000768341
11,17,0.024635922466923,0.0019999999931315
11,18,0.0503402926481748,0.0019999999931315
11,19,0.0574029429482171,0.00200000000768341
11,20,0.185588109777505,0.0019999999931315
11,21,0.0667959767474962,0.00200000000768341
11,22,0.0640494076356734,0.0019999999931315
11,23,0.0564925195471963,0.00200000000768341
11,24,0.0785733774173664,0.0019999999931315
11,25,0.0557690554876965,0.00200000000768341
11,26,0.133235670254202,0.0019999999931315
11,27,0.0634384506251371,0.00200000000768341
11,28,0.0608393679217196,0.0019999999931315
11,29,0.0615813402939418,0.00200000000768341
11,30,0.058081612139938,0.0019999999931315
12,13,0.0215300667026505,0.00200000000768341
12,14,0.0549104424696787,0.0019999999931315
12,15,0.0603667371613632,0.00200000000768341
12,16,0.0573671364719909,0.00100000000384171
12,17,0.0660349970130902,0.0019999999931315
12,18,0.0522722925432451,0.00200000000768341
12,19,0.0645065230631613,0.0019999999931315
12,20,0.19744145622686,0.00200000000768341
12,21,0.0764711528904097,0.0019999999931315
12,22,0.0716316926997536,0.00200000000768341
12,23,0.0529671697468652,0.0019999999931315
12,24,0.0867233577862851,0.00200000000768341
12,25,0.0573713403988903,0.0019999999931315
12,26,0.146637617306949,0.00200000000768341
12,27,0.0532586616719818,0.0019999999931315
12,28,0.0535808561854137,0.0019999999931315
12,29,0.049306051652578,0.00200000000768341
12,30,0.0522890289379423,0.0019999999931315
13,14,0.0525745880017669,0.00200000000768341
13,15,0.0691096242939556,0.0019999999931315
13,16,0.0692079916706579,0.00200000000768341
13,17,0.0574037373498154,0.0019999999931315
13,18,0.0504981172001055,0.00200000000768341
13,19,0.0535252835720315,0.00200000000768341
13,20,0.182689512692804,0.0019999999931315
13,21,0.063620764659507,0.00200000000768341
13,22,0.0602151856539711,0.00900000000547152
13,23,0.0553122640513997,0.0019999999931315
13,24,0.0745560303128281,0.0019999999931315
13,25,0.052387735858669,0.00200000000768341
13,26,0.129492905495992,0.0019999999931315
13,27,0.0654560564582184,0.00200000000768341
13,28,0.0604592357886032,0.0019999999931315
13,29,0.0323927591680881,0.00200000000768341
13,30,0.0569387635499004,0.0019999999931315
14,15,0.0475830415577272,0.00200000000768341
14,16,0.0702566784961048,0.0019999999931315
14,17,0.058595406610185,0.0019999999931315
14,18,0.0515096519913407,0.00200000000768341
14,19,0.0304767663127068,0.0019999999931315
14,20,0.182647720755175,0.00200000000768341
14,21,0.0409214724051619,0.0019999999931315
14,22,0.0330022069801957,0.00200000000768341
14,23,0.0225864442524813,0.0019999999931315
14,24,0.075095190476675,0.00200000000768341
14,25,0.0535663830190216,0.0019999999931315
14,26,0.120976579860234,0.00200000000768341
14,27,0.0604609375971377,0.0019999999931315
14,28,0.0585785977741548,0.00200000000768341
14,29,0.0569043008510453,0.0019999999931315
14,30,0.0564326231137881,0.00200000000768341
15,16,0.0498165450140108,0.0019999999931315
15,17,0.0851175648182664,0.00200000000768341
15,18,0.0643535401604195,0.0019999999931315
15,19,0.0657585312942772,0.0019999999931315
15,20,0.225862267445633,0.00200000000768341
15,21,0.081598607968262,0.0019999999931315
15,22,0.0745858834515513,0.00200000000768341
15,23,0.0278438680531473,0.0019999999931315
15,24,0.109181613076691,0.00200000000768341
15,25,0.0809611520465242,0.0019999999931315
15,26,0.165287282372852,0.00200000000768341
15,27,0.0490265836978896,0.0019999999931315
15,28,0.0512368091465945,0.00200000000768341
15,29,0.0904019866661759,0.0019999999931315
15,30,0.0536144731757821,0.00200000000768341
16,17,0.0868562990490604,0.0019999999931315
16,18,0.0670282059453193,0.00200000000768341
16,19,0.078043147099519,0.0019999999931315
16,20,0.22351822131796,0.00200000000768341
16,21,0.0942996212386038,0.0019999999931315
16,22,0.0935351134649225,0.00200000000768341
16,23,0.0597834622238387,0.0019999999931315
16,24,0.11259816526564,0.0019999999931315
16,25,0.0665781441411774,0.00200000000768341
16,26,0.174252827776952,0.0019999999931315
16,27,0.052392035846111,0.00200000000768341
16,28,0.0524737641871578,0.0019999999931315
16,29,0.0942364292264793,0.00200000000768341
16,30,0.0553735526946065,0.0019999999931315
17,18,0.057868421384328,0.00200000000768341
17,19,0.0541353367652548,0.0019999999931315
17,20,0.165768244860173,0.00200000000768341
17,21,0.0581960691517842,0.0019999999931315
17,22,0.0567446503728806,0.00200000000768341
17,23,0.067405089904827,0.0019999999931315
17,24,0.0671375732312385,0.00999999999476131
17,25,0.054782903452343,0.00200000000768341
17,26,0.114345469111145,0.0019999999931315
17,27,0.0823384650401365,0.00200000000768341
17,28,0.0752457995515611,0.0019999999931315
17,29,0.0544917398008494,0.00200000000768341
17,30,0.0706770728804117,0.0019999999931315
18,19,0.0556464801954206,0.00200000000768341
18,20,0.186522806101071,0.0019999999931315
18,21,0.0662463366072662,0.00200000000768341
18,22,0.0606813811739245,0.0019999999931315
18,23,0.0522597299520974,0.00200000000768341
18,24,0.0739759238253309,0.0029999999969732
18,25,0.0552226143479567,0.0019999999931315
18,26,0.13461028573308,0.00200000000768341
18,27,0.0619636055960389,0.0019999999931315
18,28,0.0548692005816133,0.00200000000768341
18,29,0.0602730795877457,0.0019999999931315
18,30,0.0508134509723365,0.00200000000768341
19,20,0.167866515499772,0.0019999999931315
19,21,0.0219799125335448,0.00200000000768341
19,22,0.0236928937757221,0.0019999999931315
19,23,0.0429714671556366,0.00200000000768341
19,24,0.0657158241973331,0.0019999999931315
19,25,0.0470762621954498,0.00200000000768341
19,26,0.103930774816762,0.0019999999931315
19,27,0.0797747102643838,0.0019999999931315
19,28,0.0691174772053083,0.00200000000768341
19,29,0.0517869727735568,0.0019999999931315
19,30,0.0648262384404523,0.00200000000768341
20,21,0.155236995597072,0.0019999999931315
20,22,0.15763714456672,0.00200000000768341
20,23,0.200972994063406,0.0019999999931315
20,24,0.143678499138424,0.00200000000768341
20,25,0.159185958825033,0.0019999999931315
20,26,0.085018165897782,0.00200000000768341
20,27,0.21673196643808,0.0019999999931315
20,28,0.21447875637782,0.00100000000384171
20,29,0.154306054033994,0.00099999998928979
20,30,0.206921629951204,0.00100000000384171
21,22,0.0269722425194279,0.00099999998928979
21,23,0.0588745143490305,0.00200000000768341
21,24,0.0642270139894073,0.0019999999931315
21,25,0.0562585809989343,0.00200000000768341
21,26,0.0920607213142038,0.0019999999931315
21,27,0.0940734919432878,0.00100000000384171
21,28,0.0821929022797454,0.00100000000384171
21,29,0.0539864664533004,0.00200000000768341
21,30,0.0784268802994754,0.00100000000384171
22,23,0.048225861282325,0.00100000000384171
22,24,0.0577544083049924,0.00100000000384171
22,25,0.0553925915778755,0.00100000000384171
22,26,0.0924500609975764,0.00100000000384171
22,27,0.0843831778205276,0.00099999998928979
22,28,0.0773948485907632,0.00200000000768341
22,29,0.0491287125262575,0.0019999999931315
22,30,0.0714467159429037,0.00200000000768341
23,24,0.087352435744023,0.0019999999931315
23,25,0.0632809191424137,0.00200000000768341
23,26,0.138492137646285,0.00999999999476131
23,27,0.0492739969044074,0.00200000000768341
23,28,0.0511592953809038,0.0019999999931315
23,29,0.068855267377782,0.00200000000768341
23,30,0.0497895949868071,0.0019999999931315
24,25,0.0641443928112974,0.00200000000768341
24,26,0.0978437220203811,0.0019999999931315
24,27,0.102834527647155,0.00200000000768341
24,28,0.0811603770843891,0.0019999999931315
24,29,0.0556724478015886,0.0019999999931315
24,30,0.0729340774477923,0.00200000000768341
25,26,0.113962532263424,0.0019999999931315
25,27,0.0728036107111965,0.00100000000384171
25,28,0.0690352398313597,0.00100000000384171
25,29,0.0513404842457272,0.00100000000384171
25,30,0.0638565744563719,0.00100000000384171
26,27,0.164713129545699,0.0019999999931315
26,28,0.161683486107242,0.0019999999931315
26,29,0.101444423591156,0.00200000000768341
26,30,0.154812094785562,0.0019999999931315
27,28,0.0493427275320818,0.00200000000768341
27,29,0.0854280573815169,0.0019999999931315
27,30,0.0509392513373017,0.00200000000768341
28,29,0.0788400709735875,0.0019999999931315
28,30,0.0115726020757197,0.00200000000768341
29,30,0.073079085350573,0.0019999999931315


"After.Trace.ID","Before.Trace.ID","Difference","Runtime"
1,1,0.85458077009961,0.0029999999969732
1,2,0.553639838784447,0.00200000000768341
1,3,0.868330576286089,0.0019999999931315
1,4,0.874548876032468,0.00200000000768341
1,5,0.819108100964438,0.0019999999931315
1,6,0.878928895507602,0.00200000000768341
1,7,0.896995936649862,0.0019999999931315
1,8,0.851235386453483,0.00200000000768341
1,9,0.849316378682722,0.0019999999931315
1,10,0.900410639196824,0.00200000000768341
1,11,0.863909718428917,0.0019999999931315
1,12,0.8764031779693,0.0019999999931315
1,13,0.860510154295048,0.00200000000768341
1,14,0.865350650914355,0.0019999999931315
1,15,0.901456233660995,0.00200000000768341
1,16,0.904739861025669,0.0019999999931315
1,17,0.845524198087192,0.00200000000768341
1,18,0.863648996463315,0.0019999999931315
1,19,0.849597183847006,0.00200000000768341
1,20,0.708965718219206,0.0019999999931315
1,21,0.842491518690932,0.00200000000768341
1,22,0.835549880428884,0.0019999999931315
1,23,0.877163729900082,0.00100000000384171
1,24,0.819594197754458,0.00099999998928979
1,25,0.845739289322516,0.00200000000768341
1,26,0.756584420797914,0.0019999999931315
1,27,0.891741599077003,0.00200000000768341
1,28,0.893683418773564,0.0019999999931315
1,29,0.833669882974846,0.00200000000768341
1,30,0.883300185747502,0.0019999999931315
2,1,0.0451164111251711,0.00200000000768341
2,2,0.331052053648468,0.0019999999931315
2,3,0.0625926472642592,0.00200000000768341
2,4,0.0668609875785627,0.0019999999931315
2,5,0.0579023425018492,0.00200000000768341
2,6,0.0733772479458738,0.00200000000768341
2,7,0.0833594093724123,0.0019999999931315
2,8,0.0200139686224402,0.00200000000768341
2,9,0.0191896772429785,0.0019999999931315
2,10,0.0883185576427603,0.00200000000768341
2,11,0.0613364618933951,0.0019999999931315
2,12,0.0448783272016142,0.00200000000768341
2,13,0.0296739900179433,0.0019999999931315
2,14,0.057341463242754,0.00200000000768341
2,15,0.0881690289313362,0.0019999999931315
2,16,0.0916273538427998,0.00200000000768341
2,17,0.0560765483461086,0.0019999999931315
2,18,0.0597176172988298,0.0019999999931315
2,19,0.0551797908205867,0.00200000000768341
2,20,0.156604543420136,0.00099999998928979
2,21,0.0573930559029082,0.00200000000768341
2,22,0.0527759136480934,0.0019999999931315
2,23,0.0681941561994706,0.00200000000768341
2,24,0.0624640605766388,0.0019999999931315
2,25,0.0528934245699047,0.00900000000547152
2,26,0.107188264621782,0.0019999999931315
2,27,0.0816831340321664,0.00200000000768341
2,28,0.0789297925256931,0.0019999999931315
2,29,0.0134495719620537,0.00200000000768341
2,30,0.073480673271136,0.00100000000384171
3,1,0.0393145800857142,0.0019999999931315
3,2,0.314635133888239,0.00200000000768341
3,3,0.0530636129797106,0.0019999999931315
3,4,0.0821578163023335,0.00200000000768341
3,5,0.0584495013638169,0.0019999999931315
3,6,0.066355401032383,0.00200000000768341
3,7,0.0988378028094045,0.0019999999931315
3,8,0.0609296845259593,0.00200000000768341
3,9,0.0600188440878325,0.00200000000768341
3,10,0.10289287920296,0.0019999999931315
3,11,0.0487956660689792,0.00200000000768341
3,12,0.0778661468473052,0.0019999999931315
3,13,0.0656092120276193,0.00200000000768341
3,14,0.0710248728455043,0.0019999999931315
3,15,0.10434266466526,0.00200000000768341
3,16,0.107466541166226,0.0019999999931315
3,17,0.0288900694968827,0.0019999999931315
3,18,0.0703364156381618,0.00200000000768341
3,19,0.063834127034073,0.0019999999931315
3,20,0.143785228099895,0.00200000000768341
3,21,0.0640316679125764,0.0019999999931315
3,22,0.058360339838605,0.00200000000768341
3,23,0.0824993541770417,0.0019999999931315
3,24,0.0612772987194779,0.00200000000768341
3,25,0.0615081355739213,0.0019999999931315
3,26,0.0948799685122526,0.0019999999931315
3,27,0.0956733522556378,0.00200000000768341
3,28,0.0936528559913515,0.0019999999931315
3,29,0.0502959217815321,0.00200000000768341
3,30,0.0872657345039876,0.0019999999931315
4,1,0.08656005904083,0.00200000000768341
4,2,0.292780702921328,0.0019999999931315
4,3,0.0962782303682846,0.00200000000768341
4,4,0.105335169636382,0.0019999999931315
4,5,0.0657736130300884,0.00200000000768341
4,6,0.109054339440832,0.0019999999931315
4,7,0.109536773477878,0.00100000000384171
4,8,0.0801923567615034,0.00200000000768341
4,9,0.0831479651544243,0.0019999999931315
4,10,0.130375680958896,0.00200000000768341
4,11,0.0960987105329773,0.0019999999931315
4,12,0.105986001670667,0.00200000000768341
4,13,0.0925431910023209,0.0019999999931315
4,14,0.0725915038947857,0.00200000000768341
4,15,0.11697954075387,0.0019999999931315
4,16,0.132452822833931,0.00200000000768341
4,17,0.0809890822697824,0.0019999999931315
4,18,0.0952131437754204,0.00200000000768341
4,19,0.0629457770407775,0.0019999999931315
4,20,0.120929549641436,0.00900000000547152
4,21,0.0529345818295668,0.00200000000768341
4,22,0.0465385402920215,0.0019999999931315
4,23,0.0905572750684364,0.00200000000768341
4,24,0.0741200031460792,0.0019999999931315
4,25,0.0794501056987201,0.00200000000768341
4,26,0.0548216496474955,0.0019999999931315
4,27,0.121669318392649,0.00200000000768341
4,28,0.120588108504881,0.0019999999931315
4,29,0.0684630340542925,0.00200000000768341
4,30,0.114176280901783,0.0019999999931315
5,1,0.0585789156006694,0.00200000000768341
5,2,0.298000430739186,0.0019999999931315
5,3,0.0695463312069806,0.00200000000768341
5,4,0.0937615371560261,0.0019999999931315
5,5,0.055280417105923,0.00200000000768341
5,6,0.082681918510504,0.0019999999931315
5,7,0.111577265182822,0.0019999999931315
5,8,0.0756173280518829,0.00200000000768341
5,9,0.0751309810518254,0.0019999999931315
5,10,0.113052625938171,0.00200000000768341
5,11,0.0652343477325812,0.0019999999931315
5,12,0.0947460383158737,0.00200000000768341
5,13,0.0818197864706262,0.0019999999931315
5,14,0.0795605596336071,0.0019999999931315
5,15,0.117652536638057,0.00200000000768341
5,16,0.118048085413558,0.0019999999931315
5,17,0.0436689569300288,0.00200000000768341
5,18,0.0807093657351436,0.0019999999931315
5,19,0.0679472841042025,0.00200000000768341
5,20,0.124424567926517,0.0019999999931315
5,21,0.0617988459969559,0.00200000000768341
5,22,0.0620654852282286,0.0019999999931315
5,23,0.0950403909275613,0.0019999999931315
5,24,0.0542540539107338,0.00200000000768341
5,25,0.0633367947669342,0.0019999999931315
5,26,0.0820300810116922,0.00200000000768341
5,27,0.111776345671971,0.0019999999931315
5,28,0.103449317135101,0.00200000000768341
5,29,0.0615808406989851,0.0019999999931315
5,30,0.0967900623965864,0.00200000000768341
6,1,0.042064711386311,0.0019999999931315
6,2,0.356701021467481,0.00200000000768341
6,3,0.0524517619895717,0.0019999999931315
6,4,0.0535982474725799,0.00200000000768341
6,5,0.0722115847832061,0.0029999999969732
6,6,0.0595007267102609,0.0019999999931315
6,7,0.0668321915647183,0.00200000000768341
6,8,0.0214503279095275,0.0019999999931315
6,9,0.0171644006478773,0.00200000000768341
6,10,0.0683556393348358,0.0019999999931315
6,11,0.053421341841574,0.00200000000768341
6,12,0.0201089842641825,0.0019999999931315
6,13,0.0138892806366408,0.00200000000768341
6,14,0.0516820334557004,0.00999999999476131
6,15,0.0702648188013732,0.0019999999931315
6,16,0.0731565572875429,0.00200000000768341
6,17,0.0587757081398719,0.0019999999931315
6,18,0.051207006251473,0.00200000000768341
6,19,0.0585164808153658,0.0019999999931315
6,20,0.182174914698921,0.00200000000768341
6,21,0.0670837247380588,0.0019999999931315
6,22,0.0610702908594498,0.00200000000768341
6,23,0.0556283407480772,0.0019999999931315
6,24,0.0727331396321496,0.00200000000768341
6,25,0.0546934451316233,0.0019999999931315
6,26,0.13060955712442,0.00200000000768341
6,27,0.0619822176304421,0.0019999999931315
6,28,0.0597116331842904,0.00200000000768341
6,29,0.0314542451995787,0.0019999999931315
6,30,0.0562726282114057,0.00200000000768341
7,1,0.0967341084613129,0.0019999999931315
7,2,0.265929786971479,0.00200000000768341
7,3,0.115807152205288,0.0019999999931315
7,4,0.122651228834022,0.0019999999931315
7,5,0.0721029990704951,0.00200000000768341
7,6,0.129224935073818,0.0019999999931315
7,7,0.145185429238521,0.00200000000768341
7,8,0.083927561164022,0.0019999999931315
7,9,0.0836872102390175,0.00200000000768341
7,10,0.146864716105784,0.0019999999931315
7,11,0.111960874294871,0.0019999999931315
7,12,0.111895294188748,0.00200000000768341
7,13,0.0943264110256503,0.0019999999931315
7,14,0.111862992732906,0.00200000000768341
7,15,0.151740989680439,0.0019999999931315
7,16,0.153435742842621,0.00200000000768341
7,17,0.0949081310147466,0.0019999999931315
7,18,0.112451443385431,0.00300000001152512
7,19,0.0984544803925757,0.0019999999931315
7,20,0.103353095762017,0.0019999999931315
7,21,0.0907462993309132,0.00200000000768341
7,22,0.0892813485723089,0.0019999999931315
7,23,0.127334560765484,0.00200000000768341
7,24,0.0749030459342848,0.0019999999931315
7,25,0.0952461404498682,0.00200000000768341
7,26,0.0666211184889991,0.0019999999931315
7,27,0.143199218947262,0.00200000000768341
7,28,0.137331684476382,0.0019999999931315
7,29,0.0644324721260805,0.00200000000768341
7,30,0.130142541134452,0.0019999999931315
8,1,0.0452267040134754,0.00200000000768341
8,2,0.329202819607775,0.0019999999931315
8,3,0.0618954123400852,0.00200000000768341
8,4,0.0664721562250287,0.0019999999931315
8,5,0.0578021002637048,0.00200000000768341
8,6,0.0731712140519706,0.00200000000768341
8,7,0.0832162233036516,0.0019999999931315
8,8,0.0209563725742581,0.00900000000547152
8,9,0.0184009140484112,0.0019999999931315
8,10,0.0867160032866979,0.00200000000768341
8,11,0.060675767328384,0.0019999999931315
8,12,0.0467331863631574,0.00200000000768341
8,13,0.0289429094865847,0.00200000000768341
8,14,0.057145273454263,0.0019999999931315
8,15,0.0886967331068384,0.00200000000768341
8,16,0.0922117358077694,0.0019999999931315
8,17,0.0545891257961022,0.00200000000768341
8,18,0.0592008000963795,0.0019999999931315
8,19,0.0518553292769103,0.00200000000768341
8,20,0.156775633807405,0.0019999999931315
8,21,0.0545024413087536,0.00200000000768341
8,22,0.0504049711860214,0.0019999999931315
8,23,0.0681226016921703,0.00200000000768341
8,24,0.0577444206500142,0.0019999999931315
8,25,0.0520877313031394,0.00200000000768341
8,26,0.104571956053781,0.0019999999931315
8,27,0.0844107052654062,0.00200000000768341
8,28,0.077476761817972,0.0019999999931315
8,29,0.00566010995949797,0.00200000000768341
8,30,0.071765080576371,0.0019999999931315
9,1,0.109150774182727,0.0019999999931315
9,2,0.267723265805298,0.00200000000768341
9,3,0.118377096003806,0.0019999999931315
9,4,0.127604082447713,0.00200000000768341
9,5,0.0734960698430388,0.0019999999931315
9,6,0.131689570604546,0.00200000000768341
9,7,0.147403927129957,0.0019999999931315
9,8,0.103790237140896,0.0019999999931315
9,9,0.105271582854632,0.00200000000768341
9,10,0.153022617551402,0.00100000000384171
9,11,0.116064473642981,0.00200000000768341
9,12,0.125798446825364,0.0019999999931315
9,13,0.112388588785186,0.00200000000768341
9,14,0.11341843407638,0.0019999999931315
9,15,0.155448100678552,0.00200000000768341
9,16,0.148259134723469,0.0019999999931315
9,17,0.0993153033398378,0.00200000000768341
9,18,0.118195555300842,0.0019999999931315
9,19,0.0983575453026274,0.00200000000768341
9,20,0.0857436061678892,0.0019999999931315
9,21,0.0911104290464104,0.00200000000768341
9,22,0.0935539827177189,0.0019999999931315
9,23,0.130926807192753,0.00200000000768341
9,24,0.0844039754623028,0.0019999999931315
9,25,0.0823341252650553,0.00200000000768341
9,26,0.0603310694971887,0.0019999999931315
9,27,0.14524042859314,0.0019999999931315
9,28,0.142949208253512,0.00100000000384171
9,29,0.0869372096452815,0.00100000000384171
9,30,0.136470831027438,0.00100000000384171
10,1,0.0444975051719565,0.0019999999931315
10,2,0.33143271875885,0.00200000000768341
10,3,0.0627574305670961,0.0019999999931315
10,4,0.0669117929646726,0.00200000000768341
10,5,0.0587614322929941,0.0089999999909196
10,6,0.0732705779256572,0.00200000000768341
10,7,0.0840246409679763,0.0019999999931315
10,8,0.0184559371332289,0.00200000000768341
10,9,0.0188472907396246,0.0019999999931315
10,10,0.0875754880970598,0.0019999999931315
10,11,0.0606516945772116,0.00200000000768341
10,12,0.0454402895413109,0.0019999999931315
10,13,0.0287483569270387,0.00200000000768341
10,14,0.0583767085398936,0.0019999999931315
10,15,0.0889830917196991,0.00200000000768341
10,16,0.0906596344566247,0.0019999999931315
10,17,0.0553426522131589,0.00200000000768341
10,18,0.0597456097346498,0.0019999999931315
10,19,0.0541408783009111,0.00100000000384171
10,20,0.157308924008229,0.00200000000768341
10,21,0.0548991526772339,0.0019999999931315
10,22,0.0545158257357497,0.00200000000768341
10,23,0.0699429570596392,0.0019999999931315
10,24,0.0623470948926033,0.00200000000768341
10,25,0.0526532800231592,0.0019999999931315
10,26,0.108222177700096,0.00200000000768341
10,27,0.0847636985749009,0.0019999999931315
10,28,0.0781234614531612,0.00200000000768341
10,29,0.0146158519835317,0.0019999999931315
10,30,0.0732038705571049,0.00200000000768341
11,1,0.102644067698699,0.0019999999931315
11,2,0.256816327507345,0.00200000000768341
11,3,0.121260686918196,0.0019999999931315
11,4,0.128686893772106,0.00200000000768341
11,5,0.074086281586569,0.0019999999931315
11,6,0.134905777491979,0.0019999999931315
11,7,0.150429934517891,0.00200000000768341
11,8,0.0917797186425258,0.0019999999931315
11,9,0.0925718107986245,0.00200000000768341
11,10,0.15197884851757,0.0019999999931315
11,11,0.116812719330525,0.00300000001152512
11,12,0.120748932844176,0.0019999999931315
11,13,0.102695629469536,0.00200000000768341
11,14,0.116208673498266,0.0019999999931315
11,15,0.157330134208001,0.0019999999931315
11,16,0.157411667322805,0.00200000000768341
11,17,0.0982325671990963,0.0019999999931315
11,18,0.117623921348763,0.00200000000768341
11,19,0.0996509869974514,0.0019999999931315
11,20,0.0917324329386806,0.00200000000768341
11,21,0.0882081188761988,0.0019999999931315
11,22,0.0925734701651081,0.00200000000768341
11,23,0.133319840284703,0.0019999999931315
11,24,0.0772915507345967,0.00200000000768341
11,25,0.0980664627408602,0.0019999999931315
11,26,0.0611682011043915,0.00200000000768341
11,27,0.151588273693563,0.0019999999931315
11,28,0.142257530665551,0.00200000000768341
11,29,0.0739675502911096,0.00999999999476131
11,30,0.135467128821203,0.0019999999931315
12,1,0.160398445142657,0.00200000000768341
12,2,0.206892760373895,0.0019999999931315
12,3,0.172992535742906,0.00200000000768341
12,4,0.182480676622179,0.0019999999931315
12,5,0.123928967906077,0.00200000000768341
12,6,0.187203940577382,0.0019999999931315
12,7,0.194217974593184,0.00200000000768341
12,8,0.154909145429453,0.00200000000768341
12,9,0.156737603103634,0.0019999999931315
12,10,0.207088045207835,0.00200000000768341
12,11,0.170369470772513,0.0019999999931315
12,12,0.184240083020121,0.00200000000768341
12,13,0.16666405425451,0.0019999999931315
12,14,0.159171792634167,0.00200000000768341
12,15,0.202193017950651,0.0019999999931315
12,16,0.212111990996241,0.00200000000768341
12,17,0.150112553574237,0.0019999999931315
12,18,0.170752400217997,0.00200000000768341
12,19,0.141320126583053,0.0019999999931315
12,20,0.0737876921408513,0.00200000000768341
12,21,0.12888431194805,0.0019999999931315
12,22,0.128911542265484,0.00200000000768341
12,23,0.175845179380616,0.0019999999931315
12,24,0.128664974003005,0.00200000000768341
12,25,0.152040646777018,0.0019999999931315
12,26,0.0444913510978129,0.0019999999931315
12,27,0.201852382222328,0.00200000000768341
12,28,0.197702200809522,0.0019999999931315
12,29,0.138418666611359,0.00200000000768341
12,30,0.190227955274731,0.0019999999931315
13,1,0.0647986692125798,0.00200000000768341
13,2,0.311801583088299,0.0019999999931315
13,3,0.0740885277660117,0.00200000000768341
13,4,0.0834481888804355,0.0019999999931315
13,5,0.0173208887720875,0.0029999999969732
13,6,0.0867312923239446,0.00200000000768341
13,7,0.0993275947651727,0.0019999999931315
13,8,0.063803566850417,0.00200000000768341
13,9,0.0641885229756676,0.0019999999931315
13,10,0.102743526592766,0.00200000000768341
13,11,0.0719905563560049,0.0019999999931315
13,12,0.0818500558822062,0.00200000000768341
13,13,0.0688554124698614,0.00200000000768341
13,14,0.0702312988726479,0.0019999999931315
13,15,0.105896082472086,0.00200000000768341
13,16,0.107990051912625,0.0019999999931315
13,17,0.0609332855034021,0.00200000000768341
13,18,0.0529887210462759,0.0019999999931315
13,19,0.0598690070944741,0.00200000000768341
13,20,0.140799409786925,0.0019999999931315
13,21,0.0563329495187905,0.00200000000768341
13,22,0.0569474612459561,0.00900000000547152
13,23,0.0840285509512826,0.00200000000768341
13,24,0.0580418437816741,0.0019999999931315
13,25,0.0605047991670603,0.00200000000768341
13,26,0.0914528539189476,0.0019999999931315
13,27,0.0996901425898406,0.0019999999931315
13,28,0.09297397212637,0.00200000000768341
13,29,0.0531674747130682,0.0019999999931315
13,30,0.0874653829366645,0.00200000000768341
14,1,0.0429473105980457,0.0019999999931315
14,2,0.361040299930155,0.00200000000768341
14,3,0.0523721668343576,0.0019999999931315
14,4,0.0528541606929965,0.0019999999931315
14,5,0.0761575409043758,0.00200000000768341
14,6,0.0584071103031217,0.0019999999931315
14,7,0.0642349544829309,0.00200000000768341
14,8,0.0211874311978996,0.0019999999931315
14,9,0.0180554780230551,0.00200000000768341
14,10,0.0671020433237627,0.0019999999931315
14,11,0.0535093866553871,0.00200000000768341
14,12,0.0161948358537731,0.0019999999931315
14,13,0.0109327822338028,0.0019999999931315
14,14,0.0520384457890432,0.00200000000768341
14,15,0.0675854030481772,0.0019999999931315
14,16,0.0698979210399274,0.00200000000768341
14,17,0.0602427993807119,0.0019999999931315
14,18,0.0516013246837098,0.00200000000768341
14,19,0.0585374560963729,0.0019999999931315
14,20,0.186499440086707,0.00200000000768341
14,21,0.0678094022387253,0.0019999999931315
14,22,0.0632001560545537,0.00200000000768341
14,23,0.0546913412452983,0.0019999999931315
14,24,0.0771434755247906,0.00200000000768341
14,25,0.0562590800616226,0.0019999999931315
14,26,0.134143376434624,0.00200000000768341
14,27,0.0620301730351091,0.0019999999931315
14,28,0.0589575997804415,0.00200000000768341
14,29,0.0352193535854106,0.0019999999931315
14,30,0.0562671982709502,0.0019999999931315
15,1,0.294453203927033,0.00200000000768341
15,2,0.1090430838754,0.0019999999931315
15,3,0.310652193322418,0.00200000000768341
15,4,0.318355557066071,0.0019999999931315
15,5,0.255783553547595,0.00200000000768341
15,6,0.322756069626246,0.0019999999931315
15,7,0.340633705745284,0.00200000000768341
15,8,0.290658382974913,0.0019999999931315
15,9,0.290865963953457,0.00200000000768341
15,10,0.34511534315581,0.0019999999931315
15,11,0.305411355328063,0.00200000000768341
15,12,0.318894176500652,0.0019999999931315
15,13,0.302499299468895,0.00200000000768341
15,14,0.303635404512555,0.0019999999931315
15,15,0.346448065640931,0.00200000000768341
15,16,0.350535787561066,0.0019999999931315
15,17,0.285933183948659,0.00900000000547152
15,18,0.306619120737593,0.0019999999931315
15,19,0.289836479237589,0.00100000000384171
15,20,0.145137228299829,0.00100000000384171
15,21,0.277763668294556,0.00200000000768341
15,22,0.276114046972118,0.0019999999931315
15,23,0.320506348167248,0.00200000000768341
15,24,0.259572440541473,0.0019999999931315
15,25,0.287035691307935,0.0019999999931315
15,26,0.193387982457402,0.00200000000768341
15,27,0.338145751884335,0.0019999999931315
15,28,0.33580129860653,0.00200000000768341
15,29,0.272487229781445,0.0019999999931315
15,30,0.327301607619911,0.00200000000768341
16,1,0.044289687904883,0.0019999999931315
16,2,0.335690234925974,0.00200000000768341
16,3,0.0601165809305525,0.0019999999931315
16,4,0.0642413073268453,0.00200000000768341
16,5,0.0620819171261998,0.0019999999931315
16,6,0.0710333679846079,0.00200000000768341
16,7,0.0773915690893861,0.0019999999931315
16,8,0.017252631956452,0.00200000000768341
16,9,0.0160038809073174,0.0019999999931315
16,10,0.0826210011771867,0.00100000000384171
16,11,0.0598699261712687,0.00200000000768341
16,12,0.0424835993724157,0.0019999999931315
16,13,0.0250871143649177,0.00200000000768341
16,14,0.0531611631424963,0.0019999999931315
16,15,0.0830080454210083,0.00200000000768341
16,16,0.0892427767728764,0.0019999999931315
16,17,0.0553154099538493,0.00200000000768341
16,18,0.0577658871271971,0.0019999999931315
16,19,0.049631111427739,0.00200000000768341
16,20,0.163833539248665,0.0019999999931315
16,21,0.0528257325195862,0.0019999999931315
16,22,0.0494032491224639,0.00200000000768341
16,23,0.0633597643388857,0.0019999999931315
16,24,0.061676489289866,0.00200000000768341
16,25,0.0552345786537546,0.0019999999931315
16,26,0.109821459815683,0.00200000000768341
16,27,0.0816429783215993,0.0019999999931315
16,28,0.0735812284495512,0.00200000000768341
16,29,0.0136823966535115,0.0019999999931315
16,30,0.0686707234482447,0.00200000000768341
17,1,0.0669586642505052,0.0019999999931315
17,2,0.38631665695177,0.00200000000768341
17,3,0.0531290458174343,0.0019999999931315
17,4,0.0525670935743689,0.0029999999969732
17,5,0.0952420977423864,0.00200000000768341
17,6,0.0512544555736665,0.0019999999931315
17,7,0.0513564776411065,0.00200000000768341
17,8,0.0675461947861346,0.0019999999931315
17,9,0.0662318684202644,0.00200000000768341
17,10,0.0549862899416246,0.0019999999931315
17,11,0.0582302963746964,0.00200000000768341
17,12,0.0483768606963032,0.0019999999931315
17,13,0.057685148141477,0.00900000000547152
17,14,0.0578949697611041,0.0019999999931315
17,15,0.0531429104700241,0.00200000000768341
17,16,0.0211829707807728,0.0019999999931315
17,17,0.0730030953646307,0.00200000000768341
17,18,0.0565790949543826,0.0019999999931315
17,19,0.0644458500014487,0.0019999999931315
17,20,0.203784979196155,0.00200000000768341
17,21,0.0798410610527186,0.0019999999931315
17,22,0.0786830656086895,0.00200000000768341
17,23,0.0529586153222488,0.0019999999931315
17,24,0.0964301118556288,0.00200000000768341
17,25,0.0462455545169615,0.00099999998928979
17,26,0.15592833313468,0.00100000000384171
17,27,0.050518890919638,0.00099999998928979
17,28,0.0505100167802925,0.00200000000768341
17,29,0.0780516295625121,0.0019999999931315
17,30,0.0507204113573772,0.00200000000768341
18,1,0.101827498857534,0.0019999999931315
18,2,0.26936919742349,0.00200000000768341
18,3,0.114605710926598,0.0019999999931315
18,4,0.123619678453961,0.0029999999969732
18,5,0.0724842248455805,0.00200000000768341
18,6,0.128025326435798,0.0019999999931315
18,7,0.132553253387496,0.00200000000768341
18,8,0.0965536231305301,0.0019999999931315
18,9,0.0993718093641483,0.00200000000768341
18,10,0.145921339094636,0.0019999999931315
18,11,0.11250836048842,0.00200000000768341
18,12,0.124607158451954,0.0019999999931315
18,13,0.109242960743379,0.00200000000768341
18,14,0.0952806665618794,0.0019999999931315
18,15,0.139937628221115,0.00200000000768341
18,16,0.151090755421534,0.0019999999931315
18,17,0.0939563576964779,0.00200000000768341
18,18,0.11186437245178,0.0019999999931315
18,19,0.0810563697135717,0.0019999999931315
18,20,0.099852533171106,0.00200000000768341
18,21,0.0641854836068697,0.0019999999931315
18,22,0.0689013130033963,0.00200000000768341
18,23,0.114883765862407,0.0019999999931315
18,24,0.0770736072098969,0.00200000000768341
18,25,0.0949104318433213,0.0019999999931315
18,26,0.0460033778829224,0.00200000000768341
18,27,0.144411031051399,0.0019999999931315
18,28,0.135946692492854,0.00200000000768341
18,29,0.0828024753317174,0.0019999999931315
18,30,0.129708279196903,0.00200000000768341
19,1,0.04749044774251,0.0019999999931315
19,2,0.327690462142912,0.00200000000768341
19,3,0.0650108030561528,0.0019999999931315
19,4,0.0701149702367235,0.00200000000768341
19,5,0.0539716764763202,0.00200000000768341
19,6,0.076275737932459,0.0019999999931315
19,7,0.0893263829816377,0.00200000000768341
19,8,0.0283256314542782,0.0019999999931315
19,9,0.0288491222286154,0.00900000000547152
19,10,0.0909351566562452,0.0019999999931315
19,11,0.0629003909843622,0.00200000000768341
19,12,0.0506320178215249,0.00200000000768341
19,13,0.0371331779925845,0.0019999999931315
19,14,0.0606125443159537,0.00200000000768341
19,15,0.0946922618894562,0.0019999999931315
19,16,0.0956721873870071,0.00200000000768341
19,17,0.0565994592248923,0.0019999999931315
19,18,0.0627980494522511,0.00200000000768341
19,19,0.0593265264740884,0.0019999999931315
19,20,0.152439074012778,0.00200000000768341
19,21,0.0584901301782858,0.0019999999931315
19,22,0.0569723617292914,0.00200000000768341
19,23,0.0742524753973038,0.0019999999931315
19,24,0.0583859073003102,0.00200000000768341
19,25,0.0522238988223943,0.0019999999931315
19,26,0.10510628457957,0.00200000000768341
19,27,0.0858161458937293,0.0019999999931315
19,28,0.0805807302757251,0.0019999999931315
19,29,0.0157968834131877,0.00200000000768341
19,30,0.075822292434078,0.0019999999931315
20,1,0.0640970225847071,0.00200000000768341
20,2,0.333183612858059,0.0019999999931315
20,3,0.066175135365675,0.00200000000768341
20,4,0.0741351479245919,0.0019999999931315
20,5,0.0645176461680447,0.00200000000768341
20,6,0.0773099984620936,0.0019999999931315
20,7,0.0684599001420074,0.0019999999931315
20,8,0.0593706331811219,0.00200000000768341
20,9,0.061679971748537,0.0019999999931315
20,10,0.0935721886299713,0.00200000000768341
20,11,0.0700562024119549,0.0019999999931315
20,12,0.0741633361087518,0.00200000000768341
20,13,0.0668631171276513,0.0019999999931315
20,14,0.0329814229655021,0.00200000000768341
20,15,0.0758628662337883,0.0019999999931315
20,16,0.0956892020098427,0.00200000000768341
20,17,0.0632898553894037,0.0019999999931315
20,18,0.0665782618206855,0.00200000000768341
20,19,0.0364561575411522,0.0019999999931315
20,20,0.157077497257569,0.00200000000768341
20,21,0.0378988873103639,0.0019999999931315
20,22,0.0209241656556508,0.00200000000768341
20,23,0.0499591695167411,0.0019999999931315
20,24,0.0687702729644943,0.0019999999931315
20,25,0.0576773086579407,0.00200000000768341
20,26,0.0955191932771148,0.0019999999931315
20,27,0.0839238626768007,0.00200000000768341
20,28,0.0843655074392864,0.0019999999931315
20,29,0.0556730415301104,0.00200000000768341
20,30,0.0792344003672149,0.0019999999931315
21,1,0.0966015573853212,0.00200000000768341
21,2,0.270343119926052,0.0019999999931315
21,3,0.107673040138319,0.0100000000093132
21,4,0.116483274095797,0.0019999999931315
21,5,0.0704818095274198,0.00200000000768341
21,6,0.121326906419095,0.0019999999931315
21,7,0.126109990510801,0.00200000000768341
21,8,0.0916615535566334,0.0019999999931315
21,9,0.0924052140383305,0.0019999999931315
21,10,0.137018606879122,0.00100000000384171
21,11,0.105869902283403,0.0019999999931315
21,12,0.118985686691501,0.00200000000768341
21,13,0.10173861405948,0.0019999999931315
21,14,0.091771819239589,0.00200000000768341
21,15,0.133602696464309,0.0019999999931315
21,16,0.144424192131508,0.00200000000768341
21,17,0.0876036797731949,0.0019999999931315
21,18,0.104556898279818,0.0019999999931315
21,19,0.0721840023333471,0.00200000000768341
21,20,0.107731629303979,0.0019999999931315
21,21,0.0601853599644984,0.00200000000768341
21,22,0.0605761626510524,0.0019999999931315
21,23,0.108249584881048,0.00200000000768341
21,24,0.0665783932396613,0.0019999999931315
21,25,0.0889828380169102,0.00200000000768341
21,26,0.0435920709918237,0.0019999999931315
21,27,0.138486872699744,0.00200000000768341
21,28,0.128068234124864,0.0019999999931315
21,29,0.0763604346543052,0.00200000000768341
21,30,0.120658581125271,0.0019999999931315
22,1,0.0578121947025191,0.00200000000768341
22,2,0.31913360107758,0.0019999999931315
22,3,0.0760750472593684,0.00200000000768341
22,4,0.0810950418151271,0.0019999999931315
22,5,0.0603323626724144,0.0019999999931315
22,6,0.0879941846941694,0.00200000000768341
22,7,0.101922062498717,0.0019999999931315
22,8,0.0362575138919452,0.00200000000768341
22,9,0.0359818645513468,0.0019999999931315
22,10,0.102124113924902,0.00100000000384171
22,11,0.073552689896277,0.0019999999931315
22,12,0.059942492518846,0.00200000000768341
22,13,0.0432335001558155,0.0019999999931315
22,14,0.0760646090608758,0.0019999999931315
22,15,0.107871914235164,0.00200000000768341
22,16,0.106778728233253,0.0019999999931315
22,17,0.0652069644231937,0.00200000000768341
22,18,0.0741002489120463,0.0019999999931315
22,19,0.0688786023521231,0.00200000000768341
22,20,0.149301057134683,0.0019999999931315
22,21,0.0685478032510864,0.00200000000768341
22,22,0.0675113152179,0.0019999999931315
22,23,0.0876328316686581,0.00200000000768341
22,24,0.0645613570708246,0.0019999999931315
22,25,0.0630748460727301,0.00200000000768341
22,26,0.102450683771483,0.0019999999931315
22,27,0.0975789751022603,0.0089999999909196
22,28,0.0926671201139707,0.00200000000768341
22,29,0.0223962299729534,0.0019999999931315
22,30,0.0875672357487536,0.00200000000768341
23,1,0.0680011734797064,0.0019999999931315
23,2,0.346447697828728,0.00200000000768341
23,3,0.0645962217487831,0.0019999999931315
23,4,0.0717646532074317,0.00200000000768341
23,5,0.0691670716135242,0.0019999999931315
23,6,0.0733598604425126,0.00200000000768341
23,7,0.0823108862259041,0.0019999999931315
23,8,0.0641842332923707,0.00200000000768341
23,9,0.0668004914742321,0.0019999999931315
23,10,0.0911274585834848,0.00200000000768341
23,11,0.0663617448593411,0.0019999999931315
23,12,0.0666721868826896,0.00200000000768341
23,13,0.0643363764249924,0.00100000000384171
23,14,0.062976625284227,0.00100000000384171
23,15,0.089408764673371,0.00100000000384171
23,16,0.0706041208940062,0.0019999999931315
23,17,0.0658161520075189,0.00200000000768341
23,18,0.0685688883429413,0.0019999999931315
23,19,0.0586253358395573,0.00100000000384171
23,20,0.160818528391989,0.00099999998928979
23,21,0.0643856888723138,0.00200000000768341
23,22,0.0688970433229241,0.0019999999931315
23,23,0.0738072588860085,0.00200000000768341
23,24,0.0821651086025532,0.0019999999931315
23,25,0.0249869446579277,0.00200000000768341
23,26,0.119109378842171,0.0019999999931315
23,27,0.0786740319732087,0.00200000000768341
23,28,0.0818317024253549,0.0019999999931315
23,29,0.0647269357586088,0.00200000000768341
23,30,0.0793872911712449,0.0019999999931315
24,1,0.165102997098848,0.00200000000768341
24,2,0.196937104457315,0.0019999999931315
24,3,0.179424676454867,0.0019999999931315
24,4,0.188242312460501,0.00200000000768341
24,5,0.128637163923625,0.0019999999931315
24,6,0.19320896933748,0.00300000001152512
24,7,0.201984092696127,0.0019999999931315
24,8,0.160547588114242,0.00200000000768341
24,9,0.161774286872498,0.0019999999931315
24,10,0.210822412598321,0.00200000000768341
24,11,0.175902886176974,0.0019999999931315
24,12,0.190313048028184,0.0019999999931315
24,13,0.172422293849474,0.00200000000768341
24,14,0.166250113281201,0.0019999999931315
24,15,0.20915879059847,0.00200000000768341
24,16,0.218726211964611,0.0019999999931315
24,17,0.155109250751893,0.00200000000768341
24,18,0.175664290563369,0.0019999999931315
24,19,0.148366336710146,0.00200000000768341
24,20,0.0688924536845142,0.0019999999931315
24,21,0.133896652236832,0.00200000000768341
24,22,0.135947291952466,0.00999999999476131
24,23,0.183593051351632,0.00200000000768341
24,24,0.12933195471996,0.0019999999931315
24,25,0.15893681823081,0.0019999999931315
24,26,0.0587145074351817,0.00200000000768341
24,27,0.210114144254414,0.0019999999931315
24,28,0.201632340310529,0.00200000000768341
24,29,0.14376330374269,0.0019999999931315
24,30,0.194010800460354,0.00200000000768341
25,1,0.0179682952214008,0.0019999999931315
25,2,0.349296971198382,0.00200000000768341
25,3,0.0168539460788887,0.0019999999931315
25,4,0.0581183639157285,0.00200000000768341
25,5,0.0695949700791452,0.0019999999931315
25,6,0.0308471404836759,0.00200000000768341
25,7,0.0654048638799695,0.00200000000768341
25,8,0.0516247775124771,0.0019999999931315
25,9,0.0505188350416257,0.00200000000768341
25,10,0.0716335145224072,0.0019999999931315
25,11,0.0161082895356105,0.00200000000768341
25,12,0.0555286168185517,0.0019999999931315
25,13,0.0498248111168662,0.00200000000768341
25,14,0.0468653839637551,0.0019999999931315
25,15,0.0700994968938524,0.00200000000768341
25,16,0.0762301491578666,0.0019999999931315
25,17,0.0167597135589795,0.00200000000768341
25,18,0.0491805791362282,0.0019999999931315
25,19,0.0489260812823656,0.00200000000768341
25,20,0.175915322233866,0.00200000000768341
25,21,0.0570203428484379,0.0019999999931315
25,22,0.0515752583719329,0.00200000000768341
25,23,0.0527227382895373,0.0019999999931315
25,24,0.0684662311640695,0.00200000000768341
25,25,0.0526094580998993,0.0019999999931315
25,26,0.121463076903788,0.00200000000768341
25,27,0.0673389536682954,0.0019999999931315
25,28,0.0628994197845772,0.00200000000768341
25,29,0.0528294288617511,0.0019999999931315
25,30,0.0587054639030703,0.0019999999931315
26,1,0.0969866653560368,0.00200000000768341
26,2,0.272191666478443,0.0019999999931315
26,3,0.107514010732603,0.00200000000768341
26,4,0.11694154643365,0.0019999999931315
26,5,0.0685873621794253,0.00200000000768341
26,6,0.121554037560687,0.0019999999931315
26,7,0.125965783795465,0.00200000000768341
26,8,0.091565233813726,0.0019999999931315
26,9,0.0929324417964077,0.0019999999931315
26,10,0.139924917969327,0.00200000000768341
26,11,0.10646943759631,0.0019999999931315
26,12,0.11840643549233,0.00200000000768341
26,13,0.102414313278061,0.0019999999931315
26,14,0.0897275320533039,0.00200000000768341
26,15,0.13392847025363,0.0169999999925494
26,16,0.146817526488188,0.00200000000768341
26,17,0.0889060152897507,0.0019999999931315
26,18,0.105877268931683,0.00200000000768341
26,19,0.0752608902752428,0.0019999999931315
26,20,0.107951688925061,0.00200000000768341
26,21,0.0651197841963378,0.0019999999931315
26,22,0.0599166471625632,0.00200000000768341
26,23,0.106845410475216,0.00200000000768341
26,24,0.0696714514508316,0.0019999999931315
26,25,0.089435974922327,0.00200000000768341
26,26,0.0357823723720927,0.0019999999931315
26,27,0.135279520632285,0.00200000000768341
26,28,0.130261324093877,0.0019999999931315
26,29,0.0748801282337967,0.00200000000768341
26,30,0.123089781111332,0.0019999999931315
27,1,0.122351101320999,0.00200000000768341
27,2,0.237585633701597,0.0019999999931315
27,3,0.141790730481812,0.00200000000768341
27,4,0.149268058840854,0.0019999999931315
27,5,0.0906182451709184,0.00200000000768341
27,6,0.155188788142294,0.0019999999931315
27,7,0.171200781458321,0.0019999999931315
27,8,0.112347676734301,0.00200000000768341
27,9,0.113239520308494,0.0019999999931315
27,10,0.17503414817683,0.00100000000384171
27,11,0.137172562122288,0.0019999999931315
27,12,0.141692830602657,0.00200000000768341
27,13,0.124522251884605,0.0019999999931315
27,14,0.135077853991227,0.0019999999931315
27,15,0.177704618384676,0.00200000000768341
27,16,0.181250114816833,0.0019999999931315
27,17,0.118535297709044,0.00200000000768341
27,18,0.138196204657548,0.0019999999931315
27,19,0.122002896106743,0.00200000000768341
27,20,0.0789983060987492,0.0019999999931315
27,21,0.110522663773162,0.00200000000768341
27,22,0.110612442095484,0.0019999999931315
27,23,0.152401388750926,0.00200000000768341
27,24,0.0966169465510602,0.00200000000768341
27,25,0.120446802123914,0.0019999999931315
27,26,0.0586708812856526,0.00200000000768341
27,27,0.169819250330999,0.0019999999931315
27,28,0.165012513926636,0.00200000000768341
27,29,0.0939780264984662,0.0019999999931315
27,30,0.157812237284096,0.00200000000768341
28,1,0.095599591875416,0.0019999999931315
28,2,0.276209850919916,0.00200000000768341
28,3,0.105070237143586,0.0019999999931315
28,4,0.114333297527633,0.00200000000768341
28,5,0.0691189547884922,0.0019999999931315
28,6,0.11882030040721,0.00200000000768341
28,7,0.122291763473035,0.0019999999931315
28,8,0.0895613811014977,0.0019999999931315
28,9,0.0909274069461501,0.00200000000768341
28,10,0.137853744110269,0.0019999999931315
28,11,0.104550012390159,0.00900000000547152
28,12,0.115894750654028,0.0019999999931315
28,13,0.100210633758603,0.00200000000768341
28,14,0.0871241290381576,0.0019999999931315
28,15,0.130275404938002,0.0019999999931315
28,16,0.141830773974954,0.00200000000768341
28,17,0.0870152317924115,0.0019999999931315
28,18,0.10351871818126,0.00200000000768341
28,19,0.0707650629731207,0.0019999999931315
28,20,0.108828845176367,0.00200000000768341
28,21,0.0618419270043119,0.0019999999931315
28,22,0.0568430296971389,0.00200000000768341
28,23,0.103708941008198,0.0019999999931315
28,24,0.0712242966018014,0.00200000000768341
28,25,0.0846331461932167,0.0019999999931315
28,26,0.039105806097831,0.00200000000768341
28,27,0.1334042941028,0.0019999999931315
28,28,0.128618587030347,0.00200000000768341
28,29,0.0741364063299883,0.0019999999931315
28,30,0.121269040836705,0.00200000000768341
29,1,0.337238589186477,0.0019999999931315
29,2,0.0483400103047511,0.00200000000768341
29,3,0.352346273465211,0.0019999999931315
29,4,0.359929381083007,0.0019999999931315
29,5,0.297456470370506,0.00100000000384171
29,6,0.36525074286859,0.00099999998928979
29,7,0.382431330314713,0.00100000000384171
29,8,0.334328495488484,0.00099999998928979
29,9,0.333179755918362,0.00200000000768341
29,10,0.381926884771754,0.00099999998928979
29,11,0.347605945091368,0.00100000000384171
29,12,0.361775602871698,0.00100000000384171
29,13,0.344215756787901,0.00100000000384171
29,14,0.347263507492259,0.00200000000768341
29,15,0.38846595118469,0.00100000000384171
29,16,0.391971347285447,0.00100000000384171
29,17,0.326896924824306,0.0019999999931315
29,18,0.347395494043188,0.00200000000768341
29,19,0.329835373050982,0.0019999999931315
29,20,0.185015359635183,0.00200000000768341
29,21,0.318340995714408,0.0019999999931315
29,22,0.316721621098384,0.00200000000768341
29,23,0.3628552592134,0.0019999999931315
29,24,0.294631292306088,0.00200000000768341
29,25,0.329174349391971,0.0019999999931315
29,26,0.235057135172609,0.00200000000768341
29,27,0.380804216798967,0.00099999998928979
29,28,0.373787571772949,0.00200000000768341
29,29,0.314905863182134,0.0019999999931315
29,30,0.364665997771527,0.00200000000768341
30,1,0.0551067673352602,0.0019999999931315
30,2,0.349349763978225,0.00100000000384171
30,3,0.0520971694896549,0.00200000000768341
30,4,0.0595173548721626,0.0019999999931315
30,5,0.0699372360471944,0.00200000000768341
30,6,0.0618285766425852,0.0019999999931315
30,7,0.0471148101729505,0.00200000000768341
30,8,0.0510028000477055,0.0019999999931315
30,9,0.0532254392648305,0.00200000000768341
30,10,0.0754136315231063,0.0089999999909196
30,11,0.0570004613202383,0.00300000001152512
30,12,0.0602329062885414,0.0019999999931315
30,13,0.054037092345694,0.0019999999931315
30,14,0.0136488758365208,0.00200000000768341
30,15,0.0558650317638679,0.0019999999931315
30,16,0.0766068508074531,0.00200000000768341
30,17,0.057137309672182,0.0019999999931315
30,18,0.0542876620787822,0.00200000000768341
30,19,0.0212879239053218,0.0019999999931315
30,20,0.174516041245461,0.00200000000768341
30,21,0.0336617177984087,0.0019999999931315
30,22,0.02234663539044,0.0019999999931315
30,23,0.0294938108630655,0.00200000000768341
30,24,0.0713677889263125,0.0019999999931315
30,25,0.0514421449112724,0.00200000000768341
30,26,0.110432826293595,0.0019999999931315
30,27,0.0689562460068069,0.00200000000768341
30,28,0.0664593052897418,0.0019999999931315
30,29,0.0537831572840791,0.00200000000768341
30,30,0.0627832075020267,0.0019999999931315
