"Before.Trace.ID1","Before.Trace.ID2","Difference","Runtime"
1,2,9299496.67919251,0.0120000000024447
1,3,11382579.0014667,0.0049999999901047
1,4,7566853.09357829,0.00500000000465661
1,5,11699587.269146,0.00600000000849832
1,6,21295101.3238518,0.0049999999901047
1,7,6590225.75205614,0.00500000000465661
1,8,4024927.26603193,0.00400000000081491
1,9,7708136.90352168,0.00500000000465661
1,10,2423152.4977139,0.00399999998626299
1,11,2357648.37454386,0.00600000000849832
1,12,23815666.2885414,0.00800000000162981
1,13,4695132.39046533,0.0059999999939464
1,14,3873012.80174446,0.00400000000081491
1,15,2178932.52099463,0.00500000000465661
1,16,3510948.95841826,0.00699999999778811
1,17,9502240.88565415,0.0049999999901047
1,18,86131.1576941352,0.00700000001234002
1,19,8803906.50709394,0.0049999999901047
1,20,1702836.49805537,0.00500000000465661
1,21,4844555.31378102,0.0059999999939464
1,22,5004084.85971109,0.00500000000465661
1,23,72997.5510742526,0.00400000000081491
1,24,2258126.89924785,0.0059999999939464
1,25,13804763.8577096,0.00699999999778811
1,26,4421871.48499099,0.00600000000849832
1,27,12234729.825541,0.0059999999939464
1,28,6553820.84405468,0.00500000000465661
1,29,2319882.32145149,0.00800000000162981
1,30,1846006.53188025,0.0059999999939464
2,3,12.3451796693815,0.0139999999955762
2,4,64104.4858806111,0.0290000000095461
2,5,1692.17488496294,0.010999999998603
2,6,1803.19698153751,0.0149999999994179
2,7,76098.5352691561,0.0139999999955762
2,8,2629.70633540324,0.0139999999955762
2,9,49562.5654531751,0.0339999999996508
2,10,4446.62452856616,0.0160000000032596
2,11,47272.6825215956,0.0240000000048894
2,12,43231.8466393386,0.00999999999476131
2,13,31910.6347536898,0.0559999999968568
2,14,20.6629384707974,0.010999999998603
2,15,24335.1976007296,0.0100000000093132
2,16,31634.1111036932,0.0089999999909196
2,17,5231.55821667521,0.0130000000062864
2,18,21802645.0921497,0.00699999999778811
2,19,60340.5450577846,0.021999999997206
2,20,4141.86667322055,0.0200000000040745
2,21,28315.8077433941,0.0559999999968568
2,22,9525.28088407569,0.0179999999963911
2,23,2002988.55948,0.00600000000849832
2,24,56420.8310181707,0.0190000000002328
2,25,1347.67112846286,0.0129999999917345
2,26,63354.4226146468,0.0289999999949941
2,27,5079.68188550135,0.0149999999994179
2,28,4256.10667030627,0.0130000000062864
2,29,5956.48556405227,0.0200000000040745
2,30,113914.329787129,0.0139999999955762
3,4,359.444276442385,0.0139999999955762
3,5,163.929531110501,0.00800000000162981
3,6,6066.59910747552,0.00900000000547152
3,7,67978.1286280537,0.00999999999476131
3,8,60918.3286728915,0.0169999999925494
3,9,83925.9900888991,0.0150000000139698
3,10,21861.0542838096,0.032999999995809
3,11,8947.59860852783,0.0120000000024447
3,12,38507.5011403657,0.00999999999476131
3,13,42800.4495546986,0.0190000000002328
3,14,457.443748672463,0.00999999999476131
3,15,32782.7199148662,0.0100000000093132
3,16,55086.0170967299,0.0159999999887077
3,17,4512.30573346739,0.0160000000032596
3,18,31363412.718297,0.00900000000547152
3,19,34846.1885971484,0.0160000000032596
3,20,2519.09330426082,0.00999999999476131
3,21,701.722219465179,0.0139999999955762
3,22,33418.1292250012,0.0310000000026776
3,23,7222233.35883139,0.00600000000849832
3,24,71538.221566685,0.0319999999919673
3,25,23778.5856190591,0.0390000000043074
3,26,374.790139875394,0.0089999999909196
3,27,8299.35167853005,0.0110000000131549
3,28,28360.7473384952,0.0200000000040745
3,29,1963.62163510028,0.0160000000032596
3,30,174884.445529023,0.0120000000024447
4,5,3244.48942485002,0.0089999999909196
4,6,6482.30453124099,0.0170000000071013
4,7,58830.8225074563,0.0139999999955762
4,8,23452.6694458337,0.0160000000032596
4,9,78707.7173353405,0.0270000000018626
4,10,277.291755465957,0.0179999999963911
4,11,31537.613452848,0.0270000000018626
4,12,27650.401308451,0.0169999999925494
4,13,5721.74009104815,0.0339999999996508
4,14,74.2597010045461,0.0120000000024447
4,15,52605.0921187622,0.00800000000162981
4,16,92801.1385349669,0.010999999998603
4,17,11702.7748000768,0.0120000000024447
4,18,14638710.0936091,0.00900000000547152
4,19,42623.8708923848,0.0199999999895226
4,20,31552.1850304521,0.0200000000040745
4,21,34088.7544546972,0.0430000000051223
4,22,29121.1017436384,0.0160000000032596
4,23,5669793.37082485,0.00800000000162981
4,24,13405.4040504724,0.0139999999955762
4,25,855.65936534649,0.0120000000024447
4,26,69958.8943866892,0.021999999997206
4,27,20096.7504633419,0.0140000000101281
4,28,8387.01309390283,0.0139999999955762
4,29,28989.9500110693,0.0190000000002328
4,30,222390.04031071,0.0120000000024447
5,6,1478.55164301967,0.0089999999909196
5,7,98708.9008576863,0.00600000000849832
5,8,1706.2431702313,0.010999999998603
5,9,98032.4118165283,0.00800000000162981
5,10,512.218734379288,0.00999999999476131
5,11,2090.84362568102,0.00800000000162981
5,12,28120.8121539401,0.0179999999963911
5,13,7078.99547972718,0.00900000000547152
5,14,56210.7172538609,0.0489999999990687
5,15,11690.394782583,0.00800000000162981
5,16,8584.86266737615,0.0120000000024447
5,17,1186.97834847448,0.0159999999887077
5,18,43356854.3992726,0.0120000000024447
5,19,76553.574212518,0.00900000000547152
5,20,9299.97135582627,0.00800000000162981
5,21,3313.20292263564,0.0139999999955762
5,22,4612.74712992215,0.0130000000062864
5,23,8713421.14112554,0.00800000000162981
5,24,2115.94433538556,0.00900000000547152
5,25,985.83563303972,0.0139999999955762
5,26,76143.4949440674,0.00800000000162981
5,27,5.70932740340388,0.0130000000062864
5,28,460.590766238585,0.0179999999963911
5,29,1672.9774148479,0.010999999998603
5,30,20300.9888895586,0.0139999999955762
6,7,41909.3676430065,0.0120000000024447
6,8,41224.7351665347,0.0120000000024447
6,9,42361.5391269993,0.00999999999476131
6,10,10992.012012541,0.0149999999994179
6,11,576.496324949117,0.0149999999994179
6,12,11918.5029263657,0.0170000000071013
6,13,35751.8776653083,0.0139999999955762
6,14,12692.7350510408,0.010999999998603
6,15,5866.50404617157,0.00999999999476131
6,16,229218.855383504,0.0120000000024447
6,17,23689.2098644683,0.00999999999476131
6,18,48769051.2281504,0.0100000000093132
6,19,47212.1175350865,0.010999999998603
6,20,9090.95324692264,0.036999999996624
6,21,16608.4108981109,0.0160000000032596
6,22,26605.3921295757,0.00999999999476131
6,23,21391535.2283785,0.00600000000849832
6,24,5.16640706268726,0.0149999999994179
6,25,11243.760005995,0.010999999998603
6,26,6176.16160989403,0.0160000000032596
6,27,4206.17419055949,0.0199999999895226
6,28,6882.22614307976,0.0130000000062864
6,29,19611.8445938764,0.047999999995227
6,30,387186.234387224,0.0160000000032596
7,8,108450.305073232,0.00900000000547152
7,9,2303.03863884016,0.0139999999955762
7,10,82682.0482822811,0.00999999999476131
7,11,109223.081140653,0.0130000000062864
7,12,16123.2233265988,0.0120000000024447
7,13,7544.77396616678,0.010999999998603
7,14,88324.6094260539,0.00699999999778811
7,15,9319.44863556831,0.0120000000024447
7,16,231959.459007814,0.00699999999778811
7,17,103657.122177954,0.00800000000162981
7,18,54274985.9392587,0.0129999999917345
7,19,5419.97150490548,0.00800000000162981
7,20,80371.0990671999,0.0200000000040745
7,21,58172.970847148,0.00999999999476131
7,22,154587.944847838,0.0100000000093132
7,23,18804634.6058491,0.00999999999476131
7,24,134392.101701626,0.00800000000162981
7,25,85991.6568660621,0.00800000000162981
7,26,171153.753590238,0.0149999999994179
7,27,65867.9550141412,0.0259999999980209
7,28,55867.5867911416,0.010999999998603
7,29,126251.298985948,0.0139999999955762
7,30,220608.241495717,0.0449999999982538
8,9,145842.971711761,0.018000000010943
8,10,3139.3315263835,0.0269999999873107
8,11,4350.85521466334,0.0100000000093132
8,12,187581.808425667,0.0149999999994179
8,13,66751.0758494781,0.0230000000010477
8,14,75.8421901818496,0.0120000000024447
8,15,4825.80614602842,0.0079999999870779
8,16,28083.0190598518,0.0230000000010477
8,17,49021.9596653697,0.0320000000065193
8,18,10528335.3403539,0.00800000000162981
8,19,129118.598760722,0.0120000000024447
8,20,260.220125083278,0.0119999999878928
8,21,15536.1295674809,0.0130000000062864
8,22,27642.0226258348,0.0339999999996508
8,23,4832780.21422821,0.00699999999778811
8,24,15622.6815651372,0.0339999999996508
8,25,96569.8787931659,0.0160000000032596
8,26,3281.38256957105,0.00900000000547152
8,27,7062.16373610701,0.0089999999909196
8,28,161848.918876283,0.021999999997206
8,29,96542.9892210343,0.0140000000101281
8,30,21862.0567887347,0.0139999999955762
9,10,71418.6469563069,0.0190000000002328
9,11,126763.26094437,0.0170000000071013
9,12,11963.3424453649,0.0079999999870779
9,13,140492.373613748,0.0390000000043074
9,14,73702.6892392473,0.00800000000162981
9,15,27369.1945540154,0.00800000000162981
9,16,203694.886322692,0.00999999999476131
9,17,125485.337309039,0.0130000000062864
9,18,5018626.57723591,0.00999999999476131
9,19,4534.25056310951,0.0390000000043074
9,20,414466.722530815,0.0190000000002328
9,21,72168.2419350775,0.0289999999949941
9,22,184077.036294309,0.0259999999980209
9,23,30714261.4949661,0.0130000000062864
9,24,91335.936634741,0.0169999999925494
9,25,125693.720124914,0.0160000000032596
9,26,54005.0095676459,0.0210000000079162
9,27,135314.925510323,0.0120000000024447
9,28,102396.116375126,0.0190000000002328
9,29,132105.910043148,0.0149999999994179
9,30,281650.34762023,0.0149999999994179
10,11,1815.70309734088,0.0130000000062864
10,12,24894.7562503275,0.0200000000040745
10,13,72673.3049772749,0.0279999999911524
10,14,4.00449772859415,0.0120000000024447
10,15,7822.38440202282,0.00900000000547152
10,16,17797.726143743,0.0120000000024447
10,17,1345.08069883547,0.0259999999980209
10,18,2129897.82244662,0.00699999999778811
10,19,181245.8977922,0.0200000000040745
10,20,636.233595339208,0.0139999999955762
10,21,7059.72391176349,0.0190000000002328
10,22,35639.2097886095,0.036999999996624
10,23,2022920.51483633,0.00400000000081491
10,24,18684.9344618038,0.0339999999996508
10,25,37126.8931360438,0.0259999999980209
10,26,788.305515397322,0.0230000000010477
10,27,13094.757945595,0.0120000000024447
10,28,45483.8548760258,0.0209999999933643
10,29,20863.4733105063,0.0139999999955762
10,30,30096.1282027938,0.0130000000062864
11,12,29774.7218702783,0.00999999999476131
11,13,11899.3870405148,0.0220000000117579
11,14,4234.01161796463,0.0079999999870779
11,15,17488.2729360341,0.00900000000547152
11,16,21027.1419140189,0.00999999999476131
11,17,2105.36295530863,0.0140000000101281
11,18,2136862.35650075,0.0059999999939464
11,19,72802.3390055789,0.0130000000062864
11,20,2279.50591691722,0.0339999999996508
11,21,28289.9738025619,0.021999999997206
11,22,10720.8557203407,0.0149999999994179
11,23,1916456.21482599,0.0059999999939464
11,24,2324.53310508727,0.0149999999994179
11,25,1982.74605890223,0.0130000000062864
11,26,45617.8379122202,0.0449999999982538
11,27,3357.09361133214,0.0120000000024447
11,28,1512.81061303287,0.0129999999917345
11,29,19075.9460530871,0.0240000000048894
11,30,26521.616745611,0.0130000000062864
12,13,23484.4982095101,0.0149999999994179
12,14,14924.9200370186,0.0230000000010477
12,15,54173.9040744489,0.00699999999778811
12,16,433352.950603416,0.0230000000010477
12,17,85040.5788839458,0.0230000000010477
12,18,22234365.9220029,0.0089999999909196
12,19,1182.25174484329,0.00900000000547152
12,20,50706.6793585831,0.0120000000024447
12,21,18041.2934637304,0.0089999999909196
12,22,221438.870185862,0.0160000000032596
12,23,34530791.0018106,0.0100000000093132
12,24,54783.8911571585,0.0149999999994179
12,25,53123.5802106537,0.0139999999955762
12,26,36562.8997028512,0.010999999998603
12,27,54460.1579840257,0.0139999999955762
12,28,70538.0902027129,0.0149999999994179
12,29,96332.0959879183,0.0149999999994179
12,30,813800.323790237,0.010999999998603
13,14,22113.6313768226,0.0149999999994179
13,15,29194.9560233758,0.00700000001234002
13,16,40138.8915464351,0.0139999999955762
13,17,29811.8955611337,0.0149999999994179
13,18,2342216.7188684,0.00699999999778811
13,19,55851.9286675977,0.021999999997206
13,20,14315.8040133722,0.0200000000040745
13,21,25269.7627687458,0.0390000000043074
13,22,56750.7948717584,0.0190000000002328
13,23,3259712.37518671,0.0059999999939464
13,24,55059.1406901544,0.0299999999988358
13,25,84703.0516198144,0.0200000000040745
13,26,11751.0587444672,0.0200000000040745
13,27,16682.6900354843,0.0139999999955762
13,28,55379.8416379897,0.0169999999925494
13,29,10220.1861732026,0.0140000000101281
13,30,72029.2736163351,0.0169999999925494
14,15,12521.1275253047,0.00900000000547152
14,16,6547.07586793009,0.0149999999994179
14,17,1393.5050098382,0.0130000000062864
14,18,2130046.66415187,0.00699999999778811
14,19,67268.7989123493,0.0089999999909196
14,20,60.8453628539775,0.00800000000162981
14,21,11168.9513351074,0.00999999999476131
14,22,6277.45175425785,0.00800000000162981
14,23,3026459.79662172,0.00600000000849832
14,24,2727.96154015685,0.0159999999887077
14,25,3977.77470235561,0.0120000000024447
14,26,155.696268846546,0.0130000000062864
14,27,3583.16039563075,0.0120000000024447
14,28,3346.84250223803,0.010999999998603
14,29,298.727302124232,0.00999999999476131
14,30,15957.3458854011,0.0130000000062864
15,16,311.923616099155,0.00999999999476131
15,17,5464.78207304783,0.00900000000547152
15,18,2226772.40003632,0.0059999999939464
15,19,111303.147957099,0.00900000000547152
15,20,2642.53335229132,0.00800000000162981
15,21,27117.2612862837,0.00999999999476131
15,22,41031.5436960007,0.00900000000547152
15,23,1834921.19045738,0.0079999999870779
15,24,8105.55686168716,0.0100000000093132
15,25,13064.2090515238,0.010999999998603
15,26,14972.1421904411,0.0129999999917345
15,27,9366.85955701407,0.0130000000062864
15,28,17463.4190671664,0.00800000000162981
15,29,2570.93552075839,0.00999999999476131
15,30,28072.33692898,0.0210000000079162
16,17,4758.39004613965,0.044000000008964
16,18,814133.1032434,0.00500000000465661
16,19,186805.630136911,0.00999999999476131
16,20,5019.82057711272,0.00999999999476131
16,21,33932.1562422161,0.00900000000547152
16,22,2329.63874719908,0.0160000000032596
16,23,2704347.19626482,0.0049999999901047
16,24,10348.5709316339,0.0190000000002328
16,25,7123.52072487176,0.0160000000032596
16,26,17409.8868669438,0.00900000000547152
16,27,40442.7712204134,0.0129999999917345
16,28,9866.21560334727,0.0250000000087311
16,29,20090.8345527808,0.0120000000024447
16,30,775.804563625345,0.0179999999963911
17,18,21450584.7635426,0.0089999999909196
17,19,82639.8583579391,0.0120000000024447
17,20,1439.45677734523,0.0140000000101281
17,21,12365.510489395,0.010999999998603
17,22,1870.13033343188,0.0209999999933643
17,23,5866915.57687393,0.00500000000465661
17,24,294.212287836945,0.0339999999996508
17,25,2141.51520280545,0.0239999999903375
17,26,552.04673792832,0.0120000000024447
17,27,1416.04028875279,0.0140000000101281
17,28,13781.3581945,0.0419999999867287
17,29,2194.08307154765,0.0110000000131549
17,30,34252.0945331756,0.0160000000032596
18,19,27922371.8204588,0.010999999998603
18,20,1247215.38841522,0.00800000000162981
18,21,19642071.9159608,0.00800000000162981
18,22,5574883.75124753,0.00900000000547152
18,23,3.26134745027461,0.0059999999939464
18,24,2081805.60437358,0.0059999999939464
18,25,45273815.1860995,0.0160000000032596
18,26,3357837.47834512,0.00500000000465661
18,27,17798624.1597965,0.0089999999909196
18,28,18295034.8844721,0.00700000001234002
18,29,3151576.39456935,0.00600000000849832
18,30,1722534.52768428,0.00800000000162981
19,20,81138.6374635901,0.0139999999955762
19,21,32332.0018766339,0.0230000000010477
19,22,158714.985750798,0.0249999999941792
19,23,19935674.3261189,0.00699999999778811
19,24,110672.320985886,0.018000000010943
19,25,52777.3698941955,0.0249999999941792
19,26,144280.847704489,0.0139999999955762
19,27,88450.9790840752,0.0130000000062864
19,28,88571.9547922801,0.0230000000010477
19,29,67967.9324512759,0.0160000000032596
19,30,215045.334649005,0.0130000000062864
20,21,25457.1670545076,0.021999999997206
20,22,312.951972392843,0.010999999998603
20,23,1398851.75879256,0.00699999999778811
20,24,10607.8691934259,0.0130000000062864
20,25,2822.73847148366,0.00999999999476131
20,26,3552.92661826125,0.0400000000081491
20,27,5312.97162312522,0.0169999999925494
20,28,136.84266130966,0.0140000000101281
20,29,18602.3197597519,0.0279999999911524
20,30,23361.8644613163,0.0140000000101281
21,22,22055.9837267841,0.0149999999994179
21,23,3478010.91040282,0.00699999999778811
21,24,5413.51931243576,0.0129999999917345
21,25,7195.90811953112,0.0120000000024447
21,26,77830.5773775421,0.0240000000048894
21,27,19258.4908394911,0.0120000000024447
21,28,9871.95439457337,0.0129999999917345
21,29,71817.2724825156,0.0179999999963911
21,30,78255.962538575,0.0140000000101281
22,23,4186293.75536555,0.00800000000162981
22,24,25594.4944449384,0.0299999999988358
22,25,6785.64479582165,0.0279999999911524
22,26,3131.87206826672,0.0100000000093132
22,27,8693.61492194767,0.0139999999955762
22,28,6042.87943209199,0.0299999999988358
22,29,3820.79753729914,0.0160000000032596
22,30,17449.4576243249,0.0139999999955762
23,24,1863204.50258833,0.00500000000465661
23,25,9632582.49701558,0.00999999999476131
23,26,3539933.68856575,0.00800000000162981
23,27,11269431.1147132,0.00900000000547152
23,28,3012592.8281376,0.0049999999901047
23,29,1881771.97672632,0.00500000000465661
23,30,1526461.00045408,0.0059999999939464
24,25,61097.802795573,0.0280000000057044
24,26,92410.3446670056,0.010999999998603
24,27,18357.5170905284,0.0209999999933643
24,28,47537.4938494415,0.0250000000087311
24,29,69493.7199198849,0.0139999999955762
24,30,10135.6899541043,0.010999999998603
25,26,106.658033708492,0.0169999999925494
25,27,210.174219043769,0.0160000000032596
25,28,10577.7722813876,0.0449999999982538
25,29,1078.36115754258,0.010999999998603
25,30,55808.8590688019,0.0130000000062864
26,27,8565.82726160122,0.0149999999994179
26,28,170404.241711124,0.00900000000547152
26,29,3307.96767972206,0.0209999999933643
26,30,39973.7683294399,0.0120000000024447
27,28,2571.06401538387,0.0120000000024447
27,29,1680.31590785421,0.0199999999895226
27,30,45057.7225561044,0.0339999999996508
28,29,249.940416995126,0.0140000000101281
28,30,20878.5386561234,0.0159999999887077
29,30,28421.5802402338,0.0160000000032596


"After.Trace.ID","Before.Trace.ID","Difference","Runtime"
1,1,68594.8842039816,0.00400000000081491
1,2,2184183.71976296,0.0059999999939464
1,3,5454273.37598003,0.00800000000162981
1,4,3078096.38645455,0.00500000000465661
1,5,15871002.6041244,0.0119999999878928
1,6,17140064.6162512,0.00800000000162981
1,7,36631027.3534486,0.0140000000101281
1,8,15045084.6113172,0.00999999999476131
1,9,53504422.909614,0.010999999998603
1,10,2017896.39689441,0.0059999999939464
1,11,2074206.36024776,0.00800000000162981
1,12,36826544.863538,0.00900000000547152
1,13,2415788.493357,0.0059999999939464
1,14,2111055.45040061,0.00400000000081491
1,15,2179606.83756604,0.00600000000849832
1,16,2626605.22453026,0.00800000000162981
1,17,1894713.2539218,0.0089999999909196
1,18,11669.666254923,0.00699999999778811
1,19,26192758.1186217,0.010999999998603
1,20,1255201.37178,0.00699999999778811
1,21,12673926.6166469,0.00900000000547152
1,22,7890669.27089792,0.00900000000547152
1,23,1843.8417987437,0.00600000000849832
1,24,1989812.62136886,0.00400000000081491
1,25,5579013.60363724,0.0089999999909196
1,26,3259110.18406983,0.00500000000465661
1,27,43133114.355726,0.0160000000032596
1,28,1042487.82862085,0.00699999999778811
1,29,3052490.49779297,0.00800000000162981
1,30,1663511.23373602,0.00699999999778811
2,1,26859.8495620866,0.00500000000465661
2,2,1797769.63170312,0.0049999999901047
2,3,830636.473905104,0.0100000000093132
2,4,3000173.54023375,0.00800000000162981
2,5,9458627.44379563,0.0089999999909196
2,6,3034659.57609184,0.00699999999778811
2,7,16589657.4388511,0.00800000000162981
2,8,1673348.42000679,0.00500000000465661
2,9,24028666.0174163,0.00699999999778811
2,10,1853532.34479293,0.00699999999778811
2,11,863405.861906459,0.00800000000162981
2,12,1967581.2995385,0.0089999999909196
2,13,2894970.71616186,0.00500000000465661
2,14,1836947.06618471,0.0059999999939464
2,15,1866833.61564231,0.00600000000849832
2,16,1571424.0551391,0.0049999999901047
2,17,2561128.66947274,0.00700000001234002
2,18,2.69397079666329,0.00400000000081491
2,19,10746026.4507348,0.0089999999909196
2,20,782043.018891329,0.00500000000465661
2,21,11310621.7705624,0.00699999999778811
2,22,1508205.75758437,0.00699999999778811
2,23,1.09113328575718,0.00699999999778811
2,24,1787898.66489111,0.00600000000849832
2,25,1699064.67515938,0.00699999999778811
2,26,1289318.79217261,0.00500000000465661
2,27,1737728.11454388,0.00800000000162981
2,28,818713.943602997,0.00600000000849832
2,29,2733128.91069822,0.0079999999870779
2,30,1433513.9697782,0.00500000000465661
3,1,54704.167704553,0.00500000000465661
3,2,4113217.48138176,0.0059999999939464
3,3,2275039.81219428,0.00600000000849832
3,4,1409194.74908848,0.0059999999939464
3,5,3745542.99454884,0.00800000000162981
3,6,3220697.02498964,0.0149999999994179
3,7,2169314.2088832,0.0059999999939464
3,8,1260382.93891429,0.00900000000547152
3,9,2217564.16023588,0.0059999999939464
3,10,893709.800725809,0.00800000000162981
3,11,1390819.61774156,0.00699999999778811
3,12,4721521.66821576,0.00700000001234002
3,13,1635785.43732531,0.0059999999939464
3,14,1319038.03789165,0.00699999999778811
3,15,1195604.60873238,0.00600000000849832
3,16,1783290.59606716,0.00800000000162981
3,17,3742299.49981933,0.00699999999778811
3,18,9815.01155670726,0.00800000000162981
3,19,2036660.83862844,0.0079999999870779
3,20,1282114.19996491,0.00700000001234002
3,21,1582624.49879575,0.0079999999870779
3,22,2036564.72420325,0.00800000000162981
3,23,130146.802300209,0.00900000000547152
3,24,1309952.43811169,0.00699999999778811
3,25,2083122.47617768,0.00699999999778811
3,26,1621701.61166204,0.010999999998603
3,27,2118236.41030835,0.00800000000162981
3,28,3313045.52568865,0.00800000000162981
3,29,2115576.97203057,0.00699999999778811
3,30,1411891.81605909,0.00600000000849832
4,1,4831.8331774275,0.0059999999939464
4,2,9158107.4324879,0.00699999999778811
4,3,10673210.44419,0.00600000000849832
4,4,7630270.57131526,0.00999999999476131
4,5,2172552.9044516,0.00500000000465661
4,6,20541893.3558966,0.00699999999778811
4,7,4124964.37387028,0.00500000000465661
4,8,3773634.71314523,0.0079999999870779
4,9,5585804.35218431,0.00800000000162981
4,10,1738971.65636788,0.00400000000081491
4,11,3527197.57630432,0.00699999999778811
4,12,19876319.1974045,0.00900000000547152
4,13,4800544.30281226,0.00800000000162981
4,14,3835100.30616723,0.0059999999939464
4,15,3047553.51937239,0.0059999999939464
4,16,3472911.67884021,0.00600000000849832
4,17,2318516.8130563,0.00699999999778811
4,18,35780.1671196453,0.0089999999909196
4,19,5802668.79540242,0.00400000000081491
4,20,1514699.52565255,0.0029999999969732
4,21,3173761.93634567,0.00500000000465661
4,22,2784072.87024118,0.0059999999939464
4,23,12962.5592445972,0.0029999999969732
4,24,3359866.43556188,0.00900000000547152
4,25,2256264.40806041,0.0049999999901047
4,26,3562106.92862355,0.00600000000849832
4,27,2517343.42093073,0.00500000000465661
4,28,7313499.86831205,0.00999999999476131
4,29,3662523.34123731,0.00900000000547152
4,30,2704179.09629474,0.00699999999778811
5,1,98211.8010495646,0.00400000000081491
5,2,4934800.60152003,0.0059999999939464
5,3,5994689.04983278,0.00699999999778811
5,4,2110870.51704712,0.00600000000849832
5,5,5566811.93217819,0.00600000000849832
5,6,20916781.7965611,0.0100000000093132
5,7,2877869.63264578,0.00800000000162981
5,8,296096.961659427,0.0059999999939464
5,9,9726091.24389738,0.00699999999778811
5,10,2012136.5513449,0.00600000000849832
5,11,2018962.76822346,0.00699999999778811
5,12,17174111.1528188,0.0079999999870779
5,13,2498938.63347335,0.00600000000849832
5,14,1935372.20792001,0.0059999999939464
5,15,238949.343114079,0.00500000000465661
5,16,365480.966749103,0.00800000000162981
5,17,5533186.9522977,0.0049999999901047
5,18,109857.727790548,0.00800000000162981
5,19,2679577.6275674,0.00900000000547152
5,20,1339629.5458401,0.00500000000465661
5,21,2152622.71717077,0.0079999999870779
5,22,906765.961947344,0.00800000000162981
5,23,1911.38949679438,0.0059999999939464
5,24,1919058.55189959,0.00800000000162981
5,25,5662298.59412772,0.00800000000162981
5,26,2386879.47476132,0.00699999999778811
5,27,18948474.0901498,0.00900000000547152
5,28,5500895.82133247,0.00699999999778811
5,29,2242102.33359524,0.00699999999778811
5,30,141169.004549365,0.00800000000162981
6,1,16278.8198127876,0.00400000000081491
6,2,14138674.2736723,0.00699999999778811
6,3,18823993.8231291,0.00699999999778811
6,4,2504476.67533892,0.00699999999778811
6,5,12181996.1386056,0.00800000000162981
6,6,27742906.7094795,0.00900000000547152
6,7,4066067.04043228,0.00800000000162981
6,8,1574058.40069391,0.0059999999939464
6,9,20309495.4223608,0.00900000000547152
6,10,1779603.31119366,0.0049999999901047
6,11,1717609.09283223,0.00800000000162981
6,12,35726354.3740843,0.00900000000547152
6,13,2170880.35607551,0.00999999999476131
6,14,1724626.81900874,0.00600000000849832
6,15,1745059.23747523,0.0049999999901047
6,16,1886551.47938189,0.00800000000162981
6,17,11530974.7598419,0.00699999999778811
6,18,62440.8178233181,0.00600000000849832
6,19,10260137.943056,0.010999999998603
6,20,1640890.78141636,0.0059999999939464
6,21,8636129.47107748,0.00800000000162981
6,22,2116051.69123625,0.00699999999778811
6,23,28600.0238891183,0.00600000000849832
6,24,1654696.57339427,0.00600000000849832
6,25,17708887.101831,0.00800000000162981
6,26,2633935.26705128,0.0059999999939464
6,27,21322415.5907125,0.00900000000547152
6,28,1636878.64026207,0.0059999999939464
6,29,2530239.82566234,0.00900000000547152
6,30,1342146.38324767,0.00800000000162981
7,1,6510.50699990708,0.0079999999870779
7,2,1723442.21794217,0.00800000000162981
7,3,8077695.61136452,0.00600000000849832
7,4,9118433.26935128,0.0059999999939464
7,5,4406296.67764467,0.00900000000547152
7,6,18912631.717709,0.0059999999939464
7,7,5526026.501328,0.00600000000849832
7,8,1574878.23788429,0.0059999999939464
7,9,6667026.21126721,0.00699999999778811
7,10,1818466.29433506,0.00500000000465661
7,11,1698441.24170798,0.00500000000465661
7,12,10670129.2675304,0.00699999999778811
7,13,1875630.17549865,0.00699999999778811
7,14,1669615.5343149,0.00699999999778811
7,15,1661386.40500745,0.0059999999939464
7,16,1389020.45172577,0.00700000001234002
7,17,4314314.98414784,0.0049999999901047
7,18,9673.95343605554,0.00900000000547152
7,19,5124077.47247201,0.0059999999939464
7,20,1606884.23009625,0.00600000000849832
7,21,4116516.21840181,0.0049999999901047
7,22,4313206.20797261,0.00600000000849832
7,23,29856.7276605887,0.00699999999778811
7,24,1616673.65693541,0.00699999999778811
7,25,4519757.3686814,0.00500000000465661
7,26,1997235.66223391,0.00500000000465661
7,27,8147076.22336457,0.0059999999939464
7,28,7481451.01338485,0.00700000001234002
7,29,2548082.79264262,0.0089999999909196
7,30,1337060.08212363,0.00600000000849832
8,1,45418.5158035083,0.00400000000081491
8,2,7801005.6923617,0.00699999999778811
8,3,14613274.6519611,0.00699999999778811
8,4,9791078.84088983,0.00699999999778811
8,5,13187077.5479612,0.00900000000547152
8,6,30276294.7010242,0.00699999999778811
8,7,24377232.0240148,0.0110000000131549
8,8,1142953.65779261,0.0089999999909196
8,9,1729683.1584147,0.010999999998603
8,10,1214412.37401447,0.00400000000081491
8,11,1615348.17125749,0.00600000000849832
8,12,35585529.6945937,0.0129999999917345
8,13,1505501.44811086,0.00699999999778811
8,14,1215036.13911327,0.00700000001234002
8,15,1195186.32721196,0.00999999999476131
8,16,1008268.25673374,0.00800000000162981
8,17,9273973.8492035,0.00800000000162981
8,18,96222.19892501,0.0049999999901047
8,19,3572639.19307285,0.00800000000162981
8,20,735956.351708885,0.00500000000465661
8,21,10606103.6100524,0.010999999998603
8,22,6160599.06434584,0.00699999999778811
8,23,185848.304721704,0.00600000000849832
8,24,1555907.21655773,0.00800000000162981
8,25,24179874.7459682,0.010999999998603
8,26,2180306.3702412,0.00500000000465661
8,27,24098185.1439305,0.00999999999476131
8,28,9564582.07970957,0.00900000000547152
8,29,1639306.06069254,0.00699999999778811
8,30,1012059.10683961,0.00600000000849832
9,1,10539.6087053815,0.00399999998626299
9,2,4210870.01249299,0.00800000000162981
9,3,5164135.03116149,0.0149999999994179
9,4,5266861.36553389,0.0100000000093132
9,5,4511194.64441661,0.00699999999778811
9,6,5291317.78605071,0.0129999999917345
9,7,1280585.73318301,0.0100000000093132
9,8,4394546.79522227,0.00699999999778811
9,9,5148735.71874725,0.00900000000547152
9,10,1088195.06465121,0.0079999999870779
9,11,3667631.37891339,0.00800000000162981
9,12,11072361.8352337,0.00900000000547152
9,13,2468802.46588214,0.00900000000547152
9,14,4010616.79111937,0.00800000000162981
9,15,1064993.63111739,0.00699999999778811
9,16,4090676.02351852,0.00700000001234002
9,17,4046543.59024616,0.0079999999870779
9,18,1104133.47457244,0.00700000001234002
9,19,6570358.42063816,0.010999999998603
9,20,807854.642309746,0.00699999999778811
9,21,3202976.32019968,0.00800000000162981
9,22,3060430.87036509,0.00800000000162981
9,23,122771.537620108,0.0059999999939464
9,24,1022981.87162126,0.00900000000547152
9,25,2213542.51337424,0.00699999999778811
9,26,4191937.5341935,0.0120000000024447
9,27,4737835.87767525,0.00800000000162981
9,28,4362517.74817452,0.0079999999870779
9,29,1001960.35812503,0.0110000000131549
9,30,989836.277048759,0.0089999999909196
10,1,9439.68273471248,0.00400000000081491
10,2,10357192.18574,0.00600000000849832
10,3,10283235.9906014,0.00699999999778811
10,4,744154.025731772,0.0049999999901047
10,5,7202803.10989728,0.00900000000547152
10,6,16105379.2785904,0.00900000000547152
10,7,11227526.8291317,0.00800000000162981
10,8,1991808.55752774,0.00699999999778811
10,9,1343292.98214968,0.00500000000465661
10,10,1683427.68436249,0.00500000000465661
10,11,2376932.7707232,0.00400000000081491
10,12,24258776.1816822,0.0100000000093132
10,13,2166157.42480234,0.0059999999939464
10,14,1477566.10042441,0.00400000000081491
10,15,1613519.67381642,0.00600000000849832
10,16,1885745.82607985,0.00699999999778811
10,17,12126706.2246367,0.0089999999909196
10,18,135153.003147854,0.00400000000081491
10,19,3254752.75313868,0.00699999999778811
10,20,1006964.48017692,0.00500000000465661
10,21,2794299.91861862,0.00500000000465661
10,22,4014649.34717836,0.00800000000162981
10,23,34702.4692151027,0.0029999999969732
10,24,1518498.25722875,0.00500000000465661
10,25,12603278.9012332,0.00699999999778811
10,26,1130373.74325981,0.00500000000465661
10,27,4226092.95734969,0.00800000000162981
10,28,6432837.47773263,0.00800000000162981
10,29,1892594.7205814,0.0049999999901047
10,30,1092306.51315612,0.00699999999778811
11,1,312442.035235537,0.00600000000849832
11,2,3415860.68468223,0.00800000000162981
11,3,5865224.9007136,0.0059999999939464
11,4,6002333.03492714,0.00500000000465661
11,5,6580521.64163626,0.0120000000024447
11,6,12829791.2418819,0.0089999999909196
11,7,1084886.63013307,0.0100000000093132
11,8,4015399.83785081,0.00999999999476131
11,9,13640291.1800175,0.010999999998603
11,10,723721.235771302,0.00600000000849832
11,11,933727.132002722,0.0049999999901047
11,12,20298540.7207691,0.0100000000093132
11,13,925721.552779502,0.0079999999870779
11,14,744298.059789755,0.00700000001234002
11,15,770896.479673113,0.00699999999778811
11,16,594774.662644101,0.0059999999939464
11,17,2426401.35574741,0.00900000000547152
11,18,459354.221697924,0.00800000000162981
11,19,7177575.6589985,0.00699999999778811
11,20,771936.236427621,0.0089999999909196
11,21,2361489.14364766,0.00700000001234002
11,22,3238245.16920015,0.00800000000162981
11,23,430132.26057317,0.0059999999939464
11,24,961764.866921679,0.00800000000162981
11,25,9069489.26080279,0.0120000000024447
11,26,1441149.71170042,0.0049999999901047
11,27,12005396.101454,0.00900000000547152
11,28,4540158.10432845,0.010999999998603
11,29,985162.910498984,0.00500000000465661
11,30,670360.592030124,0.00699999999778811
12,1,254490.649248033,0.00400000000081491
12,2,7574545.53048682,0.00699999999778811
12,3,13202632.8398715,0.00900000000547152
12,4,4782654.04741196,0.0089999999909196
12,5,7550730.03174133,0.0100000000093132
12,6,14315329.8553925,0.00699999999778811
12,7,2893948.65302039,0.00699999999778811
12,8,1642838.49763785,0.0059999999939464
12,9,3131320.69622633,0.00600000000849832
12,10,801704.284455737,0.0059999999939464
12,11,4417941.4537252,0.0100000000093132
12,12,15453294.5812524,0.0079999999870779
12,13,1480586.79287117,0.00500000000465661
12,14,980028.647008113,0.0059999999939464
12,15,979291.459063355,0.00600000000849832
12,16,1721166.60520472,0.00800000000162981
12,17,7982065.47179314,0.0120000000024447
12,18,944568.849723845,0.00699999999778811
12,19,3178607.27466805,0.00400000000081491
12,20,586537.746374744,0.0059999999939464
12,21,2268385.54617309,0.00800000000162981
12,22,6458717.97806786,0.010999999998603
12,23,568183.083632055,0.00800000000162981
12,24,1017926.02268931,0.0059999999939464
12,25,6887631.25606712,0.0110000000131549
12,26,1409971.02720642,0.0059999999939464
12,27,3204690.5412126,0.0059999999939464
12,28,7205774.51095885,0.00700000001234002
12,29,2189942.20613308,0.00800000000162981
12,30,615066.068560192,0.00500000000465661
13,1,60.4411451330946,0.0029999999969732
13,2,1957046.26410777,0.0059999999939464
13,3,24344527.3296333,0.0130000000062864
13,4,13313802.0488292,0.0059999999939464
13,5,16627101.1592724,0.00600000000849832
13,6,45398878.1327405,0.00999999999476131
13,7,2941646.60614327,0.00500000000465661
13,8,2589238.12144622,0.0089999999909196
13,9,7085365.21325192,0.00600000000849832
13,10,1949757.6030043,0.0049999999901047
13,11,920171.8850292,0.00400000000081491
13,12,1195217.90879693,0.00699999999778811
13,13,1339109.0586388,0.00400000000081491
13,14,0.110661375550767,0.0029999999969732
13,15,1778027.4579872,0.00500000000465661
13,16,2356475.67075539,0.00699999999778811
13,17,16271258.324443,0.00600000000849832
13,18,9158.14605058819,0.00400000000081491
13,19,2766281.75238311,0.00500000000465661
13,20,1839369.64587987,0.00500000000465661
13,21,2142620.23109802,0.0079999999870779
13,22,2553811.81944268,0.00800000000162981
13,23,7.46617674465857,0.00500000000465661
13,24,822563.845193993,0.00500000000465661
13,25,21820048.4312459,0.0100000000093132
13,26,2691200.85439181,0.00699999999778811
13,27,16017232.0803544,0.010999999998603
13,28,16080291.7537231,0.0059999999939464
13,29,788370.731409276,0.00500000000465661
13,30,1553735.58744493,0.0059999999939464
14,1,98354.8434511858,0.00600000000849832
14,2,19795172.1791224,0.0059999999939464
14,3,19423757.3013846,0.00900000000547152
14,4,2115214.53198881,0.0059999999939464
14,5,33318972.6874601,0.0100000000093132
14,6,35605006.4444435,0.00699999999778811
14,7,42570739.0991288,0.0110000000131549
14,8,1823676.1336591,0.00999999999476131
14,9,4081137.37905822,0.00900000000547152
14,10,1941168.08418487,0.0049999999901047
14,11,4669382.85991642,0.00500000000465661
14,12,51434883.8577614,0.0129999999917345
14,13,2512507.12467733,0.00600000000849832
14,14,2058048.21475929,0.00400000000081491
14,15,2303855.85486329,0.00699999999778811
14,16,2463606.25429976,0.00699999999778811
14,17,23125823.4142902,0.0059999999939464
14,18,97.250992107415,0.00500000000465661
14,19,5217889.28884029,0.00800000000162981
14,20,1338416.2357721,0.00800000000162981
14,21,24181373.1514782,0.00699999999778811
14,22,1848013.28104017,0.00699999999778811
14,23,1839.36123629328,0.0059999999939464
14,24,2820074.55536739,0.00600000000849832
14,25,27106756.1205462,0.0119999999878928
14,26,3181569.06371818,0.0110000000131549
14,27,0.370194642297366,0.0089999999909196
14,28,14146520.0982201,0.00800000000162981
14,29,1899272.84553818,0.00800000000162981
14,30,1608825.2748493,0.00699999999778811
15,1,31758.9149144339,0.0059999999939464
15,2,15044469.6116008,0.00900000000547152
15,3,8206688.90077577,0.00900000000547152
15,4,13153121.9994476,0.00999999999476131
15,5,17690137.7798069,0.00699999999778811
15,6,39069224.0271899,0.00900000000547152
15,7,7423939.49153538,0.00999999999476131
15,8,4165401.65361707,0.00600000000849832
15,9,6880781.40966711,0.010999999998603
15,10,1923474.51540559,0.00699999999778811
15,11,3823957.58319521,0.00699999999778811
15,12,3724307.78603333,0.00500000000465661
15,13,4830922.11789001,0.00800000000162981
15,14,4080739.87666387,0.0059999999939464
15,15,2869616.17757074,0.00800000000162981
15,16,1696924.4922147,0.00699999999778811
15,17,14434651.7528116,0.0059999999939464
15,18,50756.5416246557,0.00600000000849832
15,19,8795678.45269123,0.00500000000465661
15,20,821576.324431028,0.00800000000162981
15,21,5991098.74112747,0.00699999999778811
15,22,4859341.24980884,0.00900000000547152
15,23,43991.1913369588,0.00699999999778811
15,24,3787865.86465474,0.00699999999778811
15,25,11797784.8464742,0.00699999999778811
15,26,4134622.68810163,0.00600000000849832
15,27,12213732.3160951,0.0089999999909196
15,28,15141471.372308,0.00800000000162981
15,29,3951877.3438345,0.00800000000162981
15,30,2905573.83826141,0.00500000000465661
16,1,32544.9424371823,0.00400000000081491
16,2,8871488.68605135,0.00900000000547152
16,3,11548526.9540673,0.0059999999939464
16,4,5142030.74219267,0.00800000000162981
16,5,2997667.55130793,0.0049999999901047
16,6,30265826.3534287,0.00800000000162981
16,7,8165977.5241367,0.00800000000162981
16,8,1642490.39618397,0.00800000000162981
16,9,21425990.3175821,0.0100000000093132
16,10,1844006.31236679,0.0059999999939464
16,11,1768574.0923398,0.00500000000465661
16,12,34555141.6110028,0.010999999998603
16,13,2285036.7910049,0.00400000000081491
16,14,1791279.76773887,0.00600000000849832
16,15,1831222.92828608,0.0059999999939464
16,16,1475569.82983064,0.00699999999778811
16,17,12521339.9559022,0.00900000000547152
16,18,5.38764493712993,0.00699999999778811
16,19,10374725.0384243,0.00900000000547152
16,20,1689422.44043482,0.00699999999778811
16,21,8467807.34037149,0.00699999999778811
16,22,4332198.81865117,0.00500000000465661
16,23,3106.0200850721,0.0089999999909196
16,24,1712931.04498901,0.00700000001234002
16,25,24766051.4373803,0.00999999999476131
16,26,2681767.10391897,0.00500000000465661
16,27,21938919.3680567,0.00999999999476131
16,28,9854962.55737182,0.0059999999939464
16,29,2571963.02521135,0.00600000000849832
16,30,1410228.13599643,0.00999999999476131
17,1,14133.4629265442,0.00500000000465661
17,2,4098115.74225234,0.00699999999778811
17,3,5606517.9751849,0.00699999999778811
17,4,1940628.50590621,0.00699999999778811
17,5,6722057.13591902,0.00800000000162981
17,6,1435859.82759572,0.0100000000093132
17,7,15804492.9279104,0.0119999999878928
17,8,1392093.54337814,0.00699999999778811
17,9,757049.124774765,0.00900000000547152
17,10,1511431.43669673,0.00800000000162981
17,11,1697577.90018717,0.00800000000162981
17,12,34850760.1473592,0.0120000000024447
17,13,1960193.01447453,0.00800000000162981
17,14,1524663.74666782,0.00699999999778811
17,15,1614779.16360789,0.0049999999901047
17,16,1867007.87239734,0.00700000001234002
17,17,5251765.19506509,0.00699999999778811
17,18,647391.159486589,0.00699999999778811
17,19,2095920.05769279,0.00999999999476131
17,20,1126388.70216988,0.00500000000465661
17,21,12638250.4575373,0.00999999999476131
17,22,994470.358154062,0.0059999999939464
17,23,159381.812474472,0.00600000000849832
17,24,1472578.3189024,0.0059999999939464
17,25,1456738.82557007,0.00699999999778811
17,26,636758.508914327,0.00800000000162981
17,27,1465400.85528111,0.00699999999778811
17,28,5227887.83121712,0.00699999999778811
17,29,2295882.20765539,0.00700000001234002
17,30,969524.098948025,0.0089999999909196
18,1,7368.66775348416,0.00400000000081491
18,2,14002159.4581808,0.00600000000849832
18,3,19738986.2674702,0.00999999999476131
18,4,17022771.6992775,0.00999999999476131
18,5,34485104.3106545,0.0100000000093132
18,6,32264458.9121571,0.0159999999887077
18,7,22320231.252815,0.00900000000547152
18,8,8565587.82960138,0.00800000000162981
18,9,37174597.2485618,0.0120000000024447
18,10,1084910.18873093,0.00699999999778811
18,11,16795467.256817,0.0120000000024447
18,12,29217727.2538175,0.00800000000162981
18,13,417295.464423183,0.0059999999939464
18,14,1181524.14277373,0.00500000000465661
18,15,2678872.00841299,0.00800000000162981
18,16,2014098.80744245,0.0079999999870779
18,17,3605428.51112363,0.00900000000547152
18,18,50841.6846562514,0.00999999999476131
18,19,4936819.13506377,0.0140000000101281
18,20,2099966.82504355,0.0049999999901047
18,21,9886413.11553549,0.00900000000547152
18,22,15610647.1933835,0.00900000000547152
18,23,49273.6816144335,0.00699999999778811
18,24,2305739.81311255,0.00800000000162981
18,25,25531016.1014143,0.010999999998603
18,26,1587137.05733501,0.00800000000162981
18,27,25980136.726305,0.0120000000024447
18,28,13687112.2110907,0.00800000000162981
18,29,14561977.4145205,0.0100000000093132
18,30,1304533.88167553,0.00699999999778811
19,1,22802.0730178332,0.0059999999939464
19,2,2575890.865122,0.00400000000081491
19,3,5501391.46224193,0.00500000000465661
19,4,825374.165513767,0.0049999999901047
19,5,6369240.68125434,0.00600000000849832
19,6,9493243.97147499,0.00800000000162981
19,7,2810278.07049159,0.0049999999901047
19,8,3031903.926441,0.00500000000465661
19,9,4693063.27624506,0.0059999999939464
19,10,653168.578389907,0.00400000000081491
19,11,1286399.00016813,0.00800000000162981
19,12,4783142.58786918,0.00699999999778811
19,13,3881547.09580897,0.00800000000162981
19,14,3210205.20514397,0.0059999999939464
19,15,1925067.83669526,0.00600000000849832
19,16,2607301.75364804,0.00500000000465661
19,17,3350624.15635239,0.00699999999778811
19,18,74811.1395912781,0.00699999999778811
19,19,4771561.78849172,0.00500000000465661
19,20,1256621.48042189,0.0049999999901047
19,21,2560679.22916658,0.00600000000849832
19,22,2334518.80652476,0.0049999999901047
19,23,102060.240942919,0.00600000000849832
19,24,2492531.90317014,0.00800000000162981
19,25,4153034.10155854,0.0049999999901047
19,26,3481647.93569911,0.00500000000465661
19,27,2414189.25630924,0.0059999999939464
19,28,549319.520028791,0.00400000000081491
19,29,2353797.80793294,0.00500000000465661
19,30,415825.241078849,0.00699999999778811
20,1,31402.3832683176,0.00400000000081491
20,2,2291796.68032832,0.00600000000849832
20,3,17877691.7941787,0.00699999999778811
20,4,5012756.33520339,0.00699999999778811
20,5,4875580.82573004,0.00699999999778811
20,6,29678983.499292,0.010999999998603
20,7,4099386.13242674,0.00999999999476131
20,8,7998930.07600816,0.0110000000131549
20,9,27150620.5871666,0.010999999998603
20,10,2255008.00778905,0.00699999999778811
20,11,2220325.12819523,0.00699999999778811
20,12,32460577.2092641,0.00999999999476131
20,13,1475462.91043898,0.00600000000849832
20,14,2190771.43051031,0.00699999999778811
20,15,1220689.55591755,0.0059999999939464
20,16,1880869.58719372,0.00600000000849832
20,17,6758855.74853958,0.0089999999909196
20,18,7148.18129223296,0.00500000000465661
20,19,7349166.53126372,0.00699999999778811
20,20,1973598.89152723,0.00800000000162981
20,21,9199029.7392695,0.0139999999955762
20,22,13230925.5598312,0.010999999998603
20,23,61.8388700270315,0.00600000000849832
20,24,2175151.37956034,0.0059999999939464
20,25,22202632.1900991,0.00699999999778811
20,26,3477535.81204886,0.0100000000093132
20,27,17116120.660539,0.0089999999909196
20,28,13293140.7108114,0.00900000000547152
20,29,2290258.73147067,0.00800000000162981
20,30,1842136.13645749,0.0059999999939464
21,1,863.256818494731,0.00400000000081491
21,2,7628336.45889673,0.0059999999939464
21,3,9080335.63121226,0.00600000000849832
21,4,0.0148235950572975,0.00400000000081491
21,5,11997402.9813004,0.0049999999901047
21,6,27909824.3366745,0.00800000000162981
21,7,13080098.4661573,0.00500000000465661
21,8,4975510.27186753,0.00500000000465661
21,9,13822827.8645003,0.0049999999901047
21,10,2385033.01967899,0.00600000000849832
21,11,3724955.03938449,0.00699999999778811
21,12,24947515.6889818,0.00800000000162981
21,13,5167836.82875523,0.0059999999939464
21,14,3589866.52815427,0.00500000000465661
21,15,2685601.28542952,0.00400000000081491
21,16,3609146.67422684,0.00699999999778811
21,17,5707716.74711262,0.010999999998603
21,18,34292.8933562189,0.00500000000465661
21,19,14080726.4752762,0.0059999999939464
21,20,1609866.14015266,0.00900000000547152
21,21,10028412.3120801,0.00500000000465661
21,22,5412255.49650035,0.0089999999909196
21,23,20091.4562916384,0.00500000000465661
21,24,3569643.65377516,0.00500000000465661
21,25,2785298.554478,0.00699999999778811
21,26,4708247.05567882,0.00699999999778811
21,27,14939264.4157723,0.0089999999909196
21,28,10139553.8364119,0.00600000000849832
21,29,2289719.67838756,0.00400000000081491
21,30,2894108.27664697,0.00699999999778811
22,1,21361.2645516969,0.0059999999939464
22,2,1777596.10750043,0.00800000000162981
22,3,2016277.59719725,0.00699999999778811
22,4,2035276.33245476,0.00600000000849832
22,5,2685043.91440692,0.00800000000162981
22,6,2363522.07218611,0.00999999999476131
22,7,3400617.31725875,0.00999999999476131
22,8,173170.283238159,0.00500000000465661
22,9,4321355.00137011,0.00699999999778811
22,10,1832562.41530556,0.0059999999939464
22,11,2545292.59218342,0.00800000000162981
22,12,4423410.04037927,0.00699999999778811
22,13,2335375.27505354,0.00600000000849832
22,14,1821671.11570508,0.00699999999778811
22,15,1464961.75720529,0.00699999999778811
22,16,3131577.51154978,0.0100000000093132
22,17,358030.339765935,0.0079999999870779
22,18,1338046.67166227,0.00900000000547152
22,19,4692649.28606099,0.00999999999476131
22,20,1290804.05172431,0.00700000001234002
22,21,2020126.36960782,0.010999999998603
22,22,4155584.90636908,0.00800000000162981
22,23,122551.58142052,0.0059999999939464
22,24,2296415.69940828,0.0059999999939464
22,25,2573730.56879372,0.00800000000162981
22,26,2331553.68937193,0.00699999999778811
22,27,7195766.51675961,0.00700000001234002
22,28,1673243.54801523,0.0059999999939464
22,29,2247327.38568453,0.0059999999939464
22,30,1850166.7672052,0.00700000001234002
23,1,92254.3905939835,0.0029999999969732
23,2,1073154.24449138,0.0059999999939464
23,3,27400095.3192025,0.00699999999778811
23,4,14806365.8044645,0.00500000000465661
23,5,6695781.61011432,0.00699999999778811
23,6,54051001.2461102,0.00900000000547152
23,7,5397358.92168033,0.00400000000081491
23,8,6325819.74494696,0.0049999999901047
23,9,16004034.738582,0.00500000000465661
23,10,3022413.73640085,0.00600000000849832
23,11,4808206.44779638,0.00399999998626299
23,12,4045323.6169288,0.00700000001234002
23,13,5338223.70819677,0.0049999999901047
23,14,5509834.13343911,0.00500000000465661
23,15,3398933.21906368,0.00500000000465661
23,16,2435129.69715449,0.0059999999939464
23,17,16501222.6613951,0.00800000000162981
23,18,736.622328844645,0.00500000000465661
23,19,7436225.88385768,0.00400000000081491
23,20,1305281.12489706,0.0059999999939464
23,21,6465907.74357702,0.00500000000465661
23,22,6386161.56732057,0.0059999999939464
23,23,23.174783536063,0.00900000000547152
23,24,4438058.10828698,0.00400000000081491
23,25,22487417.0033058,0.00800000000162981
23,26,5541854.26584521,0.0049999999901047
23,27,22651735.8980712,0.010999999998603
23,28,18344208.6145887,0.00600000000849832
23,29,4044655.15995375,0.0049999999901047
23,30,3853068.20330884,0.00600000000849832
24,1,74930.1129406484,0.00400000000081491
24,2,14610741.0146574,0.00699999999778811
24,3,12506012.2850531,0.00699999999778811
24,4,11134238.564253,0.00500000000465661
24,5,1261629.82236684,0.010999999998603
24,6,12244678.3756463,0.00800000000162981
24,7,14557328.5078633,0.0089999999909196
24,8,1255833.30995259,0.00500000000465661
24,9,24928375.8315447,0.010999999998603
24,10,1430838.61704278,0.00500000000465661
24,11,1669504.04490745,0.00699999999778811
24,12,40131559.76467,0.00900000000547152
24,13,1753601.84715788,0.0049999999901047
24,14,1357028.99922415,0.00600000000849832
24,15,1240012.0127145,0.0049999999901047
24,16,1492156.43072702,0.00500000000465661
24,17,13791329.6835054,0.00699999999778811
24,18,47986.6655018307,0.00600000000849832
24,19,12835852.7837764,0.00800000000162981
24,20,1342372.43383658,0.0059999999939464
24,21,9605113.58349527,0.00699999999778811
24,22,1241607.63771574,0.00600000000849832
24,23,33227.0675968213,0.00699999999778811
24,24,1294549.51972015,0.0049999999901047
24,25,1294824.44825237,0.00800000000162981
24,26,2364923.10100728,0.00500000000465661
24,27,5411829.09067419,0.00800000000162981
24,28,1347200.9816254,0.0059999999939464
24,29,1852527.54695996,0.00600000000849832
24,30,1.87127977503563,0.0049999999901047
25,1,38133.9681286025,0.00500000000465661
25,2,6519815.02859137,0.00800000000162981
25,3,13943090.9072461,0.00699999999778811
25,4,9797773.66687899,0.00800000000162981
25,5,21039331.2115557,0.00900000000547152
25,6,23402199.0786284,0.0079999999870779
25,7,23646447.8447674,0.0100000000093132
25,8,7788006.41961231,0.00800000000162981
25,9,3547571.36906742,0.0089999999909196
25,10,1889799.30097644,0.00800000000162981
25,11,1862963.70590482,0.00900000000547152
25,12,25035375.9656342,0.00800000000162981
25,13,2348283.24153389,0.00400000000081491
25,14,1829927.54616209,0.0049999999901047
25,15,2079664.29314525,0.00600000000849832
25,16,2402386.43449379,0.0059999999939464
25,17,7930803.95441118,0.00699999999778811
25,18,86951.1701466594,0.00699999999778811
25,19,6054198.1458448,0.00600000000849832
25,20,1088582.19767948,0.00500000000465661
25,21,3042674.68291897,0.0079999999870779
25,22,670083.062298332,0.00600000000849832
25,23,6349.57123700372,0.0059999999939464
25,24,1809379.6264584,0.00600000000849832
25,25,2869278.07137542,0.0059999999939464
25,26,2127666.94358144,0.00699999999778811
25,27,7971101.35218039,0.00900000000547152
25,28,13249307.9646697,0.00699999999778811
25,29,2810411.42266463,0.0059999999939464
25,30,1498042.93147303,0.00600000000849832
26,1,6124.17124212079,0.00400000000081491
26,2,4310874.18464212,0.00500000000465661
26,3,4483253.47138146,0.0049999999901047
26,4,1745729.95318527,0.00800000000162981
26,5,2781004.50400241,0.00699999999778811
26,6,9097598.1251517,0.00600000000849832
26,7,23002399.9826011,0.010999999998603
26,8,7119705.32121187,0.0089999999909196
26,9,6286005.74253703,0.00700000001234002
26,10,1686599.62347569,0.00399999998626299
26,11,1630477.33919902,0.00500000000465661
26,12,12541726.3725099,0.0059999999939464
26,13,1821852.5363971,0.00699999999778811
26,14,1606925.79840975,0.00500000000465661
26,15,1566022.52242071,0.00400000000081491
26,16,2043656.85436735,0.0059999999939464
26,17,4104680.36501378,0.00600000000849832
26,18,366920.062145583,0.00800000000162981
26,19,3561243.54798169,0.0059999999939464
26,20,1246389.64028417,0.00500000000465661
26,21,3067908.09713702,0.00800000000162981
26,22,2650423.02917737,0.0049999999901047
26,23,44929.0349407503,0.0130000000062864
26,24,1599860.40096904,0.00699999999778811
26,25,837592.221368327,0.00500000000465661
26,26,1331131.07961963,0.00699999999778811
26,27,852575.114832087,0.00400000000081491
26,28,819315.25797288,0.0059999999939464
26,29,2505602.67834945,0.00699999999778811
26,30,1340556.73084046,0.00500000000465661
27,1,8986.51876568226,0.00400000000081491
27,2,12201037.4106325,0.0059999999939464
27,3,14490958.2918742,0.00900000000547152
27,4,9759101.40272039,0.00800000000162981
27,5,19816823.3634257,0.00999999999476131
27,6,25441560.4347099,0.00900000000547152
27,7,36431578.5892408,0.010999999998603
27,8,4907458.03438157,0.010999999998603
27,9,37509823.6081527,0.010999999998603
27,10,1856176.46009789,0.0059999999939464
27,11,1888290.42813311,0.00600000000849832
27,12,2546331.41659395,0.00800000000162981
27,13,725697.037177401,0.0059999999939464
27,14,2834946.2497207,0.00800000000162981
27,15,2047429.48321092,0.00699999999778811
27,16,2397063.30630438,0.0059999999939464
27,17,9459935.21673508,0.00800000000162981
27,18,18013.2782630682,0.0059999999939464
27,19,25905254.6515813,0.00900000000547152
27,20,1595311.74682118,0.00500000000465661
27,21,23772063.0863266,0.0120000000024447
27,22,7304656.07664852,0.00800000000162981
27,23,1130.02267970915,0.00500000000465661
27,24,1858437.50034443,0.0059999999939464
27,25,38399170.5263992,0.0170000000071013
27,26,1057382.37623202,0.0049999999901047
27,27,14338153.2723295,0.0100000000093132
27,28,13253179.1209421,0.00800000000162981
27,29,3227434.46793406,0.0059999999939464
27,30,2304023.84254912,0.00800000000162981
28,1,51930.2730386977,0.00500000000465661
28,2,11092428.5191112,0.0059999999939464
28,3,18923413.4783143,0.00900000000547152
28,4,13988193.9555811,0.0089999999909196
28,5,21215408.7694331,0.0100000000093132
28,6,29078736.7806164,0.00999999999476131
28,7,20115102.5773417,0.0120000000024447
28,8,6532344.03912205,0.00800000000162981
28,9,13916719.8349185,0.0089999999909196
28,10,2142274.5339913,0.00700000001234002
28,11,750963.208968217,0.0089999999909196
28,12,30651398.2554264,0.00900000000547152
28,13,815764.637107531,0.00500000000465661
28,14,2060357.33774595,0.0059999999939464
28,15,657185.530058814,0.0059999999939464
28,16,1789559.06023908,0.00700000001234002
28,17,1984362.86236594,0.0079999999870779
28,18,22204.0336724803,0.00800000000162981
28,19,3819415.52891784,0.00699999999778811
28,20,1664307.7903363,0.00700000001234002
28,21,3488186.54532428,0.00699999999778811
28,22,660187.127802776,0.0059999999939464
28,23,89.2955705420886,0.00500000000465661
28,24,2050016.32268739,0.00800000000162981
28,25,12836928.3397694,0.00999999999476131
28,26,3230446.93889218,0.00900000000547152
28,27,10448570.1441762,0.00699999999778811
28,28,13579290.0019621,0.00800000000162981
28,29,3202749.87609072,0.00699999999778811
28,30,1687481.88765715,0.00699999999778811
29,1,5144.42127149911,0.0049999999901047
29,2,4356671.53660627,0.00400000000081491
29,3,9071936.5192365,0.00800000000162981
29,4,16540671.0968714,0.00800000000162981
29,5,11239592.4816322,0.010999999998603
29,6,52063955.8504927,0.0100000000093132
29,7,4351902.5603821,0.010999999998603
29,8,4703914.04087253,0.00699999999778811
29,9,72456075.9093708,0.010999999998603
29,10,2666616.56468432,0.00699999999778811
29,11,4249573.39545912,0.00900000000547152
29,12,8510635.15468717,0.0059999999939464
29,13,4603259.58392117,0.00800000000162981
29,14,4065557.27220187,0.0059999999939464
29,15,3911447.14775248,0.00700000001234002
29,16,3650704.53822684,0.0059999999939464
29,17,13740651.5327544,0.0059999999939464
29,18,9109.53535062387,0.00600000000849832
29,19,7002284.76142051,0.00699999999778811
29,20,1029286.40574784,0.00400000000081491
29,21,3588115.8087247,0.00699999999778811
29,22,17376444.9158653,0.00800000000162981
29,23,1516.69444871787,0.00800000000162981
29,24,4159630.98448407,0.0059999999939464
29,25,52424818.3902595,0.0100000000093132
29,26,2265912.16806992,0.00800000000162981
29,27,10516222.6975847,0.0079999999870779
29,28,7686192.78790988,0.00600000000849832
29,29,4826286.09883209,0.0059999999939464
29,30,1803736.24973017,0.00900000000547152
30,1,248904.442998788,0.00400000000081491
30,2,5308432.89673146,0.0059999999939464
30,3,7419205.88312819,0.00699999999778811
30,4,3214714.40602104,0.00600000000849832
30,5,5261777.39632634,0.0079999999870779
30,6,11831639.0176781,0.00600000000849832
30,7,1688130.00220788,0.00699999999778811
30,8,1655791.09792892,0.0059999999939464
30,9,1671526.62221726,0.00500000000465661
30,10,709834.458281129,0.00800000000162981
30,11,1350926.90907925,0.00699999999778811
30,12,11316712.1441562,0.00900000000547152
30,13,1313122.63609342,0.0059999999939464
30,14,1131733.65023371,0.00699999999778811
30,15,759197.014020949,0.00900000000547152
30,16,908421.75409133,0.00699999999778811
30,17,4450409.39944311,0.00699999999778811
30,18,427529.257937526,0.00500000000465661
30,19,2494256.06714444,0.0059999999939464
30,20,465012.375631566,0.00700000001234002
30,21,1073504.55923896,0.0049999999901047
30,22,685964.819272272,0.00699999999778811
30,23,143566.927852234,0.00500000000465661
30,24,1097954.06635469,0.0059999999939464
30,25,5404108.32704757,0.00600000000849832
30,26,1125033.41955071,0.00500000000465661
30,27,3340105.31174266,0.0049999999901047
30,28,4682304.13464862,0.0059999999939464
30,29,789110.836318022,0.00600000000849832
30,30,705815.013839112,0.00699999999778811
