"Before.Trace.ID1","Before.Trace.ID2","Difference","Runtime"
1,2,1749,0.231999999989057
1,3,1749,0.311000000001513
1,4,1749,0.297999999995227
1,5,1749,0.309999999997672
1,6,1749,0.314000000013039
1,7,1749,0.309999999997672
1,8,1749,0.315000000002328
1,9,1749,0.287999999985914
1,10,1749,0.309000000008382
1,11,1749,0.309999999997672
1,12,1748,0.313999999998487
1,13,1749,0.311000000001513
1,14,1749,0.312999999994645
1,15,1749,0.311000000001513
1,16,1748,0.311000000001513
1,17,1748,0.309999999997672
1,18,1749,0.313999999998487
1,19,1749,0.310000000012224
1,20,1749,0.314999999987776
1,21,1749,0.310000000012224
1,22,1749,0.313999999998487
1,23,1747,0.288000000000466
1,24,1749,0.30899999999383
1,25,1749,0.311000000001513
1,26,1749,0.312999999994645
1,27,1749,0.311000000001513
1,28,1749,0.313999999998487
1,29,1749,0.310000000012224
1,30,1749,0.310999999986961
2,3,1746,0.310000000012224
2,4,1747,0.313999999998487
2,5,1748,0.309999999997672
2,6,1746,0.313999999998487
2,7,1749,0.309999999997672
2,8,1748,0.313999999998487
2,9,1747,0.288000000000466
2,10,1747,0.30800000000454
2,11,1749,0.310000000012224
2,12,1747,0.313999999998487
2,13,1744,0.309999999997672
2,14,1741,0.313999999998487
2,15,1746,0.309999999997672
2,16,1748,0.309999999997672
2,17,1746,0.309999999997672
2,18,1748,0.313999999998487
2,19,1749,0.309999999997672
2,20,1740,0.312999999994645
2,21,1746,0.311000000001513
2,22,1746,0.313999999998487
2,23,1748,0.288000000000466
2,24,1742,0.30800000000454
2,25,1739,0.311000000001513
2,26,1747,0.313999999998487
2,27,1748,0.311000000001513
2,28,1742,0.312999999994645
2,29,1745,0.309999999997672
2,30,1749,0.311000000001513
3,4,1741,0.311000000001513
3,5,1747,0.315000000002328
3,6,1745,0.309999999997672
3,7,1748,0.313999999998487
3,8,1743,0.309999999997672
3,9,1749,0.313999999998487
3,10,1743,0.289000000004307
3,11,1746,0.309000000008382
3,12,1744,0.309999999997672
3,13,1749,0.313999999998487
3,14,1746,0.311000000001513
3,15,1746,0.312999999994645
3,16,1747,0.311000000001513
3,17,1748,0.309999999997672
3,18,1749,0.309999999997672
3,19,1749,0.313999999998487
3,20,1731,0.309999999997672
3,21,1749,0.313999999998487
3,22,1749,0.310000000012224
3,23,1748,0.313999999998487
3,24,1745,0.288000000000466
3,25,1747,0.309000000008382
3,26,1748,0.309999999997672
3,27,1745,0.315000000002328
3,28,1739,0.309999999997672
3,29,1744,0.312999999994645
3,30,1749,0.311000000001513
4,5,1748,0.311000000001513
4,6,1747,0.309999999997672
4,7,1747,0.313999999998487
4,8,1749,0.309999999997672
4,9,1747,0.315000000002328
4,10,1749,0.309999999997672
4,11,1747,0.313999999998487
4,12,1747,0.288000000000466
4,13,1749,0.309000000008382
4,14,1749,0.311000000001513
4,15,1749,0.312999999994645
4,16,1748,0.311000000001513
4,17,1749,0.313999999998487
4,18,1748,0.309999999997672
4,19,1749,0.311000000001513
4,20,1740,0.309999999997672
4,21,1740,0.315000000002328
4,22,1748,0.309999999997672
4,23,1747,0.313999999998487
4,24,1747,0.310000000012224
4,25,1741,0.313999999998487
4,26,1745,0.288000000000466
4,27,1748,0.307999999989988
4,28,1748,0.311000000001513
4,29,1747,0.313000000009197
4,30,1749,0.310999999986961
5,6,1749,0.313000000009197
5,7,1749,0.309999999997672
5,8,1745,0.309999999997672
5,9,1749,0.309999999997672
5,10,1749,0.313999999998487
5,11,1745,0.311000000001513
5,12,1749,0.313999999998487
5,13,1743,0.311000000001513
5,14,1746,0.313999999998487
5,15,1749,0.288000000000466
5,16,1746,0.309999999997672
5,17,1746,0.311000000001513
5,18,1747,0.312999999994645
5,19,1747,0.309999999997672
5,20,1748,0.312999999994645
5,21,1749,0.311000000001513
5,22,1745,0.311000000001513
5,23,1748,0.309999999997672
5,24,1749,0.315000000002328
5,25,1741,0.309999999997672
5,26,1749,0.313999999998487
5,27,1741,0.310000000012224
5,28,1738,0.313999999998487
5,29,1747,0.288000000000466
5,30,1747,0.30800000000454
6,7,1748,0.311000000001513
6,8,1747,0.313999999998487
6,9,1748,0.311000000001513
6,10,1743,0.312999999994645
6,11,1747,0.309999999997672
6,12,1744,0.309999999997672
6,13,1748,0.309999999997672
6,14,1747,0.313999999998487
6,15,1748,0.309999999997672
6,16,1749,0.314000000013039
6,17,1746,0.309999999997672
6,18,1748,0.313999999998487
6,19,1746,0.288000000000466
6,20,1745,0.30899999999383
6,21,1748,0.311000000001513
6,22,1744,0.312999999994645
6,23,1748,0.311000000001513
6,24,1749,0.313000000009197
6,25,1747,0.309999999997672
6,26,1749,0.310000000012224
6,27,1748,0.309999999997672
6,28,1747,0.314000000013039
6,29,1743,0.309999999997672
6,30,1746,0.313999999998487
7,8,1746,0.309999999997672
7,9,1746,0.313999999998487
7,10,1747,0.288000000000466
7,11,1746,0.30899999999383
7,12,1748,0.310000000012224
7,13,1748,0.313999999998487
7,14,1748,0.311000000001513
7,15,1749,0.312999999994645
7,16,1749,0.311000000001513
7,17,1749,0.311000000001513
7,18,1749,0.309999999997672
7,19,1748,0.313999999998487
7,20,1749,0.309999999997672
7,21,1749,0.313999999998487
7,22,1749,0.309999999997672
7,23,1747,0.314000000013039
7,24,1749,0.288000000000466
7,25,1749,0.30899999999383
7,26,1748,0.311000000001513
7,27,1747,0.313999999998487
7,28,1749,0.311000000001513
7,29,1749,0.313999999998487
7,30,1745,0.309999999997672
8,9,1746,0.311000000001513
8,10,1742,0.309999999997672
8,11,1744,0.315000000002328
8,12,1748,0.309999999997672
8,13,1749,0.313999999998487
8,14,1749,0.309999999997672
8,15,1747,0.314000000013039
8,16,1748,0.288000000000466
8,17,1743,0.309000000008382
8,18,1748,0.309999999997672
8,19,1749,0.312999999994645
8,20,1737,0.311000000001513
8,21,1746,0.313999999998487
8,22,1738,0.309999999997672
8,23,1749,0.309999999997672
8,24,1744,0.309999999997672
8,25,1746,0.313000000009197
8,26,1743,0.309999999997672
8,27,1747,0.314000000013039
8,28,1748,0.309999999997672
8,29,1743,0.313999999998487
8,30,1749,0.288000000000466
9,10,1748,0.30899999999383
9,11,1748,0.309999999997672
9,12,1749,0.313999999998487
9,13,1747,0.311000000001513
9,14,1749,0.313000000009197
9,15,1748,0.311999999990803
9,16,1749,0.310000000012224
9,17,1749,0.309999999997672
9,18,1749,0.313999999998487
9,19,1744,0.309999999997672
9,20,1748,0.312999999994645
9,21,1747,0.30899999999383
9,22,1749,0.313999999998487
9,23,1749,0.288000000000466
9,24,1749,0.30800000000454
9,25,1749,0.311000000001513
9,26,1745,0.312999999994645
9,27,1749,0.309999999997672
9,28,1749,0.313999999998487
9,29,1749,0.311000000001513
9,30,1749,0.309999999997672
10,11,1743,0.309999999997672
10,12,1748,0.314000000013039
10,13,1748,0.309999999997672
10,14,1742,0.313999999998487
10,15,1746,0.309999999997672
10,16,1749,0.313999999998487
10,17,1748,0.288000000000466
10,18,1749,0.30899999999383
10,19,1744,0.310000000012224
10,20,1745,0.313999999998487
10,21,1747,0.309999999997672
10,22,1742,0.312999999994645
10,23,1749,0.311000000001513
10,24,1746,0.309999999997672
10,25,1747,0.309999999997672
10,26,1745,0.313999999998487
10,27,1749,0.309999999997672
10,28,1747,0.314000000013039
10,29,1747,0.309999999997672
10,30,1749,0.313999999998487
11,12,1745,0.288000000000466
11,13,1748,0.30899999999383
11,14,1745,0.309999999997672
11,15,1743,0.314000000013039
11,16,1742,0.309999999997672
11,17,1747,0.312999999994645
11,18,1749,0.309999999997672
11,19,1749,0.311000000001513
11,20,1740,0.30899999999383
11,21,1745,0.312999999994645
11,22,1746,0.310000000012224
11,23,1749,0.313999999998487
11,24,1743,0.309999999997672
11,25,1744,0.313999999998487
11,26,1742,0.288000000000466
11,27,1741,0.30899999999383
11,28,1745,0.309999999997672
11,29,1742,0.314000000013039
11,30,1748,0.309999999997672
12,13,1748,0.313999999998487
12,14,1749,0.309999999997672
12,15,1748,0.309999999997672
12,16,1748,0.30899999999383
12,17,1749,0.313999999998487
12,18,1749,0.310000000012224
12,19,1749,0.313999999998487
12,20,1748,0.309999999997672
12,21,1749,0.313999999998487
12,22,1749,0.288000000000466
12,23,1747,0.307999999989988
12,24,1749,0.309999999997672
12,25,1749,0.314000000013039
12,26,1748,0.309999999997672
12,27,1749,0.313000000009197
12,28,1748,0.309999999997672
12,29,1749,0.311000000001513
12,30,1749,0.309999999997672
13,14,1745,0.313999999998487
13,15,1748,0.309999999997672
13,16,1748,0.313999999998487
13,17,1747,0.310000000012224
13,18,1749,0.313999999998487
13,19,1748,0.288000000000466
13,20,1748,0.30899999999383
13,21,1748,0.309999999997672
13,22,1742,0.312999999994645
13,23,1748,0.310000000012224
13,24,1745,0.313000000009197
13,25,1748,0.309999999997672
13,26,1748,0.311000000001513
13,27,1743,0.30899999999383
13,28,1749,0.313999999998487
13,29,1747,0.309999999997672
13,30,1748,0.312999999994645
14,15,1748,0.310000000012224
14,16,1749,0.313999999998487
14,17,1747,0.287000000011176
14,18,1749,0.30800000000454
14,19,1748,0.311000000001513
14,20,1747,0.312999999994645
14,21,1746,0.309999999997672
14,22,1747,0.313000000009197
14,23,1749,0.310000000012224
14,24,1747,0.309999999997672
14,25,1746,0.309999999997672
14,26,1745,0.313999999998487
14,27,1748,0.311000000001513
14,28,1748,0.313999999998487
14,29,1748,0.309999999997672
14,30,1749,0.315000000002328
15,16,1745,0.288000000000466
15,17,1748,0.30899999999383
15,18,1749,0.310000000012224
15,19,1749,0.313000000009197
15,20,1742,0.309999999997672
15,21,1748,0.312999999994645
15,22,1749,0.309999999997672
15,23,1748,0.309999999997672
15,24,1747,0.309999999997672
15,25,1748,0.313999999998487
15,26,1748,0.309999999997672
15,27,1745,0.313999999998487
15,28,1749,0.309000000008382
15,29,1749,0.312999999994645
15,30,1747,0.288000000000466
16,17,1747,0.307999999989988
16,18,1746,0.311000000001513
16,19,1749,0.313000000009197
16,20,1748,0.309999999997672
16,21,1749,0.312999999994645
16,22,1744,0.311000000001513
16,23,1747,0.309999999997672
16,24,1748,0.309999999997672
16,25,1742,0.313999999998487
16,26,1749,0.309999999997672
16,27,1747,0.312999999994645
16,28,1748,0.310000000012224
16,29,1747,0.313999999998487
16,30,1739,0.288000000000466
17,18,1748,0.30800000000454
17,19,1749,0.311000000001513
17,20,1748,0.312999999994645
17,21,1749,0.310000000012224
17,22,1747,0.313000000009197
17,23,1747,0.311000000001513
17,24,1746,0.309999999997672
17,25,1740,0.309999999997672
17,26,1749,0.313999999998487
17,27,1731,0.309999999997672
17,28,1743,0.313999999998487
17,29,1748,0.311000000001513
17,30,1749,0.313000000009197
18,19,1749,0.286999999996624
18,20,1746,0.30800000000454
18,21,1749,0.309999999997672
18,22,1749,0.313999999998487
18,23,1746,0.309999999997672
18,24,1749,0.312999999994645
18,25,1746,0.310000000012224
18,26,1749,0.311000000001513
18,27,1748,0.309999999997672
18,28,1745,0.312999999994645
18,29,1748,0.30899999999383
18,30,1749,0.313999999998487
19,20,1747,0.309999999997672
19,21,1749,0.313999999998487
19,22,1746,0.288000000000466
19,23,1748,0.309000000008382
19,24,1749,0.311000000001513
19,25,1745,0.312999999994645
19,26,1748,0.311000000001513
19,27,1748,0.313999999998487
19,28,1746,0.309999999997672
19,29,1747,0.309999999997672
19,30,1749,0.311000000001513
20,21,1746,0.313999999998487
20,22,1746,0.309999999997672
20,23,1747,0.313999999998487
20,24,1747,0.309999999997672
20,25,1747,0.314000000013039
20,26,1744,0.288000000000466
20,27,1749,0.30899999999383
20,28,1743,0.309999999997672
20,29,1747,0.312999999994645
20,30,1749,0.309999999997672
21,22,1749,0.313999999998487
21,23,1749,0.310000000012224
21,24,1749,0.309999999997672
21,25,1749,0.311000000001513
21,26,1747,0.312999999994645
21,27,1747,0.30899999999383
21,28,1748,0.313999999998487
21,29,1747,0.309999999997672
21,30,1748,0.314000000013039
22,23,1748,0.288999999989755
22,24,1744,0.30800000000454
22,25,1738,0.309999999997672
22,26,1749,0.312999999994645
22,27,1737,0.309999999997672
22,28,1748,0.312999999994645
22,29,1744,0.311000000001513
22,30,1746,0.310000000012224
23,24,1748,0.309999999997672
23,25,1747,0.313999999998487
23,26,1748,0.309999999997672
23,27,1748,0.313999999998487
23,28,1747,0.309999999997672
23,29,1749,0.313999999998487
23,30,1749,0.288000000000466
24,25,1747,0.30800000000454
24,26,1748,0.309999999997672
24,27,1736,0.312999999994645
24,28,1747,0.311000000001513
24,29,1744,0.313000000009197
24,30,1749,0.310999999986961
25,26,1749,0.310000000012224
25,27,1733,0.309999999997672
25,28,1738,0.313999999998487
25,29,1749,0.309999999997672
25,30,1747,0.313999999998487
26,27,1747,0.309999999997672
26,28,1749,0.313999999998487
26,29,1746,0.288000000000466
26,30,1749,0.30800000000454
27,28,1743,0.311000000001513
27,29,1745,0.312999999994645
27,30,1747,0.309999999997672
28,29,1748,0.313999999998487
28,30,1749,0.309999999997672
29,30,1749,0.311000000001513


"After.Trace.ID","Before.Trace.ID","Difference","Runtime"
1,1,1749,0.315000000002328
1,2,1748,0.313999999998487
1,3,1745,0.309999999997672
1,4,1748,0.313000000009197
1,5,1749,0.309999999997672
1,6,1749,0.311000000001513
1,7,1749,0.309999999997672
1,8,1749,0.313999999998487
1,9,1747,0.30899999999383
1,10,1748,0.312999999994645
1,11,1749,0.309000000008382
1,12,1749,0.312999999994645
1,13,1749,0.288000000000466
1,14,1748,0.30800000000454
1,15,1748,0.309999999997672
1,16,1749,0.312999999994645
1,17,1748,0.309999999997672
1,18,1749,0.312999999994645
1,19,1749,0.310000000012224
1,20,1749,0.309999999997672
1,21,1748,0.309999999997672
1,22,1749,0.312999999994645
1,23,1746,0.309999999997672
1,24,1749,0.314000000013039
1,25,1748,0.30899999999383
1,26,1748,0.313999999998487
1,27,1748,0.288000000000466
1,28,1748,0.30800000000454
1,29,1749,0.310000000012224
1,30,1748,0.312999999994645
2,1,1749,0.309999999997672
2,2,1748,0.313000000009197
2,3,1744,0.309999999997672
2,4,1748,0.310000000012224
2,5,1748,0.30899999999383
2,6,1749,0.312999999994645
2,7,1749,0.309999999997672
2,8,1749,0.313000000009197
2,9,1749,0.309999999997672
2,10,1748,0.313999999998487
2,11,1748,0.288000000000466
2,12,1749,0.30800000000454
2,13,1747,0.309999999997672
2,14,1748,0.312999999994645
2,15,1746,0.311000000001513
2,16,1748,0.312999999994645
2,17,1747,0.309999999997672
2,18,1748,0.310000000012224
2,19,1747,0.309999999997672
2,20,1746,0.313999999998487
2,21,1748,0.30899999999383
2,22,1748,0.313999999998487
2,23,1746,0.309000000008382
2,24,1749,0.313999999998487
2,25,1747,0.288000000000466
2,26,1749,0.30800000000454
2,27,1747,0.309999999997672
2,28,1748,0.313999999998487
2,29,1749,0.30899999999383
2,30,1749,0.312999999994645
3,1,1749,0.310000000012224
3,2,1748,0.309999999997672
3,3,1748,0.30899999999383
3,4,1749,0.312999999994645
3,5,1749,0.311000000001513
3,6,1749,0.313999999998487
3,7,1749,0.309000000008382
3,8,1748,0.313999999998487
3,9,1749,0.289999999993597
3,10,1749,0.30800000000454
3,11,1747,0.309999999997672
3,12,1749,0.313999999998487
3,13,1748,0.309999999997672
3,14,1749,0.313000000009197
3,15,1749,0.309999999997672
3,16,1747,0.309999999997672
3,17,1748,0.309999999997672
3,18,1748,0.313000000009197
3,19,1747,0.309999999997672
3,20,1749,0.312999999994645
3,21,1749,0.309999999997672
3,22,1748,0.313999999998487
3,23,1749,0.288000000000466
3,24,1749,0.30800000000454
3,25,1746,0.309999999997672
3,26,1748,0.313000000009197
3,27,1749,0.309999999997672
3,28,1745,0.313999999998487
3,29,1748,0.309999999997672
3,30,1743,0.309999999997672
4,1,1749,0.309999999997672
4,2,1748,0.313000000009197
4,3,1748,0.309999999997672
4,4,1746,0.312999999994645
4,5,1748,0.309999999997672
4,6,1749,0.313000000009197
4,7,1749,0.288000000000466
4,8,1748,0.307999999989988
4,9,1749,0.310000000012224
4,10,1748,0.312999999994645
4,11,1748,0.309999999997672
4,12,1749,0.312999999994645
4,13,1749,0.311000000001513
4,14,1745,0.309999999997672
4,15,1749,0.309000000008382
4,16,1748,0.313999999998487
4,17,1746,0.309999999997672
4,18,1749,0.313000000009197
4,19,1748,0.309999999997672
4,20,1748,0.313999999998487
4,21,1749,0.286999999996624
4,22,1749,0.307000000000698
4,23,1749,0.310000000012224
4,24,1748,0.312999999994645
4,25,1749,0.309999999997672
4,26,1749,0.313000000009197
4,27,1749,0.309999999997672
4,28,1748,0.309999999997672
4,29,1749,0.309999999997672
4,30,1749,0.312999999994645
5,1,1749,0.310000000012224
5,2,1749,0.312999999994645
5,3,1749,0.309999999997672
5,4,1749,0.312999999994645
5,5,1748,0.288000000000466
5,6,1749,0.309000000008382
5,7,1748,0.309999999997672
5,8,1749,0.312999999994645
5,9,1748,0.311000000001513
5,10,1747,0.313000000009197
5,11,1747,0.309999999997672
5,12,1749,0.311000000001513
5,13,1749,0.309999999997672
5,14,1749,0.312999999994645
5,15,1748,0.30899999999383
5,16,1749,0.315000000002328
5,17,1749,0.309000000008382
5,18,1749,0.313999999998487
5,19,1749,0.288000000000466
5,20,1749,0.30899999999383
5,21,1745,0.309999999997672
5,22,1749,0.313999999998487
5,23,1747,0.310000000012224
5,24,1749,0.313000000009197
5,25,1749,0.309999999997672
5,26,1749,0.311000000001513
5,27,1749,0.309999999997672
5,28,1749,0.313999999998487
5,29,1749,0.30899999999383
5,30,1749,0.312999999994645
6,1,1749,0.310000000012224
6,2,1747,0.313000000009197
6,3,1748,0.288000000000466
6,4,1747,0.30899999999383
6,5,1749,0.309999999997672
6,6,1748,0.313999999998487
6,7,1749,0.310000000012224
6,8,1749,0.313999999998487
6,9,1749,0.309999999997672
6,10,1747,0.309999999997672
6,11,1748,0.309999999997672
6,12,1748,0.313999999998487
6,13,1749,0.309999999997672
6,14,1745,0.313000000009197
6,15,1749,0.309999999997672
6,16,1749,0.313999999998487
6,17,1746,0.288000000000466
6,18,1748,0.30899999999383
6,19,1749,0.310000000012224
6,20,1749,0.312999999994645
6,21,1749,0.311000000001513
6,22,1749,0.312999999994645
6,23,1744,0.309999999997672
6,24,1749,0.311000000001513
6,25,1748,0.309000000008382
6,26,1749,0.313000000009197
6,27,1749,0.309999999997672
6,28,1749,0.313999999998487
6,29,1747,0.30899999999383
6,30,1749,0.314000000013039
7,1,1749,0.288999999989755
7,2,1749,0.30800000000454
7,3,1749,0.309999999997672
7,4,1749,0.313999999998487
7,5,1748,0.309999999997672
7,6,1749,0.313000000009197
7,7,1749,0.311000000001513
7,8,1748,0.309999999997672
7,9,1749,0.309999999997672
7,10,1749,0.313999999998487
7,11,1749,0.309000000008382
7,12,1745,0.313999999998487
7,13,1747,0.309999999997672
7,14,1748,0.313999999998487
7,15,1749,0.288000000000466
7,16,1748,0.30800000000454
7,17,1748,0.310999999986961
7,18,1749,0.313000000009197
7,19,1748,0.309999999997672
7,20,1749,0.313999999998487
7,21,1749,0.309999999997672
7,22,1749,0.309999999997672
7,23,1748,0.310000000012224
7,24,1748,0.313000000009197
7,25,1747,0.309999999997672
7,26,1748,0.313999999998487
7,27,1748,0.309999999997672
7,28,1748,0.312999999994645
7,29,1748,0.286999999996624
7,30,1749,0.30800000000454
8,1,1749,0.309999999997672
8,2,1746,0.312999999994645
8,3,1748,0.309999999997672
8,4,1748,0.313000000009197
8,5,1749,0.311000000001513
8,6,1749,0.309999999997672
8,7,1749,0.309999999997672
8,8,1748,0.313999999998487
8,9,1748,0.309999999997672
8,10,1748,0.312999999994645
8,11,1748,0.310000000012224
8,12,1749,0.313999999998487
8,13,1748,0.288000000000466
8,14,1747,0.307999999989988
8,15,1748,0.309999999997672
8,16,1749,0.313000000009197
8,17,1749,0.309999999997672
8,18,1748,0.312999999994645
8,19,1749,0.309999999997672
8,20,1744,0.309999999997672
8,21,1748,0.30899999999383
8,22,1749,0.314000000013039
8,23,1745,0.309999999997672
8,24,1749,0.313999999998487
8,25,1749,0.30899999999383
8,26,1749,0.312999999994645
8,27,1748,0.286999999996624
8,28,1749,0.30800000000454
8,29,1748,0.309999999997672
8,30,1749,0.31699999999546
9,1,1749,0.309999999997672
9,2,1749,0.313000000009197
9,3,1749,0.310000000012224
9,4,1749,0.309999999997672
9,5,1749,0.309999999997672
9,6,1749,0.313999999998487
9,7,1748,0.309999999997672
9,8,1749,0.313999999998487
9,9,1749,0.309000000008382
9,10,1749,0.313000000009197
9,11,1749,0.288000000000466
9,12,1749,0.307999999989988
9,13,1749,0.309999999997672
9,14,1749,0.313000000009197
9,15,1749,0.311000000001513
9,16,1748,0.312999999994645
9,17,1749,0.311000000001513
9,18,1746,0.309999999997672
9,19,1748,0.309999999997672
9,20,1749,0.313999999998487
9,21,1748,0.309999999997672
9,22,1749,0.314000000013039
9,23,1749,0.309999999997672
9,24,1749,0.313000000009197
9,25,1749,0.288000000000466
9,26,1749,0.307999999989988
9,27,1748,0.309999999997672
9,28,1749,0.313000000009197
9,29,1749,0.309999999997672
9,30,1749,0.313999999998487
10,1,1749,0.309999999997672
10,2,1749,0.309999999997672
10,3,1747,0.30899999999383
10,4,1749,0.313999999998487
10,5,1748,0.310000000012224
10,6,1749,0.312999999994645
10,7,1748,0.30899999999383
10,8,1749,0.313999999998487
10,9,1749,0.288000000000466
10,10,1749,0.30800000000454
10,11,1748,0.309999999997672
10,12,1749,0.313999999998487
10,13,1749,0.309999999997672
10,14,1749,0.312999999994645
10,15,1749,0.311000000001513
10,16,1748,0.309999999997672
10,17,1747,0.310000000012224
10,18,1745,0.313999999998487
10,19,1749,0.309999999997672
10,20,1749,0.312999999994645
10,21,1748,0.30899999999383
10,22,1749,0.312999999994645
10,23,1748,0.288000000000466
10,24,1748,0.30800000000454
10,25,1748,0.309999999997672
10,26,1747,0.312999999994645
10,27,1749,0.310000000012224
10,28,1749,0.312999999994645
10,29,1749,0.30899999999383
10,30,1749,0.309999999997672
11,1,1749,0.30899999999383
11,2,1748,0.313999999998487
11,3,1748,0.310000000012224
11,4,1747,0.313999999998487
11,5,1749,0.30899999999383
11,6,1748,0.313999999998487
11,7,1749,0.286999999996624
11,8,1747,0.30800000000454
11,9,1748,0.311000000001513
11,10,1749,0.312999999994645
11,11,1747,0.310000000012224
11,12,1748,0.312999999994645
11,13,1747,0.309999999997672
11,14,1749,0.309999999997672
11,15,1748,0.309000000008382
11,16,1748,0.313999999998487
11,17,1748,0.30899999999383
11,18,1748,0.313999999998487
11,19,1747,0.309000000008382
11,20,1749,0.313999999998487
11,21,1749,0.288000000000466
11,22,1749,0.30800000000454
11,23,1749,0.309999999997672
11,24,1747,0.313999999998487
11,25,1749,0.309999999997672
11,26,1748,0.312999999994645
11,27,1747,0.309999999997672
11,28,1749,0.311000000001513
11,29,1749,0.310000000012224
11,30,1748,0.313999999998487
12,1,1749,0.30899999999383
12,2,1748,0.312999999994645
12,3,1749,0.309999999997672
12,4,1749,0.313000000009197
12,5,1749,0.287000000011176
12,6,1747,0.307999999989988
12,7,1749,0.310000000012224
12,8,1749,0.312999999994645
12,9,1748,0.309999999997672
12,10,1749,0.311999999990803
12,11,1749,0.309000000008382
12,12,1749,0.309000000008382
12,13,1749,0.309000000008382
12,14,1749,0.312999999994645
12,15,1749,0.30899999999383
12,16,1749,0.313000000009197
12,17,1749,0.30899999999383
12,18,1749,0.313999999998487
12,19,1749,0.288000000000466
12,20,1749,0.30800000000454
12,21,1749,0.309999999997672
12,22,1749,0.312999999994645
12,23,1749,0.309999999997672
12,24,1749,0.313000000009197
12,25,1749,0.309999999997672
12,26,1749,0.309999999997672
12,27,1749,0.309999999997672
12,28,1749,0.313999999998487
12,29,1749,0.309000000008382
12,30,1749,0.312999999994645
13,1,1749,0.30899999999383
13,2,1748,0.313999999998487
13,3,1745,0.287000000011176
13,4,1749,0.30800000000454
13,5,1749,0.30899999999383
13,6,1745,0.312000000005355
13,7,1749,0.30899999999383
13,8,1749,0.312999999994645
13,9,1749,0.309000000008382
13,10,1749,0.309000000008382
13,11,1749,0.309000000008382
13,12,1749,0.313999999998487
13,13,1749,0.309999999997672
13,14,1749,0.313999999998487
13,15,1748,0.309999999997672
13,16,1748,0.313000000009197
13,17,1748,0.288000000000466
13,18,1747,0.307999999989988
13,19,1749,0.311000000001513
13,20,1749,0.313000000009197
13,21,1749,0.309999999997672
13,22,1749,0.312999999994645
13,23,1745,0.309999999997672
13,24,1749,0.310000000012224
13,25,1748,0.309999999997672
13,26,1748,0.312999999994645
13,27,1749,0.30899999999383
13,28,1745,0.313999999998487
13,29,1749,0.309999999997672
13,30,1749,0.313000000009197
14,1,1748,0.288000000000466
14,2,1749,0.307000000000698
14,3,1749,0.309999999997672
14,4,1747,0.313000000009197
14,5,1746,0.309999999997672
14,6,1748,0.312999999994645
14,7,1747,0.309999999997672
14,8,1749,0.310000000012224
14,9,1749,0.309999999997672
14,10,1749,0.313999999998487
14,11,1749,0.30899999999383
14,12,1749,0.313999999998487
14,13,1749,0.309000000008382
14,14,1749,0.312999999994645
14,15,1749,0.288000000000466
14,16,1748,0.30800000000454
14,17,1747,0.309999999997672
14,18,1746,0.312999999994645
14,19,1747,0.309999999997672
14,20,1747,0.313000000009197
14,21,1749,0.310000000012224
14,22,1748,0.309999999997672
14,23,1748,0.30899999999383
14,24,1749,0.313999999998487
14,25,1749,0.309999999997672
14,26,1748,0.313000000009197
14,27,1747,0.309999999997672
14,28,1745,0.312999999994645
14,29,1748,0.286999999996624
14,30,1748,0.30800000000454
15,1,1749,0.309999999997672
15,2,1749,0.311999999990803
15,3,1748,0.309999999997672
15,4,1748,0.312000000005355
15,5,1749,0.309999999997672
15,6,1749,0.311000000001513
15,7,1749,0.309999999997672
15,8,1749,0.312999999994645
15,9,1741,0.309999999997672
15,10,1749,0.313000000009197
15,11,1749,0.30899999999383
15,12,1748,0.313999999998487
15,13,1749,0.288000000000466
15,14,1749,0.30800000000454
15,15,1747,0.309999999997672
15,16,1749,0.312999999994645
15,17,1748,0.311000000001513
15,18,1746,0.313000000009197
15,19,1749,0.30899999999383
15,20,1749,0.309999999997672
15,21,1749,0.30899999999383
15,22,1749,0.313999999998487
15,23,1744,0.310000000012224
15,24,1749,0.312999999994645
15,25,1749,0.309999999997672
15,26,1749,0.312999999994645
15,27,1748,0.288000000000466
15,28,1749,0.30800000000454
15,29,1749,0.309999999997672
15,30,1749,0.312000000005355
16,1,1749,0.309999999997672
16,2,1747,0.312999999994645
16,3,1748,0.309999999997672
16,4,1749,0.309999999997672
16,5,1748,0.310000000012224
16,6,1749,0.312999999994645
16,7,1749,0.311000000001513
16,8,1749,0.313999999998487
16,9,1749,0.30899999999383
16,10,1748,0.313999999998487
16,11,1749,0.287000000011176
16,12,1749,0.30800000000454
16,13,1749,0.309999999997672
16,14,1745,0.312999999994645
16,15,1749,0.310000000012224
16,16,1747,0.312999999994645
16,17,1747,0.309999999997672
16,18,1748,0.309999999997672
16,19,1749,0.309000000008382
16,20,1748,0.312999999994645
16,21,1748,0.30899999999383
16,22,1747,0.313999999998487
16,23,1747,0.310000000012224
16,24,1749,0.312999999994645
16,25,1749,0.288000000000466
16,26,1748,0.30800000000454
16,27,1747,0.309999999997672
16,28,1748,0.312999999994645
16,29,1749,0.309999999997672
16,30,1748,0.312999999994645
17,1,1748,0.310000000012224
17,2,1749,0.309999999997672
17,3,1749,0.30899999999383
17,4,1749,0.313999999998487
17,5,1749,0.309000000008382
17,6,1748,0.312999999994645
17,7,1749,0.30899999999383
17,8,1749,0.319000000003143
17,9,1749,0.288000000000466
17,10,1749,0.30899999999383
17,11,1748,0.309999999997672
17,12,1749,0.313000000009197
17,13,1749,0.310999999986961
17,14,1749,0.314000000013039
17,15,1749,0.309999999997672
17,16,1749,0.311000000001513
17,17,1749,0.309999999997672
17,18,1748,0.313999999998487
17,19,1749,0.309999999997672
17,20,1746,0.313999999998487
17,21,1748,0.309999999997672
17,22,1749,0.313999999998487
17,23,1749,0.288000000000466
17,24,1749,0.309000000008382
17,25,1749,0.310999999986961
17,26,1748,0.314000000013039
17,27,1749,0.309999999997672
17,28,1749,0.313999999998487
17,29,1749,0.309999999997672
17,30,1749,0.309999999997672
18,1,1749,0.309999999997672
18,2,1749,0.313999999998487
18,3,1743,0.309999999997672
18,4,1747,0.313999999998487
18,5,1749,0.311000000001513
18,6,1747,0.313999999998487
18,7,1749,0.288000000000466
18,8,1749,0.309000000008382
18,9,1749,0.310999999986961
18,10,1749,0.314000000013039
18,11,1749,0.309999999997672
18,12,1749,0.313000000009197
18,13,1748,0.311000000001513
18,14,1748,0.311000000001513
18,15,1749,0.309999999997672
18,16,1749,0.314000000013039
18,17,1749,0.309999999997672
18,18,1744,0.314000000013039
18,19,1749,0.309999999997672
18,20,1749,0.313999999998487
18,21,1749,0.288000000000466
18,22,1749,0.30899999999383
18,23,1747,0.311000000001513
18,24,1749,0.313000000009197
18,25,1747,0.310999999986961
18,26,1749,0.314000000013039
18,27,1748,0.309999999997672
18,28,1748,0.310000000012224
18,29,1749,0.311000000001513
18,30,1749,0.313999999998487
19,1,1749,0.309999999997672
19,2,1749,0.314000000013039
19,3,1748,0.309999999997672
19,4,1749,0.313999999998487
19,5,1747,0.288000000000466
19,6,1749,0.307999999989988
19,7,1749,0.309999999997672
19,8,1748,0.313999999998487
19,9,1749,0.309999999997672
19,10,1747,0.313999999998487
19,11,1748,0.310000000012224
19,12,1749,0.311000000001513
19,13,1749,0.309999999997672
19,14,1749,0.313999999998487
19,15,1748,0.309999999997672
19,16,1749,0.313999999998487
19,17,1749,0.309999999997672
19,18,1748,0.315000000002328
19,19,1749,0.288000000000466
19,20,1749,0.307999999989988
19,21,1748,0.309999999997672
19,22,1748,0.313999999998487
19,23,1747,0.310000000012224
19,24,1749,0.313999999998487
19,25,1748,0.309999999997672
19,26,1749,0.309999999997672
19,27,1748,0.309999999997672
19,28,1748,0.313999999998487
19,29,1749,0.309999999997672
19,30,1749,0.313999999998487
20,1,1749,0.311000000001513
20,2,1749,0.313999999998487
20,3,1748,0.288000000000466
20,4,1748,0.30899999999383
20,5,1749,0.311000000001513
20,6,1749,0.313999999998487
20,7,1749,0.310000000012224
20,8,1749,0.313999999998487
20,9,1749,0.309999999997672
20,10,1748,0.311000000001513
20,11,1749,0.309999999997672
20,12,1747,0.315000000002328
20,13,1748,0.309999999997672
20,14,1746,0.315000000002328
20,15,1749,0.309999999997672
20,16,1749,0.315000000002328
20,17,1749,0.288000000000466
20,18,1747,0.30899999999383
20,19,1747,0.311000000001513
20,20,1748,0.313999999998487
20,21,1749,0.311000000001513
20,22,1749,0.313999999998487
20,23,1748,0.311000000001513
20,24,1748,0.311000000001513
20,25,1747,0.309999999997672
20,26,1748,0.313999999998487
20,27,1749,0.311000000001513
20,28,1748,0.313999999998487
20,29,1749,0.311000000001513
20,30,1749,0.313999999998487
21,1,1743,0.288000000000466
21,2,1749,0.30899999999383
21,3,1748,0.310000000012224
21,4,1748,0.313000000009197
21,5,1749,0.311000000001513
21,6,1749,0.313999999998487
21,7,1749,0.311000000001513
21,8,1749,0.310999999986961
21,9,1749,0.310000000012224
21,10,1749,0.314999999987776
21,11,1749,0.310000000012224
21,12,1749,0.314999999987776
21,13,1748,0.310000000012224
21,14,1747,0.313999999998487
21,15,1749,0.288000000000466
21,16,1749,0.311000000001513
21,17,1749,0.310999999986961
21,18,1749,0.313000000009197
21,19,1749,0.311000000001513
21,20,1749,0.313999999998487
21,21,1749,0.311000000001513
21,22,1749,0.311000000001513
21,23,1747,0.309999999997672
21,24,1749,0.313999999998487
21,25,1748,0.311000000001513
21,26,1749,0.313999999998487
21,27,1748,0.309999999997672
21,28,1749,0.315000000002328
21,29,1749,0.288000000000466
21,30,1749,0.30899999999383
22,1,1749,0.311000000001513
22,2,1749,0.313000000009197
22,3,1749,0.309999999997672
22,4,1749,0.313000000009197
22,5,1749,0.310999999986961
22,6,1749,0.311000000001513
22,7,1749,0.309999999997672
22,8,1747,0.315000000002328
22,9,1749,0.309999999997672
22,10,1749,0.314000000013039
22,11,1748,0.309999999997672
22,12,1749,0.314000000013039
22,13,1749,0.288000000000466
22,14,1748,0.30899999999383
22,15,1749,0.311000000001513
22,16,1749,0.313999999998487
22,17,1749,0.309999999997672
22,18,1749,0.313999999998487
22,19,1749,0.311000000001513
22,20,1748,0.311999999990803
22,21,1747,0.311000000001513
22,22,1749,0.313999999998487
22,23,1749,0.313000000009197
22,24,1749,0.313999999998487
22,25,1749,0.311000000001513
22,26,1749,0.313999999998487
22,27,1749,0.288000000000466
22,28,1749,0.30899999999383
22,29,1749,0.311000000001513
22,30,1749,0.313000000009197
23,1,1749,0.310000000012224
23,2,1747,0.313999999998487
23,3,1749,0.311000000001513
23,4,1749,0.310999999986961
23,5,1744,0.310000000012224
23,6,1749,0.313999999998487
23,7,1749,0.311000000001513
23,8,1749,0.313999999998487
23,9,1749,0.310000000012224
23,10,1749,0.313999999998487
23,11,1749,0.288000000000466
23,12,1749,0.30800000000454
23,13,1749,0.309999999997672
23,14,1749,0.313999999998487
23,15,1749,0.311000000001513
23,16,1748,0.312999999994645
23,17,1749,0.309999999997672
23,18,1745,0.311000000001513
23,19,1748,0.309999999997672
23,20,1748,0.313999999998487
23,21,1749,0.311000000001513
23,22,1747,0.317000000010012
23,23,1748,0.309999999997672
23,24,1749,0.315000000002328
23,25,1749,0.288000000000466
23,26,1749,0.309000000008382
23,27,1749,0.311999999990803
23,28,1748,0.313999999998487
23,29,1749,0.311000000001513
23,30,1749,0.313000000009197
24,1,1748,0.311000000001513
24,2,1749,0.311000000001513
24,3,1749,0.309999999997672
24,4,1749,0.313999999998487
24,5,1749,0.309999999997672
24,6,1749,0.313999999998487
24,7,1749,0.309999999997672
24,8,1749,0.315000000002328
24,9,1749,0.288999999989755
24,10,1749,0.309000000008382
24,11,1749,0.309999999997672
24,12,1749,0.313999999998487
24,13,1749,0.311000000001513
24,14,1749,0.313999999998487
24,15,1749,0.311000000001513
24,16,1748,0.311000000001513
24,17,1749,0.309999999997672
24,18,1747,0.313999999998487
24,19,1749,0.309999999997672
24,20,1749,0.313999999998487
24,21,1749,0.311000000001513
24,22,1749,0.313999999998487
24,23,1749,0.288000000000466
24,24,1749,0.30899999999383
24,25,1749,0.311000000001513
24,26,1749,0.313999999998487
24,27,1749,0.311000000001513
24,28,1749,0.313999999998487
24,29,1749,0.311000000001513
24,30,1749,0.311000000001513
25,1,1749,0.309999999997672
25,2,1748,0.313999999998487
25,3,1749,0.309999999997672
25,4,1747,0.313999999998487
25,5,1744,0.310000000012224
25,6,1748,0.313999999998487
25,7,1747,0.288000000000466
25,8,1749,0.309000000008382
25,9,1749,0.311000000001513
25,10,1749,0.312999999994645
25,11,1748,0.309999999997672
25,12,1749,0.313999999998487
25,13,1749,0.311000000001513
25,14,1747,0.311000000001513
25,15,1749,0.309999999997672
25,16,1749,0.313999999998487
25,17,1749,0.309999999997672
25,18,1744,0.313999999998487
25,19,1748,0.309999999997672
25,20,1747,0.313999999998487
25,21,1749,0.288000000000466
25,22,1749,0.309000000008382
25,23,1749,0.309999999997672
25,24,1749,0.313999999998487
25,25,1747,0.309999999997672
25,26,1749,0.313999999998487
25,27,1749,0.309999999997672
25,28,1747,0.309999999997672
25,29,1749,0.311000000001513
25,30,1749,0.313999999998487
26,1,1749,0.309999999997672
26,2,1748,0.313999999998487
26,3,1748,0.310000000012224
26,4,1747,0.313999999998487
26,5,1749,0.288000000000466
26,6,1748,0.30899999999383
26,7,1749,0.309999999997672
26,8,1749,0.313999999998487
26,9,1748,0.311000000001513
26,10,1748,0.313000000009197
26,11,1747,0.310999999986961
26,12,1749,0.310000000012224
26,13,1749,0.310999999986961
26,14,1748,0.314000000013039
26,15,1748,0.309999999997672
26,16,1746,0.313999999998487
26,17,1748,0.309999999997672
26,18,1746,0.313999999998487
26,19,1749,0.289000000004307
26,20,1749,0.30800000000454
26,21,1749,0.310999999986961
26,22,1748,0.314000000013039
26,23,1745,0.310999999986961
26,24,1748,0.314000000013039
26,25,1749,0.310999999986961
26,26,1747,0.311000000001513
26,27,1748,0.309999999997672
26,28,1749,0.314000000013039
26,29,1749,0.309999999997672
26,30,1749,0.314000000013039
27,1,1749,0.310999999986961
27,2,1748,0.314000000013039
27,3,1745,0.288000000000466
27,4,1748,0.30899999999383
27,5,1749,0.309999999997672
27,6,1749,0.313999999998487
27,7,1749,0.311000000001513
27,8,1748,0.313999999998487
27,9,1747,0.311000000001513
27,10,1748,0.311000000001513
27,11,1748,0.309999999997672
27,12,1747,0.313999999998487
27,13,1746,0.311000000001513
27,14,1749,0.313999999998487
27,15,1747,0.311000000001513
27,16,1747,0.313999999998487
27,17,1749,0.288000000000466
27,18,1749,0.30899999999383
27,19,1749,0.311000000001513
27,20,1748,0.313999999998487
27,21,1746,0.311000000001513
27,22,1749,0.313999999998487
27,23,1748,0.310000000012224
27,24,1749,0.311000000001513
27,25,1749,0.309999999997672
27,26,1749,0.313999999998487
27,27,1749,0.310000000012224
27,28,1748,0.313999999998487
27,29,1748,0.310000000012224
27,30,1749,0.313999999998487
28,1,1749,0.288000000000466
28,2,1749,0.309000000008382
28,3,1747,0.311000000001513
28,4,1749,0.313999999998487
28,5,1746,0.311000000001513
28,6,1747,0.313999999998487
28,7,1749,0.311000000001513
28,8,1749,0.310000000012224
28,9,1747,0.310000000012224
28,10,1749,0.313999999998487
28,11,1749,0.309999999997672
28,12,1749,0.313999999998487
28,13,1748,0.309999999997672
28,14,1749,0.313999999998487
28,15,1747,0.288000000000466
28,16,1747,0.30899999999383
28,17,1747,0.311000000001513
28,18,1749,0.313999999998487
28,19,1747,0.311000000001513
28,20,1749,0.313999999998487
28,21,1746,0.309999999997672
28,22,1748,0.309999999997672
28,23,1748,0.311000000001513
28,24,1749,0.313999999998487
28,25,1749,0.310000000012224
28,26,1749,0.313999999998487
28,27,1749,0.310000000012224
28,28,1749,0.313999999998487
28,29,1749,0.288999999989755
28,30,1749,0.309000000008382
29,1,1749,0.310000000012224
29,2,1745,0.313999999998487
29,3,1746,0.311000000001513
29,4,1748,0.314999999987776
29,5,1749,0.309999999997672
29,6,1749,0.311000000001513
29,7,1749,0.311000000001513
29,8,1748,0.313999999998487
29,9,1749,0.309999999997672
29,10,1749,0.313999999998487
29,11,1749,0.309999999997672
29,12,1749,0.313999999998487
29,13,1747,0.288000000000466
29,14,1746,0.30899999999383
29,15,1747,0.311000000001513
29,16,1749,0.313999999998487
29,17,1747,0.311000000001513
29,18,1747,0.313000000009197
29,19,1749,0.310000000012224
29,20,1749,0.310999999986961
29,21,1749,0.310000000012224
29,22,1749,0.313999999998487
29,23,1748,0.311000000001513
29,24,1748,0.314999999987776
29,25,1745,0.310000000012224
29,26,1749,0.313999999998487
29,27,1748,0.288000000000466
29,28,1749,0.309000000008382
29,29,1749,0.311000000001513
29,30,1748,0.313999999998487
30,1,1749,0.311000000001513
30,2,1749,0.312999999994645
30,3,1748,0.309999999997672
30,4,1749,0.312999999994645
30,5,1749,0.312000000005355
30,6,1749,0.313999999998487
30,7,1749,0.309999999997672
30,8,1749,0.312999999994645
30,9,1749,0.309999999997672
30,10,1749,0.313999999998487
30,11,1749,0.288000000000466
30,12,1749,0.309000000008382
30,13,1749,0.311000000001513
30,14,1748,0.312999999994645
30,15,1749,0.309999999997672
30,16,1749,0.313999999998487
30,17,1749,0.311000000001513
30,18,1749,0.311000000001513
30,19,1749,0.309999999997672
30,20,1749,0.313999999998487
30,21,1749,0.309999999997672
30,22,1749,0.313999999998487
30,23,1749,0.309999999997672
30,24,1749,0.313999999998487
30,25,1749,0.288000000000466
30,26,1749,0.309999999997672
30,27,1749,0.310000000012224
30,28,1749,0.313999999998487
30,29,1749,0.311000000001513
30,30,1749,0.313999999998487
