Scenario,Measure,Variation_Level,Result
download_puzzles,Euclidean,0,TP
download_puzzles,Euclidean,0,TN
download_puzzles,Euclidean,0,TN
connect_ssh,Euclidean,0,TP
connect_ssh,Euclidean,0,TN
connect_ssh,Euclidean,0,TN
ssh_shell,Euclidean,0,TN
ssh_shell,Euclidean,0,TN
ssh_shell,Euclidean,0,TN
open_pdf,Euclidean,0,TP
open_pdf,Euclidean,0,TN
open_pdf,Euclidean,0,TN
learn_cards,Euclidean,0,TP
learn_cards,Euclidean,0,TN
learn_cards,Euclidean,0,TN
make_deck,Euclidean,0,TP
make_deck,Euclidean,0,TN
make_deck,Euclidean,0,TN
write_transactions,Euclidean,0,TP
write_transactions,Euclidean,0,TN
write_transactions,Euclidean,0,TN
make_events,Euclidean,0,TN
make_events,Euclidean,0,TN
make_events,Euclidean,0,TN
explore_files,Euclidean,0,TN
explore_files,Euclidean,0,TN
explore_files,Euclidean,0,TN
download_puzzles,Euclidean,1,TP
download_puzzles,Euclidean,1,TN
download_puzzles,Euclidean,1,TN
connect_ssh,Euclidean,1,TP
connect_ssh,Euclidean,1,TN
connect_ssh,Euclidean,1,TN
ssh_shell,Euclidean,1,TN
ssh_shell,Euclidean,1,TN
ssh_shell,Euclidean,1,TN
open_pdf,Euclidean,1,TP
open_pdf,Euclidean,1,TN
open_pdf,Euclidean,1,TN
learn_cards,Euclidean,1,TP
learn_cards,Euclidean,1,TN
learn_cards,Euclidean,1,TN
make_deck,Euclidean,1,TP
make_deck,Euclidean,1,TN
make_deck,Euclidean,1,TN
write_transactions,Euclidean,1,TP
write_transactions,Euclidean,1,TN
write_transactions,Euclidean,1,TN
make_events,Euclidean,1,TN
make_events,Euclidean,1,TN
make_events,Euclidean,1,TN
explore_files,Euclidean,1,TN
explore_files,Euclidean,1,TN
explore_files,Euclidean,1,TN
download_puzzles,Euclidean,5,TN
download_puzzles,Euclidean,5,TN
download_puzzles,Euclidean,5,FN
connect_ssh,Euclidean,5,TP
connect_ssh,Euclidean,5,TN
connect_ssh,Euclidean,5,TN
ssh_shell,Euclidean,5,TN
ssh_shell,Euclidean,5,TN
ssh_shell,Euclidean,5,TN
open_pdf,Euclidean,5,TP
open_pdf,Euclidean,5,TN
open_pdf,Euclidean,5,TN
learn_cards,Euclidean,5,TN
learn_cards,Euclidean,5,TN
learn_cards,Euclidean,5,FN
make_deck,Euclidean,5,TP
make_deck,Euclidean,5,TN
make_deck,Euclidean,5,TN
write_transactions,Euclidean,5,TN
write_transactions,Euclidean,5,TN
write_transactions,Euclidean,5,FN
make_events,Euclidean,5,TN
make_events,Euclidean,5,TN
make_events,Euclidean,5,TN
explore_files,Euclidean,5,TN
explore_files,Euclidean,5,TN
explore_files,Euclidean,5,TN
download_puzzles,Euclidean,10,TN
download_puzzles,Euclidean,10,TN
download_puzzles,Euclidean,10,FN
connect_ssh,Euclidean,10,TP
connect_ssh,Euclidean,10,TN
connect_ssh,Euclidean,10,TN
ssh_shell,Euclidean,10,TN
ssh_shell,Euclidean,10,TN
ssh_shell,Euclidean,10,TN
open_pdf,Euclidean,10,TP
open_pdf,Euclidean,10,TN
open_pdf,Euclidean,10,TN
learn_cards,Euclidean,10,TP
learn_cards,Euclidean,10,TN
learn_cards,Euclidean,10,TN
make_deck,Euclidean,10,TN
make_deck,Euclidean,10,TN
make_deck,Euclidean,10,FN
write_transactions,Euclidean,10,TN
write_transactions,Euclidean,10,TN
write_transactions,Euclidean,10,FN
make_events,Euclidean,10,TN
make_events,Euclidean,10,TN
make_events,Euclidean,10,TN
explore_files,Euclidean,10,FP
explore_files,Euclidean,10,TN
explore_files,Euclidean,10,TN
download_puzzles,Fourier,0,TP
download_puzzles,Fourier,0,TN
download_puzzles,Fourier,0,TN
connect_ssh,Fourier,0,TP
connect_ssh,Fourier,0,TN
connect_ssh,Fourier,0,TN
ssh_shell,Fourier,0,TN
ssh_shell,Fourier,0,TN
ssh_shell,Fourier,0,TN
open_pdf,Fourier,0,TP
open_pdf,Fourier,0,TN
open_pdf,Fourier,0,TN
learn_cards,Fourier,0,TP
learn_cards,Fourier,0,TN
learn_cards,Fourier,0,TN
make_deck,Fourier,0,TP
make_deck,Fourier,0,TN
make_deck,Fourier,0,TN
write_transactions,Fourier,0,TP
write_transactions,Fourier,0,TN
write_transactions,Fourier,0,TN
make_events,Fourier,0,TN
make_events,Fourier,0,TN
make_events,Fourier,0,TN
explore_files,Fourier,0,TN
explore_files,Fourier,0,TN
explore_files,Fourier,0,TN
download_puzzles,Fourier,1,TP
download_puzzles,Fourier,1,TN
download_puzzles,Fourier,1,TN
connect_ssh,Fourier,1,TP
connect_ssh,Fourier,1,TN
connect_ssh,Fourier,1,TN
ssh_shell,Fourier,1,TN
ssh_shell,Fourier,1,TN
ssh_shell,Fourier,1,TN
open_pdf,Fourier,1,TP
open_pdf,Fourier,1,TN
open_pdf,Fourier,1,TN
learn_cards,Fourier,1,TP
learn_cards,Fourier,1,TN
learn_cards,Fourier,1,TN
make_deck,Fourier,1,TP
make_deck,Fourier,1,TN
make_deck,Fourier,1,TN
write_transactions,Fourier,1,TP
write_transactions,Fourier,1,TN
write_transactions,Fourier,1,TN
make_events,Fourier,1,TN
make_events,Fourier,1,TN
make_events,Fourier,1,TN
explore_files,Fourier,1,TN
explore_files,Fourier,1,TN
explore_files,Fourier,1,TN
download_puzzles,Fourier,5,TN
download_puzzles,Fourier,5,TN
download_puzzles,Fourier,5,FN
connect_ssh,Fourier,5,TP
connect_ssh,Fourier,5,TN
connect_ssh,Fourier,5,TN
ssh_shell,Fourier,5,TN
ssh_shell,Fourier,5,TN
ssh_shell,Fourier,5,TN
open_pdf,Fourier,5,TP
open_pdf,Fourier,5,TN
open_pdf,Fourier,5,TN
learn_cards,Fourier,5,TP
learn_cards,Fourier,5,TN
learn_cards,Fourier,5,TN
make_deck,Fourier,5,TP
make_deck,Fourier,5,TN
make_deck,Fourier,5,TN
write_transactions,Fourier,5,TN
write_transactions,Fourier,5,TN
write_transactions,Fourier,5,FN
make_events,Fourier,5,TN
make_events,Fourier,5,TN
make_events,Fourier,5,TN
explore_files,Fourier,5,TN
explore_files,Fourier,5,TN
explore_files,Fourier,5,TN
download_puzzles,Fourier,10,TN
download_puzzles,Fourier,10,TN
download_puzzles,Fourier,10,FN
connect_ssh,Fourier,10,TP
connect_ssh,Fourier,10,TN
connect_ssh,Fourier,10,TN
ssh_shell,Fourier,10,TN
ssh_shell,Fourier,10,TN
ssh_shell,Fourier,10,TN
open_pdf,Fourier,10,TP
open_pdf,Fourier,10,TN
open_pdf,Fourier,10,TN
learn_cards,Fourier,10,TP
learn_cards,Fourier,10,TN
learn_cards,Fourier,10,TN
make_deck,Fourier,10,TN
make_deck,Fourier,10,TN
make_deck,Fourier,10,FN
write_transactions,Fourier,10,TN
write_transactions,Fourier,10,TN
write_transactions,Fourier,10,FN
make_events,Fourier,10,TN
make_events,Fourier,10,TN
make_events,Fourier,10,TN
explore_files,Fourier,10,FP
explore_files,Fourier,10,TN
explore_files,Fourier,10,TN
download_puzzles,Edit Distance on Real Sequences,0,TN
download_puzzles,Edit Distance on Real Sequences,0,TN
download_puzzles,Edit Distance on Real Sequences,0,FN
connect_ssh,Edit Distance on Real Sequences,0,TN
connect_ssh,Edit Distance on Real Sequences,0,TN
connect_ssh,Edit Distance on Real Sequences,0,FN
ssh_shell,Edit Distance on Real Sequences,0,TN
ssh_shell,Edit Distance on Real Sequences,0,TN
ssh_shell,Edit Distance on Real Sequences,0,TN
open_pdf,Edit Distance on Real Sequences,0,TP
open_pdf,Edit Distance on Real Sequences,0,TN
open_pdf,Edit Distance on Real Sequences,0,TN
learn_cards,Edit Distance on Real Sequences,0,TP
learn_cards,Edit Distance on Real Sequences,0,TN
learn_cards,Edit Distance on Real Sequences,0,TN
make_deck,Edit Distance on Real Sequences,0,TP
make_deck,Edit Distance on Real Sequences,0,TN
make_deck,Edit Distance on Real Sequences,0,TN
write_transactions,Edit Distance on Real Sequences,0,TN
write_transactions,Edit Distance on Real Sequences,0,TN
write_transactions,Edit Distance on Real Sequences,0,FN
make_events,Edit Distance on Real Sequences,0,TN
make_events,Edit Distance on Real Sequences,0,TN
make_events,Edit Distance on Real Sequences,0,TN
explore_files,Edit Distance on Real Sequences,0,TN
explore_files,Edit Distance on Real Sequences,0,TN
explore_files,Edit Distance on Real Sequences,0,TN
download_puzzles,Edit Distance on Real Sequences,1,TN
download_puzzles,Edit Distance on Real Sequences,1,TN
download_puzzles,Edit Distance on Real Sequences,1,FN
connect_ssh,Edit Distance on Real Sequences,1,TN
connect_ssh,Edit Distance on Real Sequences,1,TN
connect_ssh,Edit Distance on Real Sequences,1,FN
ssh_shell,Edit Distance on Real Sequences,1,TN
ssh_shell,Edit Distance on Real Sequences,1,TN
ssh_shell,Edit Distance on Real Sequences,1,TN
open_pdf,Edit Distance on Real Sequences,1,TP
open_pdf,Edit Distance on Real Sequences,1,TN
open_pdf,Edit Distance on Real Sequences,1,TN
learn_cards,Edit Distance on Real Sequences,1,TP
learn_cards,Edit Distance on Real Sequences,1,TN
learn_cards,Edit Distance on Real Sequences,1,TN
make_deck,Edit Distance on Real Sequences,1,TP
make_deck,Edit Distance on Real Sequences,1,TN
make_deck,Edit Distance on Real Sequences,1,TN
write_transactions,Edit Distance on Real Sequences,1,TN
write_transactions,Edit Distance on Real Sequences,1,TN
write_transactions,Edit Distance on Real Sequences,1,FN
make_events,Edit Distance on Real Sequences,1,TN
make_events,Edit Distance on Real Sequences,1,TN
make_events,Edit Distance on Real Sequences,1,TN
explore_files,Edit Distance on Real Sequences,1,TN
explore_files,Edit Distance on Real Sequences,1,TN
explore_files,Edit Distance on Real Sequences,1,TN
download_puzzles,Edit Distance on Real Sequences,5,TN
download_puzzles,Edit Distance on Real Sequences,5,TN
download_puzzles,Edit Distance on Real Sequences,5,FN
connect_ssh,Edit Distance on Real Sequences,5,TN
connect_ssh,Edit Distance on Real Sequences,5,TN
connect_ssh,Edit Distance on Real Sequences,5,FN
ssh_shell,Edit Distance on Real Sequences,5,TN
ssh_shell,Edit Distance on Real Sequences,5,TN
ssh_shell,Edit Distance on Real Sequences,5,TN
open_pdf,Edit Distance on Real Sequences,5,FP
open_pdf,Edit Distance on Real Sequences,5,TN
open_pdf,Edit Distance on Real Sequences,5,FN
learn_cards,Edit Distance on Real Sequences,5,TN
learn_cards,Edit Distance on Real Sequences,5,TN
learn_cards,Edit Distance on Real Sequences,5,FN
make_deck,Edit Distance on Real Sequences,5,TP
make_deck,Edit Distance on Real Sequences,5,TN
make_deck,Edit Distance on Real Sequences,5,TN
write_transactions,Edit Distance on Real Sequences,5,TN
write_transactions,Edit Distance on Real Sequences,5,TN
write_transactions,Edit Distance on Real Sequences,5,FN
make_events,Edit Distance on Real Sequences,5,TN
make_events,Edit Distance on Real Sequences,5,TN
make_events,Edit Distance on Real Sequences,5,TN
explore_files,Edit Distance on Real Sequences,5,TN
explore_files,Edit Distance on Real Sequences,5,TN
explore_files,Edit Distance on Real Sequences,5,TN
download_puzzles,Edit Distance on Real Sequences,10,TN
download_puzzles,Edit Distance on Real Sequences,10,TN
download_puzzles,Edit Distance on Real Sequences,10,FN
connect_ssh,Edit Distance on Real Sequences,10,TN
connect_ssh,Edit Distance on Real Sequences,10,TN
connect_ssh,Edit Distance on Real Sequences,10,FN
ssh_shell,Edit Distance on Real Sequences,10,TN
ssh_shell,Edit Distance on Real Sequences,10,TN
ssh_shell,Edit Distance on Real Sequences,10,TN
open_pdf,Edit Distance on Real Sequences,10,TN
open_pdf,Edit Distance on Real Sequences,10,TN
open_pdf,Edit Distance on Real Sequences,10,FN
learn_cards,Edit Distance on Real Sequences,10,TN
learn_cards,Edit Distance on Real Sequences,10,TN
learn_cards,Edit Distance on Real Sequences,10,FN
make_deck,Edit Distance on Real Sequences,10,TN
make_deck,Edit Distance on Real Sequences,10,TN
make_deck,Edit Distance on Real Sequences,10,FN
write_transactions,Edit Distance on Real Sequences,10,TN
write_transactions,Edit Distance on Real Sequences,10,TN
write_transactions,Edit Distance on Real Sequences,10,FN
make_events,Edit Distance on Real Sequences,10,TN
make_events,Edit Distance on Real Sequences,10,TN
make_events,Edit Distance on Real Sequences,10,TN
explore_files,Edit Distance on Real Sequences,10,TN
explore_files,Edit Distance on Real Sequences,10,TN
explore_files,Edit Distance on Real Sequences,10,TN
download_puzzles,Dynamic Time Warping,0,TP
download_puzzles,Dynamic Time Warping,0,TN
download_puzzles,Dynamic Time Warping,0,TN
connect_ssh,Dynamic Time Warping,0,TP
connect_ssh,Dynamic Time Warping,0,TN
connect_ssh,Dynamic Time Warping,0,TN
ssh_shell,Dynamic Time Warping,0,TN
ssh_shell,Dynamic Time Warping,0,TN
ssh_shell,Dynamic Time Warping,0,TN
open_pdf,Dynamic Time Warping,0,TP
open_pdf,Dynamic Time Warping,0,TN
open_pdf,Dynamic Time Warping,0,TN
learn_cards,Dynamic Time Warping,0,TP
learn_cards,Dynamic Time Warping,0,TN
learn_cards,Dynamic Time Warping,0,TN
make_deck,Dynamic Time Warping,0,TP
make_deck,Dynamic Time Warping,0,TN
make_deck,Dynamic Time Warping,0,TN
write_transactions,Dynamic Time Warping,0,TP
write_transactions,Dynamic Time Warping,0,TN
write_transactions,Dynamic Time Warping,0,TN
make_events,Dynamic Time Warping,0,TN
make_events,Dynamic Time Warping,0,TN
make_events,Dynamic Time Warping,0,TN
explore_files,Dynamic Time Warping,0,TN
explore_files,Dynamic Time Warping,0,TN
explore_files,Dynamic Time Warping,0,TN
download_puzzles,Dynamic Time Warping,1,TP
download_puzzles,Dynamic Time Warping,1,TN
download_puzzles,Dynamic Time Warping,1,TN
connect_ssh,Dynamic Time Warping,1,TP
connect_ssh,Dynamic Time Warping,1,TN
connect_ssh,Dynamic Time Warping,1,TN
ssh_shell,Dynamic Time Warping,1,TN
ssh_shell,Dynamic Time Warping,1,TN
ssh_shell,Dynamic Time Warping,1,TN
open_pdf,Dynamic Time Warping,1,TP
open_pdf,Dynamic Time Warping,1,TN
open_pdf,Dynamic Time Warping,1,TN
learn_cards,Dynamic Time Warping,1,TP
learn_cards,Dynamic Time Warping,1,TN
learn_cards,Dynamic Time Warping,1,TN
make_deck,Dynamic Time Warping,1,TP
make_deck,Dynamic Time Warping,1,TN
make_deck,Dynamic Time Warping,1,TN
write_transactions,Dynamic Time Warping,1,TN
write_transactions,Dynamic Time Warping,1,TN
write_transactions,Dynamic Time Warping,1,FN
make_events,Dynamic Time Warping,1,TN
make_events,Dynamic Time Warping,1,TN
make_events,Dynamic Time Warping,1,TN
explore_files,Dynamic Time Warping,1,TN
explore_files,Dynamic Time Warping,1,TN
explore_files,Dynamic Time Warping,1,TN
download_puzzles,Dynamic Time Warping,5,TN
download_puzzles,Dynamic Time Warping,5,TN
download_puzzles,Dynamic Time Warping,5,FN
connect_ssh,Dynamic Time Warping,5,TP
connect_ssh,Dynamic Time Warping,5,TN
connect_ssh,Dynamic Time Warping,5,TN
ssh_shell,Dynamic Time Warping,5,TN
ssh_shell,Dynamic Time Warping,5,TN
ssh_shell,Dynamic Time Warping,5,TN
open_pdf,Dynamic Time Warping,5,TP
open_pdf,Dynamic Time Warping,5,TN
open_pdf,Dynamic Time Warping,5,TN
learn_cards,Dynamic Time Warping,5,TP
learn_cards,Dynamic Time Warping,5,TN
learn_cards,Dynamic Time Warping,5,TN
make_deck,Dynamic Time Warping,5,TP
make_deck,Dynamic Time Warping,5,TN
make_deck,Dynamic Time Warping,5,TN
write_transactions,Dynamic Time Warping,5,TN
write_transactions,Dynamic Time Warping,5,TN
write_transactions,Dynamic Time Warping,5,FN
make_events,Dynamic Time Warping,5,TN
make_events,Dynamic Time Warping,5,TN
make_events,Dynamic Time Warping,5,TN
explore_files,Dynamic Time Warping,5,TN
explore_files,Dynamic Time Warping,5,TN
explore_files,Dynamic Time Warping,5,TN
download_puzzles,Dynamic Time Warping,10,TN
download_puzzles,Dynamic Time Warping,10,TN
download_puzzles,Dynamic Time Warping,10,FN
connect_ssh,Dynamic Time Warping,10,TP
connect_ssh,Dynamic Time Warping,10,TN
connect_ssh,Dynamic Time Warping,10,TN
ssh_shell,Dynamic Time Warping,10,TN
ssh_shell,Dynamic Time Warping,10,TN
ssh_shell,Dynamic Time Warping,10,TN
open_pdf,Dynamic Time Warping,10,TP
open_pdf,Dynamic Time Warping,10,TN
open_pdf,Dynamic Time Warping,10,TN
learn_cards,Dynamic Time Warping,10,TN
learn_cards,Dynamic Time Warping,10,TN
learn_cards,Dynamic Time Warping,10,FN
make_deck,Dynamic Time Warping,10,TN
make_deck,Dynamic Time Warping,10,TN
make_deck,Dynamic Time Warping,10,FN
write_transactions,Dynamic Time Warping,10,TN
write_transactions,Dynamic Time Warping,10,TN
write_transactions,Dynamic Time Warping,10,FN
make_events,Dynamic Time Warping,10,TN
make_events,Dynamic Time Warping,10,TN
make_events,Dynamic Time Warping,10,TN
explore_files,Dynamic Time Warping,10,FP
explore_files,Dynamic Time Warping,10,TN
explore_files,Dynamic Time Warping,10,TN
download_puzzles,Minimum Jump Cost Dissimilarity,0,TN
download_puzzles,Minimum Jump Cost Dissimilarity,0,TN
download_puzzles,Minimum Jump Cost Dissimilarity,0,FN
connect_ssh,Minimum Jump Cost Dissimilarity,0,TN
connect_ssh,Minimum Jump Cost Dissimilarity,0,TN
connect_ssh,Minimum Jump Cost Dissimilarity,0,FN
ssh_shell,Minimum Jump Cost Dissimilarity,0,TN
ssh_shell,Minimum Jump Cost Dissimilarity,0,TN
ssh_shell,Minimum Jump Cost Dissimilarity,0,TN
open_pdf,Minimum Jump Cost Dissimilarity,0,TP
open_pdf,Minimum Jump Cost Dissimilarity,0,TN
open_pdf,Minimum Jump Cost Dissimilarity,0,TN
learn_cards,Minimum Jump Cost Dissimilarity,0,TN
learn_cards,Minimum Jump Cost Dissimilarity,0,TN
learn_cards,Minimum Jump Cost Dissimilarity,0,FN
make_deck,Minimum Jump Cost Dissimilarity,0,TP
make_deck,Minimum Jump Cost Dissimilarity,0,TN
make_deck,Minimum Jump Cost Dissimilarity,0,TN
write_transactions,Minimum Jump Cost Dissimilarity,0,TN
write_transactions,Minimum Jump Cost Dissimilarity,0,TN
write_transactions,Minimum Jump Cost Dissimilarity,0,FN
make_events,Minimum Jump Cost Dissimilarity,0,TN
make_events,Minimum Jump Cost Dissimilarity,0,TN
make_events,Minimum Jump Cost Dissimilarity,0,TN
explore_files,Minimum Jump Cost Dissimilarity,0,TN
explore_files,Minimum Jump Cost Dissimilarity,0,TN
explore_files,Minimum Jump Cost Dissimilarity,0,TN
download_puzzles,Minimum Jump Cost Dissimilarity,1,TN
download_puzzles,Minimum Jump Cost Dissimilarity,1,TN
download_puzzles,Minimum Jump Cost Dissimilarity,1,FN
connect_ssh,Minimum Jump Cost Dissimilarity,1,TN
connect_ssh,Minimum Jump Cost Dissimilarity,1,TN
connect_ssh,Minimum Jump Cost Dissimilarity,1,FN
ssh_shell,Minimum Jump Cost Dissimilarity,1,TN
ssh_shell,Minimum Jump Cost Dissimilarity,1,TN
ssh_shell,Minimum Jump Cost Dissimilarity,1,TN
open_pdf,Minimum Jump Cost Dissimilarity,1,TP
open_pdf,Minimum Jump Cost Dissimilarity,1,TN
open_pdf,Minimum Jump Cost Dissimilarity,1,TN
learn_cards,Minimum Jump Cost Dissimilarity,1,TN
learn_cards,Minimum Jump Cost Dissimilarity,1,TN
learn_cards,Minimum Jump Cost Dissimilarity,1,FN
make_deck,Minimum Jump Cost Dissimilarity,1,TP
make_deck,Minimum Jump Cost Dissimilarity,1,TN
make_deck,Minimum Jump Cost Dissimilarity,1,TN
write_transactions,Minimum Jump Cost Dissimilarity,1,TN
write_transactions,Minimum Jump Cost Dissimilarity,1,TN
write_transactions,Minimum Jump Cost Dissimilarity,1,FN
make_events,Minimum Jump Cost Dissimilarity,1,TN
make_events,Minimum Jump Cost Dissimilarity,1,TN
make_events,Minimum Jump Cost Dissimilarity,1,TN
explore_files,Minimum Jump Cost Dissimilarity,1,TN
explore_files,Minimum Jump Cost Dissimilarity,1,TN
explore_files,Minimum Jump Cost Dissimilarity,1,TN
download_puzzles,Minimum Jump Cost Dissimilarity,5,TN
download_puzzles,Minimum Jump Cost Dissimilarity,5,TN
download_puzzles,Minimum Jump Cost Dissimilarity,5,FN
connect_ssh,Minimum Jump Cost Dissimilarity,5,TN
connect_ssh,Minimum Jump Cost Dissimilarity,5,TN
connect_ssh,Minimum Jump Cost Dissimilarity,5,FN
ssh_shell,Minimum Jump Cost Dissimilarity,5,TN
ssh_shell,Minimum Jump Cost Dissimilarity,5,TN
ssh_shell,Minimum Jump Cost Dissimilarity,5,TN
open_pdf,Minimum Jump Cost Dissimilarity,5,TP
open_pdf,Minimum Jump Cost Dissimilarity,5,TN
open_pdf,Minimum Jump Cost Dissimilarity,5,TN
learn_cards,Minimum Jump Cost Dissimilarity,5,TN
learn_cards,Minimum Jump Cost Dissimilarity,5,TN
learn_cards,Minimum Jump Cost Dissimilarity,5,FN
make_deck,Minimum Jump Cost Dissimilarity,5,TP
make_deck,Minimum Jump Cost Dissimilarity,5,TN
make_deck,Minimum Jump Cost Dissimilarity,5,TN
write_transactions,Minimum Jump Cost Dissimilarity,5,TN
write_transactions,Minimum Jump Cost Dissimilarity,5,TN
write_transactions,Minimum Jump Cost Dissimilarity,5,FN
make_events,Minimum Jump Cost Dissimilarity,5,TN
make_events,Minimum Jump Cost Dissimilarity,5,TN
make_events,Minimum Jump Cost Dissimilarity,5,TN
explore_files,Minimum Jump Cost Dissimilarity,5,TN
explore_files,Minimum Jump Cost Dissimilarity,5,TN
explore_files,Minimum Jump Cost Dissimilarity,5,TN
download_puzzles,Minimum Jump Cost Dissimilarity,10,TN
download_puzzles,Minimum Jump Cost Dissimilarity,10,TN
download_puzzles,Minimum Jump Cost Dissimilarity,10,FN
connect_ssh,Minimum Jump Cost Dissimilarity,10,TN
connect_ssh,Minimum Jump Cost Dissimilarity,10,TN
connect_ssh,Minimum Jump Cost Dissimilarity,10,FN
ssh_shell,Minimum Jump Cost Dissimilarity,10,TN
ssh_shell,Minimum Jump Cost Dissimilarity,10,TN
ssh_shell,Minimum Jump Cost Dissimilarity,10,TN
open_pdf,Minimum Jump Cost Dissimilarity,10,TP
open_pdf,Minimum Jump Cost Dissimilarity,10,TN
open_pdf,Minimum Jump Cost Dissimilarity,10,TN
learn_cards,Minimum Jump Cost Dissimilarity,10,TN
learn_cards,Minimum Jump Cost Dissimilarity,10,TN
learn_cards,Minimum Jump Cost Dissimilarity,10,FN
make_deck,Minimum Jump Cost Dissimilarity,10,TN
make_deck,Minimum Jump Cost Dissimilarity,10,TN
make_deck,Minimum Jump Cost Dissimilarity,10,FN
write_transactions,Minimum Jump Cost Dissimilarity,10,TN
write_transactions,Minimum Jump Cost Dissimilarity,10,TN
write_transactions,Minimum Jump Cost Dissimilarity,10,FN
make_events,Minimum Jump Cost Dissimilarity,10,TN
make_events,Minimum Jump Cost Dissimilarity,10,TN
make_events,Minimum Jump Cost Dissimilarity,10,TN
explore_files,Minimum Jump Cost Dissimilarity,10,TN
explore_files,Minimum Jump Cost Dissimilarity,10,TN
explore_files,Minimum Jump Cost Dissimilarity,10,TN
download_puzzles,Auto-Regressive Model,0,TP
download_puzzles,Auto-Regressive Model,0,TN
download_puzzles,Auto-Regressive Model,0,TN
connect_ssh,Auto-Regressive Model,0,TP
connect_ssh,Auto-Regressive Model,0,TN
connect_ssh,Auto-Regressive Model,0,TN
ssh_shell,Auto-Regressive Model,0,TN
ssh_shell,Auto-Regressive Model,0,TN
ssh_shell,Auto-Regressive Model,0,TN
open_pdf,Auto-Regressive Model,0,TP
open_pdf,Auto-Regressive Model,0,TN
open_pdf,Auto-Regressive Model,0,TN
learn_cards,Auto-Regressive Model,0,TP
learn_cards,Auto-Regressive Model,0,TN
learn_cards,Auto-Regressive Model,0,TN
make_deck,Auto-Regressive Model,0,TN
make_deck,Auto-Regressive Model,0,TN
make_deck,Auto-Regressive Model,0,FN
write_transactions,Auto-Regressive Model,0,TN
write_transactions,Auto-Regressive Model,0,TN
write_transactions,Auto-Regressive Model,0,FN
make_events,Auto-Regressive Model,0,TN
make_events,Auto-Regressive Model,0,TN
make_events,Auto-Regressive Model,0,TN
explore_files,Auto-Regressive Model,0,TN
explore_files,Auto-Regressive Model,0,TN
explore_files,Auto-Regressive Model,0,TN
download_puzzles,Auto-Regressive Model,1,TP
download_puzzles,Auto-Regressive Model,1,TN
download_puzzles,Auto-Regressive Model,1,TN
connect_ssh,Auto-Regressive Model,1,TP
connect_ssh,Auto-Regressive Model,1,TN
connect_ssh,Auto-Regressive Model,1,TN
ssh_shell,Auto-Regressive Model,1,TN
ssh_shell,Auto-Regressive Model,1,TN
ssh_shell,Auto-Regressive Model,1,TN
open_pdf,Auto-Regressive Model,1,TN
open_pdf,Auto-Regressive Model,1,TN
open_pdf,Auto-Regressive Model,1,FN
learn_cards,Auto-Regressive Model,1,TP
learn_cards,Auto-Regressive Model,1,TN
learn_cards,Auto-Regressive Model,1,TN
make_deck,Auto-Regressive Model,1,TN
make_deck,Auto-Regressive Model,1,TN
make_deck,Auto-Regressive Model,1,FN
write_transactions,Auto-Regressive Model,1,TN
write_transactions,Auto-Regressive Model,1,TN
write_transactions,Auto-Regressive Model,1,FN
make_events,Auto-Regressive Model,1,TN
make_events,Auto-Regressive Model,1,TN
make_events,Auto-Regressive Model,1,TN
explore_files,Auto-Regressive Model,1,TN
explore_files,Auto-Regressive Model,1,TN
explore_files,Auto-Regressive Model,1,TN
download_puzzles,Auto-Regressive Model,5,TN
download_puzzles,Auto-Regressive Model,5,TN
download_puzzles,Auto-Regressive Model,5,FN
connect_ssh,Auto-Regressive Model,5,TP
connect_ssh,Auto-Regressive Model,5,TN
connect_ssh,Auto-Regressive Model,5,TN
ssh_shell,Auto-Regressive Model,5,TN
ssh_shell,Auto-Regressive Model,5,TN
ssh_shell,Auto-Regressive Model,5,TN
open_pdf,Auto-Regressive Model,5,TP
open_pdf,Auto-Regressive Model,5,TN
open_pdf,Auto-Regressive Model,5,TN
learn_cards,Auto-Regressive Model,5,TN
learn_cards,Auto-Regressive Model,5,TN
learn_cards,Auto-Regressive Model,5,FN
make_deck,Auto-Regressive Model,5,TN
make_deck,Auto-Regressive Model,5,TN
make_deck,Auto-Regressive Model,5,FN
write_transactions,Auto-Regressive Model,5,TN
write_transactions,Auto-Regressive Model,5,TN
write_transactions,Auto-Regressive Model,5,FN
make_events,Auto-Regressive Model,5,TN
make_events,Auto-Regressive Model,5,TN
make_events,Auto-Regressive Model,5,TN
explore_files,Auto-Regressive Model,5,FP
explore_files,Auto-Regressive Model,5,TN
explore_files,Auto-Regressive Model,5,TN
download_puzzles,Auto-Regressive Model,10,TN
download_puzzles,Auto-Regressive Model,10,TN
download_puzzles,Auto-Regressive Model,10,FN
connect_ssh,Auto-Regressive Model,10,TP
connect_ssh,Auto-Regressive Model,10,TN
connect_ssh,Auto-Regressive Model,10,TN
ssh_shell,Auto-Regressive Model,10,TN
ssh_shell,Auto-Regressive Model,10,TN
ssh_shell,Auto-Regressive Model,10,TN
open_pdf,Auto-Regressive Model,10,TN
open_pdf,Auto-Regressive Model,10,TN
open_pdf,Auto-Regressive Model,10,FN
learn_cards,Auto-Regressive Model,10,TN
learn_cards,Auto-Regressive Model,10,TN
learn_cards,Auto-Regressive Model,10,FN
make_deck,Auto-Regressive Model,10,TN
make_deck,Auto-Regressive Model,10,TN
make_deck,Auto-Regressive Model,10,FN
write_transactions,Auto-Regressive Model,10,TN
write_transactions,Auto-Regressive Model,10,TN
write_transactions,Auto-Regressive Model,10,FN
make_events,Auto-Regressive Model,10,TN
make_events,Auto-Regressive Model,10,TN
make_events,Auto-Regressive Model,10,TN
explore_files,Auto-Regressive Model,10,TN
explore_files,Auto-Regressive Model,10,TN
explore_files,Auto-Regressive Model,10,TN
download_puzzles,Time-Warped Edit Distance,0,TN
download_puzzles,Time-Warped Edit Distance,0,TN
download_puzzles,Time-Warped Edit Distance,0,FN
connect_ssh,Time-Warped Edit Distance,0,TN
connect_ssh,Time-Warped Edit Distance,0,TN
connect_ssh,Time-Warped Edit Distance,0,FN
ssh_shell,Time-Warped Edit Distance,0,TN
ssh_shell,Time-Warped Edit Distance,0,TN
ssh_shell,Time-Warped Edit Distance,0,TN
open_pdf,Time-Warped Edit Distance,0,TN
open_pdf,Time-Warped Edit Distance,0,TN
open_pdf,Time-Warped Edit Distance,0,FN
learn_cards,Time-Warped Edit Distance,0,TN
learn_cards,Time-Warped Edit Distance,0,TN
learn_cards,Time-Warped Edit Distance,0,FN
make_deck,Time-Warped Edit Distance,0,TP
make_deck,Time-Warped Edit Distance,0,TN
make_deck,Time-Warped Edit Distance,0,TN
write_transactions,Time-Warped Edit Distance,0,TP
write_transactions,Time-Warped Edit Distance,0,TN
write_transactions,Time-Warped Edit Distance,0,TN
make_events,Time-Warped Edit Distance,0,TN
make_events,Time-Warped Edit Distance,0,TN
make_events,Time-Warped Edit Distance,0,TN
explore_files,Time-Warped Edit Distance,0,TN
explore_files,Time-Warped Edit Distance,0,TN
explore_files,Time-Warped Edit Distance,0,TN
download_puzzles,Time-Warped Edit Distance,1,TN
download_puzzles,Time-Warped Edit Distance,1,TN
download_puzzles,Time-Warped Edit Distance,1,FN
connect_ssh,Time-Warped Edit Distance,1,TN
connect_ssh,Time-Warped Edit Distance,1,TN
connect_ssh,Time-Warped Edit Distance,1,FN
ssh_shell,Time-Warped Edit Distance,1,TN
ssh_shell,Time-Warped Edit Distance,1,TN
ssh_shell,Time-Warped Edit Distance,1,TN
open_pdf,Time-Warped Edit Distance,1,TN
open_pdf,Time-Warped Edit Distance,1,TN
open_pdf,Time-Warped Edit Distance,1,FN
learn_cards,Time-Warped Edit Distance,1,TN
learn_cards,Time-Warped Edit Distance,1,TN
learn_cards,Time-Warped Edit Distance,1,FN
make_deck,Time-Warped Edit Distance,1,TP
make_deck,Time-Warped Edit Distance,1,TN
make_deck,Time-Warped Edit Distance,1,TN
write_transactions,Time-Warped Edit Distance,1,TN
write_transactions,Time-Warped Edit Distance,1,TN
write_transactions,Time-Warped Edit Distance,1,FN
make_events,Time-Warped Edit Distance,1,TN
make_events,Time-Warped Edit Distance,1,TN
make_events,Time-Warped Edit Distance,1,TN
explore_files,Time-Warped Edit Distance,1,TN
explore_files,Time-Warped Edit Distance,1,TN
explore_files,Time-Warped Edit Distance,1,TN
download_puzzles,Time-Warped Edit Distance,5,TN
download_puzzles,Time-Warped Edit Distance,5,TN
download_puzzles,Time-Warped Edit Distance,5,FN
connect_ssh,Time-Warped Edit Distance,5,TN
connect_ssh,Time-Warped Edit Distance,5,TN
connect_ssh,Time-Warped Edit Distance,5,FN
ssh_shell,Time-Warped Edit Distance,5,TN
ssh_shell,Time-Warped Edit Distance,5,TN
ssh_shell,Time-Warped Edit Distance,5,TN
open_pdf,Time-Warped Edit Distance,5,TN
open_pdf,Time-Warped Edit Distance,5,TN
open_pdf,Time-Warped Edit Distance,5,FN
learn_cards,Time-Warped Edit Distance,5,TN
learn_cards,Time-Warped Edit Distance,5,TN
learn_cards,Time-Warped Edit Distance,5,FN
make_deck,Time-Warped Edit Distance,5,TP
make_deck,Time-Warped Edit Distance,5,TN
make_deck,Time-Warped Edit Distance,5,TN
write_transactions,Time-Warped Edit Distance,5,TN
write_transactions,Time-Warped Edit Distance,5,TN
write_transactions,Time-Warped Edit Distance,5,FN
make_events,Time-Warped Edit Distance,5,TN
make_events,Time-Warped Edit Distance,5,TN
make_events,Time-Warped Edit Distance,5,TN
explore_files,Time-Warped Edit Distance,5,TN
explore_files,Time-Warped Edit Distance,5,TN
explore_files,Time-Warped Edit Distance,5,TN
download_puzzles,Time-Warped Edit Distance,10,TN
download_puzzles,Time-Warped Edit Distance,10,TN
download_puzzles,Time-Warped Edit Distance,10,FN
connect_ssh,Time-Warped Edit Distance,10,TN
connect_ssh,Time-Warped Edit Distance,10,TN
connect_ssh,Time-Warped Edit Distance,10,FN
ssh_shell,Time-Warped Edit Distance,10,TN
ssh_shell,Time-Warped Edit Distance,10,TN
ssh_shell,Time-Warped Edit Distance,10,TN
open_pdf,Time-Warped Edit Distance,10,TN
open_pdf,Time-Warped Edit Distance,10,TN
open_pdf,Time-Warped Edit Distance,10,FN
learn_cards,Time-Warped Edit Distance,10,TN
learn_cards,Time-Warped Edit Distance,10,TN
learn_cards,Time-Warped Edit Distance,10,FN
make_deck,Time-Warped Edit Distance,10,TN
make_deck,Time-Warped Edit Distance,10,TN
make_deck,Time-Warped Edit Distance,10,FN
write_transactions,Time-Warped Edit Distance,10,TN
write_transactions,Time-Warped Edit Distance,10,TN
write_transactions,Time-Warped Edit Distance,10,FN
make_events,Time-Warped Edit Distance,10,TN
make_events,Time-Warped Edit Distance,10,TN
make_events,Time-Warped Edit Distance,10,TN
explore_files,Time-Warped Edit Distance,10,TN
explore_files,Time-Warped Edit Distance,10,TN
explore_files,Time-Warped Edit Distance,10,TN
