App - ConnectBot
Scenario - connect_ssh
Level - 5sec
Measure - ARPicDistance
Test Statistic - Mann-Whitney U Test
Effect Size Measure - Simple Difference:Kerby
Alpha Level - 0.05


"Before.Version","After.Version","Diff","Direction","P.Value","Simple.Diff","Within.Diffs.Mean","Within.Diffs.SD","Between.Diffs.Mean","Between.Diffs.SD","Runtime"
"1.8.3_b","1.8.6_b",FALSE,NA,0.816,-0.03,0.015,0.023,0.013,0.022,3.737
"1.8.6_b","1.8.6_f_m",TRUE,"NEGATIVE",0,0.994,0.01,0.021,0.15,0.058,4.277
"1.8.6_f_m","1.9.0a2_f",FALSE,NA,0,0.267,0.096,0.041,0.138,0.089,4.962
