Trial,Energy (J)
1,777.9053895058746
2,731.6835065592395
3,707.371044360789
4,636.075890793704
5,701.8892641503229
6,745.968671861223
7,718.7645155774163
8,693.9412661636349
9,687.1212754277879
10,674.773820293787
11,698.5462722639274
12,675.1781444848453
13,642.4239103244238
14,692.4750294395792
15,667.7964475789387
16,641.4000376034177
17,665.9935273140126
18,723.7565027212937
19,662.4041004144028
20,737.3559349867381
21,702.0223595295067
22,683.626334760821
23,649.0858933861547
24,680.8945792808682
25,718.2926612770873
26,688.4514048451754
27,732.377030037723
28,643.0388410040449
29,745.0687746067292
30,702.5341247180077
