App - ConnectBot
Scenario - ssh_shell
Length - 5sec
Measure - FourierDistance
Before Version - 1.8.4
After Version - 1.8.5


"Before.Trace.ID1","Before.Trace.ID2","Difference","Runtime"
1,2,48739.7811919678,0
1,3,54533.3163358238,0.00100000000384171
1,4,50367.9546153053,0
1,5,58114.66644854,0
1,6,44390.6315176144,0.000999999996565748
1,7,66744.9120638098,0
1,8,58950.7381635094,0
1,9,74184.2468862466,0.00100000000384171
1,10,52793.1845300167,0
1,11,49403.5219861974,0.000999999996565748
1,12,67515.5011126553,0
1,13,41114.3541469687,0
1,14,45531.4150886036,0.00100000000384171
1,15,41791.2943836764,0
1,16,62166.8850778366,0
1,17,67665.5258926285,0.000999999996565748
1,18,57860.9869930524,0
1,19,64542.0691689313,0.000999999996565748
1,20,61996.7131382785,0
1,21,59928.7187799925,0
1,22,65430.1234799376,0.00100000000384171
1,23,63177.1606045897,0
1,24,61499.6579773683,0
1,25,54570.8922553967,0.000999999996565748
1,26,61789.7953856264,0
1,27,48168.2129530653,0.00100000000384171
1,28,39595.9460577982,0
1,29,47868.8595391286,0
1,30,52949.300382603,0.000999999996565748
2,3,39043.382604862,0
2,4,37383.5403835616,0
2,5,37585.7496256908,0.00100000000384171
2,6,23400.3142607041,0
2,7,36592.2668522318,0
2,8,31251.9056624455,0
2,9,43824.967334072,0
2,10,40901.9845236974,0.00100000000384171
2,11,42254.951266956,0
2,12,50295.847741804,0
2,13,23913.3333927532,0.000999999996565748
2,14,30382.646207153,0
2,15,38580.2983945993,0
2,16,32418.4953274217,0.00100000000384171
2,17,43148.0312818552,0
2,18,34382.2921070805,0.000999999996565748
2,19,50636.0367831451,0
2,20,35444.3431914377,0
2,21,42328.0134449975,0.00100000000384171
2,22,37432.4809718645,0
2,23,51979.8250675264,0
2,24,33039.0629735129,0.000999999996565748
2,25,40018.6653048139,0
2,26,42021.4825469148,0.00100000000384171
2,27,42818.7269521874,0
2,28,40208.689220727,0
2,29,26890.7922847509,0.000999999996565748
2,30,23607.0185017092,0
3,4,49160.9555668376,0
3,5,43161.2478193095,0.00100000000384171
3,6,40537.1279273876,0
3,7,39290.0065110494,0
3,8,38796.0795664989,0
3,9,35586.1220386232,0
3,10,53731.0353216283,0.000999999996565748
3,11,48282.4559799455,0
3,12,53442.0770634752,0
3,13,38742.534630889,0.00100000000384171
3,14,50662.5617238889,0
3,15,47333.2028602828,0
3,16,45154.0085077598,0.000999999996565748
3,17,37635.7163741539,0
3,18,38859.6128276183,0.00100000000384171
3,19,54089.5143885204,0
3,20,38809.8519877335,0
3,21,42214.0605746642,0.000999999996565748
3,22,45271.1536175038,0
3,23,52734.0312949007,0
3,24,39602.7221073779,0.00100000000384171
3,25,41581.6157001693,0
3,26,52247.7211297698,0.000999999996565748
3,27,42772.4128561327,0
3,28,43197.6161011365,0
3,29,34523.0891999412,0.00100000000384171
3,30,39688.5375180394,0
4,5,40061.5987553326,0
4,6,29001.0420031709,0.000999999996565748
4,7,39878.8387170882,0
4,8,45459.5589689216,0.00100000000384171
4,9,54446.0195589632,0
4,10,33678.5987484924,0
4,11,47000.640744794,0.000999999996565748
4,12,48992.3661178683,0
4,13,31260.4392539773,0
4,14,40305.7292431205,0.00100000000384171
4,15,43344.8019998079,0
4,16,41403.5616522175,0.000999999996565748
4,17,46728.1930078343,0
4,18,42997.5806189934,0
4,19,58128.8027321969,0.00100000000384171
4,20,45464.722975095,0
4,21,47603.2919127904,0
4,22,51074.8899170357,0.000999999996565748
4,23,55396.5790096744,0
4,24,35426.6666803858,0
4,25,47822.7636915497,0
4,26,48833.2600838019,0
4,27,42196.4833463154,0.000999999996565748
4,28,42475.4130824998,0
4,29,37660.5907921927,0
4,30,40242.2639717958,0.00100000000384171
5,6,33989.8155402299,0
5,7,34763.3489177449,0
5,8,53917.4209535034,0
5,9,41692.1842592337,0
5,10,45482.9397650459,0.00899999999819556
5,11,57362.2010598762,0
5,12,43635.5523823173,0.00100000000384171
5,13,41026.6111598979,0
5,14,54720.6390965325,0
5,15,35076.1928066141,0.000999999996565748
5,16,43371.9783758145,0
5,17,26349.3259872252,0.00100000000384171
5,18,38704.2305316588,0
5,19,62407.9398289137,0
5,20,39225.79294209,0.000999999996565748
5,21,56316.2303831248,0
5,22,57494.0374910987,0
5,23,66545.436947454,0.00100000000384171
5,24,37272.7052237164,0
5,25,51995.3752782951,0.000999999996565748
5,26,50344.5742204244,0
5,27,46489.2774696684,0
5,28,30029.7406929345,0.00100000000384171
5,29,42293.6028854297,0
5,30,42623.9868446335,0
6,7,31477.2691703059,0.000999999996565748
6,8,39553.470100167,0
6,9,47483.8187012692,0
6,10,32510.2263882346,0
6,11,35848.0495295563,0
6,12,45095.4263901756,0.00100000000384171
6,13,17865.1197209604,0
6,14,27454.0082883,0
6,15,36154.4019387727,0.000999999996565748
6,16,32450.7732928647,0
6,17,41258.5970885545,0
6,18,33761.705777628,0
6,19,48709.0986822644,0
6,20,37165.045783819,0.000999999996565748
6,21,36169.4309159516,0
6,22,38272.5372872896,0
6,23,48260.6926077717,0.00100000000384171
6,24,27403.6406327481,0
6,25,36217.8822235811,0
6,26,40931.97331913,0.000999999996565748
6,27,36692.1448774348,0
6,28,34622.7533917111,0.00100000000384171
6,29,24723.2000324934,0
6,30,25177.6116662394,0
7,8,47419.7244853927,0.000999999996565748
7,9,33399.1732500554,0
7,10,36503.1125103937,0
7,11,43076.194026073,0.00100000000384171
7,12,36298.9358864751,0
7,13,38359.8775057115,0
7,14,45293.4229061032,0
7,15,49957.1162788742,0
7,16,27007.6825489461,0.00100000000384171
7,17,29793.8434231689,0
7,18,30856.1025913951,0
7,19,44584.4528943795,0.000999999996565748
7,20,28458.7162753703,0
7,21,35516.0055684328,0
7,22,38590.3286946608,0.00100000000384171
7,23,49737.036481654,0
7,24,26089.2636321856,0.000999999996565748
7,25,36752.3947450449,0
7,26,37021.1052568931,0
7,27,41613.0835293091,0.00100000000384171
7,28,45385.228502744,0
7,29,38252.7779753151,0
7,30,32931.8496750691,0.000999999996565748
8,9,45207.5300043784,0
8,10,55217.0936093727,0
8,11,52244.8077101525,0
8,12,63023.4074551421,0
8,13,35174.959896323,0.000999999996565748
8,14,40422.021559405,0
8,15,53144.2785244131,0
8,16,44961.2491500018,0.000999999996565748
8,17,53008.1890523612,0
8,18,44476.8119481137,0
8,19,60124.1002919204,0.00100000000384171
8,20,45387.4218304656,0
8,21,47446.4076326641,0.000999999996565748
8,22,38708.3914939434,0
8,23,54489.6618735984,0
8,24,38935.4122519401,0.00100000000384171
8,25,49180.2147083129,0
8,26,54204.8768306545,0
8,27,50908.9043541359,0.000999999996565748
8,28,56006.082894339,0
8,29,33576.1834563141,0
8,30,35053.1737958547,0
9,10,53262.6321467576,0
9,11,59353.7633991912,0.000999999996565748
9,12,40831.4684969471,0
9,13,48598.584228363,0
9,14,56859.6159793971,0.00100000000384171
9,15,51312.0531609472,0
9,16,40580.4394518859,0
9,17,31272.8851544513,0.000999999996565748
9,18,36863.8571389671,0
9,19,51943.6773499799,0.00100000000384171
9,20,33181.4093994611,0
9,21,46608.5456040191,0
9,22,41885.7501045796,0.000999999996565748
9,23,52612.305683596,0
9,24,36180.6451938891,0
9,25,44534.5245314198,0.00100000000384171
9,26,46859.1734386464,0
9,27,45121.7911680699,0
9,28,52269.4202022643,0
9,29,41590.2565187532,0
9,30,44163.7323267122,0.00100000000384171
10,11,32863.1488619098,0
10,12,32241.7783059697,0
10,13,37230.101187628,0.000999999996565748
10,14,35032.4568448402,0
10,15,42703.3992395018,0
10,16,30004.9050885256,0
10,17,47679.5694114654,0
10,18,36783.2693748933,0.000999999996565748
10,19,35891.5245905699,0
10,20,37704.7506280776,0
10,21,36622.7109208348,0.000999999996565748
10,22,42425.2003021163,0
10,23,41276.4890378958,0
10,24,37593.7459760266,0.00100000000384171
10,25,32032.7653440787,0
10,26,28869.6902242864,0.000999999996565748
10,27,32066.387642319,0
10,28,42117.3999979413,0
10,29,42775.407356287,0.00100000000384171
10,30,38145.6987192933,0
11,12,51038.5747097654,0.000999999996565748
11,13,35335.4187962284,0
11,14,32655.5894503272,0
11,15,49626.1062527931,0.00100000000384171
11,16,36792.2571986384,0
11,17,55745.8409516291,0.000999999996565748
11,18,41783.2705827499,0
11,19,35398.8009748327,0
11,20,43486.577173256,0.00100000000384171
11,21,26987.0317253466,0
11,22,37019.2844370893,0
11,23,35660.0599295027,0.000999999996565748
11,24,41137.9391261319,0
11,25,27921.2298929802,0.000999999996565748
11,26,35813.3693114126,0
11,27,34617.0467062781,0
11,28,47086.7846422295,0.00100000000384171
11,29,40011.5130476619,0
11,30,34025.0498913698,0
12,13,50523.4695389813,0.000999999996565748
12,14,52190.1531400457,0
12,15,46062.6883208887,0.00100000000384171
12,16,37226.8769116977,0
12,17,37114.5638339831,0
12,18,36670.2205402405,0.000999999996565748
12,19,38704.8517072693,0
12,20,38986.9499991887,0
12,21,45523.5392312489,0.00100000000384171
12,22,49051.1281741596,0
12,23,44859.4056291149,0
12,24,40933.9724988426,0
12,25,34313.4255378426,0
12,26,34671.0479746284,0.00100000000384171
12,27,35111.0473350081,0
12,28,46908.2100396361,0
12,29,49424.5705577236,0.000999999996565748
12,30,47848.9137029702,0
13,14,24662.3732559415,0
13,15,36116.325660201,0
13,16,37776.1995899173,0
13,17,46019.9764568746,0.000999999996565748
13,18,37364.3702004412,0
13,19,50061.7872886468,0
13,20,41216.4219046584,0.00100000000384171
13,21,36730.7356493088,0
13,22,36168.868435499,0
13,23,44943.0753953056,0.000999999996565748
13,24,29496.4615847859,0
13,25,36712.7061133879,0.00100000000384171
13,26,44230.3451468614,0
13,27,35867.0484915819,0
13,28,35861.1502161447,0.000999999996565748
13,29,21831.0607388495,0
13,30,26117.9377359962,0
14,15,43737.0445362965,0.00100000000384171
14,16,36811.609408552,0
14,17,58828.7818139755,0
14,18,42272.2006597333,0
14,19,42561.011443145,0
14,20,43547.8921756883,0.00100000000384171
14,21,34567.6174619395,0
14,22,31958.7622960387,0
14,23,39469.9502028289,0.000999999996565748
14,24,39708.0114027297,0
14,25,34243.717846203,0
14,26,40885.3849000365,0
14,27,39792.3854269342,0
14,28,47366.0446533851,0.00100000000384171
14,29,29688.5061682113,0
14,30,30578.5877440778,0
15,16,47921.97443633,0.000999999996565748
15,17,44673.7792021025,0
15,18,43184.8184013165,0
15,19,56698.3042415116,0.00100000000384171
15,20,44375.7687525781,0
15,21,51923.9305204717,0.000999999996565748
15,22,51538.1224342215,0
15,23,53957.3750624889,0
15,24,43057.8056263148,0.00100000000384171
15,25,43651.6865761321,0
15,26,47820.4062574783,0
15,27,33414.1691725097,0.000999999996565748
15,28,23174.1202398305,0
15,29,36789.0859574804,0
15,30,42000.9543296209,0
16,17,41994.081547502,0
16,18,26940.5372034049,0.000999999996565748
16,19,32267.5052660468,0
16,20,23559.1075111504,0
16,21,32313.8363719064,0.00100000000384171
16,22,33228.7080122022,0
16,23,44683.9354255374,0
16,24,33841.7912158774,0.000999999996565748
16,25,32691.7978395694,0
16,26,22541.2033208478,0.00100000000384171
16,27,37562.3576229381,0
16,28,48041.8564537145,0
16,29,39675.3397431722,0.000999999996565748
16,30,25619.5048716561,0
17,18,33309.3264696643,0
17,19,57642.6907699203,0.00100000000384171
17,20,36187.2921940111,0
17,21,52068.2781072391,0.000999999996565748
17,22,53343.7813215602,0
17,23,60185.7631594361,0
17,24,33304.0381447209,0.00100000000384171
17,25,45903.9672095316,0
17,26,47033.770004584,0
17,27,43539.4471805443,0.000999999996565748
17,28,39627.9650186413,0
17,29,45362.9295362977,0
17,30,42752.2095023197,0
18,19,38510.7234648125,0
18,20,24542.2618712786,0.00100000000384171
18,21,39507.7866688408,0
18,22,39590.7375424878,0
18,23,47750.8524712462,0.000999999996565748
18,24,33515.4872022124,0
18,25,35572.415656936,0
18,26,24520.9002940855,0.00100000000384171
18,27,33020.5955756562,0
18,28,39919.6659871962,0.000999999996565748
18,29,40779.8630915657,0
18,30,28855.6860315604,0
19,20,38546.5876284131,0.00100000000384171
19,21,29798.9055532826,0
19,22,37096.4853722363,0.00899999999819556
19,23,31996.3924204419,0
19,24,48854.3972543819,0
19,25,26759.1515016046,0.00100000000384171
19,26,24582.5285614749,0
19,27,35757.4398436178,0.000999999996565748
19,28,57477.0104354926,0
19,29,50893.6438620892,0
19,30,42727.9945749081,0.00100000000384171
20,21,37609.8237471077,0
20,22,37060.1344718738,0
20,23,49749.9023476161,0.000999999996565748
20,24,38208.6672625091,0
20,25,37429.6489434098,0.000999999996565748
20,26,28785.2584256257,0
20,27,38035.5345976498,0
20,28,41943.3531404331,0.00100000000384171
20,29,41343.542086376,0
20,30,33647.3939256907,0
21,22,24222.4494888745,0.000999999996565748
21,23,26556.2781233594,0
21,24,35173.317420307,0.00100000000384171
21,25,23144.7518734445,0
21,26,35340.5298690304,0
21,27,32073.206946806,0.000999999996565748
21,28,52268.3253905743,0
21,29,35348.6775836328,0
21,30,34035.8746817348,0.00100000000384171
22,23,30852.4276064897,0
22,24,33146.7367682896,0
22,25,29273.615604073,0
22,26,37494.7947261759,0
22,27,38758.9025404577,0.00100000000384171
22,28,55944.9636576779,0
22,29,32779.9568793323,0
22,30,31811.3775252733,0.000999999996565748
23,24,42844.4339984652,0
23,25,22513.7686775335,0
23,26,40661.1527134101,0
23,27,31455.3966227798,0
23,28,59066.9640920147,0.000999999996565748
23,29,41370.5499361651,0
23,30,45619.4928392577,0
24,25,34554.5227540351,0.00100000000384171
24,26,40820.273570729,0
24,27,35010.9974127711,0
24,28,44029.5204514097,0.000999999996565748
24,29,28633.1717457476,0
24,30,27720.2710717784,0.00100000000384171
25,26,31503.4719558565,0
25,27,25584.9512683523,0
25,28,45879.8107709001,0.000999999996565748
25,29,34258.7588866156,0
25,30,33834.7377896827,0
26,27,31390.1523583683,0.00100000000384171
26,28,47423.8537990311,0
26,29,47830.6392629179,0
26,30,33131.7515951429,0
27,28,36064.7345516574,0
27,29,36451.0291978671,0.000999999996565748
27,30,35770.1311811188,0
28,29,41851.4113977406,0
28,30,42343.1367608713,0.00100000000384171
29,30,30706.0211313432,0


"After.Trace.ID","Before.Trace.ID","Difference","Runtime"
1,1,43457.8772999017,0
1,2,29883.4279671475,0.00100000000384171
1,3,49037.4260415654,0
1,4,34792.4962141774,0
1,5,48429.9474026671,0.000999999996565748
1,6,29549.0594233595,0
1,7,50553.6851870929,0
1,8,38854.8923783688,0
1,9,55591.4322848735,0
1,10,44039.0055362981,0.000999999996565748
1,11,45006.4118281964,0
1,12,57279.5773727423,0
1,13,22656.9917295086,0.00100000000384171
1,14,30023.1664323314,0
1,15,34925.7511354524,0.000999999996565748
1,16,47368.5678701498,0
1,17,56038.663443967,0
1,18,49093.2032312144,0.000999999996565748
1,19,58767.9042010729,0
1,20,51412.9707120204,0
1,21,45237.9458429078,0.00100000000384171
1,22,41938.0204956181,0
1,23,47833.3495825566,0.000999999996565748
1,24,37309.8674789316,0
1,25,44029.4011520163,0
1,26,52989.0954650229,0.00100000000384171
1,27,40053.1774721139,0
1,28,43386.5364242195,0
1,29,23849.2096269037,0.000999999996565748
1,30,35798.1834847906,0
2,1,53836.4058075627,0.00100000000384171
2,2,25496.3889985323,0
2,3,37135.4830899507,0
2,4,44317.3751493478,0.000999999996565748
2,5,36956.381012262,0
2,6,35126.6307923786,0
2,7,45470.915862246,0
2,8,30899.4238514264,0
2,9,44894.035406659,0.000999999996565748
2,10,55101.9851862533,0
2,11,56309.1904042214,0
2,12,61303.7903771505,0.00100000000384171
2,13,35529.3310730098,0
2,14,46175.7095858138,0
2,15,41225.555063615,0
2,16,44353.4207273445,0
2,17,44769.1577501576,0.00100000000384171
2,18,42727.1329853952,0
2,19,65689.5900114493,0
2,20,40099.8005702341,0.000999999996565748
2,21,55016.2871503761,0
2,22,49215.7475539711,0
2,23,66056.6948783195,0
2,24,43172.2181140508,0
2,25,54182.110490203,0.000999999996565748
2,26,55188.9090929962,0
2,27,52347.8938445056,0
2,28,41840.5999826137,0.00100000000384171
2,29,34955.2844808985,0
2,30,36186.1259750003,0.000999999996565748
3,1,71035.5497974326,0
3,2,86202.615979797,0
3,3,97936.2620479836,0.00100000000384171
3,4,84385.9704436124,0
3,5,77960.4648640449,0
3,6,83449.5272858113,0.000999999996565748
3,7,104356.089680104,0
3,8,98462.9168790981,0
3,9,111044.198995049,0
3,10,99460.4571182665,0
3,11,103825.47889592,0.00100000000384171
3,12,108842.988489404,0
3,13,83551.7265760972,0
3,14,95587.0749827109,0.000999999996565748
3,15,73864.4023814428,0
3,16,105642.415208283,0.00100000000384171
3,17,95453.1096984148,0
3,18,99133.0163011364,0.000999999996565748
3,19,121220.051130091,0
3,20,103633.664306786,0
3,21,113029.753336563,0.00100000000384171
3,22,114060.346072564,0
3,23,119058.580584427,0
3,24,97516.2505301602,0
3,25,108131.457807211,0
3,26,108941.87031777,0.00100000000384171
3,27,97553.9022559343,0
3,28,71233.4532989953,0
3,29,90686.3679538194,0.000999999996565748
3,30,93940.7156857545,0
4,1,49295.075474266,0
4,2,41423.8312255057,0
4,3,57028.2092408246,0
4,4,34689.216824838,0.00100000000384171
4,5,38632.9030055814,0
4,6,31156.657458954,0
4,7,50293.0562419219,0.000999999996565748
4,8,57265.2394895141,0
4,9,66344.8248865554,0.00100000000384171
4,10,47957.8687698299,0
4,11,53752.3943336285,0
4,12,60489.3598034174,0.000999999996565748
4,13,33887.1567911459,0
4,14,48133.7029790237,0
4,15,40515.8171766926,0.00100000000384171
4,16,53763.3915432155,0
4,17,51710.2576544258,0.000999999996565748
4,18,53310.0641236248,0
4,19,71483.3960742344,0
4,20,58167.3645915045,0.00100000000384171
4,21,59361.8459145074,0
4,22,61939.2093508826,0
4,23,68724.1900090814,0.000999999996565748
4,24,42945.1137568179,0
4,25,57479.0521065777,0.00100000000384171
4,26,60887.8680790821,0
4,27,52156.3154027549,0
4,28,38094.9458761015,0.000999999996565748
4,29,43591.9848004109,0
4,30,42725.5834746059,0
5,1,67709.2249292231,0.00100000000384171
5,2,35658.663296089,0
5,3,45002.4706671255,0.000999999996565748
5,4,54348.7633504505,0
5,5,49788.131873158,0
5,6,45571.0031469431,0.00100000000384171
5,7,44363.3413160317,0
5,8,40863.7380363285,0
5,9,38359.5368310025,0.000999999996565748
5,10,51887.2545039379,0
5,11,53510.0093144407,0
5,12,53717.6109110532,0
5,13,43886.1741210179,0
5,14,46866.1507646639,0.000999999996565748
5,15,47240.0403575165,0
5,16,41408.9419232077,0
5,17,49057.6765135369,0.00100000000384171
5,18,44042.6007627451,0
5,19,53644.2769318587,0
5,20,35342.8724959214,0.000999999996565748
5,21,46890.4147933415,0
5,22,35217.9699521766,0.000999999996565748
5,23,51865.0690962874,0
5,24,43413.7261217709,0
5,25,44911.3294052592,0.00100000000384171
5,26,47009.4751399624,0
5,27,49535.0949670228,0
5,28,51981.2569631778,0.000999999996565748
5,29,39139.7903219764,0
5,30,42942.0121732547,0.00100000000384171
6,1,61441.3582953389,0
6,2,29931.0325408923,0
6,3,43908.4307730858,0.000999999996565748
6,4,42313.7547639638,0
6,5,48644.4025988241,0
6,6,30491.8024258811,0.00100000000384171
6,7,38277.2652327869,0
6,8,33864.5127820882,0.000999999996565748
6,9,47604.8433375759,0
6,10,47268.5233102535,0
6,11,41537.0409771365,0.00100000000384171
6,12,56626.5126867042,0
6,13,28429.257321213,0
6,14,37080.2586071478,0.000999999996565748
6,15,50037.9921755355,0
6,16,42115.8306342096,0.00100000000384171
6,17,48827.6334570276,0
6,18,45230.6629645427,0
6,19,56410.9379650012,0.000999999996565748
6,20,47600.5425423396,0
6,21,39086.6256619133,0
6,22,32824.4209465583,0.00100000000384171
6,23,47432.0774496964,0
6,24,26134.3015350735,0.000999999996565748
6,25,41802.7540324881,0
6,26,51361.6994188573,0
6,27,47502.7103597867,0.00100000000384171
6,28,52431.0375992957,0
6,29,27193.0290029643,0
6,30,32022.7046598158,0.000999999996565748
7,1,66131.4184518234,0
7,2,54875.4398103536,0.00100000000384171
7,3,55216.2422849666,0
7,4,44003.8824308535,0
7,5,56433.5931632403,0.000999999996565748
7,6,45286.604539568,0
7,7,40141.1792198067,0
7,8,60474.264831753,0.000999999996565748
7,9,50266.9923149574,0
7,10,30018.6441935973,0
7,11,43569.1705993586,0
7,12,30465.8088101195,0.00800000000162981
7,13,47421.6681510038,0.000999999996565748
7,14,46344.876280235,0
7,15,54163.9465452048,0.00100000000384171
7,16,42035.8032564858,0
7,17,50943.5232053783,0
7,18,42690.7066474982,0.000999999996565748
7,19,36558.9863956477,0
7,20,46919.8229442801,0.00100000000384171
7,21,35544.4313136223,0
7,22,43139.8973150321,0
7,23,32477.125347094,0.000999999996565748
7,24,39038.6656679807,0
7,25,32904.1290547058,0
7,26,38358.7851426015,0
7,27,32837.8270647888,0
7,28,55289.63610151,0.000999999996565748
7,29,47299.1049593911,0
7,30,49153.0862712643,0
8,1,54223.1531882482,0.00100000000384171
8,2,33328.6924149591,0
8,3,46338.6280551866,0
8,4,39101.2907295272,0
8,5,49243.5607091103,0
8,6,34391.735414385,0.000999999996565748
8,7,40086.2629292515,0
8,8,36488.5266265141,0
8,9,45553.3342119475,0.00100000000384171
8,10,35415.4236503458,0
8,11,41240.1855447392,0
8,12,47921.4127822494,0
8,13,35776.6666718591,0
8,14,31727.9662065523,0.00100000000384171
8,15,43556.8861938397,0
8,16,28745.5011040402,0
8,17,52261.7828108819,0.000999999996565748
8,18,37870.4433525375,0
8,19,41945.9164092904,0
8,20,32006.6156994116,0
8,21,34478.4887815196,0
8,22,33234.8920066951,0.000999999996565748
8,23,43615.4010359177,0
8,24,38830.3118264463,0
8,25,37572.637691172,0.00100000000384171
8,26,35021.6660817685,0
8,27,35342.6413316635,0
8,28,47167.8668712809,0
8,29,34904.0972058952,0
8,30,30057.5802259615,0.00100000000384171
9,1,32747.0603210093,0
9,2,38186.5229328693,0
9,3,49671.5697419674,0.000999999996565748
9,4,40731.6437145117,0
9,5,45838.6527732958,0
9,6,33963.1594749787,0
9,7,57355.6833990515,0
9,8,48767.4943099007,0.000999999996565748
9,9,64464.9631782874,0
9,10,51870.8922174861,0
9,11,49719.5116941575,0.00100000000384171
9,12,64221.1764693319,0
9,13,29773.3049894679,0
9,14,40190.9177967401,0
9,15,30228.481888787,0
9,16,56146.830248611,0.00100000000384171
9,17,57471.8601102692,0
9,18,53957.6189990506,0
9,19,67609.006200846,0.000999999996565748
9,20,56177.6217570028,0
9,21,55078.7063470866,0
9,22,56806.1530988047,0
9,23,60898.1492316553,0
9,24,47854.3094606154,0.00100000000384171
9,25,52480.3096382063,0
9,26,60706.1719258604,0
9,27,44960.9080350955,0.000999999996565748
9,28,33709.3938211871,0
9,29,34807.6927503221,0
9,30,42427.1756475846,0
10,1,55569.2118259707,0
10,2,35158.6209940266,0.000999999996565748
10,3,36244.9797174568,0
10,4,36701.7872179943,0
10,5,46423.2183140008,0.00100000000384171
10,6,29754.22198003,0
10,7,32590.1862457564,0
10,8,36568.6185259586,0.000999999996565748
10,9,38418.095531861,0
10,10,37912.0233578609,0.00100000000384171
10,11,36517.7986464357,0
10,12,42867.9542102226,0
10,13,26533.3808971742,0.000999999996565748
10,14,33239.2341770185,0
10,15,42688.6600391195,0
10,16,36989.1000203786,0.00100000000384171
10,17,42786.9102102366,0
10,18,36441.3344682865,0.000999999996565748
10,19,43767.6455582652,0
10,20,38913.0524167097,0
10,21,27526.5262715809,0.00100000000384171
10,22,28291.0617295163,0
10,23,32662.8786565617,0
10,24,23100.5866655898,0.000999999996565748
10,25,29705.9088052587,0
10,26,41676.0028589368,0.00100000000384171
10,27,30747.5460873598,0
10,28,45479.7531797581,0
10,29,23787.2537363416,0.000999999996565748
10,30,30859.3729991531,0
11,1,78811.586442487,0
11,2,63395.096376488,0.00100000000384171
11,3,60058.6986227336,0
11,4,66280.5619356272,0.000999999996565748
11,5,71774.7932013172,0
11,6,62704.5619635841,0
11,7,53539.4932284474,0.00899999999819556
11,8,65917.23191621,0
11,9,50551.2305750287,0.00100000000384171
11,10,50312.4623218269,0
11,11,57770.022918961,0
11,12,43657.9564981791,0.000999999996565748
11,13,64146.2133796425,0
11,14,56735.0441164016,0.00100000000384171
11,15,67092.499092763,0
11,16,47080.851956205,0
11,17,65337.748768752,0.000999999996565748
11,18,53119.0004078007,0
11,19,32810.6375563963,0
11,20,48299.8957343478,0.00100000000384171
11,21,42118.7222452469,0
11,22,45608.9620534745,0.000999999996565748
11,23,39033.2853209506,0
11,24,59193.3720287092,0
11,25,40495.9521886744,0.00100000000384171
11,26,44914.0645503205,0
11,27,47796.0978058256,0
11,28,70866.2987821034,0.000999999996565748
11,29,58320.1359059759,0
11,30,59290.5646283104,0.00100000000384171
12,1,67247.9536795756,0
12,2,39143.5248281582,0
12,3,44761.4261613913,0.000999999996565748
12,4,53460.7867146514,0
12,5,60861.4232222155,0
12,6,41901.8276703848,0.000999999996565748
12,7,39562.7943280048,0
12,8,42322.4766349819,0.00100000000384171
12,9,43376.3687598246,0
12,10,45106.8691521197,0
12,11,39329.5843035461,0.000999999996565748
12,12,48220.8946351168,0
12,13,39839.945568728,0
12,14,35951.0562790665,0.00100000000384171
12,15,58777.8481526362,0
12,16,36332.87330466,0.000999999996565748
12,17,54342.8277786839,0
12,18,42623.8529219819,0
12,19,36503.630705555,0.00100000000384171
12,20,42403.6555500247,0
12,21,29623.5831880796,0
12,22,24353.9395575057,0.000999999996565748
12,23,32335.3458804336,0
12,24,38088.6803091729,0.00100000000384171
12,25,30346.857554265,0
12,26,42216.4976290961,0
12,27,44664.5508488923,0.000999999996565748
12,28,61871.2846767305,0
12,29,35567.5093968462,0
12,30,37255.0236151339,0.00100000000384171
13,1,60193.72895208,0
13,2,41662.4216619373,0.000999999996565748
13,3,40936.627805336,0
13,4,44014.8238907979,0
13,5,45457.1795799399,0.00100000000384171
13,6,36452.2671175014,0
13,7,31836.0445921461,0
13,8,50303.0222129183,0.000999999996565748
13,9,35208.0126824401,0
13,10,35454.6407859566,0
13,11,42536.3352930443,0
13,12,30104.0707047531,0
13,13,38119.7599451634,0.000999999996565748
13,14,41304.2721737333,0
13,15,44113.5547867507,0
13,16,36134.0037328465,0.00100000000384171
13,17,42711.5121145406,0
13,18,38562.5100697045,0
13,19,36036.1464618279,0
13,20,37995.4042373223,0
13,21,29078.1177833227,0.000999999996565748
13,22,33725.6332366429,0
13,23,32241.967417076,0
13,24,33409.5974894526,0.00100000000384171
13,25,26632.9079568602,0
13,26,39202.4862754868,0
13,27,31447.4174418877,0
13,28,46694.3732252503,0
13,29,32911.369480441,0.00100000000384171
13,30,40964.9298617663,0
14,1,59049.3300407825,0
14,2,32290.8998918868,0.000999999996565748
14,3,42225.8522188986,0
14,4,37538.4445130684,0
14,5,27276.7196352619,0
14,6,28228.0048750408,0
14,7,21693.1221622,0.000999999996565748
14,8,49159.4374341759,0
14,9,36305.1867104587,0
14,10,31018.590317274,0.00100000000384171
14,11,43680.8423844706,0
14,12,30464.2477071772,0
14,13,36786.03958928,0.000999999996565748
14,14,41711.8592905118,0
14,15,38195.0117761199,0.00100000000384171
14,16,24366.1509289781,0
14,17,29849.7956136578,0
14,18,28012.6262047016,0.000999999996565748
14,19,42342.8397520506,0
14,20,26571.8322965788,0
14,21,39193.9123237331,0.00100000000384171
14,22,41230.2845122724,0
14,23,50296.6178461172,0.000999999996565748
14,24,28781.1841007887,0
14,25,34921.9095359052,0
14,26,32241.9267678693,0.00100000000384171
14,27,36276.1952435009,0
14,28,36904.2881674477,0
14,29,36960.5105803244,0.000999999996565748
14,30,29551.0990344637,0
15,1,87266.3224059895,0
15,2,69870.8929101846,0.00799999999435386
15,3,62455.0229567716,0
15,4,73868.0911253338,0
15,5,75812.7646347559,0
15,6,66171.2014964308,0.000999999996565748
15,7,51973.8127706208,0
15,8,71613.6516126956,0
15,9,54004.9240044521,0.00100000000384171
15,10,55501.7428169519,0
15,11,52458.3685623796,0.000999999996565748
15,12,50219.2988097259,0
15,13,66750.7305101784,0
15,14,64346.6778178833,0.00100000000384171
15,15,73823.8282006434,0
15,16,50896.9216395574,0
15,17,64404.0785337846,0.000999999996565748
15,18,55875.8855704359,0
15,19,35931.7910462212,0.00100000000384171
15,20,53280.6085351604,0
15,21,36930.1417201371,0
15,22,44046.7737491985,0.000999999996565748
15,23,37850.3131735766,0
15,24,55386.3860483457,0
15,25,40893.6059851224,0.00100000000384171
15,26,46037.6269744655,0
15,27,48140.5049635606,0.000999999996565748
15,28,74013.4436755413,0
15,29,63811.0857891149,0
15,30,59590.6088579559,0.00100000000384171
16,1,59213.7786771319,0
16,2,34603.1279136341,0
16,3,38191.1956604565,0.000999999996565748
16,4,43638.0047816602,0
16,5,32061.394502645,0.000999999996565748
16,6,31700.2474889361,0
16,7,24970.410687931,0
16,8,49709.7426792598,0.00100000000384171
16,9,38463.6764606489,0
16,10,36567.1791629418,0
16,11,38398.0543449025,0.000999999996565748
16,12,36769.7079604565,0
16,13,36083.1679511652,0.00100000000384171
16,14,45548.8101574477,0
16,15,42131.3369551576,0
16,16,28532.998312531,0.000999999996565748
16,17,27405.1689631915,0
16,18,25622.4444310751,0
16,19,42975.0799029947,0.00100000000384171
16,20,31118.9136817594,0
16,21,39269.7911061857,0.000999999996565748
16,22,42844.0763221059,0
16,23,50311.8142766884,0
16,24,28308.6686016972,0.00100000000384171
16,25,35446.5249622977,0
16,26,31859.1122689959,0
16,27,35964.8450575382,0.000999999996565748
16,28,36285.9402102867,0
16,29,40636.8113756571,0.00100000000384171
16,30,27604.971863142,0
17,1,55180.5168557171,0
17,2,40964.9461501595,0.000999999996565748
17,3,46811.3203038742,0
17,4,49088.4842780204,0
17,5,52027.6423814774,0.00100000000384171
17,6,37274.5512403239,0
17,7,38969.2007110261,0
17,8,52784.4924236182,0
17,9,50578.3331759356,0
17,10,30248.1173285937,0.00100000000384171
17,11,23028.1173509234,0
17,12,38369.5924194032,0
17,13,38909.8086768769,0.000999999996565748
17,14,36627.537705434,0
17,15,45831.3571946064,0
17,16,28757.7023583209,0
17,17,46832.7715782886,0
17,18,30074.4525976533,0.000999999996565748
17,19,26150.6339243746,0
17,20,35533.0393974395,0
17,21,29563.5884365216,0.00100000000384171
17,22,35363.9985768741,0
17,23,33584.6644913693,0
17,24,37636.7269014451,0
17,25,21716.1354009987,0
17,26,22488.2836377858,0.000999999996565748
17,27,28161.3540693125,0
17,28,44304.6560983919,0
17,29,42355.4595496455,0.00100000000384171
17,30,30917.9033648626,0
18,1,77820.3610482129,0
18,2,43946.1969256368,0
18,3,47701.3085500536,0
18,4,48216.5807341405,0.00100000000384171
18,5,55996.194566485,0
18,6,42996.7828725516,0
18,7,31056.9404733523,0.000999999996565748
18,8,40004.4312613168,0
18,9,38601.8491917434,0
18,10,48344.9893298648,0.00100000000384171
18,11,50376.4511763135,0
18,12,51003.2720068502,0.000999999996565748
18,13,44091.2361538108,0
18,14,45594.8182935285,0
18,15,63228.8882172182,0.00100000000384171
18,16,35753.0018065404,0
18,17,48143.923449005,0
18,18,41537.5251280914,0.000999999996565748
18,19,49901.8502303688,0
18,20,39215.9010530479,0.00100000000384171
18,21,37421.7381721771,0
18,22,31516.7496085615,0
18,23,47837.850884079,0.000999999996565748
18,24,32521.3431014033,0
18,25,44315.1112050992,0
18,26,45681.8794973124,0.00899999999819556
18,27,50436.6400504727,0
18,28,63900.2272256247,0.00100000000384171
18,29,42093.7508527026,0
18,30,38633.3824103519,0.000999999996565748
19,1,61429.9850828244,0
19,2,45267.7529645547,0
19,3,45617.1452549694,0.00100000000384171
19,4,50321.8084869657,0
19,5,61980.8450424767,0
19,6,43554.4661430779,0.000999999996565748
19,7,46130.015451448,0
19,8,43623.3960159655,0.00100000000384171
19,9,45091.953228913,0
19,10,45175.148530918,0
19,11,44402.2460813581,0.000999999996565748
19,12,48002.5067692735,0
19,13,40796.0681032676,0
19,14,37041.4178796776,0.00100000000384171
19,15,53124.730089914,0
19,16,43855.0461069494,0.000999999996565748
19,17,57830.831482261,0
19,18,47444.0740594131,0
19,19,40821.9896622042,0.00100000000384171
19,20,46035.3526338567,0
19,21,28563.6711165194,0
19,22,28518.5153130865,0
19,23,26213.3480638086,0
19,24,40284.5526325195,0.00100000000384171
19,25,30460.0906012883,0
19,26,46859.0101034661,0
19,27,36475.4491651487,0.000999999996565748
19,28,58655.6680988859,0
19,29,32437.594734101,0
19,30,43145.2569320599,0.00100000000384171
20,1,61713.3778868921,0
20,2,39998.703182818,0.000999999996565748
20,3,49187.0136083567,0
20,4,46287.6688765622,0
20,5,54061.6168779152,0.000999999996565748
20,6,39436.8394010263,0
20,7,40353.3710393861,0
20,8,43377.9960509203,0.00100000000384171
20,9,41019.7232038765,0
20,10,35089.3760455776,0.000999999996565748
20,11,41879.2259022345,0
20,12,38098.086158381,0
20,13,40523.2617250651,0.00100000000384171
20,14,33855.4933687886,0
20,15,45654.5378735677,0
20,16,30533.9112130385,0.000999999996565748
20,17,51652.9329944,0
20,18,36071.0415266018,0.00100000000384171
20,19,31477.0020710007,0
20,20,34363.2859720541,0
20,21,29439.9599803423,0.000999999996565748
20,22,26038.7731682347,0
20,23,29686.5521023458,0
20,24,36872.6238171738,0.00100000000384171
20,25,28478.9572871592,0
20,26,30603.7589614976,0.000999999996565748
20,27,30044.2381644891,0
20,28,52293.1587578994,0
20,29,36314.0563625387,0.00100000000384171
20,30,35505.0279443226,0
21,1,55623.7572602091,0
21,2,42758.5054911093,0.000999999996565748
21,3,43965.7731919707,0
21,4,43918.1601808045,0
21,5,52288.5975228891,0
21,6,37323.4240892852,0
21,7,38671.3026408381,0.000999999996565748
21,8,49548.8487510729,0
21,9,43158.8102819978,0
21,10,33907.8854850874,0.00100000000384171
21,11,39551.9582106133,0
21,12,33268.3687761596,0
21,13,36812.8143341865,0
21,14,34905.7343602144,0
21,15,44922.3335745729,0.00100000000384171
21,16,38263.0081944426,0
21,17,49187.7180279155,0
21,18,39831.5127309084,0.000999999996565748
21,19,32800.5872541342,0
21,20,41098.6065283384,0
21,21,28553.2182236859,0
21,22,33094.8185349414,0
21,23,25444.0443013647,0.000999999996565748
21,24,36808.3543547853,0
21,25,22473.4144189656,0
21,26,38764.7800346973,0.000999999996565748
21,27,29183.1919509032,0
21,28,48732.9832662732,0
21,29,33154.7136743362,0.00100000000384171
21,30,41224.8474619274,0
22,1,48136.1238721465,0.000999999996565748
22,2,38475.6299697184,0
22,3,36439.3569428068,0
22,4,40865.1520955319,0.00100000000384171
22,5,43493.7225806395,0
22,6,32212.7211723828,0
22,7,35154.2540489461,0.000999999996565748
22,8,49024.7628205488,0
22,9,41510.4547361589,0.00100000000384171
22,10,29660.9077440393,0
22,11,32188.9710774078,0
22,12,31686.838171924,0.000999999996565748
22,13,32822.174010783,0
22,14,35825.0201026649,0
22,15,37148.917999617,0.00100000000384171
22,16,35725.9035898515,0
22,17,40610.6080036346,0.000999999996565748
22,18,33603.6206145195,0
22,19,33396.1776730338,0
22,20,37361.1351403937,0.00899999999819556
22,21,29113.3433692788,0
22,22,36367.8380819235,0.00100000000384171
22,23,29391.9124866425,0
22,24,32481.1634870613,0
22,25,18661.4136132075,0.000999999996565748
22,26,34694.3839088156,0
22,27,22574.8875957766,0.00100000000384171
22,28,37726.318929621,0
22,29,30253.8182512281,0
22,30,36495.4752552309,0.000999999996565748
23,1,71897.2179654866,0
23,2,65461.829767723,0
23,3,75628.2499455853,0.00100000000384171
23,4,68874.3704459601,0
23,5,55443.8915385025,0.000999999996565748
23,6,69341.1007301069,0
23,7,82586.2193171677,0
23,8,74281.5474100971,0.00100000000384171
23,9,77249.450689836,0
23,10,83665.1991424738,0
23,11,94107.2268821205,0
23,12,84374.0799759944,0
23,13,68775.4514482352,0.00100000000384171
23,14,81021.0128256463,0
23,15,53122.611235614,0
23,16,84719.205571633,0.000999999996565748
23,17,70409.1434954413,0
23,18,79648.0837915107,0
23,19,102478.999842505,0
23,20,79071.4175555566,0
23,21,94961.6630459009,0.000999999996565748
23,22,90067.7008993294,0
23,23,98911.1847003263,0
23,24,76799.9811578971,0.00100000000384171
23,25,89092.8211312603,0
23,26,90955.4679042767,0
23,27,80745.5185911836,0.000999999996565748
23,28,58802.0053595268,0
23,29,69054.6770083071,0.00100000000384171
23,30,78012.0231154615,0
24,1,82029.2244881152,0
24,2,56853.6135560656,0.000999999996565748
24,3,55825.2054943929,0
24,4,57911.2472320679,0
24,5,63657.254123435,0.00100000000384171
24,6,52989.2938782768,0
24,7,35431.365166149,0.000999999996565748
24,8,58620.5907441106,0
24,9,43452.3679822021,0
24,10,43823.883845147,0.000999999996565748
24,11,48670.6720785644,0
24,12,40930.9202474916,0
24,13,55766.4170651131,0.00100000000384171
24,14,53559.8848860125,0
24,15,68452.8740597821,0.000999999996565748
24,16,35874.6306059192,0
24,17,53335.4929906798,0
24,18,43156.6985797913,0.00100000000384171
24,19,33611.8303613296,0
24,20,41601.9685496583,0
24,21,33623.2898056842,0.000999999996565748
24,22,37116.6040009512,0
24,23,39582.6625114885,0.00100000000384171
24,24,42169.1942341715,0
24,25,38377.054809461,0
24,26,37162.8847733248,0.000999999996565748
24,27,46248.5419022312,0
24,28,68080.5462928108,0
24,29,53991.4096156451,0.00100000000384171
24,30,47481.1009839605,0
25,1,66376.9805407489,0
25,2,49876.0026105542,0
25,3,50986.3647861491,0
25,4,44837.3883544931,0.00100000000384171
25,5,57893.9367575175,0
25,6,41012.4529793511,0
25,7,36424.1934117669,0.000999999996565748
25,8,54692.6780380029,0
25,9,48860.8088906761,0
25,10,34612.0488701728,0
25,11,38820.8303048452,0
25,12,40521.9817983359,0.000999999996565748
25,13,42394.2675792989,0
25,14,40815.9547399648,0
25,15,56205.988790997,0.00100000000384171
25,16,38585.5227616001,0
25,17,54057.629487169,0
25,18,47555.7844720595,0
25,19,36588.8548930752,0
25,20,45300.7365642623,0.00100000000384171
25,21,23670.3773205287,0
25,22,33170.4544276847,0
25,23,29035.536381757,0.000999999996565748
25,24,35801.2167354217,0
25,25,28932.2269371672,0
25,26,42938.1724208875,0
25,27,36951.8367263394,0
25,28,57930.5445346773,0.00100000000384171
25,29,39239.2992300337,0
25,30,43668.9987848981,0
26,1,67487.3032206293,0.000999999996565748
26,2,50273.1725200005,0
26,3,53394.5096972284,0
26,4,51969.2180827208,0.00100000000384171
26,5,63445.7177244113,0
26,6,43758.8929743929,0.000999999996565748
26,7,39789.6067834476,0
26,8,55963.8948898415,0
26,9,51885.005037552,0.00100000000384171
26,10,37120.6245106771,0
26,11,35912.2274115557,0
26,12,41876.1896607893,0.000999999996565748
26,13,44661.6476328338,0.0100000000020373
26,14,39465.9849532196,0
26,15,61086.358402929,0.00100000000384171
26,16,38285.021054406,0
26,17,56997.5300911424,0
26,18,44876.1941989576,0
26,19,29061.6862002468,0
26,20,46793.1325433375,0.000999999996565748
26,21,25816.8198059185,0
26,22,32577.9237366468,0
26,23,27481.3801091719,0.00100000000384171
26,24,39573.6091210705,0
26,25,27599.7415887101,0.000999999996565748
26,26,38710.6849106432,0
26,27,39431.6116426396,0
26,28,62182.3109677527,0.00100000000384171
26,29,44229.8029016804,0
26,30,43019.0236879089,0
27,1,70373.4380719051,0.000999999996565748
27,2,43355.9439522679,0
27,3,43460.6033493761,0.00100000000384171
27,4,49202.8595579093,0
27,5,54125.6164973569,0
27,6,40387.3568532602,0.000999999996565748
27,7,30235.1780429575,0
27,8,44918.894616305,0
27,9,34918.0474919711,0.00100000000384171
27,10,41080.6693420672,0
27,11,43372.4360070741,0.000999999996565748
27,12,39780.4501358808,0
27,13,42813.4345147113,0
27,14,41337.3928191865,0.00100000000384171
27,15,56648.2479049421,0
27,16,29898.5840978655,0
27,17,47676.8761956225,0.000999999996565748
27,18,36861.1089552893,0
27,19,34193.2868925799,0.00100000000384171
27,20,34063.9571603484,0
27,21,25560.9205122899,0
27,22,27273.4374868399,0.000999999996565748
27,23,34961.590569501,0
27,24,34016.5012706299,0
27,25,32033.026085233,0.00100000000384171
27,26,36443.5977076004,0
27,27,39117.7416231967,0.000999999996565748
27,28,58401.5187786867,0
27,29,37699.8259621247,0
27,30,36669.8067753222,0.00100000000384171
28,1,65218.0504896214,0
28,2,42951.9728516825,0
28,3,45111.4389547658,0.000999999996565748
28,4,51953.6474101111,0
28,5,59130.3552416593,0
28,6,42374.1530824127,0
28,7,37512.3188806587,0
28,8,47277.1267718756,0.00100000000384171
28,9,41262.3735621512,0
28,10,38065.8593802733,0
28,11,35341.3368953638,0.000999999996565748
28,12,40260.8729544178,0
28,13,42027.8497936658,0
28,14,37999.3044386853,0
28,15,56099.6596444156,0
28,16,31713.0394477665,0.000999999996565748
28,17,51188.2373226062,0
28,18,35482.2233842476,0
28,19,23766.0097774452,0.00100000000384171
28,20,36864.6368660362,0
28,21,23047.3922976828,0
28,22,23855.3090137297,0
28,23,26228.0562688595,0
28,24,37869.4484470328,0.00100000000384171
28,25,23724.1609684471,0
28,26,31583.3308355436,0
28,27,35320.0080016292,0.000999999996565748
28,28,57789.7448657298,0
28,29,39903.8419095802,0
28,30,37188.9304156711,0.00100000000384171
29,1,50103.026651676,0
29,2,28606.5876325686,0.000999999996565748
29,3,32886.8898096235,0
29,4,33844.0206159723,0
29,5,26268.8867814299,0.00100000000384171
29,6,29278.594869977,0
29,7,31851.1323070136,0
29,8,39837.9375161579,0.000999999996565748
29,9,33547.0201193946,0
29,10,35636.6253476707,0.00100000000384171
29,11,45834.815825651,0
29,12,35596.6968031024,0
29,13,30059.7959668364,0.000999999996565748
29,14,41716.201564233,0
29,15,30660.8619225604,0
29,16,34275.9743496241,0.00100000000384171
29,17,27883.4272547179,0
29,18,29610.9879309567,0.000999999996565748
29,19,49259.3341229075,0
29,20,31220.6525868217,0
29,21,44160.8883928321,0.000999999996565748
29,22,43370.4251039065,0
29,23,49991.7414306531,0
29,24,30752.3213898683,0.00100000000384171
29,25,37341.4128500765,0
29,26,40396.1635070236,0
29,27,34290.9383961396,0
29,28,30420.240667683,0
29,29,31761.9741522012,0.00100000000384171
29,30,33253.6119267431,0
30,1,73042.8654138206,0
30,2,59966.9768073614,0.000999999996565748
30,3,51136.3445036426,0
30,4,60129.67142423,0
30,5,67308.5117197502,0
30,6,54078.6900253071,0
30,7,44139.2191305308,0.000999999996565748
30,8,60175.7298538039,0
30,9,52500.9081837784,0
30,10,45096.1703390544,0.00900000000547152
30,11,37806.9797798366,0
30,12,47654.6349017447,0.000999999996565748
30,13,54456.7809604968,0
30,14,52920.0247786589,0
30,15,65746.3060532871,0
30,16,42119.2701741386,0
30,17,56094.7456578855,0.000999999996565748
30,18,43161.8823662837,0
30,19,31151.5985232656,0
30,20,46148.4364802233,0.000999999996565748
30,21,28734.6070240394,0
30,22,40256.9604636283,0.00100000000384171
30,23,33577.6938465156,0
30,24,45523.5969804674,0
30,25,32890.5594580972,0.000999999996565748
30,26,37777.3488353822,0
30,27,38852.8401341311,0
30,28,63164.9510428072,0.00100000000384171
30,29,54666.9966094366,0
30,30,47404.6120832761,0.000999999996565748
