"Before.Version","After.Version","Diff","Direction","P.Value","Simple.Diff","Within.Diffs.Mean","Within.Diffs.SD","Between.Diffs.Mean","Between.Diffs.SD","Runtime"
"v1","v2",FALSE,NA,0,0.19,1736.499,7.93,1738.874,7.532,399.814
"v2","v3",FALSE,NA,0.816,-0.03,1737.807,7.752,1737.573,7.309,365.522
"v3","v4",FALSE,NA,0,0.751,1736.72,7.226,1745.59,4.19,379.849
