App - AnkiDroid
Scenario - learn_cards
Level - 0sec
Measure - MinJumpCost
Test Statistic - Mann-Whitney U Test
Effect Size Measure - Simple Difference:Kerby
Alpha Level - 0.05


"Before.Version","After.Version","Diff","Direction","P.Value","Simple.Diff","Within.Diffs.Mean","Within.Diffs.SD","Between.Diffs.Mean","Between.Diffs.SD","Runtime"
"2.5_b","2.6_b",FALSE,NA,0,0.213,1346.882,3172.907,2876.906,7163.057,38.557
"2.6_b","2.7_f",FALSE,NA,0.146,0.036,1285.063,3265.667,2355.26,6775.273,39.401
"2.7_f","2.8_f",FALSE,NA,0.021,0.068,2045.243,6911.529,2867.344,8903.407,37.13
