"Before.Version","After.Version","Diff","Direction","P.Value","Simple.Diff","Within.Diffs.Mean","Within.Diffs.SD","Between.Diffs.Mean","Between.Diffs.SD","Runtime"
"v1","v2",FALSE,NA,0.001,0.106,1735.207,7.319,1736.446,7.138,356.163
"v2","v3",TRUE,"NEGATIVE",0,0.997,1734.848,7.376,1748.978,0.286,384.69
"v3","v4",FALSE,NA,0,0.503,1737.968,7.859,1744.149,6.386,356.908
