"Before.Trace.ID1","Before.Trace.ID2","Difference","Runtime"
1,2,140754.361409946,0.151000000001659
1,3,158493.761306219,0.149999999997817
1,4,145134.514747872,0.150000000001455
1,5,134096.729213233,0.150999999998021
1,6,141595.679267767,0.151000000001659
1,7,151549.590592576,0.150000000001455
1,8,147406.348468803,0.149999999997817
1,9,155298.486300546,0.151000000001659
1,10,158424.294255048,0.150999999998021
1,11,158509.976211306,0.150000000001455
1,12,147421.673655258,0.149999999997817
1,13,158395.17946246,0.151000000001659
1,14,157811.681998793,0.150999999998021
1,15,146151.183169902,0.151000000001659
1,16,158543.402988239,0.150000000001455
1,17,141644.131640038,0.149999999997817
1,18,146556.423154814,0.151000000001659
1,19,158336.261562956,0.150999999998021
1,20,150223.08489745,0.150000000001455
1,21,134335.056918119,0.149999999997817
1,22,158523.581843264,0.151000000001659
1,23,158466.202725069,0.150999999998021
1,24,149039.008317185,0.150000000001455
1,25,154506.744373382,0.150000000001455
1,26,158473.139577389,0.150999999998021
1,27,155719.120026827,0.151000000001659
1,28,153979.57547178,0.149999999997817
1,29,152798.043656576,0.150000000001455
1,30,136893.422697437,0.150999999998021
2,3,157797.001600482,0.151000000001659
2,4,138927.467606945,0.149999999997817
2,5,128290.197350314,0.151000000001659
2,6,130949.044797967,0.151000000001659
2,7,128505.282900507,0.150999999998021
2,8,149555.574013437,0.150000000001455
2,9,132148.036206232,0.150999999998021
2,10,157727.534549311,0.151000000001659
2,11,157813.216505569,0.149999999997817
2,12,151164.273859283,0.150000000001455
2,13,133597.506315199,0.151000000001659
2,14,157543.652799629,0.150999999998021
2,15,129114.061240282,0.151000000001659
2,16,157846.643282503,0.149999999997817
2,17,130275.956371976,0.151000000001659
2,18,136853.698860015,0.150999999998021
2,19,157639.50185722,0.151000000001659
2,20,131643.926987254,0.150999999998021
2,21,130220.145359571,0.150000000001455
2,22,157826.822137528,0.151000000001659
2,23,157769.443019333,0.150999999998021
2,24,127586.746847479,0.151000000001659
2,25,87245.6229705747,0.149999999997817
2,26,149091.970486839,0.150000000001455
2,27,147055.931404567,0.150999999998021
2,28,141500.61218053,0.151000000001659
2,29,157889.479247832,0.150999999998021
2,30,115854.296967937,0.151000000001659
3,4,158674.875280953,0.150999999998021
3,5,159407.035227977,0.150000000001455
3,6,155751.550878257,0.151000000001659
3,7,157996.158101256,0.150999999998021
3,8,159091.412485371,0.151000000001659
3,9,156327.033034813,0.149999999997817
3,10,137084.193806723,0.151000000001659
3,11,155903.562174823,0.150999999998021
3,12,150750.200137089,0.151000000001659
3,13,158192.788325942,0.150000000001455
3,14,159787.682159677,0.150000000001455
3,15,156510.063385701,0.151000000001659
3,16,150680.040286501,0.150999999998021
3,17,148868.023404842,0.151000000001659
3,18,158796.501077906,0.149999999997817
3,19,152112.369805988,0.151000000001659
3,20,161455.272367258,0.150999999998021
3,21,141394.506341068,0.150000000001455
3,22,159789.759257006,0.150000000001455
3,23,149834.780587462,0.150999999998021
3,24,160135.77832581,0.151000000001659
3,25,157703.467524243,0.149999999997817
3,26,158270.748440872,0.150000000001455
3,27,160828.36721862,0.150999999998021
3,28,157244.534792504,0.150000000001455
3,29,147849.484739652,0.149999999997817
3,30,157694.461659629,0.151000000001659
4,5,127296.023668584,0.151000000001659
4,6,133306.759312202,0.149999999997817
4,7,139337.635960772,0.150000000001455
4,8,155952.145854648,0.150999999998021
4,9,150327.242387848,0.151000000001659
4,10,158605.408229782,0.149999999997817
4,11,146636.88193099,0.151000000001659
4,12,158495.756289189,0.150999999998021
4,13,146398.923812207,0.150000000001455
4,14,133251.650160235,0.150000000001455
4,15,133966.917591363,0.149999999997817
4,16,158724.516962973,0.151000000001659
4,17,141062.662713022,0.150999999998021
4,18,115239.704979935,0.150000000001455
4,19,158517.37553769,0.149999999997817
4,20,143786.153374006,0.151000000001659
4,21,124556.75674239,0.150000000001455
4,22,158527.052749679,0.150999999998021
4,23,158647.316699803,0.151000000001659
4,24,147444.147638489,0.149999999997817
4,25,146817.914339495,0.150000000001455
4,26,154561.915842648,0.150999999998021
4,27,157740.449376058,0.150000000001455
4,28,155806.691546044,0.149999999997817
4,29,148895.312699907,0.151000000001659
4,30,142662.199961985,0.150000000001455
5,6,135121.828712859,0.149999999997817
5,7,140822.820339774,0.151000000001659
5,8,137732.18942424,0.150999999998021
5,9,151889.449153371,0.151000000001659
5,10,159337.568176806,0.149999999997817
5,11,159423.250133064,0.151000000001659
5,12,143628.071027236,0.150999999998021
5,13,150440.372694775,0.150000000001455
5,14,146568.392985367,0.151000000001659
5,15,139840.924743746,0.150999999998021
5,16,155732.326827235,0.150000000001455
5,17,126682.358175467,0.150999999998021
5,18,133619.9341344,0.151000000001659
5,19,159249.535484715,0.149999999997817
5,20,133706.040457502,0.151000000001659
5,21,99987.4475862019,0.151000000001659
5,22,157132.636892606,0.149999999997817
5,23,158995.313837337,0.151000000001659
5,24,131322.118344643,0.150999999998021
5,25,149461.166066308,0.150000000001455
5,26,158126.332233501,0.149999999997817
5,27,151549.869756777,0.151000000001659
5,28,150990.116502158,0.150999999998021
5,29,147687.549965134,0.150000000001455
5,30,125913.544365239,0.151000000001659
6,7,137769.388445089,0.150999999998021
6,8,154310.201808972,0.150000000001455
6,9,132405.69954527,0.149999999997817
6,10,153250.133918366,0.151000000001659
6,11,158995.165733749,0.149999999997817
6,12,152655.859454473,0.151000000001659
6,13,127515.74691429,0.151000000001659
6,14,155416.314025398,0.149999999997817
6,15,128722.778258042,0.151000000001659
6,16,159028.592510682,0.149999999997817
6,17,120136.885705653,0.150000000001455
6,18,127329.450970278,0.150999999998021
6,19,158103.46075899,0.150000000001455
6,20,135741.966060643,0.149999999997817
6,21,120877.864765096,0.151000000001659
6,22,158592.264986609,0.151000000001659
6,23,157235.824437036,0.149999999997817
6,24,136842.687233242,0.151000000001659
6,25,131921.871607663,0.149999999997817
6,26,140947.033846202,0.150000000001455
6,27,136644.8952515,0.150999999998021
6,28,148660.065820693,0.151000000001659
6,29,148501.212878814,0.150999999998021
6,30,133519.076526255,0.150000000001455
7,8,139542.286752208,0.150000000001455
7,9,146938.646990281,0.150999999998021
7,10,157926.691050085,0.150000000001455
7,11,158012.373006343,0.149999999997817
7,12,158022.790374031,0.151000000001659
7,13,146986.048899649,0.149999999997817
7,14,139273.196020363,0.151000000001659
7,15,118146.429914524,0.151000000001659
7,16,158045.799783276,0.149999999997817
7,17,128806.14213835,0.151000000001659
7,18,113898.677135972,0.149999999997817
7,19,157838.658357994,0.151000000001659
7,20,152901.036836585,0.150999999998021
7,21,129918.769616073,0.150000000001455
7,22,157560.169818094,0.151000000001659
7,23,157968.599520107,0.150999999998021
7,24,125616.88589854,0.150000000001455
7,25,122894.278647607,0.150999999998021
7,26,145083.922037126,0.150000000001455
7,27,138028.157343775,0.149999999997817
7,28,131347.726317449,0.151000000001659
7,29,149723.622080595,0.150999999998021
7,30,123062.760304237,0.151000000001659
8,9,156396.372879538,0.150000000001455
8,10,154867.545113809,0.150999999998021
8,11,160800.532401484,0.151000000001659
8,12,152601.600396296,0.150999999998021
8,13,153631.202317324,0.150000000001455
8,14,145655.840287693,0.150999999998021
8,15,139509.951956176,0.151000000001659
8,16,159272.612239031,0.150000000001455
8,17,133845.967051919,0.150000000001455
8,18,148501.239804387,0.151000000001659
8,19,157432.090293056,0.149999999997817
8,20,160733.70069046,0.150000000001455
8,21,143572.171240343,0.150999999998021
8,22,154004.684574211,0.150000000001455
8,23,158136.209744762,0.150999999998021
8,24,125345.978534934,0.151000000001659
8,25,153370.395987015,0.150000000001455
8,26,158340.088285597,0.150999999998021
8,27,122276.420128351,0.151000000001659
8,28,140417.766800376,0.149999999997817
8,29,145105.979555708,0.151000000001659
8,30,128944.345740542,0.150999999998021
9,10,156257.565983642,0.150000000001455
9,11,156343.2479399,0.150999999998021
9,12,156353.665307588,0.150000000001455
9,13,131283.148555187,0.150000000001455
9,14,156345.195227517,0.150999999998021
9,15,116164.047838223,0.150000000001455
9,16,156376.674716834,0.150999999998021
9,17,138832.822752402,0.150000000001455
9,18,141971.316774246,0.149999999997817
9,19,156169.533291551,0.151000000001659
9,20,144773.386075578,0.150000000001455
9,21,143853.460114908,0.150999999998021
9,22,156356.853571859,0.150000000001455
9,23,156299.474453664,0.149999999997817
9,24,149870.787890559,0.151000000001659
9,25,148809.797583591,0.149999999997817
9,26,149211.06590485,0.151000000001659
9,27,153153.292145951,0.150000000001455
9,28,155915.107101793,0.150999999998021
9,29,156419.510682163,0.150000000001455
9,30,143859.83716967,0.149999999997817
10,11,160372.012104094,0.151000000001659
10,12,156589.986999511,0.149999999997817
10,13,151190.575170911,0.151000000001659
10,14,154498.652739102,0.150000000001455
10,15,156440.59633453,0.150999999998021
10,16,157933.78363238,0.150000000001455
10,17,146422.708372898,0.149999999997817
10,18,158727.034026735,0.151000000001659
10,19,161278.660896768,0.149999999997817
10,20,154732.613426129,0.151000000001659
10,21,150080.551883092,0.150000000001455
10,22,152745.221344111,0.150000000001455
10,23,155926.451206549,0.151000000001659
10,24,145955.5767336,0.149999999997817
10,25,157634.000473072,0.151000000001659
10,26,149921.118404212,0.149999999997817
10,27,151354.74951599,0.150000000001455
10,28,157175.067741333,0.150999999998021
10,29,155336.499493623,0.150000000001455
10,30,150780.722472397,0.151000000001659
11,12,158258.012550278,0.149999999997817
11,13,158209.003231029,0.150000000001455
11,14,141472.275428791,0.150999999998021
11,15,156526.278290788,0.150000000001455
11,16,153869.797454276,0.150999999998021
11,17,158561.649133527,0.150000000001455
11,18,155500.140651889,0.150000000001455
11,19,144002.6953702,0.150999999998021
11,20,159530.763233003,0.150000000001455
11,21,154664.396920991,0.150999999998021
11,22,156908.995445559,0.150000000001455
11,23,153040.450311326,0.150999999998021
11,24,160151.993230897,0.151000000001659
11,25,157719.68242933,0.150000000001455
11,26,158286.963345959,0.150999999998021
11,27,160844.582123707,0.150000000001455
11,28,157260.749697591,0.150999999998021
11,29,133619.983459239,0.151000000001659
11,30,157710.676564716,0.149999999997817
12,13,158219.420598717,0.151000000001659
12,14,154828.973999191,0.150999999998021
12,15,156536.695658476,0.150000000001455
12,16,146183.444576044,0.151000000001659
12,17,146789.810241098,0.149999999997817
12,18,158823.133350681,0.151000000001659
12,19,145230.684641618,0.149999999997817
12,20,160065.020499102,0.151000000001659
12,21,139330.768610971,0.150000000001455
12,22,157935.485275947,0.150999999998021
12,23,149202.415336678,0.151000000001659
12,24,147897.307847563,0.149999999997817
12,25,157730.099797017,0.151000000001659
12,26,158297.380713647,0.150999999998021
12,27,158388.184234375,0.150000000001455
12,28,148349.902830972,0.150999999998021
12,29,146397.01134091,0.150000000001455
12,30,144174.280312629,0.150000000001455
13,14,158210.950518646,0.150999999998021
13,15,134658.537690481,0.150000000001455
13,16,158242.430007963,0.150999999998021
13,17,133407.640623115,0.150000000001455
13,18,151062.90581125,0.150999999998021
13,19,158035.28858268,0.151000000001659
13,20,141501.4002487,0.150000000001455
13,21,142364.145780076,0.150999999998021
13,22,158222.608862988,0.151000000001659
13,23,158165.229744793,0.149999999997817
13,24,128755.556841784,0.151000000001659
13,25,140733.456371177,0.149999999997817
13,26,133421.820676941,0.150000000001455
13,27,135222.90991737,0.150999999998021
13,28,157170.092362926,0.150000000001455
13,29,158285.265973292,0.151000000001659
13,30,135872.850297148,0.150999999998021
14,15,151846.448943925,0.151000000001659
14,16,158823.911734233,0.149999999997817
14,17,154600.125227887,0.150000000001455
14,18,128538.629785456,0.150999999998021
14,19,159630.182416415,0.150000000001455
14,20,158996.833445069,0.151000000001659
14,21,128150.645604115,0.149999999997817
14,22,158635.69740704,0.151000000001659
14,23,159760.123578528,0.149999999997817
14,24,147897.24904802,0.150000000001455
14,25,157721.629716946,0.150999999998021
14,26,158288.910633576,0.150000000001455
14,27,144760.432635879,0.151000000001659
14,28,148577.947747148,0.150999999998021
14,29,139723.994643222,0.150000000001455
14,30,147840.036159294,0.150999999998021
15,16,156559.705067721,0.150000000001455
15,17,135449.322178318,0.149999999997817
15,18,122063.397640838,0.151000000001659
15,19,156352.563642438,0.149999999997817
15,20,146466.527123018,0.151000000001659
15,21,134380.1971622,0.150000000001455
15,22,156539.883922746,0.149999999997817
15,23,156482.504804551,0.150000000001455
15,24,138330.234766573,0.149999999997817
15,25,127742.595925699,0.151000000001659
15,26,154346.26556852,0.149999999997817
15,27,153340.383847519,0.151000000001659
15,28,154191.46228408,0.150000000001455
15,29,156602.541033051,0.150999999998021
15,30,133247.079761614,0.150000000001455
16,17,151608.365238882,0.149999999997817
16,18,158846.142759926,0.151000000001659
16,19,137880.205625535,0.149999999997817
16,20,161411.401662268,0.151000000001659
16,21,149707.750284073,0.150000000001455
16,22,147712.607751281,0.149999999997817
16,23,137463.18886961,0.151000000001659
16,24,159294.814246338,0.149999999997817
16,25,157753.109206263,0.151000000001659
16,26,158320.390122892,0.149999999997817
16,27,158238.994698867,0.150000000001455
16,28,153364.982143666,0.151000000001659
16,29,135292.029609679,0.149999999997817
16,30,149388.232113011,0.151000000001659
17,18,130193.905902558,0.150999999998021
17,19,147321.410378889,0.150000000001455
17,20,137419.430243497,0.150999999998021
17,21,115017.95764048,0.150000000001455
17,22,148996.14011536,0.149999999997817
17,23,157571.44061659,0.151000000001659
17,24,123236.614035733,0.150000000001455
17,25,140062.139785541,0.150999999998021
17,26,132845.852139899,0.151000000001659
17,27,125484.545010087,0.149999999997817
17,28,135795.110549643,0.151000000001659
17,29,137562.504232538,0.149999999997817
17,30,110216.124690944,0.151000000001659
18,19,158639.001334644,0.150000000001455
18,20,144956.189452966,0.150999999998021
18,21,123891.404054094,0.150000000001455
18,22,158094.003823024,0.149999999997817
18,23,158674.215485177,0.150000000001455
18,24,136176.883259645,0.149999999997817
18,25,136239.61972082,0.151000000001659
18,26,149711.790095863,0.150000000001455
18,27,146617.247318946,0.150999999998021
18,28,146276.033303799,0.151000000001659
18,29,143895.328927723,0.149999999997817
18,30,129251.573372858,0.150000000001455
19,20,162034.389993591,0.150999999998021
19,21,148996.014302476,0.150000000001455
19,22,136216.033075193,0.154999999998836
19,23,132245.94907524,0.151000000001659
19,24,156451.255127534,0.150999999998021
19,25,157545.96778098,0.151000000001659
19,26,158113.248697609,0.150999999998021
19,27,150559.334780702,0.151000000001659
19,28,152269.19773044,0.151000000001659
19,29,139634.401610606,0.149999999997817
19,30,155766.982178556,0.151000000001659
20,21,133319.796317469,0.149999999997817
20,22,161106.975461715,0.151000000001659
20,23,161655.589606485,0.150999999998021
20,24,144173.681773524,0.151000000001659
20,25,154726.88144635,0.150999999998021
20,26,158220.131634935,0.151000000001659
20,27,158571.277656427,0.150000000001455
20,28,157193.917986567,0.150000000001455
20,29,160487.721351622,0.151000000001659
20,30,136562.59817912,0.150999999998021
21,22,155525.529772275,0.151000000001659
21,23,155067.024975912,0.150999999998021
21,24,123613.815859025,0.150000000001455
21,25,142603.47818292,0.149999999997817
21,26,153511.439487589,0.151000000001659
21,27,137047.944012662,0.150999999998021
21,28,138630.622224333,0.151000000001659
21,29,136460.594180569,0.150000000001455
21,30,120475.690662975,0.149999999997817
22,23,133159.005844391,0.151000000001659
22,24,141857.784340113,0.150999999998021
22,25,157733.288061288,0.151000000001659
22,26,158300.568977917,0.149999999997817
22,27,150995.960384091,0.151000000001659
22,28,144455.107584796,0.151000000001659
22,29,145029.448372166,0.150999999998021
22,30,150024.044910026,0.150000000001455
23,24,157171.573483621,0.149999999997817
23,25,157675.908943093,0.151000000001659
23,26,158243.189859722,0.150999999998021
23,27,158848.547643743,0.150000000001455
23,28,147621.08657255,0.150999999998021
23,29,137793.170068893,0.151000000001659
23,30,157666.903078479,0.151000000001659
24,25,143445.25682888,0.149999999997817
24,26,141272.106076532,0.150000000001455
24,27,120774.291629689,0.150999999998021
24,28,129276.662576767,0.151000000001659
24,29,147737.340797372,0.150999999998021
24,30,115958.999323441,0.150000000001455
25,26,134916.677220075,0.149999999997817
25,27,147994.323519066,0.151000000001659
25,28,145538.138408852,0.151000000001659
25,29,157795.945171592,0.149999999997817
25,30,137086.770896056,0.150000000001455
26,27,131099.899019705,0.150999999998021
26,28,153414.666940743,0.151000000001659
26,29,158363.226088222,0.150999999998021
26,30,145284.587726188,0.150000000001455
27,28,142096.635904881,0.150999999998021
27,29,150459.057417358,0.151000000001659
27,30,130074.141641228,0.151000000001659
28,29,144834.204859981,0.149999999997817
28,30,123705.425468675,0.151000000001659
29,30,143755.251762576,0.150999999998021


"After.Trace.ID","Before.Trace.ID","Difference","Runtime"
1,1,149306.648657848,0.150000000001455
1,2,138239.348455757,0.149999999997817
1,3,153642.463992805,0.151000000001659
1,4,144902.749373331,0.150999999998021
1,5,150223.794096408,0.151000000001659
1,6,120969.62119889,0.150999999998021
1,7,94464.0206173264,0.150000000001455
1,8,148462.432195909,0.149999999997817
1,9,142381.862162709,0.151000000001659
1,10,141621.248374755,0.150000000001455
1,11,157854.887804348,0.150999999998021
1,12,157865.305172036,0.151000000001659
1,13,116727.287238247,0.150999999998021
1,14,157523.951754149,0.151000000001659
1,15,141031.709178515,0.150999999998021
1,16,157888.314581282,0.151000000001659
1,17,116810.839754961,0.150999999998021
1,18,138156.919052427,0.150000000001455
1,19,157681.173155999,0.150999999998021
1,20,146128.268338267,0.150000000001455
1,21,132509.244784771,0.151000000001659
1,22,152302.475794694,0.150999999998021
1,23,157811.114318112,0.151000000001659
1,24,129871.118057088,0.150999999998021
1,25,133321.094861707,0.151000000001659
1,26,125726.218536383,0.150999999998021
1,27,127606.84828364,0.150000000001455
1,28,144573.698596348,0.149999999997817
1,29,150754.008113944,0.151000000001659
1,30,127502.030374859,0.151000000001659
2,1,151623.738721206,0.149999999997817
2,2,149561.544686903,0.150000000001455
2,3,160002.797704211,0.150999999998021
2,4,157486.361105985,0.151000000001659
2,5,146498.175105229,0.149999999997817
2,6,151797.960991084,0.150000000001455
2,7,154428.219030112,0.150999999998021
2,8,143851.958451712,0.150000000001455
2,9,156396.842280197,0.150000000001455
2,10,153226.732310842,0.150999999998021
2,11,155076.276203138,0.151000000001659
2,12,139229.975869532,0.149999999997817
2,13,158262.597571325,0.150000000001455
2,14,148307.523275945,0.150999999998021
2,15,156579.872631084,0.150000000001455
2,16,155868.242962235,0.150000000001455
2,17,147689.709983671,0.150999999998021
2,18,157898.210060469,0.151000000001659
2,19,150429.477864039,0.149999999997817
2,20,160496.911892719,0.151000000001659
2,21,145393.690956214,0.150999999998021
2,22,152396.196263733,0.150000000001455
2,23,111419.583880393,0.150999999998021
2,24,139438.298408877,0.151000000001659
2,25,156717.879326391,0.151000000001659
2,26,158340.557686255,0.149999999997817
2,27,145747.325925652,0.151000000001659
2,28,138976.969504869,0.149999999997817
2,29,138475.568333553,0.150000000001455
2,30,141820.867809232,0.150999999998021
3,1,158463.668702247,0.151000000001659
3,2,157766.90899651,0.150000000001455
3,3,162853.83792382,0.150999999998021
3,4,158644.782676981,0.151000000001659
3,5,159376.942624005,0.150999999998021
3,6,158948.85822469,0.150000000001455
3,7,157966.065497284,0.150999999998021
3,8,160754.224892425,0.150000000001455
3,9,156296.940430841,0.149999999997817
3,10,161544.041770654,0.151000000001659
3,11,158877.25918137,0.151000000001659
3,12,161995.452620596,0.149999999997817
3,13,158162.69572197,0.151000000001659
3,14,159757.589555705,0.150999999998021
3,15,156479.970781729,0.150000000001455
3,16,159645.850212801,0.149999999997817
3,17,158515.341624467,0.151000000001659
3,18,158766.408473934,0.150000000001455
3,19,140179.70048403,0.150999999998021
3,20,162161.797132881,0.151000000001659
3,21,159346.381314771,0.149999999997817
3,22,120809.285853277,0.151000000001659
3,23,143398.813380138,0.150999999998021
3,24,156946.167395749,0.150000000001455
3,25,157673.374920271,0.150999999998021
3,26,158240.6558369,0.151000000001659
3,27,160798.274614648,0.150000000001455
3,28,154807.323680524,0.150999999998021
3,29,161219.564183184,0.151000000001659
3,30,157664.369055656,0.149999999997817
4,1,139322.606798154,0.151000000001659
4,2,141798.954642192,0.150999999998021
4,3,140207.496399306,0.150000000001455
4,4,139833.437876629,0.150000000001455
4,5,128212.308188022,0.150999999998021
4,6,134193.588225806,0.150000000001455
4,7,134097.882602671,0.150999999998021
4,8,135345.535384679,0.151000000001659
4,9,156387.69918793,0.149999999997817
4,10,145974.094457279,0.151000000001659
4,11,150998.007040292,0.150999999998021
4,12,145998.339378868,0.150000000001455
4,13,149039.380791574,0.150000000001455
4,14,146781.896887143,0.150999999998021
4,15,141504.27121147,0.151000000001659
4,16,159915.446858272,0.149999999997817
4,17,120141.189678354,0.150000000001455
4,18,138254.608592494,0.150999999998021
4,19,145936.116536684,0.151000000001659
4,20,149301.295452897,0.149999999997817
4,21,111589.051688839,0.150000000001455
4,22,152387.460827728,0.151000000001659
4,23,151435.301202861,0.149999999997817
4,24,125837.158474663,0.150000000001455
4,25,136611.391382334,0.150999999998021
4,26,158331.414593989,0.150000000001455
4,27,139822.370335563,0.149999999997817
4,28,130116.294432681,0.151000000001659
4,29,134427.412274566,0.150000000001455
4,30,128906.919045401,0.150999999998021
5,1,155104.941011411,0.150000000001455
5,2,145293.675550159,0.149999999997817
5,3,160571.966244519,0.151000000001659
5,4,154385.337761329,0.149999999997817
5,5,148325.829706944,0.151000000001659
5,6,139405.061275102,0.150000000001455
5,7,151120.528390428,0.150000000001455
5,8,143722.184911134,0.151000000001659
5,9,156350.773520683,0.149999999997817
5,10,151955.522183813,0.151000000001659
5,11,160588.181149606,0.150999999998021
5,12,160598.598517294,0.151000000001659
5,13,145757.600320181,0.149999999997817
5,14,152377.725975961,0.151000000001659
5,15,155246.492282797,0.151000000001659
5,16,160621.607926539,0.150999999998021
5,17,127079.872335469,0.150000000001455
5,18,149421.676379385,0.150999999998021
5,19,160414.466501256,0.151000000001659
5,20,156139.145931049,0.149999999997817
5,21,146929.565118726,0.151000000001659
5,22,160601.786781564,0.150999999998021
5,23,160544.407663369,0.150000000001455
5,24,137466.987599681,0.151000000001659
5,25,145704.726876903,0.149999999997817
5,26,133896.690105708,0.150000000001455
5,27,117336.722409729,0.150999999998021
5,28,148697.264416338,0.150000000001455
5,29,156911.936316442,0.149999999997817
5,30,134938.119862939,0.151000000001659
6,1,155512.340027681,0.150000000001455
6,2,143927.972040852,0.150999999998021
6,3,148902.975658436,0.150000000001455
6,4,153456.878463475,0.149999999997817
6,5,136050.536739382,0.151000000001659
6,6,150623.17136164,0.149999999997817
6,7,133433.635489652,0.151000000001659
6,8,130859.312202618,0.150999999998021
6,9,156311.450549184,0.150000000001455
6,10,151234.464886415,0.151000000001659
6,11,150550.624707375,0.149999999997817
6,12,136627.26164149,0.151000000001659
6,13,152092.713120256,0.150999999998021
6,14,147592.289468564,0.150000000001455
6,15,146861.375967807,0.150999999998021
6,16,139445.318381283,0.151000000001659
6,17,132679.747403405,0.150000000001455
6,18,146055.239637306,0.150999999998021
6,19,141207.181833967,0.150000000001455
6,20,148576.778630501,0.150999999998021
6,21,129506.939140124,0.151000000001659
6,22,138045.392055117,0.149999999997817
6,23,143324.403184012,0.151000000001659
6,24,121481.857823322,0.151000000001659
6,25,157687.885038614,0.149999999997817
6,26,158255.165955243,0.151000000001659
6,27,144465.853066772,0.149999999997817
6,28,139734.45421113,0.151000000001659
6,29,130728.317972098,0.150999999998021
6,30,125165.257797525,0.150000000001455
7,1,142060.042444832,0.151000000001659
7,2,140906.927859144,0.149999999997817
7,3,155541.688167319,0.150000000001455
7,4,150869.308187009,0.150999999998021
7,5,140540.093143115,0.150000000001455
7,6,124830.260565379,0.150999999998021
7,7,146188.590870333,0.150000000001455
7,8,143004.871672575,0.150999999998021
7,9,156344.898273087,0.150000000001455
7,10,144657.143118482,0.150000000001455
7,11,159702.488876094,0.150999999998021
7,12,139255.068570464,0.150000000001455
7,13,138149.873336221,0.150999999998021
7,14,134036.644697,0.150000000001455
7,15,153008.136811347,0.149999999997817
7,16,158382.913494971,0.151000000001659
7,17,126172.87915769,0.150000000001455
7,18,148085.919601908,0.150999999998021
7,19,152292.704576136,0.150000000001455
7,20,158186.67772407,0.150999999998021
7,21,120171.822753005,0.150000000001455
7,22,154576.888760239,0.149999999997817
7,23,150780.890760205,0.151000000001659
7,24,125910.119102206,0.150000000001455
7,25,150607.504499295,0.150999999998021
7,26,143102.162892242,0.150000000001455
7,27,125986.117334833,0.149999999997817
7,28,129031.721273771,0.151000000001659
7,29,140957.677997786,0.150999999998021
7,30,126887.636706856,0.150000000001455
8,1,132054.955872888,0.151000000001659
8,2,143644.189693069,0.149999999997817
8,3,141404.413617296,0.150000000001455
8,4,140942.536185762,0.150999999998021
8,5,133381.686321052,0.150000000001455
8,6,122224.115996527,0.150999999998021
8,7,138621.254809855,0.150000000001455
8,8,153975.326916507,0.150999999998021
8,9,153345.672109524,0.150000000001455
8,10,142138.019642167,0.150000000001455
8,11,157841.80993979,0.150999999998021
8,12,137525.578389475,0.150000000001455
8,13,151339.72438021,0.150999999998021
8,14,142634.493905007,0.150000000001455
8,15,145616.753126601,0.150999999998021
8,16,150007.340072216,0.150000000001455
8,17,113836.108276446,0.151000000001659
8,18,133252.130918788,0.149999999997817
8,19,150670.853661478,0.150000000001455
8,20,143974.283153283,0.149999999997817
8,21,114603.068467767,0.150000000001455
8,22,155605.0724659,0.150999999998021
8,23,147408.382356787,0.150000000001455
8,24,134956.534770488,0.150000000001455
8,25,144547.432625093,0.150999999998021
8,26,152201.071795484,0.150000000001455
8,27,144826.339079003,0.149999999997817
8,28,126061.588192392,0.151000000001659
8,29,133329.739181429,0.150999999998021
8,30,122537.466723318,0.150000000001455
9,1,145225.477742662,0.149999999997817
9,2,130363.719065272,0.151000000001659
9,3,156970.803209274,0.151000000001659
9,4,141818.484287565,0.149999999997817
9,5,130476.643623062,0.151000000001659
9,6,139507.193332887,0.149999999997817
9,7,129867.540973457,0.151000000001659
9,8,151633.662273096,0.149999999997817
9,9,142699.68517127,0.150000000001455
9,10,156901.336158103,0.150000000001455
9,11,156987.018114361,0.149999999997817
9,12,156997.435482049,0.150000000001455
9,13,156233.939202689,0.149999999997817
9,14,151909.801144093,0.150000000001455
9,15,127454.884458376,0.149999999997817
9,16,157020.444891294,0.151000000001659
9,17,140694.456543288,0.150000000001455
9,18,131051.075652147,0.150999999998021
9,19,156813.303466011,0.15400000000227
9,20,143009.400523788,0.150999999998021
9,21,140220.443924831,0.151000000001659
9,22,157000.623746319,0.150999999998021
9,23,156943.244628125,0.150000000001455
9,24,147594.519232865,0.149999999997817
9,25,132896.578749263,0.151000000001659
9,26,149160.072567707,0.150999999998021
9,27,157046.194729864,0.151000000001659
9,28,149711.203411191,0.150999999998021
9,29,157063.280856624,0.150000000001455
9,30,140482.843462014,0.150000000001455
10,1,150601.23581348,0.150999999998021
10,2,150605.176759614,0.151000000001659
10,3,145184.943144132,0.150999999998021
10,4,158672.400138866,0.150000000001455
10,5,144468.153740695,0.149999999997817
10,6,144037.548577791,0.151000000001659
10,7,148006.613367649,0.150999999998021
10,8,144200.742904967,0.151000000001659
10,9,156324.557892726,0.151000000001659
10,10,137574.757936013,0.149999999997817
10,11,144162.613208558,0.151000000001659
10,12,122952.43020822,0.150999999998021
10,13,155889.402570683,0.151000000001659
10,14,152547.650738799,0.149999999997817
10,15,156507.588243614,0.151000000001659
10,16,125220.112020949,0.149999999997817
10,17,127311.442797136,0.150000000001455
10,18,151475.338569153,0.151000000001659
10,19,130544.566083559,0.150999999998021
10,20,148322.399702395,0.151000000001659
10,21,130264.432315384,0.150999999998021
10,22,138365.225649501,0.150000000001455
10,23,146032.784408051,0.150999999998021
10,24,135062.233723651,0.151000000001659
10,25,157700.992382156,0.149999999997817
10,26,150793.238451597,0.150000000001455
10,27,136672.392960529,0.151000000001659
10,28,143753.208749484,0.150999999998021
10,29,121488.595061815,0.151000000001659
10,30,127744.163559834,0.149999999997817
11,1,152282.513027475,0.150000000001455
11,2,138501.575174034,0.150999999998021
11,3,159281.511270217,0.151000000001659
11,4,143796.654419319,0.149999999997817
11,5,148020.551114481,0.150000000001455
11,6,127213.851285235,0.151000000001659
11,7,140439.889674214,0.150999999998021
11,8,152209.852622987,0.150000000001455
11,9,139097.655957022,0.149999999997817
11,10,153966.171195404,0.151000000001659
11,11,159297.726175305,0.150999999998021
11,12,158903.41294583,0.150000000001455
11,13,113320.735435551,0.150000000001455
11,14,153336.856348352,0.150999999998021
11,15,136452.976105618,0.151000000001659
11,16,159331.152952238,0.149999999997817
11,17,130910.113353213,0.150000000001455
11,18,142556.95441358,0.150999999998021
11,19,159124.011526955,0.151000000001659
11,20,145965.501419615,0.149999999997817
11,21,142353.67052419,0.150000000001455
11,22,159311.331807263,0.151000000001659
11,23,158443.682071313,0.150999999998021
11,24,129007.914965655,0.150000000001455
11,25,138068.081440974,0.149999999997817
11,26,129660.876084486,0.151000000001659
11,27,122995.210192969,0.150999999998021
11,28,157318.713448675,0.150000000001455
11,29,159333.435102587,0.150999999998021
11,30,137167.277153914,0.151000000001659
12,1,153695.011292492,0.151000000001659
12,2,146154.910075837,0.149999999997817
12,3,159861.502573649,0.151000000001659
12,4,144952.189173963,0.149999999997817
12,5,145992.262586944,0.151000000001659
12,6,134222.373978731,0.150999999998021
12,7,146518.352087104,0.151000000001659
12,8,158890.419664877,0.149999999997817
12,9,141184.622828176,0.151000000001659
12,10,158496.909211081,0.151000000001659
12,11,159877.717478736,0.150999999998021
12,12,159888.134846423,0.150000000001455
12,13,147647.76807262,0.149999999997817
12,14,159828.965579897,0.150000000001455
12,15,143659.97473219,0.150999999998021
12,16,159911.144255669,0.150000000001455
12,17,138453.902885499,0.150999999998021
12,18,139268.662667848,0.151000000001659
12,19,159704.002830386,0.150000000001455
12,20,137501.499666807,0.149999999997817
12,21,142779.088351054,0.151000000001659
12,22,158728.938033939,0.150999999998021
12,23,159833.943992499,0.150000000001455
12,24,148384.639426833,0.150999999998021
12,25,142270.447890615,0.151000000001659
12,26,136581.954547805,0.150000000001455
12,27,141831.814340144,0.150999999998021
12,28,157285.818212724,0.151000000001659
12,29,158379.927297981,0.150999999998021
12,30,148496.283293057,0.150000000001455
13,1,158576.120047547,0.150999999998021
13,2,157879.360341811,0.151000000001659
13,3,160848.528207871,0.149999999997817
13,4,158757.234022281,0.151000000001659
13,5,159489.393969306,0.151000000001659
13,6,159061.309569991,0.149999999997817
13,7,158078.516842585,0.151000000001659
13,8,160866.676237725,0.150999999998021
13,9,156409.391776142,0.150000000001455
13,10,160779.061156701,0.149999999997817
13,11,160864.743112958,0.151000000001659
13,12,160875.160480646,0.150999999998021
13,13,158275.147067271,0.150000000001455
13,14,159870.040901006,0.151000000001659
13,15,156592.422127029,0.150999999998021
13,16,160898.169889892,0.151000000001659
13,17,158627.792969768,0.149999999997817
13,18,158878.859819235,0.151000000001659
13,19,160691.028464609,0.150999999998021
13,20,160797.911401934,0.150000000001455
13,21,159458.832660072,0.151000000001659
13,22,160878.348744917,0.149999999997817
13,23,160820.969626722,0.150000000001455
13,24,160218.137067139,0.150999999998021
13,25,157785.826265571,0.150000000001455
13,26,158353.1071822,0.149999999997817
13,27,160910.725959948,0.151000000001659
13,28,157326.893533833,0.149999999997817
13,29,160941.005855221,0.151000000001659
13,30,157776.820400957,0.150000000001455
14,1,158518.834577723,0.149999999997817
14,2,157822.074871987,0.151000000001659
14,3,162909.003799297,0.149999999997817
14,4,158699.948552458,0.151000000001659
14,5,159432.108499482,0.149999999997817
14,6,159004.024100167,0.151000000001659
14,7,158021.231372761,0.150000000001455
14,8,160809.390767902,0.150999999998021
14,9,156352.106306318,0.150000000001455
14,10,161599.207646131,0.149999999997817
14,11,163708.951768551,0.151000000001659
14,12,162050.618496072,0.149999999997817
14,13,158217.861597447,0.151000000001659
14,14,159812.755431182,0.150000000001455
14,15,156535.136657206,0.150999999998021
14,16,162480.64921987,0.151000000001659
14,17,158570.507499944,0.149999999997817
14,18,158821.574349411,0.151000000001659
14,19,164054.874108984,0.149999999997817
14,20,162216.963008358,0.151000000001659
14,21,159401.547190248,0.150000000001455
14,22,161302.342504104,0.150000000001455
14,23,161731.279683927,0.151000000001659
14,24,160160.851597315,0.149999999997817
14,25,157728.540795747,0.151000000001659
14,26,158295.821712377,0.149999999997817
14,27,160853.440490125,0.151000000001659
14,28,157269.608064009,0.150000000001455
14,29,161274.730058661,0.150999999998021
14,30,157719.534931133,0.150000000001455
15,1,155146.508465664,0.150999999998021
15,2,155042.673537915,0.150000000001455
15,3,154944.117329146,0.150999999998021
15,4,154981.516438586,0.150000000001455
15,5,155003.372800087,0.150000000001455
15,6,154981.906900081,0.149999999997817
15,7,155052.33094027,0.150000000001455
15,8,155013.457173871,0.150999999998021
15,9,155015.008260225,0.150000000001455
15,10,154874.650277975,0.149999999997817
15,11,154960.332234233,0.150000000001455
15,12,154970.749601921,0.150999999998021
15,13,155071.512460198,0.150000000001455
15,14,154962.27952185,0.151000000001659
15,15,155085.187813374,0.149999999997817
15,16,154993.759011166,0.151000000001659
15,17,154937.552234336,0.149999999997817
15,18,155010.328495565,0.151000000001659
15,19,154786.617585884,0.150000000001455
15,20,154893.500523209,0.150000000001455
15,21,154940.734005089,0.151000000001659
15,22,154973.937866192,0.149999999997817
15,23,154916.558747997,0.151000000001659
15,24,154894.739533784,0.149999999997817
15,25,154945.899238922,0.151000000001659
15,26,154953.899279328,0.149999999997817
15,27,155019.508849736,0.151000000001659
15,28,154991.261356163,0.151000000001659
15,29,155036.594976496,0.149999999997817
15,30,155052.385120167,0.151000000001659
16,1,158490.793377724,0.149999999997817
16,2,157955.879291721,0.151000000001659
16,3,158288.402241206,0.149999999997817
16,4,158325.801350646,0.151000000001659
16,5,158347.657712147,0.150000000001455
16,6,158326.191812141,0.150999999998021
16,7,158155.035792494,0.150000000001455
16,8,158357.742085931,0.150999999998021
16,9,156485.910726052,0.150000000001455
16,10,158218.935190035,0.150999999998021
16,11,158304.617146293,0.150000000001455
16,12,158315.034513981,0.151000000001659
16,13,158351.666017181,0.149999999997817
16,14,158306.56443391,0.151000000001659
16,15,156668.941076939,0.149999999997817
16,16,158338.043923226,0.150000000001455
16,17,158281.837146396,0.150999999998021
16,18,158354.613407625,0.150000000001455
16,19,158130.902497944,0.151000000001659
16,20,158237.785435269,0.149999999997817
16,21,158285.018917149,0.150000000001455
16,22,158318.222778252,0.150999999998021
16,23,158260.843660057,0.150000000001455
16,24,158239.024445844,0.149999999997817
16,25,157862.345215481,0.150000000001455
16,26,158298.184191388,0.151000000001659
16,27,158363.793761796,0.149999999997817
16,28,157403.412483742,0.151000000001659
16,29,158380.879888556,0.149999999997817
16,30,157853.339350867,0.151000000001659
17,1,158583.083886826,0.149999999997817
17,2,157886.324181089,0.151000000001659
17,3,162875.23115736,0.150000000001455
17,4,158764.19786156,0.150999999998021
17,5,159496.357808584,0.150000000001455
17,6,159068.273409269,0.150999999998021
17,7,158085.480681863,0.150000000001455
17,8,160873.640077004,0.150999999998021
17,9,156416.355615421,0.150000000001455
17,10,161663.456955233,0.150000000001455
17,11,162891.446062447,0.150999999998021
17,12,162114.867805175,0.150000000001455
17,13,158282.110906549,0.150999999998021
17,14,159877.004740284,0.150000000001455
17,15,156599.385966308,0.150999999998021
17,16,162544.898528973,0.150000000001455
17,17,158634.756809047,0.151000000001659
17,18,158885.823658513,0.149999999997817
17,19,162717.731414097,0.151000000001659
17,20,162281.212317461,0.149999999997817
17,21,159465.79649935,0.150000000001455
17,22,161366.591813206,0.149999999997817
17,23,161795.528993029,0.150000000001455
17,24,160225.100906417,0.150000000001455
17,25,157792.79010485,0.150000000001455
17,26,158360.071021479,0.150000000001455
17,27,160917.689799227,0.149999999997817
17,28,157333.857373111,0.151000000001659
17,29,161338.979367763,0.149999999997817
17,30,157783.784240236,0.151000000001659
18,1,158527.206891274,0.150000000001455
18,2,157830.447185538,0.150000000001455
18,3,162917.376112848,0.150000000001455
18,4,158708.320866008,0.149999999997817
18,5,159440.480813032,0.151000000001659
18,6,159012.396413717,0.149999999997817
18,7,158029.603686311,0.151000000001659
18,8,160817.763081452,0.150000000001455
18,9,156360.478619869,0.150999999998021
18,10,161607.579959681,0.150000000001455
18,11,163717.324082101,0.150999999998021
18,12,162058.990809623,0.150000000001455
18,13,158226.233910998,0.150999999998021
18,14,159821.127744732,0.150000000001455
18,15,156543.508970756,0.150000000001455
18,16,162489.021533421,0.150000000001455
18,17,158578.879813495,0.150000000001455
18,18,158829.946662961,0.150999999998021
18,19,164431.413986011,0.150000000001455
18,20,162225.335321909,0.150999999998021
18,21,159409.919503798,0.150000000001455
18,22,161310.714817654,0.151000000001659
18,23,161739.651997477,0.149999999997817
18,24,160169.223910866,0.150000000001455
18,25,157736.913109298,0.149999999997817
18,26,158304.194025927,0.150000000001455
18,27,160861.812803675,0.149999999997817
18,28,157277.980377559,0.150000000001455
18,29,161283.102372211,0.151000000001659
18,30,157727.907244684,0.149999999997817
19,1,158704.621332787,0.150000000001455
19,2,158007.86162705,0.149999999997817
19,3,160856.206820868,0.150000000001455
19,4,158885.735307521,0.149999999997817
19,5,159617.895254545,0.150000000001455
19,6,159189.81085523,0.150000000001455
19,7,158207.018127824,0.149999999997817
19,8,160925.546665594,0.151000000001659
19,9,156537.893061382,0.149999999997817
19,10,160786.739769698,0.150000000001455
19,11,160872.421725956,0.149999999997817
19,12,160882.839093643,0.150000000001455
19,13,158403.64835251,0.150000000001455
19,14,159998.542186245,0.150999999998021
19,15,156720.923412269,0.150000000001455
19,16,160905.848502889,0.150999999998021
19,17,158756.294255008,0.150000000001455
19,18,159007.361104474,0.150999999998021
19,19,160698.707077606,0.150000000001455
19,20,160805.590014932,0.151000000001659
19,21,159587.333945311,0.149999999997817
19,22,160886.027357914,0.151000000001659
19,23,160828.648239719,0.149999999997817
19,24,160346.638352378,0.150000000001455
19,25,157914.327550811,0.149999999997817
19,26,158481.60846744,0.150000000001455
19,27,160931.598341458,0.150000000001455
19,28,157455.394819072,0.149999999997817
19,29,160948.684468218,0.151000000001659
19,30,157905.321686197,0.149999999997817
20,1,158191.828768611,0.151000000001659
20,2,157942.330019609,0.149999999997817
20,3,157989.437632093,0.151000000001659
20,4,158026.836741534,0.150000000001455
20,5,158048.693103034,0.150999999998021
20,6,158027.227203029,0.150000000001455
20,7,158097.651243217,0.150999999998021
20,8,158058.777476818,0.150000000001455
20,9,156472.36145394,0.150999999998021
20,10,157919.970580922,0.150000000001455
20,11,158005.65253718,0.151000000001659
20,12,158016.069904868,0.149999999997817
20,13,158116.832763145,0.150000000001455
20,14,158007.599824797,0.149999999997817
20,15,156655.391804827,0.151000000001659
20,16,158039.079314114,0.149999999997817
20,17,157982.872537283,0.150000000001455
20,18,158055.648798513,0.150000000001455
20,19,157831.937888831,0.149999999997817
20,20,157938.820826156,0.150000000001455
20,21,157986.054308036,0.149999999997817
20,22,158019.258169139,0.150000000001455
20,23,157961.879050944,0.149999999997817
20,24,157940.059836731,0.151000000001659
20,25,157848.795943369,0.150000000001455
20,26,157999.219582275,0.150999999998021
20,27,158064.829152683,0.150000000001455
20,28,157389.86321163,0.150999999998021
20,29,158081.915279443,0.150000000001455
20,30,157839.790078755,0.150999999998021
21,1,142827.203143429,0.150000000001455
21,2,141979.714590127,0.151000000001659
21,3,152294.720083126,0.149999999997817
21,4,149853.947176679,0.151000000001659
21,5,135083.444842668,0.149999999997817
21,6,126131.190981268,0.151000000001659
21,7,147537.666721265,0.149999999997817
21,8,140664.863957712,0.151000000001659
21,9,153407.311924503,0.150000000001455
21,10,141978.70894201,0.149999999997817
21,11,159946.350095894,0.151000000001659
21,12,140383.86195781,0.149999999997817
21,13,137910.633461559,0.150000000001455
21,14,140227.396037253,0.149999999997817
21,15,152022.329496857,0.150000000001455
21,16,158444.63324357,0.150000000001455
21,17,118753.304919725,0.149999999997817
21,18,146053.375229699,0.150000000001455
21,19,145019.892200075,0.149999999997817
21,20,152447.925349454,0.150000000001455
21,21,122117.567430425,0.150999999998021
21,22,149117.597499242,0.150000000001455
21,23,153589.9000079,0.150000000001455
21,24,121167.278953001,0.149999999997817
21,25,149502.656076749,0.150000000001455
21,26,142151.838244615,0.149999999997817
21,27,118681.744730356,0.150000000001455
21,28,138597.998457633,0.150999999998021
21,29,139708.545336572,0.150000000001455
21,30,127501.815227649,0.151000000001659
22,1,152328.39816915,0.149999999997817
22,2,134174.4815021,0.150000000001455
22,3,155709.703051708,0.149999999997817
22,4,140714.951264832,0.151000000001659
22,5,142803.429862952,0.149999999997817
22,6,122138.553295307,0.151000000001659
22,7,127790.29705521,0.150000000001455
22,8,145543.773141184,0.150999999998021
22,9,129058.215524778,0.150000000001455
22,10,151806.966671797,0.150999999998021
22,11,159188.030226155,0.151000000001659
22,12,159198.447593843,0.149999999997817
22,13,126584.928118529,0.151000000001659
22,14,153778.840959534,0.150000000001455
22,15,125766.042741895,0.149999999997817
22,16,159221.457003088,0.151000000001659
22,17,116351.73082407,0.150999999998021
22,18,126432.593305726,0.150000000001455
22,19,159014.315577805,0.150999999998021
22,20,138854.878599524,0.151000000001659
22,21,123433.831060106,0.149999999997817
22,22,157323.399860534,0.151000000001659
22,23,159144.256739918,0.150000000001455
22,24,126751.958258746,0.150999999998021
22,25,124465.445300617,0.150000000001455
22,26,124046.427967108,0.149999999997817
22,27,128482.141124073,0.151000000001659
22,28,150103.713049181,0.149999999997817
22,29,147301.107349225,0.151000000001659
22,30,127203.357158168,0.150000000001455
23,1,157845.770842796,0.150999999998021
23,2,149788.808727029,0.150000000001455
23,3,160328.274561861,0.150999999998021
23,4,150713.089074052,0.150000000001455
23,5,137873.567384585,0.149999999997817
23,6,156381.039090295,0.150000000001455
23,7,122921.891894511,0.150000000001455
23,8,123570.684635766,0.150999999998021
23,9,156313.31517645,0.150000000001455
23,10,158404.46279661,0.150999999998021
23,11,153837.662114118,0.150000000001455
23,12,160122.983223616,0.150999999998021
23,13,158179.070467579,0.150000000001455
23,14,146097.218961466,0.151000000001659
23,15,139254.460139913,0.149999999997817
23,16,160377.916243881,0.151000000001659
23,17,132112.455691525,0.149999999997817
23,18,135301.810752736,0.151000000001659
23,19,155705.070403513,0.149999999997817
23,20,158570.497974695,0.150000000001455
23,21,140981.132590065,0.150000000001455
23,22,147998.431486547,0.149999999997817
23,23,160300.715980711,0.151000000001659
23,24,129354.37898589,0.153999999998632
23,25,144823.191026639,0.151000000001659
23,26,154692.278699146,0.150999999998021
23,27,139728.178113394,0.151000000001659
23,28,139456.742336628,0.149999999997817
23,29,134116.167486714,0.150000000001455
23,30,135775.934855152,0.150999999998021
24,1,146370.60295173,0.151000000001659
24,2,134942.222617411,0.150999999998021
24,3,156407.549931108,0.150000000001455
24,4,139076.120866536,0.150000000001455
24,5,130322.835039345,0.150999999998021
24,6,136116.459664636,0.151000000001659
24,7,130873.821725484,0.149999999997817
24,8,119426.601811692,0.150000000001455
24,9,148024.429363403,0.150999999998021
24,10,156774.649539153,0.151000000001659
24,11,157714.504007874,0.150999999998021
24,12,148780.95960368,0.150000000001455
24,13,157034.495716015,0.150000000001455
24,14,132354.136646113,0.149999999997817
24,15,137265.499787271,0.151000000001659
24,16,142330.650531028,0.150999999998021
24,17,125584.507017556,0.151000000001659
24,18,129480.591106845,0.149999999997817
24,19,149481.383009503,0.150000000001455
24,20,151152.528728824,0.149999999997817
24,21,126196.380453002,0.151000000001659
24,22,155332.635865786,0.151000000001659
24,23,157239.855698021,0.150999999998021
24,24,134780.961653683,0.150000000001455
24,25,150572.030197892,0.150999999998021
24,26,158384.012598175,0.151000000001659
24,27,138522.596479213,0.150999999998021
24,28,135699.920751493,0.150000000001455
24,29,127644.928160398,0.149999999997817
24,30,124082.142129387,0.151000000001659
25,1,158519.780298206,0.151000000001659
25,2,157823.020592469,0.149999999997817
25,3,126024.239221209,0.150000000001455
25,4,158700.89427294,0.150999999998021
25,5,159433.054219964,0.151000000001659
25,6,159004.969820649,0.150999999998021
25,7,158022.177093243,0.150000000001455
25,8,160810.336488384,0.150000000001455
25,9,156353.052026801,0.150999999998021
25,10,150747.231668102,0.151000000001659
25,11,149487.638157021,0.150999999998021
25,12,154170.229586182,0.150000000001455
25,13,158218.807317929,0.149999999997817
25,14,159813.701151664,0.151000000001659
25,15,156536.082377688,0.150999999998021
25,16,140258.711305608,0.150000000001455
25,17,153422.836481517,0.150000000001455
25,18,158822.520069893,0.150999999998021
25,19,137170.201304251,0.151000000001659
25,20,161614.608183311,0.149999999997817
25,21,148378.290892211,0.150000000001455
25,22,138887.466835972,0.150999999998021
25,23,144329.759879727,0.151000000001659
25,24,160077.685903327,0.150999999998021
25,25,157729.48651623,0.150000000001455
25,26,158296.767432859,0.151000000001659
25,27,160854.386210607,0.150999999998021
25,28,155709.111289332,0.150000000001455
25,29,144170.133563349,0.149999999997817
25,30,156271.880569352,0.151000000001659
26,1,143984.513448498,0.150999999998021
26,2,147471.595970988,0.151000000001659
26,3,159782.033120023,0.150999999998021
26,4,154575.665157367,0.150000000001455
26,5,131148.368524856,0.150000000001455
26,6,154243.44935685,0.150999999998021
26,7,137239.05256844,0.151000000001659
26,8,104468.50987621,0.149999999997817
26,9,156383.294468844,0.150000000001455
26,10,154449.375905237,0.150999999998021
26,11,159512.539811263,0.151000000001659
26,12,141845.420412137,0.149999999997817
26,13,158249.049759973,0.151000000001659
26,14,147781.437785193,0.151000000001659
26,15,145498.184991061,0.149999999997817
26,16,153400.662415848,0.150000000001455
26,17,139034.219399046,0.150999999998021
26,18,151362.117139004,0.150000000001455
26,19,153885.168364335,0.149999999997817
26,20,160822.828188399,0.151000000001659
26,21,137063.039331797,0.150999999998021
26,22,154004.942705295,0.151000000001659
26,23,156101.959021369,0.151000000001659
26,24,127267.822370313,0.149999999997817
26,25,155658.278315675,0.150000000001455
26,26,158327.009874902,0.150999999998021
26,27,159446.558217267,0.151000000001659
26,28,135289.926633745,0.149999999997817
26,29,142695.850475427,0.150000000001455
26,30,128035.353702195,0.150999999998021
27,1,156379.688880146,0.151000000001659
27,2,145035.858854539,0.151000000001659
27,3,160171.037212087,0.150999999998021
27,4,158704.669504729,0.151000000001659
27,5,151893.155253876,0.149999999997817
27,6,156416.897209682,0.151000000001659
27,7,148748.881639357,0.150999999998021
27,8,144590.018003681,0.151000000001659
27,9,156356.82725859,0.149999999997817
27,10,160101.570160917,0.150000000001455
27,11,160187.252117174,0.151000000001659
27,12,156574.760788314,0.149999999997817
27,13,151249.040652454,0.150000000001455
27,14,150476.431041142,0.150999999998021
27,15,156539.857609477,0.150000000001455
27,16,160220.678894108,0.149999999997817
27,17,155655.383906606,0.151000000001659
27,18,153204.652326148,0.150000000001455
27,19,160013.537468825,0.150000000001455
27,20,160120.42040615,0.151000000001659
27,21,156916.018587618,0.150999999998021
27,22,160200.857749133,0.150000000001455
27,23,160143.478630938,0.150999999998021
27,24,141782.25883118,0.151000000001659
27,25,157249.001387624,0.149999999997817
27,26,148035.468904002,0.151000000001659
27,27,141967.508744364,0.151000000001659
27,28,148027.513928663,0.149999999997817
27,29,160263.514859437,0.151000000001659
27,30,148159.849273349,0.150999999998021
28,1,148337.085125462,0.150000000001455
28,2,153358.720052401,0.150999999998021
28,3,133269.516492978,0.151000000001659
28,4,158152.334519049,0.150000000001455
28,5,148400.150447551,0.150999999998021
28,6,140980.647822768,0.151000000001659
28,7,153335.269493653,0.149999999997817
28,8,154685.168160991,0.151000000001659
28,9,156350.159558045,0.150999999998021
28,10,122546.878447808,0.150000000001455
28,11,156677.465447689,0.150999999998021
28,12,137179.005593263,0.151000000001659
28,13,157537.310924344,0.150000000001455
28,14,151318.466322939,0.150999999998021
28,15,156533.189908932,0.151000000001659
28,16,154103.432072613,0.149999999997817
28,17,131888.751885353,0.151000000001659
28,18,158241.8721475,0.150999999998021
28,19,147359.132103162,0.150000000001455
28,20,145777.538264992,0.151000000001659
28,21,133492.962451824,0.150999999998021
28,22,156992.631525007,0.150000000001455
28,23,154128.740845708,0.150999999998021
28,24,152573.069757272,0.151000000001659
28,25,145625.482698785,0.149999999997817
28,26,156865.944376189,0.150000000001455
28,27,152026.040467522,0.150999999998021
28,28,139747.590325463,0.150000000001455
28,29,140562.36651323,0.150000000001455
28,30,141493.033512282,0.150999999998021
29,1,155836.492111409,0.150000000001455
29,2,150886.300339871,0.150999999998021
29,3,158635.915420687,0.151000000001659
29,4,147592.333754849,0.150999999998021
29,5,145206.860321918,0.150000000001455
29,6,142373.015206303,0.150999999998021
29,7,142649.588642781,0.151000000001659
29,8,158705.255265412,0.150000000001455
29,9,140491.797919473,0.150999999998021
29,10,158566.448369516,0.151000000001659
29,11,158652.130325774,0.149999999997817
29,12,158662.547693462,0.151000000001659
29,13,146668.63288956,0.149999999997817
29,14,156958.293170268,0.151000000001659
29,15,134133.456228114,0.151000000001659
29,16,158685.557102708,0.149999999997817
29,17,122312.51748202,0.151000000001659
29,18,133091.149523652,0.150999999998021
29,19,158478.415677425,0.150000000001455
29,20,150932.974181875,0.150999999998021
29,21,144215.61494937,0.150000000001455
29,22,158665.735957733,0.151000000001659
29,23,158608.356839538,0.149999999997817
29,24,149281.487330616,0.150000000001455
29,25,143615.215134385,0.150999999998021
29,26,138727.157333036,0.151000000001659
29,27,145013.534623734,0.149999999997817
29,28,157292.251938934,0.150000000001455
29,29,156974.447486208,0.150999999998021
29,30,147014.090157386,0.151000000001659
30,1,157122.8894544,0.150000000001455
30,2,153488.616571443,0.149999999997817
30,3,160040.214234553,0.151000000001659
30,4,157449.531093795,0.149999999997817
30,5,153819.801581099,0.150000000001455
30,6,157375.376550832,0.150999999998021
30,7,139819.404840657,0.151000000001659
30,8,145666.218921271,0.150000000001455
30,9,156373.396144729,0.150999999998021
30,10,155994.612455519,0.151000000001659
30,11,160056.42913964,0.150999999998021
30,12,159259.649984084,0.150000000001455
30,13,154442.034062059,0.150999999998021
30,14,147765.190171423,0.150000000001455
30,15,156556.426495616,0.149999999997817
30,16,159951.044069502,0.151000000001659
30,17,147828.005118635,0.150000000001455
30,18,154797.674776914,0.150999999998021
30,19,159807.654059233,0.150000000001455
30,20,159989.597428616,0.150999999998021
30,21,154371.075265684,0.151000000001659
30,22,148975.588894782,0.149999999997817
30,23,159849.130027041,0.151000000001659
30,24,127925.315271754,0.150000000001455
30,25,152140.836149374,0.150999999998021
30,26,137830.6418507,0.150000000001455
30,27,132251.879808123,0.149999999997817
30,28,142567.112011474,0.151000000001659
30,29,153555.133063137,0.149999999997817
30,30,149529.130041009,0.151000000001659
