App - Materialistic
Scenario - read_article
Length - 5sec
Measure - MinJumpCost
Before Version - 58
After Version - 59


"Before.Trace.ID1","Before.Trace.ID2","Difference","Runtime"
1,2,590.73539852305,0.0250000000014552
1,3,89263.2236361565,0.0210000000006403
1,4,2923.92445362477,0.0349999999998545
1,5,7.65130996493062,0.0360000000000582
1,6,31699.5778322949,0.0349999999998545
1,7,1591.95871404649,0.0309999999990396
1,8,1957242.38377075,0.0309999999990396
1,9,868.271876522129,0.022000000000844
1,10,1345.68188110519,0.0289999999986321
1,11,230.22734309247,0.0400000000008731
1,12,3722.97311231362,0.0360000000000582
1,13,1337.28331970622,0.0360000000000582
1,14,1454.83046728414,0.0299999999988358
1,15,722.48071223158,0.0339999999996508
1,16,1.70059733847673,0.0370000000002619
1,17,242.165108957998,0.0280000000020664
1,18,93582.538602603,0.0239999999976135
1,19,6197.76708303413,0.0320000000028813
1,20,12126.3087322356,0.0229999999974098
1,21,1052772.03564239,0.0300000000024738
1,22,14878.3318290909,0.0290000000022701
1,23,4406.9503470032,0.0349999999998545
1,24,3969.54837169192,0.0319999999992433
1,25,4240.35616957755,0.0279999999984284
1,26,507058.569147185,0.0310000000026776
1,27,593.513236270345,0.0259999999980209
1,28,2.76394521526912,0.0360000000000582
1,29,20297.0250659496,0.0250000000014552
1,30,1.91091817921836,0.0319999999992433
2,3,150345.8229644,0.0260000000016589
2,4,631.825663580145,0.0299999999988358
2,5,1272.30346164221,0.0259999999980209
2,6,12110.7116889822,0.0300000000024738
2,7,1547.2479198605,0.0360000000000582
2,8,1166212.16857936,0.0309999999990396
2,9,443.426943743049,0.0299999999988358
2,10,2067.17152095371,0.0290000000022701
2,11,781.855140206171,0.0299999999988358
2,12,108.969825822613,0.0410000000010768
2,13,302.808095408658,0.0360000000000582
2,14,615.062546528253,0.022000000000844
2,15,10.0512734491988,0.0319999999992433
2,16,295.822318621177,0.0239999999976135
2,17,310.77016116068,0.0260000000016589
2,18,1081188.65543337,0.0259999999980209
2,19,4183.86541901781,0.0370000000002619
2,20,4693.63601234039,0.0320000000028813
2,21,1046412.6054827,0.0309999999990396
2,22,994.07004132668,0.0400000000008731
2,23,805.136108634612,0.0370000000002619
2,24,4190.2756102084,0.032999999999447
2,25,2989.90066692724,0.0259999999980209
2,26,466847.723245566,0.0230000000010477
2,27,322.124239920059,0.0410000000010768
2,28,487428.784480985,0.0249999999978172
2,29,5046.41629716275,0.0240000000012515
2,30,287.562612559548,0.0319999999992433
3,4,95369.6397255046,0.0240000000012515
3,5,131467.253308421,0.0269999999982247
3,6,336908.286627465,0.0310000000026776
3,7,158898.790336665,0.0240000000012515
3,8,1298030.73384704,0.032999999999447
3,9,128397.908030226,0.0260000000016589
3,10,86557.3810174385,0.0449999999982538
3,11,229044.811481517,0.0360000000000582
3,12,281662.47945952,0.0230000000010477
3,13,141333.177042025,0.0400000000008731
3,14,299580.997296167,0.0249999999978172
3,15,180170.155732487,0.0250000000014552
3,16,116910.520274119,0.0299999999988358
3,17,119077.593560045,0.0270000000018626
3,18,1089503.87802953,0.0269999999982247
3,19,297120.850706955,0.032999999999447
3,20,292652.728722391,0.0260000000016589
3,21,1050556.60394797,0.0319999999992433
3,22,282718.202145738,0.0260000000016589
3,23,222374.813063508,0.0259999999980209
3,24,283100.72425554,0.0319999999992433
3,25,163554.54999147,0.0320000000028813
3,26,1156124.30229205,0.0319999999992433
3,27,161885.150905766,0.0309999999990396
3,28,1122150.2494502,0.0279999999984284
3,29,325189.739825124,0.0270000000018626
3,30,193682.799993712,0.0260000000016589
4,5,11.1646672789294,0.0269999999982247
4,6,1367.05355519867,0.0390000000006694
4,7,2444.8264635287,0.0370000000002619
4,8,904162.052681383,0.0349999999998545
4,9,344.076007781907,0.0360000000000582
4,10,3030.72744603596,0.0639999999984866
4,11,873.932024785571,0.0280000000020664
4,12,2705.026324735,0.0499999999992724
4,13,13.8221882594264,0.0319999999992433
4,14,77.0335553533411,0.0289999999986321
4,15,779.372570773119,0.0340000000032887
4,16,0.558180502862096,0.0259999999980209
4,17,549.50503649512,0.0210000000006403
4,18,1439782.75076263,0.0309999999990396
4,19,1594.57348599561,0.0370000000002619
4,20,3736.97442923787,0.0410000000010768
4,21,1512630.06310552,0.0319999999992433
4,22,22.5265010459206,0.0380000000004657
4,23,1362.53388758776,0.0380000000004657
4,24,603.188229176766,0.0279999999984284
4,25,3.12388322342047,0.0309999999990396
4,26,1162757.1627121,0.0310000000026776
4,27,341.934657739428,0.0310000000026776
4,28,805641.35617033,0.0349999999998545
4,29,72.5416788298261,0.0349999999998545
4,30,485.535794463352,0.0360000000000582
5,6,20500.0221206816,0.0419999999976426
5,7,1146.96705210729,0.0260000000016589
5,8,1643047.80158682,0.0370000000002619
5,9,32.1387549280289,0.0309999999990396
5,10,2676.70764319294,0.0290000000022701
5,11,90.4440854185693,0.0410000000010768
5,12,3956.93904904549,0.0420000000012806
5,13,2292.96624429197,0.032999999999447
5,14,7675.39215474285,0.0390000000006694
5,15,1035.72506498776,0.0360000000000582
5,16,8.11819059643938,0.032999999999447
5,17,94.0831945108358,0.0430000000014843
5,18,895035.279150915,0.0289999999986321
5,19,16400.7585742235,0.0309999999990396
5,20,19599.8996782535,0.0290000000022701
5,21,1041103.21252062,0.0409999999974389
5,22,24501.9553560945,0.0410000000010768
5,23,3553.97792808841,0.0309999999990396
5,24,6549.35648325194,0.0300000000024738
5,25,9467.24408633565,0.0549999999966531
5,26,915508.158212853,0.0260000000016589
5,27,2312.087289008,0.032999999999447
5,28,106513.979390877,0.0309999999990396
5,29,33492.3758265466,0.033000000003085
5,30,58.9076807375245,0.032999999999447
6,7,13686.0871321164,0.0469999999986612
6,8,487210.537437522,0.0410000000010768
6,9,15831.2810226983,0.0449999999982538
6,10,555.143007935996,0.0250000000014552
6,11,13330.570239487,0.0370000000002619
6,12,4890.11264642823,0.0360000000000582
6,13,3747.69354019171,0.0390000000006694
6,14,129.721112115159,0.0360000000000582
6,15,13134.4494525791,0.0339999999996508
6,16,18932.6809098988,0.0409999999974389
6,17,3973.64752953622,0.0339999999996508
6,18,194639.215534634,0.0400000000008731
6,19,6447.66473310352,0.0450000000018917
6,20,866.06380883569,0.0519999999996799
6,21,449703.254075592,0.0489999999990687
6,22,851.740868959282,0.0620000000017171
6,23,9931.70482218449,0.0419999999976426
6,24,327.635902601708,0.0420000000012806
6,25,285.490300038288,0.047999999998865
6,26,4822.4088052469,0.0509999999994761
6,27,8793.85068282298,0.032999999999447
6,28,636185.333513889,0.0480000000025029
6,29,1877.84165421126,0.0429999999978463
6,30,23416.5857284173,0.0470000000022992
7,8,208202.964469673,0.0309999999990396
7,9,90.8650378184071,0.0279999999984284
7,10,4.12911918944198,0.0300000000024738
7,11,523.098564184248,0.0349999999998545
7,12,471.983932127436,0.0449999999982538
7,13,1342.76309996783,0.0420000000012806
7,14,860.765472832459,0.0289999999986321
7,15,2873.04079068853,0.0519999999996799
7,16,1.65926984624017,0.044000000001688
7,17,65.1277413772769,0.0380000000004657
7,18,1733877.88914575,0.032999999999447
7,19,1985.99278487107,0.0319999999992433
7,20,9799.97726843371,0.0309999999990396
7,21,971935.021282981,0.032999999999447
7,22,4830.12511479835,0.033000000003085
7,23,868.864593804366,0.0449999999982538
7,24,2591.24676810075,0.0319999999992433
7,25,1948.82086629436,0.0320000000028813
7,26,1053059.6236123,0.036999999996624
7,27,366.471746735489,0.0360000000000582
7,28,1001000.96280412,0.0380000000004657
7,29,4287.00498828545,0.0240000000012515
7,30,162.655101683896,0.0349999999998545
8,9,2422944.2921119,0.0390000000006694
8,10,993.161599898123,0.0419999999976426
8,11,1237275.44977983,0.0380000000004657
8,12,1380989.76055489,0.0390000000006694
8,13,316088.924994236,0.0339999999996508
8,14,950694.44515924,0.0450000000018917
8,15,3458361.24753082,0.0449999999982538
8,16,2187381.98677102,0.0390000000006694
8,17,6386.71689498133,0.0269999999982247
8,18,13582.8955103416,0.0470000000022992
8,19,320777.761788111,0.0380000000004657
8,20,231544.25521922,0.0749999999970896
8,21,18608.1443749816,0.0410000000010768
8,22,255623.064291949,0.0279999999984284
8,23,571443.68134038,0.0370000000002619
8,24,662613.298793332,0.0380000000004657
8,25,1256675.70676768,0.0380000000004657
8,26,4082.15803141588,0.0360000000000582
8,27,266706.255353143,0.0360000000000582
8,28,8521.57279945895,0.0780000000013388
8,29,275987.470291476,0.0370000000002619
8,30,2074312.9835924,0.0559999999968568
9,10,5130.63521240553,0.0270000000018626
9,11,591.599158356757,0.0240000000012515
9,12,42.1773365269951,0.0459999999984575
9,13,164.849118104191,0.0339999999996508
9,14,231.618753236343,0.0270000000018626
9,15,3537.35851148593,0.0289999999986321
9,16,86.9711675429822,0.0309999999990396
9,17,364.989611200111,0.032999999999447
9,18,2035275.48061358,0.0510000000031141
9,19,1495.33589022418,0.032999999999447
9,20,4715.11591743804,0.0380000000004657
9,21,1597905.26392162,0.0309999999990396
9,22,1350.57655915334,0.0609999999978754
9,23,422.958160746086,0.0360000000000582
9,24,5409.18414282451,0.0320000000028813
9,25,1054.55224994006,0.0360000000000582
9,26,1168702.92629836,0.0389999999970314
9,27,44.5991255944177,0.044000000001688
9,28,107031.917989036,0.0380000000004657
9,29,6844.30333066027,0.0410000000010768
9,30,888.641897831459,0.036999999996624
10,11,4.54839768716981,0.022000000000844
10,12,8746.27602272917,0.0349999999998545
10,13,364.863546164842,0.0410000000010768
10,14,671.361616637678,0.0299999999988358
10,15,23.9423588696194,0.0309999999990396
10,16,5768.6082456888,0.0300000000024738
10,17,1783.48788334546,0.0210000000006403
10,18,6.85171571718481,0.036999999996624
10,19,749.637005595304,0.0370000000002619
10,20,662.318621301481,0.0270000000018626
10,21,158249.444985899,0.0370000000002619
10,22,1166.68024939116,0.0349999999998545
10,23,405.007197526954,0.0229999999974098
10,24,12885.7377422878,0.0320000000028813
10,25,2714.37077702118,0.0349999999998545
10,26,1479.28912661911,0.0419999999976426
10,27,5615.77226637023,0.0320000000028813
10,28,805.060847819453,0.0309999999990396
10,29,4243.97772763459,0.0370000000002619
10,30,2555.74992059224,0.022000000000844
11,12,2194.53485073753,0.0269999999982247
11,13,5404.67482431404,0.032999999999447
11,14,3063.35418337301,0.0390000000006694
11,15,478.354633492023,0.0339999999996508
11,16,1188.89583952541,0.022000000000844
11,17,926.160357797624,0.0279999999984284
11,18,296120.328002674,0.0400000000008731
11,19,4722.88359823056,0.0339999999996508
11,20,12066.9804072876,0.0339999999996508
11,21,671165.299156586,0.0309999999990396
11,22,1382.34828332999,0.0430000000014843
11,23,3445.37060766443,0.0339999999996508
11,24,10041.8626635649,0.0289999999986321
11,25,3518.29590164083,0.0290000000022701
11,26,998936.77076904,0.0339999999996508
11,27,276.057970082876,0.0250000000014552
11,28,1030638.93826038,0.0379999999968277
11,29,5035.23486657926,0.033000000003085
11,30,9.18706963960782,0.0429999999978463
12,13,7.99500180560755,0.0390000000006694
12,14,39.9878669730824,0.0390000000006694
12,15,4100.25399362597,0.0469999999986612
12,16,225.300391577831,0.0339999999996508
12,17,2721.69046439619,0.032999999999447
12,18,754948.267722914,0.0509999999994761
12,19,955.146394152777,0.0450000000018917
12,20,975.871364510991,0.0489999999990687
12,21,787188.321066728,0.0370000000002619
12,22,1341.460044419,0.044000000001688
12,23,554.337706237293,0.0349999999998545
12,24,1044.13836873056,0.0459999999984575
12,25,273.124824592668,0.0380000000004657
12,26,335248.009020592,0.0489999999990687
12,27,777.110221802393,0.0319999999992433
12,28,411457.781307958,0.0490000000027067
12,29,1080.95308566302,0.0419999999976426
12,30,11.6611325939159,0.0360000000000582
13,14,165.761065283061,0.0320000000028813
13,15,3450.84409843017,0.0360000000000582
13,16,12.0094611847929,0.0349999999998545
13,17,153.601497806372,0.0379999999968277
13,18,582949.409662317,0.0349999999998545
13,19,2076.28543320717,0.0370000000002619
13,20,23.4616479066263,0.0380000000004657
13,21,300811.356657206,0.0499999999992724
13,22,371.738349553422,0.0430000000014843
13,23,726.321636184497,0.0319999999992433
13,24,1190.23900154489,0.0400000000008731
13,25,1106.43647573213,0.0380000000004657
13,26,131094.178048679,0.0349999999998545
13,27,1185.1840995883,0.032999999999447
13,28,359289.310506202,0.0339999999996508
13,29,1116.62280989937,0.0360000000000582
13,30,3577.71440059415,0.08100000000195
14,15,12584.9412585184,0.0399999999972351
14,16,2016.4151863768,0.0390000000006694
14,17,6969.20432676124,0.0270000000018626
14,18,557932.414949542,0.0459999999984575
14,19,1259.24470461691,0.0420000000012806
14,20,126.155162572841,0.0509999999994761
14,21,1243.54359341582,0.0409999999974389
14,22,178.873929647665,0.0370000000002619
14,23,48.602570211661,0.0290000000022701
14,24,26.7476976192916,0.0459999999984575
14,25,2160.82109327568,0.0529999999998836
14,26,708593.460510216,0.0319999999992433
14,27,901.990968823783,0.0300000000024738
14,28,371492.062348325,0.047999999998865
14,29,681.381684636972,0.044000000001688
14,30,228.088215875176,0.0379999999968277
15,16,2292.13032925712,0.0340000000032887
15,17,3014.34217342197,0.0379999999968277
15,18,953214.256459438,0.0520000000033178
15,19,3140.25670550216,0.0599999999976717
15,20,6390.52180043807,0.0299999999988358
15,21,1921436.77349099,0.0410000000010768
15,22,2557.99778014846,0.0420000000012806
15,23,2180.78223410759,0.0400000000008731
15,24,19280.0239439216,0.0339999999996508
15,25,3849.97144099391,0.0609999999978754
15,26,1792252.02985646,0.0470000000022992
15,27,871.506755594988,0.032999999999447
15,28,1857111.65392807,0.0619999999980791
15,29,18922.1916471148,0.0400000000008731
15,30,3320.8142428635,0.0430000000014843
16,17,1378.73730196067,0.0419999999976426
16,18,565048.538361352,0.0400000000008731
16,19,5418.05875776204,0.0390000000006694
16,20,7065.61357819423,0.0390000000006694
16,21,1952789.14787948,0.0599999999976717
16,22,7606.68561766423,0.0319999999992433
16,23,221.407454896142,0.0370000000002619
16,24,4118.92569875158,0.0349999999998545
16,25,948.132770811458,0.0410000000010768
16,26,1535400.31363135,0.0420000000012806
16,27,1355.2527190328,0.0360000000000582
16,28,965977.892733315,0.0360000000000582
16,29,5551.93170733588,0.0299999999988358
16,30,332.722631670447,0.0319999999992433
17,18,12454.9659379405,0.0290000000022701
17,19,8748.0973290262,0.0359999999964202
17,20,7824.55463211761,0.0340000000032887
17,21,4278.59908398777,0.0529999999998836
17,22,8441.70369034105,0.0389999999970314
17,23,4600.04591840194,0.0230000000010477
17,24,20.1969730372053,0.0280000000020664
17,25,97.6802876409573,0.0409999999974389
17,26,9163.48764961176,0.0270000000018626
17,27,1416.57501364539,0.0259999999980209
17,28,17172.5812155517,0.0319999999992433
17,29,9309.29608965961,0.0240000000012515
17,30,418.571756974326,0.0309999999990396
18,19,232376.781691434,0.044000000001688
18,20,1052266.64098002,0.04399999999805
18,21,4769.64920300061,0.0519999999996799
18,22,180451.550531482,0.0520000000033178
18,23,1249749.69872681,0.0319999999992433
18,24,444779.250734036,0.0370000000002619
18,25,896517.459801862,0.0519999999996799
18,26,9123.59901244631,0.0449999999982538
18,27,1348159.46505654,0.0309999999990396
18,28,6636.61151066681,0.0560000000004948
18,29,173539.750737287,0.0510000000031141
18,30,962970.560980179,0.0379999999968277
19,20,1963.46704885334,0.0390000000006694
19,21,344899.466819096,0.0529999999998836
19,22,3184.69689091717,0.0370000000002619
19,23,3189.50201058261,0.044000000001688
19,24,1791.73483087158,0.0309999999990396
19,25,304.250392135558,0.0499999999992724
19,26,515438.276664507,0.0360000000000582
19,27,4527.10999416806,0.0380000000004657
19,28,413934.398841703,0.0529999999998836
19,29,3085.30979770963,0.032999999999447
19,30,707.147740548523,0.0349999999998545
20,21,736440.584233381,0.0360000000000582
20,22,1369.45270750557,0.0410000000010768
20,23,3838.82018508692,0.0449999999982538
20,24,55.9322673010527,0.0460000000020955
20,25,541.55680909808,0.04399999999805
20,26,1034545.50874834,0.0489999999990687
20,27,1372.67055506031,0.0420000000012806
20,28,89158.3605727735,0.0519999999996799
20,29,1316.77446597571,0.0570000000006985
20,30,7692.44155938146,0.047999999998865
21,22,501659.953022141,0.0380000000004657
21,23,1478475.8645921,0.0280000000020664
21,24,192995.289476799,0.0299999999988358
21,25,300966.986754846,0.0969999999979336
21,26,7380.07712988252,0.0580000000009022
21,27,960852.208255276,0.0430000000014843
21,28,3710.73391966323,0.0400000000008731
21,29,365356.444382085,0.0629999999982829
21,30,1582021.05015055,0.0360000000000582
22,23,1275.40363904317,0.0339999999996508
22,24,90.8003098887086,0.0469999999986612
22,25,1504.03690682287,0.0400000000008731
22,26,566090.623265452,0.0410000000010768
22,27,3596.72385143211,0.0349999999998545
22,28,538206.698748504,0.0400000000008731
22,29,915.845802060847,0.0399999999972351
22,30,9041.64296285137,0.0380000000004657
23,24,352.922214500224,0.0400000000008731
23,25,4136.4498466819,0.0420000000012806
23,26,1087566.10942959,0.0339999999996508
23,27,137.662278032214,0.0319999999992433
23,28,127159.600680373,0.0380000000004657
23,29,1883.4718237762,0.0469999999986612
23,30,1567.97058313788,0.0420000000012806
24,25,23.4179514164386,0.0349999999998545
24,26,229699.463454259,0.0299999999988358
24,27,12267.3724779725,0.0420000000012806
24,28,108017.26720426,0.0390000000006694
24,29,251.325283800099,0.0299999999988358
24,30,7200.06776041426,0.0349999999998545
25,26,116728.513475817,0.0420000000012806
25,27,1307.56299865428,0.0399999999972351
25,28,117701.835303782,0.0500000000029104
25,29,6869.56409550461,0.0489999999990687
25,30,756.087674825462,0.0360000000000582
26,27,458994.505058498,0.0349999999998545
26,28,447.680969985101,0.0599999999976717
26,29,489848.74121017,0.0480000000025029
26,30,114777.543972149,0.0349999999998545
27,28,229934.923243155,0.0319999999992433
27,29,5069.4565985511,0.0289999999986321
27,30,20.3381250633326,0.0300000000024738
28,29,349519.936114983,0.0499999999992724
28,30,679171.085311618,0.0489999999990687
29,30,13765.2490663832,0.0460000000020955


"After.Trace.ID","Before.Trace.ID","Difference","Runtime"
1,1,1283840.52605846,0.0529999999998836
1,2,1182879.6199751,0.0399999999972351
1,3,1090085.41450876,0.0490000000027067
1,4,1790252.22723714,0.047999999998865
1,5,2669036.21110539,0.055000000000291
1,6,406455.622697331,0.0620000000017171
1,7,1403493.52813458,0.0509999999994761
1,8,10752.8846080063,0.0309999999990396
1,9,1831373.74649375,0.0499999999992724
1,10,1781526.45092104,0.0590000000011059
1,11,823057.467883456,0.0380000000004657
1,12,944846.454500483,0.0739999999968859
1,13,954979.424550387,0.044000000001688
1,14,1024078.44509893,0.044000000001688
1,15,2032912.743455,0.0759999999972933
1,16,1049911.83923659,0.114000000001397
1,17,3296848.07371885,0.0649999999986903
1,18,20425.5614547741,0.0290000000022701
1,19,549810.921657548,0.0379999999968277
1,20,1209607.81923925,0.044000000001688
1,21,231757.229319495,0.0629999999982829
1,22,505798.284548115,0.0410000000010768
1,23,1994217.49764439,0.0460000000020955
1,24,943552.650898103,0.0599999999976717
1,25,1487449.84368969,0.0499999999992724
1,26,125284.798222047,0.0540000000000873
1,27,1970471.19046501,0.109000000000378
1,28,210737.09748201,0.044000000001688
1,29,422049.801247294,0.0380000000004657
1,30,1254509.51552701,0.0519999999996799
2,1,39063.2658917897,0.0319999999992433
2,2,53710.4902063241,0.0240000000012515
2,3,23956.7358729825,0.0319999999992433
2,4,32829.6989938737,0.022000000000844
2,5,50566.6092725069,0.0239999999976135
2,6,51472.513891404,0.0760000000009313
2,7,41502.3273571613,0.0230000000010477
2,8,1.58008523294147,0.0289999999986321
2,9,12970.7876826664,0.0289999999986321
2,10,12421.1436357369,0.0750000000007276
2,11,29269.1719607449,0.032999999999447
2,12,9126.52216831744,0.0260000000016589
2,13,40879.8033920056,0.0299999999988358
2,14,50826.9057352699,0.0309999999990396
2,15,88109.3401839734,0.0230000000010477
2,16,53889.87493418,0.044000000001688
2,17,46017.3926868964,0.0360000000000582
2,18,11108.4921253996,0.0289999999986321
2,19,77214.8862678051,0.0250000000014552
2,20,65125.206892738,0.0239999999976135
2,21,7469.79569757045,0.0470000000022992
2,22,80150.6028696704,0.0239999999976135
2,23,62212.6412685254,0.0260000000016589
2,24,56329.8698455159,0.0259999999980209
2,25,83941.4403689038,0.0230000000010477
2,26,10435.9828960127,0.044000000001688
2,27,71448.800882342,0.0239999999976135
2,28,6233.8917345588,0.0230000000010477
2,29,75165.4339123242,0.0420000000012806
2,30,46458.1609382241,0.0380000000004657
3,1,17267.2013860571,0.0259999999980209
3,2,16508.6624803736,0.0270000000018626
3,3,14617.2973975988,0.0259999999980209
3,4,19512.0101859409,0.0230000000010477
3,5,13838.181364009,0.0370000000002619
3,6,28159.717694689,0.0400000000008731
3,7,14975.8079330105,0.0249999999978172
3,8,5118.51772485363,0.0390000000006694
3,9,11122.9691372194,0.0380000000004657
3,10,4352.93387469345,0.0339999999996508
3,11,9806.39844710017,0.032999999999447
3,12,14320.7191458923,0.0260000000016589
3,13,7993.76930109358,0.0249999999978172
3,14,23896.9045050107,0.032999999999447
3,15,44594.8254497623,0.0260000000016589
3,16,13419.8823111857,0.0249999999978172
3,17,22059.5707092502,0.0260000000016589
3,18,7811.13774601488,0.0210000000006403
3,19,44120.9103248008,0.0259999999980209
3,20,30303.6001602932,0.0260000000016589
3,21,33023.2112598168,0.0269999999982247
3,22,38775.0943764383,0.0260000000016589
3,23,27356.8140182682,0.0279999999984284
3,24,7046.63593080716,0.032999999999447
3,25,27653.3874437832,0.0400000000008731
3,26,7769.21772538568,0.0270000000018626
3,27,35729.5915930335,0.0259999999980209
3,28,11323.2095790112,0.0390000000006694
3,29,38486.9585602508,0.0250000000014552
3,30,17184.3552912578,0.0249999999978172
4,1,73406.924536992,0.0260000000016589
4,2,71213.752656034,0.021999999997206
4,3,96095.5086797087,0.0260000000016589
4,4,102111.566269091,0.0260000000016589
4,5,99896.5243843778,0.0379999999968277
4,6,85400.6389660721,0.0260000000016589
4,7,93112.2355735896,0.0250000000014552
4,8,724.875469423708,0.0279999999984284
4,9,29149.1359097007,0.0250000000014552
4,10,89.4484421644511,0.0379999999968277
4,11,58178.526430201,0.0320000000028813
4,12,11636.0356614574,0.032999999999447
4,13,97350.9901891949,0.0319999999992433
4,14,85239.7860867611,0.0250000000014552
4,15,113222.146180757,0.0409999999974389
4,16,63755.1320146459,0.0260000000016589
4,17,75539.1241069525,0.0269999999982247
4,18,14602.7527824387,0.0240000000012515
4,19,140089.24850136,0.0420000000012806
4,20,110574.627407225,0.0249999999978172
4,21,14919.3773606516,0.032999999999447
4,22,101470.618232575,0.0250000000014552
4,23,66579.6114279914,0.0259999999980209
4,24,233.038542822216,0.0450000000018917
4,25,74290.8582044591,0.0590000000011059
4,26,434.380198733716,0.0249999999978172
4,27,117514.375609098,0.0260000000016589
4,28,10049.4458368756,0.0269999999982247
4,29,95962.9607629757,0.0230000000010477
4,30,105649.991368809,0.0260000000016589
5,1,93844.6114391762,0.0269999999982247
5,2,73238.9247104587,0.0339999999996508
5,3,109539.393232426,0.0930000000007567
5,4,97155.4032726405,0.0489999999990687
5,5,99541.9484117005,0.0370000000002619
5,6,110752.567898524,0.0400000000008731
5,7,106133.391208602,0.0259999999980209
5,8,6178.34229482471,0.0320000000028813
5,9,43511.7861956413,0.036999999996624
5,10,56447.4597350888,0.0430000000014843
5,11,46118.5758469072,0.0260000000016589
5,12,78944.4000703529,0.0319999999992433
5,13,68537.2453218022,0.0380000000004657
5,14,109111.79973793,0.0309999999990396
5,15,132377.120751072,0.0269999999982247
5,16,102776.960898137,0.0400000000008731
5,17,116495.978981323,0.0319999999992433
5,18,46208.3679072749,0.0450000000018917
5,19,67359.7471944001,0.0390000000006694
5,20,65842.0310625283,0.0560000000004948
5,21,45367.2479800022,0.0500000000029104
5,22,125100.5763776,0.0249999999978172
5,23,113570.872126375,0.0250000000014552
5,24,99354.7615833143,0.0249999999978172
5,25,131567.432351494,0.0260000000016589
5,26,31882.7107348724,0.0269999999982247
5,27,122942.291576139,0.0310000000026776
5,28,19610.6480314705,0.0239999999976135
5,29,99369.2379541714,0.0480000000025029
5,30,91305.2882626762,0.0380000000004657
6,1,47674.6240838667,0.0259999999980209
6,2,91953.1745938033,0.0410000000010768
6,3,50848.7133760559,0.0580000000009022
6,4,40068.1737180332,0.0339999999996508
6,5,52937.1128319418,0.0319999999992433
6,6,107937.450401215,0.058999999997468
6,7,60899.0070359077,0.033000000003085
6,8,3377.53551488049,0.0299999999988358
6,9,16860.5316837605,0.0339999999996508
6,10,33155.94712265,0.0709999999999127
6,11,53395.0771506795,0.0319999999992433
6,12,48442.0886051598,0.0400000000008731
6,13,46515.9762807074,0.0390000000006694
6,14,59095.6868653847,0.0249999999978172
6,15,80320.4334499083,0.033000000003085
6,16,60441.8130727806,0.0489999999990687
6,17,57126.5397218966,0.0269999999982247
6,18,10039.4225973801,0.0260000000016589
6,19,49805.5409510858,0.0580000000009022
6,20,49232.5752048948,0.047999999998865
6,21,23452.8605481173,0.0380000000004657
6,22,71864.7162269969,0.0249999999978172
6,23,51819.1217778675,0.0240000000012515
6,24,47451.5951321961,0.0370000000002619
6,25,65023.0447451728,0.032999999999447
6,26,26910.1684232551,0.0260000000016589
6,27,66998.2920721801,0.0239999999976135
6,28,13035.3491505167,0.0260000000016589
6,29,48994.3700584511,0.0499999999992724
6,30,53036.0459919282,0.0689999999995052
7,1,128964.501234192,0.022000000000844
7,2,152174.949593617,0.0259999999980209
7,3,95007.2873893383,0.0320000000028813
7,4,116800.891073371,0.0299999999988358
7,5,154549.738825279,0.0269999999982247
7,6,143567.148775821,0.0260000000016589
7,7,12709.6075992502,0.0570000000006985
7,8,238.481057815006,0.0259999999980209
7,9,160957.573754039,0.0570000000006985
7,10,24245.4988565056,0.0370000000002619
7,11,159312.548527205,0.022000000000844
7,12,9417.28900229322,0.0509999999994761
7,13,116420.180301369,0.032999999999447
7,14,153739.630842837,0.0319999999992433
7,15,42545.9671080955,0.0420000000012806
7,16,48822.7282102005,0.04399999999805
7,17,156399.499888207,0.0390000000006694
7,18,11420.6354550984,0.0240000000012515
7,19,165222.657841205,0.0309999999990396
7,20,129670.743958345,0.0370000000002619
7,21,24759.031834861,0.0249999999978172
7,22,149754.194576311,0.0270000000018626
7,23,75684.9219771153,0.0250000000014552
7,24,103396.288555359,0.032999999999447
7,25,99476.8248020167,0.0259999999980209
7,26,5269.1712581237,0.0430000000014843
7,27,143808.870244628,0.0309999999990396
7,28,1178.73268882535,0.032999999999447
7,29,145784.621145354,0.0250000000014552
7,30,79232.772769331,0.0259999999980209
8,1,43294.2751487381,0.0370000000002619
8,2,71570.2884955628,0.0300000000024738
8,3,96776.9983441883,0.0289999999986321
8,4,81546.2380733984,0.0299999999988358
8,5,72356.342620717,0.0300000000024738
8,6,89136.9711746036,0.0469999999986612
8,7,77759.2948485214,0.0289999999986321
8,8,31.9214713851267,0.044000000001688
8,9,22161.6617144484,0.0289999999986321
8,10,24551.516095976,0.0289999999986321
8,11,59694.8012858365,0.0370000000002619
8,12,46246.9540157552,0.0370000000002619
8,13,42235.9238420641,0.0450000000018917
8,14,83956.0192855805,0.0299999999988358
8,15,110673.873026282,0.0299999999988358
8,16,45798.9900891398,0.0430000000014843
8,17,85101.8440623364,0.0299999999988358
8,18,37862.2034398185,0.0280000000020664
8,19,112223.912337279,0.0299999999988358
8,20,81156.8957218731,0.0360000000000582
8,21,19432.6632357149,0.055000000000291
8,22,96711.3418306575,0.0560000000004948
8,23,83911.149803844,0.0319999999992433
8,24,54527.9370412004,0.0309999999990396
8,25,87689.056980234,0.0370000000002619
8,26,7884.26239505439,0.0370000000002619
8,27,85546.619431582,0.0360000000000582
8,28,30453.1817157711,0.0290000000022701
8,29,87657.6966249166,0.0459999999984575
8,30,91403.7297617624,0.0299999999988358
9,1,84080.5837706264,0.0370000000002619
9,2,119856.671469716,0.0390000000006694
9,3,153244.864007475,0.153999999998632
9,4,87006.7795156587,0.0250000000014552
9,5,122590.534665536,0.0299999999988358
9,6,113510.280302497,0.0420000000012806
9,7,130416.692111848,0.0390000000006694
9,8,357.539945448438,0.0449999999982538
9,9,95738.5529539659,0.032999999999447
9,10,55677.2411053218,0.0339999999996508
9,11,47794.1472475406,0.0630000000019209
9,12,68946.0292192666,0.0370000000002619
9,13,79106.464728619,0.0309999999990396
9,14,119480.878163496,0.0370000000002619
9,15,29880.3823315578,0.0250000000014552
9,16,118423.71456188,0.0249999999978172
9,17,116781.649849757,0.0210000000006403
9,18,21355.1777418424,0.0380000000004657
9,19,102033.464379824,0.0390000000006694
9,20,110678.564404454,0.0279999999984284
9,21,42690.7064008833,0.0250000000014552
9,22,104224.672494626,0.0319999999992433
9,23,71729.1452533381,0.022000000000844
9,24,48309.5246476583,0.0309999999990396
9,25,89605.0123221709,0.0319999999992433
9,26,4977.78704820732,0.032999999999447
9,27,133628.963981089,0.0280000000020664
9,28,11402.3261865007,0.0609999999978754
9,29,165486.352505259,0.0380000000004657
9,30,73584.4324381064,0.0240000000012515
10,1,92192.4905546565,0.0319999999992433
10,2,76073.1095425263,0.0629999999982829
10,3,52478.7915589105,0.136000000002241
10,4,41640.1628544119,0.047999999998865
10,5,93359.7194270365,0.0240000000012515
10,6,89829.6777628649,0.0509999999994761
10,7,123207.861811339,0.032999999999447
10,8,764.128919501849,0.047999999998865
10,9,63773.5268364213,0.0400000000008731
10,10,61750.6402805564,0.0380000000004657
10,11,75242.0085183008,0.0580000000009022
10,12,82161.1926055656,0.0269999999982247
10,13,62223.3457849811,0.0370000000002619
10,14,95348.9201423823,0.0309999999990396
10,15,47356.9742253608,0.0540000000000873
10,16,106072.216446933,0.0529999999998836
10,17,87008.0352851698,0.0529999999998836
10,18,6103.07114549903,0.0460000000020955
10,19,141927.942572409,0.0259999999980209
10,20,64584.608297197,0.0400000000008731
10,21,3794.98897454221,0.0380000000004657
10,22,73151.1986181838,0.0420000000012806
10,23,100275.394210366,0.0389999999970314
10,24,86769.8119091102,0.0390000000006694
10,25,127807.198623201,0.0319999999992433
10,26,11829.4739841434,0.033000000003085
10,27,115266.216244755,0.0469999999986612
10,28,11071.6012308074,0.0260000000016589
10,29,106799.078078467,0.0309999999990396
10,30,114626.356667028,0.0239999999976135
11,1,51494.6978939311,0.0360000000000582
11,2,66082.974071116,0.0380000000004657
11,3,33580.5864254561,0.0310000000026776
11,4,61667.2698521621,0.0399999999972351
11,5,70781.4503128647,0.0290000000022701
11,6,73681.4717202568,0.0360000000000582
11,7,68671.0853276018,0.0249999999978172
11,8,692.170910343738,0.0300000000024738
11,9,50246.7405975053,0.021999999997206
11,10,84604.6047563305,0.0250000000014552
11,11,79859.5175409888,0.0240000000012515
11,12,47913.8219656161,0.0309999999990396
11,13,89348.3854364512,0.0380000000004657
11,14,52805.3683097686,0.032999999999447
11,15,46861.8868667046,0.0309999999990396
11,16,131050.174825611,0.047999999998865
11,17,70701.0578991917,0.0310000000026776
11,18,11630.0792541537,0.0429999999978463
11,19,47322.7705393758,0.032999999999447
11,20,52634.411368287,0.0240000000012515
11,21,14977.505245155,0.0250000000014552
11,22,50867.0366413444,0.0309999999990396
11,23,87263.5882654006,0.0319999999992433
11,24,58041.9521665262,0.0250000000014552
11,25,62102.726363878,0.0239999999976135
11,26,36568.8747910082,0.0260000000016589
11,27,69009.9330156962,0.0299999999988358
11,28,37520.4102982276,0.0240000000012515
11,29,62346.7393441348,0.0469999999986612
11,30,68103.30477528,0.0250000000014552
12,1,223979.609570448,0.0299999999988358
12,2,235152.828795194,0.0349999999998545
12,3,99789.1585694161,0.0460000000020955
12,4,322704.841678828,0.0389999999970314
12,5,323179.172951343,0.0310000000026776
12,6,160892.246316905,0.0399999999972351
12,7,345198.419251627,0.0380000000004657
12,8,2372.05450385571,0.0420000000012806
12,9,236682.540694103,0.0339999999996508
12,10,503640.242290837,0.0420000000012806
12,11,171213.514251775,0.0399999999972351
12,12,159577.405462766,0.0410000000010768
12,13,192122.273240333,0.0630000000019209
12,14,268251.977380445,0.0309999999990396
12,15,195289.148030131,0.0339999999996508
12,16,247336.264897395,0.0370000000002619
12,17,328779.323312466,0.0429999999978463
12,18,35931.7901029066,0.0280000000020664
12,19,207159.756766036,0.047999999998865
12,20,214451.404602734,0.0309999999990396
12,21,12125.3576416776,0.0320000000028813
12,22,234434.897298222,0.0319999999992433
12,23,297307.832400039,0.0309999999990396
12,24,146899.816916547,0.0430000000014843
12,25,264164.521995324,0.0309999999990396
12,26,12923.4328343296,0.0419999999976426
12,27,232769.769323412,0.044000000001688
12,28,36009.2477554695,0.0390000000006694
12,29,109346.315071505,0.0390000000006694
12,30,335153.702956689,0.0320000000028813
13,1,181041.159608921,0.0370000000002619
13,2,177755.523179575,0.04399999999805
13,3,303543.777909865,0.044000000001688
13,4,170209.323556229,0.0499999999992724
13,5,223396.703878259,0.0309999999990396
13,6,120521.972548511,0.0430000000014843
13,7,155578.836155885,0.0459999999984575
13,8,7051.68338715072,0.0430000000014843
13,9,212429.371854141,0.0349999999998545
13,10,301426.713312842,0.0730000000003201
13,11,178351.61680781,0.0379999999968277
13,12,126894.504307094,0.0360000000000582
13,13,151688.141560149,0.0430000000014843
13,14,162598.687999858,0.0450000000018917
13,15,174635.545229881,0.0279999999984284
13,16,241830.191365918,0.0410000000010768
13,17,228220.659573961,0.0269999999982247
13,18,11793.6909697513,0.0469999999986612
13,19,103914.284870923,0.033000000003085
13,20,103060.820688893,0.0299999999988358
13,21,23658.3687493139,0.032999999999447
13,22,168688.753946511,0.0370000000002619
13,23,201104.964733192,0.0299999999988358
13,24,100744.047060018,0.044000000001688
13,25,137541.965671967,0.0289999999986321
13,26,18511.6490298738,0.0400000000008731
13,27,206007.088536942,0.04399999999805
13,28,34793.1274659949,0.0310000000026776
13,29,120405.22626348,0.0370000000002619
13,30,159673.767657668,0.0259999999980209
14,1,102286.538797753,0.0600000000013097
14,2,76967.2948756456,0.0309999999990396
14,3,316809.063491878,0.147000000000844
14,4,81569.6293761459,0.0309999999990396
14,5,87795.2545967023,0.0309999999990396
14,6,106985.078718289,0.055000000000291
14,7,77997.1778064125,0.0300000000024738
14,8,869.363783552155,0.0419999999976426
14,9,92782.3349896191,0.0349999999998545
14,10,119954.380046482,0.0290000000022701
14,11,91856.3501833456,0.032999999999447
14,12,68589.1402644973,0.0319999999992433
14,13,59327.1489629912,0.0629999999982829
14,14,80423.7130836694,0.0310000000026776
14,15,131030.657952764,0.0309999999990396
14,16,123704.172071668,0.0509999999994761
14,17,90751.2345682548,0.0469999999986612
14,18,18752.1945028672,0.044000000001688
14,19,104594.129716079,0.0299999999988358
14,20,83903.4454007029,0.0310000000026776
14,21,45844.7365539931,0.0319999999992433
14,22,108423.986294457,0.0360000000000582
14,23,95567.4837467349,0.04399999999805
14,24,79556.6791561038,0.0400000000008731
14,25,110099.422734453,0.0309999999990396
14,26,17584.9692338663,0.0509999999994761
14,27,99257.2257017885,0.0450000000018917
14,28,30118.4016148911,0.0380000000004657
14,29,99916.2098584913,0.0390000000006694
14,30,89747.6643736151,0.0319999999992433
15,1,448575.545680229,0.0339999999996508
15,2,409190.075732411,0.0279999999984284
15,3,212840.676834393,0.0339999999996508
15,4,359256.926674436,0.033000000003085
15,5,436605.829663537,0.0319999999992433
15,6,307192.108862132,0.0319999999992433
15,7,324579.241524533,0.0390000000006694
15,8,2252.66354723037,0.0419999999976426
15,9,457253.561708342,0.044000000001688
15,10,298292.320085459,0.0319999999992433
15,11,337266.968550076,0.0390000000006694
15,12,370888.339435653,0.0469999999986612
15,13,276708.627151432,0.0370000000002619
15,14,313121.745728657,0.0309999999990396
15,15,319183.459622221,0.0350000000034925
15,16,318292.895519249,0.0320000000028813
15,17,411403.092954303,0.0319999999992433
15,18,15393.3520416493,0.0299999999988358
15,19,387237.581315528,0.0309999999990396
15,20,335939.706501334,0.066000000002532
15,21,55955.7117236416,0.0499999999992724
15,22,345881.47505685,0.0309999999990396
15,23,278216.850865157,0.0400000000008731
15,24,215310.46222946,0.0370000000002619
15,25,263048.051645195,0.0570000000006985
15,26,12188.7862633845,0.0459999999984575
15,27,433236.046757518,0.0309999999990396
15,28,16600.6227359502,0.0310000000026776
15,29,341153.866730671,0.0390000000006694
15,30,345162.547553819,0.0319999999992433
16,1,33104.0647465931,0.0469999999986612
16,2,115547.290657024,0.0309999999990396
16,3,74733.499647083,0.0450000000018917
16,4,84421.1643219356,0.0469999999986612
16,5,114208.774569723,0.032999999999447
16,6,114438.970896256,0.0300000000024738
16,7,121937.516889066,0.0319999999992433
16,8,3765.87460059713,0.0230000000010477
16,9,117509.959484039,0.0229999999974098
16,10,34011.4112738158,0.0260000000016589
16,11,115473.470386654,0.0239999999976135
16,12,109020.250445881,0.0390000000006694
16,13,83919.4106748202,0.0270000000018626
16,14,120277.306087462,0.0309999999990396
16,15,27501.5216706276,0.0250000000014552
16,16,103678.071391096,0.0299999999988358
16,17,115686.011005932,0.0240000000012515
16,18,51836.5620652424,0.0209999999970023
16,19,98167.5737730399,0.0260000000016589
16,20,96339.7323594264,0.0250000000014552
16,21,27062.8873573587,0.0260000000016589
16,22,123225.947796612,0.0319999999992433
16,23,60602.5862470084,0.0620000000017171
16,24,45496.1523999911,0.032999999999447
16,25,81373.4442832023,0.0249999999978172
16,26,13732.2502643682,0.0250000000014552
16,27,123347.68093037,0.0360000000000582
16,28,25582.1178247193,0.0299999999988358
16,29,114339.797558565,0.0410000000010768
16,30,63462.6995460314,0.0230000000010477
17,1,10955.0456001556,0.0390000000006694
17,2,41541.1510584903,0.0370000000002619
17,3,50662.9506973113,0.0309999999990396
17,4,121666.613714443,0.0380000000004657
17,5,39372.4005681391,0.0370000000002619
17,6,124841.131959714,0.0229999999974098
17,7,76422.4813794801,0.0310000000026776
17,8,7493.14094859903,0.0199999999967986
17,9,72497.6469212611,0.0300000000024738
17,10,116935.064142985,0.0309999999990396
17,11,78774.3939185879,0.0240000000012515
17,12,27157.165490766,0.0459999999984575
17,13,112353.067348817,0.0370000000002619
17,14,44814.4821825847,0.0390000000006694
17,15,15387.4285819347,0.0319999999992433
17,16,53675.9062658667,0.0449999999982538
17,17,142714.67398287,0.0370000000002619
17,18,46899.4696229046,0.0300000000024738
17,19,45912.6443024754,0.0249999999978172
17,20,33737.3035287342,0.0410000000010768
17,21,59504.4956973258,0.0360000000000582
17,22,82940.3128818942,0.032999999999447
17,23,32238.6324060555,0.0309999999990396
17,24,26501.5343532852,0.0310000000026776
17,25,38871.9330504464,0.021999999997206
17,26,1221.35569510662,0.0340000000032887
17,27,111015.844058,0.0420000000012806
17,28,35312.9518979662,0.0240000000012515
17,29,117104.322248985,0.0239999999976135
17,30,8739.26043027654,0.0290000000022701
18,1,44202.6784126842,0.0360000000000582
18,2,72854.1919624163,0.0229999999974098
18,3,89287.1221214585,0.0290000000022701
18,4,113659.792892806,0.0259999999980209
18,5,83504.0279837407,0.0260000000016589
18,6,122673.044399501,0.0249999999978172
18,7,96115.0090974714,0.0250000000014552
18,8,28170.2630095729,0.0420000000012806
18,9,33826.7085217027,0.0249999999978172
18,10,49188.8224599695,0.0250000000014552
18,11,69843.3676764723,0.0230000000010477
18,12,8262.87669332793,0.0419999999976426
18,13,110158.583760057,0.0370000000002619
18,14,96545.8395845591,0.0250000000014552
18,15,140528.620326926,0.0249999999978172
18,16,68627.9411708938,0.0240000000012515
18,17,96599.648695362,0.0420000000012806
18,18,47890.5857177475,0.0229999999974098
18,19,134786.540743264,0.032999999999447
18,20,107892.342257891,0.0270000000018626
18,21,36724.5387619491,0.0230000000010477
18,22,137192.211085544,0.032999999999447
18,23,112919.359773104,0.0360000000000582
18,24,55727.142363158,0.0229999999974098
18,25,86969.8958725927,0.0670000000027358
18,26,4357.09562724634,0.0239999999976135
18,27,111931.561918067,0.0320000000028813
18,28,40617.6345726141,0.0360000000000582
18,29,130910.965555962,0.022000000000844
18,30,105739.12842127,0.0260000000016589
19,1,49506.4748813975,0.0249999999978172
19,2,128674.304500414,0.0240000000012515
19,3,139215.637707884,0.0260000000016589
19,4,152701.07030451,0.021999999997206
19,5,147677.748383271,0.0270000000018626
19,6,141170.219536316,0.0249999999978172
19,7,65435.3898844425,0.0240000000012515
19,8,1570.74750154307,0.0519999999996799
19,9,136403.77841392,0.0260000000016589
19,10,109815.711095466,0.0540000000000873
19,11,155940.890025683,0.0239999999976135
19,12,949.084317835858,0.0370000000002619
19,13,101621.699076451,0.0250000000014552
19,14,3.03958605053318,0.0509999999994761
19,15,5569.98194699805,0.0309999999990396
19,16,27906.0578341468,0.0319999999992433
19,17,177583.110724735,0.0319999999992433
19,18,1842.77044863,0.022000000000844
19,19,25246.5930459458,0.0240000000012515
19,20,62051.765108109,0.0240000000012515
19,21,27299.2950631621,0.0249999999978172
19,22,41702.49683775,0.0250000000014552
19,23,42308.3987551437,0.022000000000844
19,24,33707.0429202699,0.032999999999447
19,25,141127.50688396,0.055000000000291
19,26,2214.3979054677,0.0299999999988358
19,27,68913.3130845595,0.0240000000012515
19,28,9300.22418308546,0.0360000000000582
19,29,137882.855887878,0.0240000000012515
19,30,12750.0466725686,0.0250000000014552
20,1,115440.21347525,0.0390000000006694
20,2,110012.143806187,0.0240000000012515
20,3,95129.8849051515,0.032999999999447
20,4,109700.880360946,0.0250000000014552
20,5,110451.128897856,0.0259999999980209
20,6,137802.183785985,0.0380000000004657
20,7,97078.9007939719,0.032999999999447
20,8,626.656180581147,0.033000000003085
20,9,107767.872702702,0.0459999999984575
20,10,49851.8474681663,0.022000000000844
20,11,99281.7917689242,0.032999999999447
20,12,78557.2303615229,0.0430000000014843
20,13,102405.149566467,0.0349999999998545
20,14,108656.911531395,0.0339999999996508
20,15,157686.456005729,0.0259999999980209
20,16,112483.176866423,0.0349999999998545
20,17,101490.336169879,0.0339999999996508
20,18,16778.8261648683,0.0370000000002619
20,19,146523.932116598,0.0319999999992433
20,20,109277.229253944,0.0430000000014843
20,21,29253.2085560307,0.0260000000016589
20,22,91870.8449328641,0.0469999999986612
20,23,132267.130056464,0.0309999999990396
20,24,96019.2679763287,0.0339999999996508
20,25,158922.56536278,0.0620000000017171
20,26,11835.8393966536,0.0259999999980209
20,27,135941.820201386,0.0310000000026776
20,28,36309.2962809299,0.0259999999980209
20,29,140993.468014152,0.0260000000016589
20,30,108659.304772522,0.0389999999970314
21,1,138637.367025121,0.0349999999998545
21,2,121544.995200125,0.066000000002532
21,3,238404.317110497,0.0449999999982538
21,4,113906.505182213,0.0360000000000582
21,5,157368.729300484,0.0290000000022701
21,6,87753.7885682059,0.0360000000000582
21,7,128820.894960563,0.0309999999990396
21,8,36824.4498674401,0.0349999999998545
21,9,99641.3743280336,0.0429999999978463
21,10,196098.547575914,0.0300000000024738
21,11,112161.451586995,0.0429999999978463
21,12,74612.0627847995,0.0360000000000582
21,13,108513.159810443,0.0570000000006985
21,14,102480.115366445,0.0360000000000582
21,15,139702.694789682,0.0380000000004657
21,16,152258.776965877,0.0449999999982538
21,17,158039.784904259,0.0470000000022992
21,18,24625.3107876651,0.0349999999998545
21,19,85834.6653846647,0.0299999999988358
21,20,90544.8045645087,0.0309999999990396
21,21,35690.3882231365,0.0340000000032887
21,22,90853.6839380406,0.0319999999992433
21,23,140983.545397535,0.0360000000000582
21,24,91327.8548650807,0.0370000000002619
21,25,92965.8401971128,0.04399999999805
21,26,29041.6662926051,0.0319999999992433
21,27,131328.652238856,0.0470000000022992
21,28,21005.6933264339,0.0449999999982538
21,29,97349.2624992743,0.0370000000002619
21,30,152199.474037996,0.0349999999998545
22,1,64010.5933557106,0.0380000000004657
22,2,91390.7673729833,0.0260000000016589
22,3,104556.518769047,0.0259999999980209
22,4,100734.137491612,0.0260000000016589
22,5,89210.2505828387,0.0269999999982247
22,6,116488.721892336,0.032999999999447
22,7,100872.023603259,0.0270000000018626
22,8,8.18153423565608,0.0309999999990396
22,9,18739.8328051843,0.0390000000006694
22,10,61007.5417658329,0.0249999999978172
22,11,68085.1247675789,0.0260000000016589
22,12,1175.51108729646,0.0430000000014843
22,13,57393.4755229181,0.0249999999978172
22,14,112064.998754738,0.0270000000018626
22,15,131437.933188326,0.0269999999982247
22,16,65503.1574954316,0.0230000000010477
22,17,112948.864771657,0.0360000000000582
22,18,59372.7118923202,0.0319999999992433
22,19,136424.658185908,0.022000000000844
22,20,98716.6534585346,0.0370000000002619
22,21,35718.4828510747,0.0229999999974098
22,22,126286.512559902,0.0270000000018626
22,23,106816.036590223,0.0259999999980209
22,24,68183.6315221805,0.0340000000032887
22,25,116387.660285413,0.04399999999805
22,26,15748.6336394376,0.0240000000012515
22,27,106514.608941405,0.0499999999992724
22,28,24525.2990986324,0.0410000000010768
22,29,107159.24912769,0.0259999999980209
22,30,117573.657678674,0.0339999999996508
23,1,144589.96552989,0.0250000000014552
23,2,120271.314741052,0.0400000000008731
23,3,238232.289019421,0.151999999998225
23,4,136317.632989792,0.0469999999986612
23,5,142380.465821297,0.0300000000024738
23,6,167126.255456865,0.0289999999986321
23,7,134474.88286524,0.055000000000291
23,8,8792.60413267501,0.0370000000002619
23,9,126118.80679782,0.0430000000014843
23,10,116773.721791954,0.0249999999978172
23,11,154575.089888742,0.0400000000008731
23,12,131906.601981805,0.0260000000016589
23,13,121817.672755554,0.0389999999970314
23,14,161626.664665793,0.0339999999996508
23,15,139177.950081629,0.0190000000002328
23,16,127578.532542679,0.0250000000014552
23,17,166902.294099283,0.0319999999992433
23,18,12932.3555712017,0.0610000000015134
23,19,189425.281434516,0.0319999999992433
23,20,154481.14689785,0.0250000000014552
23,21,13302.6940736632,0.0309999999990396
23,22,177649.758739995,0.0449999999982538
23,23,159866.676048584,0.0270000000018626
23,24,104072.981596224,0.0410000000010768
23,25,136602.900052795,0.0499999999992724
23,26,4687.14825997198,0.0429999999978463
23,27,140060.407264311,0.0519999999996799
23,28,32961.0927073759,0.0270000000018626
23,29,175699.380565944,0.0469999999986612
23,30,121729.857590515,0.0370000000002619
24,1,116367.393344214,0.0469999999986612
24,2,119040.549401068,0.0370000000002619
24,3,89046.2717787733,0.066000000002532
24,4,189725.684817178,0.0370000000002619
24,5,130027.02432842,0.0599999999976717
24,6,127294.881533846,0.0400000000008731
24,7,157914.690598044,0.0380000000004657
24,8,9802.0673525411,0.0299999999988358
24,9,114800.333587489,0.0709999999999127
24,10,134943.973047814,0.044000000001688
24,11,134897.241038168,0.0409999999974389
24,12,87666.1325875019,0.0540000000000873
24,13,123310.530989021,0.0230000000010477
24,14,118667.017130489,0.0570000000006985
24,15,190007.825553195,0.0239999999976135
24,16,172163.223631428,0.0530000000035216
24,17,166904.0651737,0.0529999999998836
24,18,15145.9324236195,0.0419999999976426
24,19,194081.008593052,0.0240000000012515
24,20,156400.024273654,0.032999999999447
24,21,16018.2583477269,0.0309999999990396
24,22,116742.085140807,0.0470000000022992
24,23,167060.001058096,0.021999999997206
24,24,133860.961560276,0.0320000000028813
24,25,123157.995780331,0.047999999998865
24,26,2338.80751020335,0.0349999999998545
24,27,132139.856308259,0.0339999999996508
24,28,10686.102704738,0.0250000000014552
24,29,184376.866165943,0.0399999999972351
24,30,172994.186846111,0.0260000000016589
25,1,115683.874007256,0.0449999999982538
25,2,147282.789639979,0.0300000000024738
25,3,120897.431805328,0.0390000000006694
25,4,115574.457589789,0.0379999999968277
25,5,170505.938375306,0.0360000000000582
25,6,140066.645520452,0.0260000000016589
25,7,136216.732874333,0.0360000000000582
25,8,852.396834842015,0.0319999999992433
25,9,101122.124292547,0.0309999999990396
25,10,82175.5044418311,0.0400000000008731
25,11,78237.7061542101,0.0499999999992724
25,12,93101.0431620697,0.0400000000008731
25,13,114414.857474756,0.0410000000010768
25,14,142785.829246899,0.04399999999805
25,15,61762.9700522676,0.0250000000014552
25,16,159032.443819372,0.0370000000002619
25,17,159605.1157111,0.0400000000008731
25,18,11686.3218722105,0.0469999999986612
25,19,101077.211995288,0.0319999999992433
25,20,132787.089354078,0.0400000000008731
25,21,30055.4168612038,0.0309999999990396
25,22,124665.819957656,0.022000000000844
25,23,134046.30006019,0.0249999999978172
25,24,120455.014745461,0.0300000000024738
25,25,143521.651848442,0.0249999999978172
25,26,2755.54493965202,0.0300000000024738
25,27,152032.680928983,0.0370000000002619
25,28,12255.7593336341,0.0239999999976135
25,29,132211.182840884,0.0310000000026776
25,30,90934.0552473687,0.0360000000000582
26,1,124304.99155688,0.0309999999990396
26,2,102028.514003932,0.0239999999976135
26,3,34275.3717646573,0.0250000000014552
26,4,101680.587046938,0.032999999999447
26,5,37214.919326232,0.0319999999992433
26,6,137333.114330692,0.0250000000014552
26,7,117365.707872132,0.0230000000010477
26,8,2396.78057067027,0.0229999999974098
26,9,40023.1676784882,0.0250000000014552
26,10,89423.1002408133,0.0420000000012806
26,11,93118.7717697393,0.0259999999980209
26,12,74520.3046848339,0.0370000000002619
26,13,77202.0879982465,0.0260000000016589
26,14,110995.744949382,0.0259999999980209
26,15,17457.6050086129,0.0390000000006694
26,16,34396.3417589735,0.0390000000006694
26,17,103440.08743716,0.0309999999990396
26,18,30755.9851814177,0.0210000000006403
26,19,51101.4391185116,0.0319999999992433
26,20,43025.52731544,0.0240000000012515
26,21,15172.0974636808,0.0249999999978172
26,22,154937.628606451,0.044000000001688
26,23,131512.436769931,0.0289999999986321
26,24,49508.6316649571,0.0540000000000873
26,25,159681.327571507,0.0250000000014552
26,26,595.742403211714,0.0370000000002619
26,27,125855.286029616,0.0339999999996508
26,28,29821.3877368088,0.0259999999980209
26,29,146743.232953451,0.0370000000002619
26,30,107915.535271947,0.0240000000012515
27,1,100355.073969155,0.032999999999447
27,2,95442.4324933475,0.0260000000016589
27,3,96913.622216852,0.032999999999447
27,4,101757.112124083,0.0249999999978172
27,5,98318.7289603337,0.0260000000016589
27,6,117377.647176061,0.0400000000008731
27,7,78114.4717560617,0.0339999999996508
27,8,1691.96633572721,0.0229999999974098
27,9,543.718563210463,0.0430000000014843
27,10,15742.1713779704,0.0469999999986612
27,11,59523.1085719699,0.0320000000028813
27,12,2068.71995346038,0.032999999999447
27,13,62140.175522802,0.0529999999998836
27,14,105400.876508714,0.0269999999982247
27,15,128593.73174728,0.0319999999992433
27,16,87270.1366366134,0.0430000000014843
27,17,98235.7555015131,0.032999999999447
27,18,25947.509763229,0.0240000000012515
27,19,142035.5419319,0.0259999999980209
27,20,91923.5844429316,0.0260000000016589
27,21,13074.8338065661,0.032999999999447
27,22,116083.383612683,0.0230000000010477
27,23,92807.9455338327,0.0249999999978172
27,24,72505.3306521006,0.0340000000032887
27,25,121102.147948542,0.032999999999447
27,26,2029.9122313956,0.0370000000002619
27,27,102858.600594536,0.0540000000000873
27,28,42655.5234460369,0.0259999999980209
27,29,112249.991904915,0.0260000000016589
27,30,101201.943621354,0.0249999999978172
28,1,117843.211811583,0.0310000000026776
28,2,79447.275713833,0.04399999999805
28,3,76970.9562283197,0.077000000001135
28,4,150795.959165807,0.0360000000000582
28,5,116829.41529252,0.0319999999992433
28,6,28.010126452724,0.0309999999990396
28,7,105109.383578583,0.0420000000012806
28,8,3010.43473817936,0.022000000000844
28,9,76866.1295999635,0.0239999999976135
28,10,46273.9702942507,0.0420000000012806
28,11,68803.383180742,0.0360000000000582
28,12,75077.3879178056,0.0370000000002619
28,13,106827.128544187,0.0420000000012806
28,14,112972.854137502,0.0449999999982538
28,15,53576.9615673373,0.0250000000014552
28,16,131491.550250879,0.0399999999972351
28,17,0.209850324288508,0.0250000000014552
28,18,21141.0675524818,0.0230000000010477
28,19,74109.2938741716,0.0299999999988358
28,20,63424.861276207,0.0309999999990396
28,21,23741.8408133025,0.0300000000024738
28,22,75190.2401617143,0.0469999999986612
28,23,119604.88524434,0.0309999999990396
28,24,99250.4985907599,0.0390000000006694
28,25,100779.119683134,0.0250000000014552
28,26,32953.9297238561,0.0259999999980209
28,27,109489.292428872,0.0370000000002619
28,28,17061.0593835927,0.0250000000014552
28,29,0.870672433362512,0.0259999999980209
28,30,119736.854123258,0.0250000000014552
29,1,42883.0272998425,0.0239999999976135
29,2,54288.192816244,0.0320000000028813
29,3,46956.9023242084,0.0309999999990396
29,4,48999.5791451412,0.0459999999984575
29,5,59964.1756915712,0.0590000000011059
29,6,100521.81819341,0.0449999999982538
29,7,101664.220713186,0.0390000000006694
29,8,5363.96934853022,0.0410000000010768
29,9,65626.0041310698,0.0489999999990687
29,10,63159.7285113685,0.044000000001688
29,11,41051.2762326811,0.022000000000844
29,12,37260.7879684559,0.032999999999447
29,13,50414.1353575299,0.0469999999986612
29,14,48205.4519601288,0.0319999999992433
29,15,56076.6580448464,0.0250000000014552
29,16,85143.7367802145,0.0390000000006694
29,17,66827.3828912427,0.0249999999978172
29,18,16909.8697140028,0.0240000000012515
29,19,44074.5550962758,0.0360000000000582
29,20,43617.3945383629,0.0269999999982247
29,21,34519.7215277853,0.0390000000006694
29,22,43269.7708881395,0.0319999999992433
29,23,70149.7285494592,0.0510000000031141
29,24,41263.4692883852,0.0259999999980209
29,25,49067.8208928084,0.0349999999998545
29,26,33239.7023492391,0.0250000000014552
29,27,65079.6714262754,0.0209999999970023
29,28,38362.1938720349,0.0320000000028813
29,29,64803.5698260056,0.047999999998865
29,30,73435.7952868679,0.0390000000006694
30,1,6828.42864499964,0.0419999999976426
30,2,63246.9671204261,0.0370000000002619
30,3,61781.6827457838,0.0260000000016589
30,4,1.28635582110384,0.0279999999984284
30,5,64435.8259564804,0.0230000000010477
30,6,60796.3955434959,0.0400000000008731
30,7,72987.2620484976,0.0229999999974098
30,8,18666.8520699299,0.0410000000010768
30,9,14174.9393892252,0.0319999999992433
30,10,22569.1661774288,0.0250000000014552
30,11,58591.2374304484,0.0410000000010768
30,12,53644.3531129901,0.0259999999980209
30,13,58733.8938435135,0.0319999999992433
30,14,66806.509001229,0.0380000000004657
30,15,92800.99576081,0.0250000000014552
30,16,64723.9094174362,0.0380000000004657
30,17,64539.7028151289,0.032999999999447
30,18,53962.569300999,0.0249999999978172
30,19,59650.919066047,0.0320000000028813
30,20,70870.9747337644,0.058999999997468
30,21,37824.6872605205,0.0270000000018626
30,22,53978.3171086874,0.0560000000004948
30,23,59551.0800560829,0.032999999999447
30,24,36023.6125483833,0.032999999999447
30,25,85001.1814600996,0.0269999999982247
30,26,26084.493175265,0.033000000003085
30,27,76661.9934776552,0.021999999997206
30,28,49908.82744312,0.0260000000016589
30,29,61638.8725032625,0.0469999999986612
30,30,79467.8097969916,0.0250000000014552
